%
% index = 3811, name = bbob_f013_i03_d20__bbob_f013_i05_d20
% instance = 2, reference value = 5.629485709547660e-01
% function evaluation | indicator value | target hit
1	5.412947224412850e-01	5.495408738576245e-01
3123	5.412947224412850e-01	5.495408738576245e-01
%
% index = 3815, name = bbob_f013_i13_d20__bbob_f013_i14_d20
% instance = 6, reference value = 6.101585344358780e-01
% function evaluation | indicator value | target hit
1	4.487660964692457e-01	4.570881896148750e-01
3111	4.487660964692457e-01	4.570881896148750e-01
%
% index = 3819, name = bbob_f013_i21_d20__bbob_f013_i22_d20
% instance = 10, reference value = 6.021940586926510e-01
% function evaluation | indicator value | target hit
1	5.097176030001926e-01	5.128613839913648e-01
3139	5.097176030001926e-01	5.128613839913648e-01
%
% index = 3823, name = bbob_f013_i29_d20__bbob_f013_i30_d20
% instance = 14, reference value = 1.000000000000000e+00
% function evaluation | indicator value | target hit
1	9.777314690451133e-01	1.000000000000000e+00
3083	9.777314690451133e-01	1.000000000000000e+00
