%
% index = 1817, name = bbob_f002_i07_d05__bbob_f006_i08_d05
% instance = 3, reference value = 9.473694335531710e-01
% function evaluation | indicator value | target hit
1	8.212797733684942e+00	8.317637711026711e+00
3079	8.212797733684942e+00	8.317637711026711e+00
%
% index = 1821, name = bbob_f002_i15_d05__bbob_f006_i16_d05
% instance = 7, reference value = 9.697319230381450e-01
% function evaluation | indicator value | target hit
1	7.432106902492639e-01	7.585775750291838e-01
1698	7.345566745479086e-01	7.413102413009175e-01
2330	7.242629176982587e-01	7.244359600749900e-01
2339	6.781807208474491e-01	6.918309709189365e-01
2498	6.755997667923520e-01	6.760829753919817e-01
2686	6.528694537066811e-01	6.606934480075960e-01
2738	6.156284377770394e-01	6.165950018614822e-01
3111	6.156284377770394e-01	6.165950018614822e-01
%
% index = 1825, name = bbob_f002_i23_d05__bbob_f006_i24_d05
% instance = 11, reference value = 1.000000000000000e+00
% function evaluation | indicator value | target hit
1	9.350191795922167e-01	9.549925860214360e-01
703	7.303911836824299e-01	7.413102413009175e-01
2586	6.972089716936590e-01	7.079457843841379e-01
2639	6.014241601302233e-01	6.025595860743578e-01
2891	4.550617396815121e-01	4.570881896148750e-01
3007	4.284171423701700e-01	4.365158322401660e-01
3014	4.168337405578015e-01	4.168693834703354e-01
3095	3.476363304122903e-01	3.548133892335755e-01
3122	3.420861933651094e-01	3.467368504525316e-01
3131	2.810969795792393e-01	2.818382931264454e-01
3134	2.723064074003484e-01	2.754228703338166e-01
3139	2.723064074003484e-01	2.754228703338166e-01
%
% index = 1829, name = bbob_f002_i31_d05__bbob_f006_i34_d05
% instance = 15, reference value = 1.000000000000000e+00
% function evaluation | indicator value | target hit
1	3.365640117013000e+00	3.388441561392026e+00
3139	3.365640117013000e+00	3.388441561392026e+00
