%
% index = 333, name = bbob_f006_i09_d02__bbob_f014_i10_d02
% instance = 4, reference value = 9.654192649364550e-01
% function evaluation | indicator value | target hit
1	3.200212293098862e-01	3.235936569296283e-01
21	3.063205304449137e-01	3.090295432513591e-01
92	2.255726704751225e-01	2.290867652767773e-01
134	1.850897551569159e-01	1.862087136662867e-01
135	1.787724506123197e-01	1.819700858609984e-01
165	7.984973728173372e-02	8.128305161640990e-02
722	4.358949169487514e-02	4.365158322401658e-02
898	3.594021762017841e-02	3.630780547701014e-02
1371	3.177974431147046e-02	3.235936569296283e-02
1407	3.123632653459663e-02	3.162277660168379e-02
1694	3.073605989369077e-02	3.090295432513590e-02
2085	2.942666063973864e-02	2.951209226666385e-02
2201	2.493040166292837e-02	2.511886431509579e-02
3119	2.480303925736560e-02	2.511886431509579e-02
%
% index = 337, name = bbob_f006_i17_d02__bbob_f014_i18_d02
% instance = 8, reference value = 9.804137637087520e-01
% function evaluation | indicator value | target hit
1	5.041560418952630e-01	5.128613839913648e-01
60	4.284269084974642e-01	4.365158322401660e-01
64	3.651120305818327e-01	3.715352290971726e-01
79	3.603790021801430e-01	3.630780547701014e-01
114	3.485102750951176e-01	3.548133892335755e-01
127	2.160428812832131e-01	2.187761623949552e-01
170	2.028019315888374e-01	2.041737944669530e-01
214	1.992140059694718e-01	1.995262314968880e-01
229	5.220666300417220e-02	5.248074602497726e-02
254	5.033914455639910e-02	5.128613839913648e-02
255	4.916388872532496e-02	5.011872336272722e-02
267	3.744164608560141e-02	3.801893963205612e-02
270	3.646812881038997e-02	3.715352290971726e-02
274	3.597216724533048e-02	3.630780547701014e-02
290	2.955845942914137e-02	3.019951720402016e-02
351	2.939938012363830e-02	2.951209226666385e-02
358	2.877589647366063e-02	2.884031503126606e-02
359	2.669079001702623e-02	2.691534803926915e-02
362	2.442542663743863e-02	2.454708915685030e-02
363	2.313029728152116e-02	2.344228815319923e-02
371	1.516429681501241e-02	1.548816618912481e-02
382	1.499817305555873e-02	1.513561248436208e-02
402	1.430468120148731e-02	1.445439770745927e-02
423	1.411371310361020e-02	1.412537544622754e-02
482	1.373798588513542e-02	1.380384264602885e-02
707	1.301618162610163e-02	1.318256738556407e-02
723	1.043458242585149e-02	1.047128548050900e-02
931	1.015768574249698e-02	1.023292992280754e-02
935	8.609322988422097e-03	8.709635899560805e-03
967	7.496264251579676e-03	7.585775750291836e-03
970	7.412627420533613e-03	7.413102413009177e-03
990	7.002611016556193e-03	7.079457843841380e-03
1011	6.347886134286274e-03	6.456542290346556e-03
1131	6.289879773379914e-03	6.309573444801930e-03
1271	6.114385201225647e-03	6.165950018614822e-03
1279	6.022812366283548e-03	6.025595860743574e-03
1283	5.771732046678135e-03	5.888436553555890e-03
1294	5.741435815786122e-03	5.754399373371567e-03
1315	5.407632909811055e-03	5.495408738576248e-03
1362	5.354144086053836e-03	5.370317963702527e-03
1442	5.109960991854234e-03	5.128613839913648e-03
1722	4.930471463888808e-03	5.011872336272725e-03
1847	4.880050223574406e-03	4.897788193684461e-03
2250	4.714939090505132e-03	4.786300923226385e-03
2719	4.524828821365512e-03	4.570881896148752e-03
3087	4.524828821365512e-03	4.570881896148752e-03
%
% index = 341, name = bbob_f006_i25_d02__bbob_f014_i26_d02
% instance = 12, reference value = 1.000000000000000e+00
% function evaluation | indicator value | target hit
1	3.755912573688757e-01	3.801893963205612e-01
54	2.347069766045146e-01	2.398832919019490e-01
111	1.440894742690124e-01	1.445439770745928e-01
127	1.396205510722968e-01	1.412537544622754e-01
408	1.223632153822278e-01	1.230268770812381e-01
592	1.091517602184147e-01	1.096478196143185e-01
1356	9.211523910068209e-02	9.332543007969910e-02
2782	8.564258666092062e-02	8.709635899560805e-02
2810	8.365907176896703e-02	8.511380382023763e-02
3087	8.364655090200046e-02	8.511380382023763e-02
