%
% index = 1997, name = bbob_f006_i07_d05__bbob_f015_i08_d05
% instance = 3, reference value = 9.355341989620830e-01
% function evaluation | indicator value | target hit
1	8.019864248938597e-01	8.128305161640993e-01
3047	8.019864248938597e-01	8.128305161640993e-01
%
% index = 2001, name = bbob_f006_i15_d05__bbob_f015_i16_d05
% instance = 7, reference value = 9.535921835009720e-01
% function evaluation | indicator value | target hit
1	2.922438599866472e+00	2.951209226666386e+00
3059	2.922438599866472e+00	2.951209226666386e+00
%
% index = 2005, name = bbob_f006_i23_d05__bbob_f015_i24_d05
% instance = 11, reference value = 1.000000000000000e+00
% function evaluation | indicator value | target hit
1	1.414989090585696e+01	1.445439770745927e+01
3119	1.414989090585696e+01	1.445439770745927e+01
%
% index = 2009, name = bbob_f006_i31_d05__bbob_f015_i34_d05
% instance = 15, reference value = 1.000000000000000e+00
% function evaluation | indicator value | target hit
1	8.923949659222532e-01	9.120108393559098e-01
3131	8.923949659222532e-01	9.120108393559098e-01
