%
% index = 2550, name = bbob_f001_i02_d10__bbob_f014_i04_d10
% instance = 1, reference value = 9.370111716614150e-01
% function evaluation | indicator value | target hit
1	3.652599395550248e-01	3.715352290971726e-01
3087	3.652599395550248e-01	3.715352290971726e-01
%
% index = 2554, name = bbob_f001_i11_d10__bbob_f014_i12_d10
% instance = 5, reference value = 7.433742759789440e-01
% function evaluation | indicator value | target hit
1	3.921375791742943e+00	3.981071705534972e+00
3151	3.921375791742943e+00	3.981071705534972e+00
%
% index = 2558, name = bbob_f001_i19_d10__bbob_f014_i21_d10
% instance = 9, reference value = 8.451273704217031e-01
% function evaluation | indicator value | target hit
1	1.542730036211374e+00	1.548816618912481e+00
3091	1.542730036211374e+00	1.548816618912481e+00
%
% index = 2562, name = bbob_f001_i27_d10__bbob_f014_i28_d10
% instance = 13, reference value = 1.000000000000000e+00
% function evaluation | indicator value | target hit
1	1.057755407133000e+00	1.071519305237606e+00
3119	1.057755407133000e+00	1.071519305237606e+00
