%
% index = 2388, name = bbob_f017_i09_d05__bbob_f017_i10_d05
% instance = 4, reference value = 9.728647809214460e-01
% function evaluation | indicator value | target hit
1	6.105763214356255e-01	6.165950018614822e-01
3075	6.105763214356255e-01	6.165950018614822e-01
%
% index = 2392, name = bbob_f017_i17_d05__bbob_f017_i18_d05
% instance = 8, reference value = 9.344243798010400e-01
% function evaluation | indicator value | target hit
1	1.180714798653040e+00	1.202264434617413e+00
3123	1.180714798653040e+00	1.202264434617413e+00
%
% index = 2396, name = bbob_f017_i25_d05__bbob_f017_i26_d05
% instance = 12, reference value = 1.000000000000000e+00
% function evaluation | indicator value | target hit
1	9.671629919761676e-01	9.772372209558107e-01
3111	9.671629919761676e-01	9.772372209558107e-01
