%
% index = 3212, name = bbob_f017_i07_d10__bbob_f017_i08_d10
% instance = 3, reference value = 9.357861754486390e-01
% function evaluation | indicator value | target hit
1	1.264877925805139e+00	1.288249551693134e+00
3107	1.264877925805139e+00	1.288249551693134e+00
%
% index = 3216, name = bbob_f017_i15_d10__bbob_f017_i16_d10
% instance = 7, reference value = 9.200543723401010e-01
% function evaluation | indicator value | target hit
1	2.388135963292616e+00	2.398832919019490e+00
3075	2.388135963292616e+00	2.398832919019490e+00
%
% index = 3220, name = bbob_f017_i23_d10__bbob_f017_i24_d10
% instance = 11, reference value = 1.000000000000000e+00
% function evaluation | indicator value | target hit
1	7.041084187533320e-01	7.079457843841379e-01
3091	7.041084187533320e-01	7.079457843841379e-01
%
% index = 3224, name = bbob_f017_i31_d10__bbob_f017_i34_d10
% instance = 15, reference value = 1.000000000000000e+00
% function evaluation | indicator value | target hit
1	1.022189773719000e+00	1.023292992280754e+00
3087	1.022189773719000e+00	1.023292992280754e+00
