%
% index = 645, name = bbob_f014_i02_d02__bbob_f020_i04_d02
% instance = 1, reference value = 9.900005958926400e-01
% function evaluation | indicator value | target hit
1	3.867414395056257e-01	3.890451449942806e-01
1261	1.717941879676764e-01	1.737800828749375e-01
2218	1.654017958799641e-01	1.659586907437560e-01
3139	1.654017958799641e-01	1.659586907437560e-01
%
% index = 646, name = bbob_f014_i03_d02__bbob_f020_i05_d02
% instance = 2, reference value = 9.966824631571420e-01
% function evaluation | indicator value | target hit
1	1.154998468378514e+01	1.174897554939530e+01
79	6.419152358653068e+00	6.456542290346556e+00
143	5.428227197465142e+00	5.495408738576246e+00
154	3.218304950447642e+00	3.235936569296283e+00
390	2.271233341085642e+00	2.290867652767773e+00
1126	1.436013867675642e+00	1.445439770745927e+00
1142	1.384138835712142e+00	1.412537544622754e+00
1838	6.726658725286798e-01	6.760829753919817e-01
3131	6.726658725286798e-01	6.760829753919817e-01
%
% index = 647, name = bbob_f014_i07_d02__bbob_f020_i08_d02
% instance = 3, reference value = 9.825166710807870e-01
% function evaluation | indicator value | target hit
1	3.401911406798087e-01	3.467368504525316e-01
486	2.969548168403041e-01	3.019951720402016e-01
494	2.348278746211178e-01	2.398832919019490e-01
598	2.079195062757857e-01	2.089296130854039e-01
603	1.293186693251082e-01	1.318256738556407e-01
611	1.285347018613431e-01	1.288249551693134e-01
646	1.192294791241446e-01	1.202264434617413e-01
655	1.161007896921596e-01	1.174897554939529e-01
663	1.143061917459102e-01	1.148153621496883e-01
678	1.089753788313894e-01	1.096478196143185e-01
751	1.050808597588762e-01	1.071519305237607e-01
755	1.045082259050291e-01	1.047128548050900e-01
770	1.012243334646777e-01	1.023292992280754e-01
822	9.964016404760223e-02	1.000000000000000e-01
950	9.755802379157941e-02	9.772372209558107e-02
1331	8.539848359065538e-02	8.709635899560805e-02
1447	8.142657783216867e-02	8.317637711026708e-02
1490	6.853290053845473e-02	6.918309709189366e-02
1535	6.758404913043115e-02	6.760829753919818e-02
1547	6.253312553496804e-02	6.309573444801933e-02
1574	6.142306876123627e-02	6.165950018614822e-02
2199	4.718570736798733e-02	4.786300923226382e-02
2230	4.586071629889521e-02	4.677351412871981e-02
2247	4.568524310182931e-02	4.570881896148749e-02
2371	3.812426210349906e-02	3.890451449942807e-02
2387	3.643117408045615e-02	3.715352290971726e-02
2407	3.286967591437040e-02	3.311311214825911e-02
2422	2.752684220196977e-02	2.754228703338166e-02
2423	2.690900503869653e-02	2.691534803926915e-02
2430	2.553006229032195e-02	2.570395782768863e-02
2446	2.435198020689400e-02	2.454708915685030e-02
2547	2.214869996522739e-02	2.238721138568340e-02
2555	2.161786106372676e-02	2.187761623949553e-02
3111	2.161786106372676e-02	2.187761623949553e-02
%
% index = 648, name = bbob_f014_i09_d02__bbob_f020_i10_d02
% instance = 4, reference value = 9.753724097828000e-01
% function evaluation | indicator value | target hit
1	4.598758239272619e-01	4.677351412871982e-01
270	1.801208300900552e-01	1.819700858609984e-01
1030	8.409799717268829e-02	8.511380382023763e-02
1381	4.894006517097693e-02	4.897788193684462e-02
1424	4.761439169767423e-02	4.786300923226382e-02
1558	4.528596418197839e-02	4.570881896148749e-02
1618	4.190178330353944e-02	4.265795188015926e-02
1907	4.082598604413146e-02	4.168693834703355e-02
1930	4.068163936839708e-02	4.073802778041128e-02
3111	3.998337587831369e-02	4.073802778041128e-02
%
% index = 649, name = bbob_f014_i11_d02__bbob_f020_i12_d02
% instance = 5, reference value = 9.922334831295651e-01
% function evaluation | indicator value | target hit
1	5.071168922282354e+01	5.128613839913648e+01
479	3.618340078150615e+01	3.630780547701014e+01
518	2.770441933009343e+01	2.818382931264453e+01
1529	3.285055293678565e+00	3.311311214825911e+00
2167	2.257420650906565e+00	2.290867652767773e+00
2179	2.026712692345565e+00	2.041737944669529e+00
2219	1.078408387211565e+00	1.096478196143185e+00
2238	9.779793272485989e-01	1.000000000000000e+00
2351	9.165900873729032e-01	9.332543007969910e-01
3107	9.165900873729032e-01	9.332543007969910e-01
%
% index = 650, name = bbob_f014_i13_d02__bbob_f020_i14_d02
% instance = 6, reference value = 9.559686579609680e-01
% function evaluation | indicator value | target hit
1	1.257142154958872e+01	1.258925411794167e+01
695	1.191743670389995e+01	1.202264434617413e+01
735	8.343141008770182e+00	8.511380382023766e+00
823	1.124067776413968e+00	1.148153621496883e+00
886	3.351719923167350e-01	3.388441561392025e-01
3135	3.351719923167350e-01	3.388441561392025e-01
%
% index = 651, name = bbob_f014_i15_d02__bbob_f020_i16_d02
% instance = 7, reference value = 9.828525071344250e-01
% function evaluation | indicator value | target hit
1	3.617572980536469e-01	3.630780547701014e-01
1056	3.340869957399468e-01	3.388441561392025e-01
1154	3.217371507913728e-01	3.235936569296283e-01
2451	3.120485908772905e-01	3.162277660168379e-01
3022	2.921992943828193e-01	2.951209226666385e-01
3027	1.581559818466886e-01	1.584893192461113e-01
3071	1.374872915168571e-01	1.380384264602885e-01
3079	1.374872915168571e-01	1.380384264602885e-01
%
% index = 652, name = bbob_f014_i17_d02__bbob_f020_i18_d02
% instance = 8, reference value = 8.819069191286620e-01
% function evaluation | indicator value | target hit
1	5.623673443208752e+02	5.754399373371566e+02
37	1.436971635407469e+01	1.445439770745927e+01
3123	1.436971635407469e+01	1.445439770745927e+01
%
% index = 653, name = bbob_f014_i19_d02__bbob_f020_i21_d02
% instance = 9, reference value = 9.747279277864010e-01
% function evaluation | indicator value | target hit
1	2.624854756316162e-01	2.630267991895382e-01
79	8.727401075624319e-02	8.912509381337455e-02
278	8.471125008773062e-02	8.511380382023763e-02
431	7.907278703445175e-02	7.943282347242814e-02
454	7.501838619030321e-02	7.585775750291836e-02
462	7.299118832737506e-02	7.413102413009177e-02
490	6.026362475530533e-02	6.165950018614822e-02
526	6.010829558714048e-02	6.025595860743578e-02
734	5.562665510201237e-02	5.623413251903491e-02
951	5.457713646021500e-02	5.495408738576246e-02
954	5.358263098174809e-02	5.370317963702527e-02
978	5.188471701694797e-02	5.248074602497726e-02
982	4.742495347736764e-02	4.786300923226382e-02
1694	4.448572101595549e-02	4.466835921509630e-02
1695	4.009614222395386e-02	4.073802778041128e-02
1722	3.959512500669415e-02	3.981071705534973e-02
1723	3.540712952164837e-02	3.548133892335755e-02
2099	3.452157483431839e-02	3.467368504525317e-02
2179	3.310162789141324e-02	3.311311214825911e-02
2210	3.165991278536773e-02	3.235936569296283e-02
2211	2.768268298445009e-02	2.818382931264454e-02
2290	2.673034618592340e-02	2.691534803926915e-02
2318	2.621040864424196e-02	2.630267991895381e-02
2334	2.509901041954576e-02	2.511886431509579e-02
2374	2.454089253030023e-02	2.454708915685030e-02
2526	2.385614621182430e-02	2.398832919019490e-02
2999	2.200767902334022e-02	2.238721138568340e-02
3083	2.200767902334022e-02	2.238721138568340e-02
%
% index = 654, name = bbob_f014_i21_d02__bbob_f020_i22_d02
% instance = 10, reference value = 7.427771548295490e-01
% function evaluation | indicator value | target hit
1	1.163031634137640e+03	1.174897554939529e+03
578	9.984913511136788e+02	1.000000000000000e+03
594	9.485571276335734e+02	9.549925860214360e+02
626	8.898485499689855e+02	8.912509381337459e+02
659	8.454217851047229e+02	8.511380382023768e+02
727	7.481083276388487e+02	7.585775750291835e+02
742	7.288038528125825e+02	7.413102413009177e+02
778	7.015517558568416e+02	7.079457843841381e+02
811	6.899078908842847e+02	6.918309709189363e+02
850	6.236918801906759e+02	6.309573444801930e+02
870	6.128709833905422e+02	6.165950018614822e+02
991	5.619915369772910e+01	5.623413251903491e+01
995	6.053796610811048e+00	6.165950018614822e+00
1194	1.737486390575358e+00	1.737800828749375e+00
1403	1.218390585501049e+00	1.230268770812382e+00
1446	6.555978407210002e-01	6.606934480075960e-01
1802	2.705925398636139e-01	2.754228703338166e-01
1826	1.895693596612458e-01	1.905460717963247e-01
1830	1.399301965735454e-01	1.412537544622754e-01
1854	1.367235586374895e-01	1.380384264602885e-01
1855	7.918743445296017e-02	7.943282347242814e-02
1858	7.642757141237311e-02	7.762471166286916e-02
1866	7.040827347934819e-02	7.079457843841380e-02
1899	5.877648000231994e-02	5.888436553555890e-02
2419	5.681070262894150e-02	5.754399373371569e-02
2422	5.511238511258354e-02	5.623413251903491e-02
2451	5.147996259984478e-02	5.248074602497726e-02
3099	5.147996259984478e-02	5.248074602497726e-02
%
% index = 655, name = bbob_f014_i23_d02__bbob_f020_i24_d02
% instance = 11, reference value = 1.000000000000000e+00
% function evaluation | indicator value | target hit
1	8.495212883601699e+00	8.511380382023766e+00
231	6.090348480611973e+00	6.165950018614822e+00
295	4.852027652682201e+00	4.897788193684462e+00
423	4.441345523238579e+00	4.466835921509632e+00
482	3.923751603154287e+00	3.981071705534972e+00
502	3.674387106846000e+00	3.715352290971725e+00
511	2.881654906746922e+00	2.884031503126606e+00
866	2.526357320935500e+00	2.570395782768863e+00
910	1.081979101490500e+00	1.096478196143185e+00
2134	8.319590764061205e-01	8.511380382023764e-01
2278	8.092092288184048e-01	8.128305161640993e-01
2282	7.823199045935694e-01	7.943282347242815e-01
2395	7.736448403258944e-01	7.762471166286917e-01
3147	7.732696452439609e-01	7.762471166286917e-01
%
% index = 656, name = bbob_f014_i25_d02__bbob_f020_i26_d02
% instance = 12, reference value = 1.000000000000000e+00
% function evaluation | indicator value | target hit
1	4.459669765131000e+00	4.466835921509632e+00
102	2.241450119434500e+00	2.290867652767773e+00
146	1.751686422104500e+00	1.778279410038923e+00
178	3.189116819413111e-01	3.235936569296283e-01
214	2.884215227481852e-01	2.951209226666385e-01
463	2.883949522945546e-01	2.884031503126606e-01
559	2.801262106206354e-01	2.818382931264454e-01
823	2.736754741947829e-01	2.754228703338166e-01
2535	2.576479110281862e-01	2.630267991895382e-01
3011	2.075379876610529e-01	2.089296130854039e-01
3127	2.075379876610529e-01	2.089296130854039e-01
%
% index = 657, name = bbob_f014_i27_d02__bbob_f020_i28_d02
% instance = 13, reference value = 1.000000000000000e+00
% function evaluation | indicator value | target hit
1	2.307341079094462e-01	2.344228815319922e-01
230	1.783398688435323e-01	1.819700858609984e-01
251	1.618103156077502e-01	1.621810097358930e-01
322	1.550941648511593e-01	1.584893192461113e-01
338	1.220864415163891e-01	1.230268770812381e-01
351	1.012303293549861e-01	1.023292992280754e-01
407	9.937385001911714e-02	1.000000000000000e-01
446	9.164740244256042e-02	9.332543007969910e-02
474	9.001154085327445e-02	9.120108393559097e-02
475	8.846066414897091e-02	8.912509381337455e-02
727	8.696326344351646e-02	8.709635899560805e-02
1406	8.223895583662844e-02	8.317637711026708e-02
1466	8.128296855923878e-02	8.128305161640990e-02
2179	7.608365722843990e-02	7.762471166286916e-02
2366	7.552324605189187e-02	7.585775750291836e-02
3127	7.552221746929699e-02	7.585775750291836e-02
%
% index = 658, name = bbob_f014_i29_d02__bbob_f020_i30_d02
% instance = 14, reference value = 1.000000000000000e+00
% function evaluation | indicator value | target hit
1	7.198685013579207e-01	7.244359600749900e-01
283	6.293508080475937e-01	6.309573444801932e-01
326	3.475802557167030e-01	3.548133892335755e-01
382	3.408084050522769e-01	3.467368504525316e-01
422	3.004697212495201e-01	3.019951720402016e-01
471	2.195496054172080e-01	2.238721138568339e-01
618	2.176924695629835e-01	2.187761623949552e-01
682	2.038159188547524e-01	2.041737944669530e-01
687	1.930067933444127e-01	1.949844599758045e-01
971	1.865209944257065e-01	1.905460717963247e-01
998	1.830057896103625e-01	1.862087136662867e-01
1087	1.764429146093599e-01	1.778279410038923e-01
1094	4.842543917483932e-02	4.897788193684462e-02
1114	4.665003068331874e-02	4.677351412871981e-02
1119	3.300325612833266e-02	3.311311214825911e-02
1123	3.165352440945168e-02	3.235936569296283e-02
1139	3.082043785157784e-02	3.090295432513590e-02
1151	2.709404212226385e-02	2.754228703338166e-02
1175	2.441967475052531e-02	2.454708915685030e-02
1826	2.301240667129600e-02	2.344228815319923e-02
2679	2.253467199586223e-02	2.290867652767773e-02
3071	2.245757688023642e-02	2.290867652767773e-02
%
% index = 659, name = bbob_f014_i31_d02__bbob_f020_i34_d02
% instance = 15, reference value = 1.000000000000000e+00
% function evaluation | indicator value | target hit
1	1.859891260990373e+03	1.862087136662868e+03
315	1.450209674136268e+03	1.479108388168207e+03
406	1.406314180296713e+03	1.412537544622754e+03
511	1.056378327988751e+03	1.071519305237606e+03
527	8.779280220342040e+02	8.912509381337459e+02
542	8.260777432338275e+02	8.317637711026708e+02
554	7.255684975346988e+02	7.413102413009177e+02
602	2.562328042920615e+02	2.570395782768865e+02
710	7.730399066449320e+01	7.762471166286916e+01
718	1.095717689333200e+01	1.096478196143185e+01
723	2.168740953361500e+00	2.187761623949553e+00
730	1.187230460889500e+00	1.202264434617413e+00
734	8.697903240756393e-01	8.709635899560807e-01
902	8.413723289024263e-01	8.511380382023764e-01
1047	6.418546450641720e-01	6.456542290346555e-01
2971	6.106861926232989e-01	6.165950018614822e-01
3059	6.106861926232989e-01	6.165950018614822e-01
