%
% index = 2943, name = bbob_f008_i09_d10__bbob_f017_i10_d10
% instance = 4, reference value = 9.881539005578190e-01
% function evaluation | indicator value | target hit
1	9.032121285630967e-01	9.120108393559098e-01
3115	9.032121285630967e-01	9.120108393559098e-01
%
% index = 2947, name = bbob_f008_i17_d10__bbob_f017_i18_d10
% instance = 8, reference value = 9.720580594571780e-01
% function evaluation | indicator value | target hit
1	5.789916429387201e-01	5.888436553555889e-01
3047	5.789916429387201e-01	5.888436553555889e-01
%
% index = 2951, name = bbob_f008_i25_d10__bbob_f017_i26_d10
% instance = 12, reference value = 1.000000000000000e+00
% function evaluation | indicator value | target hit
1	4.034268848855073e-01	4.073802778041127e-01
3127	4.034268848855073e-01	4.073802778041127e-01
