%
% index = 1443, name = bbob_f014_i09_d03__bbob_f015_i10_d03
% instance = 4, reference value = 9.562871624334950e-01
% function evaluation | indicator value | target hit
1	8.999199121958508e-01	9.120108393559098e-01
3099	8.999199121958508e-01	9.120108393559098e-01
%
% index = 1447, name = bbob_f014_i17_d03__bbob_f015_i18_d03
% instance = 8, reference value = 9.660768861080440e-01
% function evaluation | indicator value | target hit
1	8.277556436119911e-01	8.317637711026710e-01
3079	8.277556436119911e-01	8.317637711026710e-01
%
% index = 1451, name = bbob_f014_i25_d03__bbob_f015_i26_d03
% instance = 12, reference value = 1.000000000000000e+00
% function evaluation | indicator value | target hit
1	1.142593141163500e+00	1.148153621496883e+00
3111	1.142593141163500e+00	1.148153621496883e+00
