<?xml version="1.0" encoding="utf-8" standalone="no"?>
<!DOCTYPE svg PUBLIC "-//W3C//DTD SVG 1.1//EN"
  "http://www.w3.org/Graphics/SVG/1.1/DTD/svg11.dtd">
<!-- Created with matplotlib (http://matplotlib.org/) -->
<svg height="345pt" version="1.1" viewBox="0 0 460 345" width="460pt" xmlns="http://www.w3.org/2000/svg" xmlns:xlink="http://www.w3.org/1999/xlink">
 <defs>
  <style type="text/css">
*{stroke-linecap:butt;stroke-linejoin:round;}
  </style>
 </defs>
 <g id="figure_1">
  <g id="patch_1">
   <path d="M 0 345.6 
L 460.8 345.6 
L 460.8 0 
L 0 0 
z
" style="fill:#ffffff;"/>
  </g>
  <g id="axes_1">
   <g id="patch_2">
    <path d="M 56.84 294.16 
L 399.984 294.16 
L 399.984 6.125228 
L 56.84 6.125228 
z
" style="fill:#ffffff;"/>
   </g>
   <g id="line2d_1">
    <path d="M -1 292.930763 
L 21.138397 292.930763 
L 21.138397 291.701526 
L 31.230014 291.701526 
L 31.230014 290.47229 
L 58.862198 290.47229 
L 58.862198 289.243053 
L 108.697197 289.243053 
L 108.697197 286.784579 
L 115.658563 286.784579 
L 115.658563 284.326105 
L 125.262529 284.326105 
L 125.262529 281.867632 
L 132.329942 281.867632 
L 132.329942 279.409158 
L 139.071419 279.409158 
L 139.071419 276.950684 
L 139.459631 276.950684 
L 139.459631 274.492211 
L 141.351054 274.492211 
L 141.351054 273.262974 
L 141.617772 273.262974 
L 141.617772 270.8045 
L 143.254417 270.8045 
L 143.254417 269.575264 
L 143.636209 269.575264 
L 143.636209 265.887553 
L 145.035897 265.887553 
L 145.035897 262.199843 
L 145.657495 262.199843 
L 145.657495 259.741369 
L 146.670428 259.741369 
L 146.670428 257.282895 
L 147.767299 257.282895 
L 147.767299 256.053658 
L 148.284267 256.053658 
L 148.284267 254.824422 
L 148.755691 254.824422 
L 148.755691 252.365948 
L 150.023542 252.365948 
L 150.023542 249.907474 
L 150.326398 249.907474 
L 150.326398 247.449001 
L 152.226062 247.449001 
L 152.226062 243.76129 
L 152.255898 243.76129 
L 152.255898 242.532053 
L 153.017139 242.532053 
L 153.017139 238.844343 
L 154.59334 238.844343 
L 154.59334 236.385869 
L 155.602283 236.385869 
L 155.602283 232.698159 
L 156.854274 232.698159 
L 156.854274 230.239685 
L 157.201689 230.239685 
L 157.201689 227.781212 
L 159.263022 227.781212 
L 159.263022 225.322738 
L 160.329249 225.322738 
L 160.329249 222.864264 
L 161.685729 222.864264 
L 161.685729 221.635027 
L 162.037806 221.635027 
L 162.037806 219.176554 
L 163.409236 219.176554 
L 163.409236 217.947317 
L 164.249748 217.947317 
L 164.249748 216.71808 
L 167.492593 216.71808 
L 167.492593 214.259607 
L 167.994503 214.259607 
L 167.994503 210.571896 
L 168.83066 210.571896 
L 168.83066 208.113422 
L 170.414079 208.113422 
L 170.414079 204.425712 
L 171.917547 204.425712 
L 171.917547 200.738001 
L 173.150482 200.738001 
L 173.150482 198.279528 
L 177.627413 198.279528 
L 177.627413 197.050291 
L 179.05783 197.050291 
L 179.05783 194.591817 
L 179.215278 194.591817 
L 179.215278 193.362581 
L 181.559191 193.362581 
L 181.559191 190.904107 
L 184.82195 190.904107 
L 184.82195 187.216396 
L 186.750793 187.216396 
L 186.750793 185.98716 
L 189.131978 185.98716 
L 189.131978 183.528686 
L 202.221924 183.528686 
L 202.221924 179.840975 
L 209.726845 179.840975 
L 209.726845 177.382502 
L 213.91439 177.382502 
L 213.91439 174.924028 
L 234.573277 174.924028 
L 234.573277 173.694791 
L 242.078456 173.694791 
L 242.078456 171.236318 
L 242.640413 171.236318 
L 242.640413 168.777844 
L 243.231059 168.777844 
L 243.231059 165.090134 
L 252.200833 165.090134 
L 252.200833 163.860897 
L 258.523158 163.860897 
L 258.523158 160.173186 
L 260.437066 160.173186 
L 260.437066 157.714713 
L 265.623277 157.714713 
L 265.623277 156.485476 
L 271.853133 156.485476 
L 271.853133 152.797765 
L 273.114395 152.797765 
L 273.114395 150.339292 
L 292.760171 150.339292 
L 292.760171 146.651581 
L 293.352626 146.651581 
L 293.352626 145.422344 
L 333.569032 145.422344 
" style="fill:none;stroke:#f5deb3;stroke-linecap:square;stroke-width:6;"/>
   </g>
   <g id="line2d_2">
    <defs>
     <path d="M -0 7.778175 
L 7.778175 0 
L 0 -7.778175 
L -7.778175 -0 
z
" id="m2f67cbe81f" style="stroke:#f5deb3;stroke-linejoin:miter;stroke-width:1.5;"/>
    </defs>
    <g>
     <use style="fill:#f5deb3;stroke:#f5deb3;stroke-linejoin:miter;stroke-width:1.5;" x="108.697197" xlink:href="#m2f67cbe81f" y="289.243053"/>
     <use style="fill:#f5deb3;stroke:#f5deb3;stroke-linejoin:miter;stroke-width:1.5;" x="152.226062" xlink:href="#m2f67cbe81f" y="247.449001"/>
     <use style="fill:#f5deb3;stroke:#f5deb3;stroke-linejoin:miter;stroke-width:1.5;" x="189.131978" xlink:href="#m2f67cbe81f" y="185.98716"/>
     <use style="fill:#f5deb3;stroke:#f5deb3;stroke-linejoin:miter;stroke-width:1.5;" x="273.114395" xlink:href="#m2f67cbe81f" y="150.339292"/>
     <use style="fill:#f5deb3;stroke:#f5deb3;stroke-linejoin:miter;stroke-width:1.5;" x="293.352626" xlink:href="#m2f67cbe81f" y="145.422344"/>
     <use style="fill:#f5deb3;stroke:#f5deb3;stroke-linejoin:miter;stroke-width:1.5;" x="333.569032" xlink:href="#m2f67cbe81f" y="145.422344"/>
    </g>
   </g>
   <g id="line2d_3">
    <path style="fill:none;stroke:#f5deb3;stroke-linecap:square;stroke-width:6;"/>
    <g/>
   </g>
   <g id="line2d_4">
    <path d="M 333.569032 145.422344 
L 364.009226 14.680716 
" style="fill:none;stroke:#f5deb3;stroke-linecap:square;stroke-width:6;"/>
    <g>
     <use style="fill:#f5deb3;stroke:#f5deb3;stroke-linejoin:miter;stroke-width:1.5;" x="333.569032" xlink:href="#m2f67cbe81f" y="145.422344"/>
     <use style="fill:#f5deb3;stroke:#f5deb3;stroke-linejoin:miter;stroke-width:1.5;" x="364.009226" xlink:href="#m2f67cbe81f" y="14.680716"/>
    </g>
   </g>
   <g id="matplotlib.axis_1">
    <g id="xtick_1">
     <g id="line2d_5">
      <path clip-path="url(#p2e2b992968)" d="M 56.84 294.16 
L 56.84 6.125228 
" style="fill:none;stroke:#b0b0b0;stroke-linecap:square;stroke-width:0.8;"/>
     </g>
     <g id="line2d_6">
      <defs>
       <path d="M 0 0 
L 0 3.5 
" id="m9086e3b862" style="stroke:#000000;stroke-width:0.8;"/>
      </defs>
      <g>
       <use style="stroke:#000000;stroke-width:0.8;" x="56.84" xlink:href="#m9086e3b862" y="294.16"/>
      </g>
     </g>
     <g id="text_1">
      <!-- 0 -->
      <defs>
       <path d="M 31.78125 66.40625 
Q 24.171875 66.40625 20.328125 58.90625 
Q 16.5 51.421875 16.5 36.375 
Q 16.5 21.390625 20.328125 13.890625 
Q 24.171875 6.390625 31.78125 6.390625 
Q 39.453125 6.390625 43.28125 13.890625 
Q 47.125 21.390625 47.125 36.375 
Q 47.125 51.421875 43.28125 58.90625 
Q 39.453125 66.40625 31.78125 66.40625 
M 31.78125 74.21875 
Q 44.046875 74.21875 50.515625 64.515625 
Q 56.984375 54.828125 56.984375 36.375 
Q 56.984375 17.96875 50.515625 8.265625 
Q 44.046875 -1.421875 31.78125 -1.421875 
Q 19.53125 -1.421875 13.0625 8.265625 
Q 6.59375 17.96875 6.59375 36.375 
Q 6.59375 54.828125 13.0625 64.515625 
Q 19.53125 74.21875 31.78125 74.21875 
" id="DejaVuSans-30"/>
      </defs>
      <g transform="translate(50.4775 316.356875)scale(0.2 -0.2)">
       <use xlink:href="#DejaVuSans-30"/>
      </g>
     </g>
    </g>
    <g id="xtick_2">
     <g id="line2d_7">
      <path clip-path="url(#p2e2b992968)" d="M 135.905438 294.16 
L 135.905438 6.125228 
" style="fill:none;stroke:#b0b0b0;stroke-linecap:square;stroke-width:0.8;"/>
     </g>
     <g id="line2d_8">
      <g>
       <use style="stroke:#000000;stroke-width:0.8;" x="135.905438" xlink:href="#m9086e3b862" y="294.16"/>
      </g>
     </g>
     <g id="text_2">
      <!-- 2 -->
      <defs>
       <path d="M 19.1875 8.296875 
L 53.609375 8.296875 
L 53.609375 0 
L 7.328125 0 
L 7.328125 8.296875 
Q 12.9375 14.109375 22.625 23.890625 
Q 32.328125 33.6875 34.8125 36.53125 
Q 39.546875 41.84375 41.421875 45.53125 
Q 43.3125 49.21875 43.3125 52.78125 
Q 43.3125 58.59375 39.234375 62.25 
Q 35.15625 65.921875 28.609375 65.921875 
Q 23.96875 65.921875 18.8125 64.3125 
Q 13.671875 62.703125 7.8125 59.421875 
L 7.8125 69.390625 
Q 13.765625 71.78125 18.9375 73 
Q 24.125 74.21875 28.421875 74.21875 
Q 39.75 74.21875 46.484375 68.546875 
Q 53.21875 62.890625 53.21875 53.421875 
Q 53.21875 48.921875 51.53125 44.890625 
Q 49.859375 40.875 45.40625 35.40625 
Q 44.1875 33.984375 37.640625 27.21875 
Q 31.109375 20.453125 19.1875 8.296875 
" id="DejaVuSans-32"/>
      </defs>
      <g transform="translate(129.542938 316.356875)scale(0.2 -0.2)">
       <use xlink:href="#DejaVuSans-32"/>
      </g>
     </g>
    </g>
    <g id="xtick_3">
     <g id="line2d_9">
      <path clip-path="url(#p2e2b992968)" d="M 214.970876 294.16 
L 214.970876 6.125228 
" style="fill:none;stroke:#b0b0b0;stroke-linecap:square;stroke-width:0.8;"/>
     </g>
     <g id="line2d_10">
      <g>
       <use style="stroke:#000000;stroke-width:0.8;" x="214.970876" xlink:href="#m9086e3b862" y="294.16"/>
      </g>
     </g>
     <g id="text_3">
      <!-- 4 -->
      <defs>
       <path d="M 37.796875 64.3125 
L 12.890625 25.390625 
L 37.796875 25.390625 
z
M 35.203125 72.90625 
L 47.609375 72.90625 
L 47.609375 25.390625 
L 58.015625 25.390625 
L 58.015625 17.1875 
L 47.609375 17.1875 
L 47.609375 0 
L 37.796875 0 
L 37.796875 17.1875 
L 4.890625 17.1875 
L 4.890625 26.703125 
z
" id="DejaVuSans-34"/>
      </defs>
      <g transform="translate(208.608376 316.356875)scale(0.2 -0.2)">
       <use xlink:href="#DejaVuSans-34"/>
      </g>
     </g>
    </g>
    <g id="xtick_4">
     <g id="line2d_11">
      <path clip-path="url(#p2e2b992968)" d="M 294.036313 294.16 
L 294.036313 6.125228 
" style="fill:none;stroke:#b0b0b0;stroke-linecap:square;stroke-width:0.8;"/>
     </g>
     <g id="line2d_12">
      <g>
       <use style="stroke:#000000;stroke-width:0.8;" x="294.036313" xlink:href="#m9086e3b862" y="294.16"/>
      </g>
     </g>
     <g id="text_4">
      <!-- 6 -->
      <defs>
       <path d="M 33.015625 40.375 
Q 26.375 40.375 22.484375 35.828125 
Q 18.609375 31.296875 18.609375 23.390625 
Q 18.609375 15.53125 22.484375 10.953125 
Q 26.375 6.390625 33.015625 6.390625 
Q 39.65625 6.390625 43.53125 10.953125 
Q 47.40625 15.53125 47.40625 23.390625 
Q 47.40625 31.296875 43.53125 35.828125 
Q 39.65625 40.375 33.015625 40.375 
M 52.59375 71.296875 
L 52.59375 62.3125 
Q 48.875 64.0625 45.09375 64.984375 
Q 41.3125 65.921875 37.59375 65.921875 
Q 27.828125 65.921875 22.671875 59.328125 
Q 17.53125 52.734375 16.796875 39.40625 
Q 19.671875 43.65625 24.015625 45.921875 
Q 28.375 48.1875 33.59375 48.1875 
Q 44.578125 48.1875 50.953125 41.515625 
Q 57.328125 34.859375 57.328125 23.390625 
Q 57.328125 12.15625 50.6875 5.359375 
Q 44.046875 -1.421875 33.015625 -1.421875 
Q 20.359375 -1.421875 13.671875 8.265625 
Q 6.984375 17.96875 6.984375 36.375 
Q 6.984375 53.65625 15.1875 63.9375 
Q 23.390625 74.21875 37.203125 74.21875 
Q 40.921875 74.21875 44.703125 73.484375 
Q 48.484375 72.75 52.59375 71.296875 
" id="DejaVuSans-36"/>
      </defs>
      <g transform="translate(287.673813 316.356875)scale(0.2 -0.2)">
       <use xlink:href="#DejaVuSans-36"/>
      </g>
     </g>
    </g>
    <g id="xtick_5">
     <g id="line2d_13">
      <path clip-path="url(#p2e2b992968)" d="M 373.101751 294.16 
L 373.101751 6.125228 
" style="fill:none;stroke:#b0b0b0;stroke-linecap:square;stroke-width:0.8;"/>
     </g>
     <g id="line2d_14">
      <g>
       <use style="stroke:#000000;stroke-width:0.8;" x="373.101751" xlink:href="#m9086e3b862" y="294.16"/>
      </g>
     </g>
     <g id="text_5">
      <!-- 8 -->
      <defs>
       <path d="M 31.78125 34.625 
Q 24.75 34.625 20.71875 30.859375 
Q 16.703125 27.09375 16.703125 20.515625 
Q 16.703125 13.921875 20.71875 10.15625 
Q 24.75 6.390625 31.78125 6.390625 
Q 38.8125 6.390625 42.859375 10.171875 
Q 46.921875 13.96875 46.921875 20.515625 
Q 46.921875 27.09375 42.890625 30.859375 
Q 38.875 34.625 31.78125 34.625 
M 21.921875 38.8125 
Q 15.578125 40.375 12.03125 44.71875 
Q 8.5 49.078125 8.5 55.328125 
Q 8.5 64.0625 14.71875 69.140625 
Q 20.953125 74.21875 31.78125 74.21875 
Q 42.671875 74.21875 48.875 69.140625 
Q 55.078125 64.0625 55.078125 55.328125 
Q 55.078125 49.078125 51.53125 44.71875 
Q 48 40.375 41.703125 38.8125 
Q 48.828125 37.15625 52.796875 32.3125 
Q 56.78125 27.484375 56.78125 20.515625 
Q 56.78125 9.90625 50.3125 4.234375 
Q 43.84375 -1.421875 31.78125 -1.421875 
Q 19.734375 -1.421875 13.25 4.234375 
Q 6.78125 9.90625 6.78125 20.515625 
Q 6.78125 27.484375 10.78125 32.3125 
Q 14.796875 37.15625 21.921875 38.8125 
M 18.3125 54.390625 
Q 18.3125 48.734375 21.84375 45.5625 
Q 25.390625 42.390625 31.78125 42.390625 
Q 38.140625 42.390625 41.71875 45.5625 
Q 45.3125 48.734375 45.3125 54.390625 
Q 45.3125 60.0625 41.71875 63.234375 
Q 38.140625 66.40625 31.78125 66.40625 
Q 25.390625 66.40625 21.84375 63.234375 
Q 18.3125 60.0625 18.3125 54.390625 
" id="DejaVuSans-38"/>
      </defs>
      <g transform="translate(366.739251 316.356875)scale(0.2 -0.2)">
       <use xlink:href="#DejaVuSans-38"/>
      </g>
     </g>
    </g>
    <g id="xtick_6">
     <g id="line2d_15">
      <defs>
       <path d="M 0 0 
L 0 2 
" id="m136be670e1" style="stroke:#000000;stroke-width:0.6;"/>
      </defs>
      <g>
       <use style="stroke:#000000;stroke-width:0.6;" x="68.740534" xlink:href="#m136be670e1" y="294.16"/>
      </g>
     </g>
    </g>
    <g id="xtick_7">
     <g id="line2d_16">
      <g>
       <use style="stroke:#000000;stroke-width:0.6;" x="80.641068" xlink:href="#m136be670e1" y="294.16"/>
      </g>
     </g>
    </g>
    <g id="xtick_8">
     <g id="line2d_17">
      <g>
       <use style="stroke:#000000;stroke-width:0.6;" x="87.602435" xlink:href="#m136be670e1" y="294.16"/>
      </g>
     </g>
    </g>
    <g id="xtick_9">
     <g id="line2d_18">
      <g>
       <use style="stroke:#000000;stroke-width:0.6;" x="92.541603" xlink:href="#m136be670e1" y="294.16"/>
      </g>
     </g>
    </g>
    <g id="xtick_10">
     <g id="line2d_19">
      <g>
       <use style="stroke:#000000;stroke-width:0.6;" x="147.805972" xlink:href="#m136be670e1" y="294.16"/>
      </g>
     </g>
    </g>
    <g id="xtick_11">
     <g id="line2d_20">
      <g>
       <use style="stroke:#000000;stroke-width:0.6;" x="159.706506" xlink:href="#m136be670e1" y="294.16"/>
      </g>
     </g>
    </g>
    <g id="xtick_12">
     <g id="line2d_21">
      <g>
       <use style="stroke:#000000;stroke-width:0.6;" x="166.667872" xlink:href="#m136be670e1" y="294.16"/>
      </g>
     </g>
    </g>
    <g id="xtick_13">
     <g id="line2d_22">
      <g>
       <use style="stroke:#000000;stroke-width:0.6;" x="171.60704" xlink:href="#m136be670e1" y="294.16"/>
      </g>
     </g>
    </g>
    <g id="xtick_14">
     <g id="line2d_23">
      <g>
       <use style="stroke:#000000;stroke-width:0.6;" x="226.87141" xlink:href="#m136be670e1" y="294.16"/>
      </g>
     </g>
    </g>
    <g id="xtick_15">
     <g id="line2d_24">
      <g>
       <use style="stroke:#000000;stroke-width:0.6;" x="238.771944" xlink:href="#m136be670e1" y="294.16"/>
      </g>
     </g>
    </g>
    <g id="xtick_16">
     <g id="line2d_25">
      <g>
       <use style="stroke:#000000;stroke-width:0.6;" x="245.73331" xlink:href="#m136be670e1" y="294.16"/>
      </g>
     </g>
    </g>
    <g id="xtick_17">
     <g id="line2d_26">
      <g>
       <use style="stroke:#000000;stroke-width:0.6;" x="250.672478" xlink:href="#m136be670e1" y="294.16"/>
      </g>
     </g>
    </g>
    <g id="xtick_18">
     <g id="line2d_27">
      <g>
       <use style="stroke:#000000;stroke-width:0.6;" x="305.936848" xlink:href="#m136be670e1" y="294.16"/>
      </g>
     </g>
    </g>
    <g id="xtick_19">
     <g id="line2d_28">
      <g>
       <use style="stroke:#000000;stroke-width:0.6;" x="317.837382" xlink:href="#m136be670e1" y="294.16"/>
      </g>
     </g>
    </g>
    <g id="xtick_20">
     <g id="line2d_29">
      <g>
       <use style="stroke:#000000;stroke-width:0.6;" x="324.798748" xlink:href="#m136be670e1" y="294.16"/>
      </g>
     </g>
    </g>
    <g id="xtick_21">
     <g id="line2d_30">
      <g>
       <use style="stroke:#000000;stroke-width:0.6;" x="329.737916" xlink:href="#m136be670e1" y="294.16"/>
      </g>
     </g>
    </g>
    <g id="xtick_22">
     <g id="line2d_31">
      <g>
       <use style="stroke:#000000;stroke-width:0.6;" x="385.002285" xlink:href="#m136be670e1" y="294.16"/>
      </g>
     </g>
    </g>
    <g id="xtick_23">
     <g id="line2d_32">
      <g>
       <use style="stroke:#000000;stroke-width:0.6;" x="396.90282" xlink:href="#m136be670e1" y="294.16"/>
      </g>
     </g>
    </g>
    <g id="text_6">
     <!-- log10(# f-evals / dimension) -->
     <defs>
      <path d="M 9.421875 75.984375 
L 18.40625 75.984375 
L 18.40625 0 
L 9.421875 0 
z
" id="DejaVuSans-6c"/>
      <path d="M 30.609375 48.390625 
Q 23.390625 48.390625 19.1875 42.75 
Q 14.984375 37.109375 14.984375 27.296875 
Q 14.984375 17.484375 19.15625 11.84375 
Q 23.34375 6.203125 30.609375 6.203125 
Q 37.796875 6.203125 41.984375 11.859375 
Q 46.1875 17.53125 46.1875 27.296875 
Q 46.1875 37.015625 41.984375 42.703125 
Q 37.796875 48.390625 30.609375 48.390625 
M 30.609375 56 
Q 42.328125 56 49.015625 48.375 
Q 55.71875 40.765625 55.71875 27.296875 
Q 55.71875 13.875 49.015625 6.21875 
Q 42.328125 -1.421875 30.609375 -1.421875 
Q 18.84375 -1.421875 12.171875 6.21875 
Q 5.515625 13.875 5.515625 27.296875 
Q 5.515625 40.765625 12.171875 48.375 
Q 18.84375 56 30.609375 56 
" id="DejaVuSans-6f"/>
      <path d="M 45.40625 27.984375 
Q 45.40625 37.75 41.375 43.109375 
Q 37.359375 48.484375 30.078125 48.484375 
Q 22.859375 48.484375 18.828125 43.109375 
Q 14.796875 37.75 14.796875 27.984375 
Q 14.796875 18.265625 18.828125 12.890625 
Q 22.859375 7.515625 30.078125 7.515625 
Q 37.359375 7.515625 41.375 12.890625 
Q 45.40625 18.265625 45.40625 27.984375 
M 54.390625 6.78125 
Q 54.390625 -7.171875 48.1875 -13.984375 
Q 42 -20.796875 29.203125 -20.796875 
Q 24.46875 -20.796875 20.265625 -20.09375 
Q 16.0625 -19.390625 12.109375 -17.921875 
L 12.109375 -9.1875 
Q 16.0625 -11.328125 19.921875 -12.34375 
Q 23.78125 -13.375 27.78125 -13.375 
Q 36.625 -13.375 41.015625 -8.765625 
Q 45.40625 -4.15625 45.40625 5.171875 
L 45.40625 9.625 
Q 42.625 4.78125 38.28125 2.390625 
Q 33.9375 0 27.875 0 
Q 17.828125 0 11.671875 7.65625 
Q 5.515625 15.328125 5.515625 27.984375 
Q 5.515625 40.671875 11.671875 48.328125 
Q 17.828125 56 27.875 56 
Q 33.9375 56 38.28125 53.609375 
Q 42.625 51.21875 45.40625 46.390625 
L 45.40625 54.6875 
L 54.390625 54.6875 
z
" id="DejaVuSans-67"/>
      <path d="M 12.40625 8.296875 
L 28.515625 8.296875 
L 28.515625 63.921875 
L 10.984375 60.40625 
L 10.984375 69.390625 
L 28.421875 72.90625 
L 38.28125 72.90625 
L 38.28125 8.296875 
L 54.390625 8.296875 
L 54.390625 0 
L 12.40625 0 
z
" id="DejaVuSans-31"/>
      <path d="M 31 75.875 
Q 24.46875 64.65625 21.28125 53.65625 
Q 18.109375 42.671875 18.109375 31.390625 
Q 18.109375 20.125 21.3125 9.0625 
Q 24.515625 -2 31 -13.1875 
L 23.1875 -13.1875 
Q 15.875 -1.703125 12.234375 9.375 
Q 8.59375 20.453125 8.59375 31.390625 
Q 8.59375 42.28125 12.203125 53.3125 
Q 15.828125 64.359375 23.1875 75.875 
z
" id="DejaVuSans-28"/>
      <path d="M 51.125 44 
L 36.921875 44 
L 32.8125 27.6875 
L 47.125 27.6875 
z
M 43.796875 71.78125 
L 38.71875 51.515625 
L 52.984375 51.515625 
L 58.109375 71.78125 
L 65.921875 71.78125 
L 60.890625 51.515625 
L 76.125 51.515625 
L 76.125 44 
L 58.984375 44 
L 54.984375 27.6875 
L 70.515625 27.6875 
L 70.515625 20.21875 
L 53.078125 20.21875 
L 48 0 
L 40.1875 0 
L 45.21875 20.21875 
L 30.90625 20.21875 
L 25.875 0 
L 18.015625 0 
L 23.09375 20.21875 
L 7.71875 20.21875 
L 7.71875 27.6875 
L 24.90625 27.6875 
L 29 44 
L 13.28125 44 
L 13.28125 51.515625 
L 30.90625 51.515625 
L 35.890625 71.78125 
z
" id="DejaVuSans-23"/>
      <path id="DejaVuSans-20"/>
      <path d="M 37.109375 75.984375 
L 37.109375 68.5 
L 28.515625 68.5 
Q 23.6875 68.5 21.796875 66.546875 
Q 19.921875 64.59375 19.921875 59.515625 
L 19.921875 54.6875 
L 34.71875 54.6875 
L 34.71875 47.703125 
L 19.921875 47.703125 
L 19.921875 0 
L 10.890625 0 
L 10.890625 47.703125 
L 2.296875 47.703125 
L 2.296875 54.6875 
L 10.890625 54.6875 
L 10.890625 58.5 
Q 10.890625 67.625 15.140625 71.796875 
Q 19.390625 75.984375 28.609375 75.984375 
z
" id="DejaVuSans-66"/>
      <path d="M 4.890625 31.390625 
L 31.203125 31.390625 
L 31.203125 23.390625 
L 4.890625 23.390625 
z
" id="DejaVuSans-2d"/>
      <path d="M 56.203125 29.59375 
L 56.203125 25.203125 
L 14.890625 25.203125 
Q 15.484375 15.921875 20.484375 11.0625 
Q 25.484375 6.203125 34.421875 6.203125 
Q 39.59375 6.203125 44.453125 7.46875 
Q 49.3125 8.734375 54.109375 11.28125 
L 54.109375 2.78125 
Q 49.265625 0.734375 44.1875 -0.34375 
Q 39.109375 -1.421875 33.890625 -1.421875 
Q 20.796875 -1.421875 13.15625 6.1875 
Q 5.515625 13.8125 5.515625 26.8125 
Q 5.515625 40.234375 12.765625 48.109375 
Q 20.015625 56 32.328125 56 
Q 43.359375 56 49.78125 48.890625 
Q 56.203125 41.796875 56.203125 29.59375 
M 47.21875 32.234375 
Q 47.125 39.59375 43.09375 43.984375 
Q 39.0625 48.390625 32.421875 48.390625 
Q 24.90625 48.390625 20.390625 44.140625 
Q 15.875 39.890625 15.1875 32.171875 
z
" id="DejaVuSans-65"/>
      <path d="M 2.984375 54.6875 
L 12.5 54.6875 
L 29.59375 8.796875 
L 46.6875 54.6875 
L 56.203125 54.6875 
L 35.6875 0 
L 23.484375 0 
z
" id="DejaVuSans-76"/>
      <path d="M 34.28125 27.484375 
Q 23.390625 27.484375 19.1875 25 
Q 14.984375 22.515625 14.984375 16.5 
Q 14.984375 11.71875 18.140625 8.90625 
Q 21.296875 6.109375 26.703125 6.109375 
Q 34.1875 6.109375 38.703125 11.40625 
Q 43.21875 16.703125 43.21875 25.484375 
L 43.21875 27.484375 
z
M 52.203125 31.203125 
L 52.203125 0 
L 43.21875 0 
L 43.21875 8.296875 
Q 40.140625 3.328125 35.546875 0.953125 
Q 30.953125 -1.421875 24.3125 -1.421875 
Q 15.921875 -1.421875 10.953125 3.296875 
Q 6 8.015625 6 15.921875 
Q 6 25.140625 12.171875 29.828125 
Q 18.359375 34.515625 30.609375 34.515625 
L 43.21875 34.515625 
L 43.21875 35.40625 
Q 43.21875 41.609375 39.140625 45 
Q 35.0625 48.390625 27.6875 48.390625 
Q 23 48.390625 18.546875 47.265625 
Q 14.109375 46.140625 10.015625 43.890625 
L 10.015625 52.203125 
Q 14.9375 54.109375 19.578125 55.046875 
Q 24.21875 56 28.609375 56 
Q 40.484375 56 46.34375 49.84375 
Q 52.203125 43.703125 52.203125 31.203125 
" id="DejaVuSans-61"/>
      <path d="M 44.28125 53.078125 
L 44.28125 44.578125 
Q 40.484375 46.53125 36.375 47.5 
Q 32.28125 48.484375 27.875 48.484375 
Q 21.1875 48.484375 17.84375 46.4375 
Q 14.5 44.390625 14.5 40.28125 
Q 14.5 37.15625 16.890625 35.375 
Q 19.28125 33.59375 26.515625 31.984375 
L 29.59375 31.296875 
Q 39.15625 29.25 43.1875 25.515625 
Q 47.21875 21.78125 47.21875 15.09375 
Q 47.21875 7.46875 41.1875 3.015625 
Q 35.15625 -1.421875 24.609375 -1.421875 
Q 20.21875 -1.421875 15.453125 -0.5625 
Q 10.6875 0.296875 5.421875 2 
L 5.421875 11.28125 
Q 10.40625 8.6875 15.234375 7.390625 
Q 20.0625 6.109375 24.8125 6.109375 
Q 31.15625 6.109375 34.5625 8.28125 
Q 37.984375 10.453125 37.984375 14.40625 
Q 37.984375 18.0625 35.515625 20.015625 
Q 33.0625 21.96875 24.703125 23.78125 
L 21.578125 24.515625 
Q 13.234375 26.265625 9.515625 29.90625 
Q 5.8125 33.546875 5.8125 39.890625 
Q 5.8125 47.609375 11.28125 51.796875 
Q 16.75 56 26.8125 56 
Q 31.78125 56 36.171875 55.265625 
Q 40.578125 54.546875 44.28125 53.078125 
" id="DejaVuSans-73"/>
      <path d="M 25.390625 72.90625 
L 33.6875 72.90625 
L 8.296875 -9.28125 
L 0 -9.28125 
z
" id="DejaVuSans-2f"/>
      <path d="M 45.40625 46.390625 
L 45.40625 75.984375 
L 54.390625 75.984375 
L 54.390625 0 
L 45.40625 0 
L 45.40625 8.203125 
Q 42.578125 3.328125 38.25 0.953125 
Q 33.9375 -1.421875 27.875 -1.421875 
Q 17.96875 -1.421875 11.734375 6.484375 
Q 5.515625 14.40625 5.515625 27.296875 
Q 5.515625 40.1875 11.734375 48.09375 
Q 17.96875 56 27.875 56 
Q 33.9375 56 38.25 53.625 
Q 42.578125 51.265625 45.40625 46.390625 
M 14.796875 27.296875 
Q 14.796875 17.390625 18.875 11.75 
Q 22.953125 6.109375 30.078125 6.109375 
Q 37.203125 6.109375 41.296875 11.75 
Q 45.40625 17.390625 45.40625 27.296875 
Q 45.40625 37.203125 41.296875 42.84375 
Q 37.203125 48.484375 30.078125 48.484375 
Q 22.953125 48.484375 18.875 42.84375 
Q 14.796875 37.203125 14.796875 27.296875 
" id="DejaVuSans-64"/>
      <path d="M 9.421875 54.6875 
L 18.40625 54.6875 
L 18.40625 0 
L 9.421875 0 
z
M 9.421875 75.984375 
L 18.40625 75.984375 
L 18.40625 64.59375 
L 9.421875 64.59375 
z
" id="DejaVuSans-69"/>
      <path d="M 52 44.1875 
Q 55.375 50.25 60.0625 53.125 
Q 64.75 56 71.09375 56 
Q 79.640625 56 84.28125 50.015625 
Q 88.921875 44.046875 88.921875 33.015625 
L 88.921875 0 
L 79.890625 0 
L 79.890625 32.71875 
Q 79.890625 40.578125 77.09375 44.375 
Q 74.3125 48.1875 68.609375 48.1875 
Q 61.625 48.1875 57.5625 43.546875 
Q 53.515625 38.921875 53.515625 30.90625 
L 53.515625 0 
L 44.484375 0 
L 44.484375 32.71875 
Q 44.484375 40.625 41.703125 44.40625 
Q 38.921875 48.1875 33.109375 48.1875 
Q 26.21875 48.1875 22.15625 43.53125 
Q 18.109375 38.875 18.109375 30.90625 
L 18.109375 0 
L 9.078125 0 
L 9.078125 54.6875 
L 18.109375 54.6875 
L 18.109375 46.1875 
Q 21.1875 51.21875 25.484375 53.609375 
Q 29.78125 56 35.6875 56 
Q 41.65625 56 45.828125 52.96875 
Q 50 49.953125 52 44.1875 
" id="DejaVuSans-6d"/>
      <path d="M 54.890625 33.015625 
L 54.890625 0 
L 45.90625 0 
L 45.90625 32.71875 
Q 45.90625 40.484375 42.875 44.328125 
Q 39.84375 48.1875 33.796875 48.1875 
Q 26.515625 48.1875 22.3125 43.546875 
Q 18.109375 38.921875 18.109375 30.90625 
L 18.109375 0 
L 9.078125 0 
L 9.078125 54.6875 
L 18.109375 54.6875 
L 18.109375 46.1875 
Q 21.34375 51.125 25.703125 53.5625 
Q 30.078125 56 35.796875 56 
Q 45.21875 56 50.046875 50.171875 
Q 54.890625 44.34375 54.890625 33.015625 
" id="DejaVuSans-6e"/>
      <path d="M 8.015625 75.875 
L 15.828125 75.875 
Q 23.140625 64.359375 26.78125 53.3125 
Q 30.421875 42.28125 30.421875 31.390625 
Q 30.421875 20.453125 26.78125 9.375 
Q 23.140625 -1.703125 15.828125 -13.1875 
L 8.015625 -13.1875 
Q 14.5 -2 17.703125 9.0625 
Q 20.90625 20.125 20.90625 31.390625 
Q 20.90625 42.671875 17.703125 53.65625 
Q 14.5 64.65625 8.015625 75.875 
" id="DejaVuSans-29"/>
     </defs>
     <g transform="translate(107.571219 337.433594)scale(0.17 -0.17)">
      <use xlink:href="#DejaVuSans-6c"/>
      <use x="27.783203" xlink:href="#DejaVuSans-6f"/>
      <use x="88.964844" xlink:href="#DejaVuSans-67"/>
      <use x="152.441406" xlink:href="#DejaVuSans-31"/>
      <use x="216.064453" xlink:href="#DejaVuSans-30"/>
      <use x="279.6875" xlink:href="#DejaVuSans-28"/>
      <use x="318.701172" xlink:href="#DejaVuSans-23"/>
      <use x="402.490234" xlink:href="#DejaVuSans-20"/>
      <use x="434.277344" xlink:href="#DejaVuSans-66"/>
      <use x="469.404297" xlink:href="#DejaVuSans-2d"/>
      <use x="505.488281" xlink:href="#DejaVuSans-65"/>
      <use x="567.011719" xlink:href="#DejaVuSans-76"/>
      <use x="626.191406" xlink:href="#DejaVuSans-61"/>
      <use x="687.470703" xlink:href="#DejaVuSans-6c"/>
      <use x="715.253906" xlink:href="#DejaVuSans-73"/>
      <use x="767.353516" xlink:href="#DejaVuSans-20"/>
      <use x="799.140625" xlink:href="#DejaVuSans-2f"/>
      <use x="832.832031" xlink:href="#DejaVuSans-20"/>
      <use x="864.619141" xlink:href="#DejaVuSans-64"/>
      <use x="928.095703" xlink:href="#DejaVuSans-69"/>
      <use x="955.878906" xlink:href="#DejaVuSans-6d"/>
      <use x="1053.291016" xlink:href="#DejaVuSans-65"/>
      <use x="1114.814453" xlink:href="#DejaVuSans-6e"/>
      <use x="1178.193359" xlink:href="#DejaVuSans-73"/>
      <use x="1230.292969" xlink:href="#DejaVuSans-69"/>
      <use x="1258.076172" xlink:href="#DejaVuSans-6f"/>
      <use x="1319.257812" xlink:href="#DejaVuSans-6e"/>
      <use x="1382.636719" xlink:href="#DejaVuSans-29"/>
     </g>
    </g>
   </g>
   <g id="matplotlib.axis_2">
    <g id="ytick_1">
     <g id="line2d_33">
      <path clip-path="url(#p2e2b992968)" d="M 56.84 294.16 
L 399.984 294.16 
" style="fill:none;stroke:#b0b0b0;stroke-linecap:square;stroke-width:0.8;"/>
     </g>
     <g id="line2d_34">
      <defs>
       <path d="M 0 0 
L -3.5 0 
" id="m5290fdcc4c" style="stroke:#000000;stroke-width:0.8;"/>
      </defs>
      <g>
       <use style="stroke:#000000;stroke-width:0.8;" x="56.84" xlink:href="#m5290fdcc4c" y="294.16"/>
      </g>
     </g>
     <g id="text_7">
      <!-- 0.0 -->
      <defs>
       <path d="M 10.6875 12.40625 
L 21 12.40625 
L 21 0 
L 10.6875 0 
z
" id="DejaVuSans-2e"/>
      </defs>
      <g transform="translate(24.395 300.23875)scale(0.16 -0.16)">
       <use xlink:href="#DejaVuSans-30"/>
       <use x="63.623047" xlink:href="#DejaVuSans-2e"/>
       <use x="95.410156" xlink:href="#DejaVuSans-30"/>
      </g>
     </g>
    </g>
    <g id="ytick_2">
     <g id="line2d_35">
      <path clip-path="url(#p2e2b992968)" d="M 56.84 237.123411 
L 399.984 237.123411 
" style="fill:none;stroke:#b0b0b0;stroke-linecap:square;stroke-width:0.8;"/>
     </g>
     <g id="line2d_36">
      <g>
       <use style="stroke:#000000;stroke-width:0.8;" x="56.84" xlink:href="#m5290fdcc4c" y="237.123411"/>
      </g>
     </g>
     <g id="text_8">
      <!-- 0.2 -->
      <g transform="translate(24.395 243.202161)scale(0.16 -0.16)">
       <use xlink:href="#DejaVuSans-30"/>
       <use x="63.623047" xlink:href="#DejaVuSans-2e"/>
       <use x="95.410156" xlink:href="#DejaVuSans-32"/>
      </g>
     </g>
    </g>
    <g id="ytick_3">
     <g id="line2d_37">
      <path clip-path="url(#p2e2b992968)" d="M 56.84 180.086823 
L 399.984 180.086823 
" style="fill:none;stroke:#b0b0b0;stroke-linecap:square;stroke-width:0.8;"/>
     </g>
     <g id="line2d_38">
      <g>
       <use style="stroke:#000000;stroke-width:0.8;" x="56.84" xlink:href="#m5290fdcc4c" y="180.086823"/>
      </g>
     </g>
     <g id="text_9">
      <!-- 0.4 -->
      <g transform="translate(24.395 186.165573)scale(0.16 -0.16)">
       <use xlink:href="#DejaVuSans-30"/>
       <use x="63.623047" xlink:href="#DejaVuSans-2e"/>
       <use x="95.410156" xlink:href="#DejaVuSans-34"/>
      </g>
     </g>
    </g>
    <g id="ytick_4">
     <g id="line2d_39">
      <path clip-path="url(#p2e2b992968)" d="M 56.84 123.050234 
L 399.984 123.050234 
" style="fill:none;stroke:#b0b0b0;stroke-linecap:square;stroke-width:0.8;"/>
     </g>
     <g id="line2d_40">
      <g>
       <use style="stroke:#000000;stroke-width:0.8;" x="56.84" xlink:href="#m5290fdcc4c" y="123.050234"/>
      </g>
     </g>
     <g id="text_10">
      <!-- 0.6 -->
      <g transform="translate(24.395 129.128984)scale(0.16 -0.16)">
       <use xlink:href="#DejaVuSans-30"/>
       <use x="63.623047" xlink:href="#DejaVuSans-2e"/>
       <use x="95.410156" xlink:href="#DejaVuSans-36"/>
      </g>
     </g>
    </g>
    <g id="ytick_5">
     <g id="line2d_41">
      <path clip-path="url(#p2e2b992968)" d="M 56.84 66.013646 
L 399.984 66.013646 
" style="fill:none;stroke:#b0b0b0;stroke-linecap:square;stroke-width:0.8;"/>
     </g>
     <g id="line2d_42">
      <g>
       <use style="stroke:#000000;stroke-width:0.8;" x="56.84" xlink:href="#m5290fdcc4c" y="66.013646"/>
      </g>
     </g>
     <g id="text_11">
      <!-- 0.8 -->
      <g transform="translate(24.395 72.092396)scale(0.16 -0.16)">
       <use xlink:href="#DejaVuSans-30"/>
       <use x="63.623047" xlink:href="#DejaVuSans-2e"/>
       <use x="95.410156" xlink:href="#DejaVuSans-38"/>
      </g>
     </g>
    </g>
    <g id="ytick_6">
     <g id="line2d_43">
      <path clip-path="url(#p2e2b992968)" d="M 56.84 8.977057 
L 399.984 8.977057 
" style="fill:none;stroke:#b0b0b0;stroke-linecap:square;stroke-width:0.8;"/>
     </g>
     <g id="line2d_44">
      <g>
       <use style="stroke:#000000;stroke-width:0.8;" x="56.84" xlink:href="#m5290fdcc4c" y="8.977057"/>
      </g>
     </g>
     <g id="text_12">
      <!-- 1.0 -->
      <g transform="translate(24.395 15.055807)scale(0.16 -0.16)">
       <use xlink:href="#DejaVuSans-31"/>
       <use x="63.623047" xlink:href="#DejaVuSans-2e"/>
       <use x="95.410156" xlink:href="#DejaVuSans-30"/>
      </g>
     </g>
    </g>
    <g id="text_13">
     <!-- Fraction of function,target pairs -->
     <defs>
      <path d="M 9.8125 72.90625 
L 51.703125 72.90625 
L 51.703125 64.59375 
L 19.671875 64.59375 
L 19.671875 43.109375 
L 48.578125 43.109375 
L 48.578125 34.8125 
L 19.671875 34.8125 
L 19.671875 0 
L 9.8125 0 
z
" id="DejaVuSans-46"/>
      <path d="M 41.109375 46.296875 
Q 39.59375 47.171875 37.8125 47.578125 
Q 36.03125 48 33.890625 48 
Q 26.265625 48 22.1875 43.046875 
Q 18.109375 38.09375 18.109375 28.8125 
L 18.109375 0 
L 9.078125 0 
L 9.078125 54.6875 
L 18.109375 54.6875 
L 18.109375 46.1875 
Q 20.953125 51.171875 25.484375 53.578125 
Q 30.03125 56 36.53125 56 
Q 37.453125 56 38.578125 55.875 
Q 39.703125 55.765625 41.0625 55.515625 
z
" id="DejaVuSans-72"/>
      <path d="M 48.78125 52.59375 
L 48.78125 44.1875 
Q 44.96875 46.296875 41.140625 47.34375 
Q 37.3125 48.390625 33.40625 48.390625 
Q 24.65625 48.390625 19.8125 42.84375 
Q 14.984375 37.3125 14.984375 27.296875 
Q 14.984375 17.28125 19.8125 11.734375 
Q 24.65625 6.203125 33.40625 6.203125 
Q 37.3125 6.203125 41.140625 7.25 
Q 44.96875 8.296875 48.78125 10.40625 
L 48.78125 2.09375 
Q 45.015625 0.34375 40.984375 -0.53125 
Q 36.96875 -1.421875 32.421875 -1.421875 
Q 20.0625 -1.421875 12.78125 6.34375 
Q 5.515625 14.109375 5.515625 27.296875 
Q 5.515625 40.671875 12.859375 48.328125 
Q 20.21875 56 33.015625 56 
Q 37.15625 56 41.109375 55.140625 
Q 45.0625 54.296875 48.78125 52.59375 
" id="DejaVuSans-63"/>
      <path d="M 18.3125 70.21875 
L 18.3125 54.6875 
L 36.8125 54.6875 
L 36.8125 47.703125 
L 18.3125 47.703125 
L 18.3125 18.015625 
Q 18.3125 11.328125 20.140625 9.421875 
Q 21.96875 7.515625 27.59375 7.515625 
L 36.8125 7.515625 
L 36.8125 0 
L 27.59375 0 
Q 17.1875 0 13.234375 3.875 
Q 9.28125 7.765625 9.28125 18.015625 
L 9.28125 47.703125 
L 2.6875 47.703125 
L 2.6875 54.6875 
L 9.28125 54.6875 
L 9.28125 70.21875 
z
" id="DejaVuSans-74"/>
      <path d="M 8.5 21.578125 
L 8.5 54.6875 
L 17.484375 54.6875 
L 17.484375 21.921875 
Q 17.484375 14.15625 20.5 10.265625 
Q 23.53125 6.390625 29.59375 6.390625 
Q 36.859375 6.390625 41.078125 11.03125 
Q 45.3125 15.671875 45.3125 23.6875 
L 45.3125 54.6875 
L 54.296875 54.6875 
L 54.296875 0 
L 45.3125 0 
L 45.3125 8.40625 
Q 42.046875 3.421875 37.71875 1 
Q 33.40625 -1.421875 27.6875 -1.421875 
Q 18.265625 -1.421875 13.375 4.4375 
Q 8.5 10.296875 8.5 21.578125 
M 31.109375 56 
z
" id="DejaVuSans-75"/>
      <path d="M 11.71875 12.40625 
L 22.015625 12.40625 
L 22.015625 4 
L 14.015625 -11.625 
L 7.71875 -11.625 
L 11.71875 4 
z
" id="DejaVuSans-2c"/>
      <path d="M 18.109375 8.203125 
L 18.109375 -20.796875 
L 9.078125 -20.796875 
L 9.078125 54.6875 
L 18.109375 54.6875 
L 18.109375 46.390625 
Q 20.953125 51.265625 25.265625 53.625 
Q 29.59375 56 35.59375 56 
Q 45.5625 56 51.78125 48.09375 
Q 58.015625 40.1875 58.015625 27.296875 
Q 58.015625 14.40625 51.78125 6.484375 
Q 45.5625 -1.421875 35.59375 -1.421875 
Q 29.59375 -1.421875 25.265625 0.953125 
Q 20.953125 3.328125 18.109375 8.203125 
M 48.6875 27.296875 
Q 48.6875 37.203125 44.609375 42.84375 
Q 40.53125 48.484375 33.40625 48.484375 
Q 26.265625 48.484375 22.1875 42.84375 
Q 18.109375 37.203125 18.109375 27.296875 
Q 18.109375 17.390625 22.1875 11.75 
Q 26.265625 6.109375 33.40625 6.109375 
Q 40.53125 6.109375 44.609375 11.75 
Q 48.6875 17.390625 48.6875 27.296875 
" id="DejaVuSans-70"/>
     </defs>
     <g transform="translate(16.859531 285.281989)rotate(-90)scale(0.17 -0.17)">
      <use xlink:href="#DejaVuSans-46"/>
      <use x="57.410156" xlink:href="#DejaVuSans-72"/>
      <use x="98.523438" xlink:href="#DejaVuSans-61"/>
      <use x="159.802734" xlink:href="#DejaVuSans-63"/>
      <use x="214.783203" xlink:href="#DejaVuSans-74"/>
      <use x="253.992188" xlink:href="#DejaVuSans-69"/>
      <use x="281.775391" xlink:href="#DejaVuSans-6f"/>
      <use x="342.957031" xlink:href="#DejaVuSans-6e"/>
      <use x="406.335938" xlink:href="#DejaVuSans-20"/>
      <use x="438.123047" xlink:href="#DejaVuSans-6f"/>
      <use x="499.304688" xlink:href="#DejaVuSans-66"/>
      <use x="534.509766" xlink:href="#DejaVuSans-20"/>
      <use x="566.296875" xlink:href="#DejaVuSans-66"/>
      <use x="601.501953" xlink:href="#DejaVuSans-75"/>
      <use x="664.880859" xlink:href="#DejaVuSans-6e"/>
      <use x="728.259766" xlink:href="#DejaVuSans-63"/>
      <use x="783.240234" xlink:href="#DejaVuSans-74"/>
      <use x="822.449219" xlink:href="#DejaVuSans-69"/>
      <use x="850.232422" xlink:href="#DejaVuSans-6f"/>
      <use x="911.414062" xlink:href="#DejaVuSans-6e"/>
      <use x="974.792969" xlink:href="#DejaVuSans-2c"/>
      <use x="1006.580078" xlink:href="#DejaVuSans-74"/>
      <use x="1045.789062" xlink:href="#DejaVuSans-61"/>
      <use x="1107.068359" xlink:href="#DejaVuSans-72"/>
      <use x="1148.166016" xlink:href="#DejaVuSans-67"/>
      <use x="1211.642578" xlink:href="#DejaVuSans-65"/>
      <use x="1273.166016" xlink:href="#DejaVuSans-74"/>
      <use x="1312.375" xlink:href="#DejaVuSans-20"/>
      <use x="1344.162109" xlink:href="#DejaVuSans-70"/>
      <use x="1407.638672" xlink:href="#DejaVuSans-61"/>
      <use x="1468.917969" xlink:href="#DejaVuSans-69"/>
      <use x="1496.701172" xlink:href="#DejaVuSans-72"/>
      <use x="1537.814453" xlink:href="#DejaVuSans-73"/>
     </g>
    </g>
   </g>
   <g id="line2d_45">
    <defs>
     <path d="M 0 1.5 
C 0.397805 1.5 0.77937 1.341951 1.06066 1.06066 
C 1.341951 0.77937 1.5 0.397805 1.5 0 
C 1.5 -0.397805 1.341951 -0.77937 1.06066 -1.06066 
C 0.77937 -1.341951 0.397805 -1.5 0 -1.5 
C -0.397805 -1.5 -0.77937 -1.341951 -1.06066 -1.06066 
C -1.341951 -0.77937 -1.5 -0.397805 -1.5 0 
C -1.5 0.397805 -1.341951 0.77937 -1.06066 1.06066 
C -0.77937 1.341951 -0.397805 1.5 0 1.5 
z
" id="mae5e4b91b1" style="stroke:#f5deb3;"/>
    </defs>
    <g>
     <use style="fill:#f5deb3;stroke:#f5deb3;" x="293.352626" xlink:href="#mae5e4b91b1" y="145.422344"/>
     <use style="fill:#f5deb3;stroke:#f5deb3;" x="293.352626" xlink:href="#mae5e4b91b1" y="145.422344"/>
    </g>
   </g>
   <g id="line2d_46">
    <defs>
     <path d="M 0 1.5 
C 0.397805 1.5 0.77937 1.341951 1.06066 1.06066 
C 1.341951 0.77937 1.5 0.397805 1.5 0 
C 1.5 -0.397805 1.341951 -0.77937 1.06066 -1.06066 
C 0.77937 -1.341951 0.397805 -1.5 0 -1.5 
C -0.397805 -1.5 -0.77937 -1.341951 -1.06066 -1.06066 
C -1.341951 -0.77937 -1.5 -0.397805 -1.5 0 
C -1.5 0.397805 -1.341951 0.77937 -1.06066 1.06066 
C -0.77937 1.341951 -0.397805 1.5 0 1.5 
z
" id="mdf802478b6" style="stroke:#000080;"/>
    </defs>
    <g>
     <use style="fill:#000080;stroke:#000080;" x="313.335569" xlink:href="#mdf802478b6" y="247.449001"/>
     <use style="fill:#000080;stroke:#000080;" x="313.335569" xlink:href="#mdf802478b6" y="247.449001"/>
    </g>
   </g>
   <g id="line2d_47">
    <path d="M -1 285.063648 
L 100.065932 285.063648 
L 100.065932 284.940724 
L 109.693655 284.940724 
L 109.693655 284.8178 
L 110.63544 284.8178 
L 110.728698 284.571953 
L 111.563711 284.571953 
L 111.563711 284.449029 
L 111.94915 284.449029 
L 111.94915 284.203182 
L 112.326126 284.203182 
L 112.427517 283.711487 
L 112.794244 283.711487 
L 112.794244 283.46564 
L 113.771923 283.46564 
L 113.771923 283.342716 
L 114.019406 283.342716 
L 114.019406 283.219792 
L 114.17229 283.219792 
L 114.278505 282.48225 
L 114.414109 282.48225 
L 114.414109 282.359327 
L 115.306008 282.359327 
L 115.32025 281.990555 
L 115.433763 281.990555 
L 115.433763 281.867632 
L 115.560575 281.867632 
L 115.560575 281.621784 
L 116.031363 281.621784 
L 116.031363 281.498861 
L 116.648435 281.498861 
L 116.70106 281.13009 
L 116.83192 281.13009 
L 116.83192 281.007166 
L 117.205871 281.007166 
L 117.205871 280.884242 
L 117.930192 280.884242 
L 118.027742 279.900853 
L 118.436257 279.900853 
L 118.436257 279.655005 
L 118.660382 279.655005 
L 118.660382 279.409158 
L 119.111458 279.409158 
L 119.111458 279.163311 
L 119.416942 279.163311 
L 119.416942 278.917463 
L 120.31272 278.917463 
L 120.31272 278.671616 
L 120.754049 278.671616 
L 120.754049 278.548692 
L 120.898673 278.548692 
L 120.898673 278.425769 
L 121.425428 278.425769 
L 121.425428 278.179921 
L 121.643511 278.179921 
L 121.712324 277.196532 
L 122.033065 277.196532 
L 122.033065 277.073608 
L 122.272122 277.073608 
L 122.338466 276.827761 
L 123.232351 276.827761 
L 123.232351 276.704837 
L 124.022064 276.704837 
L 124.124667 276.213142 
L 124.294321 276.213142 
L 124.294321 276.090219 
L 125.01341 276.090219 
L 125.01341 275.967295 
L 125.190576 275.967295 
L 125.190576 275.721448 
L 126.231902 275.721448 
L 126.231902 275.598524 
L 126.567898 275.598524 
L 126.567898 275.352677 
L 126.707812 275.352677 
L 126.707812 275.229753 
L 128.529193 275.229753 
L 128.634403 274.615135 
L 129.138265 274.615135 
L 129.227157 274.369287 
L 130.037362 274.369287 
L 130.037362 274.246363 
L 133.10002 274.246363 
L 133.10002 274.12344 
L 133.53912 274.12344 
L 133.53912 274.000516 
L 134.487863 274.000516 
L 134.487863 273.877592 
L 137.459665 273.877592 
L 137.502739 273.631745 
L 138.32364 273.631745 
L 138.32364 273.385898 
L 138.956816 273.385898 
L 138.956816 273.14005 
L 139.852907 273.14005 
L 139.852907 273.017127 
L 141.197213 273.017127 
L 141.197213 272.894203 
L 144.214611 272.894203 
L 144.214611 272.648356 
L 144.64823 272.648356 
L 144.64823 272.525432 
L 148.816502 272.525432 
L 148.816502 272.402508 
L 149.601579 272.402508 
L 149.601579 272.279585 
L 151.571722 272.279585 
L 151.571722 272.033737 
L 153.028225 272.033737 
L 153.028225 271.78789 
L 153.473626 271.78789 
L 153.473626 271.664966 
L 154.942423 271.664966 
L 154.942423 271.542042 
L 155.107326 271.542042 
L 155.107326 271.419119 
L 156.256095 271.419119 
L 156.256095 271.296195 
L 159.940969 271.296195 
L 160.017013 270.558653 
L 160.052805 270.558653 
L 160.052805 270.189882 
L 160.962137 270.189882 
L 160.991037 269.821111 
L 161.273471 269.821111 
L 161.273471 269.698187 
L 162.380053 269.698187 
L 162.380053 269.575264 
L 162.653361 269.575264 
L 162.653361 269.329416 
L 162.965042 269.329416 
L 163.059749 268.960645 
L 168.939425 268.960645 
L 168.984489 268.591874 
L 169.141908 268.591874 
L 169.141908 268.46895 
L 171.355181 268.46895 
L 171.355181 268.346027 
L 171.864246 268.346027 
L 171.917547 268.100179 
L 174.142284 268.100179 
L 174.142284 267.977256 
L 175.995996 267.977256 
L 175.995996 267.731408 
L 178.436993 267.731408 
L 178.436993 267.485561 
L 179.400626 267.485561 
L 179.400626 266.993866 
L 179.636844 266.993866 
L 179.636844 266.870943 
L 179.771762 266.870943 
L 179.771762 266.748019 
L 181.393418 266.748019 
L 181.402821 266.256324 
L 182.740353 266.256324 
L 182.740353 265.887553 
L 183.365074 265.887553 
L 183.365074 265.764629 
L 184.162367 265.764629 
L 184.162367 265.641706 
L 184.99379 265.641706 
L 184.99379 265.395858 
L 185.538117 265.395858 
L 185.623943 265.027087 
L 185.753177 265.027087 
L 185.753177 264.78124 
L 186.278417 264.78124 
L 186.278417 264.535393 
L 188.028153 264.535393 
L 188.028153 264.412469 
L 188.540779 264.412469 
L 188.540779 264.289545 
L 189.016952 264.289545 
L 189.016952 264.166622 
L 189.513016 264.166622 
L 189.513016 263.920774 
L 190.309751 263.920774 
L 190.309751 263.552003 
L 191.022036 263.552003 
L 191.022382 263.306156 
L 191.183708 263.306156 
L 191.183708 263.183232 
L 192.445613 263.183232 
L 192.445613 262.937385 
L 192.97809 262.937385 
L 193.02608 262.568614 
L 194.820322 262.568614 
L 194.820322 262.44569 
L 195.388783 262.44569 
L 195.388783 262.199843 
L 195.909217 262.199843 
L 195.909217 262.076919 
L 196.284187 262.076919 
L 196.284187 261.953995 
L 198.516548 261.953995 
L 198.516548 261.831072 
L 199.099375 261.831072 
L 199.099375 261.585224 
L 200.493759 261.585224 
L 200.493759 261.462301 
L 200.659035 261.462301 
L 200.659035 261.339377 
L 200.885343 261.339377 
L 200.885343 261.216453 
L 201.155509 261.216453 
L 201.155509 261.093529 
L 202.5756 261.093529 
L 202.638481 260.478911 
L 204.132835 260.478911 
L 204.178205 260.233064 
L 204.411216 260.233064 
L 204.411216 260.11014 
L 205.348085 260.11014 
L 205.348085 259.987216 
L 206.489305 259.987216 
L 206.489305 259.864293 
L 208.841538 259.864293 
L 208.841538 259.741369 
L 209.194801 259.741369 
L 209.194801 259.495522 
L 211.321428 259.495522 
L 211.321428 259.372598 
L 211.555692 259.372598 
L 211.555692 259.003827 
L 214.417057 259.003827 
L 214.417057 258.75798 
L 216.0857 258.75798 
L 216.0857 258.389208 
L 218.01237 258.389208 
L 218.01237 258.266285 
L 221.039784 258.266285 
L 221.039784 258.143361 
L 223.075507 258.143361 
L 223.075507 257.77459 
L 223.623978 257.77459 
L 223.623978 257.528743 
L 223.850196 257.528743 
L 223.850196 257.405819 
L 229.085773 257.405819 
L 229.085773 257.282895 
L 233.842188 257.282895 
L 233.842188 257.159972 
L 234.437876 257.159972 
L 234.437876 257.037048 
L 234.66261 257.037048 
L 234.66261 256.914124 
L 236.858659 256.914124 
L 236.858659 256.668277 
L 238.194881 256.668277 
L 238.226058 256.053658 
L 241.836002 256.053658 
L 241.836002 255.930735 
L 242.472157 255.930735 
L 242.472157 255.807811 
L 242.748949 255.807811 
L 242.748949 255.684887 
L 243.428275 255.684887 
L 243.428275 255.561964 
L 247.333596 255.561964 
L 247.333596 255.43904 
L 248.769416 255.43904 
L 248.769416 255.070269 
L 249.25048 255.070269 
L 249.25048 254.701498 
L 250.519971 254.701498 
L 250.519971 254.332727 
L 252.135872 254.332727 
L 252.135872 254.209803 
L 252.655167 254.209803 
L 252.655167 253.595185 
L 253.112975 253.595185 
L 253.163633 253.226414 
L 255.839013 253.226414 
L 255.839013 253.10349 
L 256.440331 253.10349 
L 256.510754 252.857643 
L 257.057214 252.857643 
L 257.133974 252.365948 
L 259.150051 252.365948 
L 259.203639 251.997177 
L 260.117933 251.997177 
L 260.126656 251.75133 
L 261.744857 251.75133 
L 261.744857 251.628406 
L 263.775651 251.628406 
L 263.775651 251.505482 
L 264.527906 251.505482 
L 264.527958 251.259635 
L 267.728574 251.259635 
L 267.728628 251.013788 
L 268.914686 251.013788 
L 268.914686 250.890864 
L 269.439981 250.890864 
L 269.439981 250.76794 
L 271.658775 250.76794 
L 271.658832 250.522093 
L 271.78701 250.522093 
L 271.78701 250.399169 
L 272.015219 250.399169 
L 272.015219 250.276245 
L 277.040995 250.276245 
L 277.040995 250.153322 
L 277.302157 250.153322 
L 277.302157 250.030398 
L 277.861293 250.030398 
L 277.861293 249.907474 
L 277.979788 249.907474 
L 277.979788 249.784551 
L 281.338679 249.784551 
L 281.338679 249.661627 
L 281.782112 249.661627 
L 281.782112 249.538703 
L 282.678262 249.538703 
L 282.678262 249.41578 
L 284.495238 249.41578 
L 284.604456 249.169932 
L 287.660918 249.169932 
L 287.660918 249.047009 
L 288.314428 249.047009 
L 288.314428 248.924085 
L 288.668569 248.924085 
L 288.668569 248.801161 
L 289.711536 248.801161 
L 289.711557 248.555314 
L 292.818313 248.555314 
L 292.818313 248.43239 
L 298.952228 248.43239 
L 298.952238 248.186543 
L 299.533073 248.186543 
L 299.533073 248.063619 
L 301.860966 248.063619 
L 301.860966 247.940695 
L 302.440872 247.940695 
L 302.440872 247.817772 
L 303.462245 247.817772 
L 303.462245 247.694848 
L 304.850419 247.694848 
L 304.850419 247.571924 
L 313.335569 247.571924 
L 313.335569 247.449001 
L 333.569032 247.449001 
L 333.569032 247.449001 
" style="fill:none;stroke:#000080;stroke-linecap:square;stroke-width:1.5;"/>
   </g>
   <g id="line2d_48">
    <defs>
     <path d="M 0 6 
C 1.591219 6 3.117479 5.367802 4.242641 4.242641 
C 5.367802 3.117479 6 1.591219 6 0 
C 6 -1.591219 5.367802 -3.117479 4.242641 -4.242641 
C 3.117479 -5.367802 1.591219 -6 0 -6 
C -1.591219 -6 -3.117479 -5.367802 -4.242641 -4.242641 
C -5.367802 -3.117479 -6 -1.591219 -6 0 
C -6 1.591219 -5.367802 3.117479 -4.242641 4.242641 
C -3.117479 5.367802 -1.591219 6 0 6 
z
" id="mb921091ff8" style="stroke:#000080;stroke-width:1.5;"/>
    </defs>
    <g>
     <use style="fill:none;stroke:#000080;stroke-width:1.5;" x="138.956816" xlink:href="#mb921091ff8" y="273.14005"/>
     <use style="fill:none;stroke:#000080;stroke-width:1.5;" x="216.0857" xlink:href="#mb921091ff8" y="258.75798"/>
     <use style="fill:none;stroke:#000080;stroke-width:1.5;" x="304.850419" xlink:href="#mb921091ff8" y="247.694848"/>
     <use style="fill:none;stroke:#000080;stroke-width:1.5;" x="313.335569" xlink:href="#mb921091ff8" y="247.449001"/>
     <use style="fill:none;stroke:#000080;stroke-width:1.5;" x="333.569032" xlink:href="#mb921091ff8" y="247.449001"/>
    </g>
   </g>
   <g id="line2d_49">
    <path style="fill:none;stroke:#000080;stroke-linecap:square;stroke-width:1.5;"/>
    <g/>
   </g>
   <g id="line2d_50">
    <path clip-path="url(#p2e2b992968)" d="M 254.504161 253.226414 
" style="fill:none;stroke:#000080;stroke-linecap:square;stroke-width:1.5;"/>
    <defs>
     <path d="M -12 12 
L 12 -12 
M -12 -12 
L 12 12 
" id="mb8ceb759c4" style="stroke:#000080;stroke-width:3;"/>
    </defs>
    <g clip-path="url(#p2e2b992968)">
     <use style="fill:#000080;stroke:#000080;stroke-width:3;" x="254.504161" xlink:href="#mb8ceb759c4" y="253.226414"/>
    </g>
   </g>
   <g id="line2d_51">
    <defs>
     <path d="M 0 1.5 
C 0.397805 1.5 0.77937 1.341951 1.06066 1.06066 
C 1.341951 0.77937 1.5 0.397805 1.5 0 
C 1.5 -0.397805 1.341951 -0.77937 1.06066 -1.06066 
C 0.77937 -1.341951 0.397805 -1.5 0 -1.5 
C -0.397805 -1.5 -0.77937 -1.341951 -1.06066 -1.06066 
C -1.341951 -0.77937 -1.5 -0.397805 -1.5 0 
C -1.5 0.397805 -1.341951 0.77937 -1.06066 1.06066 
C -0.77937 1.341951 -0.397805 1.5 0 1.5 
z
" id="m899a04a085" style="stroke:#ff00ff;"/>
    </defs>
    <g>
     <use style="fill:#ff00ff;stroke:#ff00ff;" x="352.998936" xlink:href="#m899a04a085" y="267.11679"/>
     <use style="fill:#ff00ff;stroke:#ff00ff;" x="352.998936" xlink:href="#m899a04a085" y="267.11679"/>
    </g>
   </g>
   <g id="line2d_52">
    <path d="M -1 293.668305 
L 5.406747 293.668305 
L 5.406747 293.422458 
L 12.368113 293.422458 
L 12.368113 292.684916 
L 17.307281 292.684916 
L 17.307281 292.561992 
L 21.138397 292.561992 
L 21.138397 291.82445 
L 26.915236 291.82445 
L 26.915236 290.718137 
L 29.207815 290.718137 
L 29.207815 290.349366 
L 37.543422 290.349366 
L 37.543422 290.226442 
L 41.10835 290.226442 
L 41.10835 290.103518 
L 42.149204 290.103518 
L 42.149204 289.857671 
L 43.130548 289.857671 
L 43.130548 289.734747 
L 44.058819 289.734747 
L 44.058819 289.4889 
L 46.575831 289.4889 
L 46.575831 289.365976 
L 47.339016 289.365976 
L 47.339016 289.120129 
L 55.031082 289.120129 
L 55.031082 288.997205 
L 56.84 288.997205 
L 56.84 288.751358 
L 59.97025 288.751358 
L 59.97025 288.628434 
L 61.011104 288.628434 
L 61.011104 288.382587 
L 64.909418 288.382587 
L 64.909418 288.13674 
L 70.762732 288.13674 
L 70.762732 288.013816 
L 72.742486 288.013816 
L 72.742486 287.767969 
L 73.245025 287.767969 
L 73.245025 287.645045 
L 73.892982 287.645045 
L 73.892982 287.522121 
L 74.971201 287.522121 
L 74.971201 287.399197 
L 78.225414 287.399197 
L 78.225414 287.276274 
L 83.040619 287.276274 
L 83.040619 287.15335 
L 84.727805 287.15335 
L 84.727805 286.907503 
L 86.341089 286.907503 
L 86.341089 286.784579 
L 89.4328 286.784579 
L 89.4328 286.538732 
L 90.187596 286.538732 
L 90.187596 286.292884 
L 93.882794 286.292884 
L 93.882794 286.047037 
L 94.800616 286.047037 
L 94.800616 285.80119 
L 96.628339 285.80119 
L 96.628339 285.555342 
L 104.0624 285.555342 
L 104.0624 285.309495 
L 108.187194 285.309495 
L 108.187194 285.186571 
L 108.380224 285.186571 
L 108.380224 285.063648 
L 110.858415 285.063648 
L 110.858415 284.8178 
L 111.25983 284.8178 
L 111.25983 284.694876 
L 114.578405 284.694876 
L 114.578405 284.449029 
L 117.596806 284.449029 
L 117.596806 284.326105 
L 120.302073 284.326105 
L 120.302073 284.080258 
L 124.150222 284.080258 
L 124.150222 283.957334 
L 124.537379 283.957334 
L 124.537379 283.834411 
L 128.236497 283.834411 
L 128.236497 283.711487 
L 128.396768 283.711487 
L 128.396768 283.588563 
L 129.119156 283.588563 
L 129.119156 283.096869 
L 130.654415 283.096869 
L 130.654415 282.851021 
L 138.211425 282.851021 
L 138.211425 282.728098 
L 140.756389 282.728098 
L 140.756389 282.605174 
L 141.244454 282.605174 
L 141.244454 282.48225 
L 143.063119 282.48225 
L 143.063119 282.359327 
L 148.346768 282.359327 
L 148.346768 282.236403 
L 151.212973 282.236403 
L 151.212973 282.113479 
L 153.898736 282.113479 
L 153.898736 281.990555 
L 154.448198 281.990555 
L 154.448198 281.744708 
L 156.55779 281.744708 
L 156.55779 281.375937 
L 163.264189 281.375937 
L 163.264189 280.884242 
L 166.353833 280.884242 
L 166.353833 280.761319 
L 168.227326 280.761319 
L 168.227326 280.638395 
L 181.054516 280.638395 
L 181.054516 280.515471 
L 183.724299 280.515471 
L 183.724299 280.392548 
L 188.107343 280.392548 
L 188.107343 279.900853 
L 189.293991 279.900853 
L 189.293991 279.777929 
L 189.758384 279.777929 
L 189.758384 279.409158 
L 193.897633 279.409158 
L 193.897633 279.286234 
L 200.578829 279.286234 
L 200.578829 279.163311 
L 205.392533 279.163311 
L 205.392533 278.917463 
L 205.584021 278.917463 
L 205.584021 278.79454 
L 207.774998 278.79454 
L 207.774998 278.425769 
L 210.297699 278.425769 
L 210.297699 278.302845 
L 213.807796 278.302845 
L 213.807796 278.179921 
L 216.279048 278.179921 
L 216.279048 278.056998 
L 219.349873 278.056998 
L 219.349873 277.81115 
L 225.770842 277.81115 
L 225.770842 277.688227 
L 225.987713 277.688227 
L 225.987713 277.565303 
L 230.51625 277.565303 
L 230.51625 277.319456 
L 231.373391 277.319456 
L 231.43842 276.827761 
L 232.848852 276.827761 
L 232.848852 276.704837 
L 241.315851 276.704837 
L 241.315851 276.581913 
L 241.475246 276.581913 
L 241.475246 276.336066 
L 248.705321 276.336066 
L 248.705321 275.967295 
L 253.411523 275.967295 
L 253.411523 275.721448 
L 254.608898 275.721448 
L 254.608898 275.229753 
L 256.620289 275.229753 
L 256.620289 274.983906 
L 257.608262 274.983906 
L 257.608262 274.860982 
L 259.023665 274.860982 
L 259.023665 274.492211 
L 260.481915 274.492211 
L 260.566983 273.877592 
L 275.487296 273.877592 
L 275.487296 273.631745 
L 275.614931 273.631745 
L 275.614931 273.508821 
L 275.904247 273.508821 
L 275.904247 273.385898 
L 277.943068 273.385898 
L 277.943068 273.14005 
L 279.429443 273.14005 
L 279.429443 273.017127 
L 287.886986 273.017127 
L 287.886986 272.771279 
L 290.063978 272.771279 
L 290.063978 272.648356 
L 291.254054 272.648356 
L 291.254054 272.402508 
L 291.591672 272.402508 
L 291.591672 272.279585 
L 294.037179 272.279585 
L 294.039381 272.033737 
L 294.191877 272.033737 
L 294.191877 271.910814 
L 294.476935 271.910814 
L 294.515929 271.664966 
L 295.682279 271.664966 
L 295.682279 271.542042 
L 296.136442 271.542042 
L 296.136442 270.8045 
L 305.983842 270.8045 
L 305.983842 270.681577 
L 306.881456 270.681577 
L 306.881456 270.558653 
L 307.019003 270.558653 
L 307.019003 270.435729 
L 312.019955 270.435729 
L 312.038306 269.944035 
L 313.627176 269.944035 
L 313.627176 269.575264 
L 321.157739 269.575264 
L 321.157739 269.45234 
L 324.365234 269.45234 
L 324.365234 269.329416 
L 325.167098 269.329416 
L 325.167098 269.206493 
L 327.467647 269.206493 
L 327.467647 269.083569 
L 327.761546 269.083569 
L 327.761546 268.960645 
L 329.420476 268.960645 
L 329.420476 268.837721 
L 331.777469 268.837721 
L 331.777469 268.714798 
L 333.569032 268.714798 
L 333.569032 268.714798 
" style="fill:none;stroke:#ff00ff;stroke-linecap:square;stroke-width:1.5;"/>
   </g>
   <g id="line2d_53">
    <defs>
     <path d="M -0 8.485281 
L 5.091169 0 
L 0 -8.485281 
L -5.091169 -0 
z
" id="mf30e8797c1" style="stroke:#ff00ff;stroke-linejoin:miter;stroke-width:1.5;"/>
    </defs>
    <g>
     <use style="fill:none;stroke:#ff00ff;stroke-linejoin:miter;stroke-width:1.5;" x="130.654415" xlink:href="#mf30e8797c1" y="282.851021"/>
     <use style="fill:none;stroke:#ff00ff;stroke-linejoin:miter;stroke-width:1.5;" x="213.807796" xlink:href="#mf30e8797c1" y="278.302845"/>
     <use style="fill:none;stroke:#ff00ff;stroke-linejoin:miter;stroke-width:1.5;" x="275.904247" xlink:href="#mf30e8797c1" y="273.385898"/>
     <use style="fill:none;stroke:#ff00ff;stroke-linejoin:miter;stroke-width:1.5;" x="331.777469" xlink:href="#mf30e8797c1" y="268.714798"/>
     <use style="fill:none;stroke:#ff00ff;stroke-linejoin:miter;stroke-width:1.5;" x="333.569032" xlink:href="#mf30e8797c1" y="268.714798"/>
    </g>
   </g>
   <g id="line2d_54">
    <path style="fill:none;stroke:#ff00ff;stroke-linecap:square;stroke-width:1.5;"/>
    <g/>
   </g>
   <g id="line2d_55">
    <path clip-path="url(#p2e2b992968)" d="M 294.036313 272.279585 
" style="fill:none;stroke:#ff00ff;stroke-linecap:square;stroke-width:1.5;"/>
    <defs>
     <path d="M -12 12 
L 12 -12 
M -12 -12 
L 12 12 
" id="m6cbede4c15" style="stroke:#ff00ff;stroke-width:3;"/>
    </defs>
    <g clip-path="url(#p2e2b992968)">
     <use style="fill:#ff00ff;stroke:#ff00ff;stroke-width:3;" x="294.036313" xlink:href="#m6cbede4c15" y="272.279585"/>
    </g>
   </g>
   <g id="line2d_56">
    <defs>
     <path d="M 0 1.5 
C 0.397805 1.5 0.77937 1.341951 1.06066 1.06066 
C 1.341951 0.77937 1.5 0.397805 1.5 0 
C 1.5 -0.397805 1.341951 -0.77937 1.06066 -1.06066 
C 0.77937 -1.341951 0.397805 -1.5 0 -1.5 
C -0.397805 -1.5 -0.77937 -1.341951 -1.06066 -1.06066 
C -1.341951 -0.77937 -1.5 -0.397805 -1.5 0 
C -1.5 0.397805 -1.341951 0.77937 -1.06066 1.06066 
C -0.77937 1.341951 -0.397805 1.5 0 1.5 
z
" id="m5a345e9106" style="stroke:#6495ed;"/>
    </defs>
    <g>
     <use style="fill:#6495ed;stroke:#6495ed;" x="218.225115" xlink:href="#m5a345e9106" y="248.678238"/>
     <use style="fill:#6495ed;stroke:#6495ed;" x="218.225115" xlink:href="#m5a345e9106" y="248.678238"/>
    </g>
   </g>
   <g id="line2d_57">
    <path d="M -1 283.834411 
L 74.669986 283.834411 
L 74.669986 283.588563 
L 82.277434 283.588563 
L 82.277434 283.342716 
L 83.040619 283.342716 
L 83.040619 283.219792 
L 87.094229 283.219792 
L 87.094229 283.096869 
L 87.313876 283.096869 
L 87.313876 282.851021 
L 88.096029 282.851021 
L 88.096029 282.728098 
L 89.042583 282.728098 
L 89.042583 282.48225 
L 89.87712 282.48225 
L 89.87712 282.236403 
L 90.672967 282.236403 
L 90.672967 282.113479 
L 90.9695 282.113479 
L 90.9695 281.621784 
L 92.541603 281.621784 
L 92.541603 281.498861 
L 93.173656 281.498861 
L 93.173656 281.253013 
L 93.531886 281.253013 
L 93.63288 280.761319 
L 94.323673 280.761319 
L 94.323673 280.638395 
L 95.03421 280.638395 
L 95.03421 280.515471 
L 95.172855 280.515471 
L 95.172855 280.023777 
L 97.046093 280.023777 
L 97.046093 279.900853 
L 97.733748 279.900853 
L 97.733748 279.777929 
L 99.467163 279.777929 
L 99.467163 279.655005 
L 101.397517 279.655005 
L 101.397517 279.532082 
L 102.362838 279.532082 
L 102.362838 279.163311 
L 102.928731 279.163311 
L 102.928731 278.548692 
L 103.674073 278.548692 
L 103.674073 278.302845 
L 104.655417 278.302845 
L 104.708326 277.81115 
L 104.813656 277.81115 
L 104.813656 277.565303 
L 105.202989 277.565303 
L 105.202989 277.319456 
L 105.356283 277.319456 
L 105.356283 277.196532 
L 105.533414 277.196532 
L 105.533414 276.950684 
L 105.956129 276.950684 
L 105.956129 276.827761 
L 106.794969 276.827761 
L 106.841687 276.090219 
L 107.004206 276.090219 
L 107.004206 275.967295 
L 107.392607 275.967295 
L 107.482732 275.4756 
L 107.882542 275.4756 
L 107.991968 275.106829 
L 108.035543 275.106829 
L 108.035543 274.983906 
L 108.208749 274.983906 
L 108.208749 274.738058 
L 108.863886 274.738058 
L 108.863886 274.615135 
L 109.654096 274.615135 
L 109.654096 274.492211 
L 110.161394 274.492211 
L 110.161394 274.246363 
L 110.447389 274.246363 
L 110.447389 273.754669 
L 110.987159 273.754669 
L 110.987159 273.508821 
L 111.205641 273.508821 
L 111.205641 273.262974 
L 111.792515 273.262974 
L 111.827447 272.771279 
L 111.931817 272.771279 
L 111.931817 272.648356 
L 112.56178 272.648356 
L 112.56178 272.402508 
L 112.991024 272.402508 
L 112.991024 272.279585 
L 113.631129 272.279585 
L 113.678189 272.033737 
L 114.141822 272.033737 
L 114.141822 271.910814 
L 114.755863 271.910814 
L 114.755863 271.78789 
L 114.916936 271.78789 
L 114.916936 271.664966 
L 115.391283 271.664966 
L 115.419615 271.173271 
L 116.635253 271.173271 
L 116.635253 270.927424 
L 118.707195 270.927424 
L 118.707195 270.8045 
L 119.259221 270.8045 
L 119.360779 270.435729 
L 119.495262 270.435729 
L 119.539856 269.944035 
L 119.805017 269.944035 
L 119.805017 269.698187 
L 121.584308 269.698187 
L 121.584308 269.575264 
L 121.888016 269.575264 
L 121.888016 269.329416 
L 123.006382 269.329416 
L 123.006382 269.206493 
L 123.693049 269.206493 
L 123.693049 269.083569 
L 124.030638 269.083569 
L 124.030638 268.837721 
L 124.603828 268.837721 
L 124.603828 268.714798 
L 125.664665 268.714798 
L 125.664665 268.591874 
L 126.322145 268.591874 
L 126.322145 268.223103 
L 127.242125 268.223103 
L 127.242125 268.100179 
L 127.732697 268.100179 
L 127.732697 267.977256 
L 128.020449 267.977256 
L 128.020449 267.854332 
L 128.196195 267.854332 
L 128.196195 267.485561 
L 128.323496 267.485561 
L 128.323496 267.239714 
L 128.926894 267.239714 
L 128.926894 267.11679 
L 130.157761 267.11679 
L 130.217646 266.870943 
L 130.799497 266.870943 
L 130.799497 266.379248 
L 131.716511 266.379248 
L 131.716511 266.256324 
L 132.550529 266.256324 
L 132.550529 265.887553 
L 133.029116 265.887553 
L 133.05954 265.641706 
L 133.499662 265.641706 
L 133.499662 265.272935 
L 133.769117 265.272935 
L 133.769117 265.150011 
L 134.884155 265.150011 
L 134.884155 265.027087 
L 135.823691 265.027087 
L 135.823691 264.658316 
L 136.316814 264.658316 
L 136.383733 264.289545 
L 136.545763 264.289545 
L 136.545763 264.166622 
L 137.961939 264.166622 
L 138.030341 263.920774 
L 138.906436 263.920774 
L 138.906436 263.552003 
L 139.287784 263.552003 
L 139.287784 263.306156 
L 139.525806 263.306156 
L 139.525806 262.937385 
L 140.875696 262.937385 
L 140.875696 262.691537 
L 141.086477 262.691537 
L 141.086477 262.568614 
L 141.209824 262.568614 
L 141.209824 262.076919 
L 141.413452 262.076919 
L 141.413452 261.831072 
L 141.877379 261.831072 
L 141.877379 261.585224 
L 142.774992 261.585224 
L 142.774992 261.462301 
L 143.39373 261.462301 
L 143.413144 261.093529 
L 143.671741 261.093529 
L 143.671741 260.847682 
L 144.132406 260.847682 
L 144.132406 260.724758 
L 145.103853 260.724758 
L 145.103853 260.478911 
L 145.925368 260.478911 
L 145.925368 260.233064 
L 146.144264 260.233064 
L 146.144264 260.11014 
L 146.564632 260.11014 
L 146.564632 259.864293 
L 147.203188 259.864293 
L 147.203188 259.741369 
L 148.110154 259.741369 
L 148.110154 259.618445 
L 148.858941 259.618445 
L 148.858941 259.372598 
L 149.915699 259.372598 
L 149.946039 258.880903 
L 150.171899 258.880903 
L 150.171899 258.75798 
L 151.119448 258.75798 
L 151.207693 258.389208 
L 151.290231 258.389208 
L 151.290231 258.266285 
L 151.933257 258.266285 
L 151.933257 258.143361 
L 152.650451 258.143361 
L 152.650451 257.651666 
L 156.515198 257.651666 
L 156.537153 257.405819 
L 157.794745 257.405819 
L 157.794745 257.282895 
L 159.107056 257.282895 
L 159.107056 257.159972 
L 159.28723 257.159972 
L 159.368406 256.791201 
L 159.527449 256.791201 
L 159.527449 256.668277 
L 159.847568 256.668277 
L 159.847568 256.545353 
L 160.083275 256.545353 
L 160.102161 255.684887 
L 160.884165 255.684887 
L 160.954156 255.43904 
L 161.498247 255.43904 
L 161.506945 255.193193 
L 163.0359 255.193193 
L 163.040319 254.947345 
L 163.629231 254.947345 
L 163.629231 254.701498 
L 164.064271 254.701498 
L 164.064271 254.578574 
L 164.4536 254.578574 
L 164.4536 254.455651 
L 164.792854 254.455651 
L 164.792854 254.332727 
L 167.15521 254.332727 
L 167.18786 253.841032 
L 167.929487 253.841032 
L 167.929487 253.718109 
L 168.387927 253.718109 
L 168.387927 253.595185 
L 168.869718 253.595185 
L 168.882299 253.226414 
L 169.727035 253.226414 
L 169.727035 253.10349 
L 170.087774 253.10349 
L 170.087774 252.980566 
L 170.68455 252.980566 
L 170.68455 252.857643 
L 170.843465 252.857643 
L 170.843465 252.734719 
L 171.842562 252.734719 
L 171.842562 252.611795 
L 173.205808 252.611795 
L 173.205808 252.488872 
L 174.646287 252.488872 
L 174.653028 252.243024 
L 174.978809 252.243024 
L 174.980572 251.997177 
L 175.524214 251.997177 
L 175.524214 251.874253 
L 175.97188 251.874253 
L 175.97188 251.75133 
L 176.647847 251.75133 
L 176.647847 251.628406 
L 177.862323 251.628406 
L 177.862323 251.505482 
L 178.961614 251.505482 
L 178.961614 251.382559 
L 179.212867 251.382559 
L 179.248658 251.136711 
L 181.652692 251.136711 
L 181.652692 251.013788 
L 183.707867 251.013788 
L 183.817027 250.76794 
L 185.749646 250.76794 
L 185.749646 250.645016 
L 188.783574 250.645016 
L 188.783574 250.522093 
L 190.044349 250.522093 
L 190.044349 250.399169 
L 192.557302 250.399169 
L 192.557302 250.276245 
L 194.204792 250.276245 
L 194.204936 250.030398 
L 194.722884 250.030398 
L 194.722884 249.907474 
L 195.707019 249.907474 
L 195.707019 249.784551 
L 196.184481 249.784551 
L 196.184481 249.661627 
L 196.504923 249.661627 
L 196.504923 249.538703 
L 198.37145 249.538703 
L 198.416088 249.169932 
L 199.062011 249.169932 
L 199.062011 249.047009 
L 202.289615 249.047009 
L 202.289615 248.924085 
L 206.421359 248.924085 
L 206.421359 248.801161 
L 218.225115 248.801161 
L 218.225115 248.678238 
L 333.569032 248.678238 
L 333.569032 248.678238 
" style="fill:none;stroke:#6495ed;stroke-linecap:square;stroke-width:1.5;"/>
   </g>
   <g id="line2d_58">
    <defs>
     <path d="M -0 6 
L 6 -6 
L -6 -6 
z
" id="m9633546d45" style="stroke:#6495ed;stroke-linejoin:miter;stroke-width:1.5;"/>
    </defs>
    <g>
     <use style="fill:none;stroke:#6495ed;stroke-linejoin:miter;stroke-width:1.5;" x="83.040619" xlink:href="#m9633546d45" y="283.342716"/>
     <use style="fill:none;stroke:#6495ed;stroke-linejoin:miter;stroke-width:1.5;" x="164.064271" xlink:href="#m9633546d45" y="254.701498"/>
     <use style="fill:none;stroke:#6495ed;stroke-linejoin:miter;stroke-width:1.5;" x="218.225115" xlink:href="#m9633546d45" y="248.801161"/>
     <use style="fill:none;stroke:#6495ed;stroke-linejoin:miter;stroke-width:1.5;" x="218.225115" xlink:href="#m9633546d45" y="248.678238"/>
     <use style="fill:none;stroke:#6495ed;stroke-linejoin:miter;stroke-width:1.5;" x="218.225115" xlink:href="#m9633546d45" y="248.678238"/>
     <use style="fill:none;stroke:#6495ed;stroke-linejoin:miter;stroke-width:1.5;" x="333.569032" xlink:href="#m9633546d45" y="248.678238"/>
    </g>
   </g>
   <g id="line2d_59">
    <path style="fill:none;stroke:#6495ed;stroke-linecap:square;stroke-width:1.5;"/>
    <g/>
   </g>
   <g id="line2d_60">
    <path clip-path="url(#p2e2b992968)" d="M 153.144988 257.651666 
" style="fill:none;stroke:#6495ed;stroke-linecap:square;stroke-width:1.5;"/>
    <defs>
     <path d="M -12 12 
L 12 -12 
M -12 -12 
L 12 12 
" id="m0cc0396d5c" style="stroke:#6495ed;stroke-width:3;"/>
    </defs>
    <g clip-path="url(#p2e2b992968)">
     <use style="fill:#6495ed;stroke:#6495ed;stroke-width:3;" x="153.144988" xlink:href="#m0cc0396d5c" y="257.651666"/>
    </g>
   </g>
   <g id="line2d_61">
    <path d="M 333.569032 268.714798 
L 364.009226 288.456341 
" style="fill:none;stroke:#ff00ff;stroke-linecap:square;stroke-width:1.5;"/>
    <g>
     <use style="fill:none;stroke:#ff00ff;stroke-linejoin:miter;stroke-width:1.5;" x="333.569032" xlink:href="#mf30e8797c1" y="268.714798"/>
     <use style="fill:none;stroke:#ff00ff;stroke-linejoin:miter;stroke-width:1.5;" x="364.009226" xlink:href="#mf30e8797c1" y="288.456341"/>
    </g>
   </g>
   <g id="line2d_62">
    <path d="M 333.569032 248.678238 
L 364.009226 197.197799 
" style="fill:none;stroke:#6495ed;stroke-linecap:square;stroke-width:1.5;"/>
    <g>
     <use style="fill:none;stroke:#6495ed;stroke-linejoin:miter;stroke-width:1.5;" x="333.569032" xlink:href="#m9633546d45" y="248.678238"/>
     <use style="fill:none;stroke:#6495ed;stroke-linejoin:miter;stroke-width:1.5;" x="364.009226" xlink:href="#m9633546d45" y="197.197799"/>
    </g>
   </g>
   <g id="line2d_63">
    <path d="M 333.569032 247.449001 
L 364.009226 105.939258 
" style="fill:none;stroke:#000080;stroke-linecap:square;stroke-width:1.5;"/>
    <g>
     <use style="fill:none;stroke:#000080;stroke-width:1.5;" x="333.569032" xlink:href="#mb921091ff8" y="247.449001"/>
     <use style="fill:none;stroke:#000080;stroke-width:1.5;" x="364.009226" xlink:href="#mb921091ff8" y="105.939258"/>
    </g>
   </g>
   <g id="line2d_64">
    <path d="M 333.569032 294.16 
L 333.569032 8.977057 
" style="fill:none;stroke:#000000;stroke-linecap:square;stroke-width:1.5;"/>
   </g>
   <g id="patch_3">
    <path d="M 56.84 294.16 
L 56.84 6.125228 
" style="fill:none;stroke:#000000;stroke-linecap:square;stroke-linejoin:miter;stroke-width:0.8;"/>
   </g>
   <g id="patch_4">
    <path d="M 399.984 294.16 
L 399.984 6.125228 
" style="fill:none;stroke:#000000;stroke-linecap:square;stroke-linejoin:miter;stroke-width:0.8;"/>
   </g>
   <g id="patch_5">
    <path d="M 56.84 294.16 
L 399.984 294.16 
" style="fill:none;stroke:#000000;stroke-linecap:square;stroke-linejoin:miter;stroke-width:0.8;"/>
   </g>
   <g id="patch_6">
    <path d="M 56.84 6.125228 
L 399.984 6.125228 
" style="fill:none;stroke:#000000;stroke-linecap:square;stroke-linejoin:miter;stroke-width:0.8;"/>
   </g>
   <g id="text_14">
    <!-- RANDOMSEA -->
    <defs>
     <path d="M 44.390625 34.1875 
Q 47.5625 33.109375 50.5625 29.59375 
Q 53.5625 26.078125 56.59375 19.921875 
L 66.609375 0 
L 56 0 
L 46.6875 18.703125 
Q 43.0625 26.03125 39.671875 28.421875 
Q 36.28125 30.8125 30.421875 30.8125 
L 19.671875 30.8125 
L 19.671875 0 
L 9.8125 0 
L 9.8125 72.90625 
L 32.078125 72.90625 
Q 44.578125 72.90625 50.734375 67.671875 
Q 56.890625 62.453125 56.890625 51.90625 
Q 56.890625 45.015625 53.6875 40.46875 
Q 50.484375 35.9375 44.390625 34.1875 
M 19.671875 64.796875 
L 19.671875 38.921875 
L 32.078125 38.921875 
Q 39.203125 38.921875 42.84375 42.21875 
Q 46.484375 45.515625 46.484375 51.90625 
Q 46.484375 58.296875 42.84375 61.546875 
Q 39.203125 64.796875 32.078125 64.796875 
z
" id="DejaVuSans-52"/>
     <path d="M 34.1875 63.1875 
L 20.796875 26.90625 
L 47.609375 26.90625 
z
M 28.609375 72.90625 
L 39.796875 72.90625 
L 67.578125 0 
L 57.328125 0 
L 50.6875 18.703125 
L 17.828125 18.703125 
L 11.1875 0 
L 0.78125 0 
z
" id="DejaVuSans-41"/>
     <path d="M 9.8125 72.90625 
L 23.09375 72.90625 
L 55.421875 11.921875 
L 55.421875 72.90625 
L 64.984375 72.90625 
L 64.984375 0 
L 51.703125 0 
L 19.390625 60.984375 
L 19.390625 0 
L 9.8125 0 
z
" id="DejaVuSans-4e"/>
     <path d="M 19.671875 64.796875 
L 19.671875 8.109375 
L 31.59375 8.109375 
Q 46.6875 8.109375 53.6875 14.9375 
Q 60.6875 21.78125 60.6875 36.53125 
Q 60.6875 51.171875 53.6875 57.984375 
Q 46.6875 64.796875 31.59375 64.796875 
z
M 9.8125 72.90625 
L 30.078125 72.90625 
Q 51.265625 72.90625 61.171875 64.09375 
Q 71.09375 55.28125 71.09375 36.53125 
Q 71.09375 17.671875 61.125 8.828125 
Q 51.171875 0 30.078125 0 
L 9.8125 0 
z
" id="DejaVuSans-44"/>
     <path d="M 39.40625 66.21875 
Q 28.65625 66.21875 22.328125 58.203125 
Q 16.015625 50.203125 16.015625 36.375 
Q 16.015625 22.609375 22.328125 14.59375 
Q 28.65625 6.59375 39.40625 6.59375 
Q 50.140625 6.59375 56.421875 14.59375 
Q 62.703125 22.609375 62.703125 36.375 
Q 62.703125 50.203125 56.421875 58.203125 
Q 50.140625 66.21875 39.40625 66.21875 
M 39.40625 74.21875 
Q 54.734375 74.21875 63.90625 63.9375 
Q 73.09375 53.65625 73.09375 36.375 
Q 73.09375 19.140625 63.90625 8.859375 
Q 54.734375 -1.421875 39.40625 -1.421875 
Q 24.03125 -1.421875 14.8125 8.828125 
Q 5.609375 19.09375 5.609375 36.375 
Q 5.609375 53.65625 14.8125 63.9375 
Q 24.03125 74.21875 39.40625 74.21875 
" id="DejaVuSans-4f"/>
     <path d="M 9.8125 72.90625 
L 24.515625 72.90625 
L 43.109375 23.296875 
L 61.8125 72.90625 
L 76.515625 72.90625 
L 76.515625 0 
L 66.890625 0 
L 66.890625 64.015625 
L 48.09375 14.015625 
L 38.1875 14.015625 
L 19.390625 64.015625 
L 19.390625 0 
L 9.8125 0 
z
" id="DejaVuSans-4d"/>
     <path d="M 53.515625 70.515625 
L 53.515625 60.890625 
Q 47.90625 63.578125 42.921875 64.890625 
Q 37.9375 66.21875 33.296875 66.21875 
Q 25.25 66.21875 20.875 63.09375 
Q 16.5 59.96875 16.5 54.203125 
Q 16.5 49.359375 19.40625 46.890625 
Q 22.3125 44.4375 30.421875 42.921875 
L 36.375 41.703125 
Q 47.40625 39.59375 52.65625 34.296875 
Q 57.90625 29 57.90625 20.125 
Q 57.90625 9.515625 50.796875 4.046875 
Q 43.703125 -1.421875 29.984375 -1.421875 
Q 24.8125 -1.421875 18.96875 -0.25 
Q 13.140625 0.921875 6.890625 3.21875 
L 6.890625 13.375 
Q 12.890625 10.015625 18.65625 8.296875 
Q 24.421875 6.59375 29.984375 6.59375 
Q 38.421875 6.59375 43.015625 9.90625 
Q 47.609375 13.234375 47.609375 19.390625 
Q 47.609375 24.75 44.3125 27.78125 
Q 41.015625 30.8125 33.5 32.328125 
L 27.484375 33.5 
Q 16.453125 35.6875 11.515625 40.375 
Q 6.59375 45.0625 6.59375 53.421875 
Q 6.59375 63.09375 13.40625 68.65625 
Q 20.21875 74.21875 32.171875 74.21875 
Q 37.3125 74.21875 42.625 73.28125 
Q 47.953125 72.359375 53.515625 70.515625 
" id="DejaVuSans-53"/>
     <path d="M 9.8125 72.90625 
L 55.90625 72.90625 
L 55.90625 64.59375 
L 19.671875 64.59375 
L 19.671875 43.015625 
L 54.390625 43.015625 
L 54.390625 34.71875 
L 19.671875 34.71875 
L 19.671875 8.296875 
L 56.78125 8.296875 
L 56.78125 0 
L 9.8125 0 
z
" id="DejaVuSans-45"/>
    </defs>
    <g transform="translate(369.543806 293.147279)scale(0.17 -0.17)">
     <use xlink:href="#DejaVuSans-52"/>
     <use x="69.419922" xlink:href="#DejaVuSans-41"/>
     <use x="137.828125" xlink:href="#DejaVuSans-4e"/>
     <use x="212.632812" xlink:href="#DejaVuSans-44"/>
     <use x="289.634766" xlink:href="#DejaVuSans-4f"/>
     <use x="368.345703" xlink:href="#DejaVuSans-4d"/>
     <use x="454.625" xlink:href="#DejaVuSans-53"/>
     <use x="518.101562" xlink:href="#DejaVuSans-45"/>
     <use x="581.285156" xlink:href="#DejaVuSans-41"/>
    </g>
   </g>
   <g id="text_15">
    <!-- final  bu -->
    <defs>
     <path d="M 48.6875 27.296875 
Q 48.6875 37.203125 44.609375 42.84375 
Q 40.53125 48.484375 33.40625 48.484375 
Q 26.265625 48.484375 22.1875 42.84375 
Q 18.109375 37.203125 18.109375 27.296875 
Q 18.109375 17.390625 22.1875 11.75 
Q 26.265625 6.109375 33.40625 6.109375 
Q 40.53125 6.109375 44.609375 11.75 
Q 48.6875 17.390625 48.6875 27.296875 
M 18.109375 46.390625 
Q 20.953125 51.265625 25.265625 53.625 
Q 29.59375 56 35.59375 56 
Q 45.5625 56 51.78125 48.09375 
Q 58.015625 40.1875 58.015625 27.296875 
Q 58.015625 14.40625 51.78125 6.484375 
Q 45.5625 -1.421875 35.59375 -1.421875 
Q 29.59375 -1.421875 25.265625 0.953125 
Q 20.953125 3.328125 18.109375 8.203125 
L 18.109375 0 
L 9.078125 0 
L 9.078125 75.984375 
L 18.109375 75.984375 
z
" id="DejaVuSans-62"/>
    </defs>
    <g transform="translate(369.543806 201.888737)scale(0.17 -0.17)">
     <use xlink:href="#DejaVuSans-66"/>
     <use x="35.205078" xlink:href="#DejaVuSans-69"/>
     <use x="62.988281" xlink:href="#DejaVuSans-6e"/>
     <use x="126.367188" xlink:href="#DejaVuSans-61"/>
     <use x="187.646484" xlink:href="#DejaVuSans-6c"/>
     <use x="215.429688" xlink:href="#DejaVuSans-20"/>
     <use x="247.216797" xlink:href="#DejaVuSans-20"/>
     <use x="279.003906" xlink:href="#DejaVuSans-62"/>
     <use x="342.480469" xlink:href="#DejaVuSans-75"/>
    </g>
   </g>
   <g id="text_16">
    <!-- NSGA-II-M -->
    <defs>
     <path d="M 59.515625 10.40625 
L 59.515625 29.984375 
L 43.40625 29.984375 
L 43.40625 38.09375 
L 69.28125 38.09375 
L 69.28125 6.78125 
Q 63.578125 2.734375 56.6875 0.65625 
Q 49.8125 -1.421875 42 -1.421875 
Q 24.90625 -1.421875 15.25 8.5625 
Q 5.609375 18.5625 5.609375 36.375 
Q 5.609375 54.25 15.25 64.234375 
Q 24.90625 74.21875 42 74.21875 
Q 49.125 74.21875 55.546875 72.453125 
Q 61.96875 70.703125 67.390625 67.28125 
L 67.390625 56.78125 
Q 61.921875 61.421875 55.765625 63.765625 
Q 49.609375 66.109375 42.828125 66.109375 
Q 29.4375 66.109375 22.71875 58.640625 
Q 16.015625 51.171875 16.015625 36.375 
Q 16.015625 21.625 22.71875 14.15625 
Q 29.4375 6.6875 42.828125 6.6875 
Q 48.046875 6.6875 52.140625 7.59375 
Q 56.25 8.5 59.515625 10.40625 
" id="DejaVuSans-47"/>
     <path d="M 9.8125 72.90625 
L 19.671875 72.90625 
L 19.671875 0 
L 9.8125 0 
z
" id="DejaVuSans-49"/>
    </defs>
    <g transform="translate(369.543806 110.630195)scale(0.17 -0.17)">
     <use xlink:href="#DejaVuSans-4e"/>
     <use x="74.804688" xlink:href="#DejaVuSans-53"/>
     <use x="138.28125" xlink:href="#DejaVuSans-47"/>
     <use x="215.771484" xlink:href="#DejaVuSans-41"/>
     <use x="284.148438" xlink:href="#DejaVuSans-2d"/>
     <use x="320.232422" xlink:href="#DejaVuSans-49"/>
     <use x="349.724609" xlink:href="#DejaVuSans-49"/>
     <use x="379.216797" xlink:href="#DejaVuSans-2d"/>
     <use x="415.300781" xlink:href="#DejaVuSans-4d"/>
    </g>
   </g>
   <g id="text_17">
    <!-- best 2016 -->
    <g transform="translate(369.543806 19.371654)scale(0.17 -0.17)">
     <use xlink:href="#DejaVuSans-62"/>
     <use x="63.476562" xlink:href="#DejaVuSans-65"/>
     <use x="125" xlink:href="#DejaVuSans-73"/>
     <use x="177.099609" xlink:href="#DejaVuSans-74"/>
     <use x="216.308594" xlink:href="#DejaVuSans-20"/>
     <use x="248.095703" xlink:href="#DejaVuSans-32"/>
     <use x="311.71875" xlink:href="#DejaVuSans-30"/>
     <use x="375.341797" xlink:href="#DejaVuSans-31"/>
     <use x="438.964844" xlink:href="#DejaVuSans-36"/>
    </g>
   </g>
   <g id="text_18">
    <!-- bbob-biobj f5, f6, f14, f15, 40-D -->
    <defs>
     <path d="M 9.421875 54.6875 
L 18.40625 54.6875 
L 18.40625 -0.984375 
Q 18.40625 -11.421875 14.421875 -16.109375 
Q 10.453125 -20.796875 1.609375 -20.796875 
L -1.8125 -20.796875 
L -1.8125 -13.1875 
L 0.59375 -13.1875 
Q 5.71875 -13.1875 7.5625 -10.8125 
Q 9.421875 -8.453125 9.421875 -0.984375 
z
M 9.421875 75.984375 
L 18.40625 75.984375 
L 18.40625 64.59375 
L 9.421875 64.59375 
z
" id="DejaVuSans-6a"/>
     <path d="M 10.796875 72.90625 
L 49.515625 72.90625 
L 49.515625 64.59375 
L 19.828125 64.59375 
L 19.828125 46.734375 
Q 21.96875 47.46875 24.109375 47.828125 
Q 26.265625 48.1875 28.421875 48.1875 
Q 40.625 48.1875 47.75 41.5 
Q 54.890625 34.8125 54.890625 23.390625 
Q 54.890625 11.625 47.5625 5.09375 
Q 40.234375 -1.421875 26.90625 -1.421875 
Q 22.3125 -1.421875 17.546875 -0.640625 
Q 12.796875 0.140625 7.71875 1.703125 
L 7.71875 11.625 
Q 12.109375 9.234375 16.796875 8.0625 
Q 21.484375 6.890625 26.703125 6.890625 
Q 35.15625 6.890625 40.078125 11.328125 
Q 45.015625 15.765625 45.015625 23.390625 
Q 45.015625 31 40.078125 35.4375 
Q 35.15625 39.890625 26.703125 39.890625 
Q 22.75 39.890625 18.8125 39.015625 
Q 14.890625 38.140625 10.796875 36.28125 
z
" id="DejaVuSans-35"/>
    </defs>
    <g transform="translate(60.27144 16.755982)scale(0.102 -0.102)">
     <use xlink:href="#DejaVuSans-62"/>
     <use x="63.476562" xlink:href="#DejaVuSans-62"/>
     <use x="126.953125" xlink:href="#DejaVuSans-6f"/>
     <use x="188.134766" xlink:href="#DejaVuSans-62"/>
     <use x="251.611328" xlink:href="#DejaVuSans-2d"/>
     <use x="287.695312" xlink:href="#DejaVuSans-62"/>
     <use x="351.171875" xlink:href="#DejaVuSans-69"/>
     <use x="378.955078" xlink:href="#DejaVuSans-6f"/>
     <use x="440.136719" xlink:href="#DejaVuSans-62"/>
     <use x="503.613281" xlink:href="#DejaVuSans-6a"/>
     <use x="531.396484" xlink:href="#DejaVuSans-20"/>
     <use x="563.183594" xlink:href="#DejaVuSans-66"/>
     <use x="598.388672" xlink:href="#DejaVuSans-35"/>
     <use x="662.011719" xlink:href="#DejaVuSans-2c"/>
     <use x="693.798828" xlink:href="#DejaVuSans-20"/>
     <use x="725.585938" xlink:href="#DejaVuSans-66"/>
     <use x="760.791016" xlink:href="#DejaVuSans-36"/>
     <use x="824.414062" xlink:href="#DejaVuSans-2c"/>
     <use x="856.201172" xlink:href="#DejaVuSans-20"/>
     <use x="887.988281" xlink:href="#DejaVuSans-66"/>
     <use x="923.193359" xlink:href="#DejaVuSans-31"/>
     <use x="986.816406" xlink:href="#DejaVuSans-34"/>
     <use x="1050.439453" xlink:href="#DejaVuSans-2c"/>
     <use x="1082.226562" xlink:href="#DejaVuSans-20"/>
     <use x="1114.013672" xlink:href="#DejaVuSans-66"/>
     <use x="1149.21875" xlink:href="#DejaVuSans-31"/>
     <use x="1212.841797" xlink:href="#DejaVuSans-35"/>
     <use x="1276.464844" xlink:href="#DejaVuSans-2c"/>
     <use x="1308.251953" xlink:href="#DejaVuSans-20"/>
     <use x="1340.039062" xlink:href="#DejaVuSans-34"/>
     <use x="1403.662109" xlink:href="#DejaVuSans-30"/>
     <use x="1467.285156" xlink:href="#DejaVuSans-2d"/>
     <use x="1503.369141" xlink:href="#DejaVuSans-44"/>
    </g>
    <!-- 58 targets: 1..-1.0e-4 -->
    <defs>
     <path d="M 11.71875 12.40625 
L 22.015625 12.40625 
L 22.015625 0 
L 11.71875 0 
z
M 11.71875 51.703125 
L 22.015625 51.703125 
L 22.015625 39.3125 
L 11.71875 39.3125 
z
" id="DejaVuSans-3a"/>
    </defs>
    <g transform="translate(60.27144 28.17775)scale(0.102 -0.102)">
     <use xlink:href="#DejaVuSans-35"/>
     <use x="63.623047" xlink:href="#DejaVuSans-38"/>
     <use x="127.246094" xlink:href="#DejaVuSans-20"/>
     <use x="159.033203" xlink:href="#DejaVuSans-74"/>
     <use x="198.242188" xlink:href="#DejaVuSans-61"/>
     <use x="259.521484" xlink:href="#DejaVuSans-72"/>
     <use x="300.619141" xlink:href="#DejaVuSans-67"/>
     <use x="364.095703" xlink:href="#DejaVuSans-65"/>
     <use x="425.619141" xlink:href="#DejaVuSans-74"/>
     <use x="464.828125" xlink:href="#DejaVuSans-73"/>
     <use x="516.927734" xlink:href="#DejaVuSans-3a"/>
     <use x="550.619141" xlink:href="#DejaVuSans-20"/>
     <use x="582.40625" xlink:href="#DejaVuSans-31"/>
     <use x="646.029297" xlink:href="#DejaVuSans-2e"/>
     <use x="677.816406" xlink:href="#DejaVuSans-2e"/>
     <use x="709.603516" xlink:href="#DejaVuSans-2d"/>
     <use x="745.6875" xlink:href="#DejaVuSans-31"/>
     <use x="809.310547" xlink:href="#DejaVuSans-2e"/>
     <use x="841.097656" xlink:href="#DejaVuSans-30"/>
     <use x="904.720703" xlink:href="#DejaVuSans-65"/>
     <use x="966.244141" xlink:href="#DejaVuSans-2d"/>
     <use x="1002.328125" xlink:href="#DejaVuSans-34"/>
    </g>
    <!-- 10 instances -->
    <g transform="translate(60.27144 39.599519)scale(0.102 -0.102)">
     <use xlink:href="#DejaVuSans-31"/>
     <use x="63.623047" xlink:href="#DejaVuSans-30"/>
     <use x="127.246094" xlink:href="#DejaVuSans-20"/>
     <use x="159.033203" xlink:href="#DejaVuSans-69"/>
     <use x="186.816406" xlink:href="#DejaVuSans-6e"/>
     <use x="250.195312" xlink:href="#DejaVuSans-73"/>
     <use x="302.294922" xlink:href="#DejaVuSans-74"/>
     <use x="341.503906" xlink:href="#DejaVuSans-61"/>
     <use x="402.783203" xlink:href="#DejaVuSans-6e"/>
     <use x="466.162109" xlink:href="#DejaVuSans-63"/>
     <use x="521.142578" xlink:href="#DejaVuSans-65"/>
     <use x="582.666016" xlink:href="#DejaVuSans-73"/>
    </g>
   </g>
   <g id="text_19">
    <!-- v2.2.1.10, hv-hash=ff0e71e8cd978373 -->
    <defs>
     <path d="M 54.890625 33.015625 
L 54.890625 0 
L 45.90625 0 
L 45.90625 32.71875 
Q 45.90625 40.484375 42.875 44.328125 
Q 39.84375 48.1875 33.796875 48.1875 
Q 26.515625 48.1875 22.3125 43.546875 
Q 18.109375 38.921875 18.109375 30.90625 
L 18.109375 0 
L 9.078125 0 
L 9.078125 75.984375 
L 18.109375 75.984375 
L 18.109375 46.1875 
Q 21.34375 51.125 25.703125 53.5625 
Q 30.078125 56 35.796875 56 
Q 45.21875 56 50.046875 50.171875 
Q 54.890625 44.34375 54.890625 33.015625 
" id="DejaVuSans-68"/>
     <path d="M 10.59375 45.40625 
L 73.1875 45.40625 
L 73.1875 37.203125 
L 10.59375 37.203125 
z
M 10.59375 25.484375 
L 73.1875 25.484375 
L 73.1875 17.1875 
L 10.59375 17.1875 
z
" id="DejaVuSans-3d"/>
     <path d="M 8.203125 72.90625 
L 55.078125 72.90625 
L 55.078125 68.703125 
L 28.609375 0 
L 18.3125 0 
L 43.21875 64.59375 
L 8.203125 64.59375 
z
" id="DejaVuSans-37"/>
     <path d="M 10.984375 1.515625 
L 10.984375 10.5 
Q 14.703125 8.734375 18.5 7.8125 
Q 22.3125 6.890625 25.984375 6.890625 
Q 35.75 6.890625 40.890625 13.453125 
Q 46.046875 20.015625 46.78125 33.40625 
Q 43.953125 29.203125 39.59375 26.953125 
Q 35.25 24.703125 29.984375 24.703125 
Q 19.046875 24.703125 12.671875 31.3125 
Q 6.296875 37.9375 6.296875 49.421875 
Q 6.296875 60.640625 12.9375 67.421875 
Q 19.578125 74.21875 30.609375 74.21875 
Q 43.265625 74.21875 49.921875 64.515625 
Q 56.59375 54.828125 56.59375 36.375 
Q 56.59375 19.140625 48.40625 8.859375 
Q 40.234375 -1.421875 26.421875 -1.421875 
Q 22.703125 -1.421875 18.890625 -0.6875 
Q 15.09375 0.046875 10.984375 1.515625 
M 30.609375 32.421875 
Q 37.25 32.421875 41.125 36.953125 
Q 45.015625 41.5 45.015625 49.421875 
Q 45.015625 57.28125 41.125 61.84375 
Q 37.25 66.40625 30.609375 66.40625 
Q 23.96875 66.40625 20.09375 61.84375 
Q 16.21875 57.28125 16.21875 49.421875 
Q 16.21875 41.5 20.09375 36.953125 
Q 23.96875 32.421875 30.609375 32.421875 
" id="DejaVuSans-39"/>
     <path d="M 40.578125 39.3125 
Q 47.65625 37.796875 51.625 33 
Q 55.609375 28.21875 55.609375 21.1875 
Q 55.609375 10.40625 48.1875 4.484375 
Q 40.765625 -1.421875 27.09375 -1.421875 
Q 22.515625 -1.421875 17.65625 -0.515625 
Q 12.796875 0.390625 7.625 2.203125 
L 7.625 11.71875 
Q 11.71875 9.328125 16.59375 8.109375 
Q 21.484375 6.890625 26.8125 6.890625 
Q 36.078125 6.890625 40.9375 10.546875 
Q 45.796875 14.203125 45.796875 21.1875 
Q 45.796875 27.640625 41.28125 31.265625 
Q 36.765625 34.90625 28.71875 34.90625 
L 20.21875 34.90625 
L 20.21875 43.015625 
L 29.109375 43.015625 
Q 36.375 43.015625 40.234375 45.921875 
Q 44.09375 48.828125 44.09375 54.296875 
Q 44.09375 59.90625 40.109375 62.90625 
Q 36.140625 65.921875 28.71875 65.921875 
Q 24.65625 65.921875 20.015625 65.03125 
Q 15.375 64.15625 9.8125 62.3125 
L 9.8125 71.09375 
Q 15.4375 72.65625 20.34375 73.4375 
Q 25.25 74.21875 29.59375 74.21875 
Q 40.828125 74.21875 47.359375 69.109375 
Q 53.90625 64.015625 53.90625 55.328125 
Q 53.90625 49.265625 50.4375 45.09375 
Q 46.96875 40.921875 40.578125 39.3125 
" id="DejaVuSans-33"/>
    </defs>
    <g style="fill:#808080;" transform="translate(130.065125 289.199965)scale(0.1 -0.1)">
     <use xlink:href="#DejaVuSans-76"/>
     <use x="59.179688" xlink:href="#DejaVuSans-32"/>
     <use x="122.802734" xlink:href="#DejaVuSans-2e"/>
     <use x="154.589844" xlink:href="#DejaVuSans-32"/>
     <use x="218.212891" xlink:href="#DejaVuSans-2e"/>
     <use x="250" xlink:href="#DejaVuSans-31"/>
     <use x="313.623047" xlink:href="#DejaVuSans-2e"/>
     <use x="345.410156" xlink:href="#DejaVuSans-31"/>
     <use x="409.033203" xlink:href="#DejaVuSans-30"/>
     <use x="472.65625" xlink:href="#DejaVuSans-2c"/>
     <use x="504.443359" xlink:href="#DejaVuSans-20"/>
     <use x="536.230469" xlink:href="#DejaVuSans-68"/>
     <use x="599.609375" xlink:href="#DejaVuSans-76"/>
     <use x="658.757812" xlink:href="#DejaVuSans-2d"/>
     <use x="694.841797" xlink:href="#DejaVuSans-68"/>
     <use x="758.220703" xlink:href="#DejaVuSans-61"/>
     <use x="819.5" xlink:href="#DejaVuSans-73"/>
     <use x="871.599609" xlink:href="#DejaVuSans-68"/>
     <use x="934.978516" xlink:href="#DejaVuSans-3d"/>
     <use x="1018.767578" xlink:href="#DejaVuSans-66"/>
     <use x="1053.972656" xlink:href="#DejaVuSans-66"/>
     <use x="1089.177734" xlink:href="#DejaVuSans-30"/>
     <use x="1152.800781" xlink:href="#DejaVuSans-65"/>
     <use x="1214.324219" xlink:href="#DejaVuSans-37"/>
     <use x="1277.947266" xlink:href="#DejaVuSans-31"/>
     <use x="1341.570312" xlink:href="#DejaVuSans-65"/>
     <use x="1403.09375" xlink:href="#DejaVuSans-38"/>
     <use x="1466.716797" xlink:href="#DejaVuSans-63"/>
     <use x="1521.697266" xlink:href="#DejaVuSans-64"/>
     <use x="1585.173828" xlink:href="#DejaVuSans-39"/>
     <use x="1648.796875" xlink:href="#DejaVuSans-37"/>
     <use x="1712.419922" xlink:href="#DejaVuSans-38"/>
     <use x="1776.042969" xlink:href="#DejaVuSans-33"/>
     <use x="1839.666016" xlink:href="#DejaVuSans-37"/>
     <use x="1903.289062" xlink:href="#DejaVuSans-33"/>
    </g>
   </g>
  </g>
 </g>
 <defs>
  <clipPath id="p2e2b992968">
   <rect height="288.034772" width="343.144" x="56.84" y="6.125228"/>
  </clipPath>
 </defs>
</svg>
