<?xml version="1.0" encoding="utf-8" standalone="no"?>
<!DOCTYPE svg PUBLIC "-//W3C//DTD SVG 1.1//EN"
  "http://www.w3.org/Graphics/SVG/1.1/DTD/svg11.dtd">
<!-- Created with matplotlib (http://matplotlib.org/) -->
<svg height="345pt" version="1.1" viewBox="0 0 460 345" width="460pt" xmlns="http://www.w3.org/2000/svg" xmlns:xlink="http://www.w3.org/1999/xlink">
 <defs>
  <style type="text/css">
*{stroke-linecap:butt;stroke-linejoin:round;}
  </style>
 </defs>
 <g id="figure_1">
  <g id="patch_1">
   <path d="M 0 345.6 
L 460.8 345.6 
L 460.8 0 
L 0 0 
z
" style="fill:#ffffff;"/>
  </g>
  <g id="axes_1">
   <g id="patch_2">
    <path d="M 56.84 294.16 
L 399.984 294.16 
L 399.984 6.125228 
L 56.84 6.125228 
z
" style="fill:#ffffff;"/>
   </g>
   <g id="line2d_1">
    <path d="M -1 292.521018 
L 12.368113 292.521018 
L 12.368113 290.882035 
L 29.207815 290.882035 
L 29.207815 289.243053 
L 68.740534 289.243053 
L 68.740534 285.965088 
L 116.727312 285.965088 
L 116.727312 282.687123 
L 130.654415 282.687123 
L 130.654415 279.409158 
L 136.990672 279.409158 
L 136.990672 276.131193 
L 138.304988 276.131193 
L 138.304988 272.853228 
L 139.890382 272.853228 
L 139.890382 271.214246 
L 140.380187 271.214246 
L 140.380187 269.575264 
L 141.425905 269.575264 
L 141.425905 264.658316 
L 142.932492 264.658316 
L 142.932492 261.380351 
L 144.304321 261.380351 
L 144.304321 256.463404 
L 144.404033 256.463404 
L 144.404033 254.824422 
L 144.822743 254.824422 
L 144.822743 251.546457 
L 145.805221 251.546457 
L 145.805221 248.268492 
L 146.351063 248.268492 
L 146.351063 246.62951 
L 147.234279 246.62951 
L 147.234279 241.712562 
L 147.925735 241.712562 
L 147.925735 236.795615 
L 148.79423 236.795615 
L 148.79423 233.51765 
L 149.707566 233.51765 
L 149.707566 230.239685 
L 150.602135 230.239685 
L 150.602135 226.96172 
L 151.036083 226.96172 
L 151.036083 223.683756 
L 151.119448 223.683756 
L 151.119448 222.044773 
L 152.727963 222.044773 
L 152.727963 218.766808 
L 153.048795 218.766808 
L 153.048795 215.488843 
L 154.627993 215.488843 
L 154.627993 210.571896 
L 156.531989 210.571896 
L 156.531989 208.932914 
L 156.908668 208.932914 
L 156.908668 205.654949 
L 162.202825 205.654949 
L 162.202825 200.738001 
L 174.062485 200.738001 
L 174.062485 197.460037 
L 178.399467 197.460037 
L 178.399467 195.821054 
L 201.512532 195.821054 
L 201.512532 194.182072 
L 212.136322 194.182072 
L 212.136322 189.265124 
L 220.604525 189.265124 
L 220.604525 185.98716 
L 222.005482 185.98716 
L 222.005482 182.709195 
L 222.636432 182.709195 
L 222.636432 179.43123 
L 233.98252 179.43123 
L 233.98252 174.514283 
L 240.870972 174.514283 
L 240.870972 172.8753 
L 246.636479 172.8753 
L 246.636479 171.236318 
L 248.578511 171.236318 
L 248.578511 167.958353 
L 256.322328 167.958353 
L 256.322328 164.680388 
L 256.615025 164.680388 
L 256.615025 159.763441 
L 259.995261 159.763441 
L 259.995261 154.846493 
L 272.280523 154.846493 
L 272.280523 153.207511 
L 281.836416 153.207511 
L 281.836416 149.929546 
L 293.184758 149.929546 
L 293.184758 145.012599 
L 293.381005 145.012599 
L 293.381005 141.734634 
L 293.765028 141.734634 
L 293.765028 138.456669 
L 333.569032 138.456669 
" style="fill:none;stroke:#f5deb3;stroke-linecap:square;stroke-width:6;"/>
   </g>
   <g id="line2d_2">
    <defs>
     <path d="M -0 7.778175 
L 7.778175 0 
L 0 -7.778175 
L -7.778175 -0 
z
" id="m886706b97b" style="stroke:#f5deb3;stroke-linejoin:miter;stroke-width:1.5;"/>
    </defs>
    <g>
     <use style="fill:#f5deb3;stroke:#f5deb3;stroke-linejoin:miter;stroke-width:1.5;" x="68.740534" xlink:href="#m886706b97b" y="285.965088"/>
     <use style="fill:#f5deb3;stroke:#f5deb3;stroke-linejoin:miter;stroke-width:1.5;" x="151.036083" xlink:href="#m886706b97b" y="226.96172"/>
     <use style="fill:#f5deb3;stroke:#f5deb3;stroke-linejoin:miter;stroke-width:1.5;" x="222.636432" xlink:href="#m886706b97b" y="182.709195"/>
     <use style="fill:#f5deb3;stroke:#f5deb3;stroke-linejoin:miter;stroke-width:1.5;" x="281.836416" xlink:href="#m886706b97b" y="153.207511"/>
     <use style="fill:#f5deb3;stroke:#f5deb3;stroke-linejoin:miter;stroke-width:1.5;" x="293.765028" xlink:href="#m886706b97b" y="138.456669"/>
     <use style="fill:#f5deb3;stroke:#f5deb3;stroke-linejoin:miter;stroke-width:1.5;" x="333.569032" xlink:href="#m886706b97b" y="138.456669"/>
    </g>
   </g>
   <g id="line2d_3">
    <path style="fill:none;stroke:#f5deb3;stroke-linecap:square;stroke-width:6;"/>
    <g/>
   </g>
   <g id="line2d_4">
    <path d="M 333.569032 138.456669 
L 364.009226 14.680716 
" style="fill:none;stroke:#f5deb3;stroke-linecap:square;stroke-width:6;"/>
    <g>
     <use style="fill:#f5deb3;stroke:#f5deb3;stroke-linejoin:miter;stroke-width:1.5;" x="333.569032" xlink:href="#m886706b97b" y="138.456669"/>
     <use style="fill:#f5deb3;stroke:#f5deb3;stroke-linejoin:miter;stroke-width:1.5;" x="364.009226" xlink:href="#m886706b97b" y="14.680716"/>
    </g>
   </g>
   <g id="matplotlib.axis_1">
    <g id="xtick_1">
     <g id="line2d_5">
      <path clip-path="url(#paff075194e)" d="M 56.84 294.16 
L 56.84 6.125228 
" style="fill:none;stroke:#b0b0b0;stroke-linecap:square;stroke-width:0.8;"/>
     </g>
     <g id="line2d_6">
      <defs>
       <path d="M 0 0 
L 0 3.5 
" id="ma96ff198d3" style="stroke:#000000;stroke-width:0.8;"/>
      </defs>
      <g>
       <use style="stroke:#000000;stroke-width:0.8;" x="56.84" xlink:href="#ma96ff198d3" y="294.16"/>
      </g>
     </g>
     <g id="text_1">
      <!-- 0 -->
      <defs>
       <path d="M 31.78125 66.40625 
Q 24.171875 66.40625 20.328125 58.90625 
Q 16.5 51.421875 16.5 36.375 
Q 16.5 21.390625 20.328125 13.890625 
Q 24.171875 6.390625 31.78125 6.390625 
Q 39.453125 6.390625 43.28125 13.890625 
Q 47.125 21.390625 47.125 36.375 
Q 47.125 51.421875 43.28125 58.90625 
Q 39.453125 66.40625 31.78125 66.40625 
M 31.78125 74.21875 
Q 44.046875 74.21875 50.515625 64.515625 
Q 56.984375 54.828125 56.984375 36.375 
Q 56.984375 17.96875 50.515625 8.265625 
Q 44.046875 -1.421875 31.78125 -1.421875 
Q 19.53125 -1.421875 13.0625 8.265625 
Q 6.59375 17.96875 6.59375 36.375 
Q 6.59375 54.828125 13.0625 64.515625 
Q 19.53125 74.21875 31.78125 74.21875 
" id="DejaVuSans-30"/>
      </defs>
      <g transform="translate(50.4775 316.356875)scale(0.2 -0.2)">
       <use xlink:href="#DejaVuSans-30"/>
      </g>
     </g>
    </g>
    <g id="xtick_2">
     <g id="line2d_7">
      <path clip-path="url(#paff075194e)" d="M 135.905438 294.16 
L 135.905438 6.125228 
" style="fill:none;stroke:#b0b0b0;stroke-linecap:square;stroke-width:0.8;"/>
     </g>
     <g id="line2d_8">
      <g>
       <use style="stroke:#000000;stroke-width:0.8;" x="135.905438" xlink:href="#ma96ff198d3" y="294.16"/>
      </g>
     </g>
     <g id="text_2">
      <!-- 2 -->
      <defs>
       <path d="M 19.1875 8.296875 
L 53.609375 8.296875 
L 53.609375 0 
L 7.328125 0 
L 7.328125 8.296875 
Q 12.9375 14.109375 22.625 23.890625 
Q 32.328125 33.6875 34.8125 36.53125 
Q 39.546875 41.84375 41.421875 45.53125 
Q 43.3125 49.21875 43.3125 52.78125 
Q 43.3125 58.59375 39.234375 62.25 
Q 35.15625 65.921875 28.609375 65.921875 
Q 23.96875 65.921875 18.8125 64.3125 
Q 13.671875 62.703125 7.8125 59.421875 
L 7.8125 69.390625 
Q 13.765625 71.78125 18.9375 73 
Q 24.125 74.21875 28.421875 74.21875 
Q 39.75 74.21875 46.484375 68.546875 
Q 53.21875 62.890625 53.21875 53.421875 
Q 53.21875 48.921875 51.53125 44.890625 
Q 49.859375 40.875 45.40625 35.40625 
Q 44.1875 33.984375 37.640625 27.21875 
Q 31.109375 20.453125 19.1875 8.296875 
" id="DejaVuSans-32"/>
      </defs>
      <g transform="translate(129.542938 316.356875)scale(0.2 -0.2)">
       <use xlink:href="#DejaVuSans-32"/>
      </g>
     </g>
    </g>
    <g id="xtick_3">
     <g id="line2d_9">
      <path clip-path="url(#paff075194e)" d="M 214.970876 294.16 
L 214.970876 6.125228 
" style="fill:none;stroke:#b0b0b0;stroke-linecap:square;stroke-width:0.8;"/>
     </g>
     <g id="line2d_10">
      <g>
       <use style="stroke:#000000;stroke-width:0.8;" x="214.970876" xlink:href="#ma96ff198d3" y="294.16"/>
      </g>
     </g>
     <g id="text_3">
      <!-- 4 -->
      <defs>
       <path d="M 37.796875 64.3125 
L 12.890625 25.390625 
L 37.796875 25.390625 
z
M 35.203125 72.90625 
L 47.609375 72.90625 
L 47.609375 25.390625 
L 58.015625 25.390625 
L 58.015625 17.1875 
L 47.609375 17.1875 
L 47.609375 0 
L 37.796875 0 
L 37.796875 17.1875 
L 4.890625 17.1875 
L 4.890625 26.703125 
z
" id="DejaVuSans-34"/>
      </defs>
      <g transform="translate(208.608376 316.356875)scale(0.2 -0.2)">
       <use xlink:href="#DejaVuSans-34"/>
      </g>
     </g>
    </g>
    <g id="xtick_4">
     <g id="line2d_11">
      <path clip-path="url(#paff075194e)" d="M 294.036313 294.16 
L 294.036313 6.125228 
" style="fill:none;stroke:#b0b0b0;stroke-linecap:square;stroke-width:0.8;"/>
     </g>
     <g id="line2d_12">
      <g>
       <use style="stroke:#000000;stroke-width:0.8;" x="294.036313" xlink:href="#ma96ff198d3" y="294.16"/>
      </g>
     </g>
     <g id="text_4">
      <!-- 6 -->
      <defs>
       <path d="M 33.015625 40.375 
Q 26.375 40.375 22.484375 35.828125 
Q 18.609375 31.296875 18.609375 23.390625 
Q 18.609375 15.53125 22.484375 10.953125 
Q 26.375 6.390625 33.015625 6.390625 
Q 39.65625 6.390625 43.53125 10.953125 
Q 47.40625 15.53125 47.40625 23.390625 
Q 47.40625 31.296875 43.53125 35.828125 
Q 39.65625 40.375 33.015625 40.375 
M 52.59375 71.296875 
L 52.59375 62.3125 
Q 48.875 64.0625 45.09375 64.984375 
Q 41.3125 65.921875 37.59375 65.921875 
Q 27.828125 65.921875 22.671875 59.328125 
Q 17.53125 52.734375 16.796875 39.40625 
Q 19.671875 43.65625 24.015625 45.921875 
Q 28.375 48.1875 33.59375 48.1875 
Q 44.578125 48.1875 50.953125 41.515625 
Q 57.328125 34.859375 57.328125 23.390625 
Q 57.328125 12.15625 50.6875 5.359375 
Q 44.046875 -1.421875 33.015625 -1.421875 
Q 20.359375 -1.421875 13.671875 8.265625 
Q 6.984375 17.96875 6.984375 36.375 
Q 6.984375 53.65625 15.1875 63.9375 
Q 23.390625 74.21875 37.203125 74.21875 
Q 40.921875 74.21875 44.703125 73.484375 
Q 48.484375 72.75 52.59375 71.296875 
" id="DejaVuSans-36"/>
      </defs>
      <g transform="translate(287.673813 316.356875)scale(0.2 -0.2)">
       <use xlink:href="#DejaVuSans-36"/>
      </g>
     </g>
    </g>
    <g id="xtick_5">
     <g id="line2d_13">
      <path clip-path="url(#paff075194e)" d="M 373.101751 294.16 
L 373.101751 6.125228 
" style="fill:none;stroke:#b0b0b0;stroke-linecap:square;stroke-width:0.8;"/>
     </g>
     <g id="line2d_14">
      <g>
       <use style="stroke:#000000;stroke-width:0.8;" x="373.101751" xlink:href="#ma96ff198d3" y="294.16"/>
      </g>
     </g>
     <g id="text_5">
      <!-- 8 -->
      <defs>
       <path d="M 31.78125 34.625 
Q 24.75 34.625 20.71875 30.859375 
Q 16.703125 27.09375 16.703125 20.515625 
Q 16.703125 13.921875 20.71875 10.15625 
Q 24.75 6.390625 31.78125 6.390625 
Q 38.8125 6.390625 42.859375 10.171875 
Q 46.921875 13.96875 46.921875 20.515625 
Q 46.921875 27.09375 42.890625 30.859375 
Q 38.875 34.625 31.78125 34.625 
M 21.921875 38.8125 
Q 15.578125 40.375 12.03125 44.71875 
Q 8.5 49.078125 8.5 55.328125 
Q 8.5 64.0625 14.71875 69.140625 
Q 20.953125 74.21875 31.78125 74.21875 
Q 42.671875 74.21875 48.875 69.140625 
Q 55.078125 64.0625 55.078125 55.328125 
Q 55.078125 49.078125 51.53125 44.71875 
Q 48 40.375 41.703125 38.8125 
Q 48.828125 37.15625 52.796875 32.3125 
Q 56.78125 27.484375 56.78125 20.515625 
Q 56.78125 9.90625 50.3125 4.234375 
Q 43.84375 -1.421875 31.78125 -1.421875 
Q 19.734375 -1.421875 13.25 4.234375 
Q 6.78125 9.90625 6.78125 20.515625 
Q 6.78125 27.484375 10.78125 32.3125 
Q 14.796875 37.15625 21.921875 38.8125 
M 18.3125 54.390625 
Q 18.3125 48.734375 21.84375 45.5625 
Q 25.390625 42.390625 31.78125 42.390625 
Q 38.140625 42.390625 41.71875 45.5625 
Q 45.3125 48.734375 45.3125 54.390625 
Q 45.3125 60.0625 41.71875 63.234375 
Q 38.140625 66.40625 31.78125 66.40625 
Q 25.390625 66.40625 21.84375 63.234375 
Q 18.3125 60.0625 18.3125 54.390625 
" id="DejaVuSans-38"/>
      </defs>
      <g transform="translate(366.739251 316.356875)scale(0.2 -0.2)">
       <use xlink:href="#DejaVuSans-38"/>
      </g>
     </g>
    </g>
    <g id="xtick_6">
     <g id="line2d_15">
      <defs>
       <path d="M 0 0 
L 0 2 
" id="mb1fb171cf6" style="stroke:#000000;stroke-width:0.6;"/>
      </defs>
      <g>
       <use style="stroke:#000000;stroke-width:0.6;" x="68.740534" xlink:href="#mb1fb171cf6" y="294.16"/>
      </g>
     </g>
    </g>
    <g id="xtick_7">
     <g id="line2d_16">
      <g>
       <use style="stroke:#000000;stroke-width:0.6;" x="80.641068" xlink:href="#mb1fb171cf6" y="294.16"/>
      </g>
     </g>
    </g>
    <g id="xtick_8">
     <g id="line2d_17">
      <g>
       <use style="stroke:#000000;stroke-width:0.6;" x="87.602435" xlink:href="#mb1fb171cf6" y="294.16"/>
      </g>
     </g>
    </g>
    <g id="xtick_9">
     <g id="line2d_18">
      <g>
       <use style="stroke:#000000;stroke-width:0.6;" x="92.541603" xlink:href="#mb1fb171cf6" y="294.16"/>
      </g>
     </g>
    </g>
    <g id="xtick_10">
     <g id="line2d_19">
      <g>
       <use style="stroke:#000000;stroke-width:0.6;" x="147.805972" xlink:href="#mb1fb171cf6" y="294.16"/>
      </g>
     </g>
    </g>
    <g id="xtick_11">
     <g id="line2d_20">
      <g>
       <use style="stroke:#000000;stroke-width:0.6;" x="159.706506" xlink:href="#mb1fb171cf6" y="294.16"/>
      </g>
     </g>
    </g>
    <g id="xtick_12">
     <g id="line2d_21">
      <g>
       <use style="stroke:#000000;stroke-width:0.6;" x="166.667872" xlink:href="#mb1fb171cf6" y="294.16"/>
      </g>
     </g>
    </g>
    <g id="xtick_13">
     <g id="line2d_22">
      <g>
       <use style="stroke:#000000;stroke-width:0.6;" x="171.60704" xlink:href="#mb1fb171cf6" y="294.16"/>
      </g>
     </g>
    </g>
    <g id="xtick_14">
     <g id="line2d_23">
      <g>
       <use style="stroke:#000000;stroke-width:0.6;" x="226.87141" xlink:href="#mb1fb171cf6" y="294.16"/>
      </g>
     </g>
    </g>
    <g id="xtick_15">
     <g id="line2d_24">
      <g>
       <use style="stroke:#000000;stroke-width:0.6;" x="238.771944" xlink:href="#mb1fb171cf6" y="294.16"/>
      </g>
     </g>
    </g>
    <g id="xtick_16">
     <g id="line2d_25">
      <g>
       <use style="stroke:#000000;stroke-width:0.6;" x="245.73331" xlink:href="#mb1fb171cf6" y="294.16"/>
      </g>
     </g>
    </g>
    <g id="xtick_17">
     <g id="line2d_26">
      <g>
       <use style="stroke:#000000;stroke-width:0.6;" x="250.672478" xlink:href="#mb1fb171cf6" y="294.16"/>
      </g>
     </g>
    </g>
    <g id="xtick_18">
     <g id="line2d_27">
      <g>
       <use style="stroke:#000000;stroke-width:0.6;" x="305.936848" xlink:href="#mb1fb171cf6" y="294.16"/>
      </g>
     </g>
    </g>
    <g id="xtick_19">
     <g id="line2d_28">
      <g>
       <use style="stroke:#000000;stroke-width:0.6;" x="317.837382" xlink:href="#mb1fb171cf6" y="294.16"/>
      </g>
     </g>
    </g>
    <g id="xtick_20">
     <g id="line2d_29">
      <g>
       <use style="stroke:#000000;stroke-width:0.6;" x="324.798748" xlink:href="#mb1fb171cf6" y="294.16"/>
      </g>
     </g>
    </g>
    <g id="xtick_21">
     <g id="line2d_30">
      <g>
       <use style="stroke:#000000;stroke-width:0.6;" x="329.737916" xlink:href="#mb1fb171cf6" y="294.16"/>
      </g>
     </g>
    </g>
    <g id="xtick_22">
     <g id="line2d_31">
      <g>
       <use style="stroke:#000000;stroke-width:0.6;" x="385.002285" xlink:href="#mb1fb171cf6" y="294.16"/>
      </g>
     </g>
    </g>
    <g id="xtick_23">
     <g id="line2d_32">
      <g>
       <use style="stroke:#000000;stroke-width:0.6;" x="396.90282" xlink:href="#mb1fb171cf6" y="294.16"/>
      </g>
     </g>
    </g>
    <g id="text_6">
     <!-- log10(# f-evals / dimension) -->
     <defs>
      <path d="M 9.421875 75.984375 
L 18.40625 75.984375 
L 18.40625 0 
L 9.421875 0 
z
" id="DejaVuSans-6c"/>
      <path d="M 30.609375 48.390625 
Q 23.390625 48.390625 19.1875 42.75 
Q 14.984375 37.109375 14.984375 27.296875 
Q 14.984375 17.484375 19.15625 11.84375 
Q 23.34375 6.203125 30.609375 6.203125 
Q 37.796875 6.203125 41.984375 11.859375 
Q 46.1875 17.53125 46.1875 27.296875 
Q 46.1875 37.015625 41.984375 42.703125 
Q 37.796875 48.390625 30.609375 48.390625 
M 30.609375 56 
Q 42.328125 56 49.015625 48.375 
Q 55.71875 40.765625 55.71875 27.296875 
Q 55.71875 13.875 49.015625 6.21875 
Q 42.328125 -1.421875 30.609375 -1.421875 
Q 18.84375 -1.421875 12.171875 6.21875 
Q 5.515625 13.875 5.515625 27.296875 
Q 5.515625 40.765625 12.171875 48.375 
Q 18.84375 56 30.609375 56 
" id="DejaVuSans-6f"/>
      <path d="M 45.40625 27.984375 
Q 45.40625 37.75 41.375 43.109375 
Q 37.359375 48.484375 30.078125 48.484375 
Q 22.859375 48.484375 18.828125 43.109375 
Q 14.796875 37.75 14.796875 27.984375 
Q 14.796875 18.265625 18.828125 12.890625 
Q 22.859375 7.515625 30.078125 7.515625 
Q 37.359375 7.515625 41.375 12.890625 
Q 45.40625 18.265625 45.40625 27.984375 
M 54.390625 6.78125 
Q 54.390625 -7.171875 48.1875 -13.984375 
Q 42 -20.796875 29.203125 -20.796875 
Q 24.46875 -20.796875 20.265625 -20.09375 
Q 16.0625 -19.390625 12.109375 -17.921875 
L 12.109375 -9.1875 
Q 16.0625 -11.328125 19.921875 -12.34375 
Q 23.78125 -13.375 27.78125 -13.375 
Q 36.625 -13.375 41.015625 -8.765625 
Q 45.40625 -4.15625 45.40625 5.171875 
L 45.40625 9.625 
Q 42.625 4.78125 38.28125 2.390625 
Q 33.9375 0 27.875 0 
Q 17.828125 0 11.671875 7.65625 
Q 5.515625 15.328125 5.515625 27.984375 
Q 5.515625 40.671875 11.671875 48.328125 
Q 17.828125 56 27.875 56 
Q 33.9375 56 38.28125 53.609375 
Q 42.625 51.21875 45.40625 46.390625 
L 45.40625 54.6875 
L 54.390625 54.6875 
z
" id="DejaVuSans-67"/>
      <path d="M 12.40625 8.296875 
L 28.515625 8.296875 
L 28.515625 63.921875 
L 10.984375 60.40625 
L 10.984375 69.390625 
L 28.421875 72.90625 
L 38.28125 72.90625 
L 38.28125 8.296875 
L 54.390625 8.296875 
L 54.390625 0 
L 12.40625 0 
z
" id="DejaVuSans-31"/>
      <path d="M 31 75.875 
Q 24.46875 64.65625 21.28125 53.65625 
Q 18.109375 42.671875 18.109375 31.390625 
Q 18.109375 20.125 21.3125 9.0625 
Q 24.515625 -2 31 -13.1875 
L 23.1875 -13.1875 
Q 15.875 -1.703125 12.234375 9.375 
Q 8.59375 20.453125 8.59375 31.390625 
Q 8.59375 42.28125 12.203125 53.3125 
Q 15.828125 64.359375 23.1875 75.875 
z
" id="DejaVuSans-28"/>
      <path d="M 51.125 44 
L 36.921875 44 
L 32.8125 27.6875 
L 47.125 27.6875 
z
M 43.796875 71.78125 
L 38.71875 51.515625 
L 52.984375 51.515625 
L 58.109375 71.78125 
L 65.921875 71.78125 
L 60.890625 51.515625 
L 76.125 51.515625 
L 76.125 44 
L 58.984375 44 
L 54.984375 27.6875 
L 70.515625 27.6875 
L 70.515625 20.21875 
L 53.078125 20.21875 
L 48 0 
L 40.1875 0 
L 45.21875 20.21875 
L 30.90625 20.21875 
L 25.875 0 
L 18.015625 0 
L 23.09375 20.21875 
L 7.71875 20.21875 
L 7.71875 27.6875 
L 24.90625 27.6875 
L 29 44 
L 13.28125 44 
L 13.28125 51.515625 
L 30.90625 51.515625 
L 35.890625 71.78125 
z
" id="DejaVuSans-23"/>
      <path id="DejaVuSans-20"/>
      <path d="M 37.109375 75.984375 
L 37.109375 68.5 
L 28.515625 68.5 
Q 23.6875 68.5 21.796875 66.546875 
Q 19.921875 64.59375 19.921875 59.515625 
L 19.921875 54.6875 
L 34.71875 54.6875 
L 34.71875 47.703125 
L 19.921875 47.703125 
L 19.921875 0 
L 10.890625 0 
L 10.890625 47.703125 
L 2.296875 47.703125 
L 2.296875 54.6875 
L 10.890625 54.6875 
L 10.890625 58.5 
Q 10.890625 67.625 15.140625 71.796875 
Q 19.390625 75.984375 28.609375 75.984375 
z
" id="DejaVuSans-66"/>
      <path d="M 4.890625 31.390625 
L 31.203125 31.390625 
L 31.203125 23.390625 
L 4.890625 23.390625 
z
" id="DejaVuSans-2d"/>
      <path d="M 56.203125 29.59375 
L 56.203125 25.203125 
L 14.890625 25.203125 
Q 15.484375 15.921875 20.484375 11.0625 
Q 25.484375 6.203125 34.421875 6.203125 
Q 39.59375 6.203125 44.453125 7.46875 
Q 49.3125 8.734375 54.109375 11.28125 
L 54.109375 2.78125 
Q 49.265625 0.734375 44.1875 -0.34375 
Q 39.109375 -1.421875 33.890625 -1.421875 
Q 20.796875 -1.421875 13.15625 6.1875 
Q 5.515625 13.8125 5.515625 26.8125 
Q 5.515625 40.234375 12.765625 48.109375 
Q 20.015625 56 32.328125 56 
Q 43.359375 56 49.78125 48.890625 
Q 56.203125 41.796875 56.203125 29.59375 
M 47.21875 32.234375 
Q 47.125 39.59375 43.09375 43.984375 
Q 39.0625 48.390625 32.421875 48.390625 
Q 24.90625 48.390625 20.390625 44.140625 
Q 15.875 39.890625 15.1875 32.171875 
z
" id="DejaVuSans-65"/>
      <path d="M 2.984375 54.6875 
L 12.5 54.6875 
L 29.59375 8.796875 
L 46.6875 54.6875 
L 56.203125 54.6875 
L 35.6875 0 
L 23.484375 0 
z
" id="DejaVuSans-76"/>
      <path d="M 34.28125 27.484375 
Q 23.390625 27.484375 19.1875 25 
Q 14.984375 22.515625 14.984375 16.5 
Q 14.984375 11.71875 18.140625 8.90625 
Q 21.296875 6.109375 26.703125 6.109375 
Q 34.1875 6.109375 38.703125 11.40625 
Q 43.21875 16.703125 43.21875 25.484375 
L 43.21875 27.484375 
z
M 52.203125 31.203125 
L 52.203125 0 
L 43.21875 0 
L 43.21875 8.296875 
Q 40.140625 3.328125 35.546875 0.953125 
Q 30.953125 -1.421875 24.3125 -1.421875 
Q 15.921875 -1.421875 10.953125 3.296875 
Q 6 8.015625 6 15.921875 
Q 6 25.140625 12.171875 29.828125 
Q 18.359375 34.515625 30.609375 34.515625 
L 43.21875 34.515625 
L 43.21875 35.40625 
Q 43.21875 41.609375 39.140625 45 
Q 35.0625 48.390625 27.6875 48.390625 
Q 23 48.390625 18.546875 47.265625 
Q 14.109375 46.140625 10.015625 43.890625 
L 10.015625 52.203125 
Q 14.9375 54.109375 19.578125 55.046875 
Q 24.21875 56 28.609375 56 
Q 40.484375 56 46.34375 49.84375 
Q 52.203125 43.703125 52.203125 31.203125 
" id="DejaVuSans-61"/>
      <path d="M 44.28125 53.078125 
L 44.28125 44.578125 
Q 40.484375 46.53125 36.375 47.5 
Q 32.28125 48.484375 27.875 48.484375 
Q 21.1875 48.484375 17.84375 46.4375 
Q 14.5 44.390625 14.5 40.28125 
Q 14.5 37.15625 16.890625 35.375 
Q 19.28125 33.59375 26.515625 31.984375 
L 29.59375 31.296875 
Q 39.15625 29.25 43.1875 25.515625 
Q 47.21875 21.78125 47.21875 15.09375 
Q 47.21875 7.46875 41.1875 3.015625 
Q 35.15625 -1.421875 24.609375 -1.421875 
Q 20.21875 -1.421875 15.453125 -0.5625 
Q 10.6875 0.296875 5.421875 2 
L 5.421875 11.28125 
Q 10.40625 8.6875 15.234375 7.390625 
Q 20.0625 6.109375 24.8125 6.109375 
Q 31.15625 6.109375 34.5625 8.28125 
Q 37.984375 10.453125 37.984375 14.40625 
Q 37.984375 18.0625 35.515625 20.015625 
Q 33.0625 21.96875 24.703125 23.78125 
L 21.578125 24.515625 
Q 13.234375 26.265625 9.515625 29.90625 
Q 5.8125 33.546875 5.8125 39.890625 
Q 5.8125 47.609375 11.28125 51.796875 
Q 16.75 56 26.8125 56 
Q 31.78125 56 36.171875 55.265625 
Q 40.578125 54.546875 44.28125 53.078125 
" id="DejaVuSans-73"/>
      <path d="M 25.390625 72.90625 
L 33.6875 72.90625 
L 8.296875 -9.28125 
L 0 -9.28125 
z
" id="DejaVuSans-2f"/>
      <path d="M 45.40625 46.390625 
L 45.40625 75.984375 
L 54.390625 75.984375 
L 54.390625 0 
L 45.40625 0 
L 45.40625 8.203125 
Q 42.578125 3.328125 38.25 0.953125 
Q 33.9375 -1.421875 27.875 -1.421875 
Q 17.96875 -1.421875 11.734375 6.484375 
Q 5.515625 14.40625 5.515625 27.296875 
Q 5.515625 40.1875 11.734375 48.09375 
Q 17.96875 56 27.875 56 
Q 33.9375 56 38.25 53.625 
Q 42.578125 51.265625 45.40625 46.390625 
M 14.796875 27.296875 
Q 14.796875 17.390625 18.875 11.75 
Q 22.953125 6.109375 30.078125 6.109375 
Q 37.203125 6.109375 41.296875 11.75 
Q 45.40625 17.390625 45.40625 27.296875 
Q 45.40625 37.203125 41.296875 42.84375 
Q 37.203125 48.484375 30.078125 48.484375 
Q 22.953125 48.484375 18.875 42.84375 
Q 14.796875 37.203125 14.796875 27.296875 
" id="DejaVuSans-64"/>
      <path d="M 9.421875 54.6875 
L 18.40625 54.6875 
L 18.40625 0 
L 9.421875 0 
z
M 9.421875 75.984375 
L 18.40625 75.984375 
L 18.40625 64.59375 
L 9.421875 64.59375 
z
" id="DejaVuSans-69"/>
      <path d="M 52 44.1875 
Q 55.375 50.25 60.0625 53.125 
Q 64.75 56 71.09375 56 
Q 79.640625 56 84.28125 50.015625 
Q 88.921875 44.046875 88.921875 33.015625 
L 88.921875 0 
L 79.890625 0 
L 79.890625 32.71875 
Q 79.890625 40.578125 77.09375 44.375 
Q 74.3125 48.1875 68.609375 48.1875 
Q 61.625 48.1875 57.5625 43.546875 
Q 53.515625 38.921875 53.515625 30.90625 
L 53.515625 0 
L 44.484375 0 
L 44.484375 32.71875 
Q 44.484375 40.625 41.703125 44.40625 
Q 38.921875 48.1875 33.109375 48.1875 
Q 26.21875 48.1875 22.15625 43.53125 
Q 18.109375 38.875 18.109375 30.90625 
L 18.109375 0 
L 9.078125 0 
L 9.078125 54.6875 
L 18.109375 54.6875 
L 18.109375 46.1875 
Q 21.1875 51.21875 25.484375 53.609375 
Q 29.78125 56 35.6875 56 
Q 41.65625 56 45.828125 52.96875 
Q 50 49.953125 52 44.1875 
" id="DejaVuSans-6d"/>
      <path d="M 54.890625 33.015625 
L 54.890625 0 
L 45.90625 0 
L 45.90625 32.71875 
Q 45.90625 40.484375 42.875 44.328125 
Q 39.84375 48.1875 33.796875 48.1875 
Q 26.515625 48.1875 22.3125 43.546875 
Q 18.109375 38.921875 18.109375 30.90625 
L 18.109375 0 
L 9.078125 0 
L 9.078125 54.6875 
L 18.109375 54.6875 
L 18.109375 46.1875 
Q 21.34375 51.125 25.703125 53.5625 
Q 30.078125 56 35.796875 56 
Q 45.21875 56 50.046875 50.171875 
Q 54.890625 44.34375 54.890625 33.015625 
" id="DejaVuSans-6e"/>
      <path d="M 8.015625 75.875 
L 15.828125 75.875 
Q 23.140625 64.359375 26.78125 53.3125 
Q 30.421875 42.28125 30.421875 31.390625 
Q 30.421875 20.453125 26.78125 9.375 
Q 23.140625 -1.703125 15.828125 -13.1875 
L 8.015625 -13.1875 
Q 14.5 -2 17.703125 9.0625 
Q 20.90625 20.125 20.90625 31.390625 
Q 20.90625 42.671875 17.703125 53.65625 
Q 14.5 64.65625 8.015625 75.875 
" id="DejaVuSans-29"/>
     </defs>
     <g transform="translate(107.571219 337.433594)scale(0.17 -0.17)">
      <use xlink:href="#DejaVuSans-6c"/>
      <use x="27.783203" xlink:href="#DejaVuSans-6f"/>
      <use x="88.964844" xlink:href="#DejaVuSans-67"/>
      <use x="152.441406" xlink:href="#DejaVuSans-31"/>
      <use x="216.064453" xlink:href="#DejaVuSans-30"/>
      <use x="279.6875" xlink:href="#DejaVuSans-28"/>
      <use x="318.701172" xlink:href="#DejaVuSans-23"/>
      <use x="402.490234" xlink:href="#DejaVuSans-20"/>
      <use x="434.277344" xlink:href="#DejaVuSans-66"/>
      <use x="469.404297" xlink:href="#DejaVuSans-2d"/>
      <use x="505.488281" xlink:href="#DejaVuSans-65"/>
      <use x="567.011719" xlink:href="#DejaVuSans-76"/>
      <use x="626.191406" xlink:href="#DejaVuSans-61"/>
      <use x="687.470703" xlink:href="#DejaVuSans-6c"/>
      <use x="715.253906" xlink:href="#DejaVuSans-73"/>
      <use x="767.353516" xlink:href="#DejaVuSans-20"/>
      <use x="799.140625" xlink:href="#DejaVuSans-2f"/>
      <use x="832.832031" xlink:href="#DejaVuSans-20"/>
      <use x="864.619141" xlink:href="#DejaVuSans-64"/>
      <use x="928.095703" xlink:href="#DejaVuSans-69"/>
      <use x="955.878906" xlink:href="#DejaVuSans-6d"/>
      <use x="1053.291016" xlink:href="#DejaVuSans-65"/>
      <use x="1114.814453" xlink:href="#DejaVuSans-6e"/>
      <use x="1178.193359" xlink:href="#DejaVuSans-73"/>
      <use x="1230.292969" xlink:href="#DejaVuSans-69"/>
      <use x="1258.076172" xlink:href="#DejaVuSans-6f"/>
      <use x="1319.257812" xlink:href="#DejaVuSans-6e"/>
      <use x="1382.636719" xlink:href="#DejaVuSans-29"/>
     </g>
    </g>
   </g>
   <g id="matplotlib.axis_2">
    <g id="ytick_1">
     <g id="line2d_33">
      <path clip-path="url(#paff075194e)" d="M 56.84 294.16 
L 399.984 294.16 
" style="fill:none;stroke:#b0b0b0;stroke-linecap:square;stroke-width:0.8;"/>
     </g>
     <g id="line2d_34">
      <defs>
       <path d="M 0 0 
L -3.5 0 
" id="m4913927b48" style="stroke:#000000;stroke-width:0.8;"/>
      </defs>
      <g>
       <use style="stroke:#000000;stroke-width:0.8;" x="56.84" xlink:href="#m4913927b48" y="294.16"/>
      </g>
     </g>
     <g id="text_7">
      <!-- 0.0 -->
      <defs>
       <path d="M 10.6875 12.40625 
L 21 12.40625 
L 21 0 
L 10.6875 0 
z
" id="DejaVuSans-2e"/>
      </defs>
      <g transform="translate(24.395 300.23875)scale(0.16 -0.16)">
       <use xlink:href="#DejaVuSans-30"/>
       <use x="63.623047" xlink:href="#DejaVuSans-2e"/>
       <use x="95.410156" xlink:href="#DejaVuSans-30"/>
      </g>
     </g>
    </g>
    <g id="ytick_2">
     <g id="line2d_35">
      <path clip-path="url(#paff075194e)" d="M 56.84 237.123411 
L 399.984 237.123411 
" style="fill:none;stroke:#b0b0b0;stroke-linecap:square;stroke-width:0.8;"/>
     </g>
     <g id="line2d_36">
      <g>
       <use style="stroke:#000000;stroke-width:0.8;" x="56.84" xlink:href="#m4913927b48" y="237.123411"/>
      </g>
     </g>
     <g id="text_8">
      <!-- 0.2 -->
      <g transform="translate(24.395 243.202161)scale(0.16 -0.16)">
       <use xlink:href="#DejaVuSans-30"/>
       <use x="63.623047" xlink:href="#DejaVuSans-2e"/>
       <use x="95.410156" xlink:href="#DejaVuSans-32"/>
      </g>
     </g>
    </g>
    <g id="ytick_3">
     <g id="line2d_37">
      <path clip-path="url(#paff075194e)" d="M 56.84 180.086823 
L 399.984 180.086823 
" style="fill:none;stroke:#b0b0b0;stroke-linecap:square;stroke-width:0.8;"/>
     </g>
     <g id="line2d_38">
      <g>
       <use style="stroke:#000000;stroke-width:0.8;" x="56.84" xlink:href="#m4913927b48" y="180.086823"/>
      </g>
     </g>
     <g id="text_9">
      <!-- 0.4 -->
      <g transform="translate(24.395 186.165573)scale(0.16 -0.16)">
       <use xlink:href="#DejaVuSans-30"/>
       <use x="63.623047" xlink:href="#DejaVuSans-2e"/>
       <use x="95.410156" xlink:href="#DejaVuSans-34"/>
      </g>
     </g>
    </g>
    <g id="ytick_4">
     <g id="line2d_39">
      <path clip-path="url(#paff075194e)" d="M 56.84 123.050234 
L 399.984 123.050234 
" style="fill:none;stroke:#b0b0b0;stroke-linecap:square;stroke-width:0.8;"/>
     </g>
     <g id="line2d_40">
      <g>
       <use style="stroke:#000000;stroke-width:0.8;" x="56.84" xlink:href="#m4913927b48" y="123.050234"/>
      </g>
     </g>
     <g id="text_10">
      <!-- 0.6 -->
      <g transform="translate(24.395 129.128984)scale(0.16 -0.16)">
       <use xlink:href="#DejaVuSans-30"/>
       <use x="63.623047" xlink:href="#DejaVuSans-2e"/>
       <use x="95.410156" xlink:href="#DejaVuSans-36"/>
      </g>
     </g>
    </g>
    <g id="ytick_5">
     <g id="line2d_41">
      <path clip-path="url(#paff075194e)" d="M 56.84 66.013646 
L 399.984 66.013646 
" style="fill:none;stroke:#b0b0b0;stroke-linecap:square;stroke-width:0.8;"/>
     </g>
     <g id="line2d_42">
      <g>
       <use style="stroke:#000000;stroke-width:0.8;" x="56.84" xlink:href="#m4913927b48" y="66.013646"/>
      </g>
     </g>
     <g id="text_11">
      <!-- 0.8 -->
      <g transform="translate(24.395 72.092396)scale(0.16 -0.16)">
       <use xlink:href="#DejaVuSans-30"/>
       <use x="63.623047" xlink:href="#DejaVuSans-2e"/>
       <use x="95.410156" xlink:href="#DejaVuSans-38"/>
      </g>
     </g>
    </g>
    <g id="ytick_6">
     <g id="line2d_43">
      <path clip-path="url(#paff075194e)" d="M 56.84 8.977057 
L 399.984 8.977057 
" style="fill:none;stroke:#b0b0b0;stroke-linecap:square;stroke-width:0.8;"/>
     </g>
     <g id="line2d_44">
      <g>
       <use style="stroke:#000000;stroke-width:0.8;" x="56.84" xlink:href="#m4913927b48" y="8.977057"/>
      </g>
     </g>
     <g id="text_12">
      <!-- 1.0 -->
      <g transform="translate(24.395 15.055807)scale(0.16 -0.16)">
       <use xlink:href="#DejaVuSans-31"/>
       <use x="63.623047" xlink:href="#DejaVuSans-2e"/>
       <use x="95.410156" xlink:href="#DejaVuSans-30"/>
      </g>
     </g>
    </g>
    <g id="text_13">
     <!-- Fraction of function,target pairs -->
     <defs>
      <path d="M 9.8125 72.90625 
L 51.703125 72.90625 
L 51.703125 64.59375 
L 19.671875 64.59375 
L 19.671875 43.109375 
L 48.578125 43.109375 
L 48.578125 34.8125 
L 19.671875 34.8125 
L 19.671875 0 
L 9.8125 0 
z
" id="DejaVuSans-46"/>
      <path d="M 41.109375 46.296875 
Q 39.59375 47.171875 37.8125 47.578125 
Q 36.03125 48 33.890625 48 
Q 26.265625 48 22.1875 43.046875 
Q 18.109375 38.09375 18.109375 28.8125 
L 18.109375 0 
L 9.078125 0 
L 9.078125 54.6875 
L 18.109375 54.6875 
L 18.109375 46.1875 
Q 20.953125 51.171875 25.484375 53.578125 
Q 30.03125 56 36.53125 56 
Q 37.453125 56 38.578125 55.875 
Q 39.703125 55.765625 41.0625 55.515625 
z
" id="DejaVuSans-72"/>
      <path d="M 48.78125 52.59375 
L 48.78125 44.1875 
Q 44.96875 46.296875 41.140625 47.34375 
Q 37.3125 48.390625 33.40625 48.390625 
Q 24.65625 48.390625 19.8125 42.84375 
Q 14.984375 37.3125 14.984375 27.296875 
Q 14.984375 17.28125 19.8125 11.734375 
Q 24.65625 6.203125 33.40625 6.203125 
Q 37.3125 6.203125 41.140625 7.25 
Q 44.96875 8.296875 48.78125 10.40625 
L 48.78125 2.09375 
Q 45.015625 0.34375 40.984375 -0.53125 
Q 36.96875 -1.421875 32.421875 -1.421875 
Q 20.0625 -1.421875 12.78125 6.34375 
Q 5.515625 14.109375 5.515625 27.296875 
Q 5.515625 40.671875 12.859375 48.328125 
Q 20.21875 56 33.015625 56 
Q 37.15625 56 41.109375 55.140625 
Q 45.0625 54.296875 48.78125 52.59375 
" id="DejaVuSans-63"/>
      <path d="M 18.3125 70.21875 
L 18.3125 54.6875 
L 36.8125 54.6875 
L 36.8125 47.703125 
L 18.3125 47.703125 
L 18.3125 18.015625 
Q 18.3125 11.328125 20.140625 9.421875 
Q 21.96875 7.515625 27.59375 7.515625 
L 36.8125 7.515625 
L 36.8125 0 
L 27.59375 0 
Q 17.1875 0 13.234375 3.875 
Q 9.28125 7.765625 9.28125 18.015625 
L 9.28125 47.703125 
L 2.6875 47.703125 
L 2.6875 54.6875 
L 9.28125 54.6875 
L 9.28125 70.21875 
z
" id="DejaVuSans-74"/>
      <path d="M 8.5 21.578125 
L 8.5 54.6875 
L 17.484375 54.6875 
L 17.484375 21.921875 
Q 17.484375 14.15625 20.5 10.265625 
Q 23.53125 6.390625 29.59375 6.390625 
Q 36.859375 6.390625 41.078125 11.03125 
Q 45.3125 15.671875 45.3125 23.6875 
L 45.3125 54.6875 
L 54.296875 54.6875 
L 54.296875 0 
L 45.3125 0 
L 45.3125 8.40625 
Q 42.046875 3.421875 37.71875 1 
Q 33.40625 -1.421875 27.6875 -1.421875 
Q 18.265625 -1.421875 13.375 4.4375 
Q 8.5 10.296875 8.5 21.578125 
M 31.109375 56 
z
" id="DejaVuSans-75"/>
      <path d="M 11.71875 12.40625 
L 22.015625 12.40625 
L 22.015625 4 
L 14.015625 -11.625 
L 7.71875 -11.625 
L 11.71875 4 
z
" id="DejaVuSans-2c"/>
      <path d="M 18.109375 8.203125 
L 18.109375 -20.796875 
L 9.078125 -20.796875 
L 9.078125 54.6875 
L 18.109375 54.6875 
L 18.109375 46.390625 
Q 20.953125 51.265625 25.265625 53.625 
Q 29.59375 56 35.59375 56 
Q 45.5625 56 51.78125 48.09375 
Q 58.015625 40.1875 58.015625 27.296875 
Q 58.015625 14.40625 51.78125 6.484375 
Q 45.5625 -1.421875 35.59375 -1.421875 
Q 29.59375 -1.421875 25.265625 0.953125 
Q 20.953125 3.328125 18.109375 8.203125 
M 48.6875 27.296875 
Q 48.6875 37.203125 44.609375 42.84375 
Q 40.53125 48.484375 33.40625 48.484375 
Q 26.265625 48.484375 22.1875 42.84375 
Q 18.109375 37.203125 18.109375 27.296875 
Q 18.109375 17.390625 22.1875 11.75 
Q 26.265625 6.109375 33.40625 6.109375 
Q 40.53125 6.109375 44.609375 11.75 
Q 48.6875 17.390625 48.6875 27.296875 
" id="DejaVuSans-70"/>
     </defs>
     <g transform="translate(16.859531 285.281989)rotate(-90)scale(0.17 -0.17)">
      <use xlink:href="#DejaVuSans-46"/>
      <use x="57.410156" xlink:href="#DejaVuSans-72"/>
      <use x="98.523438" xlink:href="#DejaVuSans-61"/>
      <use x="159.802734" xlink:href="#DejaVuSans-63"/>
      <use x="214.783203" xlink:href="#DejaVuSans-74"/>
      <use x="253.992188" xlink:href="#DejaVuSans-69"/>
      <use x="281.775391" xlink:href="#DejaVuSans-6f"/>
      <use x="342.957031" xlink:href="#DejaVuSans-6e"/>
      <use x="406.335938" xlink:href="#DejaVuSans-20"/>
      <use x="438.123047" xlink:href="#DejaVuSans-6f"/>
      <use x="499.304688" xlink:href="#DejaVuSans-66"/>
      <use x="534.509766" xlink:href="#DejaVuSans-20"/>
      <use x="566.296875" xlink:href="#DejaVuSans-66"/>
      <use x="601.501953" xlink:href="#DejaVuSans-75"/>
      <use x="664.880859" xlink:href="#DejaVuSans-6e"/>
      <use x="728.259766" xlink:href="#DejaVuSans-63"/>
      <use x="783.240234" xlink:href="#DejaVuSans-74"/>
      <use x="822.449219" xlink:href="#DejaVuSans-69"/>
      <use x="850.232422" xlink:href="#DejaVuSans-6f"/>
      <use x="911.414062" xlink:href="#DejaVuSans-6e"/>
      <use x="974.792969" xlink:href="#DejaVuSans-2c"/>
      <use x="1006.580078" xlink:href="#DejaVuSans-74"/>
      <use x="1045.789062" xlink:href="#DejaVuSans-61"/>
      <use x="1107.068359" xlink:href="#DejaVuSans-72"/>
      <use x="1148.166016" xlink:href="#DejaVuSans-67"/>
      <use x="1211.642578" xlink:href="#DejaVuSans-65"/>
      <use x="1273.166016" xlink:href="#DejaVuSans-74"/>
      <use x="1312.375" xlink:href="#DejaVuSans-20"/>
      <use x="1344.162109" xlink:href="#DejaVuSans-70"/>
      <use x="1407.638672" xlink:href="#DejaVuSans-61"/>
      <use x="1468.917969" xlink:href="#DejaVuSans-69"/>
      <use x="1496.701172" xlink:href="#DejaVuSans-72"/>
      <use x="1537.814453" xlink:href="#DejaVuSans-73"/>
     </g>
    </g>
   </g>
   <g id="line2d_45">
    <defs>
     <path d="M 0 1.5 
C 0.397805 1.5 0.77937 1.341951 1.06066 1.06066 
C 1.341951 0.77937 1.5 0.397805 1.5 0 
C 1.5 -0.397805 1.341951 -0.77937 1.06066 -1.06066 
C 0.77937 -1.341951 0.397805 -1.5 0 -1.5 
C -0.397805 -1.5 -0.77937 -1.341951 -1.06066 -1.06066 
C -1.341951 -0.77937 -1.5 -0.397805 -1.5 0 
C -1.5 0.397805 -1.341951 0.77937 -1.06066 1.06066 
C -0.77937 1.341951 -0.397805 1.5 0 1.5 
z
" id="mbb7c0c74dc" style="stroke:#f5deb3;"/>
    </defs>
    <g>
     <use style="fill:#f5deb3;stroke:#f5deb3;" x="293.765028" xlink:href="#mbb7c0c74dc" y="138.456669"/>
     <use style="fill:#f5deb3;stroke:#f5deb3;" x="293.765028" xlink:href="#mbb7c0c74dc" y="138.456669"/>
    </g>
   </g>
   <g id="line2d_46">
    <defs>
     <path d="M 0 1.5 
C 0.397805 1.5 0.77937 1.341951 1.06066 1.06066 
C 1.341951 0.77937 1.5 0.397805 1.5 0 
C 1.5 -0.397805 1.341951 -0.77937 1.06066 -1.06066 
C 0.77937 -1.341951 0.397805 -1.5 0 -1.5 
C -0.397805 -1.5 -0.77937 -1.341951 -1.06066 -1.06066 
C -1.341951 -0.77937 -1.5 -0.397805 -1.5 0 
C -1.5 0.397805 -1.341951 0.77937 -1.06066 1.06066 
C -0.77937 1.341951 -0.397805 1.5 0 1.5 
z
" id="m617fbbc5ff" style="stroke:#000080;"/>
    </defs>
    <g>
     <use style="fill:#000080;stroke:#000080;" x="315.930913" xlink:href="#m617fbbc5ff" y="230.239685"/>
     <use style="fill:#000080;stroke:#000080;" x="315.930913" xlink:href="#m617fbbc5ff" y="230.239685"/>
    </g>
   </g>
   <g id="line2d_47">
    <path d="M -1 286.948477 
L 91.203093 286.948477 
L 91.203093 286.620681 
L 96.069604 286.620681 
L 96.156756 286.292884 
L 99.926912 286.292884 
L 99.926912 285.965088 
L 100.100512 285.965088 
L 100.100512 285.80119 
L 106.224208 285.80119 
L 106.224208 285.473393 
L 108.187194 285.473393 
L 108.187194 284.981698 
L 108.613241 284.981698 
L 108.613241 284.8178 
L 109.474941 284.8178 
L 109.474941 284.162207 
L 109.8314 284.162207 
L 109.8314 283.834411 
L 110.371588 283.834411 
L 110.447389 283.342716 
L 110.57924 283.342716 
L 110.63544 283.014919 
L 111.096747 283.014919 
L 111.16942 282.687123 
L 111.421378 282.687123 
L 111.421378 282.523225 
L 111.897097 282.523225 
L 111.897097 282.195428 
L 112.172908 282.195428 
L 112.224133 281.703734 
L 112.528313 281.703734 
L 112.56178 280.884242 
L 112.827198 280.884242 
L 112.860088 280.556446 
L 113.771923 280.556446 
L 113.803054 280.228649 
L 113.91157 280.228649 
L 113.91157 280.064751 
L 114.1113 280.064751 
L 114.1113 279.736955 
L 114.308732 279.736955 
L 114.308732 279.573056 
L 114.488984 279.573056 
L 114.518843 279.24526 
L 115.26321 279.24526 
L 115.277488 278.753565 
L 115.433763 278.753565 
L 115.433763 278.589667 
L 115.797583 278.589667 
L 115.797583 278.425769 
L 116.07229 278.425769 
L 116.153852 277.606277 
L 116.687918 277.606277 
L 116.687918 277.442379 
L 117.954631 277.442379 
L 118.003407 277.114583 
L 118.57815 277.114583 
L 118.57815 276.622888 
L 119.157059 276.622888 
L 119.259221 276.295092 
L 119.326993 276.295092 
L 119.349525 275.639499 
L 119.56211 275.639499 
L 119.573226 275.311702 
L 120.566296 275.311702 
L 120.566296 275.147804 
L 121.305296 275.147804 
L 121.335408 274.656109 
L 121.6238 274.656109 
L 121.6238 274.492211 
L 123.605408 274.492211 
L 123.605408 274.328313 
L 124.801647 274.328313 
L 124.801647 274.164414 
L 126.722473 274.164414 
L 126.722473 273.836618 
L 127.341367 273.836618 
L 127.341367 273.344923 
L 127.684265 273.344923 
L 127.684265 273.181025 
L 127.815405 273.181025 
L 127.815405 272.853228 
L 131.418108 272.853228 
L 131.418108 272.361534 
L 132.597432 272.361534 
L 132.597432 271.869839 
L 133.286012 271.869839 
L 133.286012 271.705941 
L 135.909729 271.705941 
L 135.909729 271.378144 
L 136.105996 271.378144 
L 136.105996 271.214246 
L 136.942252 271.214246 
L 136.942252 270.886449 
L 137.123127 270.886449 
L 137.123127 270.558653 
L 137.341638 270.558653 
L 137.341638 270.066958 
L 140.396716 270.066958 
L 140.396716 269.90306 
L 142.560777 269.90306 
L 142.560777 269.739162 
L 143.220813 269.739162 
L 143.220813 269.411365 
L 148.645686 269.411365 
L 148.645686 269.247467 
L 151.398508 269.247467 
L 151.398508 268.919671 
L 151.614754 268.919671 
L 151.614754 268.755772 
L 151.848673 268.755772 
L 151.848673 268.591874 
L 153.933316 268.591874 
L 153.933316 268.427976 
L 154.9084 268.427976 
L 154.914075 267.444586 
L 155.194073 267.444586 
L 155.194073 267.11679 
L 155.861971 267.11679 
L 155.861971 266.952892 
L 156.453058 266.952892 
L 156.453058 266.461197 
L 157.505657 266.461197 
L 157.505657 266.1334 
L 157.903549 266.1334 
L 157.903549 265.969502 
L 158.12617 265.969502 
L 158.12617 265.641706 
L 160.865118 265.641706 
L 160.865118 265.477807 
L 161.560005 265.477807 
L 161.560005 265.150011 
L 161.681903 265.150011 
L 161.681903 264.822215 
L 162.742606 264.822215 
L 162.742606 264.166622 
L 162.876056 264.166622 
L 162.965929 263.183232 
L 164.416123 263.183232 
L 164.416123 263.019334 
L 164.800034 263.019334 
L 164.800034 262.527639 
L 165.353321 262.527639 
L 165.353321 262.199843 
L 165.699653 262.199843 
L 165.699653 261.380351 
L 166.508322 261.380351 
L 166.508322 261.216453 
L 168.127743 261.216453 
L 168.127743 261.052555 
L 168.424776 261.052555 
L 168.424776 260.724758 
L 169.238875 260.724758 
L 169.238875 260.56086 
L 169.653848 260.56086 
L 169.653848 260.233064 
L 169.860009 260.233064 
L 169.860009 260.069165 
L 170.306192 260.069165 
L 170.306192 259.905267 
L 170.551559 259.905267 
L 170.551559 259.413572 
L 171.826149 259.413572 
L 171.826149 259.249674 
L 172.127028 259.249674 
L 172.127028 258.921878 
L 172.613017 258.921878 
L 172.613017 258.75798 
L 173.176453 258.75798 
L 173.176453 258.430183 
L 173.535988 258.430183 
L 173.535988 258.266285 
L 174.04434 258.266285 
L 174.04434 258.102387 
L 174.183431 258.102387 
L 174.183431 257.938488 
L 174.522685 257.938488 
L 174.522685 257.446794 
L 174.994672 257.446794 
L 174.994672 257.118997 
L 175.473317 257.118997 
L 175.580921 256.791201 
L 178.527582 256.791201 
L 178.527582 256.627302 
L 186.891462 256.627302 
L 186.969702 255.971709 
L 188.855041 255.971709 
L 188.855041 255.807811 
L 190.484136 255.807811 
L 190.484136 255.643913 
L 192.779306 255.643913 
L 192.779306 255.480015 
L 193.687342 255.480015 
L 193.687342 255.152218 
L 194.661213 255.152218 
L 194.661213 254.98832 
L 195.395227 254.98832 
L 195.395227 254.660523 
L 195.991742 254.660523 
L 195.991742 254.496625 
L 196.831474 254.496625 
L 196.831474 254.332727 
L 197.752168 254.332727 
L 197.752168 254.00493 
L 199.171274 254.00493 
L 199.171274 253.841032 
L 199.681898 253.841032 
L 199.681898 253.513236 
L 201.215483 253.513236 
L 201.215483 253.185439 
L 202.146628 253.185439 
L 202.161569 252.365948 
L 203.66114 252.365948 
L 203.66114 252.038152 
L 206.330723 252.038152 
L 206.330723 251.874253 
L 210.561797 251.874253 
L 210.561797 251.21866 
L 211.572128 251.21866 
L 211.572128 250.563067 
L 213.087493 250.563067 
L 213.087493 250.235271 
L 213.313895 250.235271 
L 213.313895 250.071373 
L 213.445512 250.071373 
L 213.445512 249.907474 
L 216.542933 249.907474 
L 216.542933 249.743576 
L 217.105296 249.743576 
L 217.105296 249.579678 
L 218.337917 249.579678 
L 218.337917 249.41578 
L 218.578412 249.41578 
L 218.578412 248.924085 
L 219.541076 248.924085 
L 219.541076 248.760187 
L 220.057288 248.760187 
L 220.057288 248.43239 
L 221.934588 248.43239 
L 222.02052 247.612899 
L 222.371031 247.612899 
L 222.371031 247.285102 
L 224.014895 247.285102 
L 224.014895 246.62951 
L 227.888049 246.62951 
L 227.888049 246.465611 
L 228.777402 246.465611 
L 228.777402 245.64612 
L 229.579707 245.64612 
L 229.579707 245.482222 
L 232.130292 245.482222 
L 232.130292 245.318324 
L 232.571276 245.318324 
L 232.571276 245.154425 
L 233.29073 245.154425 
L 233.29073 244.990527 
L 233.720497 244.990527 
L 233.720497 244.662731 
L 236.009849 244.662731 
L 236.009849 244.498832 
L 238.117826 244.498832 
L 238.143312 243.843239 
L 238.8942 243.843239 
L 238.928303 243.023748 
L 240.945446 243.023748 
L 240.945446 242.85985 
L 242.314365 242.85985 
L 242.314365 242.532053 
L 245.220439 242.532053 
L 245.220439 242.204257 
L 245.832552 242.204257 
L 245.832552 242.040359 
L 246.308509 242.040359 
L 246.308509 241.712562 
L 246.506538 241.712562 
L 246.506538 241.548664 
L 246.645069 241.548664 
L 246.645069 241.384766 
L 247.251396 241.384766 
L 247.251396 241.056969 
L 247.555797 241.056969 
L 247.555797 240.729173 
L 250.565641 240.729173 
L 250.565641 240.565275 
L 250.942016 240.565275 
L 250.942016 240.07358 
L 251.974415 240.07358 
L 251.974415 239.909682 
L 252.207767 239.909682 
L 252.207767 239.581885 
L 254.836895 239.581885 
L 254.837034 239.254089 
L 255.194669 239.254089 
L 255.194669 239.09019 
L 255.51185 239.09019 
L 255.51185 238.926292 
L 255.977538 238.926292 
L 256.007193 238.270699 
L 256.345546 238.270699 
L 256.345546 238.106801 
L 256.475399 238.106801 
L 256.475399 237.942903 
L 258.982719 237.942903 
L 258.982719 237.779004 
L 260.325672 237.779004 
L 260.325684 237.451208 
L 261.369587 237.451208 
L 261.369587 237.28731 
L 262.86743 237.28731 
L 262.920891 236.959513 
L 264.548077 236.959513 
L 264.548077 236.795615 
L 264.715862 236.795615 
L 264.715862 236.631717 
L 265.186364 236.631717 
L 265.294832 236.30392 
L 266.614386 236.30392 
L 266.614386 236.140022 
L 267.166878 236.140022 
L 267.166878 235.976124 
L 267.350054 235.976124 
L 267.350054 235.812225 
L 267.646501 235.812225 
L 267.646501 235.648327 
L 269.555287 235.648327 
L 269.555287 235.484429 
L 271.271443 235.484429 
L 271.347152 235.156633 
L 272.150848 235.156633 
L 272.150848 234.992734 
L 274.002056 234.992734 
L 274.002165 234.664938 
L 274.118836 234.664938 
L 274.118836 234.50104 
L 276.305728 234.50104 
L 276.305728 234.337141 
L 276.651545 234.337141 
L 276.758696 234.009345 
L 277.401953 234.009345 
L 277.401953 233.845447 
L 279.707971 233.845447 
L 279.707971 233.681548 
L 280.717621 233.681548 
L 280.717621 233.51765 
L 281.417573 233.51765 
L 281.48062 233.025955 
L 281.659331 233.025955 
L 281.659331 232.862057 
L 284.669695 232.862057 
L 284.669695 232.698159 
L 287.402824 232.698159 
L 287.402837 232.206464 
L 288.873811 232.206464 
L 288.873811 232.042566 
L 293.681193 232.042566 
L 293.681201 231.714769 
L 295.350201 231.714769 
L 295.350207 231.386973 
L 299.560399 231.386973 
L 299.560399 231.223075 
L 301.884847 231.223075 
L 301.884847 231.059176 
L 302.93878 231.059176 
L 302.938807 230.73138 
L 307.412978 230.73138 
L 307.412978 230.567482 
L 312.194864 230.567482 
L 312.194864 230.403583 
L 315.930913 230.403583 
L 315.930913 230.239685 
L 333.569032 230.239685 
L 333.569032 230.239685 
" style="fill:none;stroke:#000080;stroke-linecap:square;stroke-width:1.5;"/>
   </g>
   <g id="line2d_48">
    <defs>
     <path d="M 0 6 
C 1.591219 6 3.117479 5.367802 4.242641 4.242641 
C 5.367802 3.117479 6 1.591219 6 0 
C 6 -1.591219 5.367802 -3.117479 4.242641 -4.242641 
C 3.117479 -5.367802 1.591219 -6 0 -6 
C -1.591219 -6 -3.117479 -5.367802 -4.242641 -4.242641 
C -5.367802 -3.117479 -6 -1.591219 -6 0 
C -6 1.591219 -5.367802 3.117479 -4.242641 4.242641 
C -3.117479 5.367802 -1.591219 6 0 6 
z
" id="m5f8ae87e09" style="stroke:#000080;stroke-width:1.5;"/>
    </defs>
    <g>
     <use style="fill:none;stroke:#000080;stroke-width:1.5;" x="158.12617" xlink:href="#m5f8ae87e09" y="265.641706"/>
     <use style="fill:none;stroke:#000080;stroke-width:1.5;" x="252.207767" xlink:href="#m5f8ae87e09" y="239.909682"/>
     <use style="fill:none;stroke:#000080;stroke-width:1.5;" x="315.930913" xlink:href="#m5f8ae87e09" y="230.239685"/>
     <use style="fill:none;stroke:#000080;stroke-width:1.5;" x="315.930913" xlink:href="#m5f8ae87e09" y="230.239685"/>
     <use style="fill:none;stroke:#000080;stroke-width:1.5;" x="333.569032" xlink:href="#m5f8ae87e09" y="230.239685"/>
    </g>
   </g>
   <g id="line2d_49">
    <path style="fill:none;stroke:#000080;stroke-linecap:square;stroke-width:1.5;"/>
    <g/>
   </g>
   <g id="line2d_50">
    <path clip-path="url(#paff075194e)" d="M 254.504144 239.581885 
" style="fill:none;stroke:#000080;stroke-linecap:square;stroke-width:1.5;"/>
    <defs>
     <path d="M -12 12 
L 12 -12 
M -12 -12 
L 12 12 
" id="mee82250d1c" style="stroke:#000080;stroke-width:3;"/>
    </defs>
    <g clip-path="url(#paff075194e)">
     <use style="fill:#000080;stroke:#000080;stroke-width:3;" x="254.504144" xlink:href="#mee82250d1c" y="239.581885"/>
    </g>
   </g>
   <g id="line2d_51">
    <defs>
     <path d="M 0 1.5 
C 0.397805 1.5 0.77937 1.341951 1.06066 1.06066 
C 1.341951 0.77937 1.5 0.397805 1.5 0 
C 1.5 -0.397805 1.341951 -0.77937 1.06066 -1.06066 
C 0.77937 -1.341951 0.397805 -1.5 0 -1.5 
C -0.397805 -1.5 -0.77937 -1.341951 -1.06066 -1.06066 
C -1.341951 -0.77937 -1.5 -0.397805 -1.5 0 
C -1.5 0.397805 -1.341951 0.77937 -1.06066 1.06066 
C -0.77937 1.341951 -0.397805 1.5 0 1.5 
z
" id="m8ac5cb25ff" style="stroke:#ff00ff;"/>
    </defs>
    <g>
     <use style="fill:#ff00ff;stroke:#ff00ff;" x="342.917452" xlink:href="#m8ac5cb25ff" y="259.741369"/>
     <use style="fill:#ff00ff;stroke:#ff00ff;" x="342.917452" xlink:href="#m8ac5cb25ff" y="259.741369"/>
    </g>
   </g>
   <g id="line2d_52">
    <path d="M -1 292.848814 
L 5.406747 292.848814 
L 5.406747 292.357119 
L 12.368113 292.357119 
L 12.368113 291.865425 
L 21.138397 291.865425 
L 21.138397 291.209832 
L 24.268647 291.209832 
L 24.268647 291.045933 
L 31.230014 291.045933 
L 31.230014 290.882035 
L 36.169182 290.882035 
L 36.169182 290.718137 
L 40.000298 290.718137 
L 40.000298 289.898646 
L 42.149204 289.898646 
L 42.149204 288.915256 
L 43.130548 288.915256 
L 43.130548 288.095765 
L 48.069716 288.095765 
L 48.069716 287.276274 
L 49.443956 287.276274 
L 49.443956 287.112376 
L 56.84 287.112376 
L 56.84 286.948477 
L 58.081662 286.948477 
L 58.081662 286.784579 
L 59.608787 286.784579 
L 59.608787 286.456783 
L 59.97025 286.456783 
L 59.97025 286.292884 
L 63.219316 286.292884 
L 63.219316 285.965088 
L 66.691489 285.965088 
L 66.691489 285.80119 
L 68.740534 285.80119 
L 68.740534 285.637291 
L 69.578205 285.637291 
L 69.578205 285.309495 
L 69.781389 285.309495 
L 69.781389 285.145597 
L 72.57165 285.145597 
L 72.57165 284.8178 
L 76.675294 284.8178 
L 76.675294 284.653902 
L 77.724099 284.653902 
L 77.724099 284.490004 
L 86.341089 284.490004 
L 86.341089 284.326105 
L 86.721788 284.326105 
L 86.721788 283.998309 
L 92.541603 283.998309 
L 92.541603 283.670512 
L 93.783265 283.670512 
L 93.783265 283.506614 
L 97.614381 283.506614 
L 97.614381 283.342716 
L 98.508996 283.342716 
L 98.508996 283.178818 
L 106.440473 283.178818 
L 106.440473 282.851021 
L 108.444089 282.851021 
L 108.444089 282.359327 
L 109.090472 282.359327 
L 109.090472 282.195428 
L 109.554796 282.195428 
L 109.554796 282.03153 
L 113.771923 282.03153 
L 113.771923 281.703734 
L 125.206592 281.703734 
L 125.206592 281.539835 
L 142.219507 281.539835 
L 142.219507 281.375937 
L 143.240424 281.375937 
L 143.240424 280.720344 
L 149.605445 280.720344 
L 149.605445 280.392548 
L 153.298408 280.392548 
L 153.298408 280.228649 
L 155.077845 280.228649 
L 155.077845 280.064751 
L 155.342758 280.064751 
L 155.342758 279.900853 
L 158.393499 279.900853 
L 158.393499 279.573056 
L 159.6075 279.573056 
L 159.6075 279.24526 
L 161.442086 279.24526 
L 161.442086 278.917463 
L 162.825127 278.917463 
L 162.825127 278.753565 
L 163.358132 278.753565 
L 163.358132 278.097972 
L 166.493875 278.097972 
L 166.493875 277.934074 
L 167.180918 277.934074 
L 167.180918 277.442379 
L 172.788206 277.442379 
L 172.788206 276.950684 
L 172.999761 276.950684 
L 172.999761 276.622888 
L 174.346579 276.622888 
L 174.346579 276.45899 
L 174.838929 276.45899 
L 174.838929 275.967295 
L 175.066755 275.967295 
L 175.066755 275.803397 
L 175.238702 275.803397 
L 175.238702 275.311702 
L 188.412438 275.311702 
L 188.412438 275.147804 
L 191.889837 275.147804 
L 191.889837 274.983906 
L 192.658827 274.983906 
L 192.658827 274.820007 
L 193.966918 274.820007 
L 193.966918 274.656109 
L 195.076027 274.656109 
L 195.076027 274.492211 
L 199.208293 274.492211 
L 199.208293 274.328313 
L 203.127076 274.328313 
L 203.127076 274.164414 
L 205.601586 274.164414 
L 205.601586 273.836618 
L 206.673737 273.836618 
L 206.673737 273.017127 
L 208.07995 273.017127 
L 208.07995 272.853228 
L 210.721857 272.853228 
L 210.721857 272.68933 
L 217.075933 272.68933 
L 217.075933 272.525432 
L 223.355937 272.525432 
L 223.355937 272.361534 
L 227.236123 272.361534 
L 227.236123 272.033737 
L 233.085049 272.033737 
L 233.085049 271.869839 
L 240.772085 271.869839 
L 240.772085 271.378144 
L 242.397595 271.378144 
L 242.397595 270.886449 
L 243.160227 270.886449 
L 243.160227 270.558653 
L 245.301993 270.558653 
L 245.301993 270.230857 
L 246.596524 270.230857 
L 246.596524 269.90306 
L 249.174207 269.90306 
L 249.174207 269.739162 
L 249.572694 269.739162 
L 249.572694 269.575264 
L 253.182537 269.575264 
L 253.182537 269.247467 
L 257.293144 269.247467 
L 257.293144 269.083569 
L 265.339861 269.083569 
L 265.339861 268.919671 
L 266.384326 268.919671 
L 266.384326 268.427976 
L 267.006334 268.427976 
L 267.111961 268.100179 
L 269.350888 268.100179 
L 269.350888 267.936281 
L 277.6665 267.936281 
L 277.6665 267.608485 
L 279.244364 267.608485 
L 279.244364 267.444586 
L 284.006938 267.444586 
L 284.006938 267.280688 
L 285.971346 267.280688 
L 285.971346 266.952892 
L 287.833487 266.952892 
L 287.833487 266.788993 
L 291.538113 266.788993 
L 291.538113 266.297299 
L 292.802752 266.297299 
L 292.802752 265.969502 
L 293.085898 265.969502 
L 293.085898 265.641706 
L 294.05102 265.641706 
L 294.162114 264.986113 
L 294.436735 264.986113 
L 294.436735 264.822215 
L 294.90093 264.822215 
L 294.90093 264.658316 
L 295.251037 264.658316 
L 295.251037 264.33052 
L 296.164164 264.33052 
L 296.164164 264.166622 
L 296.993704 264.166622 
L 296.993704 264.002723 
L 297.694165 264.002723 
L 297.694165 263.674927 
L 298.26203 263.674927 
L 298.26203 263.511029 
L 299.633227 263.511029 
L 299.633227 263.34713 
L 302.373632 263.34713 
L 302.373632 263.183232 
L 303.114047 263.183232 
L 303.114047 263.019334 
L 304.733146 263.019334 
L 304.733146 262.855436 
L 305.468216 262.855436 
L 305.468216 262.691537 
L 306.026645 262.691537 
L 306.026645 262.527639 
L 306.181651 262.527639 
L 306.181651 262.363741 
L 306.713863 262.363741 
L 306.713863 262.199843 
L 307.479142 262.199843 
L 307.571414 261.872046 
L 307.62884 261.872046 
L 307.62884 261.708148 
L 312.916167 261.708148 
L 312.916167 261.54425 
L 313.153508 261.54425 
L 313.153508 261.380351 
L 314.206021 261.380351 
L 314.206021 261.216453 
L 314.973262 261.216453 
L 314.973262 261.052555 
L 316.48393 261.052555 
L 316.48393 260.888657 
L 318.230285 260.888657 
L 318.230285 260.724758 
L 320.594407 260.724758 
L 320.594407 260.56086 
L 322.465073 260.56086 
L 322.465073 260.396962 
L 324.599211 260.396962 
L 324.599211 260.233064 
L 325.361073 260.233064 
L 325.361073 260.069165 
L 327.471041 260.069165 
L 327.471041 259.905267 
L 333.569032 259.905267 
L 333.569032 259.905267 
" style="fill:none;stroke:#ff00ff;stroke-linecap:square;stroke-width:1.5;"/>
   </g>
   <g id="line2d_53">
    <defs>
     <path d="M -0 8.485281 
L 5.091169 0 
L 0 -8.485281 
L -5.091169 -0 
z
" id="md1e93e947f" style="stroke:#ff00ff;stroke-linejoin:miter;stroke-width:1.5;"/>
    </defs>
    <g>
     <use style="fill:none;stroke:#ff00ff;stroke-linejoin:miter;stroke-width:1.5;" x="68.740534" xlink:href="#md1e93e947f" y="285.80119"/>
     <use style="fill:none;stroke:#ff00ff;stroke-linejoin:miter;stroke-width:1.5;" x="113.771923" xlink:href="#md1e93e947f" y="281.703734"/>
     <use style="fill:none;stroke:#ff00ff;stroke-linejoin:miter;stroke-width:1.5;" x="210.721857" xlink:href="#md1e93e947f" y="272.853228"/>
     <use style="fill:none;stroke:#ff00ff;stroke-linejoin:miter;stroke-width:1.5;" x="269.350888" xlink:href="#md1e93e947f" y="267.936281"/>
     <use style="fill:none;stroke:#ff00ff;stroke-linejoin:miter;stroke-width:1.5;" x="327.471041" xlink:href="#md1e93e947f" y="259.905267"/>
     <use style="fill:none;stroke:#ff00ff;stroke-linejoin:miter;stroke-width:1.5;" x="333.569032" xlink:href="#md1e93e947f" y="259.905267"/>
    </g>
   </g>
   <g id="line2d_54">
    <path style="fill:none;stroke:#ff00ff;stroke-linecap:square;stroke-width:1.5;"/>
    <g/>
   </g>
   <g id="line2d_55">
    <path clip-path="url(#paff075194e)" d="M 294.036313 265.641706 
" style="fill:none;stroke:#ff00ff;stroke-linecap:square;stroke-width:1.5;"/>
    <defs>
     <path d="M -12 12 
L 12 -12 
M -12 -12 
L 12 12 
" id="m20adb432f6" style="stroke:#ff00ff;stroke-width:3;"/>
    </defs>
    <g clip-path="url(#paff075194e)">
     <use style="fill:#ff00ff;stroke:#ff00ff;stroke-width:3;" x="294.036313" xlink:href="#m20adb432f6" y="265.641706"/>
    </g>
   </g>
   <g id="line2d_56">
    <defs>
     <path d="M 0 1.5 
C 0.397805 1.5 0.77937 1.341951 1.06066 1.06066 
C 1.341951 0.77937 1.5 0.397805 1.5 0 
C 1.5 -0.397805 1.341951 -0.77937 1.06066 -1.06066 
C 0.77937 -1.341951 0.397805 -1.5 0 -1.5 
C -0.397805 -1.5 -0.77937 -1.341951 -1.06066 -1.06066 
C -1.341951 -0.77937 -1.5 -0.397805 -1.5 0 
C -1.5 0.397805 -1.341951 0.77937 -1.06066 1.06066 
C -0.77937 1.341951 -0.397805 1.5 0 1.5 
z
" id="m33d52532ab" style="stroke:#6495ed;"/>
    </defs>
    <g>
     <use style="fill:#6495ed;stroke:#6495ed;" x="207.685543" xlink:href="#m33d52532ab" y="235.156633"/>
     <use style="fill:#6495ed;stroke:#6495ed;" x="207.685543" xlink:href="#m33d52532ab" y="235.156633"/>
    </g>
   </g>
   <g id="line2d_57">
    <path d="M -1 283.014919 
L 5.406747 283.014919 
L 5.406747 282.851021 
L 12.368113 282.851021 
L 12.368113 282.687123 
L 38.81577 282.687123 
L 38.81577 282.359327 
L 52.463795 282.359327 
L 52.463795 282.03153 
L 62.92072 282.03153 
L 62.92072 281.867632 
L 75.267223 281.867632 
L 75.267223 281.539835 
L 82.567618 281.539835 
L 82.567618 281.212039 
L 86.030332 281.212039 
L 86.10855 280.720344 
L 88.096029 280.720344 
L 88.096029 280.556446 
L 88.371839 280.556446 
L 88.371839 280.392548 
L 90.064079 280.392548 
L 90.064079 279.736955 
L 90.851501 279.736955 
L 90.851501 279.573056 
L 91.829555 279.573056 
L 91.829555 279.409158 
L 92.541603 279.409158 
L 92.541603 279.24526 
L 92.754883 279.24526 
L 92.860538 278.589667 
L 93.430295 278.589667 
L 93.481166 278.097972 
L 94.800616 278.097972 
L 94.800616 277.770176 
L 97.453923 277.770176 
L 97.453923 277.606277 
L 97.574407 277.606277 
L 97.574407 277.442379 
L 98.546855 277.442379 
L 98.58463 276.950684 
L 99.323189 276.950684 
L 99.323189 276.45899 
L 99.75154 276.45899 
L 99.75154 276.295092 
L 100.510126 276.295092 
L 100.510126 275.803397 
L 101.777655 275.803397 
L 101.777655 275.639499 
L 102.026483 275.639499 
L 102.026483 275.4756 
L 102.423291 275.4756 
L 102.423291 275.147804 
L 102.752035 275.147804 
L 102.752035 274.983906 
L 103.617874 274.983906 
L 103.617874 274.328313 
L 103.730089 274.328313 
L 103.730089 274.000516 
L 103.924718 274.000516 
L 103.952343 273.67272 
L 105.07419 273.67272 
L 105.07419 273.508821 
L 105.254239 273.508821 
L 105.254239 273.344923 
L 105.583689 273.344923 
L 105.608771 272.853228 
L 106.005183 272.853228 
L 106.005183 272.525432 
L 106.864999 272.525432 
L 106.864999 272.197635 
L 107.050359 272.197635 
L 107.050359 272.033737 
L 107.392607 272.033737 
L 107.392607 271.869839 
L 108.465324 271.869839 
L 108.465324 271.542042 
L 108.905306 271.542042 
L 108.905306 271.378144 
L 109.733124 271.378144 
L 109.772502 271.050348 
L 109.890097 271.050348 
L 109.890097 270.722551 
L 110.122899 270.722551 
L 110.122899 270.558653 
L 110.672804 270.558653 
L 110.672804 270.066958 
L 111.669692 270.066958 
L 111.669692 269.739162 
L 111.80999 269.739162 
L 111.80999 269.411365 
L 112.138673 269.411365 
L 112.138673 269.083569 
L 112.275205 269.083569 
L 112.275205 268.919671 
L 113.217785 268.919671 
L 113.217785 268.591874 
L 113.615414 268.591874 
L 113.678189 267.608485 
L 113.865147 267.608485 
L 113.865147 267.444586 
L 115.935486 267.444586 
L 116.031363 266.952892 
L 116.275474 266.952892 
L 116.275474 266.788993 
L 116.409606 266.788993 
L 116.409606 266.297299 
L 116.922933 266.297299 
L 116.922933 266.1334 
L 117.54686 266.1334 
L 117.54686 265.969502 
L 117.966838 265.969502 
L 117.966838 265.805604 
L 118.221196 265.805604 
L 118.221196 265.150011 
L 119.349525 265.150011 
L 119.349525 264.986113 
L 119.595437 264.986113 
L 119.706061 264.494418 
L 119.881591 264.494418 
L 119.881591 264.166622 
L 120.098509 264.166622 
L 120.098509 263.838825 
L 120.418832 263.838825 
L 120.418832 263.511029 
L 120.836841 263.511029 
L 120.836841 262.855436 
L 121.001235 262.855436 
L 121.001235 262.691537 
L 122.11951 262.691537 
L 122.11951 262.527639 
L 122.740478 262.527639 
L 122.795831 261.54425 
L 123.84102 261.54425 
L 123.90158 261.216453 
L 123.996317 261.216453 
L 123.996317 261.052555 
L 124.661761 261.052555 
L 124.661761 260.888657 
L 125.142439 260.888657 
L 125.142439 260.724758 
L 126.523476 260.724758 
L 126.523476 260.396962 
L 126.678451 260.396962 
L 126.678451 260.069165 
L 127.127998 260.069165 
L 127.127998 259.741369 
L 127.249233 259.741369 
L 127.249233 259.413572 
L 127.691192 259.413572 
L 127.691192 258.921878 
L 127.897717 258.921878 
L 127.897717 258.75798 
L 129.340775 258.75798 
L 129.340775 258.430183 
L 129.60919 258.430183 
L 129.60919 258.266285 
L 130.396056 258.266285 
L 130.396056 258.102387 
L 130.700975 258.102387 
L 130.700975 257.938488 
L 131.896349 257.938488 
L 131.896349 257.77459 
L 132.036724 257.77459 
L 132.036724 257.610692 
L 132.430083 257.610692 
L 132.430083 257.282895 
L 132.794063 257.282895 
L 132.794063 257.118997 
L 134.039195 257.118997 
L 134.039195 256.791201 
L 134.361535 256.791201 
L 134.361535 256.627302 
L 134.97502 256.627302 
L 135.03834 256.135608 
L 135.284862 256.135608 
L 135.284862 255.971709 
L 135.527895 255.971709 
L 135.527895 255.807811 
L 136.122957 255.807811 
L 136.122957 255.643913 
L 136.628266 255.643913 
L 136.628266 255.480015 
L 137.611896 255.480015 
L 137.611896 255.316116 
L 139.480556 255.316116 
L 139.515374 254.824422 
L 140.059702 254.824422 
L 140.167196 254.496625 
L 141.30724 254.496625 
L 141.30724 254.332727 
L 141.438348 254.332727 
L 141.466313 253.841032 
L 143.043305 253.841032 
L 143.043305 253.677134 
L 144.346375 253.677134 
L 144.346375 253.349337 
L 145.491304 253.349337 
L 145.491304 253.021541 
L 146.848345 253.021541 
L 146.911766 252.038152 
L 147.033419 252.038152 
L 147.04464 251.546457 
L 147.287447 251.546457 
L 147.287447 251.054762 
L 147.48756 251.054762 
L 147.48756 250.726966 
L 147.848841 250.726966 
L 147.848841 250.399169 
L 148.543198 250.399169 
L 148.543198 250.235271 
L 148.731307 250.235271 
L 148.838745 249.251881 
L 148.967593 249.251881 
L 148.967593 248.924085 
L 149.7785 248.924085 
L 149.7785 248.596288 
L 150.216716 248.596288 
L 150.216716 247.940695 
L 150.335661 247.940695 
L 150.426174 247.612899 
L 152.407587 247.612899 
L 152.471488 246.793408 
L 152.598581 246.793408 
L 152.598581 246.62951 
L 153.032974 246.62951 
L 153.032974 246.301713 
L 156.597704 246.301713 
L 156.597704 246.137815 
L 156.783177 246.137815 
L 156.783177 245.973917 
L 157.617515 245.973917 
L 157.648995 245.318324 
L 158.285435 245.318324 
L 158.285435 245.154425 
L 159.520942 245.154425 
L 159.520942 244.990527 
L 159.70114 244.990527 
L 159.737597 244.662731 
L 160.178539 244.662731 
L 160.19732 244.334934 
L 161.199854 244.334934 
L 161.199854 244.171036 
L 161.640728 244.171036 
L 161.640728 244.007138 
L 162.197257 244.007138 
L 162.297205 243.351545 
L 162.362596 243.351545 
L 162.362596 243.187646 
L 162.718313 243.187646 
L 162.741707 242.695952 
L 162.98367 242.695952 
L 162.98367 242.532053 
L 163.455014 242.532053 
L 163.455014 242.368155 
L 163.642034 242.368155 
L 163.657386 242.040359 
L 164.684796 242.040359 
L 164.777687 241.548664 
L 164.98724 241.548664 
L 164.992762 241.220868 
L 166.948143 241.220868 
L 166.948143 241.056969 
L 167.823475 241.056969 
L 167.823475 240.893071 
L 169.245648 240.893071 
L 169.253649 240.565275 
L 170.156803 240.565275 
L 170.227881 240.07358 
L 170.672091 240.07358 
L 170.672091 239.909682 
L 170.955285 239.909682 
L 170.959743 239.581885 
L 171.765122 239.581885 
L 171.765122 239.417987 
L 171.974359 239.417987 
L 171.974359 239.254089 
L 175.578367 239.254089 
L 175.631077 238.926292 
L 178.163785 238.926292 
L 178.163785 238.762394 
L 179.689531 238.762394 
L 179.689531 238.598496 
L 180.15984 238.598496 
L 180.22622 238.270699 
L 180.665792 238.270699 
L 180.665792 238.106801 
L 183.040124 238.106801 
L 183.040124 237.942903 
L 183.451147 237.942903 
L 183.451147 237.779004 
L 185.91249 237.779004 
L 185.91249 237.615106 
L 188.284145 237.615106 
L 188.296734 237.123411 
L 188.780023 237.123411 
L 188.780023 236.959513 
L 190.522866 236.959513 
L 190.522866 236.795615 
L 190.819271 236.795615 
L 190.859002 236.467818 
L 192.226167 236.467818 
L 192.230687 236.140022 
L 193.958017 236.140022 
L 193.958017 235.976124 
L 194.271848 235.976124 
L 194.271848 235.812225 
L 200.465208 235.812225 
L 200.465208 235.648327 
L 206.954462 235.648327 
L 206.960143 235.320531 
L 207.685543 235.320531 
L 207.685543 235.156633 
L 333.569032 235.156633 
L 333.569032 235.156633 
" style="fill:none;stroke:#6495ed;stroke-linecap:square;stroke-width:1.5;"/>
   </g>
   <g id="line2d_58">
    <defs>
     <path d="M -0 6 
L 6 -6 
L -6 -6 
z
" id="md064bcd8db" style="stroke:#6495ed;stroke-linejoin:miter;stroke-width:1.5;"/>
    </defs>
    <g>
     <use style="fill:none;stroke:#6495ed;stroke-linejoin:miter;stroke-width:1.5;" x="107.392607" xlink:href="#md064bcd8db" y="272.033737"/>
     <use style="fill:none;stroke:#6495ed;stroke-linejoin:miter;stroke-width:1.5;" x="162.98367" xlink:href="#md064bcd8db" y="242.695952"/>
     <use style="fill:none;stroke:#6495ed;stroke-linejoin:miter;stroke-width:1.5;" x="207.685543" xlink:href="#md064bcd8db" y="235.320531"/>
     <use style="fill:none;stroke:#6495ed;stroke-linejoin:miter;stroke-width:1.5;" x="207.685543" xlink:href="#md064bcd8db" y="235.156633"/>
     <use style="fill:none;stroke:#6495ed;stroke-linejoin:miter;stroke-width:1.5;" x="333.569032" xlink:href="#md064bcd8db" y="235.156633"/>
    </g>
   </g>
   <g id="line2d_59">
    <path style="fill:none;stroke:#6495ed;stroke-linecap:square;stroke-width:1.5;"/>
    <g/>
   </g>
   <g id="line2d_60">
    <path clip-path="url(#paff075194e)" d="M 153.143416 246.301713 
" style="fill:none;stroke:#6495ed;stroke-linecap:square;stroke-width:1.5;"/>
    <defs>
     <path d="M -12 12 
L 12 -12 
M -12 -12 
L 12 12 
" id="m87de0b0e75" style="stroke:#6495ed;stroke-width:3;"/>
    </defs>
    <g clip-path="url(#paff075194e)">
     <use style="fill:#6495ed;stroke:#6495ed;stroke-width:3;" x="153.143416" xlink:href="#m87de0b0e75" y="246.301713"/>
    </g>
   </g>
   <g id="line2d_61">
    <path d="M 333.569032 259.905267 
L 364.009226 288.456341 
" style="fill:none;stroke:#ff00ff;stroke-linecap:square;stroke-width:1.5;"/>
    <g>
     <use style="fill:none;stroke:#ff00ff;stroke-linejoin:miter;stroke-width:1.5;" x="333.569032" xlink:href="#md1e93e947f" y="259.905267"/>
     <use style="fill:none;stroke:#ff00ff;stroke-linejoin:miter;stroke-width:1.5;" x="364.009226" xlink:href="#md1e93e947f" y="288.456341"/>
    </g>
   </g>
   <g id="line2d_62">
    <path d="M 333.569032 235.156633 
L 364.009226 197.197799 
" style="fill:none;stroke:#6495ed;stroke-linecap:square;stroke-width:1.5;"/>
    <g>
     <use style="fill:none;stroke:#6495ed;stroke-linejoin:miter;stroke-width:1.5;" x="333.569032" xlink:href="#md064bcd8db" y="235.156633"/>
     <use style="fill:none;stroke:#6495ed;stroke-linejoin:miter;stroke-width:1.5;" x="364.009226" xlink:href="#md064bcd8db" y="197.197799"/>
    </g>
   </g>
   <g id="line2d_63">
    <path d="M 333.569032 230.239685 
L 364.009226 105.939258 
" style="fill:none;stroke:#000080;stroke-linecap:square;stroke-width:1.5;"/>
    <g>
     <use style="fill:none;stroke:#000080;stroke-width:1.5;" x="333.569032" xlink:href="#m5f8ae87e09" y="230.239685"/>
     <use style="fill:none;stroke:#000080;stroke-width:1.5;" x="364.009226" xlink:href="#m5f8ae87e09" y="105.939258"/>
    </g>
   </g>
   <g id="line2d_64">
    <path d="M 333.569032 294.16 
L 333.569032 8.977057 
" style="fill:none;stroke:#000000;stroke-linecap:square;stroke-width:1.5;"/>
   </g>
   <g id="patch_3">
    <path d="M 56.84 294.16 
L 56.84 6.125228 
" style="fill:none;stroke:#000000;stroke-linecap:square;stroke-linejoin:miter;stroke-width:0.8;"/>
   </g>
   <g id="patch_4">
    <path d="M 399.984 294.16 
L 399.984 6.125228 
" style="fill:none;stroke:#000000;stroke-linecap:square;stroke-linejoin:miter;stroke-width:0.8;"/>
   </g>
   <g id="patch_5">
    <path d="M 56.84 294.16 
L 399.984 294.16 
" style="fill:none;stroke:#000000;stroke-linecap:square;stroke-linejoin:miter;stroke-width:0.8;"/>
   </g>
   <g id="patch_6">
    <path d="M 56.84 6.125228 
L 399.984 6.125228 
" style="fill:none;stroke:#000000;stroke-linecap:square;stroke-linejoin:miter;stroke-width:0.8;"/>
   </g>
   <g id="text_14">
    <!-- RANDOMSEA -->
    <defs>
     <path d="M 44.390625 34.1875 
Q 47.5625 33.109375 50.5625 29.59375 
Q 53.5625 26.078125 56.59375 19.921875 
L 66.609375 0 
L 56 0 
L 46.6875 18.703125 
Q 43.0625 26.03125 39.671875 28.421875 
Q 36.28125 30.8125 30.421875 30.8125 
L 19.671875 30.8125 
L 19.671875 0 
L 9.8125 0 
L 9.8125 72.90625 
L 32.078125 72.90625 
Q 44.578125 72.90625 50.734375 67.671875 
Q 56.890625 62.453125 56.890625 51.90625 
Q 56.890625 45.015625 53.6875 40.46875 
Q 50.484375 35.9375 44.390625 34.1875 
M 19.671875 64.796875 
L 19.671875 38.921875 
L 32.078125 38.921875 
Q 39.203125 38.921875 42.84375 42.21875 
Q 46.484375 45.515625 46.484375 51.90625 
Q 46.484375 58.296875 42.84375 61.546875 
Q 39.203125 64.796875 32.078125 64.796875 
z
" id="DejaVuSans-52"/>
     <path d="M 34.1875 63.1875 
L 20.796875 26.90625 
L 47.609375 26.90625 
z
M 28.609375 72.90625 
L 39.796875 72.90625 
L 67.578125 0 
L 57.328125 0 
L 50.6875 18.703125 
L 17.828125 18.703125 
L 11.1875 0 
L 0.78125 0 
z
" id="DejaVuSans-41"/>
     <path d="M 9.8125 72.90625 
L 23.09375 72.90625 
L 55.421875 11.921875 
L 55.421875 72.90625 
L 64.984375 72.90625 
L 64.984375 0 
L 51.703125 0 
L 19.390625 60.984375 
L 19.390625 0 
L 9.8125 0 
z
" id="DejaVuSans-4e"/>
     <path d="M 19.671875 64.796875 
L 19.671875 8.109375 
L 31.59375 8.109375 
Q 46.6875 8.109375 53.6875 14.9375 
Q 60.6875 21.78125 60.6875 36.53125 
Q 60.6875 51.171875 53.6875 57.984375 
Q 46.6875 64.796875 31.59375 64.796875 
z
M 9.8125 72.90625 
L 30.078125 72.90625 
Q 51.265625 72.90625 61.171875 64.09375 
Q 71.09375 55.28125 71.09375 36.53125 
Q 71.09375 17.671875 61.125 8.828125 
Q 51.171875 0 30.078125 0 
L 9.8125 0 
z
" id="DejaVuSans-44"/>
     <path d="M 39.40625 66.21875 
Q 28.65625 66.21875 22.328125 58.203125 
Q 16.015625 50.203125 16.015625 36.375 
Q 16.015625 22.609375 22.328125 14.59375 
Q 28.65625 6.59375 39.40625 6.59375 
Q 50.140625 6.59375 56.421875 14.59375 
Q 62.703125 22.609375 62.703125 36.375 
Q 62.703125 50.203125 56.421875 58.203125 
Q 50.140625 66.21875 39.40625 66.21875 
M 39.40625 74.21875 
Q 54.734375 74.21875 63.90625 63.9375 
Q 73.09375 53.65625 73.09375 36.375 
Q 73.09375 19.140625 63.90625 8.859375 
Q 54.734375 -1.421875 39.40625 -1.421875 
Q 24.03125 -1.421875 14.8125 8.828125 
Q 5.609375 19.09375 5.609375 36.375 
Q 5.609375 53.65625 14.8125 63.9375 
Q 24.03125 74.21875 39.40625 74.21875 
" id="DejaVuSans-4f"/>
     <path d="M 9.8125 72.90625 
L 24.515625 72.90625 
L 43.109375 23.296875 
L 61.8125 72.90625 
L 76.515625 72.90625 
L 76.515625 0 
L 66.890625 0 
L 66.890625 64.015625 
L 48.09375 14.015625 
L 38.1875 14.015625 
L 19.390625 64.015625 
L 19.390625 0 
L 9.8125 0 
z
" id="DejaVuSans-4d"/>
     <path d="M 53.515625 70.515625 
L 53.515625 60.890625 
Q 47.90625 63.578125 42.921875 64.890625 
Q 37.9375 66.21875 33.296875 66.21875 
Q 25.25 66.21875 20.875 63.09375 
Q 16.5 59.96875 16.5 54.203125 
Q 16.5 49.359375 19.40625 46.890625 
Q 22.3125 44.4375 30.421875 42.921875 
L 36.375 41.703125 
Q 47.40625 39.59375 52.65625 34.296875 
Q 57.90625 29 57.90625 20.125 
Q 57.90625 9.515625 50.796875 4.046875 
Q 43.703125 -1.421875 29.984375 -1.421875 
Q 24.8125 -1.421875 18.96875 -0.25 
Q 13.140625 0.921875 6.890625 3.21875 
L 6.890625 13.375 
Q 12.890625 10.015625 18.65625 8.296875 
Q 24.421875 6.59375 29.984375 6.59375 
Q 38.421875 6.59375 43.015625 9.90625 
Q 47.609375 13.234375 47.609375 19.390625 
Q 47.609375 24.75 44.3125 27.78125 
Q 41.015625 30.8125 33.5 32.328125 
L 27.484375 33.5 
Q 16.453125 35.6875 11.515625 40.375 
Q 6.59375 45.0625 6.59375 53.421875 
Q 6.59375 63.09375 13.40625 68.65625 
Q 20.21875 74.21875 32.171875 74.21875 
Q 37.3125 74.21875 42.625 73.28125 
Q 47.953125 72.359375 53.515625 70.515625 
" id="DejaVuSans-53"/>
     <path d="M 9.8125 72.90625 
L 55.90625 72.90625 
L 55.90625 64.59375 
L 19.671875 64.59375 
L 19.671875 43.015625 
L 54.390625 43.015625 
L 54.390625 34.71875 
L 19.671875 34.71875 
L 19.671875 8.296875 
L 56.78125 8.296875 
L 56.78125 0 
L 9.8125 0 
z
" id="DejaVuSans-45"/>
    </defs>
    <g transform="translate(369.543806 293.147279)scale(0.17 -0.17)">
     <use xlink:href="#DejaVuSans-52"/>
     <use x="69.419922" xlink:href="#DejaVuSans-41"/>
     <use x="137.828125" xlink:href="#DejaVuSans-4e"/>
     <use x="212.632812" xlink:href="#DejaVuSans-44"/>
     <use x="289.634766" xlink:href="#DejaVuSans-4f"/>
     <use x="368.345703" xlink:href="#DejaVuSans-4d"/>
     <use x="454.625" xlink:href="#DejaVuSans-53"/>
     <use x="518.101562" xlink:href="#DejaVuSans-45"/>
     <use x="581.285156" xlink:href="#DejaVuSans-41"/>
    </g>
   </g>
   <g id="text_15">
    <!-- final  bu -->
    <defs>
     <path d="M 48.6875 27.296875 
Q 48.6875 37.203125 44.609375 42.84375 
Q 40.53125 48.484375 33.40625 48.484375 
Q 26.265625 48.484375 22.1875 42.84375 
Q 18.109375 37.203125 18.109375 27.296875 
Q 18.109375 17.390625 22.1875 11.75 
Q 26.265625 6.109375 33.40625 6.109375 
Q 40.53125 6.109375 44.609375 11.75 
Q 48.6875 17.390625 48.6875 27.296875 
M 18.109375 46.390625 
Q 20.953125 51.265625 25.265625 53.625 
Q 29.59375 56 35.59375 56 
Q 45.5625 56 51.78125 48.09375 
Q 58.015625 40.1875 58.015625 27.296875 
Q 58.015625 14.40625 51.78125 6.484375 
Q 45.5625 -1.421875 35.59375 -1.421875 
Q 29.59375 -1.421875 25.265625 0.953125 
Q 20.953125 3.328125 18.109375 8.203125 
L 18.109375 0 
L 9.078125 0 
L 9.078125 75.984375 
L 18.109375 75.984375 
z
" id="DejaVuSans-62"/>
    </defs>
    <g transform="translate(369.543806 201.888737)scale(0.17 -0.17)">
     <use xlink:href="#DejaVuSans-66"/>
     <use x="35.205078" xlink:href="#DejaVuSans-69"/>
     <use x="62.988281" xlink:href="#DejaVuSans-6e"/>
     <use x="126.367188" xlink:href="#DejaVuSans-61"/>
     <use x="187.646484" xlink:href="#DejaVuSans-6c"/>
     <use x="215.429688" xlink:href="#DejaVuSans-20"/>
     <use x="247.216797" xlink:href="#DejaVuSans-20"/>
     <use x="279.003906" xlink:href="#DejaVuSans-62"/>
     <use x="342.480469" xlink:href="#DejaVuSans-75"/>
    </g>
   </g>
   <g id="text_16">
    <!-- NSGA-II-M -->
    <defs>
     <path d="M 59.515625 10.40625 
L 59.515625 29.984375 
L 43.40625 29.984375 
L 43.40625 38.09375 
L 69.28125 38.09375 
L 69.28125 6.78125 
Q 63.578125 2.734375 56.6875 0.65625 
Q 49.8125 -1.421875 42 -1.421875 
Q 24.90625 -1.421875 15.25 8.5625 
Q 5.609375 18.5625 5.609375 36.375 
Q 5.609375 54.25 15.25 64.234375 
Q 24.90625 74.21875 42 74.21875 
Q 49.125 74.21875 55.546875 72.453125 
Q 61.96875 70.703125 67.390625 67.28125 
L 67.390625 56.78125 
Q 61.921875 61.421875 55.765625 63.765625 
Q 49.609375 66.109375 42.828125 66.109375 
Q 29.4375 66.109375 22.71875 58.640625 
Q 16.015625 51.171875 16.015625 36.375 
Q 16.015625 21.625 22.71875 14.15625 
Q 29.4375 6.6875 42.828125 6.6875 
Q 48.046875 6.6875 52.140625 7.59375 
Q 56.25 8.5 59.515625 10.40625 
" id="DejaVuSans-47"/>
     <path d="M 9.8125 72.90625 
L 19.671875 72.90625 
L 19.671875 0 
L 9.8125 0 
z
" id="DejaVuSans-49"/>
    </defs>
    <g transform="translate(369.543806 110.630195)scale(0.17 -0.17)">
     <use xlink:href="#DejaVuSans-4e"/>
     <use x="74.804688" xlink:href="#DejaVuSans-53"/>
     <use x="138.28125" xlink:href="#DejaVuSans-47"/>
     <use x="215.771484" xlink:href="#DejaVuSans-41"/>
     <use x="284.148438" xlink:href="#DejaVuSans-2d"/>
     <use x="320.232422" xlink:href="#DejaVuSans-49"/>
     <use x="349.724609" xlink:href="#DejaVuSans-49"/>
     <use x="379.216797" xlink:href="#DejaVuSans-2d"/>
     <use x="415.300781" xlink:href="#DejaVuSans-4d"/>
    </g>
   </g>
   <g id="text_17">
    <!-- best 2016 -->
    <g transform="translate(369.543806 19.371654)scale(0.17 -0.17)">
     <use xlink:href="#DejaVuSans-62"/>
     <use x="63.476562" xlink:href="#DejaVuSans-65"/>
     <use x="125" xlink:href="#DejaVuSans-73"/>
     <use x="177.099609" xlink:href="#DejaVuSans-74"/>
     <use x="216.308594" xlink:href="#DejaVuSans-20"/>
     <use x="248.095703" xlink:href="#DejaVuSans-32"/>
     <use x="311.71875" xlink:href="#DejaVuSans-30"/>
     <use x="375.341797" xlink:href="#DejaVuSans-31"/>
     <use x="438.964844" xlink:href="#DejaVuSans-36"/>
    </g>
   </g>
   <g id="text_18">
    <!-- bbob-biobj f1, f2, f11, 40-D -->
    <defs>
     <path d="M 9.421875 54.6875 
L 18.40625 54.6875 
L 18.40625 -0.984375 
Q 18.40625 -11.421875 14.421875 -16.109375 
Q 10.453125 -20.796875 1.609375 -20.796875 
L -1.8125 -20.796875 
L -1.8125 -13.1875 
L 0.59375 -13.1875 
Q 5.71875 -13.1875 7.5625 -10.8125 
Q 9.421875 -8.453125 9.421875 -0.984375 
z
M 9.421875 75.984375 
L 18.40625 75.984375 
L 18.40625 64.59375 
L 9.421875 64.59375 
z
" id="DejaVuSans-6a"/>
    </defs>
    <g transform="translate(60.27144 16.755982)scale(0.102 -0.102)">
     <use xlink:href="#DejaVuSans-62"/>
     <use x="63.476562" xlink:href="#DejaVuSans-62"/>
     <use x="126.953125" xlink:href="#DejaVuSans-6f"/>
     <use x="188.134766" xlink:href="#DejaVuSans-62"/>
     <use x="251.611328" xlink:href="#DejaVuSans-2d"/>
     <use x="287.695312" xlink:href="#DejaVuSans-62"/>
     <use x="351.171875" xlink:href="#DejaVuSans-69"/>
     <use x="378.955078" xlink:href="#DejaVuSans-6f"/>
     <use x="440.136719" xlink:href="#DejaVuSans-62"/>
     <use x="503.613281" xlink:href="#DejaVuSans-6a"/>
     <use x="531.396484" xlink:href="#DejaVuSans-20"/>
     <use x="563.183594" xlink:href="#DejaVuSans-66"/>
     <use x="598.388672" xlink:href="#DejaVuSans-31"/>
     <use x="662.011719" xlink:href="#DejaVuSans-2c"/>
     <use x="693.798828" xlink:href="#DejaVuSans-20"/>
     <use x="725.585938" xlink:href="#DejaVuSans-66"/>
     <use x="760.791016" xlink:href="#DejaVuSans-32"/>
     <use x="824.414062" xlink:href="#DejaVuSans-2c"/>
     <use x="856.201172" xlink:href="#DejaVuSans-20"/>
     <use x="887.988281" xlink:href="#DejaVuSans-66"/>
     <use x="923.193359" xlink:href="#DejaVuSans-31"/>
     <use x="986.816406" xlink:href="#DejaVuSans-31"/>
     <use x="1050.439453" xlink:href="#DejaVuSans-2c"/>
     <use x="1082.226562" xlink:href="#DejaVuSans-20"/>
     <use x="1114.013672" xlink:href="#DejaVuSans-34"/>
     <use x="1177.636719" xlink:href="#DejaVuSans-30"/>
     <use x="1241.259766" xlink:href="#DejaVuSans-2d"/>
     <use x="1277.34375" xlink:href="#DejaVuSans-44"/>
    </g>
    <!-- 58 targets: 1..-1.0e-4 -->
    <defs>
     <path d="M 10.796875 72.90625 
L 49.515625 72.90625 
L 49.515625 64.59375 
L 19.828125 64.59375 
L 19.828125 46.734375 
Q 21.96875 47.46875 24.109375 47.828125 
Q 26.265625 48.1875 28.421875 48.1875 
Q 40.625 48.1875 47.75 41.5 
Q 54.890625 34.8125 54.890625 23.390625 
Q 54.890625 11.625 47.5625 5.09375 
Q 40.234375 -1.421875 26.90625 -1.421875 
Q 22.3125 -1.421875 17.546875 -0.640625 
Q 12.796875 0.140625 7.71875 1.703125 
L 7.71875 11.625 
Q 12.109375 9.234375 16.796875 8.0625 
Q 21.484375 6.890625 26.703125 6.890625 
Q 35.15625 6.890625 40.078125 11.328125 
Q 45.015625 15.765625 45.015625 23.390625 
Q 45.015625 31 40.078125 35.4375 
Q 35.15625 39.890625 26.703125 39.890625 
Q 22.75 39.890625 18.8125 39.015625 
Q 14.890625 38.140625 10.796875 36.28125 
z
" id="DejaVuSans-35"/>
     <path d="M 11.71875 12.40625 
L 22.015625 12.40625 
L 22.015625 0 
L 11.71875 0 
z
M 11.71875 51.703125 
L 22.015625 51.703125 
L 22.015625 39.3125 
L 11.71875 39.3125 
z
" id="DejaVuSans-3a"/>
    </defs>
    <g transform="translate(60.27144 28.17775)scale(0.102 -0.102)">
     <use xlink:href="#DejaVuSans-35"/>
     <use x="63.623047" xlink:href="#DejaVuSans-38"/>
     <use x="127.246094" xlink:href="#DejaVuSans-20"/>
     <use x="159.033203" xlink:href="#DejaVuSans-74"/>
     <use x="198.242188" xlink:href="#DejaVuSans-61"/>
     <use x="259.521484" xlink:href="#DejaVuSans-72"/>
     <use x="300.619141" xlink:href="#DejaVuSans-67"/>
     <use x="364.095703" xlink:href="#DejaVuSans-65"/>
     <use x="425.619141" xlink:href="#DejaVuSans-74"/>
     <use x="464.828125" xlink:href="#DejaVuSans-73"/>
     <use x="516.927734" xlink:href="#DejaVuSans-3a"/>
     <use x="550.619141" xlink:href="#DejaVuSans-20"/>
     <use x="582.40625" xlink:href="#DejaVuSans-31"/>
     <use x="646.029297" xlink:href="#DejaVuSans-2e"/>
     <use x="677.816406" xlink:href="#DejaVuSans-2e"/>
     <use x="709.603516" xlink:href="#DejaVuSans-2d"/>
     <use x="745.6875" xlink:href="#DejaVuSans-31"/>
     <use x="809.310547" xlink:href="#DejaVuSans-2e"/>
     <use x="841.097656" xlink:href="#DejaVuSans-30"/>
     <use x="904.720703" xlink:href="#DejaVuSans-65"/>
     <use x="966.244141" xlink:href="#DejaVuSans-2d"/>
     <use x="1002.328125" xlink:href="#DejaVuSans-34"/>
    </g>
    <!-- 10 instances -->
    <g transform="translate(60.27144 39.599519)scale(0.102 -0.102)">
     <use xlink:href="#DejaVuSans-31"/>
     <use x="63.623047" xlink:href="#DejaVuSans-30"/>
     <use x="127.246094" xlink:href="#DejaVuSans-20"/>
     <use x="159.033203" xlink:href="#DejaVuSans-69"/>
     <use x="186.816406" xlink:href="#DejaVuSans-6e"/>
     <use x="250.195312" xlink:href="#DejaVuSans-73"/>
     <use x="302.294922" xlink:href="#DejaVuSans-74"/>
     <use x="341.503906" xlink:href="#DejaVuSans-61"/>
     <use x="402.783203" xlink:href="#DejaVuSans-6e"/>
     <use x="466.162109" xlink:href="#DejaVuSans-63"/>
     <use x="521.142578" xlink:href="#DejaVuSans-65"/>
     <use x="582.666016" xlink:href="#DejaVuSans-73"/>
    </g>
   </g>
   <g id="text_19">
    <!-- v2.2.1.10, hv-hash=ff0e71e8cd978373 -->
    <defs>
     <path d="M 54.890625 33.015625 
L 54.890625 0 
L 45.90625 0 
L 45.90625 32.71875 
Q 45.90625 40.484375 42.875 44.328125 
Q 39.84375 48.1875 33.796875 48.1875 
Q 26.515625 48.1875 22.3125 43.546875 
Q 18.109375 38.921875 18.109375 30.90625 
L 18.109375 0 
L 9.078125 0 
L 9.078125 75.984375 
L 18.109375 75.984375 
L 18.109375 46.1875 
Q 21.34375 51.125 25.703125 53.5625 
Q 30.078125 56 35.796875 56 
Q 45.21875 56 50.046875 50.171875 
Q 54.890625 44.34375 54.890625 33.015625 
" id="DejaVuSans-68"/>
     <path d="M 10.59375 45.40625 
L 73.1875 45.40625 
L 73.1875 37.203125 
L 10.59375 37.203125 
z
M 10.59375 25.484375 
L 73.1875 25.484375 
L 73.1875 17.1875 
L 10.59375 17.1875 
z
" id="DejaVuSans-3d"/>
     <path d="M 8.203125 72.90625 
L 55.078125 72.90625 
L 55.078125 68.703125 
L 28.609375 0 
L 18.3125 0 
L 43.21875 64.59375 
L 8.203125 64.59375 
z
" id="DejaVuSans-37"/>
     <path d="M 10.984375 1.515625 
L 10.984375 10.5 
Q 14.703125 8.734375 18.5 7.8125 
Q 22.3125 6.890625 25.984375 6.890625 
Q 35.75 6.890625 40.890625 13.453125 
Q 46.046875 20.015625 46.78125 33.40625 
Q 43.953125 29.203125 39.59375 26.953125 
Q 35.25 24.703125 29.984375 24.703125 
Q 19.046875 24.703125 12.671875 31.3125 
Q 6.296875 37.9375 6.296875 49.421875 
Q 6.296875 60.640625 12.9375 67.421875 
Q 19.578125 74.21875 30.609375 74.21875 
Q 43.265625 74.21875 49.921875 64.515625 
Q 56.59375 54.828125 56.59375 36.375 
Q 56.59375 19.140625 48.40625 8.859375 
Q 40.234375 -1.421875 26.421875 -1.421875 
Q 22.703125 -1.421875 18.890625 -0.6875 
Q 15.09375 0.046875 10.984375 1.515625 
M 30.609375 32.421875 
Q 37.25 32.421875 41.125 36.953125 
Q 45.015625 41.5 45.015625 49.421875 
Q 45.015625 57.28125 41.125 61.84375 
Q 37.25 66.40625 30.609375 66.40625 
Q 23.96875 66.40625 20.09375 61.84375 
Q 16.21875 57.28125 16.21875 49.421875 
Q 16.21875 41.5 20.09375 36.953125 
Q 23.96875 32.421875 30.609375 32.421875 
" id="DejaVuSans-39"/>
     <path d="M 40.578125 39.3125 
Q 47.65625 37.796875 51.625 33 
Q 55.609375 28.21875 55.609375 21.1875 
Q 55.609375 10.40625 48.1875 4.484375 
Q 40.765625 -1.421875 27.09375 -1.421875 
Q 22.515625 -1.421875 17.65625 -0.515625 
Q 12.796875 0.390625 7.625 2.203125 
L 7.625 11.71875 
Q 11.71875 9.328125 16.59375 8.109375 
Q 21.484375 6.890625 26.8125 6.890625 
Q 36.078125 6.890625 40.9375 10.546875 
Q 45.796875 14.203125 45.796875 21.1875 
Q 45.796875 27.640625 41.28125 31.265625 
Q 36.765625 34.90625 28.71875 34.90625 
L 20.21875 34.90625 
L 20.21875 43.015625 
L 29.109375 43.015625 
Q 36.375 43.015625 40.234375 45.921875 
Q 44.09375 48.828125 44.09375 54.296875 
Q 44.09375 59.90625 40.109375 62.90625 
Q 36.140625 65.921875 28.71875 65.921875 
Q 24.65625 65.921875 20.015625 65.03125 
Q 15.375 64.15625 9.8125 62.3125 
L 9.8125 71.09375 
Q 15.4375 72.65625 20.34375 73.4375 
Q 25.25 74.21875 29.59375 74.21875 
Q 40.828125 74.21875 47.359375 69.109375 
Q 53.90625 64.015625 53.90625 55.328125 
Q 53.90625 49.265625 50.4375 45.09375 
Q 46.96875 40.921875 40.578125 39.3125 
" id="DejaVuSans-33"/>
    </defs>
    <g style="fill:#808080;" transform="translate(130.065125 289.199965)scale(0.1 -0.1)">
     <use xlink:href="#DejaVuSans-76"/>
     <use x="59.179688" xlink:href="#DejaVuSans-32"/>
     <use x="122.802734" xlink:href="#DejaVuSans-2e"/>
     <use x="154.589844" xlink:href="#DejaVuSans-32"/>
     <use x="218.212891" xlink:href="#DejaVuSans-2e"/>
     <use x="250" xlink:href="#DejaVuSans-31"/>
     <use x="313.623047" xlink:href="#DejaVuSans-2e"/>
     <use x="345.410156" xlink:href="#DejaVuSans-31"/>
     <use x="409.033203" xlink:href="#DejaVuSans-30"/>
     <use x="472.65625" xlink:href="#DejaVuSans-2c"/>
     <use x="504.443359" xlink:href="#DejaVuSans-20"/>
     <use x="536.230469" xlink:href="#DejaVuSans-68"/>
     <use x="599.609375" xlink:href="#DejaVuSans-76"/>
     <use x="658.757812" xlink:href="#DejaVuSans-2d"/>
     <use x="694.841797" xlink:href="#DejaVuSans-68"/>
     <use x="758.220703" xlink:href="#DejaVuSans-61"/>
     <use x="819.5" xlink:href="#DejaVuSans-73"/>
     <use x="871.599609" xlink:href="#DejaVuSans-68"/>
     <use x="934.978516" xlink:href="#DejaVuSans-3d"/>
     <use x="1018.767578" xlink:href="#DejaVuSans-66"/>
     <use x="1053.972656" xlink:href="#DejaVuSans-66"/>
     <use x="1089.177734" xlink:href="#DejaVuSans-30"/>
     <use x="1152.800781" xlink:href="#DejaVuSans-65"/>
     <use x="1214.324219" xlink:href="#DejaVuSans-37"/>
     <use x="1277.947266" xlink:href="#DejaVuSans-31"/>
     <use x="1341.570312" xlink:href="#DejaVuSans-65"/>
     <use x="1403.09375" xlink:href="#DejaVuSans-38"/>
     <use x="1466.716797" xlink:href="#DejaVuSans-63"/>
     <use x="1521.697266" xlink:href="#DejaVuSans-64"/>
     <use x="1585.173828" xlink:href="#DejaVuSans-39"/>
     <use x="1648.796875" xlink:href="#DejaVuSans-37"/>
     <use x="1712.419922" xlink:href="#DejaVuSans-38"/>
     <use x="1776.042969" xlink:href="#DejaVuSans-33"/>
     <use x="1839.666016" xlink:href="#DejaVuSans-37"/>
     <use x="1903.289062" xlink:href="#DejaVuSans-33"/>
    </g>
   </g>
  </g>
 </g>
 <defs>
  <clipPath id="paff075194e">
   <rect height="288.034772" width="343.144" x="56.84" y="6.125228"/>
  </clipPath>
 </defs>
</svg>
