<?xml version="1.0" encoding="utf-8" standalone="no"?>
<!DOCTYPE svg PUBLIC "-//W3C//DTD SVG 1.1//EN"
  "http://www.w3.org/Graphics/SVG/1.1/DTD/svg11.dtd">
<!-- Created with matplotlib (http://matplotlib.org/) -->
<svg height="345pt" version="1.1" viewBox="0 0 460 345" width="460pt" xmlns="http://www.w3.org/2000/svg" xmlns:xlink="http://www.w3.org/1999/xlink">
 <defs>
  <style type="text/css">
*{stroke-linecap:butt;stroke-linejoin:round;}
  </style>
 </defs>
 <g id="figure_1">
  <g id="patch_1">
   <path d="M 0 345.6 
L 460.8 345.6 
L 460.8 0 
L 0 0 
z
" style="fill:#ffffff;"/>
  </g>
  <g id="axes_1">
   <g id="patch_2">
    <path d="M 56.84 294.16 
L 399.984 294.16 
L 399.984 6.125228 
L 56.84 6.125228 
z
" style="fill:#ffffff;"/>
   </g>
   <g id="line2d_1">
    <path d="M -1 290.47229 
L 63.512807 290.47229 
L 63.512807 289.243053 
L 102.149557 289.243053 
L 102.149557 286.784579 
L 115.602638 286.784579 
L 115.602638 284.326105 
L 133.291011 284.326105 
L 133.291011 281.867632 
L 139.131992 281.867632 
L 139.131992 279.409158 
L 139.757144 279.409158 
L 139.757144 278.179921 
L 140.459383 278.179921 
L 140.459383 274.492211 
L 141.404107 274.492211 
L 141.404107 272.033737 
L 142.272909 272.033737 
L 142.272909 270.8045 
L 143.091385 270.8045 
L 143.091385 268.346027 
L 144.039118 268.346027 
L 144.039118 264.658316 
L 144.16162 264.658316 
L 144.16162 262.199843 
L 144.980326 262.199843 
L 144.980326 259.741369 
L 145.982741 259.741369 
L 146.061317 254.824422 
L 147.463494 254.824422 
L 147.463494 252.365948 
L 148.739439 252.365948 
L 148.739439 251.136711 
L 149.055618 251.136711 
L 149.055618 249.907474 
L 150.877102 249.907474 
L 150.877102 246.219764 
L 151.968658 246.219764 
L 151.968658 244.990527 
L 153.326439 244.990527 
L 153.326439 243.76129 
L 154.04261 243.76129 
L 154.04261 240.07358 
L 155.214995 240.07358 
L 155.214995 237.615106 
L 156.4271 237.615106 
L 156.4271 235.156633 
L 157.053299 235.156633 
L 157.053299 231.468922 
L 158.41318 231.468922 
L 158.41318 230.239685 
L 160.113691 230.239685 
L 160.113691 227.781212 
L 161.712482 227.781212 
L 161.712482 224.093501 
L 163.29469 224.093501 
L 163.380671 219.176554 
L 165.824836 219.176554 
L 165.824836 216.71808 
L 171.486976 216.71808 
L 171.486976 214.259607 
L 176.88738 214.259607 
L 176.88738 213.03037 
L 181.03315 213.03037 
L 181.03315 209.342659 
L 186.248028 209.342659 
L 186.248028 208.113422 
L 188.852487 208.113422 
L 188.852487 206.884186 
L 195.757825 206.884186 
L 195.757825 203.196475 
L 206.977108 203.196475 
L 206.977108 200.738001 
L 213.245595 200.738001 
L 213.245595 199.508765 
L 217.192368 199.508765 
L 217.192368 195.821054 
L 217.385573 195.821054 
L 217.385573 193.362581 
L 217.602275 193.362581 
L 217.602275 192.133344 
L 222.049561 192.133344 
L 222.049561 188.445633 
L 225.836137 188.445633 
L 225.836137 184.757923 
L 233.468668 184.757923 
L 233.468668 181.070212 
L 238.16448 181.070212 
L 238.16448 179.840975 
L 240.051804 179.840975 
L 240.071294 176.153265 
L 242.547851 176.153265 
L 242.547851 173.694791 
L 247.654258 173.694791 
L 247.654258 171.236318 
L 253.008522 171.236318 
L 253.008522 167.548607 
L 255.433573 167.548607 
L 255.433573 166.31937 
L 256.751074 166.31937 
L 256.751074 165.090134 
L 261.502025 165.090134 
L 261.529434 154.027002 
L 264.242009 154.027002 
L 264.242009 151.568529 
L 264.662994 151.568529 
L 264.662994 147.880818 
L 269.11043 147.880818 
L 269.11043 146.651581 
L 270.732062 146.651581 
L 270.767343 138.046924 
L 271.383475 138.046924 
L 271.383475 135.58845 
L 273.358201 135.58845 
L 273.358201 134.359213 
L 278.436625 134.359213 
L 278.436625 130.671503 
L 281.131003 130.671503 
L 281.131003 128.213029 
L 292.24985 128.213029 
L 292.24985 126.983792 
L 292.629658 126.983792 
L 292.629658 123.296082 
L 293.376115 123.296082 
L 293.376115 120.837608 
L 293.511736 120.837608 
L 293.542038 117.149898 
L 293.630166 117.149898 
L 293.714536 109.774477 
L 333.569032 109.774477 
L 333.569032 109.774477 
" style="fill:none;stroke:#f5deb3;stroke-linecap:square;stroke-width:6;"/>
   </g>
   <g id="line2d_2">
    <defs>
     <path d="M -0 7.778175 
L 7.778175 0 
L 0 -7.778175 
L -7.778175 -0 
z
" id="m24279c88be" style="stroke:#f5deb3;stroke-linejoin:miter;stroke-width:1.5;"/>
    </defs>
    <g>
     <use style="fill:#f5deb3;stroke:#f5deb3;stroke-linejoin:miter;stroke-width:1.5;" x="115.602638" xlink:href="#m24279c88be" y="284.326105"/>
     <use style="fill:#f5deb3;stroke:#f5deb3;stroke-linejoin:miter;stroke-width:1.5;" x="176.88738" xlink:href="#m24279c88be" y="213.03037"/>
     <use style="fill:#f5deb3;stroke:#f5deb3;stroke-linejoin:miter;stroke-width:1.5;" x="242.547851" xlink:href="#m24279c88be" y="176.153265"/>
     <use style="fill:#f5deb3;stroke:#f5deb3;stroke-linejoin:miter;stroke-width:1.5;" x="293.711792" xlink:href="#m24279c88be" y="112.23295"/>
     <use style="fill:#f5deb3;stroke:#f5deb3;stroke-linejoin:miter;stroke-width:1.5;" x="293.714536" xlink:href="#m24279c88be" y="109.774477"/>
     <use style="fill:#f5deb3;stroke:#f5deb3;stroke-linejoin:miter;stroke-width:1.5;" x="333.569032" xlink:href="#m24279c88be" y="109.774477"/>
    </g>
   </g>
   <g id="line2d_3">
    <path style="fill:none;stroke:#f5deb3;stroke-linecap:square;stroke-width:6;"/>
    <g/>
   </g>
   <g id="line2d_4">
    <path d="M 333.569032 109.774477 
L 364.009226 14.680716 
" style="fill:none;stroke:#f5deb3;stroke-linecap:square;stroke-width:6;"/>
    <g>
     <use style="fill:#f5deb3;stroke:#f5deb3;stroke-linejoin:miter;stroke-width:1.5;" x="333.569032" xlink:href="#m24279c88be" y="109.774477"/>
     <use style="fill:#f5deb3;stroke:#f5deb3;stroke-linejoin:miter;stroke-width:1.5;" x="364.009226" xlink:href="#m24279c88be" y="14.680716"/>
    </g>
   </g>
   <g id="matplotlib.axis_1">
    <g id="xtick_1">
     <g id="line2d_5">
      <path clip-path="url(#p2f28748f8d)" d="M 56.84 294.16 
L 56.84 6.125228 
" style="fill:none;stroke:#b0b0b0;stroke-linecap:square;stroke-width:0.8;"/>
     </g>
     <g id="line2d_6">
      <defs>
       <path d="M 0 0 
L 0 3.5 
" id="m733afafa38" style="stroke:#000000;stroke-width:0.8;"/>
      </defs>
      <g>
       <use style="stroke:#000000;stroke-width:0.8;" x="56.84" xlink:href="#m733afafa38" y="294.16"/>
      </g>
     </g>
     <g id="text_1">
      <!-- 0 -->
      <defs>
       <path d="M 31.78125 66.40625 
Q 24.171875 66.40625 20.328125 58.90625 
Q 16.5 51.421875 16.5 36.375 
Q 16.5 21.390625 20.328125 13.890625 
Q 24.171875 6.390625 31.78125 6.390625 
Q 39.453125 6.390625 43.28125 13.890625 
Q 47.125 21.390625 47.125 36.375 
Q 47.125 51.421875 43.28125 58.90625 
Q 39.453125 66.40625 31.78125 66.40625 
M 31.78125 74.21875 
Q 44.046875 74.21875 50.515625 64.515625 
Q 56.984375 54.828125 56.984375 36.375 
Q 56.984375 17.96875 50.515625 8.265625 
Q 44.046875 -1.421875 31.78125 -1.421875 
Q 19.53125 -1.421875 13.0625 8.265625 
Q 6.59375 17.96875 6.59375 36.375 
Q 6.59375 54.828125 13.0625 64.515625 
Q 19.53125 74.21875 31.78125 74.21875 
" id="DejaVuSans-30"/>
      </defs>
      <g transform="translate(50.4775 316.356875)scale(0.2 -0.2)">
       <use xlink:href="#DejaVuSans-30"/>
      </g>
     </g>
    </g>
    <g id="xtick_2">
     <g id="line2d_7">
      <path clip-path="url(#p2f28748f8d)" d="M 135.905438 294.16 
L 135.905438 6.125228 
" style="fill:none;stroke:#b0b0b0;stroke-linecap:square;stroke-width:0.8;"/>
     </g>
     <g id="line2d_8">
      <g>
       <use style="stroke:#000000;stroke-width:0.8;" x="135.905438" xlink:href="#m733afafa38" y="294.16"/>
      </g>
     </g>
     <g id="text_2">
      <!-- 2 -->
      <defs>
       <path d="M 19.1875 8.296875 
L 53.609375 8.296875 
L 53.609375 0 
L 7.328125 0 
L 7.328125 8.296875 
Q 12.9375 14.109375 22.625 23.890625 
Q 32.328125 33.6875 34.8125 36.53125 
Q 39.546875 41.84375 41.421875 45.53125 
Q 43.3125 49.21875 43.3125 52.78125 
Q 43.3125 58.59375 39.234375 62.25 
Q 35.15625 65.921875 28.609375 65.921875 
Q 23.96875 65.921875 18.8125 64.3125 
Q 13.671875 62.703125 7.8125 59.421875 
L 7.8125 69.390625 
Q 13.765625 71.78125 18.9375 73 
Q 24.125 74.21875 28.421875 74.21875 
Q 39.75 74.21875 46.484375 68.546875 
Q 53.21875 62.890625 53.21875 53.421875 
Q 53.21875 48.921875 51.53125 44.890625 
Q 49.859375 40.875 45.40625 35.40625 
Q 44.1875 33.984375 37.640625 27.21875 
Q 31.109375 20.453125 19.1875 8.296875 
" id="DejaVuSans-32"/>
      </defs>
      <g transform="translate(129.542938 316.356875)scale(0.2 -0.2)">
       <use xlink:href="#DejaVuSans-32"/>
      </g>
     </g>
    </g>
    <g id="xtick_3">
     <g id="line2d_9">
      <path clip-path="url(#p2f28748f8d)" d="M 214.970876 294.16 
L 214.970876 6.125228 
" style="fill:none;stroke:#b0b0b0;stroke-linecap:square;stroke-width:0.8;"/>
     </g>
     <g id="line2d_10">
      <g>
       <use style="stroke:#000000;stroke-width:0.8;" x="214.970876" xlink:href="#m733afafa38" y="294.16"/>
      </g>
     </g>
     <g id="text_3">
      <!-- 4 -->
      <defs>
       <path d="M 37.796875 64.3125 
L 12.890625 25.390625 
L 37.796875 25.390625 
z
M 35.203125 72.90625 
L 47.609375 72.90625 
L 47.609375 25.390625 
L 58.015625 25.390625 
L 58.015625 17.1875 
L 47.609375 17.1875 
L 47.609375 0 
L 37.796875 0 
L 37.796875 17.1875 
L 4.890625 17.1875 
L 4.890625 26.703125 
z
" id="DejaVuSans-34"/>
      </defs>
      <g transform="translate(208.608376 316.356875)scale(0.2 -0.2)">
       <use xlink:href="#DejaVuSans-34"/>
      </g>
     </g>
    </g>
    <g id="xtick_4">
     <g id="line2d_11">
      <path clip-path="url(#p2f28748f8d)" d="M 294.036313 294.16 
L 294.036313 6.125228 
" style="fill:none;stroke:#b0b0b0;stroke-linecap:square;stroke-width:0.8;"/>
     </g>
     <g id="line2d_12">
      <g>
       <use style="stroke:#000000;stroke-width:0.8;" x="294.036313" xlink:href="#m733afafa38" y="294.16"/>
      </g>
     </g>
     <g id="text_4">
      <!-- 6 -->
      <defs>
       <path d="M 33.015625 40.375 
Q 26.375 40.375 22.484375 35.828125 
Q 18.609375 31.296875 18.609375 23.390625 
Q 18.609375 15.53125 22.484375 10.953125 
Q 26.375 6.390625 33.015625 6.390625 
Q 39.65625 6.390625 43.53125 10.953125 
Q 47.40625 15.53125 47.40625 23.390625 
Q 47.40625 31.296875 43.53125 35.828125 
Q 39.65625 40.375 33.015625 40.375 
M 52.59375 71.296875 
L 52.59375 62.3125 
Q 48.875 64.0625 45.09375 64.984375 
Q 41.3125 65.921875 37.59375 65.921875 
Q 27.828125 65.921875 22.671875 59.328125 
Q 17.53125 52.734375 16.796875 39.40625 
Q 19.671875 43.65625 24.015625 45.921875 
Q 28.375 48.1875 33.59375 48.1875 
Q 44.578125 48.1875 50.953125 41.515625 
Q 57.328125 34.859375 57.328125 23.390625 
Q 57.328125 12.15625 50.6875 5.359375 
Q 44.046875 -1.421875 33.015625 -1.421875 
Q 20.359375 -1.421875 13.671875 8.265625 
Q 6.984375 17.96875 6.984375 36.375 
Q 6.984375 53.65625 15.1875 63.9375 
Q 23.390625 74.21875 37.203125 74.21875 
Q 40.921875 74.21875 44.703125 73.484375 
Q 48.484375 72.75 52.59375 71.296875 
" id="DejaVuSans-36"/>
      </defs>
      <g transform="translate(287.673813 316.356875)scale(0.2 -0.2)">
       <use xlink:href="#DejaVuSans-36"/>
      </g>
     </g>
    </g>
    <g id="xtick_5">
     <g id="line2d_13">
      <path clip-path="url(#p2f28748f8d)" d="M 373.101751 294.16 
L 373.101751 6.125228 
" style="fill:none;stroke:#b0b0b0;stroke-linecap:square;stroke-width:0.8;"/>
     </g>
     <g id="line2d_14">
      <g>
       <use style="stroke:#000000;stroke-width:0.8;" x="373.101751" xlink:href="#m733afafa38" y="294.16"/>
      </g>
     </g>
     <g id="text_5">
      <!-- 8 -->
      <defs>
       <path d="M 31.78125 34.625 
Q 24.75 34.625 20.71875 30.859375 
Q 16.703125 27.09375 16.703125 20.515625 
Q 16.703125 13.921875 20.71875 10.15625 
Q 24.75 6.390625 31.78125 6.390625 
Q 38.8125 6.390625 42.859375 10.171875 
Q 46.921875 13.96875 46.921875 20.515625 
Q 46.921875 27.09375 42.890625 30.859375 
Q 38.875 34.625 31.78125 34.625 
M 21.921875 38.8125 
Q 15.578125 40.375 12.03125 44.71875 
Q 8.5 49.078125 8.5 55.328125 
Q 8.5 64.0625 14.71875 69.140625 
Q 20.953125 74.21875 31.78125 74.21875 
Q 42.671875 74.21875 48.875 69.140625 
Q 55.078125 64.0625 55.078125 55.328125 
Q 55.078125 49.078125 51.53125 44.71875 
Q 48 40.375 41.703125 38.8125 
Q 48.828125 37.15625 52.796875 32.3125 
Q 56.78125 27.484375 56.78125 20.515625 
Q 56.78125 9.90625 50.3125 4.234375 
Q 43.84375 -1.421875 31.78125 -1.421875 
Q 19.734375 -1.421875 13.25 4.234375 
Q 6.78125 9.90625 6.78125 20.515625 
Q 6.78125 27.484375 10.78125 32.3125 
Q 14.796875 37.15625 21.921875 38.8125 
M 18.3125 54.390625 
Q 18.3125 48.734375 21.84375 45.5625 
Q 25.390625 42.390625 31.78125 42.390625 
Q 38.140625 42.390625 41.71875 45.5625 
Q 45.3125 48.734375 45.3125 54.390625 
Q 45.3125 60.0625 41.71875 63.234375 
Q 38.140625 66.40625 31.78125 66.40625 
Q 25.390625 66.40625 21.84375 63.234375 
Q 18.3125 60.0625 18.3125 54.390625 
" id="DejaVuSans-38"/>
      </defs>
      <g transform="translate(366.739251 316.356875)scale(0.2 -0.2)">
       <use xlink:href="#DejaVuSans-38"/>
      </g>
     </g>
    </g>
    <g id="xtick_6">
     <g id="line2d_15">
      <defs>
       <path d="M 0 0 
L 0 2 
" id="m2b03ab29fd" style="stroke:#000000;stroke-width:0.6;"/>
      </defs>
      <g>
       <use style="stroke:#000000;stroke-width:0.6;" x="68.740534" xlink:href="#m2b03ab29fd" y="294.16"/>
      </g>
     </g>
    </g>
    <g id="xtick_7">
     <g id="line2d_16">
      <g>
       <use style="stroke:#000000;stroke-width:0.6;" x="80.641068" xlink:href="#m2b03ab29fd" y="294.16"/>
      </g>
     </g>
    </g>
    <g id="xtick_8">
     <g id="line2d_17">
      <g>
       <use style="stroke:#000000;stroke-width:0.6;" x="87.602435" xlink:href="#m2b03ab29fd" y="294.16"/>
      </g>
     </g>
    </g>
    <g id="xtick_9">
     <g id="line2d_18">
      <g>
       <use style="stroke:#000000;stroke-width:0.6;" x="92.541603" xlink:href="#m2b03ab29fd" y="294.16"/>
      </g>
     </g>
    </g>
    <g id="xtick_10">
     <g id="line2d_19">
      <g>
       <use style="stroke:#000000;stroke-width:0.6;" x="147.805972" xlink:href="#m2b03ab29fd" y="294.16"/>
      </g>
     </g>
    </g>
    <g id="xtick_11">
     <g id="line2d_20">
      <g>
       <use style="stroke:#000000;stroke-width:0.6;" x="159.706506" xlink:href="#m2b03ab29fd" y="294.16"/>
      </g>
     </g>
    </g>
    <g id="xtick_12">
     <g id="line2d_21">
      <g>
       <use style="stroke:#000000;stroke-width:0.6;" x="166.667872" xlink:href="#m2b03ab29fd" y="294.16"/>
      </g>
     </g>
    </g>
    <g id="xtick_13">
     <g id="line2d_22">
      <g>
       <use style="stroke:#000000;stroke-width:0.6;" x="171.60704" xlink:href="#m2b03ab29fd" y="294.16"/>
      </g>
     </g>
    </g>
    <g id="xtick_14">
     <g id="line2d_23">
      <g>
       <use style="stroke:#000000;stroke-width:0.6;" x="226.87141" xlink:href="#m2b03ab29fd" y="294.16"/>
      </g>
     </g>
    </g>
    <g id="xtick_15">
     <g id="line2d_24">
      <g>
       <use style="stroke:#000000;stroke-width:0.6;" x="238.771944" xlink:href="#m2b03ab29fd" y="294.16"/>
      </g>
     </g>
    </g>
    <g id="xtick_16">
     <g id="line2d_25">
      <g>
       <use style="stroke:#000000;stroke-width:0.6;" x="245.73331" xlink:href="#m2b03ab29fd" y="294.16"/>
      </g>
     </g>
    </g>
    <g id="xtick_17">
     <g id="line2d_26">
      <g>
       <use style="stroke:#000000;stroke-width:0.6;" x="250.672478" xlink:href="#m2b03ab29fd" y="294.16"/>
      </g>
     </g>
    </g>
    <g id="xtick_18">
     <g id="line2d_27">
      <g>
       <use style="stroke:#000000;stroke-width:0.6;" x="305.936848" xlink:href="#m2b03ab29fd" y="294.16"/>
      </g>
     </g>
    </g>
    <g id="xtick_19">
     <g id="line2d_28">
      <g>
       <use style="stroke:#000000;stroke-width:0.6;" x="317.837382" xlink:href="#m2b03ab29fd" y="294.16"/>
      </g>
     </g>
    </g>
    <g id="xtick_20">
     <g id="line2d_29">
      <g>
       <use style="stroke:#000000;stroke-width:0.6;" x="324.798748" xlink:href="#m2b03ab29fd" y="294.16"/>
      </g>
     </g>
    </g>
    <g id="xtick_21">
     <g id="line2d_30">
      <g>
       <use style="stroke:#000000;stroke-width:0.6;" x="329.737916" xlink:href="#m2b03ab29fd" y="294.16"/>
      </g>
     </g>
    </g>
    <g id="xtick_22">
     <g id="line2d_31">
      <g>
       <use style="stroke:#000000;stroke-width:0.6;" x="385.002285" xlink:href="#m2b03ab29fd" y="294.16"/>
      </g>
     </g>
    </g>
    <g id="xtick_23">
     <g id="line2d_32">
      <g>
       <use style="stroke:#000000;stroke-width:0.6;" x="396.90282" xlink:href="#m2b03ab29fd" y="294.16"/>
      </g>
     </g>
    </g>
    <g id="text_6">
     <!-- log10(# f-evals / dimension) -->
     <defs>
      <path d="M 9.421875 75.984375 
L 18.40625 75.984375 
L 18.40625 0 
L 9.421875 0 
z
" id="DejaVuSans-6c"/>
      <path d="M 30.609375 48.390625 
Q 23.390625 48.390625 19.1875 42.75 
Q 14.984375 37.109375 14.984375 27.296875 
Q 14.984375 17.484375 19.15625 11.84375 
Q 23.34375 6.203125 30.609375 6.203125 
Q 37.796875 6.203125 41.984375 11.859375 
Q 46.1875 17.53125 46.1875 27.296875 
Q 46.1875 37.015625 41.984375 42.703125 
Q 37.796875 48.390625 30.609375 48.390625 
M 30.609375 56 
Q 42.328125 56 49.015625 48.375 
Q 55.71875 40.765625 55.71875 27.296875 
Q 55.71875 13.875 49.015625 6.21875 
Q 42.328125 -1.421875 30.609375 -1.421875 
Q 18.84375 -1.421875 12.171875 6.21875 
Q 5.515625 13.875 5.515625 27.296875 
Q 5.515625 40.765625 12.171875 48.375 
Q 18.84375 56 30.609375 56 
" id="DejaVuSans-6f"/>
      <path d="M 45.40625 27.984375 
Q 45.40625 37.75 41.375 43.109375 
Q 37.359375 48.484375 30.078125 48.484375 
Q 22.859375 48.484375 18.828125 43.109375 
Q 14.796875 37.75 14.796875 27.984375 
Q 14.796875 18.265625 18.828125 12.890625 
Q 22.859375 7.515625 30.078125 7.515625 
Q 37.359375 7.515625 41.375 12.890625 
Q 45.40625 18.265625 45.40625 27.984375 
M 54.390625 6.78125 
Q 54.390625 -7.171875 48.1875 -13.984375 
Q 42 -20.796875 29.203125 -20.796875 
Q 24.46875 -20.796875 20.265625 -20.09375 
Q 16.0625 -19.390625 12.109375 -17.921875 
L 12.109375 -9.1875 
Q 16.0625 -11.328125 19.921875 -12.34375 
Q 23.78125 -13.375 27.78125 -13.375 
Q 36.625 -13.375 41.015625 -8.765625 
Q 45.40625 -4.15625 45.40625 5.171875 
L 45.40625 9.625 
Q 42.625 4.78125 38.28125 2.390625 
Q 33.9375 0 27.875 0 
Q 17.828125 0 11.671875 7.65625 
Q 5.515625 15.328125 5.515625 27.984375 
Q 5.515625 40.671875 11.671875 48.328125 
Q 17.828125 56 27.875 56 
Q 33.9375 56 38.28125 53.609375 
Q 42.625 51.21875 45.40625 46.390625 
L 45.40625 54.6875 
L 54.390625 54.6875 
z
" id="DejaVuSans-67"/>
      <path d="M 12.40625 8.296875 
L 28.515625 8.296875 
L 28.515625 63.921875 
L 10.984375 60.40625 
L 10.984375 69.390625 
L 28.421875 72.90625 
L 38.28125 72.90625 
L 38.28125 8.296875 
L 54.390625 8.296875 
L 54.390625 0 
L 12.40625 0 
z
" id="DejaVuSans-31"/>
      <path d="M 31 75.875 
Q 24.46875 64.65625 21.28125 53.65625 
Q 18.109375 42.671875 18.109375 31.390625 
Q 18.109375 20.125 21.3125 9.0625 
Q 24.515625 -2 31 -13.1875 
L 23.1875 -13.1875 
Q 15.875 -1.703125 12.234375 9.375 
Q 8.59375 20.453125 8.59375 31.390625 
Q 8.59375 42.28125 12.203125 53.3125 
Q 15.828125 64.359375 23.1875 75.875 
z
" id="DejaVuSans-28"/>
      <path d="M 51.125 44 
L 36.921875 44 
L 32.8125 27.6875 
L 47.125 27.6875 
z
M 43.796875 71.78125 
L 38.71875 51.515625 
L 52.984375 51.515625 
L 58.109375 71.78125 
L 65.921875 71.78125 
L 60.890625 51.515625 
L 76.125 51.515625 
L 76.125 44 
L 58.984375 44 
L 54.984375 27.6875 
L 70.515625 27.6875 
L 70.515625 20.21875 
L 53.078125 20.21875 
L 48 0 
L 40.1875 0 
L 45.21875 20.21875 
L 30.90625 20.21875 
L 25.875 0 
L 18.015625 0 
L 23.09375 20.21875 
L 7.71875 20.21875 
L 7.71875 27.6875 
L 24.90625 27.6875 
L 29 44 
L 13.28125 44 
L 13.28125 51.515625 
L 30.90625 51.515625 
L 35.890625 71.78125 
z
" id="DejaVuSans-23"/>
      <path id="DejaVuSans-20"/>
      <path d="M 37.109375 75.984375 
L 37.109375 68.5 
L 28.515625 68.5 
Q 23.6875 68.5 21.796875 66.546875 
Q 19.921875 64.59375 19.921875 59.515625 
L 19.921875 54.6875 
L 34.71875 54.6875 
L 34.71875 47.703125 
L 19.921875 47.703125 
L 19.921875 0 
L 10.890625 0 
L 10.890625 47.703125 
L 2.296875 47.703125 
L 2.296875 54.6875 
L 10.890625 54.6875 
L 10.890625 58.5 
Q 10.890625 67.625 15.140625 71.796875 
Q 19.390625 75.984375 28.609375 75.984375 
z
" id="DejaVuSans-66"/>
      <path d="M 4.890625 31.390625 
L 31.203125 31.390625 
L 31.203125 23.390625 
L 4.890625 23.390625 
z
" id="DejaVuSans-2d"/>
      <path d="M 56.203125 29.59375 
L 56.203125 25.203125 
L 14.890625 25.203125 
Q 15.484375 15.921875 20.484375 11.0625 
Q 25.484375 6.203125 34.421875 6.203125 
Q 39.59375 6.203125 44.453125 7.46875 
Q 49.3125 8.734375 54.109375 11.28125 
L 54.109375 2.78125 
Q 49.265625 0.734375 44.1875 -0.34375 
Q 39.109375 -1.421875 33.890625 -1.421875 
Q 20.796875 -1.421875 13.15625 6.1875 
Q 5.515625 13.8125 5.515625 26.8125 
Q 5.515625 40.234375 12.765625 48.109375 
Q 20.015625 56 32.328125 56 
Q 43.359375 56 49.78125 48.890625 
Q 56.203125 41.796875 56.203125 29.59375 
M 47.21875 32.234375 
Q 47.125 39.59375 43.09375 43.984375 
Q 39.0625 48.390625 32.421875 48.390625 
Q 24.90625 48.390625 20.390625 44.140625 
Q 15.875 39.890625 15.1875 32.171875 
z
" id="DejaVuSans-65"/>
      <path d="M 2.984375 54.6875 
L 12.5 54.6875 
L 29.59375 8.796875 
L 46.6875 54.6875 
L 56.203125 54.6875 
L 35.6875 0 
L 23.484375 0 
z
" id="DejaVuSans-76"/>
      <path d="M 34.28125 27.484375 
Q 23.390625 27.484375 19.1875 25 
Q 14.984375 22.515625 14.984375 16.5 
Q 14.984375 11.71875 18.140625 8.90625 
Q 21.296875 6.109375 26.703125 6.109375 
Q 34.1875 6.109375 38.703125 11.40625 
Q 43.21875 16.703125 43.21875 25.484375 
L 43.21875 27.484375 
z
M 52.203125 31.203125 
L 52.203125 0 
L 43.21875 0 
L 43.21875 8.296875 
Q 40.140625 3.328125 35.546875 0.953125 
Q 30.953125 -1.421875 24.3125 -1.421875 
Q 15.921875 -1.421875 10.953125 3.296875 
Q 6 8.015625 6 15.921875 
Q 6 25.140625 12.171875 29.828125 
Q 18.359375 34.515625 30.609375 34.515625 
L 43.21875 34.515625 
L 43.21875 35.40625 
Q 43.21875 41.609375 39.140625 45 
Q 35.0625 48.390625 27.6875 48.390625 
Q 23 48.390625 18.546875 47.265625 
Q 14.109375 46.140625 10.015625 43.890625 
L 10.015625 52.203125 
Q 14.9375 54.109375 19.578125 55.046875 
Q 24.21875 56 28.609375 56 
Q 40.484375 56 46.34375 49.84375 
Q 52.203125 43.703125 52.203125 31.203125 
" id="DejaVuSans-61"/>
      <path d="M 44.28125 53.078125 
L 44.28125 44.578125 
Q 40.484375 46.53125 36.375 47.5 
Q 32.28125 48.484375 27.875 48.484375 
Q 21.1875 48.484375 17.84375 46.4375 
Q 14.5 44.390625 14.5 40.28125 
Q 14.5 37.15625 16.890625 35.375 
Q 19.28125 33.59375 26.515625 31.984375 
L 29.59375 31.296875 
Q 39.15625 29.25 43.1875 25.515625 
Q 47.21875 21.78125 47.21875 15.09375 
Q 47.21875 7.46875 41.1875 3.015625 
Q 35.15625 -1.421875 24.609375 -1.421875 
Q 20.21875 -1.421875 15.453125 -0.5625 
Q 10.6875 0.296875 5.421875 2 
L 5.421875 11.28125 
Q 10.40625 8.6875 15.234375 7.390625 
Q 20.0625 6.109375 24.8125 6.109375 
Q 31.15625 6.109375 34.5625 8.28125 
Q 37.984375 10.453125 37.984375 14.40625 
Q 37.984375 18.0625 35.515625 20.015625 
Q 33.0625 21.96875 24.703125 23.78125 
L 21.578125 24.515625 
Q 13.234375 26.265625 9.515625 29.90625 
Q 5.8125 33.546875 5.8125 39.890625 
Q 5.8125 47.609375 11.28125 51.796875 
Q 16.75 56 26.8125 56 
Q 31.78125 56 36.171875 55.265625 
Q 40.578125 54.546875 44.28125 53.078125 
" id="DejaVuSans-73"/>
      <path d="M 25.390625 72.90625 
L 33.6875 72.90625 
L 8.296875 -9.28125 
L 0 -9.28125 
z
" id="DejaVuSans-2f"/>
      <path d="M 45.40625 46.390625 
L 45.40625 75.984375 
L 54.390625 75.984375 
L 54.390625 0 
L 45.40625 0 
L 45.40625 8.203125 
Q 42.578125 3.328125 38.25 0.953125 
Q 33.9375 -1.421875 27.875 -1.421875 
Q 17.96875 -1.421875 11.734375 6.484375 
Q 5.515625 14.40625 5.515625 27.296875 
Q 5.515625 40.1875 11.734375 48.09375 
Q 17.96875 56 27.875 56 
Q 33.9375 56 38.25 53.625 
Q 42.578125 51.265625 45.40625 46.390625 
M 14.796875 27.296875 
Q 14.796875 17.390625 18.875 11.75 
Q 22.953125 6.109375 30.078125 6.109375 
Q 37.203125 6.109375 41.296875 11.75 
Q 45.40625 17.390625 45.40625 27.296875 
Q 45.40625 37.203125 41.296875 42.84375 
Q 37.203125 48.484375 30.078125 48.484375 
Q 22.953125 48.484375 18.875 42.84375 
Q 14.796875 37.203125 14.796875 27.296875 
" id="DejaVuSans-64"/>
      <path d="M 9.421875 54.6875 
L 18.40625 54.6875 
L 18.40625 0 
L 9.421875 0 
z
M 9.421875 75.984375 
L 18.40625 75.984375 
L 18.40625 64.59375 
L 9.421875 64.59375 
z
" id="DejaVuSans-69"/>
      <path d="M 52 44.1875 
Q 55.375 50.25 60.0625 53.125 
Q 64.75 56 71.09375 56 
Q 79.640625 56 84.28125 50.015625 
Q 88.921875 44.046875 88.921875 33.015625 
L 88.921875 0 
L 79.890625 0 
L 79.890625 32.71875 
Q 79.890625 40.578125 77.09375 44.375 
Q 74.3125 48.1875 68.609375 48.1875 
Q 61.625 48.1875 57.5625 43.546875 
Q 53.515625 38.921875 53.515625 30.90625 
L 53.515625 0 
L 44.484375 0 
L 44.484375 32.71875 
Q 44.484375 40.625 41.703125 44.40625 
Q 38.921875 48.1875 33.109375 48.1875 
Q 26.21875 48.1875 22.15625 43.53125 
Q 18.109375 38.875 18.109375 30.90625 
L 18.109375 0 
L 9.078125 0 
L 9.078125 54.6875 
L 18.109375 54.6875 
L 18.109375 46.1875 
Q 21.1875 51.21875 25.484375 53.609375 
Q 29.78125 56 35.6875 56 
Q 41.65625 56 45.828125 52.96875 
Q 50 49.953125 52 44.1875 
" id="DejaVuSans-6d"/>
      <path d="M 54.890625 33.015625 
L 54.890625 0 
L 45.90625 0 
L 45.90625 32.71875 
Q 45.90625 40.484375 42.875 44.328125 
Q 39.84375 48.1875 33.796875 48.1875 
Q 26.515625 48.1875 22.3125 43.546875 
Q 18.109375 38.921875 18.109375 30.90625 
L 18.109375 0 
L 9.078125 0 
L 9.078125 54.6875 
L 18.109375 54.6875 
L 18.109375 46.1875 
Q 21.34375 51.125 25.703125 53.5625 
Q 30.078125 56 35.796875 56 
Q 45.21875 56 50.046875 50.171875 
Q 54.890625 44.34375 54.890625 33.015625 
" id="DejaVuSans-6e"/>
      <path d="M 8.015625 75.875 
L 15.828125 75.875 
Q 23.140625 64.359375 26.78125 53.3125 
Q 30.421875 42.28125 30.421875 31.390625 
Q 30.421875 20.453125 26.78125 9.375 
Q 23.140625 -1.703125 15.828125 -13.1875 
L 8.015625 -13.1875 
Q 14.5 -2 17.703125 9.0625 
Q 20.90625 20.125 20.90625 31.390625 
Q 20.90625 42.671875 17.703125 53.65625 
Q 14.5 64.65625 8.015625 75.875 
" id="DejaVuSans-29"/>
     </defs>
     <g transform="translate(107.571219 337.433594)scale(0.17 -0.17)">
      <use xlink:href="#DejaVuSans-6c"/>
      <use x="27.783203" xlink:href="#DejaVuSans-6f"/>
      <use x="88.964844" xlink:href="#DejaVuSans-67"/>
      <use x="152.441406" xlink:href="#DejaVuSans-31"/>
      <use x="216.064453" xlink:href="#DejaVuSans-30"/>
      <use x="279.6875" xlink:href="#DejaVuSans-28"/>
      <use x="318.701172" xlink:href="#DejaVuSans-23"/>
      <use x="402.490234" xlink:href="#DejaVuSans-20"/>
      <use x="434.277344" xlink:href="#DejaVuSans-66"/>
      <use x="469.404297" xlink:href="#DejaVuSans-2d"/>
      <use x="505.488281" xlink:href="#DejaVuSans-65"/>
      <use x="567.011719" xlink:href="#DejaVuSans-76"/>
      <use x="626.191406" xlink:href="#DejaVuSans-61"/>
      <use x="687.470703" xlink:href="#DejaVuSans-6c"/>
      <use x="715.253906" xlink:href="#DejaVuSans-73"/>
      <use x="767.353516" xlink:href="#DejaVuSans-20"/>
      <use x="799.140625" xlink:href="#DejaVuSans-2f"/>
      <use x="832.832031" xlink:href="#DejaVuSans-20"/>
      <use x="864.619141" xlink:href="#DejaVuSans-64"/>
      <use x="928.095703" xlink:href="#DejaVuSans-69"/>
      <use x="955.878906" xlink:href="#DejaVuSans-6d"/>
      <use x="1053.291016" xlink:href="#DejaVuSans-65"/>
      <use x="1114.814453" xlink:href="#DejaVuSans-6e"/>
      <use x="1178.193359" xlink:href="#DejaVuSans-73"/>
      <use x="1230.292969" xlink:href="#DejaVuSans-69"/>
      <use x="1258.076172" xlink:href="#DejaVuSans-6f"/>
      <use x="1319.257812" xlink:href="#DejaVuSans-6e"/>
      <use x="1382.636719" xlink:href="#DejaVuSans-29"/>
     </g>
    </g>
   </g>
   <g id="matplotlib.axis_2">
    <g id="ytick_1">
     <g id="line2d_33">
      <path clip-path="url(#p2f28748f8d)" d="M 56.84 294.16 
L 399.984 294.16 
" style="fill:none;stroke:#b0b0b0;stroke-linecap:square;stroke-width:0.8;"/>
     </g>
     <g id="line2d_34">
      <defs>
       <path d="M 0 0 
L -3.5 0 
" id="mbb019522bb" style="stroke:#000000;stroke-width:0.8;"/>
      </defs>
      <g>
       <use style="stroke:#000000;stroke-width:0.8;" x="56.84" xlink:href="#mbb019522bb" y="294.16"/>
      </g>
     </g>
     <g id="text_7">
      <!-- 0.0 -->
      <defs>
       <path d="M 10.6875 12.40625 
L 21 12.40625 
L 21 0 
L 10.6875 0 
z
" id="DejaVuSans-2e"/>
      </defs>
      <g transform="translate(24.395 300.23875)scale(0.16 -0.16)">
       <use xlink:href="#DejaVuSans-30"/>
       <use x="63.623047" xlink:href="#DejaVuSans-2e"/>
       <use x="95.410156" xlink:href="#DejaVuSans-30"/>
      </g>
     </g>
    </g>
    <g id="ytick_2">
     <g id="line2d_35">
      <path clip-path="url(#p2f28748f8d)" d="M 56.84 237.123411 
L 399.984 237.123411 
" style="fill:none;stroke:#b0b0b0;stroke-linecap:square;stroke-width:0.8;"/>
     </g>
     <g id="line2d_36">
      <g>
       <use style="stroke:#000000;stroke-width:0.8;" x="56.84" xlink:href="#mbb019522bb" y="237.123411"/>
      </g>
     </g>
     <g id="text_8">
      <!-- 0.2 -->
      <g transform="translate(24.395 243.202161)scale(0.16 -0.16)">
       <use xlink:href="#DejaVuSans-30"/>
       <use x="63.623047" xlink:href="#DejaVuSans-2e"/>
       <use x="95.410156" xlink:href="#DejaVuSans-32"/>
      </g>
     </g>
    </g>
    <g id="ytick_3">
     <g id="line2d_37">
      <path clip-path="url(#p2f28748f8d)" d="M 56.84 180.086823 
L 399.984 180.086823 
" style="fill:none;stroke:#b0b0b0;stroke-linecap:square;stroke-width:0.8;"/>
     </g>
     <g id="line2d_38">
      <g>
       <use style="stroke:#000000;stroke-width:0.8;" x="56.84" xlink:href="#mbb019522bb" y="180.086823"/>
      </g>
     </g>
     <g id="text_9">
      <!-- 0.4 -->
      <g transform="translate(24.395 186.165573)scale(0.16 -0.16)">
       <use xlink:href="#DejaVuSans-30"/>
       <use x="63.623047" xlink:href="#DejaVuSans-2e"/>
       <use x="95.410156" xlink:href="#DejaVuSans-34"/>
      </g>
     </g>
    </g>
    <g id="ytick_4">
     <g id="line2d_39">
      <path clip-path="url(#p2f28748f8d)" d="M 56.84 123.050234 
L 399.984 123.050234 
" style="fill:none;stroke:#b0b0b0;stroke-linecap:square;stroke-width:0.8;"/>
     </g>
     <g id="line2d_40">
      <g>
       <use style="stroke:#000000;stroke-width:0.8;" x="56.84" xlink:href="#mbb019522bb" y="123.050234"/>
      </g>
     </g>
     <g id="text_10">
      <!-- 0.6 -->
      <g transform="translate(24.395 129.128984)scale(0.16 -0.16)">
       <use xlink:href="#DejaVuSans-30"/>
       <use x="63.623047" xlink:href="#DejaVuSans-2e"/>
       <use x="95.410156" xlink:href="#DejaVuSans-36"/>
      </g>
     </g>
    </g>
    <g id="ytick_5">
     <g id="line2d_41">
      <path clip-path="url(#p2f28748f8d)" d="M 56.84 66.013646 
L 399.984 66.013646 
" style="fill:none;stroke:#b0b0b0;stroke-linecap:square;stroke-width:0.8;"/>
     </g>
     <g id="line2d_42">
      <g>
       <use style="stroke:#000000;stroke-width:0.8;" x="56.84" xlink:href="#mbb019522bb" y="66.013646"/>
      </g>
     </g>
     <g id="text_11">
      <!-- 0.8 -->
      <g transform="translate(24.395 72.092396)scale(0.16 -0.16)">
       <use xlink:href="#DejaVuSans-30"/>
       <use x="63.623047" xlink:href="#DejaVuSans-2e"/>
       <use x="95.410156" xlink:href="#DejaVuSans-38"/>
      </g>
     </g>
    </g>
    <g id="ytick_6">
     <g id="line2d_43">
      <path clip-path="url(#p2f28748f8d)" d="M 56.84 8.977057 
L 399.984 8.977057 
" style="fill:none;stroke:#b0b0b0;stroke-linecap:square;stroke-width:0.8;"/>
     </g>
     <g id="line2d_44">
      <g>
       <use style="stroke:#000000;stroke-width:0.8;" x="56.84" xlink:href="#mbb019522bb" y="8.977057"/>
      </g>
     </g>
     <g id="text_12">
      <!-- 1.0 -->
      <g transform="translate(24.395 15.055807)scale(0.16 -0.16)">
       <use xlink:href="#DejaVuSans-31"/>
       <use x="63.623047" xlink:href="#DejaVuSans-2e"/>
       <use x="95.410156" xlink:href="#DejaVuSans-30"/>
      </g>
     </g>
    </g>
    <g id="text_13">
     <!-- Fraction of function,target pairs -->
     <defs>
      <path d="M 9.8125 72.90625 
L 51.703125 72.90625 
L 51.703125 64.59375 
L 19.671875 64.59375 
L 19.671875 43.109375 
L 48.578125 43.109375 
L 48.578125 34.8125 
L 19.671875 34.8125 
L 19.671875 0 
L 9.8125 0 
z
" id="DejaVuSans-46"/>
      <path d="M 41.109375 46.296875 
Q 39.59375 47.171875 37.8125 47.578125 
Q 36.03125 48 33.890625 48 
Q 26.265625 48 22.1875 43.046875 
Q 18.109375 38.09375 18.109375 28.8125 
L 18.109375 0 
L 9.078125 0 
L 9.078125 54.6875 
L 18.109375 54.6875 
L 18.109375 46.1875 
Q 20.953125 51.171875 25.484375 53.578125 
Q 30.03125 56 36.53125 56 
Q 37.453125 56 38.578125 55.875 
Q 39.703125 55.765625 41.0625 55.515625 
z
" id="DejaVuSans-72"/>
      <path d="M 48.78125 52.59375 
L 48.78125 44.1875 
Q 44.96875 46.296875 41.140625 47.34375 
Q 37.3125 48.390625 33.40625 48.390625 
Q 24.65625 48.390625 19.8125 42.84375 
Q 14.984375 37.3125 14.984375 27.296875 
Q 14.984375 17.28125 19.8125 11.734375 
Q 24.65625 6.203125 33.40625 6.203125 
Q 37.3125 6.203125 41.140625 7.25 
Q 44.96875 8.296875 48.78125 10.40625 
L 48.78125 2.09375 
Q 45.015625 0.34375 40.984375 -0.53125 
Q 36.96875 -1.421875 32.421875 -1.421875 
Q 20.0625 -1.421875 12.78125 6.34375 
Q 5.515625 14.109375 5.515625 27.296875 
Q 5.515625 40.671875 12.859375 48.328125 
Q 20.21875 56 33.015625 56 
Q 37.15625 56 41.109375 55.140625 
Q 45.0625 54.296875 48.78125 52.59375 
" id="DejaVuSans-63"/>
      <path d="M 18.3125 70.21875 
L 18.3125 54.6875 
L 36.8125 54.6875 
L 36.8125 47.703125 
L 18.3125 47.703125 
L 18.3125 18.015625 
Q 18.3125 11.328125 20.140625 9.421875 
Q 21.96875 7.515625 27.59375 7.515625 
L 36.8125 7.515625 
L 36.8125 0 
L 27.59375 0 
Q 17.1875 0 13.234375 3.875 
Q 9.28125 7.765625 9.28125 18.015625 
L 9.28125 47.703125 
L 2.6875 47.703125 
L 2.6875 54.6875 
L 9.28125 54.6875 
L 9.28125 70.21875 
z
" id="DejaVuSans-74"/>
      <path d="M 8.5 21.578125 
L 8.5 54.6875 
L 17.484375 54.6875 
L 17.484375 21.921875 
Q 17.484375 14.15625 20.5 10.265625 
Q 23.53125 6.390625 29.59375 6.390625 
Q 36.859375 6.390625 41.078125 11.03125 
Q 45.3125 15.671875 45.3125 23.6875 
L 45.3125 54.6875 
L 54.296875 54.6875 
L 54.296875 0 
L 45.3125 0 
L 45.3125 8.40625 
Q 42.046875 3.421875 37.71875 1 
Q 33.40625 -1.421875 27.6875 -1.421875 
Q 18.265625 -1.421875 13.375 4.4375 
Q 8.5 10.296875 8.5 21.578125 
M 31.109375 56 
z
" id="DejaVuSans-75"/>
      <path d="M 11.71875 12.40625 
L 22.015625 12.40625 
L 22.015625 4 
L 14.015625 -11.625 
L 7.71875 -11.625 
L 11.71875 4 
z
" id="DejaVuSans-2c"/>
      <path d="M 18.109375 8.203125 
L 18.109375 -20.796875 
L 9.078125 -20.796875 
L 9.078125 54.6875 
L 18.109375 54.6875 
L 18.109375 46.390625 
Q 20.953125 51.265625 25.265625 53.625 
Q 29.59375 56 35.59375 56 
Q 45.5625 56 51.78125 48.09375 
Q 58.015625 40.1875 58.015625 27.296875 
Q 58.015625 14.40625 51.78125 6.484375 
Q 45.5625 -1.421875 35.59375 -1.421875 
Q 29.59375 -1.421875 25.265625 0.953125 
Q 20.953125 3.328125 18.109375 8.203125 
M 48.6875 27.296875 
Q 48.6875 37.203125 44.609375 42.84375 
Q 40.53125 48.484375 33.40625 48.484375 
Q 26.265625 48.484375 22.1875 42.84375 
Q 18.109375 37.203125 18.109375 27.296875 
Q 18.109375 17.390625 22.1875 11.75 
Q 26.265625 6.109375 33.40625 6.109375 
Q 40.53125 6.109375 44.609375 11.75 
Q 48.6875 17.390625 48.6875 27.296875 
" id="DejaVuSans-70"/>
     </defs>
     <g transform="translate(16.859531 285.281989)rotate(-90)scale(0.17 -0.17)">
      <use xlink:href="#DejaVuSans-46"/>
      <use x="57.410156" xlink:href="#DejaVuSans-72"/>
      <use x="98.523438" xlink:href="#DejaVuSans-61"/>
      <use x="159.802734" xlink:href="#DejaVuSans-63"/>
      <use x="214.783203" xlink:href="#DejaVuSans-74"/>
      <use x="253.992188" xlink:href="#DejaVuSans-69"/>
      <use x="281.775391" xlink:href="#DejaVuSans-6f"/>
      <use x="342.957031" xlink:href="#DejaVuSans-6e"/>
      <use x="406.335938" xlink:href="#DejaVuSans-20"/>
      <use x="438.123047" xlink:href="#DejaVuSans-6f"/>
      <use x="499.304688" xlink:href="#DejaVuSans-66"/>
      <use x="534.509766" xlink:href="#DejaVuSans-20"/>
      <use x="566.296875" xlink:href="#DejaVuSans-66"/>
      <use x="601.501953" xlink:href="#DejaVuSans-75"/>
      <use x="664.880859" xlink:href="#DejaVuSans-6e"/>
      <use x="728.259766" xlink:href="#DejaVuSans-63"/>
      <use x="783.240234" xlink:href="#DejaVuSans-74"/>
      <use x="822.449219" xlink:href="#DejaVuSans-69"/>
      <use x="850.232422" xlink:href="#DejaVuSans-6f"/>
      <use x="911.414062" xlink:href="#DejaVuSans-6e"/>
      <use x="974.792969" xlink:href="#DejaVuSans-2c"/>
      <use x="1006.580078" xlink:href="#DejaVuSans-74"/>
      <use x="1045.789062" xlink:href="#DejaVuSans-61"/>
      <use x="1107.068359" xlink:href="#DejaVuSans-72"/>
      <use x="1148.166016" xlink:href="#DejaVuSans-67"/>
      <use x="1211.642578" xlink:href="#DejaVuSans-65"/>
      <use x="1273.166016" xlink:href="#DejaVuSans-74"/>
      <use x="1312.375" xlink:href="#DejaVuSans-20"/>
      <use x="1344.162109" xlink:href="#DejaVuSans-70"/>
      <use x="1407.638672" xlink:href="#DejaVuSans-61"/>
      <use x="1468.917969" xlink:href="#DejaVuSans-69"/>
      <use x="1496.701172" xlink:href="#DejaVuSans-72"/>
      <use x="1537.814453" xlink:href="#DejaVuSans-73"/>
     </g>
    </g>
   </g>
   <g id="line2d_45">
    <defs>
     <path d="M 0 1.5 
C 0.397805 1.5 0.77937 1.341951 1.06066 1.06066 
C 1.341951 0.77937 1.5 0.397805 1.5 0 
C 1.5 -0.397805 1.341951 -0.77937 1.06066 -1.06066 
C 0.77937 -1.341951 0.397805 -1.5 0 -1.5 
C -0.397805 -1.5 -0.77937 -1.341951 -1.06066 -1.06066 
C -1.341951 -0.77937 -1.5 -0.397805 -1.5 0 
C -1.5 0.397805 -1.341951 0.77937 -1.06066 1.06066 
C -0.77937 1.341951 -0.397805 1.5 0 1.5 
z
" id="mfb1c77bed0" style="stroke:#f5deb3;"/>
    </defs>
    <g>
     <use style="fill:#f5deb3;stroke:#f5deb3;" x="293.714536" xlink:href="#mfb1c77bed0" y="109.774477"/>
     <use style="fill:#f5deb3;stroke:#f5deb3;" x="293.714536" xlink:href="#mfb1c77bed0" y="109.774477"/>
    </g>
   </g>
   <g id="line2d_46">
    <defs>
     <path d="M 0 1.5 
C 0.397805 1.5 0.77937 1.341951 1.06066 1.06066 
C 1.341951 0.77937 1.5 0.397805 1.5 0 
C 1.5 -0.397805 1.341951 -0.77937 1.06066 -1.06066 
C 0.77937 -1.341951 0.397805 -1.5 0 -1.5 
C -0.397805 -1.5 -0.77937 -1.341951 -1.06066 -1.06066 
C -1.341951 -0.77937 -1.5 -0.397805 -1.5 0 
C -1.5 0.397805 -1.341951 0.77937 -1.06066 1.06066 
C -0.77937 1.341951 -0.397805 1.5 0 1.5 
z
" id="m63685d2da6" style="stroke:#000080;"/>
    </defs>
    <g>
     <use style="fill:#000080;stroke:#000080;" x="317.055926" xlink:href="#m63685d2da6" y="219.176554"/>
     <use style="fill:#000080;stroke:#000080;" x="317.055926" xlink:href="#m63685d2da6" y="219.176554"/>
    </g>
   </g>
   <g id="line2d_47">
    <path d="M -1 286.292884 
L 95.716505 286.292884 
L 95.716505 286.169961 
L 96.156756 286.169961 
L 96.156756 286.047037 
L 106.488164 286.047037 
L 106.488164 285.924113 
L 109.713401 285.924113 
L 109.713401 285.80119 
L 111.687292 285.80119 
L 111.687292 285.678266 
L 112.376896 285.678266 
L 112.376896 285.309495 
L 112.810729 285.309495 
L 112.810729 284.940724 
L 113.282028 284.940724 
L 113.330053 284.449029 
L 113.803054 284.449029 
L 113.803054 284.326105 
L 113.957868 284.326105 
L 114.004042 283.957334 
L 114.444098 283.957334 
L 114.444098 283.834411 
L 114.652569 283.834411 
L 114.652569 283.711487 
L 114.843908 283.711487 
L 114.843908 283.46564 
L 115.560575 283.46564 
L 115.588629 282.973945 
L 115.880457 282.973945 
L 115.880457 282.728098 
L 117.090687 282.728098 
L 117.11635 282.359327 
L 117.396145 282.359327 
L 117.396145 282.236403 
L 117.905717 282.236403 
L 117.930192 281.621784 
L 118.412494 281.621784 
L 118.412494 281.253013 
L 119.326993 281.253013 
L 119.326993 280.761319 
L 119.728101 280.761319 
L 119.728101 280.638395 
L 120.461094 280.638395 
L 120.461094 280.392548 
L 120.587259 280.392548 
L 120.587259 280.269624 
L 122.554666 280.269624 
L 122.554666 280.1467 
L 122.80504 280.1467 
L 122.915156 279.777929 
L 124.636957 279.777929 
L 124.636957 279.532082 
L 124.964773 279.532082 
L 124.964773 279.286234 
L 125.703588 279.286234 
L 125.703588 279.040387 
L 125.81983 279.040387 
L 125.81983 278.917463 
L 126.839318 278.917463 
L 126.839318 278.79454 
L 128.39012 278.79454 
L 128.39012 278.548692 
L 128.614725 278.548692 
L 128.614725 278.302845 
L 128.751998 278.302845 
L 128.751998 278.179921 
L 129.391031 278.179921 
L 129.391031 278.056998 
L 131.982869 278.056998 
L 131.982869 277.934074 
L 132.566178 277.934074 
L 132.566178 277.688227 
L 135.114917 277.688227 
L 135.114917 277.565303 
L 135.991068 277.565303 
L 135.991068 277.442379 
L 136.270656 277.442379 
L 136.270656 277.073608 
L 137.977163 277.073608 
L 137.977163 276.950684 
L 143.8861 276.950684 
L 143.8861 276.827761 
L 147.611728 276.827761 
L 147.611728 276.704837 
L 148.545254 276.704837 
L 148.553474 276.336066 
L 149.831985 276.336066 
L 149.831985 276.213142 
L 150.199923 276.213142 
L 150.199923 276.090219 
L 150.479519 276.090219 
L 150.567452 275.721448 
L 152.293946 275.721448 
L 152.293946 275.598524 
L 154.166036 275.598524 
L 154.166036 275.352677 
L 154.609231 275.352677 
L 154.609231 275.229753 
L 155.184301 275.229753 
L 155.202445 274.492211 
L 159.61829 274.492211 
L 159.721522 274.000516 
L 160.723105 274.000516 
L 160.723105 273.877592 
L 160.937185 273.877592 
L 160.937185 273.754669 
L 161.863616 273.754669 
L 161.863616 273.631745 
L 162.736311 273.631745 
L 162.736311 273.508821 
L 163.86077 273.508821 
L 163.86077 273.14005 
L 164.238214 273.14005 
L 164.238214 273.017127 
L 166.710027 273.017127 
L 166.710027 272.771279 
L 167.230836 272.771279 
L 167.230836 272.279585 
L 167.657481 272.279585 
L 167.657481 272.156661 
L 167.836846 272.156661 
L 167.836846 271.910814 
L 169.233947 271.910814 
L 169.233947 271.78789 
L 170.894993 271.78789 
L 170.894993 271.419119 
L 172.134314 271.419119 
L 172.165503 270.927424 
L 173.918656 270.927424 
L 173.918656 270.8045 
L 174.15524 270.8045 
L 174.15524 270.435729 
L 174.336514 270.435729 
L 174.336514 270.312806 
L 174.554347 270.312806 
L 174.554347 269.944035 
L 174.871344 269.944035 
L 174.871344 269.698187 
L 175.933141 269.698187 
L 175.933141 269.206493 
L 177.974882 269.206493 
L 177.974882 268.960645 
L 178.278757 268.960645 
L 178.278757 268.714798 
L 178.603067 268.714798 
L 178.705211 268.346027 
L 179.026166 268.346027 
L 179.05922 267.731408 
L 179.144864 267.731408 
L 179.144864 267.362637 
L 179.419698 267.362637 
L 179.419698 267.11679 
L 180.234337 267.11679 
L 180.234337 266.625095 
L 182.000906 266.625095 
L 182.049746 266.1334 
L 182.966916 266.1334 
L 182.966916 265.764629 
L 183.197086 265.764629 
L 183.247001 265.272935 
L 183.454645 265.272935 
L 183.454645 265.027087 
L 183.58653 265.027087 
L 183.616679 264.289545 
L 184.986654 264.289545 
L 184.986654 264.043698 
L 185.194348 264.043698 
L 185.194348 263.920774 
L 185.722787 263.920774 
L 185.722787 263.79785 
L 185.930437 263.79785 
L 185.930437 263.429079 
L 187.083782 263.429079 
L 187.083782 263.306156 
L 187.252847 263.306156 
L 187.252847 263.183232 
L 187.593254 263.183232 
L 187.593254 263.060308 
L 188.029596 263.060308 
L 188.029596 262.814461 
L 188.718939 262.814461 
L 188.718939 262.568614 
L 189.163847 262.568614 
L 189.270995 262.199843 
L 189.415171 262.199843 
L 189.522845 261.585224 
L 191.609991 261.585224 
L 191.609991 261.462301 
L 191.727896 261.462301 
L 191.727896 261.339377 
L 191.975072 261.339377 
L 191.975072 261.216453 
L 192.366372 261.216453 
L 192.366372 261.093529 
L 194.538189 261.093529 
L 194.538189 260.847682 
L 194.783639 260.847682 
L 194.783639 260.724758 
L 196.000815 260.724758 
L 196.000815 260.355987 
L 196.283295 260.355987 
L 196.283295 260.11014 
L 196.866008 260.11014 
L 196.866008 259.864293 
L 197.001498 259.864293 
L 197.001498 259.495522 
L 197.273283 259.495522 
L 197.273283 259.372598 
L 198.312205 259.372598 
L 198.312205 259.249674 
L 199.435434 259.249674 
L 199.435434 259.126751 
L 199.580686 259.126751 
L 199.580686 258.880903 
L 200.122109 258.880903 
L 200.122109 258.75798 
L 201.251596 258.75798 
L 201.251596 258.635056 
L 202.297789 258.635056 
L 202.297789 258.266285 
L 203.695277 258.266285 
L 203.74809 257.651666 
L 204.608015 257.651666 
L 204.608015 257.528743 
L 205.264282 257.528743 
L 205.264282 257.405819 
L 205.473325 257.405819 
L 205.473325 257.282895 
L 205.770756 257.282895 
L 205.770756 257.159972 
L 206.031796 257.159972 
L 206.031796 256.791201 
L 206.377376 256.791201 
L 206.377376 256.42243 
L 206.962812 256.42243 
L 206.989411 256.176582 
L 207.455092 256.176582 
L 207.455092 256.053658 
L 207.81177 256.053658 
L 207.81177 255.930735 
L 208.182045 255.930735 
L 208.182045 255.561964 
L 208.75397 255.561964 
L 208.774981 255.316116 
L 210.051783 255.316116 
L 210.051783 255.070269 
L 210.676884 255.070269 
L 210.676884 254.947345 
L 211.656415 254.947345 
L 211.656415 254.824422 
L 212.959319 254.824422 
L 212.959319 254.701498 
L 213.144016 254.701498 
L 213.144016 254.332727 
L 214.320012 254.332727 
L 214.320012 254.209803 
L 214.508926 254.209803 
L 214.508926 253.963956 
L 217.356798 253.963956 
L 217.356798 253.841032 
L 218.083232 253.841032 
L 218.083232 253.718109 
L 219.222954 253.718109 
L 219.222954 253.472261 
L 219.376692 253.472261 
L 219.376692 253.226414 
L 219.579942 253.226414 
L 219.579942 252.980566 
L 220.005473 252.980566 
L 220.005473 252.734719 
L 220.423492 252.734719 
L 220.423492 252.488872 
L 222.696803 252.488872 
L 222.739963 252.120101 
L 223.040401 252.120101 
L 223.040401 251.997177 
L 223.486626 251.997177 
L 223.493446 251.628406 
L 223.65799 251.628406 
L 223.65799 251.382559 
L 223.788746 251.382559 
L 223.788746 251.136711 
L 224.748258 251.136711 
L 224.748258 250.890864 
L 226.886126 250.890864 
L 226.886126 250.76794 
L 227.860579 250.76794 
L 227.860579 250.645016 
L 228.962032 250.645016 
L 228.962032 250.522093 
L 230.252169 250.522093 
L 230.252169 250.153322 
L 231.663678 250.153322 
L 231.663678 249.661627 
L 231.832299 249.661627 
L 231.832299 249.538703 
L 231.96749 249.538703 
L 231.96749 249.41578 
L 233.34778 249.41578 
L 233.34778 249.292856 
L 233.53499 249.292856 
L 233.53499 249.047009 
L 235.543444 249.047009 
L 235.543444 248.924085 
L 235.89193 248.924085 
L 235.89193 248.801161 
L 236.425726 248.801161 
L 236.425726 248.678238 
L 239.696038 248.678238 
L 239.696038 248.43239 
L 241.080286 248.43239 
L 241.080286 248.186543 
L 242.02114 248.186543 
L 242.02114 247.817772 
L 242.589663 247.817772 
L 242.589663 247.694848 
L 242.752421 247.694848 
L 242.752421 246.957306 
L 244.584685 246.957306 
L 244.584685 246.588535 
L 247.694425 246.588535 
L 247.694425 246.342688 
L 251.990958 246.342688 
L 251.990958 245.973917 
L 253.213826 245.973917 
L 253.213826 245.605146 
L 254.84349 245.605146 
L 254.951436 245.236374 
L 254.960015 245.236374 
L 255.063636 244.867603 
L 255.10593 244.867603 
L 255.21698 244.498832 
L 255.259383 244.498832 
L 255.259383 244.375909 
L 255.372745 244.375909 
L 255.452847 243.884214 
L 255.495037 243.884214 
L 255.495037 243.76129 
L 255.621121 243.76129 
L 255.621556 243.146672 
L 256.082258 243.146672 
L 256.082281 242.900824 
L 256.447895 242.900824 
L 256.447895 242.777901 
L 256.573524 242.777901 
L 256.644931 242.163282 
L 257.052364 242.163282 
L 257.157519 241.548664 
L 257.298156 241.548664 
L 257.298247 241.302817 
L 258.760065 241.302817 
L 258.760065 241.179893 
L 258.897768 241.179893 
L 258.904888 240.934046 
L 259.117612 240.934046 
L 259.117612 240.811122 
L 259.41863 240.811122 
L 259.506072 240.442351 
L 259.622235 240.442351 
L 259.698017 240.196503 
L 260.36062 240.196503 
L 260.36062 240.07358 
L 260.97262 240.07358 
L 260.97262 239.950656 
L 261.273333 239.950656 
L 261.273605 239.704809 
L 261.46088 239.704809 
L 261.46088 239.336038 
L 261.710694 239.336038 
L 261.710694 239.213114 
L 261.969239 239.213114 
L 261.969239 239.09019 
L 262.151644 239.09019 
L 262.151644 238.967267 
L 263.335263 238.967267 
L 263.335263 238.844343 
L 265.575666 238.844343 
L 265.611886 238.475572 
L 266.575147 238.475572 
L 266.667545 237.860954 
L 266.703415 237.860954 
L 266.786435 237.369259 
L 266.845431 237.369259 
L 266.867793 236.631717 
L 266.972238 236.631717 
L 266.997328 236.262946 
L 267.21182 236.262946 
L 267.211852 236.017098 
L 267.508409 236.017098 
L 267.508441 235.771251 
L 267.85334 235.771251 
L 267.85855 235.40248 
L 268.741736 235.40248 
L 268.765614 235.156633 
L 268.865891 235.156633 
L 268.865912 234.910785 
L 269.197309 234.910785 
L 269.197309 234.787861 
L 269.58141 234.787861 
L 269.58141 234.664938 
L 270.120941 234.664938 
L 270.120947 234.41909 
L 270.232989 234.41909 
L 270.232997 234.173243 
L 270.539768 234.173243 
L 270.539768 234.050319 
L 272.56843 234.050319 
L 272.56843 233.927396 
L 273.479826 233.927396 
L 273.584037 232.944006 
L 273.597937 232.944006 
L 273.688144 232.698159 
L 273.763217 232.698159 
L 273.763217 232.575235 
L 274.348778 232.575235 
L 274.348835 232.329388 
L 274.575336 232.329388 
L 274.575336 232.206464 
L 274.961582 232.206464 
L 275.04542 231.837693 
L 275.930428 231.837693 
L 275.930671 231.345998 
L 276.83898 231.345998 
L 276.838988 231.100151 
L 277.895729 231.100151 
L 277.895729 230.977227 
L 278.40238 230.977227 
L 278.479439 230.485533 
L 278.538297 230.485533 
L 278.538297 230.362609 
L 278.713483 230.362609 
L 278.713483 230.239685 
L 279.047483 230.239685 
L 279.143535 229.74799 
L 279.220044 229.74799 
L 279.220044 229.625067 
L 279.758278 229.625067 
L 279.758278 229.502143 
L 279.966942 229.502143 
L 279.966942 229.379219 
L 280.973519 229.379219 
L 280.973528 229.133372 
L 281.662061 229.133372 
L 281.662164 228.887525 
L 282.375907 228.887525 
L 282.463753 228.641677 
L 282.700835 228.641677 
L 282.700835 228.518754 
L 282.872087 228.518754 
L 282.872087 228.39583 
L 283.163505 228.39583 
L 283.163505 228.272906 
L 283.720489 228.272906 
L 283.720605 228.027059 
L 284.303096 228.027059 
L 284.303096 227.904135 
L 285.361056 227.904135 
L 285.368281 227.658288 
L 285.629266 227.658288 
L 285.642369 227.412441 
L 285.86228 227.412441 
L 285.86228 227.289517 
L 286.392061 227.289517 
L 286.392064 227.043669 
L 286.596632 227.043669 
L 286.59664 226.797822 
L 287.090707 226.797822 
L 287.090707 226.674898 
L 287.575842 226.674898 
L 287.575842 226.551975 
L 288.006928 226.551975 
L 288.077109 225.814433 
L 288.882307 225.814433 
L 288.882307 225.691509 
L 289.488244 225.691509 
L 289.488244 225.568585 
L 289.91092 225.568585 
L 289.91092 225.445662 
L 290.287802 225.445662 
L 290.355802 224.831043 
L 290.580913 224.831043 
L 290.669274 224.462272 
L 290.902635 224.462272 
L 290.902635 224.339348 
L 291.212732 224.339348 
L 291.212732 224.216425 
L 291.591676 224.216425 
L 291.591676 224.093501 
L 291.966155 224.093501 
L 291.966155 223.970577 
L 292.290966 223.970577 
L 292.290966 223.847654 
L 292.561834 223.847654 
L 292.561834 223.72473 
L 293.125797 223.72473 
L 293.125797 223.601806 
L 294.097971 223.601806 
L 294.102573 223.355959 
L 294.337653 223.355959 
L 294.337661 223.110112 
L 294.720965 223.110112 
L 294.720965 222.987188 
L 295.728759 222.987188 
L 295.732965 222.618417 
L 295.946885 222.618417 
L 296.011581 222.249646 
L 297.221887 222.249646 
L 297.221887 222.126722 
L 297.844986 222.126722 
L 297.844986 222.003799 
L 298.633851 222.003799 
L 298.633851 221.880875 
L 298.8281 221.880875 
L 298.8281 221.757951 
L 299.069981 221.757951 
L 299.069981 221.635027 
L 299.895799 221.635027 
L 299.895799 221.512104 
L 300.029091 221.512104 
L 300.080129 221.266256 
L 300.396338 221.266256 
L 300.396338 221.143333 
L 300.841465 221.143333 
L 300.841465 221.020409 
L 301.247001 221.020409 
L 301.247001 220.897485 
L 303.36683 220.897485 
L 303.36683 220.774562 
L 304.448044 220.774562 
L 304.448044 220.651638 
L 305.091359 220.651638 
L 305.119979 220.405791 
L 305.997466 220.405791 
L 305.997466 220.282867 
L 307.165681 220.282867 
L 307.165681 220.159943 
L 307.71112 220.159943 
L 307.71112 220.03702 
L 308.637725 220.03702 
L 308.637725 219.914096 
L 311.134317 219.914096 
L 311.134317 219.791172 
L 311.961685 219.791172 
L 311.961685 219.668249 
L 312.920683 219.668249 
L 312.920683 219.545325 
L 314.044318 219.545325 
L 314.044318 219.422401 
L 316.113109 219.422401 
L 316.113109 219.299478 
L 317.055926 219.299478 
L 317.055926 219.176554 
L 333.569032 219.176554 
L 333.569032 219.176554 
" style="fill:none;stroke:#000080;stroke-linecap:square;stroke-width:1.5;"/>
   </g>
   <g id="line2d_48">
    <defs>
     <path d="M 0 6 
C 1.591219 6 3.117479 5.367802 4.242641 4.242641 
C 5.367802 3.117479 6 1.591219 6 0 
C 6 -1.591219 5.367802 -3.117479 4.242641 -4.242641 
C 3.117479 -5.367802 1.591219 -6 0 -6 
C -1.591219 -6 -3.117479 -5.367802 -4.242641 -4.242641 
C -5.367802 -3.117479 -6 -1.591219 -6 0 
C -6 1.591219 -5.367802 3.117479 -4.242641 4.242641 
C -3.117479 5.367802 -1.591219 6 0 6 
z
" id="m5d224e89a4" style="stroke:#000080;stroke-width:1.5;"/>
    </defs>
    <g>
     <use style="fill:none;stroke:#000080;stroke-width:1.5;" x="170.894993" xlink:href="#m5d224e89a4" y="271.78789"/>
     <use style="fill:none;stroke:#000080;stroke-width:1.5;" x="224.748258" xlink:href="#m5d224e89a4" y="250.890864"/>
     <use style="fill:none;stroke:#000080;stroke-width:1.5;" x="303.36683" xlink:href="#m5d224e89a4" y="220.774562"/>
     <use style="fill:none;stroke:#000080;stroke-width:1.5;" x="317.055926" xlink:href="#m5d224e89a4" y="219.176554"/>
     <use style="fill:none;stroke:#000080;stroke-width:1.5;" x="333.569032" xlink:href="#m5d224e89a4" y="219.176554"/>
    </g>
   </g>
   <g id="line2d_49">
    <path style="fill:none;stroke:#000080;stroke-linecap:square;stroke-width:1.5;"/>
    <g/>
   </g>
   <g id="line2d_50">
    <path clip-path="url(#p2f28748f8d)" d="M 254.504122 245.605146 
" style="fill:none;stroke:#000080;stroke-linecap:square;stroke-width:1.5;"/>
    <defs>
     <path d="M -12 12 
L 12 -12 
M -12 -12 
L 12 12 
" id="m4405b08973" style="stroke:#000080;stroke-width:3;"/>
    </defs>
    <g clip-path="url(#p2f28748f8d)">
     <use style="fill:#000080;stroke:#000080;stroke-width:3;" x="254.504122" xlink:href="#m4405b08973" y="245.605146"/>
    </g>
   </g>
   <g id="line2d_51">
    <defs>
     <path d="M 0 1.5 
C 0.397805 1.5 0.77937 1.341951 1.06066 1.06066 
C 1.341951 0.77937 1.5 0.397805 1.5 0 
C 1.5 -0.397805 1.341951 -0.77937 1.06066 -1.06066 
C 0.77937 -1.341951 0.397805 -1.5 0 -1.5 
C -0.397805 -1.5 -0.77937 -1.341951 -1.06066 -1.06066 
C -1.341951 -0.77937 -1.5 -0.397805 -1.5 0 
C -1.5 0.397805 -1.341951 0.77937 -1.06066 1.06066 
C -0.77937 1.341951 -0.397805 1.5 0 1.5 
z
" id="m5d98035827" style="stroke:#ff00ff;"/>
    </defs>
    <g>
     <use style="fill:#ff00ff;stroke:#ff00ff;" x="354.898758" xlink:href="#m5d98035827" y="275.721448"/>
     <use style="fill:#ff00ff;stroke:#ff00ff;" x="354.898758" xlink:href="#m5d98035827" y="275.721448"/>
    </g>
   </g>
   <g id="line2d_52">
    <path d="M -1 293.053687 
L 5.406747 293.053687 
L 5.406747 292.807839 
L 12.368113 292.807839 
L 12.368113 292.316145 
L 17.307281 292.316145 
L 17.307281 291.947374 
L 33.038932 291.947374 
L 33.038932 291.82445 
L 36.169182 291.82445 
L 36.169182 291.455679 
L 37.543422 291.455679 
L 37.543422 291.209832 
L 47.339016 291.209832 
L 47.339016 291.086908 
L 63.512807 291.086908 
L 63.512807 290.963984 
L 64.36433 290.963984 
L 64.36433 290.841061 
L 67.632483 290.841061 
L 67.632483 290.718137 
L 68.953814 290.718137 
L 68.953814 290.595213 
L 77.596449 290.595213 
L 77.596449 290.349366 
L 84.727805 290.349366 
L 84.727805 290.226442 
L 98.622322 290.226442 
L 98.622322 290.103518 
L 101.902519 290.103518 
L 101.902519 289.980595 
L 105.906935 289.980595 
L 105.906935 289.734747 
L 121.11335 289.734747 
L 121.11335 289.611824 
L 131.334289 289.611824 
L 131.334289 289.243053 
L 131.890927 289.243053 
L 131.890927 288.997205 
L 132.143929 288.997205 
L 132.143929 288.874282 
L 135.2001 288.874282 
L 135.2001 288.751358 
L 137.537901 288.751358 
L 137.537901 288.628434 
L 143.894188 288.628434 
L 143.894188 288.505511 
L 149.487152 288.505511 
L 149.487152 288.259663 
L 151.804524 288.259663 
L 151.804524 288.013816 
L 153.047214 288.013816 
L 153.047214 287.767969 
L 158.334322 287.767969 
L 158.334322 287.522121 
L 158.963112 287.522121 
L 158.963112 287.399197 
L 166.300564 287.399197 
L 166.300564 287.15335 
L 178.505698 287.15335 
L 178.505698 287.030426 
L 185.633663 287.030426 
L 185.633663 286.907503 
L 186.661058 286.907503 
L 186.661058 286.538732 
L 187.066784 286.538732 
L 187.066784 286.415808 
L 187.493157 286.415808 
L 187.493157 286.169961 
L 188.399934 286.169961 
L 188.399934 286.047037 
L 189.900391 286.047037 
L 189.900391 285.924113 
L 198.522591 285.924113 
L 198.522591 285.678266 
L 200.014135 285.678266 
L 200.014135 285.432419 
L 202.438013 285.432419 
L 202.438013 285.186571 
L 202.90195 285.186571 
L 202.90195 285.063648 
L 207.414548 285.063648 
L 207.414548 284.940724 
L 207.993556 284.940724 
L 207.993556 284.694876 
L 209.283263 284.694876 
L 209.283263 284.571953 
L 211.076709 284.571953 
L 211.076709 284.449029 
L 214.115106 284.449029 
L 214.115106 284.326105 
L 216.055143 284.326105 
L 216.055143 284.203182 
L 220.11127 284.203182 
L 220.11127 283.957334 
L 225.053881 283.957334 
L 225.053881 283.834411 
L 229.537462 283.834411 
L 229.537462 283.711487 
L 238.80976 283.711487 
L 238.80976 283.342716 
L 241.006838 283.342716 
L 241.006838 283.219792 
L 245.021904 283.219792 
L 245.069075 282.973945 
L 250.32636 282.973945 
L 250.32636 282.851021 
L 250.504867 282.851021 
L 250.504867 282.605174 
L 257.346064 282.605174 
L 257.346064 282.359327 
L 258.636137 282.359327 
L 258.636137 281.990555 
L 261.668723 281.990555 
L 261.668723 281.621784 
L 265.12899 281.621784 
L 265.12899 281.498861 
L 269.265089 281.498861 
L 269.265089 281.375937 
L 281.284371 281.375937 
L 281.284371 281.253013 
L 281.815222 281.253013 
L 281.815222 281.13009 
L 284.430555 281.13009 
L 284.430555 281.007166 
L 286.306046 281.007166 
L 286.306046 280.884242 
L 286.892758 280.884242 
L 286.892758 280.761319 
L 288.387301 280.761319 
L 288.387301 280.392548 
L 288.500762 280.392548 
L 288.500762 280.269624 
L 293.196446 280.269624 
L 293.196446 280.1467 
L 294.038178 280.1467 
L 294.038178 280.023777 
L 294.218952 280.023777 
L 294.218952 279.900853 
L 294.872177 279.900853 
L 294.872177 279.777929 
L 295.040531 279.777929 
L 295.040531 279.655005 
L 295.908461 279.655005 
L 295.908461 279.532082 
L 297.30828 279.532082 
L 297.30828 279.286234 
L 300.718542 279.286234 
L 300.718542 279.163311 
L 300.891491 279.163311 
L 300.891491 279.040387 
L 302.503157 279.040387 
L 302.503157 278.917463 
L 303.343635 278.917463 
L 303.391208 278.671616 
L 306.446298 278.671616 
L 306.446298 278.548692 
L 306.898427 278.548692 
L 306.898427 278.425769 
L 307.650658 278.425769 
L 307.650658 278.302845 
L 307.853919 278.302845 
L 307.853919 278.179921 
L 311.243723 278.179921 
L 311.243723 278.056998 
L 313.028563 278.056998 
L 313.028563 277.934074 
L 313.239521 277.934074 
L 313.239521 277.688227 
L 313.617707 277.688227 
L 313.617707 277.319456 
L 316.206234 277.319456 
L 316.206234 277.196532 
L 316.611699 277.196532 
L 316.611699 277.073608 
L 317.631235 277.073608 
L 317.631235 276.950684 
L 320.376213 276.950684 
L 320.376213 276.827761 
L 321.874096 276.827761 
L 321.874096 276.704837 
L 325.162263 276.704837 
L 325.162263 276.581913 
L 327.592443 276.581913 
L 327.592443 276.45899 
L 333.569032 276.45899 
L 333.569032 276.45899 
" style="fill:none;stroke:#ff00ff;stroke-linecap:square;stroke-width:1.5;"/>
   </g>
   <g id="line2d_53">
    <defs>
     <path d="M -0 8.485281 
L 5.091169 0 
L 0 -8.485281 
L -5.091169 -0 
z
" id="mf60cf4f81b" style="stroke:#ff00ff;stroke-linejoin:miter;stroke-width:1.5;"/>
    </defs>
    <g>
     <use style="fill:none;stroke:#ff00ff;stroke-linejoin:miter;stroke-width:1.5;" x="105.906935" xlink:href="#mf60cf4f81b" y="289.734747"/>
     <use style="fill:none;stroke:#ff00ff;stroke-linejoin:miter;stroke-width:1.5;" x="189.900391" xlink:href="#mf60cf4f81b" y="286.047037"/>
     <use style="fill:none;stroke:#ff00ff;stroke-linejoin:miter;stroke-width:1.5;" x="261.668723" xlink:href="#mf60cf4f81b" y="281.621784"/>
     <use style="fill:none;stroke:#ff00ff;stroke-linejoin:miter;stroke-width:1.5;" x="327.592443" xlink:href="#mf60cf4f81b" y="276.45899"/>
     <use style="fill:none;stroke:#ff00ff;stroke-linejoin:miter;stroke-width:1.5;" x="333.569032" xlink:href="#mf60cf4f81b" y="276.45899"/>
    </g>
   </g>
   <g id="line2d_54">
    <path style="fill:none;stroke:#ff00ff;stroke-linecap:square;stroke-width:1.5;"/>
    <g/>
   </g>
   <g id="line2d_55">
    <path clip-path="url(#p2f28748f8d)" d="M 294.036313 280.1467 
" style="fill:none;stroke:#ff00ff;stroke-linecap:square;stroke-width:1.5;"/>
    <defs>
     <path d="M -12 12 
L 12 -12 
M -12 -12 
L 12 12 
" id="m8129d3c33b" style="stroke:#ff00ff;stroke-width:3;"/>
    </defs>
    <g clip-path="url(#p2f28748f8d)">
     <use style="fill:#ff00ff;stroke:#ff00ff;stroke-width:3;" x="294.036313" xlink:href="#m8129d3c33b" y="280.1467"/>
    </g>
   </g>
   <g id="line2d_56">
    <defs>
     <path d="M 0 1.5 
C 0.397805 1.5 0.77937 1.341951 1.06066 1.06066 
C 1.341951 0.77937 1.5 0.397805 1.5 0 
C 1.5 -0.397805 1.341951 -0.77937 1.06066 -1.06066 
C 0.77937 -1.341951 0.397805 -1.5 0 -1.5 
C -0.397805 -1.5 -0.77937 -1.341951 -1.06066 -1.06066 
C -1.341951 -0.77937 -1.5 -0.397805 -1.5 0 
C -1.5 0.397805 -1.341951 0.77937 -1.06066 1.06066 
C -0.77937 1.341951 -0.397805 1.5 0 1.5 
z
" id="m80fff42f83" style="stroke:#6495ed;"/>
    </defs>
    <g>
     <use style="fill:#6495ed;stroke:#6495ed;" x="213.898635" xlink:href="#m80fff42f83" y="240.07358"/>
     <use style="fill:#6495ed;stroke:#6495ed;" x="213.898635" xlink:href="#m80fff42f83" y="240.07358"/>
    </g>
   </g>
   <g id="line2d_57">
    <path d="M -1 281.867632 
L 74.208016 281.867632 
L 74.208016 281.621784 
L 88.910514 281.621784 
L 88.910514 280.761319 
L 96.329743 280.761319 
L 96.329743 280.638395 
L 97.812867 280.638395 
L 97.85229 280.1467 
L 98.009084 280.1467 
L 98.009084 280.023777 
L 98.318441 280.023777 
L 98.318441 279.900853 
L 102.483533 279.900853 
L 102.483533 279.777929 
L 103.476566 279.777929 
L 103.476566 279.532082 
L 104.495706 279.532082 
L 104.495706 279.163311 
L 105.708735 279.163311 
L 105.708735 278.917463 
L 106.127208 278.917463 
L 106.127208 278.79454 
L 107.617039 278.79454 
L 107.617039 278.548692 
L 107.970138 278.548692 
L 107.970138 278.425769 
L 109.028972 278.425769 
L 109.069997 278.056998 
L 109.574702 278.056998 
L 109.574702 277.934074 
L 110.084317 277.934074 
L 110.103619 277.688227 
L 110.218975 277.688227 
L 110.218975 277.565303 
L 111.205641 277.565303 
L 111.205641 277.319456 
L 111.80999 277.319456 
L 111.80999 277.073608 
L 112.275205 277.073608 
L 112.275205 276.950684 
L 112.711582 276.950684 
L 112.711582 276.704837 
L 114.323826 276.704837 
L 114.323826 276.336066 
L 114.799942 276.336066 
L 114.873157 275.721448 
L 115.50433 275.721448 
L 115.50433 275.598524 
L 115.852877 275.598524 
L 115.852877 275.4756 
L 116.462967 275.4756 
L 116.462967 275.352677 
L 117.064985 275.352677 
L 117.064985 275.229753 
L 117.358259 275.229753 
L 117.358259 274.983906 
L 118.471841 274.983906 
L 118.471841 274.738058 
L 119.650838 274.738058 
L 119.650838 274.615135 
L 119.837876 274.615135 
L 119.837876 274.492211 
L 120.001235 274.492211 
L 120.001235 274.246363 
L 120.587259 274.246363 
L 120.587259 274.12344 
L 121.584308 274.12344 
L 121.692691 273.631745 
L 121.722132 273.631745 
L 121.800395 273.14005 
L 121.965528 273.14005 
L 122.023433 272.525432 
L 122.15779 272.525432 
L 122.15779 272.279585 
L 123.160364 272.279585 
L 123.160364 271.542042 
L 124.004904 271.542042 
L 124.022064 271.173271 
L 124.175739 271.173271 
L 124.252064 270.927424 
L 124.545699 270.927424 
L 124.545699 270.8045 
L 124.883404 270.8045 
L 124.883404 270.681577 
L 125.711362 270.681577 
L 125.711362 270.558653 
L 127.142306 270.558653 
L 127.192288 270.066958 
L 127.447065 270.066958 
L 127.447065 269.944035 
L 128.396768 269.944035 
L 128.396768 269.698187 
L 129.080876 269.698187 
L 129.119156 269.45234 
L 129.378481 269.45234 
L 129.378481 269.329416 
L 129.516032 269.329416 
L 129.516032 269.206493 
L 130.384219 269.206493 
L 130.484571 268.714798 
L 130.648587 268.714798 
L 130.648587 268.591874 
L 130.851428 268.591874 
L 130.851428 268.46895 
L 130.96627 268.46895 
L 130.96627 268.223103 
L 131.300646 268.223103 
L 131.300646 268.100179 
L 131.457083 268.100179 
L 131.457083 267.854332 
L 131.842051 267.854332 
L 131.842051 267.608485 
L 132.015202 267.608485 
L 132.015202 267.239714 
L 132.298197 267.239714 
L 132.298197 267.11679 
L 132.451091 267.11679 
L 132.451091 266.748019 
L 132.835174 266.748019 
L 132.835174 266.625095 
L 133.54897 266.625095 
L 133.54897 266.502171 
L 133.725313 266.502171 
L 133.725313 266.1334 
L 133.986478 266.1334 
L 133.986478 266.010477 
L 134.852239 266.010477 
L 134.852239 265.764629 
L 135.150835 265.764629 
L 135.159803 265.395858 
L 135.289312 265.395858 
L 135.324867 265.027087 
L 135.619789 265.027087 
L 135.702509 264.658316 
L 136.182189 264.658316 
L 136.182189 264.412469 
L 137.022876 264.412469 
L 137.022876 264.289545 
L 137.396818 264.289545 
L 137.467504 263.674927 
L 137.635197 263.674927 
L 137.635197 263.429079 
L 137.774342 263.429079 
L 137.881791 262.691537 
L 137.996174 262.691537 
L 137.996174 262.568614 
L 138.304988 262.568614 
L 138.304988 262.44569 
L 138.637657 262.44569 
L 138.637657 262.322766 
L 138.859522 262.322766 
L 138.859522 262.199843 
L 139.146213 262.199843 
L 139.231295 261.585224 
L 139.322995 261.585224 
L 139.322995 261.462301 
L 139.920983 261.462301 
L 139.920983 261.216453 
L 140.254043 261.216453 
L 140.254043 260.970606 
L 140.551318 260.970606 
L 140.551318 260.11014 
L 140.77256 260.11014 
L 140.77256 259.618445 
L 140.943044 259.618445 
L 140.962238 259.372598 
L 141.992181 259.372598 
L 142.103229 259.003827 
L 142.168918 259.003827 
L 142.168918 258.512132 
L 142.399813 258.512132 
L 142.399813 258.143361 
L 142.589881 258.143361 
L 142.589881 257.528743 
L 142.921086 257.528743 
L 142.921086 257.282895 
L 143.085736 257.282895 
L 143.195567 256.914124 
L 143.346491 256.914124 
L 143.346491 256.545353 
L 144.073827 256.545353 
L 144.073827 256.42243 
L 145.098828 256.42243 
L 145.098828 256.299506 
L 145.268843 256.299506 
L 145.268843 256.053658 
L 145.812454 256.053658 
L 145.812454 255.930735 
L 146.743643 255.930735 
L 146.834725 255.684887 
L 147.022191 255.684887 
L 147.022191 255.070269 
L 147.470061 255.070269 
L 147.470061 254.947345 
L 148.072161 254.947345 
L 148.072161 254.701498 
L 148.18589 254.701498 
L 148.18589 254.578574 
L 148.404897 254.578574 
L 148.499969 254.209803 
L 148.539085 254.209803 
L 148.539085 253.718109 
L 148.694664 253.718109 
L 148.694664 253.595185 
L 148.854904 253.595185 
L 148.854904 253.472261 
L 149.170965 253.472261 
L 149.170965 253.10349 
L 149.630549 253.10349 
L 149.630549 252.857643 
L 150.451947 252.857643 
L 150.451947 252.734719 
L 150.618539 252.734719 
L 150.618539 252.488872 
L 151.020073 252.488872 
L 151.020073 252.365948 
L 151.945065 252.365948 
L 151.945065 251.997177 
L 152.819556 251.997177 
L 152.819556 251.628406 
L 156.950296 251.628406 
L 156.950296 251.505482 
L 158.229392 251.505482 
L 158.229392 251.382559 
L 158.342457 251.382559 
L 158.342457 251.259635 
L 158.909242 251.259635 
L 159.01458 251.013788 
L 159.026864 251.013788 
L 159.026864 250.890864 
L 159.436125 250.890864 
L 159.495975 250.522093 
L 159.668908 250.522093 
L 159.668908 250.399169 
L 159.831597 250.399169 
L 159.831597 250.276245 
L 160.572768 250.276245 
L 160.572768 250.153322 
L 160.832991 250.153322 
L 160.832991 250.030398 
L 161.092299 250.030398 
L 161.092299 249.907474 
L 161.353599 249.907474 
L 161.353599 249.661627 
L 161.758248 249.661627 
L 161.758248 249.41578 
L 162.242676 249.41578 
L 162.242676 249.292856 
L 162.44696 249.292856 
L 162.44696 249.169932 
L 162.832284 249.169932 
L 162.832284 249.047009 
L 163.741574 249.047009 
L 163.829572 248.555314 
L 167.102282 248.555314 
L 167.105769 248.309467 
L 167.832167 248.309467 
L 167.832167 248.186543 
L 167.976615 248.186543 
L 167.976615 248.063619 
L 168.62445 248.063619 
L 168.730719 247.817772 
L 169.012594 247.817772 
L 169.012594 247.694848 
L 169.154291 247.694848 
L 169.158004 247.449001 
L 169.333459 247.449001 
L 169.334684 247.203153 
L 169.878413 247.203153 
L 169.902131 246.834382 
L 170.307928 246.834382 
L 170.307928 246.711459 
L 170.492692 246.711459 
L 170.492692 246.588535 
L 170.914555 246.588535 
L 170.914555 246.465611 
L 171.155296 246.465611 
L 171.155296 246.342688 
L 171.603284 246.342688 
L 171.61455 246.09684 
L 174.485521 246.09684 
L 174.485521 245.973917 
L 174.857586 245.973917 
L 174.961607 245.728069 
L 175.372791 245.728069 
L 175.372791 245.605146 
L 175.698428 245.605146 
L 175.698428 245.482222 
L 175.820174 245.482222 
L 175.820174 245.359298 
L 175.963973 245.359298 
L 176.02713 245.113451 
L 176.339479 245.113451 
L 176.339479 244.990527 
L 176.847887 244.990527 
L 176.847887 244.867603 
L 178.906641 244.867603 
L 178.923467 244.375909 
L 179.124792 244.375909 
L 179.124792 244.130061 
L 179.30529 244.130061 
L 179.30529 244.007138 
L 179.530982 244.007138 
L 179.530982 243.884214 
L 179.710962 243.884214 
L 179.710962 243.76129 
L 180.277132 243.76129 
L 180.277132 243.638367 
L 180.541253 243.638367 
L 180.541253 243.515443 
L 182.120855 243.515443 
L 182.121146 243.269596 
L 182.529797 243.269596 
L 182.609694 243.023748 
L 183.082249 243.023748 
L 183.082249 242.900824 
L 183.701768 242.900824 
L 183.701768 242.777901 
L 185.844026 242.777901 
L 185.844026 242.654977 
L 185.95674 242.654977 
L 185.95674 242.532053 
L 186.190302 242.532053 
L 186.211858 242.040359 
L 187.61333 242.040359 
L 187.61333 241.917435 
L 188.528168 241.917435 
L 188.537577 241.548664 
L 189.675985 241.548664 
L 189.675985 241.42574 
L 190.328153 241.42574 
L 190.328153 241.302817 
L 195.167543 241.302817 
L 195.167543 241.179893 
L 195.60575 241.179893 
L 195.60575 241.056969 
L 196.381418 241.056969 
L 196.381418 240.934046 
L 196.997219 240.934046 
L 196.997219 240.811122 
L 197.715503 240.811122 
L 197.715503 240.688198 
L 198.28001 240.688198 
L 198.28001 240.565275 
L 199.378265 240.565275 
L 199.378265 240.442351 
L 201.182648 240.442351 
L 201.182648 240.319427 
L 202.201077 240.319427 
L 202.201077 240.196503 
L 213.898635 240.196503 
L 213.898635 240.07358 
L 333.569032 240.07358 
L 333.569032 240.07358 
" style="fill:none;stroke:#6495ed;stroke-linecap:square;stroke-width:1.5;"/>
   </g>
   <g id="line2d_58">
    <defs>
     <path d="M -0 6 
L 6 -6 
L -6 -6 
z
" id="mee240ef8dd" style="stroke:#6495ed;stroke-linejoin:miter;stroke-width:1.5;"/>
    </defs>
    <g>
     <use style="fill:none;stroke:#6495ed;stroke-linejoin:miter;stroke-width:1.5;" x="98.318441" xlink:href="#mee240ef8dd" y="280.023777"/>
     <use style="fill:none;stroke:#6495ed;stroke-linejoin:miter;stroke-width:1.5;" x="159.026864" xlink:href="#mee240ef8dd" y="250.890864"/>
     <use style="fill:none;stroke:#6495ed;stroke-linejoin:miter;stroke-width:1.5;" x="213.898635" xlink:href="#mee240ef8dd" y="240.196503"/>
     <use style="fill:none;stroke:#6495ed;stroke-linejoin:miter;stroke-width:1.5;" x="213.898635" xlink:href="#mee240ef8dd" y="240.07358"/>
     <use style="fill:none;stroke:#6495ed;stroke-linejoin:miter;stroke-width:1.5;" x="213.898635" xlink:href="#mee240ef8dd" y="240.07358"/>
     <use style="fill:none;stroke:#6495ed;stroke-linejoin:miter;stroke-width:1.5;" x="333.569032" xlink:href="#mee240ef8dd" y="240.07358"/>
    </g>
   </g>
   <g id="line2d_59">
    <path style="fill:none;stroke:#6495ed;stroke-linecap:square;stroke-width:1.5;"/>
    <g/>
   </g>
   <g id="line2d_60">
    <path clip-path="url(#p2f28748f8d)" d="M 153.143416 251.628406 
" style="fill:none;stroke:#6495ed;stroke-linecap:square;stroke-width:1.5;"/>
    <defs>
     <path d="M -12 12 
L 12 -12 
M -12 -12 
L 12 12 
" id="m3314f07d56" style="stroke:#6495ed;stroke-width:3;"/>
    </defs>
    <g clip-path="url(#p2f28748f8d)">
     <use style="fill:#6495ed;stroke:#6495ed;stroke-width:3;" x="153.143416" xlink:href="#m3314f07d56" y="251.628406"/>
    </g>
   </g>
   <g id="line2d_61">
    <path d="M 333.569032 276.45899 
L 364.009226 288.456341 
" style="fill:none;stroke:#ff00ff;stroke-linecap:square;stroke-width:1.5;"/>
    <g>
     <use style="fill:none;stroke:#ff00ff;stroke-linejoin:miter;stroke-width:1.5;" x="333.569032" xlink:href="#mf60cf4f81b" y="276.45899"/>
     <use style="fill:none;stroke:#ff00ff;stroke-linejoin:miter;stroke-width:1.5;" x="364.009226" xlink:href="#mf60cf4f81b" y="288.456341"/>
    </g>
   </g>
   <g id="line2d_62">
    <path d="M 333.569032 240.07358 
L 364.009226 197.197799 
" style="fill:none;stroke:#6495ed;stroke-linecap:square;stroke-width:1.5;"/>
    <g>
     <use style="fill:none;stroke:#6495ed;stroke-linejoin:miter;stroke-width:1.5;" x="333.569032" xlink:href="#mee240ef8dd" y="240.07358"/>
     <use style="fill:none;stroke:#6495ed;stroke-linejoin:miter;stroke-width:1.5;" x="364.009226" xlink:href="#mee240ef8dd" y="197.197799"/>
    </g>
   </g>
   <g id="line2d_63">
    <path d="M 333.569032 219.176554 
L 364.009226 105.939258 
" style="fill:none;stroke:#000080;stroke-linecap:square;stroke-width:1.5;"/>
    <g>
     <use style="fill:none;stroke:#000080;stroke-width:1.5;" x="333.569032" xlink:href="#m5d224e89a4" y="219.176554"/>
     <use style="fill:none;stroke:#000080;stroke-width:1.5;" x="364.009226" xlink:href="#m5d224e89a4" y="105.939258"/>
    </g>
   </g>
   <g id="line2d_64">
    <path d="M 333.569032 294.16 
L 333.569032 8.977057 
" style="fill:none;stroke:#000000;stroke-linecap:square;stroke-width:1.5;"/>
   </g>
   <g id="patch_3">
    <path d="M 56.84 294.16 
L 56.84 6.125228 
" style="fill:none;stroke:#000000;stroke-linecap:square;stroke-linejoin:miter;stroke-width:0.8;"/>
   </g>
   <g id="patch_4">
    <path d="M 399.984 294.16 
L 399.984 6.125228 
" style="fill:none;stroke:#000000;stroke-linecap:square;stroke-linejoin:miter;stroke-width:0.8;"/>
   </g>
   <g id="patch_5">
    <path d="M 56.84 294.16 
L 399.984 294.16 
" style="fill:none;stroke:#000000;stroke-linecap:square;stroke-linejoin:miter;stroke-width:0.8;"/>
   </g>
   <g id="patch_6">
    <path d="M 56.84 6.125228 
L 399.984 6.125228 
" style="fill:none;stroke:#000000;stroke-linecap:square;stroke-linejoin:miter;stroke-width:0.8;"/>
   </g>
   <g id="text_14">
    <!-- RANDOMSEA -->
    <defs>
     <path d="M 44.390625 34.1875 
Q 47.5625 33.109375 50.5625 29.59375 
Q 53.5625 26.078125 56.59375 19.921875 
L 66.609375 0 
L 56 0 
L 46.6875 18.703125 
Q 43.0625 26.03125 39.671875 28.421875 
Q 36.28125 30.8125 30.421875 30.8125 
L 19.671875 30.8125 
L 19.671875 0 
L 9.8125 0 
L 9.8125 72.90625 
L 32.078125 72.90625 
Q 44.578125 72.90625 50.734375 67.671875 
Q 56.890625 62.453125 56.890625 51.90625 
Q 56.890625 45.015625 53.6875 40.46875 
Q 50.484375 35.9375 44.390625 34.1875 
M 19.671875 64.796875 
L 19.671875 38.921875 
L 32.078125 38.921875 
Q 39.203125 38.921875 42.84375 42.21875 
Q 46.484375 45.515625 46.484375 51.90625 
Q 46.484375 58.296875 42.84375 61.546875 
Q 39.203125 64.796875 32.078125 64.796875 
z
" id="DejaVuSans-52"/>
     <path d="M 34.1875 63.1875 
L 20.796875 26.90625 
L 47.609375 26.90625 
z
M 28.609375 72.90625 
L 39.796875 72.90625 
L 67.578125 0 
L 57.328125 0 
L 50.6875 18.703125 
L 17.828125 18.703125 
L 11.1875 0 
L 0.78125 0 
z
" id="DejaVuSans-41"/>
     <path d="M 9.8125 72.90625 
L 23.09375 72.90625 
L 55.421875 11.921875 
L 55.421875 72.90625 
L 64.984375 72.90625 
L 64.984375 0 
L 51.703125 0 
L 19.390625 60.984375 
L 19.390625 0 
L 9.8125 0 
z
" id="DejaVuSans-4e"/>
     <path d="M 19.671875 64.796875 
L 19.671875 8.109375 
L 31.59375 8.109375 
Q 46.6875 8.109375 53.6875 14.9375 
Q 60.6875 21.78125 60.6875 36.53125 
Q 60.6875 51.171875 53.6875 57.984375 
Q 46.6875 64.796875 31.59375 64.796875 
z
M 9.8125 72.90625 
L 30.078125 72.90625 
Q 51.265625 72.90625 61.171875 64.09375 
Q 71.09375 55.28125 71.09375 36.53125 
Q 71.09375 17.671875 61.125 8.828125 
Q 51.171875 0 30.078125 0 
L 9.8125 0 
z
" id="DejaVuSans-44"/>
     <path d="M 39.40625 66.21875 
Q 28.65625 66.21875 22.328125 58.203125 
Q 16.015625 50.203125 16.015625 36.375 
Q 16.015625 22.609375 22.328125 14.59375 
Q 28.65625 6.59375 39.40625 6.59375 
Q 50.140625 6.59375 56.421875 14.59375 
Q 62.703125 22.609375 62.703125 36.375 
Q 62.703125 50.203125 56.421875 58.203125 
Q 50.140625 66.21875 39.40625 66.21875 
M 39.40625 74.21875 
Q 54.734375 74.21875 63.90625 63.9375 
Q 73.09375 53.65625 73.09375 36.375 
Q 73.09375 19.140625 63.90625 8.859375 
Q 54.734375 -1.421875 39.40625 -1.421875 
Q 24.03125 -1.421875 14.8125 8.828125 
Q 5.609375 19.09375 5.609375 36.375 
Q 5.609375 53.65625 14.8125 63.9375 
Q 24.03125 74.21875 39.40625 74.21875 
" id="DejaVuSans-4f"/>
     <path d="M 9.8125 72.90625 
L 24.515625 72.90625 
L 43.109375 23.296875 
L 61.8125 72.90625 
L 76.515625 72.90625 
L 76.515625 0 
L 66.890625 0 
L 66.890625 64.015625 
L 48.09375 14.015625 
L 38.1875 14.015625 
L 19.390625 64.015625 
L 19.390625 0 
L 9.8125 0 
z
" id="DejaVuSans-4d"/>
     <path d="M 53.515625 70.515625 
L 53.515625 60.890625 
Q 47.90625 63.578125 42.921875 64.890625 
Q 37.9375 66.21875 33.296875 66.21875 
Q 25.25 66.21875 20.875 63.09375 
Q 16.5 59.96875 16.5 54.203125 
Q 16.5 49.359375 19.40625 46.890625 
Q 22.3125 44.4375 30.421875 42.921875 
L 36.375 41.703125 
Q 47.40625 39.59375 52.65625 34.296875 
Q 57.90625 29 57.90625 20.125 
Q 57.90625 9.515625 50.796875 4.046875 
Q 43.703125 -1.421875 29.984375 -1.421875 
Q 24.8125 -1.421875 18.96875 -0.25 
Q 13.140625 0.921875 6.890625 3.21875 
L 6.890625 13.375 
Q 12.890625 10.015625 18.65625 8.296875 
Q 24.421875 6.59375 29.984375 6.59375 
Q 38.421875 6.59375 43.015625 9.90625 
Q 47.609375 13.234375 47.609375 19.390625 
Q 47.609375 24.75 44.3125 27.78125 
Q 41.015625 30.8125 33.5 32.328125 
L 27.484375 33.5 
Q 16.453125 35.6875 11.515625 40.375 
Q 6.59375 45.0625 6.59375 53.421875 
Q 6.59375 63.09375 13.40625 68.65625 
Q 20.21875 74.21875 32.171875 74.21875 
Q 37.3125 74.21875 42.625 73.28125 
Q 47.953125 72.359375 53.515625 70.515625 
" id="DejaVuSans-53"/>
     <path d="M 9.8125 72.90625 
L 55.90625 72.90625 
L 55.90625 64.59375 
L 19.671875 64.59375 
L 19.671875 43.015625 
L 54.390625 43.015625 
L 54.390625 34.71875 
L 19.671875 34.71875 
L 19.671875 8.296875 
L 56.78125 8.296875 
L 56.78125 0 
L 9.8125 0 
z
" id="DejaVuSans-45"/>
    </defs>
    <g transform="translate(369.543806 293.147279)scale(0.17 -0.17)">
     <use xlink:href="#DejaVuSans-52"/>
     <use x="69.419922" xlink:href="#DejaVuSans-41"/>
     <use x="137.828125" xlink:href="#DejaVuSans-4e"/>
     <use x="212.632812" xlink:href="#DejaVuSans-44"/>
     <use x="289.634766" xlink:href="#DejaVuSans-4f"/>
     <use x="368.345703" xlink:href="#DejaVuSans-4d"/>
     <use x="454.625" xlink:href="#DejaVuSans-53"/>
     <use x="518.101562" xlink:href="#DejaVuSans-45"/>
     <use x="581.285156" xlink:href="#DejaVuSans-41"/>
    </g>
   </g>
   <g id="text_15">
    <!-- final  bu -->
    <defs>
     <path d="M 48.6875 27.296875 
Q 48.6875 37.203125 44.609375 42.84375 
Q 40.53125 48.484375 33.40625 48.484375 
Q 26.265625 48.484375 22.1875 42.84375 
Q 18.109375 37.203125 18.109375 27.296875 
Q 18.109375 17.390625 22.1875 11.75 
Q 26.265625 6.109375 33.40625 6.109375 
Q 40.53125 6.109375 44.609375 11.75 
Q 48.6875 17.390625 48.6875 27.296875 
M 18.109375 46.390625 
Q 20.953125 51.265625 25.265625 53.625 
Q 29.59375 56 35.59375 56 
Q 45.5625 56 51.78125 48.09375 
Q 58.015625 40.1875 58.015625 27.296875 
Q 58.015625 14.40625 51.78125 6.484375 
Q 45.5625 -1.421875 35.59375 -1.421875 
Q 29.59375 -1.421875 25.265625 0.953125 
Q 20.953125 3.328125 18.109375 8.203125 
L 18.109375 0 
L 9.078125 0 
L 9.078125 75.984375 
L 18.109375 75.984375 
z
" id="DejaVuSans-62"/>
    </defs>
    <g transform="translate(369.543806 201.888737)scale(0.17 -0.17)">
     <use xlink:href="#DejaVuSans-66"/>
     <use x="35.205078" xlink:href="#DejaVuSans-69"/>
     <use x="62.988281" xlink:href="#DejaVuSans-6e"/>
     <use x="126.367188" xlink:href="#DejaVuSans-61"/>
     <use x="187.646484" xlink:href="#DejaVuSans-6c"/>
     <use x="215.429688" xlink:href="#DejaVuSans-20"/>
     <use x="247.216797" xlink:href="#DejaVuSans-20"/>
     <use x="279.003906" xlink:href="#DejaVuSans-62"/>
     <use x="342.480469" xlink:href="#DejaVuSans-75"/>
    </g>
   </g>
   <g id="text_16">
    <!-- NSGA-II-M -->
    <defs>
     <path d="M 59.515625 10.40625 
L 59.515625 29.984375 
L 43.40625 29.984375 
L 43.40625 38.09375 
L 69.28125 38.09375 
L 69.28125 6.78125 
Q 63.578125 2.734375 56.6875 0.65625 
Q 49.8125 -1.421875 42 -1.421875 
Q 24.90625 -1.421875 15.25 8.5625 
Q 5.609375 18.5625 5.609375 36.375 
Q 5.609375 54.25 15.25 64.234375 
Q 24.90625 74.21875 42 74.21875 
Q 49.125 74.21875 55.546875 72.453125 
Q 61.96875 70.703125 67.390625 67.28125 
L 67.390625 56.78125 
Q 61.921875 61.421875 55.765625 63.765625 
Q 49.609375 66.109375 42.828125 66.109375 
Q 29.4375 66.109375 22.71875 58.640625 
Q 16.015625 51.171875 16.015625 36.375 
Q 16.015625 21.625 22.71875 14.15625 
Q 29.4375 6.6875 42.828125 6.6875 
Q 48.046875 6.6875 52.140625 7.59375 
Q 56.25 8.5 59.515625 10.40625 
" id="DejaVuSans-47"/>
     <path d="M 9.8125 72.90625 
L 19.671875 72.90625 
L 19.671875 0 
L 9.8125 0 
z
" id="DejaVuSans-49"/>
    </defs>
    <g transform="translate(369.543806 110.630195)scale(0.17 -0.17)">
     <use xlink:href="#DejaVuSans-4e"/>
     <use x="74.804688" xlink:href="#DejaVuSans-53"/>
     <use x="138.28125" xlink:href="#DejaVuSans-47"/>
     <use x="215.771484" xlink:href="#DejaVuSans-41"/>
     <use x="284.148438" xlink:href="#DejaVuSans-2d"/>
     <use x="320.232422" xlink:href="#DejaVuSans-49"/>
     <use x="349.724609" xlink:href="#DejaVuSans-49"/>
     <use x="379.216797" xlink:href="#DejaVuSans-2d"/>
     <use x="415.300781" xlink:href="#DejaVuSans-4d"/>
    </g>
   </g>
   <g id="text_17">
    <!-- best 2016 -->
    <g transform="translate(369.543806 19.371654)scale(0.17 -0.17)">
     <use xlink:href="#DejaVuSans-62"/>
     <use x="63.476562" xlink:href="#DejaVuSans-65"/>
     <use x="125" xlink:href="#DejaVuSans-73"/>
     <use x="177.099609" xlink:href="#DejaVuSans-74"/>
     <use x="216.308594" xlink:href="#DejaVuSans-20"/>
     <use x="248.095703" xlink:href="#DejaVuSans-32"/>
     <use x="311.71875" xlink:href="#DejaVuSans-30"/>
     <use x="375.341797" xlink:href="#DejaVuSans-31"/>
     <use x="438.964844" xlink:href="#DejaVuSans-36"/>
    </g>
   </g>
   <g id="text_18">
    <!-- bbob-biobj f26, f27, f33, f34, 40-D -->
    <defs>
     <path d="M 9.421875 54.6875 
L 18.40625 54.6875 
L 18.40625 -0.984375 
Q 18.40625 -11.421875 14.421875 -16.109375 
Q 10.453125 -20.796875 1.609375 -20.796875 
L -1.8125 -20.796875 
L -1.8125 -13.1875 
L 0.59375 -13.1875 
Q 5.71875 -13.1875 7.5625 -10.8125 
Q 9.421875 -8.453125 9.421875 -0.984375 
z
M 9.421875 75.984375 
L 18.40625 75.984375 
L 18.40625 64.59375 
L 9.421875 64.59375 
z
" id="DejaVuSans-6a"/>
     <path d="M 8.203125 72.90625 
L 55.078125 72.90625 
L 55.078125 68.703125 
L 28.609375 0 
L 18.3125 0 
L 43.21875 64.59375 
L 8.203125 64.59375 
z
" id="DejaVuSans-37"/>
     <path d="M 40.578125 39.3125 
Q 47.65625 37.796875 51.625 33 
Q 55.609375 28.21875 55.609375 21.1875 
Q 55.609375 10.40625 48.1875 4.484375 
Q 40.765625 -1.421875 27.09375 -1.421875 
Q 22.515625 -1.421875 17.65625 -0.515625 
Q 12.796875 0.390625 7.625 2.203125 
L 7.625 11.71875 
Q 11.71875 9.328125 16.59375 8.109375 
Q 21.484375 6.890625 26.8125 6.890625 
Q 36.078125 6.890625 40.9375 10.546875 
Q 45.796875 14.203125 45.796875 21.1875 
Q 45.796875 27.640625 41.28125 31.265625 
Q 36.765625 34.90625 28.71875 34.90625 
L 20.21875 34.90625 
L 20.21875 43.015625 
L 29.109375 43.015625 
Q 36.375 43.015625 40.234375 45.921875 
Q 44.09375 48.828125 44.09375 54.296875 
Q 44.09375 59.90625 40.109375 62.90625 
Q 36.140625 65.921875 28.71875 65.921875 
Q 24.65625 65.921875 20.015625 65.03125 
Q 15.375 64.15625 9.8125 62.3125 
L 9.8125 71.09375 
Q 15.4375 72.65625 20.34375 73.4375 
Q 25.25 74.21875 29.59375 74.21875 
Q 40.828125 74.21875 47.359375 69.109375 
Q 53.90625 64.015625 53.90625 55.328125 
Q 53.90625 49.265625 50.4375 45.09375 
Q 46.96875 40.921875 40.578125 39.3125 
" id="DejaVuSans-33"/>
    </defs>
    <g transform="translate(60.27144 16.755982)scale(0.102 -0.102)">
     <use xlink:href="#DejaVuSans-62"/>
     <use x="63.476562" xlink:href="#DejaVuSans-62"/>
     <use x="126.953125" xlink:href="#DejaVuSans-6f"/>
     <use x="188.134766" xlink:href="#DejaVuSans-62"/>
     <use x="251.611328" xlink:href="#DejaVuSans-2d"/>
     <use x="287.695312" xlink:href="#DejaVuSans-62"/>
     <use x="351.171875" xlink:href="#DejaVuSans-69"/>
     <use x="378.955078" xlink:href="#DejaVuSans-6f"/>
     <use x="440.136719" xlink:href="#DejaVuSans-62"/>
     <use x="503.613281" xlink:href="#DejaVuSans-6a"/>
     <use x="531.396484" xlink:href="#DejaVuSans-20"/>
     <use x="563.183594" xlink:href="#DejaVuSans-66"/>
     <use x="598.388672" xlink:href="#DejaVuSans-32"/>
     <use x="662.011719" xlink:href="#DejaVuSans-36"/>
     <use x="725.634766" xlink:href="#DejaVuSans-2c"/>
     <use x="757.421875" xlink:href="#DejaVuSans-20"/>
     <use x="789.208984" xlink:href="#DejaVuSans-66"/>
     <use x="824.414062" xlink:href="#DejaVuSans-32"/>
     <use x="888.037109" xlink:href="#DejaVuSans-37"/>
     <use x="951.660156" xlink:href="#DejaVuSans-2c"/>
     <use x="983.447266" xlink:href="#DejaVuSans-20"/>
     <use x="1015.234375" xlink:href="#DejaVuSans-66"/>
     <use x="1050.439453" xlink:href="#DejaVuSans-33"/>
     <use x="1114.0625" xlink:href="#DejaVuSans-33"/>
     <use x="1177.685547" xlink:href="#DejaVuSans-2c"/>
     <use x="1209.472656" xlink:href="#DejaVuSans-20"/>
     <use x="1241.259766" xlink:href="#DejaVuSans-66"/>
     <use x="1276.464844" xlink:href="#DejaVuSans-33"/>
     <use x="1340.087891" xlink:href="#DejaVuSans-34"/>
     <use x="1403.710938" xlink:href="#DejaVuSans-2c"/>
     <use x="1435.498047" xlink:href="#DejaVuSans-20"/>
     <use x="1467.285156" xlink:href="#DejaVuSans-34"/>
     <use x="1530.908203" xlink:href="#DejaVuSans-30"/>
     <use x="1594.53125" xlink:href="#DejaVuSans-2d"/>
     <use x="1630.615234" xlink:href="#DejaVuSans-44"/>
    </g>
    <!-- 58 targets: 1..-1.0e-4 -->
    <defs>
     <path d="M 10.796875 72.90625 
L 49.515625 72.90625 
L 49.515625 64.59375 
L 19.828125 64.59375 
L 19.828125 46.734375 
Q 21.96875 47.46875 24.109375 47.828125 
Q 26.265625 48.1875 28.421875 48.1875 
Q 40.625 48.1875 47.75 41.5 
Q 54.890625 34.8125 54.890625 23.390625 
Q 54.890625 11.625 47.5625 5.09375 
Q 40.234375 -1.421875 26.90625 -1.421875 
Q 22.3125 -1.421875 17.546875 -0.640625 
Q 12.796875 0.140625 7.71875 1.703125 
L 7.71875 11.625 
Q 12.109375 9.234375 16.796875 8.0625 
Q 21.484375 6.890625 26.703125 6.890625 
Q 35.15625 6.890625 40.078125 11.328125 
Q 45.015625 15.765625 45.015625 23.390625 
Q 45.015625 31 40.078125 35.4375 
Q 35.15625 39.890625 26.703125 39.890625 
Q 22.75 39.890625 18.8125 39.015625 
Q 14.890625 38.140625 10.796875 36.28125 
z
" id="DejaVuSans-35"/>
     <path d="M 11.71875 12.40625 
L 22.015625 12.40625 
L 22.015625 0 
L 11.71875 0 
z
M 11.71875 51.703125 
L 22.015625 51.703125 
L 22.015625 39.3125 
L 11.71875 39.3125 
z
" id="DejaVuSans-3a"/>
    </defs>
    <g transform="translate(60.27144 28.17775)scale(0.102 -0.102)">
     <use xlink:href="#DejaVuSans-35"/>
     <use x="63.623047" xlink:href="#DejaVuSans-38"/>
     <use x="127.246094" xlink:href="#DejaVuSans-20"/>
     <use x="159.033203" xlink:href="#DejaVuSans-74"/>
     <use x="198.242188" xlink:href="#DejaVuSans-61"/>
     <use x="259.521484" xlink:href="#DejaVuSans-72"/>
     <use x="300.619141" xlink:href="#DejaVuSans-67"/>
     <use x="364.095703" xlink:href="#DejaVuSans-65"/>
     <use x="425.619141" xlink:href="#DejaVuSans-74"/>
     <use x="464.828125" xlink:href="#DejaVuSans-73"/>
     <use x="516.927734" xlink:href="#DejaVuSans-3a"/>
     <use x="550.619141" xlink:href="#DejaVuSans-20"/>
     <use x="582.40625" xlink:href="#DejaVuSans-31"/>
     <use x="646.029297" xlink:href="#DejaVuSans-2e"/>
     <use x="677.816406" xlink:href="#DejaVuSans-2e"/>
     <use x="709.603516" xlink:href="#DejaVuSans-2d"/>
     <use x="745.6875" xlink:href="#DejaVuSans-31"/>
     <use x="809.310547" xlink:href="#DejaVuSans-2e"/>
     <use x="841.097656" xlink:href="#DejaVuSans-30"/>
     <use x="904.720703" xlink:href="#DejaVuSans-65"/>
     <use x="966.244141" xlink:href="#DejaVuSans-2d"/>
     <use x="1002.328125" xlink:href="#DejaVuSans-34"/>
    </g>
    <!-- 10 instances -->
    <g transform="translate(60.27144 39.599519)scale(0.102 -0.102)">
     <use xlink:href="#DejaVuSans-31"/>
     <use x="63.623047" xlink:href="#DejaVuSans-30"/>
     <use x="127.246094" xlink:href="#DejaVuSans-20"/>
     <use x="159.033203" xlink:href="#DejaVuSans-69"/>
     <use x="186.816406" xlink:href="#DejaVuSans-6e"/>
     <use x="250.195312" xlink:href="#DejaVuSans-73"/>
     <use x="302.294922" xlink:href="#DejaVuSans-74"/>
     <use x="341.503906" xlink:href="#DejaVuSans-61"/>
     <use x="402.783203" xlink:href="#DejaVuSans-6e"/>
     <use x="466.162109" xlink:href="#DejaVuSans-63"/>
     <use x="521.142578" xlink:href="#DejaVuSans-65"/>
     <use x="582.666016" xlink:href="#DejaVuSans-73"/>
    </g>
   </g>
   <g id="text_19">
    <!-- v2.2.1.10, hv-hash=ff0e71e8cd978373 -->
    <defs>
     <path d="M 54.890625 33.015625 
L 54.890625 0 
L 45.90625 0 
L 45.90625 32.71875 
Q 45.90625 40.484375 42.875 44.328125 
Q 39.84375 48.1875 33.796875 48.1875 
Q 26.515625 48.1875 22.3125 43.546875 
Q 18.109375 38.921875 18.109375 30.90625 
L 18.109375 0 
L 9.078125 0 
L 9.078125 75.984375 
L 18.109375 75.984375 
L 18.109375 46.1875 
Q 21.34375 51.125 25.703125 53.5625 
Q 30.078125 56 35.796875 56 
Q 45.21875 56 50.046875 50.171875 
Q 54.890625 44.34375 54.890625 33.015625 
" id="DejaVuSans-68"/>
     <path d="M 10.59375 45.40625 
L 73.1875 45.40625 
L 73.1875 37.203125 
L 10.59375 37.203125 
z
M 10.59375 25.484375 
L 73.1875 25.484375 
L 73.1875 17.1875 
L 10.59375 17.1875 
z
" id="DejaVuSans-3d"/>
     <path d="M 10.984375 1.515625 
L 10.984375 10.5 
Q 14.703125 8.734375 18.5 7.8125 
Q 22.3125 6.890625 25.984375 6.890625 
Q 35.75 6.890625 40.890625 13.453125 
Q 46.046875 20.015625 46.78125 33.40625 
Q 43.953125 29.203125 39.59375 26.953125 
Q 35.25 24.703125 29.984375 24.703125 
Q 19.046875 24.703125 12.671875 31.3125 
Q 6.296875 37.9375 6.296875 49.421875 
Q 6.296875 60.640625 12.9375 67.421875 
Q 19.578125 74.21875 30.609375 74.21875 
Q 43.265625 74.21875 49.921875 64.515625 
Q 56.59375 54.828125 56.59375 36.375 
Q 56.59375 19.140625 48.40625 8.859375 
Q 40.234375 -1.421875 26.421875 -1.421875 
Q 22.703125 -1.421875 18.890625 -0.6875 
Q 15.09375 0.046875 10.984375 1.515625 
M 30.609375 32.421875 
Q 37.25 32.421875 41.125 36.953125 
Q 45.015625 41.5 45.015625 49.421875 
Q 45.015625 57.28125 41.125 61.84375 
Q 37.25 66.40625 30.609375 66.40625 
Q 23.96875 66.40625 20.09375 61.84375 
Q 16.21875 57.28125 16.21875 49.421875 
Q 16.21875 41.5 20.09375 36.953125 
Q 23.96875 32.421875 30.609375 32.421875 
" id="DejaVuSans-39"/>
    </defs>
    <g style="fill:#808080;" transform="translate(130.065125 289.199965)scale(0.1 -0.1)">
     <use xlink:href="#DejaVuSans-76"/>
     <use x="59.179688" xlink:href="#DejaVuSans-32"/>
     <use x="122.802734" xlink:href="#DejaVuSans-2e"/>
     <use x="154.589844" xlink:href="#DejaVuSans-32"/>
     <use x="218.212891" xlink:href="#DejaVuSans-2e"/>
     <use x="250" xlink:href="#DejaVuSans-31"/>
     <use x="313.623047" xlink:href="#DejaVuSans-2e"/>
     <use x="345.410156" xlink:href="#DejaVuSans-31"/>
     <use x="409.033203" xlink:href="#DejaVuSans-30"/>
     <use x="472.65625" xlink:href="#DejaVuSans-2c"/>
     <use x="504.443359" xlink:href="#DejaVuSans-20"/>
     <use x="536.230469" xlink:href="#DejaVuSans-68"/>
     <use x="599.609375" xlink:href="#DejaVuSans-76"/>
     <use x="658.757812" xlink:href="#DejaVuSans-2d"/>
     <use x="694.841797" xlink:href="#DejaVuSans-68"/>
     <use x="758.220703" xlink:href="#DejaVuSans-61"/>
     <use x="819.5" xlink:href="#DejaVuSans-73"/>
     <use x="871.599609" xlink:href="#DejaVuSans-68"/>
     <use x="934.978516" xlink:href="#DejaVuSans-3d"/>
     <use x="1018.767578" xlink:href="#DejaVuSans-66"/>
     <use x="1053.972656" xlink:href="#DejaVuSans-66"/>
     <use x="1089.177734" xlink:href="#DejaVuSans-30"/>
     <use x="1152.800781" xlink:href="#DejaVuSans-65"/>
     <use x="1214.324219" xlink:href="#DejaVuSans-37"/>
     <use x="1277.947266" xlink:href="#DejaVuSans-31"/>
     <use x="1341.570312" xlink:href="#DejaVuSans-65"/>
     <use x="1403.09375" xlink:href="#DejaVuSans-38"/>
     <use x="1466.716797" xlink:href="#DejaVuSans-63"/>
     <use x="1521.697266" xlink:href="#DejaVuSans-64"/>
     <use x="1585.173828" xlink:href="#DejaVuSans-39"/>
     <use x="1648.796875" xlink:href="#DejaVuSans-37"/>
     <use x="1712.419922" xlink:href="#DejaVuSans-38"/>
     <use x="1776.042969" xlink:href="#DejaVuSans-33"/>
     <use x="1839.666016" xlink:href="#DejaVuSans-37"/>
     <use x="1903.289062" xlink:href="#DejaVuSans-33"/>
    </g>
   </g>
  </g>
 </g>
 <defs>
  <clipPath id="p2f28748f8d">
   <rect height="288.034772" width="343.144" x="56.84" y="6.125228"/>
  </clipPath>
 </defs>
</svg>
