%
% index = 4066, name = bbob_f017_i03_d20__bbob_f021_i05_d20
% instance = 2, reference value = 9.527953183950610e-01
% function evaluation | indicator value | target hit
1	9.177517608991349e-01	9.332543007969910e-01
3107	9.177517608991349e-01	9.332543007969910e-01
%
% index = 4070, name = bbob_f017_i13_d20__bbob_f021_i14_d20
% instance = 6, reference value = 8.688363379744700e-01
% function evaluation | indicator value | target hit
1	8.812419075244701e-01	8.912509381337456e-01
3119	8.812419075244701e-01	8.912509381337456e-01
%
% index = 4074, name = bbob_f017_i21_d20__bbob_f021_i22_d20
% instance = 10, reference value = 9.267567848629810e-01
% function evaluation | indicator value | target hit
1	8.674869084131089e-01	8.709635899560807e-01
3075	8.674869084131089e-01	8.709635899560807e-01
%
% index = 4078, name = bbob_f017_i29_d20__bbob_f021_i30_d20
% instance = 14, reference value = 1.000000000000000e+00
% function evaluation | indicator value | target hit
1	9.639264456814648e-01	9.772372209558107e-01
3123	9.639264456814648e-01	9.772372209558107e-01
