<?xml version="1.0" encoding="utf-8" standalone="no"?>
<!DOCTYPE svg PUBLIC "-//W3C//DTD SVG 1.1//EN"
  "http://www.w3.org/Graphics/SVG/1.1/DTD/svg11.dtd">
<!-- Created with matplotlib (http://matplotlib.org/) -->
<svg height="345pt" version="1.1" viewBox="0 0 460 345" width="460pt" xmlns="http://www.w3.org/2000/svg" xmlns:xlink="http://www.w3.org/1999/xlink">
 <defs>
  <style type="text/css">
*{stroke-linecap:butt;stroke-linejoin:round;}
  </style>
 </defs>
 <g id="figure_1">
  <g id="patch_1">
   <path d="M 0 345.6 
L 460.8 345.6 
L 460.8 0 
L 0 0 
z
" style="fill:#ffffff;"/>
  </g>
  <g id="axes_1">
   <g id="patch_2">
    <path d="M 56.84 294.16 
L 399.984 294.16 
L 399.984 24.84 
L 56.84 24.84 
z
" style="fill:#ffffff;"/>
   </g>
   <g id="line2d_1">
    <path d="M 68.740534 294.16 
L 68.740534 289.562526 
L 78.348489 289.562526 
L 78.348489 280.367579 
L 99.502969 280.367579 
L 99.502969 271.172632 
L 115.518408 271.172632 
L 115.518408 266.575159 
L 127.698117 266.575159 
L 127.698117 252.782738 
L 132.706375 252.782738 
L 132.706375 243.587791 
L 141.435238 243.587791 
L 141.435238 238.990318 
L 145.513393 238.990318 
L 145.513393 229.79537 
L 151.568275 229.79537 
L 151.568275 216.00295 
L 157.633262 216.00295 
L 157.633262 206.808003 
L 163.102945 206.808003 
L 163.102945 197.613056 
L 169.33897 197.613056 
L 169.33897 188.418109 
L 174.49414 188.418109 
L 174.49414 183.820635 
L 178.957419 183.820635 
L 178.957419 170.028214 
L 184.004644 170.028214 
L 184.004644 165.430741 
L 189.099469 165.430741 
L 189.099469 151.63832 
L 192.893356 151.63832 
L 192.893356 142.443373 
L 197.042035 142.443373 
L 197.042035 137.8459 
L 202.61452 137.8459 
L 202.61452 124.053479 
L 207.651261 124.053479 
L 207.651261 119.456005 
L 210.156017 119.456005 
L 210.156017 105.663585 
L 214.54852 105.663585 
L 214.54852 96.468638 
L 216.566612 96.468638 
L 216.566612 87.273691 
L 220.486985 87.273691 
L 220.486985 82.676217 
L 224.577849 82.676217 
L 224.577849 73.48127 
L 230.575696 73.48127 
L 230.575696 59.688849 
L 333.569032 59.688849 
" style="fill:none;stroke:#f5deb3;stroke-linecap:square;stroke-width:6;"/>
   </g>
   <g id="line2d_2">
    <defs>
     <path d="M -0 7.778175 
L 7.778175 0 
L 0 -7.778175 
L -7.778175 -0 
z
" id="m3efa630664" style="stroke:#f5deb3;stroke-linejoin:miter;stroke-width:1.5;"/>
    </defs>
    <g>
     <use style="fill:#f5deb3;stroke:#f5deb3;stroke-linejoin:miter;stroke-width:1.5;" x="151.568275" xlink:href="#m3efa630664" y="229.79537"/>
     <use style="fill:#f5deb3;stroke:#f5deb3;stroke-linejoin:miter;stroke-width:1.5;" x="202.61452" xlink:href="#m3efa630664" y="137.8459"/>
     <use style="fill:#f5deb3;stroke:#f5deb3;stroke-linejoin:miter;stroke-width:1.5;" x="230.575696" xlink:href="#m3efa630664" y="59.688849"/>
     <use style="fill:#f5deb3;stroke:#f5deb3;stroke-linejoin:miter;stroke-width:1.5;" x="230.575696" xlink:href="#m3efa630664" y="59.688849"/>
     <use style="fill:#f5deb3;stroke:#f5deb3;stroke-linejoin:miter;stroke-width:1.5;" x="333.569032" xlink:href="#m3efa630664" y="59.688849"/>
    </g>
   </g>
   <g id="line2d_3">
    <path style="fill:none;stroke:#f5deb3;stroke-linecap:square;stroke-width:6;"/>
    <g/>
   </g>
   <g id="line2d_4">
    <path d="M 333.569032 59.688849 
L 364.009226 32.839604 
" style="fill:none;stroke:#f5deb3;stroke-linecap:square;stroke-width:6;"/>
    <g>
     <use style="fill:#f5deb3;stroke:#f5deb3;stroke-linejoin:miter;stroke-width:1.5;" x="333.569032" xlink:href="#m3efa630664" y="59.688849"/>
     <use style="fill:#f5deb3;stroke:#f5deb3;stroke-linejoin:miter;stroke-width:1.5;" x="364.009226" xlink:href="#m3efa630664" y="32.839604"/>
    </g>
   </g>
   <g id="matplotlib.axis_1">
    <g id="xtick_1">
     <g id="line2d_5">
      <path clip-path="url(#ped597168e2)" d="M 56.84 294.16 
L 56.84 24.84 
" style="fill:none;stroke:#b0b0b0;stroke-linecap:square;stroke-width:0.8;"/>
     </g>
     <g id="line2d_6">
      <defs>
       <path d="M 0 0 
L 0 3.5 
" id="m7ca0cc87d5" style="stroke:#000000;stroke-width:0.8;"/>
      </defs>
      <g>
       <use style="stroke:#000000;stroke-width:0.8;" x="56.84" xlink:href="#m7ca0cc87d5" y="294.16"/>
      </g>
     </g>
     <g id="text_1">
      <!-- 0 -->
      <defs>
       <path d="M 31.78125 66.40625 
Q 24.171875 66.40625 20.328125 58.90625 
Q 16.5 51.421875 16.5 36.375 
Q 16.5 21.390625 20.328125 13.890625 
Q 24.171875 6.390625 31.78125 6.390625 
Q 39.453125 6.390625 43.28125 13.890625 
Q 47.125 21.390625 47.125 36.375 
Q 47.125 51.421875 43.28125 58.90625 
Q 39.453125 66.40625 31.78125 66.40625 
M 31.78125 74.21875 
Q 44.046875 74.21875 50.515625 64.515625 
Q 56.984375 54.828125 56.984375 36.375 
Q 56.984375 17.96875 50.515625 8.265625 
Q 44.046875 -1.421875 31.78125 -1.421875 
Q 19.53125 -1.421875 13.0625 8.265625 
Q 6.59375 17.96875 6.59375 36.375 
Q 6.59375 54.828125 13.0625 64.515625 
Q 19.53125 74.21875 31.78125 74.21875 
" id="DejaVuSans-30"/>
      </defs>
      <g transform="translate(50.4775 316.356875)scale(0.2 -0.2)">
       <use xlink:href="#DejaVuSans-30"/>
      </g>
     </g>
    </g>
    <g id="xtick_2">
     <g id="line2d_7">
      <path clip-path="url(#ped597168e2)" d="M 135.905438 294.16 
L 135.905438 24.84 
" style="fill:none;stroke:#b0b0b0;stroke-linecap:square;stroke-width:0.8;"/>
     </g>
     <g id="line2d_8">
      <g>
       <use style="stroke:#000000;stroke-width:0.8;" x="135.905438" xlink:href="#m7ca0cc87d5" y="294.16"/>
      </g>
     </g>
     <g id="text_2">
      <!-- 2 -->
      <defs>
       <path d="M 19.1875 8.296875 
L 53.609375 8.296875 
L 53.609375 0 
L 7.328125 0 
L 7.328125 8.296875 
Q 12.9375 14.109375 22.625 23.890625 
Q 32.328125 33.6875 34.8125 36.53125 
Q 39.546875 41.84375 41.421875 45.53125 
Q 43.3125 49.21875 43.3125 52.78125 
Q 43.3125 58.59375 39.234375 62.25 
Q 35.15625 65.921875 28.609375 65.921875 
Q 23.96875 65.921875 18.8125 64.3125 
Q 13.671875 62.703125 7.8125 59.421875 
L 7.8125 69.390625 
Q 13.765625 71.78125 18.9375 73 
Q 24.125 74.21875 28.421875 74.21875 
Q 39.75 74.21875 46.484375 68.546875 
Q 53.21875 62.890625 53.21875 53.421875 
Q 53.21875 48.921875 51.53125 44.890625 
Q 49.859375 40.875 45.40625 35.40625 
Q 44.1875 33.984375 37.640625 27.21875 
Q 31.109375 20.453125 19.1875 8.296875 
" id="DejaVuSans-32"/>
      </defs>
      <g transform="translate(129.542938 316.356875)scale(0.2 -0.2)">
       <use xlink:href="#DejaVuSans-32"/>
      </g>
     </g>
    </g>
    <g id="xtick_3">
     <g id="line2d_9">
      <path clip-path="url(#ped597168e2)" d="M 214.970876 294.16 
L 214.970876 24.84 
" style="fill:none;stroke:#b0b0b0;stroke-linecap:square;stroke-width:0.8;"/>
     </g>
     <g id="line2d_10">
      <g>
       <use style="stroke:#000000;stroke-width:0.8;" x="214.970876" xlink:href="#m7ca0cc87d5" y="294.16"/>
      </g>
     </g>
     <g id="text_3">
      <!-- 4 -->
      <defs>
       <path d="M 37.796875 64.3125 
L 12.890625 25.390625 
L 37.796875 25.390625 
z
M 35.203125 72.90625 
L 47.609375 72.90625 
L 47.609375 25.390625 
L 58.015625 25.390625 
L 58.015625 17.1875 
L 47.609375 17.1875 
L 47.609375 0 
L 37.796875 0 
L 37.796875 17.1875 
L 4.890625 17.1875 
L 4.890625 26.703125 
z
" id="DejaVuSans-34"/>
      </defs>
      <g transform="translate(208.608376 316.356875)scale(0.2 -0.2)">
       <use xlink:href="#DejaVuSans-34"/>
      </g>
     </g>
    </g>
    <g id="xtick_4">
     <g id="line2d_11">
      <path clip-path="url(#ped597168e2)" d="M 294.036313 294.16 
L 294.036313 24.84 
" style="fill:none;stroke:#b0b0b0;stroke-linecap:square;stroke-width:0.8;"/>
     </g>
     <g id="line2d_12">
      <g>
       <use style="stroke:#000000;stroke-width:0.8;" x="294.036313" xlink:href="#m7ca0cc87d5" y="294.16"/>
      </g>
     </g>
     <g id="text_4">
      <!-- 6 -->
      <defs>
       <path d="M 33.015625 40.375 
Q 26.375 40.375 22.484375 35.828125 
Q 18.609375 31.296875 18.609375 23.390625 
Q 18.609375 15.53125 22.484375 10.953125 
Q 26.375 6.390625 33.015625 6.390625 
Q 39.65625 6.390625 43.53125 10.953125 
Q 47.40625 15.53125 47.40625 23.390625 
Q 47.40625 31.296875 43.53125 35.828125 
Q 39.65625 40.375 33.015625 40.375 
M 52.59375 71.296875 
L 52.59375 62.3125 
Q 48.875 64.0625 45.09375 64.984375 
Q 41.3125 65.921875 37.59375 65.921875 
Q 27.828125 65.921875 22.671875 59.328125 
Q 17.53125 52.734375 16.796875 39.40625 
Q 19.671875 43.65625 24.015625 45.921875 
Q 28.375 48.1875 33.59375 48.1875 
Q 44.578125 48.1875 50.953125 41.515625 
Q 57.328125 34.859375 57.328125 23.390625 
Q 57.328125 12.15625 50.6875 5.359375 
Q 44.046875 -1.421875 33.015625 -1.421875 
Q 20.359375 -1.421875 13.671875 8.265625 
Q 6.984375 17.96875 6.984375 36.375 
Q 6.984375 53.65625 15.1875 63.9375 
Q 23.390625 74.21875 37.203125 74.21875 
Q 40.921875 74.21875 44.703125 73.484375 
Q 48.484375 72.75 52.59375 71.296875 
" id="DejaVuSans-36"/>
      </defs>
      <g transform="translate(287.673813 316.356875)scale(0.2 -0.2)">
       <use xlink:href="#DejaVuSans-36"/>
      </g>
     </g>
    </g>
    <g id="xtick_5">
     <g id="line2d_13">
      <path clip-path="url(#ped597168e2)" d="M 373.101751 294.16 
L 373.101751 24.84 
" style="fill:none;stroke:#b0b0b0;stroke-linecap:square;stroke-width:0.8;"/>
     </g>
     <g id="line2d_14">
      <g>
       <use style="stroke:#000000;stroke-width:0.8;" x="373.101751" xlink:href="#m7ca0cc87d5" y="294.16"/>
      </g>
     </g>
     <g id="text_5">
      <!-- 8 -->
      <defs>
       <path d="M 31.78125 34.625 
Q 24.75 34.625 20.71875 30.859375 
Q 16.703125 27.09375 16.703125 20.515625 
Q 16.703125 13.921875 20.71875 10.15625 
Q 24.75 6.390625 31.78125 6.390625 
Q 38.8125 6.390625 42.859375 10.171875 
Q 46.921875 13.96875 46.921875 20.515625 
Q 46.921875 27.09375 42.890625 30.859375 
Q 38.875 34.625 31.78125 34.625 
M 21.921875 38.8125 
Q 15.578125 40.375 12.03125 44.71875 
Q 8.5 49.078125 8.5 55.328125 
Q 8.5 64.0625 14.71875 69.140625 
Q 20.953125 74.21875 31.78125 74.21875 
Q 42.671875 74.21875 48.875 69.140625 
Q 55.078125 64.0625 55.078125 55.328125 
Q 55.078125 49.078125 51.53125 44.71875 
Q 48 40.375 41.703125 38.8125 
Q 48.828125 37.15625 52.796875 32.3125 
Q 56.78125 27.484375 56.78125 20.515625 
Q 56.78125 9.90625 50.3125 4.234375 
Q 43.84375 -1.421875 31.78125 -1.421875 
Q 19.734375 -1.421875 13.25 4.234375 
Q 6.78125 9.90625 6.78125 20.515625 
Q 6.78125 27.484375 10.78125 32.3125 
Q 14.796875 37.15625 21.921875 38.8125 
M 18.3125 54.390625 
Q 18.3125 48.734375 21.84375 45.5625 
Q 25.390625 42.390625 31.78125 42.390625 
Q 38.140625 42.390625 41.71875 45.5625 
Q 45.3125 48.734375 45.3125 54.390625 
Q 45.3125 60.0625 41.71875 63.234375 
Q 38.140625 66.40625 31.78125 66.40625 
Q 25.390625 66.40625 21.84375 63.234375 
Q 18.3125 60.0625 18.3125 54.390625 
" id="DejaVuSans-38"/>
      </defs>
      <g transform="translate(366.739251 316.356875)scale(0.2 -0.2)">
       <use xlink:href="#DejaVuSans-38"/>
      </g>
     </g>
    </g>
    <g id="xtick_6">
     <g id="line2d_15">
      <defs>
       <path d="M 0 0 
L 0 2 
" id="m4b4fb8478a" style="stroke:#000000;stroke-width:0.6;"/>
      </defs>
      <g>
       <use style="stroke:#000000;stroke-width:0.6;" x="68.740534" xlink:href="#m4b4fb8478a" y="294.16"/>
      </g>
     </g>
    </g>
    <g id="xtick_7">
     <g id="line2d_16">
      <g>
       <use style="stroke:#000000;stroke-width:0.6;" x="80.641068" xlink:href="#m4b4fb8478a" y="294.16"/>
      </g>
     </g>
    </g>
    <g id="xtick_8">
     <g id="line2d_17">
      <g>
       <use style="stroke:#000000;stroke-width:0.6;" x="87.602435" xlink:href="#m4b4fb8478a" y="294.16"/>
      </g>
     </g>
    </g>
    <g id="xtick_9">
     <g id="line2d_18">
      <g>
       <use style="stroke:#000000;stroke-width:0.6;" x="92.541603" xlink:href="#m4b4fb8478a" y="294.16"/>
      </g>
     </g>
    </g>
    <g id="xtick_10">
     <g id="line2d_19">
      <g>
       <use style="stroke:#000000;stroke-width:0.6;" x="147.805972" xlink:href="#m4b4fb8478a" y="294.16"/>
      </g>
     </g>
    </g>
    <g id="xtick_11">
     <g id="line2d_20">
      <g>
       <use style="stroke:#000000;stroke-width:0.6;" x="159.706506" xlink:href="#m4b4fb8478a" y="294.16"/>
      </g>
     </g>
    </g>
    <g id="xtick_12">
     <g id="line2d_21">
      <g>
       <use style="stroke:#000000;stroke-width:0.6;" x="166.667872" xlink:href="#m4b4fb8478a" y="294.16"/>
      </g>
     </g>
    </g>
    <g id="xtick_13">
     <g id="line2d_22">
      <g>
       <use style="stroke:#000000;stroke-width:0.6;" x="171.60704" xlink:href="#m4b4fb8478a" y="294.16"/>
      </g>
     </g>
    </g>
    <g id="xtick_14">
     <g id="line2d_23">
      <g>
       <use style="stroke:#000000;stroke-width:0.6;" x="226.87141" xlink:href="#m4b4fb8478a" y="294.16"/>
      </g>
     </g>
    </g>
    <g id="xtick_15">
     <g id="line2d_24">
      <g>
       <use style="stroke:#000000;stroke-width:0.6;" x="238.771944" xlink:href="#m4b4fb8478a" y="294.16"/>
      </g>
     </g>
    </g>
    <g id="xtick_16">
     <g id="line2d_25">
      <g>
       <use style="stroke:#000000;stroke-width:0.6;" x="245.73331" xlink:href="#m4b4fb8478a" y="294.16"/>
      </g>
     </g>
    </g>
    <g id="xtick_17">
     <g id="line2d_26">
      <g>
       <use style="stroke:#000000;stroke-width:0.6;" x="250.672478" xlink:href="#m4b4fb8478a" y="294.16"/>
      </g>
     </g>
    </g>
    <g id="xtick_18">
     <g id="line2d_27">
      <g>
       <use style="stroke:#000000;stroke-width:0.6;" x="305.936848" xlink:href="#m4b4fb8478a" y="294.16"/>
      </g>
     </g>
    </g>
    <g id="xtick_19">
     <g id="line2d_28">
      <g>
       <use style="stroke:#000000;stroke-width:0.6;" x="317.837382" xlink:href="#m4b4fb8478a" y="294.16"/>
      </g>
     </g>
    </g>
    <g id="xtick_20">
     <g id="line2d_29">
      <g>
       <use style="stroke:#000000;stroke-width:0.6;" x="324.798748" xlink:href="#m4b4fb8478a" y="294.16"/>
      </g>
     </g>
    </g>
    <g id="xtick_21">
     <g id="line2d_30">
      <g>
       <use style="stroke:#000000;stroke-width:0.6;" x="329.737916" xlink:href="#m4b4fb8478a" y="294.16"/>
      </g>
     </g>
    </g>
    <g id="xtick_22">
     <g id="line2d_31">
      <g>
       <use style="stroke:#000000;stroke-width:0.6;" x="385.002285" xlink:href="#m4b4fb8478a" y="294.16"/>
      </g>
     </g>
    </g>
    <g id="xtick_23">
     <g id="line2d_32">
      <g>
       <use style="stroke:#000000;stroke-width:0.6;" x="396.90282" xlink:href="#m4b4fb8478a" y="294.16"/>
      </g>
     </g>
    </g>
    <g id="text_6">
     <!-- log10(# f-evals / dimension) -->
     <defs>
      <path d="M 9.421875 75.984375 
L 18.40625 75.984375 
L 18.40625 0 
L 9.421875 0 
z
" id="DejaVuSans-6c"/>
      <path d="M 30.609375 48.390625 
Q 23.390625 48.390625 19.1875 42.75 
Q 14.984375 37.109375 14.984375 27.296875 
Q 14.984375 17.484375 19.15625 11.84375 
Q 23.34375 6.203125 30.609375 6.203125 
Q 37.796875 6.203125 41.984375 11.859375 
Q 46.1875 17.53125 46.1875 27.296875 
Q 46.1875 37.015625 41.984375 42.703125 
Q 37.796875 48.390625 30.609375 48.390625 
M 30.609375 56 
Q 42.328125 56 49.015625 48.375 
Q 55.71875 40.765625 55.71875 27.296875 
Q 55.71875 13.875 49.015625 6.21875 
Q 42.328125 -1.421875 30.609375 -1.421875 
Q 18.84375 -1.421875 12.171875 6.21875 
Q 5.515625 13.875 5.515625 27.296875 
Q 5.515625 40.765625 12.171875 48.375 
Q 18.84375 56 30.609375 56 
" id="DejaVuSans-6f"/>
      <path d="M 45.40625 27.984375 
Q 45.40625 37.75 41.375 43.109375 
Q 37.359375 48.484375 30.078125 48.484375 
Q 22.859375 48.484375 18.828125 43.109375 
Q 14.796875 37.75 14.796875 27.984375 
Q 14.796875 18.265625 18.828125 12.890625 
Q 22.859375 7.515625 30.078125 7.515625 
Q 37.359375 7.515625 41.375 12.890625 
Q 45.40625 18.265625 45.40625 27.984375 
M 54.390625 6.78125 
Q 54.390625 -7.171875 48.1875 -13.984375 
Q 42 -20.796875 29.203125 -20.796875 
Q 24.46875 -20.796875 20.265625 -20.09375 
Q 16.0625 -19.390625 12.109375 -17.921875 
L 12.109375 -9.1875 
Q 16.0625 -11.328125 19.921875 -12.34375 
Q 23.78125 -13.375 27.78125 -13.375 
Q 36.625 -13.375 41.015625 -8.765625 
Q 45.40625 -4.15625 45.40625 5.171875 
L 45.40625 9.625 
Q 42.625 4.78125 38.28125 2.390625 
Q 33.9375 0 27.875 0 
Q 17.828125 0 11.671875 7.65625 
Q 5.515625 15.328125 5.515625 27.984375 
Q 5.515625 40.671875 11.671875 48.328125 
Q 17.828125 56 27.875 56 
Q 33.9375 56 38.28125 53.609375 
Q 42.625 51.21875 45.40625 46.390625 
L 45.40625 54.6875 
L 54.390625 54.6875 
z
" id="DejaVuSans-67"/>
      <path d="M 12.40625 8.296875 
L 28.515625 8.296875 
L 28.515625 63.921875 
L 10.984375 60.40625 
L 10.984375 69.390625 
L 28.421875 72.90625 
L 38.28125 72.90625 
L 38.28125 8.296875 
L 54.390625 8.296875 
L 54.390625 0 
L 12.40625 0 
z
" id="DejaVuSans-31"/>
      <path d="M 31 75.875 
Q 24.46875 64.65625 21.28125 53.65625 
Q 18.109375 42.671875 18.109375 31.390625 
Q 18.109375 20.125 21.3125 9.0625 
Q 24.515625 -2 31 -13.1875 
L 23.1875 -13.1875 
Q 15.875 -1.703125 12.234375 9.375 
Q 8.59375 20.453125 8.59375 31.390625 
Q 8.59375 42.28125 12.203125 53.3125 
Q 15.828125 64.359375 23.1875 75.875 
z
" id="DejaVuSans-28"/>
      <path d="M 51.125 44 
L 36.921875 44 
L 32.8125 27.6875 
L 47.125 27.6875 
z
M 43.796875 71.78125 
L 38.71875 51.515625 
L 52.984375 51.515625 
L 58.109375 71.78125 
L 65.921875 71.78125 
L 60.890625 51.515625 
L 76.125 51.515625 
L 76.125 44 
L 58.984375 44 
L 54.984375 27.6875 
L 70.515625 27.6875 
L 70.515625 20.21875 
L 53.078125 20.21875 
L 48 0 
L 40.1875 0 
L 45.21875 20.21875 
L 30.90625 20.21875 
L 25.875 0 
L 18.015625 0 
L 23.09375 20.21875 
L 7.71875 20.21875 
L 7.71875 27.6875 
L 24.90625 27.6875 
L 29 44 
L 13.28125 44 
L 13.28125 51.515625 
L 30.90625 51.515625 
L 35.890625 71.78125 
z
" id="DejaVuSans-23"/>
      <path id="DejaVuSans-20"/>
      <path d="M 37.109375 75.984375 
L 37.109375 68.5 
L 28.515625 68.5 
Q 23.6875 68.5 21.796875 66.546875 
Q 19.921875 64.59375 19.921875 59.515625 
L 19.921875 54.6875 
L 34.71875 54.6875 
L 34.71875 47.703125 
L 19.921875 47.703125 
L 19.921875 0 
L 10.890625 0 
L 10.890625 47.703125 
L 2.296875 47.703125 
L 2.296875 54.6875 
L 10.890625 54.6875 
L 10.890625 58.5 
Q 10.890625 67.625 15.140625 71.796875 
Q 19.390625 75.984375 28.609375 75.984375 
z
" id="DejaVuSans-66"/>
      <path d="M 4.890625 31.390625 
L 31.203125 31.390625 
L 31.203125 23.390625 
L 4.890625 23.390625 
z
" id="DejaVuSans-2d"/>
      <path d="M 56.203125 29.59375 
L 56.203125 25.203125 
L 14.890625 25.203125 
Q 15.484375 15.921875 20.484375 11.0625 
Q 25.484375 6.203125 34.421875 6.203125 
Q 39.59375 6.203125 44.453125 7.46875 
Q 49.3125 8.734375 54.109375 11.28125 
L 54.109375 2.78125 
Q 49.265625 0.734375 44.1875 -0.34375 
Q 39.109375 -1.421875 33.890625 -1.421875 
Q 20.796875 -1.421875 13.15625 6.1875 
Q 5.515625 13.8125 5.515625 26.8125 
Q 5.515625 40.234375 12.765625 48.109375 
Q 20.015625 56 32.328125 56 
Q 43.359375 56 49.78125 48.890625 
Q 56.203125 41.796875 56.203125 29.59375 
M 47.21875 32.234375 
Q 47.125 39.59375 43.09375 43.984375 
Q 39.0625 48.390625 32.421875 48.390625 
Q 24.90625 48.390625 20.390625 44.140625 
Q 15.875 39.890625 15.1875 32.171875 
z
" id="DejaVuSans-65"/>
      <path d="M 2.984375 54.6875 
L 12.5 54.6875 
L 29.59375 8.796875 
L 46.6875 54.6875 
L 56.203125 54.6875 
L 35.6875 0 
L 23.484375 0 
z
" id="DejaVuSans-76"/>
      <path d="M 34.28125 27.484375 
Q 23.390625 27.484375 19.1875 25 
Q 14.984375 22.515625 14.984375 16.5 
Q 14.984375 11.71875 18.140625 8.90625 
Q 21.296875 6.109375 26.703125 6.109375 
Q 34.1875 6.109375 38.703125 11.40625 
Q 43.21875 16.703125 43.21875 25.484375 
L 43.21875 27.484375 
z
M 52.203125 31.203125 
L 52.203125 0 
L 43.21875 0 
L 43.21875 8.296875 
Q 40.140625 3.328125 35.546875 0.953125 
Q 30.953125 -1.421875 24.3125 -1.421875 
Q 15.921875 -1.421875 10.953125 3.296875 
Q 6 8.015625 6 15.921875 
Q 6 25.140625 12.171875 29.828125 
Q 18.359375 34.515625 30.609375 34.515625 
L 43.21875 34.515625 
L 43.21875 35.40625 
Q 43.21875 41.609375 39.140625 45 
Q 35.0625 48.390625 27.6875 48.390625 
Q 23 48.390625 18.546875 47.265625 
Q 14.109375 46.140625 10.015625 43.890625 
L 10.015625 52.203125 
Q 14.9375 54.109375 19.578125 55.046875 
Q 24.21875 56 28.609375 56 
Q 40.484375 56 46.34375 49.84375 
Q 52.203125 43.703125 52.203125 31.203125 
" id="DejaVuSans-61"/>
      <path d="M 44.28125 53.078125 
L 44.28125 44.578125 
Q 40.484375 46.53125 36.375 47.5 
Q 32.28125 48.484375 27.875 48.484375 
Q 21.1875 48.484375 17.84375 46.4375 
Q 14.5 44.390625 14.5 40.28125 
Q 14.5 37.15625 16.890625 35.375 
Q 19.28125 33.59375 26.515625 31.984375 
L 29.59375 31.296875 
Q 39.15625 29.25 43.1875 25.515625 
Q 47.21875 21.78125 47.21875 15.09375 
Q 47.21875 7.46875 41.1875 3.015625 
Q 35.15625 -1.421875 24.609375 -1.421875 
Q 20.21875 -1.421875 15.453125 -0.5625 
Q 10.6875 0.296875 5.421875 2 
L 5.421875 11.28125 
Q 10.40625 8.6875 15.234375 7.390625 
Q 20.0625 6.109375 24.8125 6.109375 
Q 31.15625 6.109375 34.5625 8.28125 
Q 37.984375 10.453125 37.984375 14.40625 
Q 37.984375 18.0625 35.515625 20.015625 
Q 33.0625 21.96875 24.703125 23.78125 
L 21.578125 24.515625 
Q 13.234375 26.265625 9.515625 29.90625 
Q 5.8125 33.546875 5.8125 39.890625 
Q 5.8125 47.609375 11.28125 51.796875 
Q 16.75 56 26.8125 56 
Q 31.78125 56 36.171875 55.265625 
Q 40.578125 54.546875 44.28125 53.078125 
" id="DejaVuSans-73"/>
      <path d="M 25.390625 72.90625 
L 33.6875 72.90625 
L 8.296875 -9.28125 
L 0 -9.28125 
z
" id="DejaVuSans-2f"/>
      <path d="M 45.40625 46.390625 
L 45.40625 75.984375 
L 54.390625 75.984375 
L 54.390625 0 
L 45.40625 0 
L 45.40625 8.203125 
Q 42.578125 3.328125 38.25 0.953125 
Q 33.9375 -1.421875 27.875 -1.421875 
Q 17.96875 -1.421875 11.734375 6.484375 
Q 5.515625 14.40625 5.515625 27.296875 
Q 5.515625 40.1875 11.734375 48.09375 
Q 17.96875 56 27.875 56 
Q 33.9375 56 38.25 53.625 
Q 42.578125 51.265625 45.40625 46.390625 
M 14.796875 27.296875 
Q 14.796875 17.390625 18.875 11.75 
Q 22.953125 6.109375 30.078125 6.109375 
Q 37.203125 6.109375 41.296875 11.75 
Q 45.40625 17.390625 45.40625 27.296875 
Q 45.40625 37.203125 41.296875 42.84375 
Q 37.203125 48.484375 30.078125 48.484375 
Q 22.953125 48.484375 18.875 42.84375 
Q 14.796875 37.203125 14.796875 27.296875 
" id="DejaVuSans-64"/>
      <path d="M 9.421875 54.6875 
L 18.40625 54.6875 
L 18.40625 0 
L 9.421875 0 
z
M 9.421875 75.984375 
L 18.40625 75.984375 
L 18.40625 64.59375 
L 9.421875 64.59375 
z
" id="DejaVuSans-69"/>
      <path d="M 52 44.1875 
Q 55.375 50.25 60.0625 53.125 
Q 64.75 56 71.09375 56 
Q 79.640625 56 84.28125 50.015625 
Q 88.921875 44.046875 88.921875 33.015625 
L 88.921875 0 
L 79.890625 0 
L 79.890625 32.71875 
Q 79.890625 40.578125 77.09375 44.375 
Q 74.3125 48.1875 68.609375 48.1875 
Q 61.625 48.1875 57.5625 43.546875 
Q 53.515625 38.921875 53.515625 30.90625 
L 53.515625 0 
L 44.484375 0 
L 44.484375 32.71875 
Q 44.484375 40.625 41.703125 44.40625 
Q 38.921875 48.1875 33.109375 48.1875 
Q 26.21875 48.1875 22.15625 43.53125 
Q 18.109375 38.875 18.109375 30.90625 
L 18.109375 0 
L 9.078125 0 
L 9.078125 54.6875 
L 18.109375 54.6875 
L 18.109375 46.1875 
Q 21.1875 51.21875 25.484375 53.609375 
Q 29.78125 56 35.6875 56 
Q 41.65625 56 45.828125 52.96875 
Q 50 49.953125 52 44.1875 
" id="DejaVuSans-6d"/>
      <path d="M 54.890625 33.015625 
L 54.890625 0 
L 45.90625 0 
L 45.90625 32.71875 
Q 45.90625 40.484375 42.875 44.328125 
Q 39.84375 48.1875 33.796875 48.1875 
Q 26.515625 48.1875 22.3125 43.546875 
Q 18.109375 38.921875 18.109375 30.90625 
L 18.109375 0 
L 9.078125 0 
L 9.078125 54.6875 
L 18.109375 54.6875 
L 18.109375 46.1875 
Q 21.34375 51.125 25.703125 53.5625 
Q 30.078125 56 35.796875 56 
Q 45.21875 56 50.046875 50.171875 
Q 54.890625 44.34375 54.890625 33.015625 
" id="DejaVuSans-6e"/>
      <path d="M 8.015625 75.875 
L 15.828125 75.875 
Q 23.140625 64.359375 26.78125 53.3125 
Q 30.421875 42.28125 30.421875 31.390625 
Q 30.421875 20.453125 26.78125 9.375 
Q 23.140625 -1.703125 15.828125 -13.1875 
L 8.015625 -13.1875 
Q 14.5 -2 17.703125 9.0625 
Q 20.90625 20.125 20.90625 31.390625 
Q 20.90625 42.671875 17.703125 53.65625 
Q 14.5 64.65625 8.015625 75.875 
" id="DejaVuSans-29"/>
     </defs>
     <g transform="translate(107.571219 337.433594)scale(0.17 -0.17)">
      <use xlink:href="#DejaVuSans-6c"/>
      <use x="27.783203" xlink:href="#DejaVuSans-6f"/>
      <use x="88.964844" xlink:href="#DejaVuSans-67"/>
      <use x="152.441406" xlink:href="#DejaVuSans-31"/>
      <use x="216.064453" xlink:href="#DejaVuSans-30"/>
      <use x="279.6875" xlink:href="#DejaVuSans-28"/>
      <use x="318.701172" xlink:href="#DejaVuSans-23"/>
      <use x="402.490234" xlink:href="#DejaVuSans-20"/>
      <use x="434.277344" xlink:href="#DejaVuSans-66"/>
      <use x="469.404297" xlink:href="#DejaVuSans-2d"/>
      <use x="505.488281" xlink:href="#DejaVuSans-65"/>
      <use x="567.011719" xlink:href="#DejaVuSans-76"/>
      <use x="626.191406" xlink:href="#DejaVuSans-61"/>
      <use x="687.470703" xlink:href="#DejaVuSans-6c"/>
      <use x="715.253906" xlink:href="#DejaVuSans-73"/>
      <use x="767.353516" xlink:href="#DejaVuSans-20"/>
      <use x="799.140625" xlink:href="#DejaVuSans-2f"/>
      <use x="832.832031" xlink:href="#DejaVuSans-20"/>
      <use x="864.619141" xlink:href="#DejaVuSans-64"/>
      <use x="928.095703" xlink:href="#DejaVuSans-69"/>
      <use x="955.878906" xlink:href="#DejaVuSans-6d"/>
      <use x="1053.291016" xlink:href="#DejaVuSans-65"/>
      <use x="1114.814453" xlink:href="#DejaVuSans-6e"/>
      <use x="1178.193359" xlink:href="#DejaVuSans-73"/>
      <use x="1230.292969" xlink:href="#DejaVuSans-69"/>
      <use x="1258.076172" xlink:href="#DejaVuSans-6f"/>
      <use x="1319.257812" xlink:href="#DejaVuSans-6e"/>
      <use x="1382.636719" xlink:href="#DejaVuSans-29"/>
     </g>
    </g>
   </g>
   <g id="matplotlib.axis_2">
    <g id="ytick_1">
     <g id="line2d_33">
      <path clip-path="url(#ped597168e2)" d="M 56.84 294.16 
L 399.984 294.16 
" style="fill:none;stroke:#b0b0b0;stroke-linecap:square;stroke-width:0.8;"/>
     </g>
     <g id="line2d_34">
      <defs>
       <path d="M 0 0 
L -3.5 0 
" id="m34ad6e500d" style="stroke:#000000;stroke-width:0.8;"/>
      </defs>
      <g>
       <use style="stroke:#000000;stroke-width:0.8;" x="56.84" xlink:href="#m34ad6e500d" y="294.16"/>
      </g>
     </g>
     <g id="text_7">
      <!-- 0.0 -->
      <defs>
       <path d="M 10.6875 12.40625 
L 21 12.40625 
L 21 0 
L 10.6875 0 
z
" id="DejaVuSans-2e"/>
      </defs>
      <g transform="translate(24.395 300.23875)scale(0.16 -0.16)">
       <use xlink:href="#DejaVuSans-30"/>
       <use x="63.623047" xlink:href="#DejaVuSans-2e"/>
       <use x="95.410156" xlink:href="#DejaVuSans-30"/>
      </g>
     </g>
    </g>
    <g id="ytick_2">
     <g id="line2d_35">
      <path clip-path="url(#ped597168e2)" d="M 56.84 240.829307 
L 399.984 240.829307 
" style="fill:none;stroke:#b0b0b0;stroke-linecap:square;stroke-width:0.8;"/>
     </g>
     <g id="line2d_36">
      <g>
       <use style="stroke:#000000;stroke-width:0.8;" x="56.84" xlink:href="#m34ad6e500d" y="240.829307"/>
      </g>
     </g>
     <g id="text_8">
      <!-- 0.2 -->
      <g transform="translate(24.395 246.908057)scale(0.16 -0.16)">
       <use xlink:href="#DejaVuSans-30"/>
       <use x="63.623047" xlink:href="#DejaVuSans-2e"/>
       <use x="95.410156" xlink:href="#DejaVuSans-32"/>
      </g>
     </g>
    </g>
    <g id="ytick_3">
     <g id="line2d_37">
      <path clip-path="url(#ped597168e2)" d="M 56.84 187.498614 
L 399.984 187.498614 
" style="fill:none;stroke:#b0b0b0;stroke-linecap:square;stroke-width:0.8;"/>
     </g>
     <g id="line2d_38">
      <g>
       <use style="stroke:#000000;stroke-width:0.8;" x="56.84" xlink:href="#m34ad6e500d" y="187.498614"/>
      </g>
     </g>
     <g id="text_9">
      <!-- 0.4 -->
      <g transform="translate(24.395 193.577364)scale(0.16 -0.16)">
       <use xlink:href="#DejaVuSans-30"/>
       <use x="63.623047" xlink:href="#DejaVuSans-2e"/>
       <use x="95.410156" xlink:href="#DejaVuSans-34"/>
      </g>
     </g>
    </g>
    <g id="ytick_4">
     <g id="line2d_39">
      <path clip-path="url(#ped597168e2)" d="M 56.84 134.167921 
L 399.984 134.167921 
" style="fill:none;stroke:#b0b0b0;stroke-linecap:square;stroke-width:0.8;"/>
     </g>
     <g id="line2d_40">
      <g>
       <use style="stroke:#000000;stroke-width:0.8;" x="56.84" xlink:href="#m34ad6e500d" y="134.167921"/>
      </g>
     </g>
     <g id="text_10">
      <!-- 0.6 -->
      <g transform="translate(24.395 140.246671)scale(0.16 -0.16)">
       <use xlink:href="#DejaVuSans-30"/>
       <use x="63.623047" xlink:href="#DejaVuSans-2e"/>
       <use x="95.410156" xlink:href="#DejaVuSans-36"/>
      </g>
     </g>
    </g>
    <g id="ytick_5">
     <g id="line2d_41">
      <path clip-path="url(#ped597168e2)" d="M 56.84 80.837228 
L 399.984 80.837228 
" style="fill:none;stroke:#b0b0b0;stroke-linecap:square;stroke-width:0.8;"/>
     </g>
     <g id="line2d_42">
      <g>
       <use style="stroke:#000000;stroke-width:0.8;" x="56.84" xlink:href="#m34ad6e500d" y="80.837228"/>
      </g>
     </g>
     <g id="text_11">
      <!-- 0.8 -->
      <g transform="translate(24.395 86.915978)scale(0.16 -0.16)">
       <use xlink:href="#DejaVuSans-30"/>
       <use x="63.623047" xlink:href="#DejaVuSans-2e"/>
       <use x="95.410156" xlink:href="#DejaVuSans-38"/>
      </g>
     </g>
    </g>
    <g id="ytick_6">
     <g id="line2d_43">
      <path clip-path="url(#ped597168e2)" d="M 56.84 27.506535 
L 399.984 27.506535 
" style="fill:none;stroke:#b0b0b0;stroke-linecap:square;stroke-width:0.8;"/>
     </g>
     <g id="line2d_44">
      <g>
       <use style="stroke:#000000;stroke-width:0.8;" x="56.84" xlink:href="#m34ad6e500d" y="27.506535"/>
      </g>
     </g>
     <g id="text_12">
      <!-- 1.0 -->
      <g transform="translate(24.395 33.585285)scale(0.16 -0.16)">
       <use xlink:href="#DejaVuSans-31"/>
       <use x="63.623047" xlink:href="#DejaVuSans-2e"/>
       <use x="95.410156" xlink:href="#DejaVuSans-30"/>
      </g>
     </g>
    </g>
    <g id="text_13">
     <!-- Fraction of function,target pairs -->
     <defs>
      <path d="M 9.8125 72.90625 
L 51.703125 72.90625 
L 51.703125 64.59375 
L 19.671875 64.59375 
L 19.671875 43.109375 
L 48.578125 43.109375 
L 48.578125 34.8125 
L 19.671875 34.8125 
L 19.671875 0 
L 9.8125 0 
z
" id="DejaVuSans-46"/>
      <path d="M 41.109375 46.296875 
Q 39.59375 47.171875 37.8125 47.578125 
Q 36.03125 48 33.890625 48 
Q 26.265625 48 22.1875 43.046875 
Q 18.109375 38.09375 18.109375 28.8125 
L 18.109375 0 
L 9.078125 0 
L 9.078125 54.6875 
L 18.109375 54.6875 
L 18.109375 46.1875 
Q 20.953125 51.171875 25.484375 53.578125 
Q 30.03125 56 36.53125 56 
Q 37.453125 56 38.578125 55.875 
Q 39.703125 55.765625 41.0625 55.515625 
z
" id="DejaVuSans-72"/>
      <path d="M 48.78125 52.59375 
L 48.78125 44.1875 
Q 44.96875 46.296875 41.140625 47.34375 
Q 37.3125 48.390625 33.40625 48.390625 
Q 24.65625 48.390625 19.8125 42.84375 
Q 14.984375 37.3125 14.984375 27.296875 
Q 14.984375 17.28125 19.8125 11.734375 
Q 24.65625 6.203125 33.40625 6.203125 
Q 37.3125 6.203125 41.140625 7.25 
Q 44.96875 8.296875 48.78125 10.40625 
L 48.78125 2.09375 
Q 45.015625 0.34375 40.984375 -0.53125 
Q 36.96875 -1.421875 32.421875 -1.421875 
Q 20.0625 -1.421875 12.78125 6.34375 
Q 5.515625 14.109375 5.515625 27.296875 
Q 5.515625 40.671875 12.859375 48.328125 
Q 20.21875 56 33.015625 56 
Q 37.15625 56 41.109375 55.140625 
Q 45.0625 54.296875 48.78125 52.59375 
" id="DejaVuSans-63"/>
      <path d="M 18.3125 70.21875 
L 18.3125 54.6875 
L 36.8125 54.6875 
L 36.8125 47.703125 
L 18.3125 47.703125 
L 18.3125 18.015625 
Q 18.3125 11.328125 20.140625 9.421875 
Q 21.96875 7.515625 27.59375 7.515625 
L 36.8125 7.515625 
L 36.8125 0 
L 27.59375 0 
Q 17.1875 0 13.234375 3.875 
Q 9.28125 7.765625 9.28125 18.015625 
L 9.28125 47.703125 
L 2.6875 47.703125 
L 2.6875 54.6875 
L 9.28125 54.6875 
L 9.28125 70.21875 
z
" id="DejaVuSans-74"/>
      <path d="M 8.5 21.578125 
L 8.5 54.6875 
L 17.484375 54.6875 
L 17.484375 21.921875 
Q 17.484375 14.15625 20.5 10.265625 
Q 23.53125 6.390625 29.59375 6.390625 
Q 36.859375 6.390625 41.078125 11.03125 
Q 45.3125 15.671875 45.3125 23.6875 
L 45.3125 54.6875 
L 54.296875 54.6875 
L 54.296875 0 
L 45.3125 0 
L 45.3125 8.40625 
Q 42.046875 3.421875 37.71875 1 
Q 33.40625 -1.421875 27.6875 -1.421875 
Q 18.265625 -1.421875 13.375 4.4375 
Q 8.5 10.296875 8.5 21.578125 
M 31.109375 56 
z
" id="DejaVuSans-75"/>
      <path d="M 11.71875 12.40625 
L 22.015625 12.40625 
L 22.015625 4 
L 14.015625 -11.625 
L 7.71875 -11.625 
L 11.71875 4 
z
" id="DejaVuSans-2c"/>
      <path d="M 18.109375 8.203125 
L 18.109375 -20.796875 
L 9.078125 -20.796875 
L 9.078125 54.6875 
L 18.109375 54.6875 
L 18.109375 46.390625 
Q 20.953125 51.265625 25.265625 53.625 
Q 29.59375 56 35.59375 56 
Q 45.5625 56 51.78125 48.09375 
Q 58.015625 40.1875 58.015625 27.296875 
Q 58.015625 14.40625 51.78125 6.484375 
Q 45.5625 -1.421875 35.59375 -1.421875 
Q 29.59375 -1.421875 25.265625 0.953125 
Q 20.953125 3.328125 18.109375 8.203125 
M 48.6875 27.296875 
Q 48.6875 37.203125 44.609375 42.84375 
Q 40.53125 48.484375 33.40625 48.484375 
Q 26.265625 48.484375 22.1875 42.84375 
Q 18.109375 37.203125 18.109375 27.296875 
Q 18.109375 17.390625 22.1875 11.75 
Q 26.265625 6.109375 33.40625 6.109375 
Q 40.53125 6.109375 44.609375 11.75 
Q 48.6875 17.390625 48.6875 27.296875 
" id="DejaVuSans-70"/>
     </defs>
     <g transform="translate(16.859531 294.639375)rotate(-90)scale(0.17 -0.17)">
      <use xlink:href="#DejaVuSans-46"/>
      <use x="57.410156" xlink:href="#DejaVuSans-72"/>
      <use x="98.523438" xlink:href="#DejaVuSans-61"/>
      <use x="159.802734" xlink:href="#DejaVuSans-63"/>
      <use x="214.783203" xlink:href="#DejaVuSans-74"/>
      <use x="253.992188" xlink:href="#DejaVuSans-69"/>
      <use x="281.775391" xlink:href="#DejaVuSans-6f"/>
      <use x="342.957031" xlink:href="#DejaVuSans-6e"/>
      <use x="406.335938" xlink:href="#DejaVuSans-20"/>
      <use x="438.123047" xlink:href="#DejaVuSans-6f"/>
      <use x="499.304688" xlink:href="#DejaVuSans-66"/>
      <use x="534.509766" xlink:href="#DejaVuSans-20"/>
      <use x="566.296875" xlink:href="#DejaVuSans-66"/>
      <use x="601.501953" xlink:href="#DejaVuSans-75"/>
      <use x="664.880859" xlink:href="#DejaVuSans-6e"/>
      <use x="728.259766" xlink:href="#DejaVuSans-63"/>
      <use x="783.240234" xlink:href="#DejaVuSans-74"/>
      <use x="822.449219" xlink:href="#DejaVuSans-69"/>
      <use x="850.232422" xlink:href="#DejaVuSans-6f"/>
      <use x="911.414062" xlink:href="#DejaVuSans-6e"/>
      <use x="974.792969" xlink:href="#DejaVuSans-2c"/>
      <use x="1006.580078" xlink:href="#DejaVuSans-74"/>
      <use x="1045.789062" xlink:href="#DejaVuSans-61"/>
      <use x="1107.068359" xlink:href="#DejaVuSans-72"/>
      <use x="1148.166016" xlink:href="#DejaVuSans-67"/>
      <use x="1211.642578" xlink:href="#DejaVuSans-65"/>
      <use x="1273.166016" xlink:href="#DejaVuSans-74"/>
      <use x="1312.375" xlink:href="#DejaVuSans-20"/>
      <use x="1344.162109" xlink:href="#DejaVuSans-70"/>
      <use x="1407.638672" xlink:href="#DejaVuSans-61"/>
      <use x="1468.917969" xlink:href="#DejaVuSans-69"/>
      <use x="1496.701172" xlink:href="#DejaVuSans-72"/>
      <use x="1537.814453" xlink:href="#DejaVuSans-73"/>
     </g>
    </g>
   </g>
   <g id="line2d_45">
    <defs>
     <path d="M 0 1.5 
C 0.397805 1.5 0.77937 1.341951 1.06066 1.06066 
C 1.341951 0.77937 1.5 0.397805 1.5 0 
C 1.5 -0.397805 1.341951 -0.77937 1.06066 -1.06066 
C 0.77937 -1.341951 0.397805 -1.5 0 -1.5 
C -0.397805 -1.5 -0.77937 -1.341951 -1.06066 -1.06066 
C -1.341951 -0.77937 -1.5 -0.397805 -1.5 0 
C -1.5 0.397805 -1.341951 0.77937 -1.06066 1.06066 
C -0.77937 1.341951 -0.397805 1.5 0 1.5 
z
" id="m3e40450e36" style="stroke:#f5deb3;"/>
    </defs>
    <g>
     <use style="fill:#f5deb3;stroke:#f5deb3;" x="230.575696" xlink:href="#m3e40450e36" y="59.688849"/>
     <use style="fill:#f5deb3;stroke:#f5deb3;" x="230.575696" xlink:href="#m3e40450e36" y="59.688849"/>
    </g>
   </g>
   <g id="line2d_46">
    <defs>
     <path d="M 0 1.5 
C 0.397805 1.5 0.77937 1.341951 1.06066 1.06066 
C 1.341951 0.77937 1.5 0.397805 1.5 0 
C 1.5 -0.397805 1.341951 -0.77937 1.06066 -1.06066 
C 0.77937 -1.341951 0.397805 -1.5 0 -1.5 
C -0.397805 -1.5 -0.77937 -1.341951 -1.06066 -1.06066 
C -1.341951 -0.77937 -1.5 -0.397805 -1.5 0 
C -1.5 0.397805 -1.341951 0.77937 -1.06066 1.06066 
C -0.77937 1.341951 -0.397805 1.5 0 1.5 
z
" id="m04e2aeec81" style="stroke:#000080;"/>
    </defs>
    <g>
     <use style="fill:#000080;stroke:#000080;" x="314.328855" xlink:href="#m04e2aeec81" y="59.688849"/>
     <use style="fill:#000080;stroke:#000080;" x="314.328855" xlink:href="#m04e2aeec81" y="59.688849"/>
    </g>
   </g>
   <g id="line2d_47">
    <path d="M 44.939466 294.16 
L 44.939466 287.723537 
L 136.49607 287.723537 
L 136.49607 286.804042 
L 137.1471 286.804042 
L 137.1471 282.666316 
L 138.892015 282.666316 
L 138.892015 281.746821 
L 140.143739 281.746821 
L 140.143739 278.068843 
L 142.694251 278.068843 
L 142.694251 277.149348 
L 143.374294 277.149348 
L 143.485062 274.850611 
L 144.188136 274.850611 
L 144.188136 273.011622 
L 149.403273 273.011622 
L 149.442337 270.712885 
L 149.597713 270.712885 
L 149.636338 267.034906 
L 149.904307 267.034906 
L 149.904307 266.115411 
L 150.574759 266.115411 
L 150.574759 265.655664 
L 151.533765 265.655664 
L 151.533765 264.276422 
L 151.909615 264.276422 
L 151.909615 260.598443 
L 152.277414 260.598443 
L 152.277414 260.138696 
L 152.442025 260.138696 
L 152.442025 259.219201 
L 152.637498 259.219201 
L 152.702164 258.299706 
L 152.894714 258.299706 
L 152.894714 257.839959 
L 153.021891 257.839959 
L 153.053539 255.541222 
L 153.674541 255.541222 
L 153.674541 255.081475 
L 153.886692 255.081475 
L 153.976817 253.242485 
L 154.303287 253.242485 
L 154.361984 251.863243 
L 154.852969 251.863243 
L 154.852969 251.403496 
L 155.191282 251.403496 
L 155.191282 250.943749 
L 155.659427 250.943749 
L 155.740732 248.185265 
L 156.115145 248.185265 
L 156.115145 246.806023 
L 156.507443 246.806023 
L 156.507443 245.886528 
L 156.916244 245.886528 
L 156.916244 245.42678 
L 157.48735 245.42678 
L 157.560461 242.208549 
L 157.657461 242.208549 
L 157.657461 240.829307 
L 157.873726 240.829307 
L 157.945213 239.450065 
L 158.204816 239.450065 
L 158.204816 238.53057 
L 158.367997 238.53057 
L 158.460551 236.691581 
L 158.506642 236.691581 
L 158.506642 235.312339 
L 158.893498 235.312339 
L 158.915985 233.933097 
L 159.533954 233.933097 
L 159.533954 233.013602 
L 159.834792 233.013602 
L 159.919786 232.094107 
L 160.004362 232.094107 
L 160.004362 230.255118 
L 160.193148 230.255118 
L 160.213997 227.036886 
L 160.462225 227.036886 
L 160.462225 226.577139 
L 160.625739 226.577139 
L 160.625739 225.197897 
L 160.747361 225.197897 
L 160.747361 223.358907 
L 160.908194 223.358907 
L 160.908194 221.979665 
L 161.087349 221.979665 
L 161.087349 220.140676 
L 161.918417 220.140676 
L 161.918417 219.680929 
L 162.031247 219.680929 
L 162.124708 217.841939 
L 162.236195 217.841939 
L 162.236195 216.00295 
L 163.725449 216.00295 
L 163.725449 215.543202 
L 163.877611 215.543202 
L 163.877611 213.704213 
L 164.128255 213.704213 
L 164.128255 213.244466 
L 164.276904 213.244466 
L 164.309763 211.865224 
L 164.651039 211.865224 
L 164.651039 210.945729 
L 165.267382 210.945729 
L 165.313889 210.026234 
L 165.544553 210.026234 
L 165.544553 209.566487 
L 165.696625 209.566487 
L 165.772159 207.26775 
L 165.877351 207.26775 
L 165.877351 204.969013 
L 166.011658 204.969013 
L 166.115398 203.589771 
L 166.710741 203.589771 
L 166.710741 202.670277 
L 167.11971 202.670277 
L 167.11971 202.210529 
L 167.258505 202.210529 
L 167.258505 201.291034 
L 167.86956 201.291034 
L 167.86956 200.37154 
L 168.199868 200.37154 
L 168.291226 198.53255 
L 168.407977 198.53255 
L 168.407977 198.072803 
L 168.728181 198.072803 
L 168.728181 196.233814 
L 169.054977 196.233814 
L 169.092287 192.555835 
L 169.228402 192.555835 
L 169.228402 192.096087 
L 169.412289 192.096087 
L 169.43666 189.797351 
L 169.594229 189.797351 
L 169.594229 189.337603 
L 170.291716 189.337603 
L 170.395665 188.418109 
L 170.487539 188.418109 
L 170.487539 187.958361 
L 170.872608 187.958361 
L 170.872608 187.498614 
L 171.117246 187.498614 
L 171.117246 187.038867 
L 171.303926 187.038867 
L 171.325755 185.199877 
L 171.852085 185.199877 
L 171.936505 183.360888 
L 172.290729 183.360888 
L 172.352488 182.441393 
L 172.60745 182.441393 
L 172.678166 179.682909 
L 172.888584 179.682909 
L 172.888584 179.223161 
L 173.155385 179.223161 
L 173.174984 176.464677 
L 173.321269 176.464677 
L 173.321269 175.545183 
L 175.204799 175.545183 
L 175.256931 174.165941 
L 175.352097 174.165941 
L 175.352097 173.706193 
L 175.970632 173.706193 
L 176.020493 172.326951 
L 176.26765 172.326951 
L 176.26765 171.867204 
L 176.830877 171.867204 
L 176.830877 171.407456 
L 177.152385 171.407456 
L 177.152385 170.947709 
L 177.740391 170.947709 
L 177.822771 169.10872 
L 178.739242 169.10872 
L 178.753402 165.430741 
L 178.936426 165.430741 
L 178.936426 164.970994 
L 179.082841 164.970994 
L 179.082841 164.511246 
L 180.237258 164.511246 
L 180.237258 161.752762 
L 180.418052 161.752762 
L 180.494957 159.913773 
L 181.911937 159.913773 
L 181.911937 158.534531 
L 182.169065 158.534531 
L 182.169065 158.074783 
L 182.2962 158.074783 
L 182.2962 157.615036 
L 182.962486 157.615036 
L 182.962486 157.155288 
L 183.464599 157.155288 
L 183.464599 156.235794 
L 184.288945 156.235794 
L 184.288945 155.776046 
L 184.513045 155.776046 
L 184.513045 155.316299 
L 184.888417 155.316299 
L 184.888417 154.396804 
L 185.075519 154.396804 
L 185.075519 152.098068 
L 185.818252 152.098068 
L 185.818252 151.178573 
L 185.935095 151.178573 
L 185.935095 150.718826 
L 186.646764 150.718826 
L 186.646764 149.339583 
L 187.248317 149.339583 
L 187.287107 147.960341 
L 187.479753 147.960341 
L 187.479753 147.500594 
L 187.829504 147.500594 
L 187.829504 147.040847 
L 188.520357 147.040847 
L 188.520357 146.121352 
L 188.715573 146.121352 
L 188.715573 145.661605 
L 188.939902 145.661605 
L 188.939902 145.201857 
L 189.337982 145.201857 
L 189.337982 144.282363 
L 189.715833 144.282363 
L 189.715833 143.822615 
L 190.09286 143.822615 
L 190.09286 142.903121 
L 190.657474 142.903121 
L 190.657474 141.523878 
L 191.476098 141.523878 
L 191.476098 141.064131 
L 192.1313 141.064131 
L 192.1313 140.604384 
L 192.491139 140.604384 
L 192.491139 140.144636 
L 193.518523 140.144636 
L 193.518523 139.684889 
L 193.838946 139.684889 
L 193.838946 139.225142 
L 195.104994 139.225142 
L 195.104994 137.8459 
L 195.383948 137.8459 
L 195.383948 136.926405 
L 196.744338 136.926405 
L 196.744338 136.466658 
L 198.727335 136.466658 
L 198.727335 136.00691 
L 198.988454 136.00691 
L 198.988454 135.547163 
L 199.553946 135.547163 
L 199.553946 134.627668 
L 201.443588 134.627668 
L 201.443588 134.167921 
L 202.17704 134.167921 
L 202.17704 132.788679 
L 203.408646 132.788679 
L 203.408646 132.328931 
L 203.644378 132.328931 
L 203.644378 131.869184 
L 205.881451 131.869184 
L 205.881451 131.409437 
L 206.260577 131.409437 
L 206.260577 130.949689 
L 207.551043 130.949689 
L 207.551043 129.1107 
L 207.954912 129.1107 
L 207.954912 128.191205 
L 208.69691 128.191205 
L 208.69691 125.892468 
L 208.969379 125.892468 
L 208.969379 125.432721 
L 209.100384 125.432721 
L 209.100384 124.513226 
L 209.579412 124.513226 
L 209.579412 123.593732 
L 210.130999 123.593732 
L 210.130999 123.133984 
L 210.349238 123.133984 
L 210.349238 122.21449 
L 210.975876 122.21449 
L 210.975876 121.754742 
L 211.726244 121.754742 
L 211.726244 119.915753 
L 212.163436 119.915753 
L 212.180614 117.617016 
L 213.439178 117.617016 
L 213.439178 117.157269 
L 215.306655 117.157269 
L 215.306655 116.697521 
L 215.691235 116.697521 
L 215.723308 115.778027 
L 217.681849 115.778027 
L 217.681849 113.939037 
L 218.353926 113.939037 
L 218.353926 113.47929 
L 218.527163 113.47929 
L 218.624583 111.180553 
L 220.048125 111.180553 
L 220.048125 110.720806 
L 220.301713 110.720806 
L 220.301713 109.341564 
L 220.518085 109.341564 
L 220.518085 108.881816 
L 221.858257 108.881816 
L 221.858257 107.502574 
L 224.406773 107.502574 
L 224.406773 105.663585 
L 229.3948 105.663585 
L 229.3948 105.203837 
L 229.929614 105.203837 
L 229.929614 104.74409 
L 230.298461 104.74409 
L 230.298461 103.824595 
L 230.740599 103.824595 
L 230.740599 102.905101 
L 231.136182 102.905101 
L 231.136182 101.525859 
L 233.099688 101.525859 
L 233.163476 99.227122 
L 234.861777 99.227122 
L 234.861777 98.307627 
L 236.987093 98.307627 
L 236.987093 97.388132 
L 238.439097 97.388132 
L 238.439097 96.00889 
L 238.688473 96.00889 
L 238.688473 95.549143 
L 239.242097 95.549143 
L 239.242097 94.629648 
L 240.331071 94.629648 
L 240.331071 94.169901 
L 240.583974 94.169901 
L 240.583974 93.250406 
L 243.224685 93.250406 
L 243.224685 91.871164 
L 245.391708 91.871164 
L 245.391708 90.95167 
L 246.22176 90.95167 
L 246.318136 90.032175 
L 246.814918 90.032175 
L 246.814918 89.572427 
L 248.254971 89.572427 
L 248.254971 88.652933 
L 250.22514 88.652933 
L 250.22514 88.193185 
L 250.962106 88.193185 
L 250.962106 87.273691 
L 252.635437 87.273691 
L 252.635437 86.813943 
L 255.255041 86.813943 
L 255.255041 86.354196 
L 255.367244 86.354196 
L 255.367244 85.894449 
L 255.878495 85.894449 
L 255.907393 84.974954 
L 256.17987 84.974954 
L 256.17987 84.515207 
L 256.677655 84.515207 
L 256.734136 83.595712 
L 258.19113 83.595712 
L 258.19113 83.135964 
L 258.350362 83.135964 
L 258.430315 82.21647 
L 259.696564 82.21647 
L 259.796632 81.296975 
L 260.193203 81.296975 
L 260.263808 80.37748 
L 260.747514 80.37748 
L 260.747514 79.457986 
L 261.681406 79.457986 
L 261.681406 78.998238 
L 261.910889 78.998238 
L 261.910889 78.538491 
L 262.45203 78.538491 
L 262.45203 77.618996 
L 262.764022 77.618996 
L 262.764022 77.159249 
L 262.966098 77.159249 
L 262.966098 76.239754 
L 264.028152 76.239754 
L 264.02825 75.320259 
L 267.986797 75.320259 
L 267.986797 74.860512 
L 268.484032 74.860512 
L 268.484032 74.400765 
L 269.487745 74.400765 
L 269.487817 73.48127 
L 269.812502 73.48127 
L 269.812502 72.561775 
L 270.838149 72.561775 
L 270.838149 72.102028 
L 271.030251 72.102028 
L 271.053086 71.182533 
L 271.822249 71.182533 
L 271.923289 70.263039 
L 274.751934 70.263039 
L 274.782788 69.343544 
L 276.447676 69.343544 
L 276.447676 68.883797 
L 277.163111 68.883797 
L 277.163111 68.424049 
L 280.097853 68.424049 
L 280.097853 67.964302 
L 280.790364 67.964302 
L 280.848496 67.044807 
L 283.003934 67.044807 
L 283.003934 66.58506 
L 283.58688 66.58506 
L 283.58688 66.125312 
L 284.201858 66.125312 
L 284.201889 64.74607 
L 286.485144 64.74607 
L 286.485144 64.286323 
L 291.432619 64.286323 
L 291.528834 63.366828 
L 293.052907 63.366828 
L 293.052907 62.907081 
L 293.409943 62.907081 
L 293.409961 61.987586 
L 294.781966 61.987586 
L 294.781966 61.527839 
L 295.027059 61.527839 
L 295.027059 61.068091 
L 306.444263 61.068091 
L 306.444263 60.608344 
L 307.296921 60.608344 
L 307.296921 60.148597 
L 314.328855 60.148597 
L 314.328855 59.688849 
L 333.569032 59.688849 
L 333.569032 59.688849 
" style="fill:none;stroke:#000080;stroke-linecap:square;stroke-width:1.5;"/>
   </g>
   <g id="line2d_48">
    <defs>
     <path d="M 0 6 
C 1.591219 6 3.117479 5.367802 4.242641 4.242641 
C 5.367802 3.117479 6 1.591219 6 0 
C 6 -1.591219 5.367802 -3.117479 4.242641 -4.242641 
C 3.117479 -5.367802 1.591219 -6 0 -6 
C -1.591219 -6 -3.117479 -5.367802 -4.242641 -4.242641 
C -5.367802 -3.117479 -6 -1.591219 -6 0 
C -6 1.591219 -5.367802 3.117479 -4.242641 4.242641 
C -3.117479 5.367802 -1.591219 6 0 6 
z
" id="m530ed86855" style="stroke:#000080;stroke-width:1.5;"/>
    </defs>
    <g>
     <use style="fill:none;stroke:#000080;stroke-width:1.5;" x="179.082841" xlink:href="#m530ed86855" y="164.511246"/>
     <use style="fill:none;stroke:#000080;stroke-width:1.5;" x="220.518085" xlink:href="#m530ed86855" y="108.881816"/>
     <use style="fill:none;stroke:#000080;stroke-width:1.5;" x="293.409961" xlink:href="#m530ed86855" y="62.447334"/>
     <use style="fill:none;stroke:#000080;stroke-width:1.5;" x="314.328855" xlink:href="#m530ed86855" y="59.688849"/>
     <use style="fill:none;stroke:#000080;stroke-width:1.5;" x="333.569032" xlink:href="#m530ed86855" y="59.688849"/>
    </g>
   </g>
   <g id="line2d_49">
    <path style="fill:none;stroke:#000080;stroke-linecap:square;stroke-width:1.5;"/>
    <g/>
   </g>
   <g id="line2d_50">
    <path clip-path="url(#ped597168e2)" d="M 254.513635 86.813943 
" style="fill:none;stroke:#000080;stroke-linecap:square;stroke-width:1.5;"/>
    <defs>
     <path d="M -12 12 
L 12 -12 
M -12 -12 
L 12 12 
" id="mf05dfab7c7" style="stroke:#000080;stroke-width:3;"/>
    </defs>
    <g clip-path="url(#ped597168e2)">
     <use style="fill:#000080;stroke:#000080;stroke-width:3;" x="254.513635" xlink:href="#mf05dfab7c7" y="86.813943"/>
    </g>
   </g>
   <g id="line2d_51">
    <defs>
     <path d="M 0 1.5 
C 0.397805 1.5 0.77937 1.341951 1.06066 1.06066 
C 1.341951 0.77937 1.5 0.397805 1.5 0 
C 1.5 -0.397805 1.341951 -0.77937 1.06066 -1.06066 
C 0.77937 -1.341951 0.397805 -1.5 0 -1.5 
C -0.397805 -1.5 -0.77937 -1.341951 -1.06066 -1.06066 
C -1.341951 -0.77937 -1.5 -0.397805 -1.5 0 
C -1.5 0.397805 -1.341951 0.77937 -1.06066 1.06066 
C -0.77937 1.341951 -0.397805 1.5 0 1.5 
z
" id="md7d8736881" style="stroke:#ff00ff;"/>
    </defs>
    <g>
     <use style="fill:#ff00ff;stroke:#ff00ff;" x="329.709991" xlink:href="#md7d8736881" y="87.273691"/>
     <use style="fill:#ff00ff;stroke:#ff00ff;" x="329.709991" xlink:href="#md7d8736881" y="87.273691"/>
    </g>
   </g>
   <g id="line2d_52">
    <path d="M 44.939466 294.16 
L 44.939466 293.700253 
L 56.84 293.700253 
L 56.84 289.562526 
L 63.801366 289.562526 
L 63.801366 288.183284 
L 68.740534 288.183284 
L 68.740534 287.26379 
L 72.57165 287.26379 
L 72.57165 285.4248 
L 75.7019 285.4248 
L 75.7019 279.907832 
L 82.663267 279.907832 
L 82.663267 278.988337 
L 86.10855 278.988337 
L 86.10855 272.551874 
L 92.541603 272.551874 
L 92.541603 269.79339 
L 100.877209 269.79339 
L 100.877209 269.333643 
L 103.334085 269.333643 
L 103.334085 268.414148 
L 103.897048 268.414148 
L 103.897048 265.195917 
L 104.442137 265.195917 
L 104.442137 262.89718 
L 106.464335 262.89718 
L 106.464335 261.517938 
L 107.838576 261.517938 
L 107.838576 260.138696 
L 109.909618 260.138696 
L 109.909618 259.678948 
L 112.777744 259.678948 
L 112.777744 258.299706 
L 114.946061 258.299706 
L 114.946061 257.839959 
L 118.835278 257.839959 
L 118.835278 256.920464 
L 119.293141 256.920464 
L 119.293141 256.00097 
L 120.597731 256.00097 
L 120.597731 255.541222 
L 121.011458 255.541222 
L 121.011458 254.16198 
L 122.385698 254.16198 
L 122.385698 253.242485 
L 123.304037 253.242485 
L 123.304037 250.943749 
L 128.771519 250.943749 
L 128.771519 250.024254 
L 130.265403 250.024254 
L 130.265403 249.104759 
L 130.96627 249.104759 
L 130.96627 248.645012 
L 131.858358 248.645012 
L 131.858358 246.346275 
L 133.710687 246.346275 
L 133.710687 245.886528 
L 134.659483 245.886528 
L 134.659483 244.967033 
L 136.578812 244.967033 
L 136.578812 244.507286 
L 136.824671 244.507286 
L 136.824671 243.128044 
L 137.067058 243.128044 
L 137.067058 242.668296 
L 139.035688 242.668296 
L 139.107076 240.36956 
L 140.866053 240.36956 
L 140.866053 239.909812 
L 143.150593 239.909812 
L 143.150593 238.990318 
L 144.812526 238.990318 
L 144.812526 238.53057 
L 145.066133 238.53057 
L 145.066133 237.151328 
L 146.420998 237.151328 
L 146.420998 235.772086 
L 147.060337 235.772086 
L 147.060337 235.312339 
L 149.127304 235.312339 
L 149.127304 233.933097 
L 152.702164 233.933097 
L 152.702164 232.553855 
L 153.765784 232.553855 
L 153.765784 232.094107 
L 155.413176 232.094107 
L 155.413176 230.255118 
L 158.274941 230.255118 
L 158.274941 228.875876 
L 158.82586 228.875876 
L 158.82586 227.956381 
L 159.533954 227.956381 
L 159.533954 227.036886 
L 159.85608 227.036886 
L 159.919786 224.278402 
L 160.297139 224.278402 
L 160.297139 223.818655 
L 161.205755 223.818655 
L 161.205755 222.439413 
L 162.511784 222.439413 
L 162.511784 221.060171 
L 162.656976 221.060171 
L 162.656976 220.600423 
L 163.2607 220.600423 
L 163.2607 218.761434 
L 163.86077 218.761434 
L 163.86077 218.301687 
L 165.952096 218.301687 
L 165.952096 217.841939 
L 167.077852 217.841939 
L 167.077852 216.462697 
L 168.562421 216.462697 
L 168.562421 215.543202 
L 170.023174 215.543202 
L 170.023174 214.16396 
L 170.692475 214.16396 
L 170.692475 212.324971 
L 175.549393 212.324971 
L 175.549393 211.405476 
L 177.978954 211.405476 
L 177.986356 209.10674 
L 179.582308 209.10674 
L 179.582308 208.646992 
L 180.047978 208.646992 
L 180.047978 207.727497 
L 181.221126 207.727497 
L 181.300626 206.808003 
L 181.86477 206.808003 
L 181.86477 204.969013 
L 184.304318 204.969013 
L 184.304318 203.130024 
L 186.686936 203.130024 
L 186.686936 202.670277 
L 187.925176 202.670277 
L 187.925176 201.750782 
L 188.27419 201.750782 
L 188.27419 201.291034 
L 188.488273 201.291034 
L 188.512342 199.911792 
L 191.432192 199.911792 
L 191.432192 198.992298 
L 191.556861 198.992298 
L 191.556861 198.53255 
L 191.753803 198.53255 
L 191.753803 197.613056 
L 192.721682 197.613056 
L 192.721682 196.693561 
L 193.225547 196.693561 
L 193.225547 195.774066 
L 193.830125 195.774066 
L 193.830125 195.314319 
L 194.824208 195.314319 
L 194.871326 193.935077 
L 196.677199 193.935077 
L 196.769137 192.096087 
L 198.128884 192.096087 
L 198.128884 191.63634 
L 198.331449 191.63634 
L 198.331449 191.176593 
L 198.994986 191.176593 
L 198.994986 190.257098 
L 199.4631 190.257098 
L 199.4631 189.797351 
L 200.468905 189.797351 
L 200.468905 189.337603 
L 200.703038 189.337603 
L 200.703038 188.877856 
L 201.454909 188.877856 
L 201.454909 187.958361 
L 201.910935 187.958361 
L 201.910935 187.498614 
L 203.242877 187.498614 
L 203.242877 187.038867 
L 205.73801 187.038867 
L 205.73801 185.659624 
L 206.384171 185.659624 
L 206.384171 184.74013 
L 207.541783 184.74013 
L 207.541783 183.820635 
L 207.925175 183.820635 
L 207.925175 183.360888 
L 210.134413 183.360888 
L 210.134413 182.90114 
L 210.525858 182.90114 
L 210.525858 180.142656 
L 211.971297 180.142656 
L 211.971297 179.682909 
L 212.302383 179.682909 
L 212.302383 178.303667 
L 212.452147 178.303667 
L 212.452147 177.843919 
L 213.148599 177.843919 
L 213.148599 176.924425 
L 213.834415 176.924425 
L 213.919502 175.085435 
L 214.0468 175.085435 
L 214.0468 174.165941 
L 215.582231 174.165941 
L 215.582231 173.246446 
L 215.90231 173.246446 
L 215.90231 172.786699 
L 216.996889 172.786699 
L 216.996889 172.326951 
L 217.583338 172.326951 
L 217.583338 170.947709 
L 219.552453 170.947709 
L 219.62854 169.568467 
L 222.202516 169.568467 
L 222.202516 169.10872 
L 222.837908 169.10872 
L 222.837908 168.189225 
L 222.958547 168.189225 
L 222.958547 166.809983 
L 223.860582 166.809983 
L 223.860582 165.890488 
L 224.130563 165.890488 
L 224.130563 164.970994 
L 225.5134 164.970994 
L 225.5134 163.591751 
L 227.146471 163.591751 
L 227.146471 162.212509 
L 228.131429 162.212509 
L 228.131429 161.293015 
L 228.596899 161.293015 
L 228.596899 159.454025 
L 229.05991 159.454025 
L 229.05991 158.994278 
L 231.712327 158.994278 
L 231.811114 158.074783 
L 234.63389 158.074783 
L 234.63389 155.776046 
L 235.496174 155.776046 
L 235.496174 154.856552 
L 236.092166 154.856552 
L 236.092166 154.396804 
L 236.634651 154.396804 
L 236.634651 153.017562 
L 238.234386 153.017562 
L 238.234386 152.098068 
L 240.541242 152.098068 
L 240.541242 151.63832 
L 241.657048 151.63832 
L 241.657048 151.178573 
L 242.098332 151.178573 
L 242.098332 150.259078 
L 243.776871 150.259078 
L 243.776871 149.799331 
L 243.915647 149.799331 
L 243.915647 149.339583 
L 244.686347 149.339583 
L 244.686347 148.879836 
L 246.481223 148.879836 
L 246.481223 148.420089 
L 249.040061 148.420089 
L 249.040061 147.960341 
L 249.348116 147.960341 
L 249.368156 147.040847 
L 253.022597 147.040847 
L 253.07716 146.121352 
L 253.92258 146.121352 
L 253.92258 145.661605 
L 254.166896 145.661605 
L 254.166896 144.74211 
L 255.42836 144.74211 
L 255.42836 144.282363 
L 257.11119 144.282363 
L 257.11119 143.822615 
L 258.620616 143.822615 
L 258.620616 143.362868 
L 259.93808 143.362868 
L 259.93808 142.903121 
L 262.068306 142.903121 
L 262.068306 141.983626 
L 262.914473 141.983626 
L 262.914473 141.064131 
L 265.562384 141.064131 
L 265.651544 139.225142 
L 266.731993 139.225142 
L 266.731993 138.765394 
L 268.884221 138.765394 
L 268.884221 137.8459 
L 269.220849 137.8459 
L 269.220849 137.386152 
L 269.446378 137.386152 
L 269.446378 136.466658 
L 270.261562 136.466658 
L 270.261562 136.00691 
L 271.924378 136.00691 
L 271.924378 135.547163 
L 272.579258 135.547163 
L 272.646019 132.788679 
L 274.707798 132.788679 
L 274.707798 132.328931 
L 276.797186 132.328931 
L 276.797186 131.409437 
L 277.08488 131.409437 
L 277.08488 130.949689 
L 277.246603 130.949689 
L 277.246603 130.489942 
L 278.405341 130.489942 
L 278.405341 129.570447 
L 280.248469 129.570447 
L 280.248469 128.650953 
L 281.928907 128.650953 
L 281.928907 128.191205 
L 284.030901 128.191205 
L 284.030901 127.731458 
L 284.624822 127.731458 
L 284.703638 126.352216 
L 285.026216 126.352216 
L 285.026216 125.892468 
L 286.621638 125.892468 
L 286.621638 125.432721 
L 287.948806 125.432721 
L 287.948806 124.053479 
L 288.722913 124.053479 
L 288.722913 123.133984 
L 290.095212 123.133984 
L 290.095212 122.674237 
L 292.003365 122.674237 
L 292.016483 120.3755 
L 292.238084 120.3755 
L 292.238084 119.456005 
L 292.409645 119.456005 
L 292.409645 118.996258 
L 294.689321 118.996258 
L 294.689321 118.536511 
L 294.850283 118.536511 
L 294.857543 117.157269 
L 295.079939 117.157269 
L 295.079939 116.697521 
L 295.543199 116.697521 
L 295.543199 116.237774 
L 295.882945 116.237774 
L 295.882945 115.778027 
L 296.436521 115.778027 
L 296.436521 114.858532 
L 297.492091 114.858532 
L 297.492091 114.398785 
L 297.669289 114.398785 
L 297.669289 113.939037 
L 297.872696 113.939037 
L 297.872696 113.47929 
L 298.218813 113.47929 
L 298.218813 113.019543 
L 299.395779 113.019543 
L 299.395779 112.559795 
L 300.391339 112.559795 
L 300.484769 110.720806 
L 300.928999 110.720806 
L 300.928999 109.801311 
L 302.016193 109.801311 
L 302.016193 109.341564 
L 302.626708 109.341564 
L 302.626708 108.881816 
L 304.079134 108.881816 
L 304.079134 108.422069 
L 304.924518 108.422069 
L 304.956618 106.58308 
L 305.142771 106.58308 
L 305.142771 105.663585 
L 306.048583 105.663585 
L 306.048583 105.203837 
L 306.56113 105.203837 
L 306.56113 104.284343 
L 306.706817 104.284343 
L 306.706817 103.824595 
L 307.633557 103.824595 
L 307.633557 103.364848 
L 308.244246 103.364848 
L 308.244246 102.445353 
L 308.824865 102.445353 
L 308.824865 101.985606 
L 310.164093 101.985606 
L 310.164093 101.525859 
L 310.763805 101.525859 
L 310.763805 101.066111 
L 311.682334 101.066111 
L 311.682334 100.606364 
L 312.230003 100.606364 
L 312.250985 99.686869 
L 312.372931 99.686869 
L 312.372931 99.227122 
L 312.823645 99.227122 
L 312.823645 98.307627 
L 312.951694 98.307627 
L 312.951694 97.84788 
L 313.118654 97.84788 
L 313.118654 97.388132 
L 313.491799 97.388132 
L 313.491799 96.928385 
L 313.820213 96.928385 
L 313.820213 96.468638 
L 314.196517 96.468638 
L 314.196517 96.00889 
L 314.876488 96.00889 
L 314.876488 95.549143 
L 315.28756 95.549143 
L 315.28756 95.089396 
L 315.988727 95.089396 
L 315.988727 94.629648 
L 317.354262 94.629648 
L 317.354262 94.169901 
L 317.781486 94.169901 
L 317.781486 93.710154 
L 318.416548 93.710154 
L 318.416548 93.250406 
L 318.879785 93.250406 
L 318.879785 92.790659 
L 320.205842 92.790659 
L 320.205842 92.330912 
L 320.41994 92.330912 
L 320.41994 91.871164 
L 320.611564 91.871164 
L 320.611564 91.411417 
L 320.94935 91.411417 
L 320.94935 90.491922 
L 321.623796 90.491922 
L 321.623796 89.572427 
L 323.588686 89.572427 
L 323.588686 89.11268 
L 324.201569 89.11268 
L 324.201569 88.652933 
L 325.599784 88.652933 
L 325.599784 88.193185 
L 327.626241 88.193185 
L 327.626241 87.733438 
L 329.709991 87.733438 
L 329.709991 87.273691 
L 333.569032 87.273691 
L 333.569032 87.273691 
" style="fill:none;stroke:#ff00ff;stroke-linecap:square;stroke-width:1.5;"/>
   </g>
   <g id="line2d_53">
    <defs>
     <path d="M -0 8.485281 
L 5.091169 0 
L 0 -8.485281 
L -5.091169 -0 
z
" id="m7a751cd05c" style="stroke:#ff00ff;stroke-linejoin:miter;stroke-width:1.5;"/>
    </defs>
    <g>
     <use style="fill:none;stroke:#ff00ff;stroke-linejoin:miter;stroke-width:1.5;" x="139.107076" xlink:href="#m7a751cd05c" y="240.36956"/>
     <use style="fill:none;stroke:#ff00ff;stroke-linejoin:miter;stroke-width:1.5;" x="212.302383" xlink:href="#m7a751cd05c" y="179.682909"/>
     <use style="fill:none;stroke:#ff00ff;stroke-linejoin:miter;stroke-width:1.5;" x="280.248469" xlink:href="#m7a751cd05c" y="129.570447"/>
     <use style="fill:none;stroke:#ff00ff;stroke-linejoin:miter;stroke-width:1.5;" x="321.623796" xlink:href="#m7a751cd05c" y="90.491922"/>
     <use style="fill:none;stroke:#ff00ff;stroke-linejoin:miter;stroke-width:1.5;" x="329.709991" xlink:href="#m7a751cd05c" y="87.273691"/>
     <use style="fill:none;stroke:#ff00ff;stroke-linejoin:miter;stroke-width:1.5;" x="333.569032" xlink:href="#m7a751cd05c" y="87.273691"/>
    </g>
   </g>
   <g id="line2d_54">
    <path style="fill:none;stroke:#ff00ff;stroke-linecap:square;stroke-width:1.5;"/>
    <g/>
   </g>
   <g id="line2d_55">
    <path clip-path="url(#ped597168e2)" d="M 294.036313 118.996258 
" style="fill:none;stroke:#ff00ff;stroke-linecap:square;stroke-width:1.5;"/>
    <defs>
     <path d="M -12 12 
L 12 -12 
M -12 -12 
L 12 12 
" id="m1a7e1c8af0" style="stroke:#ff00ff;stroke-width:3;"/>
    </defs>
    <g clip-path="url(#ped597168e2)">
     <use style="fill:#ff00ff;stroke:#ff00ff;stroke-width:3;" x="294.036313" xlink:href="#m1a7e1c8af0" y="118.996258"/>
    </g>
   </g>
   <g id="line2d_56">
    <defs>
     <path d="M 0 1.5 
C 0.397805 1.5 0.77937 1.341951 1.06066 1.06066 
C 1.341951 0.77937 1.5 0.397805 1.5 0 
C 1.5 -0.397805 1.341951 -0.77937 1.06066 -1.06066 
C 0.77937 -1.341951 0.397805 -1.5 0 -1.5 
C -0.397805 -1.5 -0.77937 -1.341951 -1.06066 -1.06066 
C -1.341951 -0.77937 -1.5 -0.397805 -1.5 0 
C -1.5 0.397805 -1.341951 0.77937 -1.06066 1.06066 
C -0.77937 1.341951 -0.397805 1.5 0 1.5 
z
" id="m17f3b3e33a" style="stroke:#ffa500;"/>
    </defs>
    <g>
     <use style="fill:#ffa500;stroke:#ffa500;" x="248.096868" xlink:href="#m17f3b3e33a" y="220.600423"/>
     <use style="fill:#ffa500;stroke:#ffa500;" x="248.096868" xlink:href="#m17f3b3e33a" y="220.600423"/>
    </g>
   </g>
   <g id="line2d_57">
    <path d="M 44.939466 294.16 
L 44.939466 287.26379 
L 112.444358 287.26379 
L 112.444358 284.965053 
L 145.066133 284.965053 
L 145.066133 283.126064 
L 155.605009 283.126064 
L 155.605009 282.666316 
L 157.657461 282.666316 
L 157.657461 281.746821 
L 158.621331 281.746821 
L 158.621331 280.827327 
L 159.490543 280.827327 
L 159.490543 279.448085 
L 161.166377 279.448085 
L 161.166377 278.988337 
L 164.521827 278.988337 
L 164.521827 276.689601 
L 166.437415 276.689601 
L 166.437415 276.229853 
L 172.135354 276.229853 
L 172.135354 274.850611 
L 172.42426 274.850611 
L 172.42426 274.390864 
L 177.113498 274.390864 
L 177.113498 273.931116 
L 178.950424 273.931116 
L 178.950424 272.551874 
L 180.373032 272.551874 
L 180.373032 272.092127 
L 182.962486 272.092127 
L 183.028818 270.712885 
L 183.138804 270.712885 
L 183.138804 270.253138 
L 183.389131 270.253138 
L 183.389131 269.79339 
L 184.749237 269.79339 
L 184.749237 269.333643 
L 184.888417 269.333643 
L 184.908208 268.414148 
L 186.097351 268.414148 
L 186.097351 267.954401 
L 186.22606 267.954401 
L 186.299178 267.034906 
L 186.606499 267.034906 
L 186.606499 266.575159 
L 186.908415 266.575159 
L 186.996213 265.655664 
L 187.17914 265.655664 
L 187.192132 264.736169 
L 187.330104 264.736169 
L 187.330104 264.276422 
L 190.386476 264.276422 
L 190.386476 263.816675 
L 190.501102 263.816675 
L 190.572357 262.437433 
L 190.643318 262.437433 
L 190.643318 261.977685 
L 193.06948 261.977685 
L 193.06948 261.517938 
L 193.697273 261.517938 
L 193.709124 260.598443 
L 194.998176 260.598443 
L 194.998176 260.138696 
L 195.808481 260.138696 
L 195.808481 259.678948 
L 196.599789 259.678948 
L 196.599789 259.219201 
L 196.749301 259.219201 
L 196.858121 257.839959 
L 196.870443 257.839959 
L 196.956454 256.920464 
L 197.034716 256.920464 
L 197.105335 256.00097 
L 197.252936 256.00097 
L 197.252936 255.541222 
L 197.556226 255.541222 
L 197.622378 254.16198 
L 198.962302 254.16198 
L 198.962302 253.702233 
L 200.083026 253.702233 
L 200.172692 252.782738 
L 200.197065 252.782738 
L 200.197065 252.322991 
L 200.631945 252.322991 
L 200.631945 251.863243 
L 203.43892 251.863243 
L 203.457395 250.943749 
L 204.705146 250.943749 
L 204.762804 250.024254 
L 206.2563 250.024254 
L 206.2563 249.564507 
L 206.842295 249.564507 
L 206.842295 249.104759 
L 207.703773 249.104759 
L 207.782241 246.806023 
L 207.849958 246.806023 
L 207.881123 245.42678 
L 208.17567 245.42678 
L 208.17567 244.967033 
L 211.422845 244.967033 
L 211.490264 244.047538 
L 211.55742 244.047538 
L 211.611792 243.128044 
L 213.20102 243.128044 
L 213.20102 242.668296 
L 213.379006 242.668296 
L 213.394068 241.748802 
L 214.391193 241.748802 
L 214.391193 241.289054 
L 214.504473 241.289054 
L 214.522986 240.36956 
L 214.736647 240.36956 
L 214.736647 239.909812 
L 216.888215 239.909812 
L 216.946464 238.990318 
L 217.087433 238.990318 
L 217.087433 238.53057 
L 218.048824 238.53057 
L 218.048824 238.070823 
L 219.28613 238.070823 
L 219.28613 237.611075 
L 219.437685 237.611075 
L 219.469422 236.691581 
L 221.165076 236.691581 
L 221.244486 234.852591 
L 222.973635 234.852591 
L 223.027949 233.473349 
L 224.54495 233.473349 
L 224.54495 233.013602 
L 224.684461 233.013602 
L 224.721473 232.094107 
L 225.995281 232.094107 
L 226.076843 231.174612 
L 226.127119 231.174612 
L 226.127119 230.714865 
L 227.344278 230.714865 
L 227.449597 229.335623 
L 227.46453 229.335623 
L 227.46453 228.875876 
L 229.830552 228.875876 
L 229.830552 228.416128 
L 230.868941 228.416128 
L 230.868941 227.956381 
L 230.994982 227.956381 
L 230.994982 227.496634 
L 231.911896 227.496634 
L 232.009226 226.117392 
L 232.86274 226.117392 
L 232.86274 225.657644 
L 233.870506 225.657644 
L 233.870506 225.197897 
L 235.444411 225.197897 
L 235.518236 224.278402 
L 236.274078 224.278402 
L 236.274078 223.818655 
L 239.759391 223.818655 
L 239.775593 222.89916 
L 241.567924 222.89916 
L 241.567924 222.439413 
L 243.650862 222.439413 
L 243.650862 221.979665 
L 246.009076 221.979665 
L 246.009076 221.519918 
L 246.877539 221.519918 
L 246.877539 221.060171 
L 248.096868 221.060171 
L 248.096868 220.600423 
L 333.569032 220.600423 
L 333.569032 220.600423 
" style="fill:none;stroke:#ffa500;stroke-linecap:square;stroke-width:1.5;"/>
   </g>
   <g id="line2d_58">
    <defs>
     <path d="M 0 -6 
L -1.347084 -1.854102 
L -5.706339 -1.854102 
L -2.179628 0.708204 
L -3.526712 4.854102 
L -0 2.291796 
L 3.526712 4.854102 
L 2.179628 0.708204 
L 5.706339 -1.854102 
L 1.347084 -1.854102 
z
" id="m02af6f2a0e" style="stroke:#ffa500;stroke-linejoin:bevel;stroke-width:1.5;"/>
    </defs>
    <g>
     <use style="fill:none;stroke:#ffa500;stroke-linejoin:bevel;stroke-width:1.5;" x="193.709124" xlink:href="#m02af6f2a0e" y="261.058191"/>
     <use style="fill:none;stroke:#ffa500;stroke-linejoin:bevel;stroke-width:1.5;" x="246.877539" xlink:href="#m02af6f2a0e" y="221.519918"/>
     <use style="fill:none;stroke:#ffa500;stroke-linejoin:bevel;stroke-width:1.5;" x="248.096868" xlink:href="#m02af6f2a0e" y="220.600423"/>
     <use style="fill:none;stroke:#ffa500;stroke-linejoin:bevel;stroke-width:1.5;" x="248.096868" xlink:href="#m02af6f2a0e" y="220.600423"/>
     <use style="fill:none;stroke:#ffa500;stroke-linejoin:bevel;stroke-width:1.5;" x="333.569032" xlink:href="#m02af6f2a0e" y="220.600423"/>
    </g>
   </g>
   <g id="line2d_59">
    <path style="fill:none;stroke:#ffa500;stroke-linecap:square;stroke-width:1.5;"/>
    <g/>
   </g>
   <g id="line2d_60">
    <path clip-path="url(#ped597168e2)" d="M 183.0233 271.172632 
" style="fill:none;stroke:#ffa500;stroke-linecap:square;stroke-width:1.5;"/>
    <defs>
     <path d="M -12 12 
L 12 -12 
M -12 -12 
L 12 12 
" id="mcd92a41d11" style="stroke:#ffa500;stroke-width:3;"/>
    </defs>
    <g clip-path="url(#ped597168e2)">
     <use style="fill:#ffa500;stroke:#ffa500;stroke-width:3;" x="183.0233" xlink:href="#mcd92a41d11" y="271.172632"/>
    </g>
   </g>
   <g id="line2d_61">
    <path d="M 333.569032 220.600423 
L 364.009226 288.826931 
" style="fill:none;stroke:#ffa500;stroke-linecap:square;stroke-width:1.5;"/>
    <g>
     <use style="fill:none;stroke:#ffa500;stroke-linejoin:bevel;stroke-width:1.5;" x="333.569032" xlink:href="#m02af6f2a0e" y="220.600423"/>
     <use style="fill:none;stroke:#ffa500;stroke-linejoin:bevel;stroke-width:1.5;" x="364.009226" xlink:href="#m02af6f2a0e" y="288.826931"/>
    </g>
   </g>
   <g id="line2d_62">
    <path d="M 333.569032 87.273691 
L 364.009226 203.497822 
" style="fill:none;stroke:#ff00ff;stroke-linecap:square;stroke-width:1.5;"/>
    <g>
     <use style="fill:none;stroke:#ff00ff;stroke-linejoin:miter;stroke-width:1.5;" x="333.569032" xlink:href="#m7a751cd05c" y="87.273691"/>
     <use style="fill:none;stroke:#ff00ff;stroke-linejoin:miter;stroke-width:1.5;" x="364.009226" xlink:href="#m7a751cd05c" y="203.497822"/>
    </g>
   </g>
   <g id="line2d_63">
    <path d="M 333.569032 59.688849 
L 364.009226 118.168713 
" style="fill:none;stroke:#000080;stroke-linecap:square;stroke-width:1.5;"/>
    <g>
     <use style="fill:none;stroke:#000080;stroke-width:1.5;" x="333.569032" xlink:href="#m530ed86855" y="59.688849"/>
     <use style="fill:none;stroke:#000080;stroke-width:1.5;" x="364.009226" xlink:href="#m530ed86855" y="118.168713"/>
    </g>
   </g>
   <g id="line2d_64">
    <path d="M 333.569032 294.16 
L 333.569032 27.506535 
" style="fill:none;stroke:#000000;stroke-linecap:square;stroke-width:1.5;"/>
   </g>
   <g id="patch_3">
    <path d="M 56.84 294.16 
L 56.84 24.84 
" style="fill:none;stroke:#000000;stroke-linecap:square;stroke-linejoin:miter;stroke-width:0.8;"/>
   </g>
   <g id="patch_4">
    <path d="M 399.984 294.16 
L 399.984 24.84 
" style="fill:none;stroke:#000000;stroke-linecap:square;stroke-linejoin:miter;stroke-width:0.8;"/>
   </g>
   <g id="patch_5">
    <path d="M 56.84 294.16 
L 399.984 294.16 
" style="fill:none;stroke:#000000;stroke-linecap:square;stroke-linejoin:miter;stroke-width:0.8;"/>
   </g>
   <g id="patch_6">
    <path d="M 56.84 24.84 
L 399.984 24.84 
" style="fill:none;stroke:#000000;stroke-linecap:square;stroke-linejoin:miter;stroke-width:0.8;"/>
   </g>
   <g id="text_14">
    <!-- adaptiveH -->
    <defs>
     <path d="M 9.8125 72.90625 
L 19.671875 72.90625 
L 19.671875 43.015625 
L 55.515625 43.015625 
L 55.515625 72.90625 
L 65.375 72.90625 
L 65.375 0 
L 55.515625 0 
L 55.515625 34.71875 
L 19.671875 34.71875 
L 19.671875 0 
L 9.8125 0 
z
" id="DejaVuSans-48"/>
    </defs>
    <g transform="translate(369.543806 293.517868)scale(0.17 -0.17)">
     <use xlink:href="#DejaVuSans-61"/>
     <use x="61.279297" xlink:href="#DejaVuSans-64"/>
     <use x="124.755859" xlink:href="#DejaVuSans-61"/>
     <use x="186.035156" xlink:href="#DejaVuSans-70"/>
     <use x="249.511719" xlink:href="#DejaVuSans-74"/>
     <use x="288.720703" xlink:href="#DejaVuSans-69"/>
     <use x="316.503906" xlink:href="#DejaVuSans-76"/>
     <use x="375.683594" xlink:href="#DejaVuSans-65"/>
     <use x="437.207031" xlink:href="#DejaVuSans-48"/>
    </g>
   </g>
   <g id="text_15">
    <!-- RANDOMSEA -->
    <defs>
     <path d="M 44.390625 34.1875 
Q 47.5625 33.109375 50.5625 29.59375 
Q 53.5625 26.078125 56.59375 19.921875 
L 66.609375 0 
L 56 0 
L 46.6875 18.703125 
Q 43.0625 26.03125 39.671875 28.421875 
Q 36.28125 30.8125 30.421875 30.8125 
L 19.671875 30.8125 
L 19.671875 0 
L 9.8125 0 
L 9.8125 72.90625 
L 32.078125 72.90625 
Q 44.578125 72.90625 50.734375 67.671875 
Q 56.890625 62.453125 56.890625 51.90625 
Q 56.890625 45.015625 53.6875 40.46875 
Q 50.484375 35.9375 44.390625 34.1875 
M 19.671875 64.796875 
L 19.671875 38.921875 
L 32.078125 38.921875 
Q 39.203125 38.921875 42.84375 42.21875 
Q 46.484375 45.515625 46.484375 51.90625 
Q 46.484375 58.296875 42.84375 61.546875 
Q 39.203125 64.796875 32.078125 64.796875 
z
" id="DejaVuSans-52"/>
     <path d="M 34.1875 63.1875 
L 20.796875 26.90625 
L 47.609375 26.90625 
z
M 28.609375 72.90625 
L 39.796875 72.90625 
L 67.578125 0 
L 57.328125 0 
L 50.6875 18.703125 
L 17.828125 18.703125 
L 11.1875 0 
L 0.78125 0 
z
" id="DejaVuSans-41"/>
     <path d="M 9.8125 72.90625 
L 23.09375 72.90625 
L 55.421875 11.921875 
L 55.421875 72.90625 
L 64.984375 72.90625 
L 64.984375 0 
L 51.703125 0 
L 19.390625 60.984375 
L 19.390625 0 
L 9.8125 0 
z
" id="DejaVuSans-4e"/>
     <path d="M 19.671875 64.796875 
L 19.671875 8.109375 
L 31.59375 8.109375 
Q 46.6875 8.109375 53.6875 14.9375 
Q 60.6875 21.78125 60.6875 36.53125 
Q 60.6875 51.171875 53.6875 57.984375 
Q 46.6875 64.796875 31.59375 64.796875 
z
M 9.8125 72.90625 
L 30.078125 72.90625 
Q 51.265625 72.90625 61.171875 64.09375 
Q 71.09375 55.28125 71.09375 36.53125 
Q 71.09375 17.671875 61.125 8.828125 
Q 51.171875 0 30.078125 0 
L 9.8125 0 
z
" id="DejaVuSans-44"/>
     <path d="M 39.40625 66.21875 
Q 28.65625 66.21875 22.328125 58.203125 
Q 16.015625 50.203125 16.015625 36.375 
Q 16.015625 22.609375 22.328125 14.59375 
Q 28.65625 6.59375 39.40625 6.59375 
Q 50.140625 6.59375 56.421875 14.59375 
Q 62.703125 22.609375 62.703125 36.375 
Q 62.703125 50.203125 56.421875 58.203125 
Q 50.140625 66.21875 39.40625 66.21875 
M 39.40625 74.21875 
Q 54.734375 74.21875 63.90625 63.9375 
Q 73.09375 53.65625 73.09375 36.375 
Q 73.09375 19.140625 63.90625 8.859375 
Q 54.734375 -1.421875 39.40625 -1.421875 
Q 24.03125 -1.421875 14.8125 8.828125 
Q 5.609375 19.09375 5.609375 36.375 
Q 5.609375 53.65625 14.8125 63.9375 
Q 24.03125 74.21875 39.40625 74.21875 
" id="DejaVuSans-4f"/>
     <path d="M 9.8125 72.90625 
L 24.515625 72.90625 
L 43.109375 23.296875 
L 61.8125 72.90625 
L 76.515625 72.90625 
L 76.515625 0 
L 66.890625 0 
L 66.890625 64.015625 
L 48.09375 14.015625 
L 38.1875 14.015625 
L 19.390625 64.015625 
L 19.390625 0 
L 9.8125 0 
z
" id="DejaVuSans-4d"/>
     <path d="M 53.515625 70.515625 
L 53.515625 60.890625 
Q 47.90625 63.578125 42.921875 64.890625 
Q 37.9375 66.21875 33.296875 66.21875 
Q 25.25 66.21875 20.875 63.09375 
Q 16.5 59.96875 16.5 54.203125 
Q 16.5 49.359375 19.40625 46.890625 
Q 22.3125 44.4375 30.421875 42.921875 
L 36.375 41.703125 
Q 47.40625 39.59375 52.65625 34.296875 
Q 57.90625 29 57.90625 20.125 
Q 57.90625 9.515625 50.796875 4.046875 
Q 43.703125 -1.421875 29.984375 -1.421875 
Q 24.8125 -1.421875 18.96875 -0.25 
Q 13.140625 0.921875 6.890625 3.21875 
L 6.890625 13.375 
Q 12.890625 10.015625 18.65625 8.296875 
Q 24.421875 6.59375 29.984375 6.59375 
Q 38.421875 6.59375 43.015625 9.90625 
Q 47.609375 13.234375 47.609375 19.390625 
Q 47.609375 24.75 44.3125 27.78125 
Q 41.015625 30.8125 33.5 32.328125 
L 27.484375 33.5 
Q 16.453125 35.6875 11.515625 40.375 
Q 6.59375 45.0625 6.59375 53.421875 
Q 6.59375 63.09375 13.40625 68.65625 
Q 20.21875 74.21875 32.171875 74.21875 
Q 37.3125 74.21875 42.625 73.28125 
Q 47.953125 72.359375 53.515625 70.515625 
" id="DejaVuSans-53"/>
     <path d="M 9.8125 72.90625 
L 55.90625 72.90625 
L 55.90625 64.59375 
L 19.671875 64.59375 
L 19.671875 43.015625 
L 54.390625 43.015625 
L 54.390625 34.71875 
L 19.671875 34.71875 
L 19.671875 8.296875 
L 56.78125 8.296875 
L 56.78125 0 
L 9.8125 0 
z
" id="DejaVuSans-45"/>
    </defs>
    <g transform="translate(369.543806 208.188759)scale(0.17 -0.17)">
     <use xlink:href="#DejaVuSans-52"/>
     <use x="69.419922" xlink:href="#DejaVuSans-41"/>
     <use x="137.828125" xlink:href="#DejaVuSans-4e"/>
     <use x="212.632812" xlink:href="#DejaVuSans-44"/>
     <use x="289.634766" xlink:href="#DejaVuSans-4f"/>
     <use x="368.345703" xlink:href="#DejaVuSans-4d"/>
     <use x="454.625" xlink:href="#DejaVuSans-53"/>
     <use x="518.101562" xlink:href="#DejaVuSans-45"/>
     <use x="581.285156" xlink:href="#DejaVuSans-41"/>
    </g>
   </g>
   <g id="text_16">
    <!-- NSGA-II-M -->
    <defs>
     <path d="M 59.515625 10.40625 
L 59.515625 29.984375 
L 43.40625 29.984375 
L 43.40625 38.09375 
L 69.28125 38.09375 
L 69.28125 6.78125 
Q 63.578125 2.734375 56.6875 0.65625 
Q 49.8125 -1.421875 42 -1.421875 
Q 24.90625 -1.421875 15.25 8.5625 
Q 5.609375 18.5625 5.609375 36.375 
Q 5.609375 54.25 15.25 64.234375 
Q 24.90625 74.21875 42 74.21875 
Q 49.125 74.21875 55.546875 72.453125 
Q 61.96875 70.703125 67.390625 67.28125 
L 67.390625 56.78125 
Q 61.921875 61.421875 55.765625 63.765625 
Q 49.609375 66.109375 42.828125 66.109375 
Q 29.4375 66.109375 22.71875 58.640625 
Q 16.015625 51.171875 16.015625 36.375 
Q 16.015625 21.625 22.71875 14.15625 
Q 29.4375 6.6875 42.828125 6.6875 
Q 48.046875 6.6875 52.140625 7.59375 
Q 56.25 8.5 59.515625 10.40625 
" id="DejaVuSans-47"/>
     <path d="M 9.8125 72.90625 
L 19.671875 72.90625 
L 19.671875 0 
L 9.8125 0 
z
" id="DejaVuSans-49"/>
    </defs>
    <g transform="translate(369.543806 122.85965)scale(0.17 -0.17)">
     <use xlink:href="#DejaVuSans-4e"/>
     <use x="74.804688" xlink:href="#DejaVuSans-53"/>
     <use x="138.28125" xlink:href="#DejaVuSans-47"/>
     <use x="215.771484" xlink:href="#DejaVuSans-41"/>
     <use x="284.148438" xlink:href="#DejaVuSans-2d"/>
     <use x="320.232422" xlink:href="#DejaVuSans-49"/>
     <use x="349.724609" xlink:href="#DejaVuSans-49"/>
     <use x="379.216797" xlink:href="#DejaVuSans-2d"/>
     <use x="415.300781" xlink:href="#DejaVuSans-4d"/>
    </g>
   </g>
   <g id="text_17">
    <!-- best 2016 -->
    <defs>
     <path d="M 48.6875 27.296875 
Q 48.6875 37.203125 44.609375 42.84375 
Q 40.53125 48.484375 33.40625 48.484375 
Q 26.265625 48.484375 22.1875 42.84375 
Q 18.109375 37.203125 18.109375 27.296875 
Q 18.109375 17.390625 22.1875 11.75 
Q 26.265625 6.109375 33.40625 6.109375 
Q 40.53125 6.109375 44.609375 11.75 
Q 48.6875 17.390625 48.6875 27.296875 
M 18.109375 46.390625 
Q 20.953125 51.265625 25.265625 53.625 
Q 29.59375 56 35.59375 56 
Q 45.5625 56 51.78125 48.09375 
Q 58.015625 40.1875 58.015625 27.296875 
Q 58.015625 14.40625 51.78125 6.484375 
Q 45.5625 -1.421875 35.59375 -1.421875 
Q 29.59375 -1.421875 25.265625 0.953125 
Q 20.953125 3.328125 18.109375 8.203125 
L 18.109375 0 
L 9.078125 0 
L 9.078125 75.984375 
L 18.109375 75.984375 
z
" id="DejaVuSans-62"/>
    </defs>
    <g transform="translate(369.543806 37.530541)scale(0.17 -0.17)">
     <use xlink:href="#DejaVuSans-62"/>
     <use x="63.476562" xlink:href="#DejaVuSans-65"/>
     <use x="125" xlink:href="#DejaVuSans-73"/>
     <use x="177.099609" xlink:href="#DejaVuSans-74"/>
     <use x="216.308594" xlink:href="#DejaVuSans-20"/>
     <use x="248.095703" xlink:href="#DejaVuSans-32"/>
     <use x="311.71875" xlink:href="#DejaVuSans-30"/>
     <use x="375.341797" xlink:href="#DejaVuSans-31"/>
     <use x="438.964844" xlink:href="#DejaVuSans-36"/>
    </g>
   </g>
   <g id="text_18">
    <!-- bbob-biobj f25, 2-D -->
    <defs>
     <path d="M 9.421875 54.6875 
L 18.40625 54.6875 
L 18.40625 -0.984375 
Q 18.40625 -11.421875 14.421875 -16.109375 
Q 10.453125 -20.796875 1.609375 -20.796875 
L -1.8125 -20.796875 
L -1.8125 -13.1875 
L 0.59375 -13.1875 
Q 5.71875 -13.1875 7.5625 -10.8125 
Q 9.421875 -8.453125 9.421875 -0.984375 
z
M 9.421875 75.984375 
L 18.40625 75.984375 
L 18.40625 64.59375 
L 9.421875 64.59375 
z
" id="DejaVuSans-6a"/>
     <path d="M 10.796875 72.90625 
L 49.515625 72.90625 
L 49.515625 64.59375 
L 19.828125 64.59375 
L 19.828125 46.734375 
Q 21.96875 47.46875 24.109375 47.828125 
Q 26.265625 48.1875 28.421875 48.1875 
Q 40.625 48.1875 47.75 41.5 
Q 54.890625 34.8125 54.890625 23.390625 
Q 54.890625 11.625 47.5625 5.09375 
Q 40.234375 -1.421875 26.90625 -1.421875 
Q 22.3125 -1.421875 17.546875 -0.640625 
Q 12.796875 0.140625 7.71875 1.703125 
L 7.71875 11.625 
Q 12.109375 9.234375 16.796875 8.0625 
Q 21.484375 6.890625 26.703125 6.890625 
Q 35.15625 6.890625 40.078125 11.328125 
Q 45.015625 15.765625 45.015625 23.390625 
Q 45.015625 31 40.078125 35.4375 
Q 35.15625 39.890625 26.703125 39.890625 
Q 22.75 39.890625 18.8125 39.015625 
Q 14.890625 38.140625 10.796875 36.28125 
z
" id="DejaVuSans-35"/>
    </defs>
    <g transform="translate(60.27144 35.283606)scale(0.102 -0.102)">
     <use xlink:href="#DejaVuSans-62"/>
     <use x="63.476562" xlink:href="#DejaVuSans-62"/>
     <use x="126.953125" xlink:href="#DejaVuSans-6f"/>
     <use x="188.134766" xlink:href="#DejaVuSans-62"/>
     <use x="251.611328" xlink:href="#DejaVuSans-2d"/>
     <use x="287.695312" xlink:href="#DejaVuSans-62"/>
     <use x="351.171875" xlink:href="#DejaVuSans-69"/>
     <use x="378.955078" xlink:href="#DejaVuSans-6f"/>
     <use x="440.136719" xlink:href="#DejaVuSans-62"/>
     <use x="503.613281" xlink:href="#DejaVuSans-6a"/>
     <use x="531.396484" xlink:href="#DejaVuSans-20"/>
     <use x="563.183594" xlink:href="#DejaVuSans-66"/>
     <use x="598.388672" xlink:href="#DejaVuSans-32"/>
     <use x="662.011719" xlink:href="#DejaVuSans-35"/>
     <use x="725.634766" xlink:href="#DejaVuSans-2c"/>
     <use x="757.421875" xlink:href="#DejaVuSans-20"/>
     <use x="789.208984" xlink:href="#DejaVuSans-32"/>
     <use x="852.832031" xlink:href="#DejaVuSans-2d"/>
     <use x="888.916016" xlink:href="#DejaVuSans-44"/>
    </g>
    <!-- 58 targets: 1..-1.0e-4 -->
    <defs>
     <path d="M 11.71875 12.40625 
L 22.015625 12.40625 
L 22.015625 0 
L 11.71875 0 
z
M 11.71875 51.703125 
L 22.015625 51.703125 
L 22.015625 39.3125 
L 11.71875 39.3125 
z
" id="DejaVuSans-3a"/>
    </defs>
    <g transform="translate(60.27144 46.705375)scale(0.102 -0.102)">
     <use xlink:href="#DejaVuSans-35"/>
     <use x="63.623047" xlink:href="#DejaVuSans-38"/>
     <use x="127.246094" xlink:href="#DejaVuSans-20"/>
     <use x="159.033203" xlink:href="#DejaVuSans-74"/>
     <use x="198.242188" xlink:href="#DejaVuSans-61"/>
     <use x="259.521484" xlink:href="#DejaVuSans-72"/>
     <use x="300.619141" xlink:href="#DejaVuSans-67"/>
     <use x="364.095703" xlink:href="#DejaVuSans-65"/>
     <use x="425.619141" xlink:href="#DejaVuSans-74"/>
     <use x="464.828125" xlink:href="#DejaVuSans-73"/>
     <use x="516.927734" xlink:href="#DejaVuSans-3a"/>
     <use x="550.619141" xlink:href="#DejaVuSans-20"/>
     <use x="582.40625" xlink:href="#DejaVuSans-31"/>
     <use x="646.029297" xlink:href="#DejaVuSans-2e"/>
     <use x="677.816406" xlink:href="#DejaVuSans-2e"/>
     <use x="709.603516" xlink:href="#DejaVuSans-2d"/>
     <use x="745.6875" xlink:href="#DejaVuSans-31"/>
     <use x="809.310547" xlink:href="#DejaVuSans-2e"/>
     <use x="841.097656" xlink:href="#DejaVuSans-30"/>
     <use x="904.720703" xlink:href="#DejaVuSans-65"/>
     <use x="966.244141" xlink:href="#DejaVuSans-2d"/>
     <use x="1002.328125" xlink:href="#DejaVuSans-34"/>
    </g>
    <!-- 10 instances -->
    <g transform="translate(60.27144 58.127144)scale(0.102 -0.102)">
     <use xlink:href="#DejaVuSans-31"/>
     <use x="63.623047" xlink:href="#DejaVuSans-30"/>
     <use x="127.246094" xlink:href="#DejaVuSans-20"/>
     <use x="159.033203" xlink:href="#DejaVuSans-69"/>
     <use x="186.816406" xlink:href="#DejaVuSans-6e"/>
     <use x="250.195312" xlink:href="#DejaVuSans-73"/>
     <use x="302.294922" xlink:href="#DejaVuSans-74"/>
     <use x="341.503906" xlink:href="#DejaVuSans-61"/>
     <use x="402.783203" xlink:href="#DejaVuSans-6e"/>
     <use x="466.162109" xlink:href="#DejaVuSans-63"/>
     <use x="521.142578" xlink:href="#DejaVuSans-65"/>
     <use x="582.666016" xlink:href="#DejaVuSans-73"/>
    </g>
   </g>
   <g id="text_19">
    <!-- v2.2.1.10, hv-hash=ff0e71e8cd978373 -->
    <defs>
     <path d="M 54.890625 33.015625 
L 54.890625 0 
L 45.90625 0 
L 45.90625 32.71875 
Q 45.90625 40.484375 42.875 44.328125 
Q 39.84375 48.1875 33.796875 48.1875 
Q 26.515625 48.1875 22.3125 43.546875 
Q 18.109375 38.921875 18.109375 30.90625 
L 18.109375 0 
L 9.078125 0 
L 9.078125 75.984375 
L 18.109375 75.984375 
L 18.109375 46.1875 
Q 21.34375 51.125 25.703125 53.5625 
Q 30.078125 56 35.796875 56 
Q 45.21875 56 50.046875 50.171875 
Q 54.890625 44.34375 54.890625 33.015625 
" id="DejaVuSans-68"/>
     <path d="M 10.59375 45.40625 
L 73.1875 45.40625 
L 73.1875 37.203125 
L 10.59375 37.203125 
z
M 10.59375 25.484375 
L 73.1875 25.484375 
L 73.1875 17.1875 
L 10.59375 17.1875 
z
" id="DejaVuSans-3d"/>
     <path d="M 8.203125 72.90625 
L 55.078125 72.90625 
L 55.078125 68.703125 
L 28.609375 0 
L 18.3125 0 
L 43.21875 64.59375 
L 8.203125 64.59375 
z
" id="DejaVuSans-37"/>
     <path d="M 10.984375 1.515625 
L 10.984375 10.5 
Q 14.703125 8.734375 18.5 7.8125 
Q 22.3125 6.890625 25.984375 6.890625 
Q 35.75 6.890625 40.890625 13.453125 
Q 46.046875 20.015625 46.78125 33.40625 
Q 43.953125 29.203125 39.59375 26.953125 
Q 35.25 24.703125 29.984375 24.703125 
Q 19.046875 24.703125 12.671875 31.3125 
Q 6.296875 37.9375 6.296875 49.421875 
Q 6.296875 60.640625 12.9375 67.421875 
Q 19.578125 74.21875 30.609375 74.21875 
Q 43.265625 74.21875 49.921875 64.515625 
Q 56.59375 54.828125 56.59375 36.375 
Q 56.59375 19.140625 48.40625 8.859375 
Q 40.234375 -1.421875 26.421875 -1.421875 
Q 22.703125 -1.421875 18.890625 -0.6875 
Q 15.09375 0.046875 10.984375 1.515625 
M 30.609375 32.421875 
Q 37.25 32.421875 41.125 36.953125 
Q 45.015625 41.5 45.015625 49.421875 
Q 45.015625 57.28125 41.125 61.84375 
Q 37.25 66.40625 30.609375 66.40625 
Q 23.96875 66.40625 20.09375 61.84375 
Q 16.21875 57.28125 16.21875 49.421875 
Q 16.21875 41.5 20.09375 36.953125 
Q 23.96875 32.421875 30.609375 32.421875 
" id="DejaVuSans-39"/>
     <path d="M 40.578125 39.3125 
Q 47.65625 37.796875 51.625 33 
Q 55.609375 28.21875 55.609375 21.1875 
Q 55.609375 10.40625 48.1875 4.484375 
Q 40.765625 -1.421875 27.09375 -1.421875 
Q 22.515625 -1.421875 17.65625 -0.515625 
Q 12.796875 0.390625 7.625 2.203125 
L 7.625 11.71875 
Q 11.71875 9.328125 16.59375 8.109375 
Q 21.484375 6.890625 26.8125 6.890625 
Q 36.078125 6.890625 40.9375 10.546875 
Q 45.796875 14.203125 45.796875 21.1875 
Q 45.796875 27.640625 41.28125 31.265625 
Q 36.765625 34.90625 28.71875 34.90625 
L 20.21875 34.90625 
L 20.21875 43.015625 
L 29.109375 43.015625 
Q 36.375 43.015625 40.234375 45.921875 
Q 44.09375 48.828125 44.09375 54.296875 
Q 44.09375 59.90625 40.109375 62.90625 
Q 36.140625 65.921875 28.71875 65.921875 
Q 24.65625 65.921875 20.015625 65.03125 
Q 15.375 64.15625 9.8125 62.3125 
L 9.8125 71.09375 
Q 15.4375 72.65625 20.34375 73.4375 
Q 25.25 74.21875 29.59375 74.21875 
Q 40.828125 74.21875 47.359375 69.109375 
Q 53.90625 64.015625 53.90625 55.328125 
Q 53.90625 49.265625 50.4375 45.09375 
Q 46.96875 40.921875 40.578125 39.3125 
" id="DejaVuSans-33"/>
    </defs>
    <g style="fill:#808080;" transform="translate(130.065125 289.387113)scale(0.1 -0.1)">
     <use xlink:href="#DejaVuSans-76"/>
     <use x="59.179688" xlink:href="#DejaVuSans-32"/>
     <use x="122.802734" xlink:href="#DejaVuSans-2e"/>
     <use x="154.589844" xlink:href="#DejaVuSans-32"/>
     <use x="218.212891" xlink:href="#DejaVuSans-2e"/>
     <use x="250" xlink:href="#DejaVuSans-31"/>
     <use x="313.623047" xlink:href="#DejaVuSans-2e"/>
     <use x="345.410156" xlink:href="#DejaVuSans-31"/>
     <use x="409.033203" xlink:href="#DejaVuSans-30"/>
     <use x="472.65625" xlink:href="#DejaVuSans-2c"/>
     <use x="504.443359" xlink:href="#DejaVuSans-20"/>
     <use x="536.230469" xlink:href="#DejaVuSans-68"/>
     <use x="599.609375" xlink:href="#DejaVuSans-76"/>
     <use x="658.757812" xlink:href="#DejaVuSans-2d"/>
     <use x="694.841797" xlink:href="#DejaVuSans-68"/>
     <use x="758.220703" xlink:href="#DejaVuSans-61"/>
     <use x="819.5" xlink:href="#DejaVuSans-73"/>
     <use x="871.599609" xlink:href="#DejaVuSans-68"/>
     <use x="934.978516" xlink:href="#DejaVuSans-3d"/>
     <use x="1018.767578" xlink:href="#DejaVuSans-66"/>
     <use x="1053.972656" xlink:href="#DejaVuSans-66"/>
     <use x="1089.177734" xlink:href="#DejaVuSans-30"/>
     <use x="1152.800781" xlink:href="#DejaVuSans-65"/>
     <use x="1214.324219" xlink:href="#DejaVuSans-37"/>
     <use x="1277.947266" xlink:href="#DejaVuSans-31"/>
     <use x="1341.570312" xlink:href="#DejaVuSans-65"/>
     <use x="1403.09375" xlink:href="#DejaVuSans-38"/>
     <use x="1466.716797" xlink:href="#DejaVuSans-63"/>
     <use x="1521.697266" xlink:href="#DejaVuSans-64"/>
     <use x="1585.173828" xlink:href="#DejaVuSans-39"/>
     <use x="1648.796875" xlink:href="#DejaVuSans-37"/>
     <use x="1712.419922" xlink:href="#DejaVuSans-38"/>
     <use x="1776.042969" xlink:href="#DejaVuSans-33"/>
     <use x="1839.666016" xlink:href="#DejaVuSans-37"/>
     <use x="1903.289062" xlink:href="#DejaVuSans-33"/>
    </g>
   </g>
   <g id="text_20">
    <!-- 25 Attractive sector/Schaffer F7 -->
    <g transform="translate(68.854188 18.84)scale(0.2 -0.2)">
     <use xlink:href="#DejaVuSans-32"/>
     <use x="63.623047" xlink:href="#DejaVuSans-35"/>
     <use x="127.246094" xlink:href="#DejaVuSans-20"/>
     <use x="159.033203" xlink:href="#DejaVuSans-41"/>
     <use x="227.425781" xlink:href="#DejaVuSans-74"/>
     <use x="266.634766" xlink:href="#DejaVuSans-74"/>
     <use x="305.84375" xlink:href="#DejaVuSans-72"/>
     <use x="346.957031" xlink:href="#DejaVuSans-61"/>
     <use x="408.236328" xlink:href="#DejaVuSans-63"/>
     <use x="463.216797" xlink:href="#DejaVuSans-74"/>
     <use x="502.425781" xlink:href="#DejaVuSans-69"/>
     <use x="530.208984" xlink:href="#DejaVuSans-76"/>
     <use x="589.388672" xlink:href="#DejaVuSans-65"/>
     <use x="650.912109" xlink:href="#DejaVuSans-20"/>
     <use x="682.699219" xlink:href="#DejaVuSans-73"/>
     <use x="734.798828" xlink:href="#DejaVuSans-65"/>
     <use x="796.322266" xlink:href="#DejaVuSans-63"/>
     <use x="851.302734" xlink:href="#DejaVuSans-74"/>
     <use x="890.511719" xlink:href="#DejaVuSans-6f"/>
     <use x="951.693359" xlink:href="#DejaVuSans-72"/>
     <use x="992.806641" xlink:href="#DejaVuSans-2f"/>
     <use x="1026.498047" xlink:href="#DejaVuSans-53"/>
     <use x="1089.974609" xlink:href="#DejaVuSans-63"/>
     <use x="1144.955078" xlink:href="#DejaVuSans-68"/>
     <use x="1208.333984" xlink:href="#DejaVuSans-61"/>
     <use x="1269.613281" xlink:href="#DejaVuSans-66"/>
     <use x="1304.818359" xlink:href="#DejaVuSans-66"/>
     <use x="1340.023438" xlink:href="#DejaVuSans-65"/>
     <use x="1401.546875" xlink:href="#DejaVuSans-72"/>
     <use x="1442.660156" xlink:href="#DejaVuSans-20"/>
     <use x="1474.447266" xlink:href="#DejaVuSans-46"/>
     <use x="1531.966797" xlink:href="#DejaVuSans-37"/>
    </g>
   </g>
  </g>
 </g>
 <defs>
  <clipPath id="ped597168e2">
   <rect height="269.32" width="343.144" x="56.84" y="24.84"/>
  </clipPath>
 </defs>
</svg>
