<?xml version="1.0" encoding="utf-8" standalone="no"?>
<!DOCTYPE svg PUBLIC "-//W3C//DTD SVG 1.1//EN"
  "http://www.w3.org/Graphics/SVG/1.1/DTD/svg11.dtd">
<!-- Created with matplotlib (http://matplotlib.org/) -->
<svg height="345pt" version="1.1" viewBox="0 0 460 345" width="460pt" xmlns="http://www.w3.org/2000/svg" xmlns:xlink="http://www.w3.org/1999/xlink">
 <defs>
  <style type="text/css">
*{stroke-linecap:butt;stroke-linejoin:round;}
  </style>
 </defs>
 <g id="figure_1">
  <g id="patch_1">
   <path d="M 0 345.6 
L 460.8 345.6 
L 460.8 0 
L 0 0 
z
" style="fill:#ffffff;"/>
  </g>
  <g id="axes_1">
   <g id="patch_2">
    <path d="M 56.84 294.16 
L 399.984 294.16 
L 399.984 24.84 
L 56.84 24.84 
z
" style="fill:#ffffff;"/>
   </g>
   <g id="line2d_1">
    <path d="M 91.047718 294.16 
L 91.047718 289.562526 
L 99.973377 289.562526 
L 99.973377 280.367579 
L 106.779369 280.367579 
L 106.779369 271.172632 
L 118.835278 271.172632 
L 118.835278 266.575159 
L 133.96887 266.575159 
L 133.96887 252.782738 
L 158.598455 252.782738 
L 158.598455 243.587791 
L 167.605178 243.587791 
L 167.605178 238.990318 
L 176.111531 238.990318 
L 176.111531 229.79537 
L 194.781599 229.79537 
L 194.781599 216.00295 
L 205.015042 216.00295 
L 205.015042 206.808003 
L 212.274616 206.808003 
L 212.274616 197.613056 
L 229.680333 197.613056 
L 229.680333 188.418109 
L 235.142446 188.418109 
L 235.142446 183.820635 
L 237.147707 183.820635 
L 237.147707 170.028214 
L 239.9787 170.028214 
L 239.9787 165.430741 
L 244.665805 165.430741 
L 244.665805 151.63832 
L 254.323872 151.63832 
L 254.323872 142.443373 
L 260.872527 142.443373 
L 260.872527 137.8459 
L 272.190448 137.8459 
L 272.190448 124.053479 
L 281.028252 124.053479 
L 281.028252 119.456005 
L 281.80299 119.456005 
L 281.80299 105.663585 
L 286.913187 105.663585 
L 286.913187 96.468638 
L 288.020889 96.468638 
L 288.020889 87.273691 
L 289.376896 87.273691 
L 289.376896 82.676217 
L 290.524743 82.676217 
L 290.524743 73.48127 
L 291.658588 73.48127 
L 291.658588 59.688849 
L 333.569032 59.688849 
" style="fill:none;stroke:#f5deb3;stroke-linecap:square;stroke-width:6;"/>
   </g>
   <g id="line2d_2">
    <defs>
     <path d="M -0 7.778175 
L 7.778175 0 
L 0 -7.778175 
L -7.778175 -0 
z
" id="m07ae54efd1" style="stroke:#f5deb3;stroke-linejoin:miter;stroke-width:1.5;"/>
    </defs>
    <g>
     <use style="fill:#f5deb3;stroke:#f5deb3;stroke-linejoin:miter;stroke-width:1.5;" x="194.781599" xlink:href="#m07ae54efd1" y="229.79537"/>
     <use style="fill:#f5deb3;stroke:#f5deb3;stroke-linejoin:miter;stroke-width:1.5;" x="244.665805" xlink:href="#m07ae54efd1" y="151.63832"/>
     <use style="fill:#f5deb3;stroke:#f5deb3;stroke-linejoin:miter;stroke-width:1.5;" x="291.658588" xlink:href="#m07ae54efd1" y="59.688849"/>
     <use style="fill:#f5deb3;stroke:#f5deb3;stroke-linejoin:miter;stroke-width:1.5;" x="291.658588" xlink:href="#m07ae54efd1" y="59.688849"/>
     <use style="fill:#f5deb3;stroke:#f5deb3;stroke-linejoin:miter;stroke-width:1.5;" x="333.569032" xlink:href="#m07ae54efd1" y="59.688849"/>
    </g>
   </g>
   <g id="line2d_3">
    <path style="fill:none;stroke:#f5deb3;stroke-linecap:square;stroke-width:6;"/>
    <g/>
   </g>
   <g id="line2d_4">
    <path d="M 333.569032 59.688849 
L 364.009226 32.839604 
" style="fill:none;stroke:#f5deb3;stroke-linecap:square;stroke-width:6;"/>
    <g>
     <use style="fill:#f5deb3;stroke:#f5deb3;stroke-linejoin:miter;stroke-width:1.5;" x="333.569032" xlink:href="#m07ae54efd1" y="59.688849"/>
     <use style="fill:#f5deb3;stroke:#f5deb3;stroke-linejoin:miter;stroke-width:1.5;" x="364.009226" xlink:href="#m07ae54efd1" y="32.839604"/>
    </g>
   </g>
   <g id="matplotlib.axis_1">
    <g id="xtick_1">
     <g id="line2d_5">
      <path clip-path="url(#p34b1155278)" d="M 56.84 294.16 
L 56.84 24.84 
" style="fill:none;stroke:#b0b0b0;stroke-linecap:square;stroke-width:0.8;"/>
     </g>
     <g id="line2d_6">
      <defs>
       <path d="M 0 0 
L 0 3.5 
" id="md7b0f2607f" style="stroke:#000000;stroke-width:0.8;"/>
      </defs>
      <g>
       <use style="stroke:#000000;stroke-width:0.8;" x="56.84" xlink:href="#md7b0f2607f" y="294.16"/>
      </g>
     </g>
     <g id="text_1">
      <!-- 0 -->
      <defs>
       <path d="M 31.78125 66.40625 
Q 24.171875 66.40625 20.328125 58.90625 
Q 16.5 51.421875 16.5 36.375 
Q 16.5 21.390625 20.328125 13.890625 
Q 24.171875 6.390625 31.78125 6.390625 
Q 39.453125 6.390625 43.28125 13.890625 
Q 47.125 21.390625 47.125 36.375 
Q 47.125 51.421875 43.28125 58.90625 
Q 39.453125 66.40625 31.78125 66.40625 
M 31.78125 74.21875 
Q 44.046875 74.21875 50.515625 64.515625 
Q 56.984375 54.828125 56.984375 36.375 
Q 56.984375 17.96875 50.515625 8.265625 
Q 44.046875 -1.421875 31.78125 -1.421875 
Q 19.53125 -1.421875 13.0625 8.265625 
Q 6.59375 17.96875 6.59375 36.375 
Q 6.59375 54.828125 13.0625 64.515625 
Q 19.53125 74.21875 31.78125 74.21875 
" id="DejaVuSans-30"/>
      </defs>
      <g transform="translate(50.4775 316.356875)scale(0.2 -0.2)">
       <use xlink:href="#DejaVuSans-30"/>
      </g>
     </g>
    </g>
    <g id="xtick_2">
     <g id="line2d_7">
      <path clip-path="url(#p34b1155278)" d="M 135.905438 294.16 
L 135.905438 24.84 
" style="fill:none;stroke:#b0b0b0;stroke-linecap:square;stroke-width:0.8;"/>
     </g>
     <g id="line2d_8">
      <g>
       <use style="stroke:#000000;stroke-width:0.8;" x="135.905438" xlink:href="#md7b0f2607f" y="294.16"/>
      </g>
     </g>
     <g id="text_2">
      <!-- 2 -->
      <defs>
       <path d="M 19.1875 8.296875 
L 53.609375 8.296875 
L 53.609375 0 
L 7.328125 0 
L 7.328125 8.296875 
Q 12.9375 14.109375 22.625 23.890625 
Q 32.328125 33.6875 34.8125 36.53125 
Q 39.546875 41.84375 41.421875 45.53125 
Q 43.3125 49.21875 43.3125 52.78125 
Q 43.3125 58.59375 39.234375 62.25 
Q 35.15625 65.921875 28.609375 65.921875 
Q 23.96875 65.921875 18.8125 64.3125 
Q 13.671875 62.703125 7.8125 59.421875 
L 7.8125 69.390625 
Q 13.765625 71.78125 18.9375 73 
Q 24.125 74.21875 28.421875 74.21875 
Q 39.75 74.21875 46.484375 68.546875 
Q 53.21875 62.890625 53.21875 53.421875 
Q 53.21875 48.921875 51.53125 44.890625 
Q 49.859375 40.875 45.40625 35.40625 
Q 44.1875 33.984375 37.640625 27.21875 
Q 31.109375 20.453125 19.1875 8.296875 
" id="DejaVuSans-32"/>
      </defs>
      <g transform="translate(129.542938 316.356875)scale(0.2 -0.2)">
       <use xlink:href="#DejaVuSans-32"/>
      </g>
     </g>
    </g>
    <g id="xtick_3">
     <g id="line2d_9">
      <path clip-path="url(#p34b1155278)" d="M 214.970876 294.16 
L 214.970876 24.84 
" style="fill:none;stroke:#b0b0b0;stroke-linecap:square;stroke-width:0.8;"/>
     </g>
     <g id="line2d_10">
      <g>
       <use style="stroke:#000000;stroke-width:0.8;" x="214.970876" xlink:href="#md7b0f2607f" y="294.16"/>
      </g>
     </g>
     <g id="text_3">
      <!-- 4 -->
      <defs>
       <path d="M 37.796875 64.3125 
L 12.890625 25.390625 
L 37.796875 25.390625 
z
M 35.203125 72.90625 
L 47.609375 72.90625 
L 47.609375 25.390625 
L 58.015625 25.390625 
L 58.015625 17.1875 
L 47.609375 17.1875 
L 47.609375 0 
L 37.796875 0 
L 37.796875 17.1875 
L 4.890625 17.1875 
L 4.890625 26.703125 
z
" id="DejaVuSans-34"/>
      </defs>
      <g transform="translate(208.608376 316.356875)scale(0.2 -0.2)">
       <use xlink:href="#DejaVuSans-34"/>
      </g>
     </g>
    </g>
    <g id="xtick_4">
     <g id="line2d_11">
      <path clip-path="url(#p34b1155278)" d="M 294.036313 294.16 
L 294.036313 24.84 
" style="fill:none;stroke:#b0b0b0;stroke-linecap:square;stroke-width:0.8;"/>
     </g>
     <g id="line2d_12">
      <g>
       <use style="stroke:#000000;stroke-width:0.8;" x="294.036313" xlink:href="#md7b0f2607f" y="294.16"/>
      </g>
     </g>
     <g id="text_4">
      <!-- 6 -->
      <defs>
       <path d="M 33.015625 40.375 
Q 26.375 40.375 22.484375 35.828125 
Q 18.609375 31.296875 18.609375 23.390625 
Q 18.609375 15.53125 22.484375 10.953125 
Q 26.375 6.390625 33.015625 6.390625 
Q 39.65625 6.390625 43.53125 10.953125 
Q 47.40625 15.53125 47.40625 23.390625 
Q 47.40625 31.296875 43.53125 35.828125 
Q 39.65625 40.375 33.015625 40.375 
M 52.59375 71.296875 
L 52.59375 62.3125 
Q 48.875 64.0625 45.09375 64.984375 
Q 41.3125 65.921875 37.59375 65.921875 
Q 27.828125 65.921875 22.671875 59.328125 
Q 17.53125 52.734375 16.796875 39.40625 
Q 19.671875 43.65625 24.015625 45.921875 
Q 28.375 48.1875 33.59375 48.1875 
Q 44.578125 48.1875 50.953125 41.515625 
Q 57.328125 34.859375 57.328125 23.390625 
Q 57.328125 12.15625 50.6875 5.359375 
Q 44.046875 -1.421875 33.015625 -1.421875 
Q 20.359375 -1.421875 13.671875 8.265625 
Q 6.984375 17.96875 6.984375 36.375 
Q 6.984375 53.65625 15.1875 63.9375 
Q 23.390625 74.21875 37.203125 74.21875 
Q 40.921875 74.21875 44.703125 73.484375 
Q 48.484375 72.75 52.59375 71.296875 
" id="DejaVuSans-36"/>
      </defs>
      <g transform="translate(287.673813 316.356875)scale(0.2 -0.2)">
       <use xlink:href="#DejaVuSans-36"/>
      </g>
     </g>
    </g>
    <g id="xtick_5">
     <g id="line2d_13">
      <path clip-path="url(#p34b1155278)" d="M 373.101751 294.16 
L 373.101751 24.84 
" style="fill:none;stroke:#b0b0b0;stroke-linecap:square;stroke-width:0.8;"/>
     </g>
     <g id="line2d_14">
      <g>
       <use style="stroke:#000000;stroke-width:0.8;" x="373.101751" xlink:href="#md7b0f2607f" y="294.16"/>
      </g>
     </g>
     <g id="text_5">
      <!-- 8 -->
      <defs>
       <path d="M 31.78125 34.625 
Q 24.75 34.625 20.71875 30.859375 
Q 16.703125 27.09375 16.703125 20.515625 
Q 16.703125 13.921875 20.71875 10.15625 
Q 24.75 6.390625 31.78125 6.390625 
Q 38.8125 6.390625 42.859375 10.171875 
Q 46.921875 13.96875 46.921875 20.515625 
Q 46.921875 27.09375 42.890625 30.859375 
Q 38.875 34.625 31.78125 34.625 
M 21.921875 38.8125 
Q 15.578125 40.375 12.03125 44.71875 
Q 8.5 49.078125 8.5 55.328125 
Q 8.5 64.0625 14.71875 69.140625 
Q 20.953125 74.21875 31.78125 74.21875 
Q 42.671875 74.21875 48.875 69.140625 
Q 55.078125 64.0625 55.078125 55.328125 
Q 55.078125 49.078125 51.53125 44.71875 
Q 48 40.375 41.703125 38.8125 
Q 48.828125 37.15625 52.796875 32.3125 
Q 56.78125 27.484375 56.78125 20.515625 
Q 56.78125 9.90625 50.3125 4.234375 
Q 43.84375 -1.421875 31.78125 -1.421875 
Q 19.734375 -1.421875 13.25 4.234375 
Q 6.78125 9.90625 6.78125 20.515625 
Q 6.78125 27.484375 10.78125 32.3125 
Q 14.796875 37.15625 21.921875 38.8125 
M 18.3125 54.390625 
Q 18.3125 48.734375 21.84375 45.5625 
Q 25.390625 42.390625 31.78125 42.390625 
Q 38.140625 42.390625 41.71875 45.5625 
Q 45.3125 48.734375 45.3125 54.390625 
Q 45.3125 60.0625 41.71875 63.234375 
Q 38.140625 66.40625 31.78125 66.40625 
Q 25.390625 66.40625 21.84375 63.234375 
Q 18.3125 60.0625 18.3125 54.390625 
" id="DejaVuSans-38"/>
      </defs>
      <g transform="translate(366.739251 316.356875)scale(0.2 -0.2)">
       <use xlink:href="#DejaVuSans-38"/>
      </g>
     </g>
    </g>
    <g id="xtick_6">
     <g id="line2d_15">
      <defs>
       <path d="M 0 0 
L 0 2 
" id="mb4266efdcd" style="stroke:#000000;stroke-width:0.6;"/>
      </defs>
      <g>
       <use style="stroke:#000000;stroke-width:0.6;" x="68.740534" xlink:href="#mb4266efdcd" y="294.16"/>
      </g>
     </g>
    </g>
    <g id="xtick_7">
     <g id="line2d_16">
      <g>
       <use style="stroke:#000000;stroke-width:0.6;" x="80.641068" xlink:href="#mb4266efdcd" y="294.16"/>
      </g>
     </g>
    </g>
    <g id="xtick_8">
     <g id="line2d_17">
      <g>
       <use style="stroke:#000000;stroke-width:0.6;" x="87.602435" xlink:href="#mb4266efdcd" y="294.16"/>
      </g>
     </g>
    </g>
    <g id="xtick_9">
     <g id="line2d_18">
      <g>
       <use style="stroke:#000000;stroke-width:0.6;" x="92.541603" xlink:href="#mb4266efdcd" y="294.16"/>
      </g>
     </g>
    </g>
    <g id="xtick_10">
     <g id="line2d_19">
      <g>
       <use style="stroke:#000000;stroke-width:0.6;" x="147.805972" xlink:href="#mb4266efdcd" y="294.16"/>
      </g>
     </g>
    </g>
    <g id="xtick_11">
     <g id="line2d_20">
      <g>
       <use style="stroke:#000000;stroke-width:0.6;" x="159.706506" xlink:href="#mb4266efdcd" y="294.16"/>
      </g>
     </g>
    </g>
    <g id="xtick_12">
     <g id="line2d_21">
      <g>
       <use style="stroke:#000000;stroke-width:0.6;" x="166.667872" xlink:href="#mb4266efdcd" y="294.16"/>
      </g>
     </g>
    </g>
    <g id="xtick_13">
     <g id="line2d_22">
      <g>
       <use style="stroke:#000000;stroke-width:0.6;" x="171.60704" xlink:href="#mb4266efdcd" y="294.16"/>
      </g>
     </g>
    </g>
    <g id="xtick_14">
     <g id="line2d_23">
      <g>
       <use style="stroke:#000000;stroke-width:0.6;" x="226.87141" xlink:href="#mb4266efdcd" y="294.16"/>
      </g>
     </g>
    </g>
    <g id="xtick_15">
     <g id="line2d_24">
      <g>
       <use style="stroke:#000000;stroke-width:0.6;" x="238.771944" xlink:href="#mb4266efdcd" y="294.16"/>
      </g>
     </g>
    </g>
    <g id="xtick_16">
     <g id="line2d_25">
      <g>
       <use style="stroke:#000000;stroke-width:0.6;" x="245.73331" xlink:href="#mb4266efdcd" y="294.16"/>
      </g>
     </g>
    </g>
    <g id="xtick_17">
     <g id="line2d_26">
      <g>
       <use style="stroke:#000000;stroke-width:0.6;" x="250.672478" xlink:href="#mb4266efdcd" y="294.16"/>
      </g>
     </g>
    </g>
    <g id="xtick_18">
     <g id="line2d_27">
      <g>
       <use style="stroke:#000000;stroke-width:0.6;" x="305.936848" xlink:href="#mb4266efdcd" y="294.16"/>
      </g>
     </g>
    </g>
    <g id="xtick_19">
     <g id="line2d_28">
      <g>
       <use style="stroke:#000000;stroke-width:0.6;" x="317.837382" xlink:href="#mb4266efdcd" y="294.16"/>
      </g>
     </g>
    </g>
    <g id="xtick_20">
     <g id="line2d_29">
      <g>
       <use style="stroke:#000000;stroke-width:0.6;" x="324.798748" xlink:href="#mb4266efdcd" y="294.16"/>
      </g>
     </g>
    </g>
    <g id="xtick_21">
     <g id="line2d_30">
      <g>
       <use style="stroke:#000000;stroke-width:0.6;" x="329.737916" xlink:href="#mb4266efdcd" y="294.16"/>
      </g>
     </g>
    </g>
    <g id="xtick_22">
     <g id="line2d_31">
      <g>
       <use style="stroke:#000000;stroke-width:0.6;" x="385.002285" xlink:href="#mb4266efdcd" y="294.16"/>
      </g>
     </g>
    </g>
    <g id="xtick_23">
     <g id="line2d_32">
      <g>
       <use style="stroke:#000000;stroke-width:0.6;" x="396.90282" xlink:href="#mb4266efdcd" y="294.16"/>
      </g>
     </g>
    </g>
    <g id="text_6">
     <!-- log10(# f-evals / dimension) -->
     <defs>
      <path d="M 9.421875 75.984375 
L 18.40625 75.984375 
L 18.40625 0 
L 9.421875 0 
z
" id="DejaVuSans-6c"/>
      <path d="M 30.609375 48.390625 
Q 23.390625 48.390625 19.1875 42.75 
Q 14.984375 37.109375 14.984375 27.296875 
Q 14.984375 17.484375 19.15625 11.84375 
Q 23.34375 6.203125 30.609375 6.203125 
Q 37.796875 6.203125 41.984375 11.859375 
Q 46.1875 17.53125 46.1875 27.296875 
Q 46.1875 37.015625 41.984375 42.703125 
Q 37.796875 48.390625 30.609375 48.390625 
M 30.609375 56 
Q 42.328125 56 49.015625 48.375 
Q 55.71875 40.765625 55.71875 27.296875 
Q 55.71875 13.875 49.015625 6.21875 
Q 42.328125 -1.421875 30.609375 -1.421875 
Q 18.84375 -1.421875 12.171875 6.21875 
Q 5.515625 13.875 5.515625 27.296875 
Q 5.515625 40.765625 12.171875 48.375 
Q 18.84375 56 30.609375 56 
" id="DejaVuSans-6f"/>
      <path d="M 45.40625 27.984375 
Q 45.40625 37.75 41.375 43.109375 
Q 37.359375 48.484375 30.078125 48.484375 
Q 22.859375 48.484375 18.828125 43.109375 
Q 14.796875 37.75 14.796875 27.984375 
Q 14.796875 18.265625 18.828125 12.890625 
Q 22.859375 7.515625 30.078125 7.515625 
Q 37.359375 7.515625 41.375 12.890625 
Q 45.40625 18.265625 45.40625 27.984375 
M 54.390625 6.78125 
Q 54.390625 -7.171875 48.1875 -13.984375 
Q 42 -20.796875 29.203125 -20.796875 
Q 24.46875 -20.796875 20.265625 -20.09375 
Q 16.0625 -19.390625 12.109375 -17.921875 
L 12.109375 -9.1875 
Q 16.0625 -11.328125 19.921875 -12.34375 
Q 23.78125 -13.375 27.78125 -13.375 
Q 36.625 -13.375 41.015625 -8.765625 
Q 45.40625 -4.15625 45.40625 5.171875 
L 45.40625 9.625 
Q 42.625 4.78125 38.28125 2.390625 
Q 33.9375 0 27.875 0 
Q 17.828125 0 11.671875 7.65625 
Q 5.515625 15.328125 5.515625 27.984375 
Q 5.515625 40.671875 11.671875 48.328125 
Q 17.828125 56 27.875 56 
Q 33.9375 56 38.28125 53.609375 
Q 42.625 51.21875 45.40625 46.390625 
L 45.40625 54.6875 
L 54.390625 54.6875 
z
" id="DejaVuSans-67"/>
      <path d="M 12.40625 8.296875 
L 28.515625 8.296875 
L 28.515625 63.921875 
L 10.984375 60.40625 
L 10.984375 69.390625 
L 28.421875 72.90625 
L 38.28125 72.90625 
L 38.28125 8.296875 
L 54.390625 8.296875 
L 54.390625 0 
L 12.40625 0 
z
" id="DejaVuSans-31"/>
      <path d="M 31 75.875 
Q 24.46875 64.65625 21.28125 53.65625 
Q 18.109375 42.671875 18.109375 31.390625 
Q 18.109375 20.125 21.3125 9.0625 
Q 24.515625 -2 31 -13.1875 
L 23.1875 -13.1875 
Q 15.875 -1.703125 12.234375 9.375 
Q 8.59375 20.453125 8.59375 31.390625 
Q 8.59375 42.28125 12.203125 53.3125 
Q 15.828125 64.359375 23.1875 75.875 
z
" id="DejaVuSans-28"/>
      <path d="M 51.125 44 
L 36.921875 44 
L 32.8125 27.6875 
L 47.125 27.6875 
z
M 43.796875 71.78125 
L 38.71875 51.515625 
L 52.984375 51.515625 
L 58.109375 71.78125 
L 65.921875 71.78125 
L 60.890625 51.515625 
L 76.125 51.515625 
L 76.125 44 
L 58.984375 44 
L 54.984375 27.6875 
L 70.515625 27.6875 
L 70.515625 20.21875 
L 53.078125 20.21875 
L 48 0 
L 40.1875 0 
L 45.21875 20.21875 
L 30.90625 20.21875 
L 25.875 0 
L 18.015625 0 
L 23.09375 20.21875 
L 7.71875 20.21875 
L 7.71875 27.6875 
L 24.90625 27.6875 
L 29 44 
L 13.28125 44 
L 13.28125 51.515625 
L 30.90625 51.515625 
L 35.890625 71.78125 
z
" id="DejaVuSans-23"/>
      <path id="DejaVuSans-20"/>
      <path d="M 37.109375 75.984375 
L 37.109375 68.5 
L 28.515625 68.5 
Q 23.6875 68.5 21.796875 66.546875 
Q 19.921875 64.59375 19.921875 59.515625 
L 19.921875 54.6875 
L 34.71875 54.6875 
L 34.71875 47.703125 
L 19.921875 47.703125 
L 19.921875 0 
L 10.890625 0 
L 10.890625 47.703125 
L 2.296875 47.703125 
L 2.296875 54.6875 
L 10.890625 54.6875 
L 10.890625 58.5 
Q 10.890625 67.625 15.140625 71.796875 
Q 19.390625 75.984375 28.609375 75.984375 
z
" id="DejaVuSans-66"/>
      <path d="M 4.890625 31.390625 
L 31.203125 31.390625 
L 31.203125 23.390625 
L 4.890625 23.390625 
z
" id="DejaVuSans-2d"/>
      <path d="M 56.203125 29.59375 
L 56.203125 25.203125 
L 14.890625 25.203125 
Q 15.484375 15.921875 20.484375 11.0625 
Q 25.484375 6.203125 34.421875 6.203125 
Q 39.59375 6.203125 44.453125 7.46875 
Q 49.3125 8.734375 54.109375 11.28125 
L 54.109375 2.78125 
Q 49.265625 0.734375 44.1875 -0.34375 
Q 39.109375 -1.421875 33.890625 -1.421875 
Q 20.796875 -1.421875 13.15625 6.1875 
Q 5.515625 13.8125 5.515625 26.8125 
Q 5.515625 40.234375 12.765625 48.109375 
Q 20.015625 56 32.328125 56 
Q 43.359375 56 49.78125 48.890625 
Q 56.203125 41.796875 56.203125 29.59375 
M 47.21875 32.234375 
Q 47.125 39.59375 43.09375 43.984375 
Q 39.0625 48.390625 32.421875 48.390625 
Q 24.90625 48.390625 20.390625 44.140625 
Q 15.875 39.890625 15.1875 32.171875 
z
" id="DejaVuSans-65"/>
      <path d="M 2.984375 54.6875 
L 12.5 54.6875 
L 29.59375 8.796875 
L 46.6875 54.6875 
L 56.203125 54.6875 
L 35.6875 0 
L 23.484375 0 
z
" id="DejaVuSans-76"/>
      <path d="M 34.28125 27.484375 
Q 23.390625 27.484375 19.1875 25 
Q 14.984375 22.515625 14.984375 16.5 
Q 14.984375 11.71875 18.140625 8.90625 
Q 21.296875 6.109375 26.703125 6.109375 
Q 34.1875 6.109375 38.703125 11.40625 
Q 43.21875 16.703125 43.21875 25.484375 
L 43.21875 27.484375 
z
M 52.203125 31.203125 
L 52.203125 0 
L 43.21875 0 
L 43.21875 8.296875 
Q 40.140625 3.328125 35.546875 0.953125 
Q 30.953125 -1.421875 24.3125 -1.421875 
Q 15.921875 -1.421875 10.953125 3.296875 
Q 6 8.015625 6 15.921875 
Q 6 25.140625 12.171875 29.828125 
Q 18.359375 34.515625 30.609375 34.515625 
L 43.21875 34.515625 
L 43.21875 35.40625 
Q 43.21875 41.609375 39.140625 45 
Q 35.0625 48.390625 27.6875 48.390625 
Q 23 48.390625 18.546875 47.265625 
Q 14.109375 46.140625 10.015625 43.890625 
L 10.015625 52.203125 
Q 14.9375 54.109375 19.578125 55.046875 
Q 24.21875 56 28.609375 56 
Q 40.484375 56 46.34375 49.84375 
Q 52.203125 43.703125 52.203125 31.203125 
" id="DejaVuSans-61"/>
      <path d="M 44.28125 53.078125 
L 44.28125 44.578125 
Q 40.484375 46.53125 36.375 47.5 
Q 32.28125 48.484375 27.875 48.484375 
Q 21.1875 48.484375 17.84375 46.4375 
Q 14.5 44.390625 14.5 40.28125 
Q 14.5 37.15625 16.890625 35.375 
Q 19.28125 33.59375 26.515625 31.984375 
L 29.59375 31.296875 
Q 39.15625 29.25 43.1875 25.515625 
Q 47.21875 21.78125 47.21875 15.09375 
Q 47.21875 7.46875 41.1875 3.015625 
Q 35.15625 -1.421875 24.609375 -1.421875 
Q 20.21875 -1.421875 15.453125 -0.5625 
Q 10.6875 0.296875 5.421875 2 
L 5.421875 11.28125 
Q 10.40625 8.6875 15.234375 7.390625 
Q 20.0625 6.109375 24.8125 6.109375 
Q 31.15625 6.109375 34.5625 8.28125 
Q 37.984375 10.453125 37.984375 14.40625 
Q 37.984375 18.0625 35.515625 20.015625 
Q 33.0625 21.96875 24.703125 23.78125 
L 21.578125 24.515625 
Q 13.234375 26.265625 9.515625 29.90625 
Q 5.8125 33.546875 5.8125 39.890625 
Q 5.8125 47.609375 11.28125 51.796875 
Q 16.75 56 26.8125 56 
Q 31.78125 56 36.171875 55.265625 
Q 40.578125 54.546875 44.28125 53.078125 
" id="DejaVuSans-73"/>
      <path d="M 25.390625 72.90625 
L 33.6875 72.90625 
L 8.296875 -9.28125 
L 0 -9.28125 
z
" id="DejaVuSans-2f"/>
      <path d="M 45.40625 46.390625 
L 45.40625 75.984375 
L 54.390625 75.984375 
L 54.390625 0 
L 45.40625 0 
L 45.40625 8.203125 
Q 42.578125 3.328125 38.25 0.953125 
Q 33.9375 -1.421875 27.875 -1.421875 
Q 17.96875 -1.421875 11.734375 6.484375 
Q 5.515625 14.40625 5.515625 27.296875 
Q 5.515625 40.1875 11.734375 48.09375 
Q 17.96875 56 27.875 56 
Q 33.9375 56 38.25 53.625 
Q 42.578125 51.265625 45.40625 46.390625 
M 14.796875 27.296875 
Q 14.796875 17.390625 18.875 11.75 
Q 22.953125 6.109375 30.078125 6.109375 
Q 37.203125 6.109375 41.296875 11.75 
Q 45.40625 17.390625 45.40625 27.296875 
Q 45.40625 37.203125 41.296875 42.84375 
Q 37.203125 48.484375 30.078125 48.484375 
Q 22.953125 48.484375 18.875 42.84375 
Q 14.796875 37.203125 14.796875 27.296875 
" id="DejaVuSans-64"/>
      <path d="M 9.421875 54.6875 
L 18.40625 54.6875 
L 18.40625 0 
L 9.421875 0 
z
M 9.421875 75.984375 
L 18.40625 75.984375 
L 18.40625 64.59375 
L 9.421875 64.59375 
z
" id="DejaVuSans-69"/>
      <path d="M 52 44.1875 
Q 55.375 50.25 60.0625 53.125 
Q 64.75 56 71.09375 56 
Q 79.640625 56 84.28125 50.015625 
Q 88.921875 44.046875 88.921875 33.015625 
L 88.921875 0 
L 79.890625 0 
L 79.890625 32.71875 
Q 79.890625 40.578125 77.09375 44.375 
Q 74.3125 48.1875 68.609375 48.1875 
Q 61.625 48.1875 57.5625 43.546875 
Q 53.515625 38.921875 53.515625 30.90625 
L 53.515625 0 
L 44.484375 0 
L 44.484375 32.71875 
Q 44.484375 40.625 41.703125 44.40625 
Q 38.921875 48.1875 33.109375 48.1875 
Q 26.21875 48.1875 22.15625 43.53125 
Q 18.109375 38.875 18.109375 30.90625 
L 18.109375 0 
L 9.078125 0 
L 9.078125 54.6875 
L 18.109375 54.6875 
L 18.109375 46.1875 
Q 21.1875 51.21875 25.484375 53.609375 
Q 29.78125 56 35.6875 56 
Q 41.65625 56 45.828125 52.96875 
Q 50 49.953125 52 44.1875 
" id="DejaVuSans-6d"/>
      <path d="M 54.890625 33.015625 
L 54.890625 0 
L 45.90625 0 
L 45.90625 32.71875 
Q 45.90625 40.484375 42.875 44.328125 
Q 39.84375 48.1875 33.796875 48.1875 
Q 26.515625 48.1875 22.3125 43.546875 
Q 18.109375 38.921875 18.109375 30.90625 
L 18.109375 0 
L 9.078125 0 
L 9.078125 54.6875 
L 18.109375 54.6875 
L 18.109375 46.1875 
Q 21.34375 51.125 25.703125 53.5625 
Q 30.078125 56 35.796875 56 
Q 45.21875 56 50.046875 50.171875 
Q 54.890625 44.34375 54.890625 33.015625 
" id="DejaVuSans-6e"/>
      <path d="M 8.015625 75.875 
L 15.828125 75.875 
Q 23.140625 64.359375 26.78125 53.3125 
Q 30.421875 42.28125 30.421875 31.390625 
Q 30.421875 20.453125 26.78125 9.375 
Q 23.140625 -1.703125 15.828125 -13.1875 
L 8.015625 -13.1875 
Q 14.5 -2 17.703125 9.0625 
Q 20.90625 20.125 20.90625 31.390625 
Q 20.90625 42.671875 17.703125 53.65625 
Q 14.5 64.65625 8.015625 75.875 
" id="DejaVuSans-29"/>
     </defs>
     <g transform="translate(107.571219 337.433594)scale(0.17 -0.17)">
      <use xlink:href="#DejaVuSans-6c"/>
      <use x="27.783203" xlink:href="#DejaVuSans-6f"/>
      <use x="88.964844" xlink:href="#DejaVuSans-67"/>
      <use x="152.441406" xlink:href="#DejaVuSans-31"/>
      <use x="216.064453" xlink:href="#DejaVuSans-30"/>
      <use x="279.6875" xlink:href="#DejaVuSans-28"/>
      <use x="318.701172" xlink:href="#DejaVuSans-23"/>
      <use x="402.490234" xlink:href="#DejaVuSans-20"/>
      <use x="434.277344" xlink:href="#DejaVuSans-66"/>
      <use x="469.404297" xlink:href="#DejaVuSans-2d"/>
      <use x="505.488281" xlink:href="#DejaVuSans-65"/>
      <use x="567.011719" xlink:href="#DejaVuSans-76"/>
      <use x="626.191406" xlink:href="#DejaVuSans-61"/>
      <use x="687.470703" xlink:href="#DejaVuSans-6c"/>
      <use x="715.253906" xlink:href="#DejaVuSans-73"/>
      <use x="767.353516" xlink:href="#DejaVuSans-20"/>
      <use x="799.140625" xlink:href="#DejaVuSans-2f"/>
      <use x="832.832031" xlink:href="#DejaVuSans-20"/>
      <use x="864.619141" xlink:href="#DejaVuSans-64"/>
      <use x="928.095703" xlink:href="#DejaVuSans-69"/>
      <use x="955.878906" xlink:href="#DejaVuSans-6d"/>
      <use x="1053.291016" xlink:href="#DejaVuSans-65"/>
      <use x="1114.814453" xlink:href="#DejaVuSans-6e"/>
      <use x="1178.193359" xlink:href="#DejaVuSans-73"/>
      <use x="1230.292969" xlink:href="#DejaVuSans-69"/>
      <use x="1258.076172" xlink:href="#DejaVuSans-6f"/>
      <use x="1319.257812" xlink:href="#DejaVuSans-6e"/>
      <use x="1382.636719" xlink:href="#DejaVuSans-29"/>
     </g>
    </g>
   </g>
   <g id="matplotlib.axis_2">
    <g id="ytick_1">
     <g id="line2d_33">
      <path clip-path="url(#p34b1155278)" d="M 56.84 294.16 
L 399.984 294.16 
" style="fill:none;stroke:#b0b0b0;stroke-linecap:square;stroke-width:0.8;"/>
     </g>
     <g id="line2d_34">
      <defs>
       <path d="M 0 0 
L -3.5 0 
" id="m5c91c9cf3c" style="stroke:#000000;stroke-width:0.8;"/>
      </defs>
      <g>
       <use style="stroke:#000000;stroke-width:0.8;" x="56.84" xlink:href="#m5c91c9cf3c" y="294.16"/>
      </g>
     </g>
     <g id="text_7">
      <!-- 0.0 -->
      <defs>
       <path d="M 10.6875 12.40625 
L 21 12.40625 
L 21 0 
L 10.6875 0 
z
" id="DejaVuSans-2e"/>
      </defs>
      <g transform="translate(24.395 300.23875)scale(0.16 -0.16)">
       <use xlink:href="#DejaVuSans-30"/>
       <use x="63.623047" xlink:href="#DejaVuSans-2e"/>
       <use x="95.410156" xlink:href="#DejaVuSans-30"/>
      </g>
     </g>
    </g>
    <g id="ytick_2">
     <g id="line2d_35">
      <path clip-path="url(#p34b1155278)" d="M 56.84 240.829307 
L 399.984 240.829307 
" style="fill:none;stroke:#b0b0b0;stroke-linecap:square;stroke-width:0.8;"/>
     </g>
     <g id="line2d_36">
      <g>
       <use style="stroke:#000000;stroke-width:0.8;" x="56.84" xlink:href="#m5c91c9cf3c" y="240.829307"/>
      </g>
     </g>
     <g id="text_8">
      <!-- 0.2 -->
      <g transform="translate(24.395 246.908057)scale(0.16 -0.16)">
       <use xlink:href="#DejaVuSans-30"/>
       <use x="63.623047" xlink:href="#DejaVuSans-2e"/>
       <use x="95.410156" xlink:href="#DejaVuSans-32"/>
      </g>
     </g>
    </g>
    <g id="ytick_3">
     <g id="line2d_37">
      <path clip-path="url(#p34b1155278)" d="M 56.84 187.498614 
L 399.984 187.498614 
" style="fill:none;stroke:#b0b0b0;stroke-linecap:square;stroke-width:0.8;"/>
     </g>
     <g id="line2d_38">
      <g>
       <use style="stroke:#000000;stroke-width:0.8;" x="56.84" xlink:href="#m5c91c9cf3c" y="187.498614"/>
      </g>
     </g>
     <g id="text_9">
      <!-- 0.4 -->
      <g transform="translate(24.395 193.577364)scale(0.16 -0.16)">
       <use xlink:href="#DejaVuSans-30"/>
       <use x="63.623047" xlink:href="#DejaVuSans-2e"/>
       <use x="95.410156" xlink:href="#DejaVuSans-34"/>
      </g>
     </g>
    </g>
    <g id="ytick_4">
     <g id="line2d_39">
      <path clip-path="url(#p34b1155278)" d="M 56.84 134.167921 
L 399.984 134.167921 
" style="fill:none;stroke:#b0b0b0;stroke-linecap:square;stroke-width:0.8;"/>
     </g>
     <g id="line2d_40">
      <g>
       <use style="stroke:#000000;stroke-width:0.8;" x="56.84" xlink:href="#m5c91c9cf3c" y="134.167921"/>
      </g>
     </g>
     <g id="text_10">
      <!-- 0.6 -->
      <g transform="translate(24.395 140.246671)scale(0.16 -0.16)">
       <use xlink:href="#DejaVuSans-30"/>
       <use x="63.623047" xlink:href="#DejaVuSans-2e"/>
       <use x="95.410156" xlink:href="#DejaVuSans-36"/>
      </g>
     </g>
    </g>
    <g id="ytick_5">
     <g id="line2d_41">
      <path clip-path="url(#p34b1155278)" d="M 56.84 80.837228 
L 399.984 80.837228 
" style="fill:none;stroke:#b0b0b0;stroke-linecap:square;stroke-width:0.8;"/>
     </g>
     <g id="line2d_42">
      <g>
       <use style="stroke:#000000;stroke-width:0.8;" x="56.84" xlink:href="#m5c91c9cf3c" y="80.837228"/>
      </g>
     </g>
     <g id="text_11">
      <!-- 0.8 -->
      <g transform="translate(24.395 86.915978)scale(0.16 -0.16)">
       <use xlink:href="#DejaVuSans-30"/>
       <use x="63.623047" xlink:href="#DejaVuSans-2e"/>
       <use x="95.410156" xlink:href="#DejaVuSans-38"/>
      </g>
     </g>
    </g>
    <g id="ytick_6">
     <g id="line2d_43">
      <path clip-path="url(#p34b1155278)" d="M 56.84 27.506535 
L 399.984 27.506535 
" style="fill:none;stroke:#b0b0b0;stroke-linecap:square;stroke-width:0.8;"/>
     </g>
     <g id="line2d_44">
      <g>
       <use style="stroke:#000000;stroke-width:0.8;" x="56.84" xlink:href="#m5c91c9cf3c" y="27.506535"/>
      </g>
     </g>
     <g id="text_12">
      <!-- 1.0 -->
      <g transform="translate(24.395 33.585285)scale(0.16 -0.16)">
       <use xlink:href="#DejaVuSans-31"/>
       <use x="63.623047" xlink:href="#DejaVuSans-2e"/>
       <use x="95.410156" xlink:href="#DejaVuSans-30"/>
      </g>
     </g>
    </g>
    <g id="text_13">
     <!-- Fraction of function,target pairs -->
     <defs>
      <path d="M 9.8125 72.90625 
L 51.703125 72.90625 
L 51.703125 64.59375 
L 19.671875 64.59375 
L 19.671875 43.109375 
L 48.578125 43.109375 
L 48.578125 34.8125 
L 19.671875 34.8125 
L 19.671875 0 
L 9.8125 0 
z
" id="DejaVuSans-46"/>
      <path d="M 41.109375 46.296875 
Q 39.59375 47.171875 37.8125 47.578125 
Q 36.03125 48 33.890625 48 
Q 26.265625 48 22.1875 43.046875 
Q 18.109375 38.09375 18.109375 28.8125 
L 18.109375 0 
L 9.078125 0 
L 9.078125 54.6875 
L 18.109375 54.6875 
L 18.109375 46.1875 
Q 20.953125 51.171875 25.484375 53.578125 
Q 30.03125 56 36.53125 56 
Q 37.453125 56 38.578125 55.875 
Q 39.703125 55.765625 41.0625 55.515625 
z
" id="DejaVuSans-72"/>
      <path d="M 48.78125 52.59375 
L 48.78125 44.1875 
Q 44.96875 46.296875 41.140625 47.34375 
Q 37.3125 48.390625 33.40625 48.390625 
Q 24.65625 48.390625 19.8125 42.84375 
Q 14.984375 37.3125 14.984375 27.296875 
Q 14.984375 17.28125 19.8125 11.734375 
Q 24.65625 6.203125 33.40625 6.203125 
Q 37.3125 6.203125 41.140625 7.25 
Q 44.96875 8.296875 48.78125 10.40625 
L 48.78125 2.09375 
Q 45.015625 0.34375 40.984375 -0.53125 
Q 36.96875 -1.421875 32.421875 -1.421875 
Q 20.0625 -1.421875 12.78125 6.34375 
Q 5.515625 14.109375 5.515625 27.296875 
Q 5.515625 40.671875 12.859375 48.328125 
Q 20.21875 56 33.015625 56 
Q 37.15625 56 41.109375 55.140625 
Q 45.0625 54.296875 48.78125 52.59375 
" id="DejaVuSans-63"/>
      <path d="M 18.3125 70.21875 
L 18.3125 54.6875 
L 36.8125 54.6875 
L 36.8125 47.703125 
L 18.3125 47.703125 
L 18.3125 18.015625 
Q 18.3125 11.328125 20.140625 9.421875 
Q 21.96875 7.515625 27.59375 7.515625 
L 36.8125 7.515625 
L 36.8125 0 
L 27.59375 0 
Q 17.1875 0 13.234375 3.875 
Q 9.28125 7.765625 9.28125 18.015625 
L 9.28125 47.703125 
L 2.6875 47.703125 
L 2.6875 54.6875 
L 9.28125 54.6875 
L 9.28125 70.21875 
z
" id="DejaVuSans-74"/>
      <path d="M 8.5 21.578125 
L 8.5 54.6875 
L 17.484375 54.6875 
L 17.484375 21.921875 
Q 17.484375 14.15625 20.5 10.265625 
Q 23.53125 6.390625 29.59375 6.390625 
Q 36.859375 6.390625 41.078125 11.03125 
Q 45.3125 15.671875 45.3125 23.6875 
L 45.3125 54.6875 
L 54.296875 54.6875 
L 54.296875 0 
L 45.3125 0 
L 45.3125 8.40625 
Q 42.046875 3.421875 37.71875 1 
Q 33.40625 -1.421875 27.6875 -1.421875 
Q 18.265625 -1.421875 13.375 4.4375 
Q 8.5 10.296875 8.5 21.578125 
M 31.109375 56 
z
" id="DejaVuSans-75"/>
      <path d="M 11.71875 12.40625 
L 22.015625 12.40625 
L 22.015625 4 
L 14.015625 -11.625 
L 7.71875 -11.625 
L 11.71875 4 
z
" id="DejaVuSans-2c"/>
      <path d="M 18.109375 8.203125 
L 18.109375 -20.796875 
L 9.078125 -20.796875 
L 9.078125 54.6875 
L 18.109375 54.6875 
L 18.109375 46.390625 
Q 20.953125 51.265625 25.265625 53.625 
Q 29.59375 56 35.59375 56 
Q 45.5625 56 51.78125 48.09375 
Q 58.015625 40.1875 58.015625 27.296875 
Q 58.015625 14.40625 51.78125 6.484375 
Q 45.5625 -1.421875 35.59375 -1.421875 
Q 29.59375 -1.421875 25.265625 0.953125 
Q 20.953125 3.328125 18.109375 8.203125 
M 48.6875 27.296875 
Q 48.6875 37.203125 44.609375 42.84375 
Q 40.53125 48.484375 33.40625 48.484375 
Q 26.265625 48.484375 22.1875 42.84375 
Q 18.109375 37.203125 18.109375 27.296875 
Q 18.109375 17.390625 22.1875 11.75 
Q 26.265625 6.109375 33.40625 6.109375 
Q 40.53125 6.109375 44.609375 11.75 
Q 48.6875 17.390625 48.6875 27.296875 
" id="DejaVuSans-70"/>
     </defs>
     <g transform="translate(16.859531 294.639375)rotate(-90)scale(0.17 -0.17)">
      <use xlink:href="#DejaVuSans-46"/>
      <use x="57.410156" xlink:href="#DejaVuSans-72"/>
      <use x="98.523438" xlink:href="#DejaVuSans-61"/>
      <use x="159.802734" xlink:href="#DejaVuSans-63"/>
      <use x="214.783203" xlink:href="#DejaVuSans-74"/>
      <use x="253.992188" xlink:href="#DejaVuSans-69"/>
      <use x="281.775391" xlink:href="#DejaVuSans-6f"/>
      <use x="342.957031" xlink:href="#DejaVuSans-6e"/>
      <use x="406.335938" xlink:href="#DejaVuSans-20"/>
      <use x="438.123047" xlink:href="#DejaVuSans-6f"/>
      <use x="499.304688" xlink:href="#DejaVuSans-66"/>
      <use x="534.509766" xlink:href="#DejaVuSans-20"/>
      <use x="566.296875" xlink:href="#DejaVuSans-66"/>
      <use x="601.501953" xlink:href="#DejaVuSans-75"/>
      <use x="664.880859" xlink:href="#DejaVuSans-6e"/>
      <use x="728.259766" xlink:href="#DejaVuSans-63"/>
      <use x="783.240234" xlink:href="#DejaVuSans-74"/>
      <use x="822.449219" xlink:href="#DejaVuSans-69"/>
      <use x="850.232422" xlink:href="#DejaVuSans-6f"/>
      <use x="911.414062" xlink:href="#DejaVuSans-6e"/>
      <use x="974.792969" xlink:href="#DejaVuSans-2c"/>
      <use x="1006.580078" xlink:href="#DejaVuSans-74"/>
      <use x="1045.789062" xlink:href="#DejaVuSans-61"/>
      <use x="1107.068359" xlink:href="#DejaVuSans-72"/>
      <use x="1148.166016" xlink:href="#DejaVuSans-67"/>
      <use x="1211.642578" xlink:href="#DejaVuSans-65"/>
      <use x="1273.166016" xlink:href="#DejaVuSans-74"/>
      <use x="1312.375" xlink:href="#DejaVuSans-20"/>
      <use x="1344.162109" xlink:href="#DejaVuSans-70"/>
      <use x="1407.638672" xlink:href="#DejaVuSans-61"/>
      <use x="1468.917969" xlink:href="#DejaVuSans-69"/>
      <use x="1496.701172" xlink:href="#DejaVuSans-72"/>
      <use x="1537.814453" xlink:href="#DejaVuSans-73"/>
     </g>
    </g>
   </g>
   <g id="line2d_45">
    <defs>
     <path d="M 0 1.5 
C 0.397805 1.5 0.77937 1.341951 1.06066 1.06066 
C 1.341951 0.77937 1.5 0.397805 1.5 0 
C 1.5 -0.397805 1.341951 -0.77937 1.06066 -1.06066 
C 0.77937 -1.341951 0.397805 -1.5 0 -1.5 
C -0.397805 -1.5 -0.77937 -1.341951 -1.06066 -1.06066 
C -1.341951 -0.77937 -1.5 -0.397805 -1.5 0 
C -1.5 0.397805 -1.341951 0.77937 -1.06066 1.06066 
C -0.77937 1.341951 -0.397805 1.5 0 1.5 
z
" id="m4cbedfec66" style="stroke:#f5deb3;"/>
    </defs>
    <g>
     <use style="fill:#f5deb3;stroke:#f5deb3;" x="291.658588" xlink:href="#m4cbedfec66" y="59.688849"/>
     <use style="fill:#f5deb3;stroke:#f5deb3;" x="291.658588" xlink:href="#m4cbedfec66" y="59.688849"/>
    </g>
   </g>
   <g id="line2d_46">
    <defs>
     <path d="M 0 1.5 
C 0.397805 1.5 0.77937 1.341951 1.06066 1.06066 
C 1.341951 0.77937 1.5 0.397805 1.5 0 
C 1.5 -0.397805 1.341951 -0.77937 1.06066 -1.06066 
C 0.77937 -1.341951 0.397805 -1.5 0 -1.5 
C -0.397805 -1.5 -0.77937 -1.341951 -1.06066 -1.06066 
C -1.341951 -0.77937 -1.5 -0.397805 -1.5 0 
C -1.5 0.397805 -1.341951 0.77937 -1.06066 1.06066 
C -0.77937 1.341951 -0.397805 1.5 0 1.5 
z
" id="m972f96e5ae" style="stroke:#000080;"/>
    </defs>
    <g>
     <use style="fill:#000080;stroke:#000080;" x="325.614028" xlink:href="#m972f96e5ae" y="119.456005"/>
     <use style="fill:#000080;stroke:#000080;" x="325.614028" xlink:href="#m972f96e5ae" y="119.456005"/>
    </g>
   </g>
   <g id="line2d_47">
    <path d="M 37.9781 294.16 
L 37.9781 288.183284 
L 129.114907 288.183284 
L 129.114907 287.26379 
L 135.962572 287.26379 
L 135.962572 285.4248 
L 136.076273 285.4248 
L 136.076273 284.965053 
L 138.104766 284.965053 
L 138.104766 284.045558 
L 141.100226 284.045558 
L 141.100226 283.126064 
L 142.751962 283.126064 
L 142.751962 282.666316 
L 143.46665 282.666316 
L 143.46665 281.287074 
L 144.880522 281.287074 
L 144.880522 279.907832 
L 145.249758 279.907832 
L 145.249758 279.448085 
L 145.837343 279.448085 
L 145.901406 277.149348 
L 148.061592 277.149348 
L 148.061592 275.770106 
L 148.914024 275.770106 
L 148.914024 274.850611 
L 149.232959 274.850611 
L 149.232959 273.471369 
L 149.649193 273.471369 
L 149.649193 273.011622 
L 150.501544 273.011622 
L 150.501544 272.551874 
L 150.696094 272.551874 
L 150.696094 271.63238 
L 150.816578 271.63238 
L 150.816578 269.79339 
L 151.102335 269.79339 
L 151.19654 267.034906 
L 152.155688 267.034906 
L 152.155688 266.115411 
L 152.615888 266.115411 
L 152.615888 265.195917 
L 153.021891 265.195917 
L 153.021891 264.276422 
L 153.521383 264.276422 
L 153.521383 263.816675 
L 154.165542 263.816675 
L 154.165542 262.437433 
L 154.729143 262.437433 
L 154.805449 259.678948 
L 155.256298 259.678948 
L 155.31183 258.299706 
L 156.141579 258.299706 
L 156.141579 257.839959 
L 156.351598 257.839959 
L 156.351598 257.380212 
L 156.831876 257.380212 
L 156.831876 256.920464 
L 157.016942 256.920464 
L 157.016942 256.00097 
L 157.331975 256.00097 
L 157.331975 255.541222 
L 157.865765 255.541222 
L 157.897588 254.621728 
L 158.414337 254.621728 
L 158.414337 254.16198 
L 158.735259 254.16198 
L 158.810793 251.863243 
L 158.870982 251.863243 
L 158.870982 250.484001 
L 160.213997 250.484001 
L 160.213997 249.104759 
L 160.338559 249.104759 
L 160.421102 247.725517 
L 161.146654 247.725517 
L 161.146654 246.806023 
L 161.433678 246.806023 
L 161.459535 244.967033 
L 161.70325 244.967033 
L 161.754121 242.208549 
L 161.880642 242.208549 
L 161.880642 241.748802 
L 162.16815 241.748802 
L 162.16815 240.36956 
L 162.426518 240.36956 
L 162.426518 238.990318 
L 162.632862 238.990318 
L 162.632862 237.151328 
L 163.388177 237.151328 
L 163.388177 236.691581 
L 163.685778 236.691581 
L 163.685778 236.231833 
L 163.955982 236.231833 
L 163.955982 235.772086 
L 164.6242 235.772086 
L 164.6242 234.852591 
L 166.174398 234.852591 
L 166.174398 234.392844 
L 166.979784 234.392844 
L 166.979784 233.933097 
L 167.147559 233.933097 
L 167.212365 232.094107 
L 167.532774 232.094107 
L 167.532774 230.255118 
L 167.76698 230.255118 
L 167.76698 227.956381 
L 168.182411 227.956381 
L 168.182411 227.496634 
L 168.917476 227.496634 
L 168.917476 225.197897 
L 169.574108 225.197897 
L 169.574108 224.73815 
L 169.837819 224.73815 
L 169.837819 223.818655 
L 171.047177 223.818655 
L 171.047177 223.358907 
L 172.252878 223.358907 
L 172.252878 222.89916 
L 172.560144 222.89916 
L 172.560144 221.979665 
L 173.635596 221.979665 
L 173.635596 221.060171 
L 174.985861 221.060171 
L 174.985861 219.221181 
L 176.368235 219.221181 
L 176.368235 218.761434 
L 177.717855 218.761434 
L 177.777886 217.382192 
L 178.91307 217.382192 
L 178.91307 216.00295 
L 179.223428 216.00295 
L 179.223428 215.543202 
L 179.419698 215.543202 
L 179.419698 215.083455 
L 179.716651 215.083455 
L 179.716651 213.244466 
L 181.071322 213.244466 
L 181.071322 212.324971 
L 181.36153 212.324971 
L 181.36153 211.865224 
L 184.420025 211.865224 
L 184.497858 210.026234 
L 185.218566 210.026234 
L 185.218566 208.646992 
L 187.656221 208.646992 
L 187.656221 208.187245 
L 187.773798 208.187245 
L 187.773798 207.727497 
L 189.034783 207.727497 
L 189.034783 206.348255 
L 189.22555 206.348255 
L 189.22555 205.428761 
L 189.580763 205.428761 
L 189.580763 204.049519 
L 189.790415 204.049519 
L 189.790415 203.589771 
L 190.211878 203.589771 
L 190.211878 202.670277 
L 190.899862 202.670277 
L 190.899862 201.291034 
L 192.200425 201.291034 
L 192.200425 200.831287 
L 194.04251 200.831287 
L 194.04251 199.911792 
L 196.46915 199.911792 
L 196.46915 198.53255 
L 198.906961 198.53255 
L 198.906961 197.613056 
L 204.632669 197.613056 
L 204.632669 196.693561 
L 204.792855 196.693561 
L 204.792855 196.233814 
L 208.216854 196.233814 
L 208.216854 195.314319 
L 208.837366 195.314319 
L 208.837366 194.394824 
L 211.325462 194.394824 
L 211.360103 193.015582 
L 213.79064 193.015582 
L 213.79064 191.63634 
L 214.325361 191.63634 
L 214.325361 190.716845 
L 214.533263 190.716845 
L 214.533263 189.797351 
L 215.911793 189.797351 
L 215.911793 188.877856 
L 216.294327 188.877856 
L 216.397862 187.498614 
L 217.420615 187.498614 
L 217.420615 186.579119 
L 218.816179 186.579119 
L 218.816179 185.199877 
L 219.042043 185.199877 
L 219.106484 183.820635 
L 220.005921 183.820635 
L 220.005921 183.360888 
L 221.195171 183.360888 
L 221.195171 181.981646 
L 221.397095 181.981646 
L 221.397095 181.521898 
L 221.594726 181.521898 
L 221.594726 180.602404 
L 221.811637 180.602404 
L 221.811637 180.142656 
L 223.371513 180.142656 
L 223.371513 179.223161 
L 225.224511 179.223161 
L 225.224511 178.763414 
L 227.40444 178.763414 
L 227.40444 178.303667 
L 227.761325 178.303667 
L 227.761325 176.924425 
L 229.046302 176.924425 
L 229.046302 176.464677 
L 233.46995 176.464677 
L 233.46995 176.00493 
L 234.314689 176.00493 
L 234.314689 175.545183 
L 235.470008 175.545183 
L 235.470008 175.085435 
L 235.897145 175.085435 
L 235.897145 173.706193 
L 239.598438 173.706193 
L 239.598438 172.786699 
L 240.934227 172.786699 
L 240.934227 172.326951 
L 241.763449 172.326951 
L 241.763449 171.867204 
L 243.267958 171.867204 
L 243.267958 170.947709 
L 245.739128 170.947709 
L 245.739128 170.028214 
L 250.756471 170.028214 
L 250.756471 169.10872 
L 251.12564 169.10872 
L 251.12564 168.648972 
L 252.217816 168.648972 
L 252.217816 168.189225 
L 254.335435 168.189225 
L 254.335435 167.26973 
L 254.588371 167.26973 
L 254.674997 165.890488 
L 254.774601 165.890488 
L 254.774601 165.430741 
L 254.993407 165.430741 
L 254.993407 164.970994 
L 255.671097 164.970994 
L 255.671097 164.511246 
L 255.80499 164.511246 
L 255.848015 162.672257 
L 256.042393 162.672257 
L 256.091246 161.293015 
L 256.353446 161.293015 
L 256.445382 160.37352 
L 256.533778 160.37352 
L 256.566137 158.994278 
L 256.670165 158.994278 
L 256.670165 158.534531 
L 256.893538 158.534531 
L 256.933624 157.155288 
L 257.103912 157.155288 
L 257.103912 156.695541 
L 258.02612 156.695541 
L 258.02612 155.776046 
L 259.512241 155.776046 
L 259.512241 155.316299 
L 260.5257 155.316299 
L 260.52578 153.937057 
L 261.194473 153.937057 
L 261.194473 153.47731 
L 261.694173 153.47731 
L 261.694173 153.017562 
L 264.406464 153.017562 
L 264.406464 152.557815 
L 264.636493 152.557815 
L 264.636493 152.098068 
L 265.032363 152.098068 
L 265.032363 151.63832 
L 266.48825 151.63832 
L 266.48825 151.178573 
L 266.654222 151.178573 
L 266.663019 150.259078 
L 267.194178 150.259078 
L 267.219793 148.420089 
L 267.35734 148.420089 
L 267.452603 147.040847 
L 267.629119 147.040847 
L 267.629119 146.581099 
L 270.063455 146.581099 
L 270.063455 146.121352 
L 270.375864 146.121352 
L 270.393202 144.74211 
L 271.977377 144.74211 
L 271.977377 144.282363 
L 272.210007 144.282363 
L 272.316717 143.362868 
L 272.74128 143.362868 
L 272.74128 142.903121 
L 273.534971 142.903121 
L 273.534971 142.443373 
L 273.685909 142.443373 
L 273.768246 141.523878 
L 273.979593 141.523878 
L 274.073703 140.604384 
L 274.624486 140.604384 
L 274.624486 140.144636 
L 275.891693 140.144636 
L 275.90078 139.225142 
L 276.114789 139.225142 
L 276.114789 138.765394 
L 277.338593 138.765394 
L 277.447404 137.8459 
L 277.636077 137.8459 
L 277.636077 137.386152 
L 277.766692 137.386152 
L 277.840509 136.466658 
L 278.433701 136.466658 
L 278.433758 135.547163 
L 278.72083 135.547163 
L 278.791444 134.627668 
L 278.877703 134.627668 
L 278.877703 134.167921 
L 278.997767 134.167921 
L 278.997767 133.708173 
L 279.672352 133.708173 
L 279.672352 133.248426 
L 280.40829 133.248426 
L 280.408302 132.328931 
L 281.319482 132.328931 
L 281.368889 130.949689 
L 282.47093 130.949689 
L 282.47093 130.489942 
L 282.904932 130.489942 
L 282.904932 130.030195 
L 283.704042 130.030195 
L 283.704042 129.570447 
L 285.579374 129.570447 
L 285.579374 129.1107 
L 286.698948 129.1107 
L 286.698948 128.650953 
L 287.610402 128.650953 
L 287.610418 127.731458 
L 288.428536 127.731458 
L 288.428536 127.27171 
L 289.148948 127.27171 
L 289.148948 126.811963 
L 289.941922 126.811963 
L 289.978299 125.892468 
L 291.297729 125.892468 
L 291.297729 125.432721 
L 292.026622 125.432721 
L 292.026622 124.972974 
L 292.85262 124.972974 
L 292.85262 124.513226 
L 293.119321 124.513226 
L 293.119321 124.053479 
L 293.660753 124.053479 
L 293.660753 123.593732 
L 294.600689 123.593732 
L 294.600689 123.133984 
L 295.509956 123.133984 
L 295.509956 122.674237 
L 295.829688 122.674237 
L 295.829688 122.21449 
L 297.017998 122.21449 
L 297.018023 121.294995 
L 298.404268 121.294995 
L 298.404268 120.835248 
L 302.661514 120.835248 
L 302.661514 120.3755 
L 307.495612 120.3755 
L 307.495612 119.915753 
L 325.614028 119.915753 
L 325.614028 119.456005 
L 333.569032 119.456005 
L 333.569032 119.456005 
" style="fill:none;stroke:#000080;stroke-linecap:square;stroke-width:1.5;"/>
   </g>
   <g id="line2d_48">
    <defs>
     <path d="M 0 6 
C 1.591219 6 3.117479 5.367802 4.242641 4.242641 
C 5.367802 3.117479 6 1.591219 6 0 
C 6 -1.591219 5.367802 -3.117479 4.242641 -4.242641 
C 3.117479 -5.367802 1.591219 -6 0 -6 
C -1.591219 -6 -3.117479 -5.367802 -4.242641 -4.242641 
C -5.367802 -3.117479 -6 -1.591219 -6 0 
C -6 1.591219 -5.367802 3.117479 -4.242641 4.242641 
C -3.117479 5.367802 -1.591219 6 0 6 
z
" id="mba372a4059" style="stroke:#000080;stroke-width:1.5;"/>
    </defs>
    <g>
     <use style="fill:none;stroke:#000080;stroke-width:1.5;" x="166.174398" xlink:href="#mba372a4059" y="234.852591"/>
     <use style="fill:none;stroke:#000080;stroke-width:1.5;" x="211.360103" xlink:href="#mba372a4059" y="193.935077"/>
     <use style="fill:none;stroke:#000080;stroke-width:1.5;" x="266.663019" xlink:href="#mba372a4059" y="150.718826"/>
     <use style="fill:none;stroke:#000080;stroke-width:1.5;" x="325.614028" xlink:href="#mba372a4059" y="119.456005"/>
     <use style="fill:none;stroke:#000080;stroke-width:1.5;" x="333.569032" xlink:href="#mba372a4059" y="119.456005"/>
    </g>
   </g>
   <g id="line2d_49">
    <path style="fill:none;stroke:#000080;stroke-linecap:square;stroke-width:1.5;"/>
    <g/>
   </g>
   <g id="line2d_50">
    <path clip-path="url(#p34b1155278)" d="M 254.510747 167.26973 
" style="fill:none;stroke:#000080;stroke-linecap:square;stroke-width:1.5;"/>
    <defs>
     <path d="M -12 12 
L 12 -12 
M -12 -12 
L 12 12 
" id="m87eba84434" style="stroke:#000080;stroke-width:3;"/>
    </defs>
    <g clip-path="url(#p34b1155278)">
     <use style="fill:#000080;stroke:#000080;stroke-width:3;" x="254.510747" xlink:href="#m87eba84434" y="167.26973"/>
    </g>
   </g>
   <g id="line2d_51">
    <defs>
     <path d="M 0 1.5 
C 0.397805 1.5 0.77937 1.341951 1.06066 1.06066 
C 1.341951 0.77937 1.5 0.397805 1.5 0 
C 1.5 -0.397805 1.341951 -0.77937 1.06066 -1.06066 
C 0.77937 -1.341951 0.397805 -1.5 0 -1.5 
C -0.397805 -1.5 -0.77937 -1.341951 -1.06066 -1.06066 
C -1.341951 -0.77937 -1.5 -0.397805 -1.5 0 
C -1.5 0.397805 -1.341951 0.77937 -1.06066 1.06066 
C -0.77937 1.341951 -0.397805 1.5 0 1.5 
z
" id="me8be1cea20" style="stroke:#ff00ff;"/>
    </defs>
    <g>
     <use style="fill:#ff00ff;stroke:#ff00ff;" x="364.762027" xlink:href="#me8be1cea20" y="142.443373"/>
     <use style="fill:#ff00ff;stroke:#ff00ff;" x="364.762027" xlink:href="#me8be1cea20" y="142.443373"/>
    </g>
   </g>
   <g id="line2d_52">
    <path d="M 37.9781 294.16 
L 37.9781 290.022274 
L 49.878634 290.022274 
L 49.878634 285.4248 
L 56.84 285.4248 
L 56.84 284.045558 
L 68.740534 284.045558 
L 68.740534 280.827327 
L 71.387123 280.827327 
L 71.387123 280.367579 
L 79.147184 280.367579 
L 79.147184 278.068843 
L 84.472185 278.068843 
L 84.472185 277.149348 
L 87.602435 277.149348 
L 87.602435 276.229853 
L 89.411353 276.229853 
L 89.411353 274.390864 
L 91.047718 274.390864 
L 91.047718 273.471369 
L 92.541603 273.471369 
L 92.541603 273.011622 
L 102.553549 273.011622 
L 102.553549 272.551874 
L 105.816377 272.551874 
L 105.816377 271.172632 
L 110.422159 271.172632 
L 110.422159 269.79339 
L 113.425701 269.79339 
L 113.425701 268.414148 
L 114.050092 268.414148 
L 114.050092 267.954401 
L 115.042787 267.954401 
L 115.042787 267.034906 
L 116.520588 267.034906 
L 116.520588 266.115411 
L 119.73911 266.115411 
L 119.73911 265.195917 
L 121.147181 265.195917 
L 121.147181 263.816675 
L 131.492271 263.816675 
L 131.492271 262.437433 
L 138.892015 262.437433 
L 138.892015 261.517938 
L 139.366322 261.517938 
L 139.366322 261.058191 
L 143.094209 261.058191 
L 143.094209 260.598443 
L 145.546064 260.598443 
L 145.546064 259.678948 
L 147.253498 259.678948 
L 147.253498 259.219201 
L 148.914024 259.219201 
L 148.914024 257.380212 
L 149.390232 257.380212 
L 149.390232 256.00097 
L 149.674876 256.00097 
L 149.674876 255.081475 
L 151.932132 255.081475 
L 151.932132 254.621728 
L 152.485656 254.621728 
L 152.485656 254.16198 
L 154.536881 254.16198 
L 154.594786 253.242485 
L 161.172946 253.242485 
L 161.172946 252.782738 
L 164.591937 252.782738 
L 164.591937 250.943749 
L 167.668282 250.943749 
L 167.668282 249.564507 
L 169.000942 249.564507 
L 169.000942 248.645012 
L 169.702474 248.645012 
L 169.798122 246.346275 
L 178.786397 246.346275 
L 178.786397 245.42678 
L 179.283003 245.42678 
L 179.283003 244.967033 
L 180.776125 244.967033 
L 180.776125 244.507286 
L 182.608092 244.507286 
L 182.608092 244.047538 
L 183.85808 244.047538 
L 183.85808 243.587791 
L 184.198137 243.587791 
L 184.198137 242.668296 
L 187.943142 242.668296 
L 187.943142 241.748802 
L 188.328299 241.748802 
L 188.328299 241.289054 
L 193.205227 241.289054 
L 193.205227 240.829307 
L 193.843844 240.829307 
L 193.843844 238.53057 
L 194.86302 238.53057 
L 194.86302 237.611075 
L 200.101405 237.611075 
L 200.147605 236.231833 
L 200.24908 236.231833 
L 200.24908 235.772086 
L 200.610824 235.772086 
L 200.610824 235.312339 
L 204.277898 235.312339 
L 204.277898 234.392844 
L 210.075908 234.392844 
L 210.075908 233.933097 
L 210.824262 233.933097 
L 210.824262 233.013602 
L 211.159778 233.013602 
L 211.159778 232.553855 
L 213.598924 232.553855 
L 213.598924 231.174612 
L 222.649948 231.174612 
L 222.649948 230.714865 
L 224.085187 230.714865 
L 224.085187 230.255118 
L 228.019386 230.255118 
L 228.019386 229.335623 
L 231.438957 229.335623 
L 231.438957 228.416128 
L 233.29133 228.416128 
L 233.29133 227.956381 
L 234.66863 227.956381 
L 234.66863 226.577139 
L 236.153184 226.577139 
L 236.153184 225.657644 
L 238.432093 225.657644 
L 238.432093 225.197897 
L 240.241537 225.197897 
L 240.241537 224.278402 
L 242.266128 224.278402 
L 242.266128 222.89916 
L 246.474876 222.89916 
L 246.474876 221.519918 
L 246.77219 221.519918 
L 246.77219 221.060171 
L 248.889929 221.060171 
L 248.889929 220.600423 
L 251.278103 220.600423 
L 251.278103 220.140676 
L 255.835574 220.140676 
L 255.835574 219.221181 
L 256.445024 219.221181 
L 256.445024 217.841939 
L 257.896699 217.841939 
L 257.896699 217.382192 
L 259.308191 217.382192 
L 259.308191 216.922445 
L 263.116719 216.922445 
L 263.116719 215.543202 
L 264.483185 215.543202 
L 264.566413 212.324971 
L 270.429274 212.324971 
L 270.429274 211.865224 
L 273.646676 211.865224 
L 273.646676 211.405476 
L 274.375926 211.405476 
L 274.375926 210.485982 
L 275.833237 210.485982 
L 275.903627 208.187245 
L 280.152459 208.187245 
L 280.152459 207.727497 
L 289.662723 207.727497 
L 289.662723 207.26775 
L 294.047229 207.26775 
L 294.11054 201.750782 
L 294.192722 201.750782 
L 294.192722 201.291034 
L 294.325798 201.291034 
L 294.399565 198.992298 
L 294.528273 198.992298 
L 294.616016 197.613056 
L 294.678012 197.613056 
L 294.678012 197.153308 
L 295.231768 197.153308 
L 295.231768 196.693561 
L 296.660538 196.693561 
L 296.660538 195.314319 
L 296.860963 195.314319 
L 296.860963 194.854572 
L 299.142573 194.854572 
L 299.142573 194.394824 
L 300.361694 194.394824 
L 300.361694 193.935077 
L 302.773763 193.935077 
L 302.773763 193.475329 
L 303.888943 193.475329 
L 303.888943 193.015582 
L 305.083006 193.015582 
L 305.083006 192.555835 
L 305.942306 192.555835 
L 306.01523 191.63634 
L 306.0822 191.63634 
L 306.119434 190.716845 
L 306.229146 190.716845 
L 306.306894 188.418109 
L 306.475502 188.418109 
L 306.544977 187.038867 
L 306.872119 187.038867 
L 306.872119 186.579119 
L 307.407197 186.579119 
L 307.414043 185.199877 
L 308.679116 185.199877 
L 308.679116 184.280382 
L 309.113693 184.280382 
L 309.113693 183.820635 
L 309.930003 183.820635 
L 309.930003 182.90114 
L 312.922268 182.90114 
L 312.995252 181.062151 
L 313.063771 181.062151 
L 313.145796 178.763414 
L 313.259188 178.763414 
L 313.259188 178.303667 
L 313.505797 178.303667 
L 313.527354 176.924425 
L 313.81825 176.924425 
L 313.81825 176.464677 
L 314.774164 176.464677 
L 314.774164 176.00493 
L 315.660701 176.00493 
L 315.660701 175.545183 
L 316.843946 175.545183 
L 316.843946 175.085435 
L 317.850682 175.085435 
L 317.850682 174.625688 
L 317.984153 174.625688 
L 317.984153 174.165941 
L 318.104198 174.165941 
L 318.144139 173.246446 
L 319.499179 173.246446 
L 319.499179 172.786699 
L 319.949791 172.786699 
L 319.949791 172.326951 
L 320.472251 172.326951 
L 320.472251 171.867204 
L 320.878401 171.867204 
L 320.878401 171.407456 
L 321.33204 171.407456 
L 321.33204 170.947709 
L 321.786015 170.947709 
L 321.817475 170.028214 
L 322.27183 170.028214 
L 322.27183 169.10872 
L 322.823044 169.10872 
L 322.823044 168.648972 
L 324.859826 168.648972 
L 324.922985 166.350236 
L 325.302986 166.350236 
L 325.302986 165.890488 
L 325.507418 165.890488 
L 325.507418 165.430741 
L 325.762332 165.430741 
L 325.762332 164.970994 
L 326.235493 164.970994 
L 326.235493 164.511246 
L 326.599463 164.511246 
L 326.599463 164.051499 
L 327.467768 164.051499 
L 327.467768 163.591751 
L 327.708366 163.591751 
L 327.708366 163.132004 
L 328.274533 163.132004 
L 328.274533 161.752762 
L 328.684048 161.752762 
L 328.684048 161.293015 
L 329.528403 161.293015 
L 329.528403 160.833267 
L 329.800187 160.833267 
L 329.89198 158.994278 
L 330.117476 158.994278 
L 330.117476 158.534531 
L 330.465626 158.534531 
L 330.465626 157.615036 
L 332.408475 157.615036 
L 332.408475 156.235794 
L 333.401627 156.235794 
L 333.401627 155.776046 
L 333.569032 155.776046 
L 333.569032 155.776046 
" style="fill:none;stroke:#ff00ff;stroke-linecap:square;stroke-width:1.5;"/>
   </g>
   <g id="line2d_53">
    <defs>
     <path d="M -0 8.485281 
L 5.091169 0 
L 0 -8.485281 
L -5.091169 -0 
z
" id="m99a3e04541" style="stroke:#ff00ff;stroke-linejoin:miter;stroke-width:1.5;"/>
    </defs>
    <g>
     <use style="fill:none;stroke:#ff00ff;stroke-linejoin:miter;stroke-width:1.5;" x="105.816377" xlink:href="#m99a3e04541" y="272.551874"/>
     <use style="fill:none;stroke:#ff00ff;stroke-linejoin:miter;stroke-width:1.5;" x="169.798122" xlink:href="#m99a3e04541" y="246.806023"/>
     <use style="fill:none;stroke:#ff00ff;stroke-linejoin:miter;stroke-width:1.5;" x="263.116719" xlink:href="#m99a3e04541" y="215.543202"/>
     <use style="fill:none;stroke:#ff00ff;stroke-linejoin:miter;stroke-width:1.5;" x="306.544977" xlink:href="#m99a3e04541" y="187.958361"/>
     <use style="fill:none;stroke:#ff00ff;stroke-linejoin:miter;stroke-width:1.5;" x="333.401627" xlink:href="#m99a3e04541" y="155.776046"/>
     <use style="fill:none;stroke:#ff00ff;stroke-linejoin:miter;stroke-width:1.5;" x="333.569032" xlink:href="#m99a3e04541" y="155.776046"/>
    </g>
   </g>
   <g id="line2d_54">
    <path style="fill:none;stroke:#ff00ff;stroke-linecap:square;stroke-width:1.5;"/>
    <g/>
   </g>
   <g id="line2d_55">
    <path clip-path="url(#p34b1155278)" d="M 294.036313 207.26775 
" style="fill:none;stroke:#ff00ff;stroke-linecap:square;stroke-width:1.5;"/>
    <defs>
     <path d="M -12 12 
L 12 -12 
M -12 -12 
L 12 12 
" id="m20b4bcd531" style="stroke:#ff00ff;stroke-width:3;"/>
    </defs>
    <g clip-path="url(#p34b1155278)">
     <use style="fill:#ff00ff;stroke:#ff00ff;stroke-width:3;" x="294.036313" xlink:href="#m20b4bcd531" y="207.26775"/>
    </g>
   </g>
   <g id="line2d_56">
    <defs>
     <path d="M 0 1.5 
C 0.397805 1.5 0.77937 1.341951 1.06066 1.06066 
C 1.341951 0.77937 1.5 0.397805 1.5 0 
C 1.5 -0.397805 1.341951 -0.77937 1.06066 -1.06066 
C 0.77937 -1.341951 0.397805 -1.5 0 -1.5 
C -0.397805 -1.5 -0.77937 -1.341951 -1.06066 -1.06066 
C -1.341951 -0.77937 -1.5 -0.397805 -1.5 0 
C -1.5 0.397805 -1.341951 0.77937 -1.06066 1.06066 
C -0.77937 1.341951 -0.397805 1.5 0 1.5 
z
" id="m2787c78d7f" style="stroke:#ffa500;"/>
    </defs>
    <g>
     <use style="fill:#ffa500;stroke:#ffa500;" x="235.919459" xlink:href="#m2787c78d7f" y="243.587791"/>
     <use style="fill:#ffa500;stroke:#ffa500;" x="235.919459" xlink:href="#m2787c78d7f" y="243.587791"/>
    </g>
   </g>
   <g id="line2d_57">
    <path d="M 37.9781 294.16 
L 37.9781 287.723537 
L 141.268549 287.723537 
L 141.268549 285.884548 
L 161.472448 285.884548 
L 161.472448 284.505306 
L 163.617557 284.505306 
L 163.617557 282.206569 
L 168.740866 282.206569 
L 168.740866 281.287074 
L 169.100568 281.287074 
L 169.207847 280.367579 
L 169.42854 280.367579 
L 169.42854 279.448085 
L 170.711327 279.448085 
L 170.718862 278.52859 
L 171.187031 278.52859 
L 171.187031 277.149348 
L 172.403784 277.149348 
L 172.403784 276.689601 
L 174.074882 276.689601 
L 174.074882 276.229853 
L 174.29038 276.229853 
L 174.29038 275.770106 
L 174.897498 275.770106 
L 174.897498 274.850611 
L 175.817375 274.850611 
L 175.839752 273.471369 
L 175.934531 273.471369 
L 175.956756 271.63238 
L 176.089505 271.63238 
L 176.089505 270.712885 
L 177.951786 270.712885 
L 177.951786 270.253138 
L 184.528219 270.253138 
L 184.528219 269.79339 
L 184.977298 269.79339 
L 184.977298 269.333643 
L 185.344369 269.333643 
L 185.434124 267.494653 
L 185.621729 267.494653 
L 185.71005 266.115411 
L 187.0414 266.115411 
L 187.0414 265.195917 
L 187.832285 265.195917 
L 187.90996 263.816675 
L 191.388174 263.816675 
L 191.388174 263.356927 
L 192.770758 263.356927 
L 192.870565 262.437433 
L 193.174701 262.437433 
L 193.174701 261.977685 
L 193.37719 261.977685 
L 193.37719 261.517938 
L 195.584256 261.517938 
L 195.584256 261.058191 
L 197.165981 261.058191 
L 197.165981 260.598443 
L 197.999423 260.598443 
L 197.999423 260.138696 
L 198.115905 260.138696 
L 198.201232 258.759454 
L 198.64533 258.759454 
L 198.64533 258.299706 
L 202.453919 258.299706 
L 202.487107 257.380212 
L 202.740995 257.380212 
L 202.764314 256.460717 
L 202.925514 256.460717 
L 202.925514 256.00097 
L 203.633305 256.00097 
L 203.633305 255.541222 
L 204.12358 255.541222 
L 204.12358 255.081475 
L 205.92173 255.081475 
L 205.92173 254.621728 
L 206.045372 254.621728 
L 206.045372 254.16198 
L 208.723282 254.16198 
L 208.723282 253.702233 
L 209.487505 253.702233 
L 209.487505 253.242485 
L 210.929591 253.242485 
L 210.929591 252.782738 
L 213.082288 252.782738 
L 213.082288 252.322991 
L 214.985749 252.322991 
L 214.985749 251.863243 
L 215.145111 251.863243 
L 215.145111 251.403496 
L 216.561918 251.403496 
L 216.561918 250.943749 
L 216.730104 250.943749 
L 216.730104 250.484001 
L 218.215205 250.484001 
L 218.215205 250.024254 
L 219.67625 250.024254 
L 219.67625 249.564507 
L 220.537545 249.564507 
L 220.537545 249.104759 
L 222.18711 249.104759 
L 222.18711 248.645012 
L 226.219655 248.645012 
L 226.219655 248.185265 
L 227.14619 248.185265 
L 227.178825 247.26577 
L 228.76032 247.26577 
L 228.76032 246.806023 
L 229.630697 246.806023 
L 229.630697 246.346275 
L 231.079057 246.346275 
L 231.079057 245.886528 
L 232.43125 245.886528 
L 232.43125 245.42678 
L 232.940881 245.42678 
L 232.940881 244.967033 
L 234.261186 244.967033 
L 234.261186 244.507286 
L 235.350109 244.507286 
L 235.350109 244.047538 
L 235.919459 244.047538 
L 235.919459 243.587791 
L 333.569032 243.587791 
L 333.569032 243.587791 
" style="fill:none;stroke:#ffa500;stroke-linecap:square;stroke-width:1.5;"/>
   </g>
   <g id="line2d_58">
    <defs>
     <path d="M 0 -6 
L -1.347084 -1.854102 
L -5.706339 -1.854102 
L -2.179628 0.708204 
L -3.526712 4.854102 
L -0 2.291796 
L 3.526712 4.854102 
L 2.179628 0.708204 
L 5.706339 -1.854102 
L 1.347084 -1.854102 
z
" id="maac6c2c9a2" style="stroke:#ffa500;stroke-linejoin:bevel;stroke-width:1.5;"/>
    </defs>
    <g>
     <use style="fill:none;stroke:#ffa500;stroke-linejoin:bevel;stroke-width:1.5;" x="195.584256" xlink:href="#maac6c2c9a2" y="261.517938"/>
     <use style="fill:none;stroke:#ffa500;stroke-linejoin:bevel;stroke-width:1.5;" x="235.919459" xlink:href="#maac6c2c9a2" y="244.047538"/>
     <use style="fill:none;stroke:#ffa500;stroke-linejoin:bevel;stroke-width:1.5;" x="235.919459" xlink:href="#maac6c2c9a2" y="243.587791"/>
     <use style="fill:none;stroke:#ffa500;stroke-linejoin:bevel;stroke-width:1.5;" x="235.919459" xlink:href="#maac6c2c9a2" y="243.587791"/>
     <use style="fill:none;stroke:#ffa500;stroke-linejoin:bevel;stroke-width:1.5;" x="333.569032" xlink:href="#maac6c2c9a2" y="243.587791"/>
    </g>
   </g>
   <g id="line2d_59">
    <path style="fill:none;stroke:#ffa500;stroke-linecap:square;stroke-width:1.5;"/>
    <g/>
   </g>
   <g id="line2d_60">
    <path clip-path="url(#p34b1155278)" d="M 175.951202 272.092127 
" style="fill:none;stroke:#ffa500;stroke-linecap:square;stroke-width:1.5;"/>
    <defs>
     <path d="M -12 12 
L 12 -12 
M -12 -12 
L 12 12 
" id="m00161d740c" style="stroke:#ffa500;stroke-width:3;"/>
    </defs>
    <g clip-path="url(#p34b1155278)">
     <use style="fill:#ffa500;stroke:#ffa500;stroke-width:3;" x="175.951202" xlink:href="#m00161d740c" y="272.092127"/>
    </g>
   </g>
   <g id="line2d_61">
    <path d="M 333.569032 243.587791 
L 364.009226 288.826931 
" style="fill:none;stroke:#ffa500;stroke-linecap:square;stroke-width:1.5;"/>
    <g>
     <use style="fill:none;stroke:#ffa500;stroke-linejoin:bevel;stroke-width:1.5;" x="333.569032" xlink:href="#maac6c2c9a2" y="243.587791"/>
     <use style="fill:none;stroke:#ffa500;stroke-linejoin:bevel;stroke-width:1.5;" x="364.009226" xlink:href="#maac6c2c9a2" y="288.826931"/>
    </g>
   </g>
   <g id="line2d_62">
    <path d="M 333.569032 155.776046 
L 364.009226 203.497822 
" style="fill:none;stroke:#ff00ff;stroke-linecap:square;stroke-width:1.5;"/>
    <g>
     <use style="fill:none;stroke:#ff00ff;stroke-linejoin:miter;stroke-width:1.5;" x="333.569032" xlink:href="#m99a3e04541" y="155.776046"/>
     <use style="fill:none;stroke:#ff00ff;stroke-linejoin:miter;stroke-width:1.5;" x="364.009226" xlink:href="#m99a3e04541" y="203.497822"/>
    </g>
   </g>
   <g id="line2d_63">
    <path d="M 333.569032 119.456005 
L 364.009226 118.168713 
" style="fill:none;stroke:#000080;stroke-linecap:square;stroke-width:1.5;"/>
    <g>
     <use style="fill:none;stroke:#000080;stroke-width:1.5;" x="333.569032" xlink:href="#mba372a4059" y="119.456005"/>
     <use style="fill:none;stroke:#000080;stroke-width:1.5;" x="364.009226" xlink:href="#mba372a4059" y="118.168713"/>
    </g>
   </g>
   <g id="line2d_64">
    <path d="M 333.569032 294.16 
L 333.569032 27.506535 
" style="fill:none;stroke:#000000;stroke-linecap:square;stroke-width:1.5;"/>
   </g>
   <g id="patch_3">
    <path d="M 56.84 294.16 
L 56.84 24.84 
" style="fill:none;stroke:#000000;stroke-linecap:square;stroke-linejoin:miter;stroke-width:0.8;"/>
   </g>
   <g id="patch_4">
    <path d="M 399.984 294.16 
L 399.984 24.84 
" style="fill:none;stroke:#000000;stroke-linecap:square;stroke-linejoin:miter;stroke-width:0.8;"/>
   </g>
   <g id="patch_5">
    <path d="M 56.84 294.16 
L 399.984 294.16 
" style="fill:none;stroke:#000000;stroke-linecap:square;stroke-linejoin:miter;stroke-width:0.8;"/>
   </g>
   <g id="patch_6">
    <path d="M 56.84 24.84 
L 399.984 24.84 
" style="fill:none;stroke:#000000;stroke-linecap:square;stroke-linejoin:miter;stroke-width:0.8;"/>
   </g>
   <g id="text_14">
    <!-- adaptiveH -->
    <defs>
     <path d="M 9.8125 72.90625 
L 19.671875 72.90625 
L 19.671875 43.015625 
L 55.515625 43.015625 
L 55.515625 72.90625 
L 65.375 72.90625 
L 65.375 0 
L 55.515625 0 
L 55.515625 34.71875 
L 19.671875 34.71875 
L 19.671875 0 
L 9.8125 0 
z
" id="DejaVuSans-48"/>
    </defs>
    <g transform="translate(369.543806 293.517868)scale(0.17 -0.17)">
     <use xlink:href="#DejaVuSans-61"/>
     <use x="61.279297" xlink:href="#DejaVuSans-64"/>
     <use x="124.755859" xlink:href="#DejaVuSans-61"/>
     <use x="186.035156" xlink:href="#DejaVuSans-70"/>
     <use x="249.511719" xlink:href="#DejaVuSans-74"/>
     <use x="288.720703" xlink:href="#DejaVuSans-69"/>
     <use x="316.503906" xlink:href="#DejaVuSans-76"/>
     <use x="375.683594" xlink:href="#DejaVuSans-65"/>
     <use x="437.207031" xlink:href="#DejaVuSans-48"/>
    </g>
   </g>
   <g id="text_15">
    <!-- RANDOMSEA -->
    <defs>
     <path d="M 44.390625 34.1875 
Q 47.5625 33.109375 50.5625 29.59375 
Q 53.5625 26.078125 56.59375 19.921875 
L 66.609375 0 
L 56 0 
L 46.6875 18.703125 
Q 43.0625 26.03125 39.671875 28.421875 
Q 36.28125 30.8125 30.421875 30.8125 
L 19.671875 30.8125 
L 19.671875 0 
L 9.8125 0 
L 9.8125 72.90625 
L 32.078125 72.90625 
Q 44.578125 72.90625 50.734375 67.671875 
Q 56.890625 62.453125 56.890625 51.90625 
Q 56.890625 45.015625 53.6875 40.46875 
Q 50.484375 35.9375 44.390625 34.1875 
M 19.671875 64.796875 
L 19.671875 38.921875 
L 32.078125 38.921875 
Q 39.203125 38.921875 42.84375 42.21875 
Q 46.484375 45.515625 46.484375 51.90625 
Q 46.484375 58.296875 42.84375 61.546875 
Q 39.203125 64.796875 32.078125 64.796875 
z
" id="DejaVuSans-52"/>
     <path d="M 34.1875 63.1875 
L 20.796875 26.90625 
L 47.609375 26.90625 
z
M 28.609375 72.90625 
L 39.796875 72.90625 
L 67.578125 0 
L 57.328125 0 
L 50.6875 18.703125 
L 17.828125 18.703125 
L 11.1875 0 
L 0.78125 0 
z
" id="DejaVuSans-41"/>
     <path d="M 9.8125 72.90625 
L 23.09375 72.90625 
L 55.421875 11.921875 
L 55.421875 72.90625 
L 64.984375 72.90625 
L 64.984375 0 
L 51.703125 0 
L 19.390625 60.984375 
L 19.390625 0 
L 9.8125 0 
z
" id="DejaVuSans-4e"/>
     <path d="M 19.671875 64.796875 
L 19.671875 8.109375 
L 31.59375 8.109375 
Q 46.6875 8.109375 53.6875 14.9375 
Q 60.6875 21.78125 60.6875 36.53125 
Q 60.6875 51.171875 53.6875 57.984375 
Q 46.6875 64.796875 31.59375 64.796875 
z
M 9.8125 72.90625 
L 30.078125 72.90625 
Q 51.265625 72.90625 61.171875 64.09375 
Q 71.09375 55.28125 71.09375 36.53125 
Q 71.09375 17.671875 61.125 8.828125 
Q 51.171875 0 30.078125 0 
L 9.8125 0 
z
" id="DejaVuSans-44"/>
     <path d="M 39.40625 66.21875 
Q 28.65625 66.21875 22.328125 58.203125 
Q 16.015625 50.203125 16.015625 36.375 
Q 16.015625 22.609375 22.328125 14.59375 
Q 28.65625 6.59375 39.40625 6.59375 
Q 50.140625 6.59375 56.421875 14.59375 
Q 62.703125 22.609375 62.703125 36.375 
Q 62.703125 50.203125 56.421875 58.203125 
Q 50.140625 66.21875 39.40625 66.21875 
M 39.40625 74.21875 
Q 54.734375 74.21875 63.90625 63.9375 
Q 73.09375 53.65625 73.09375 36.375 
Q 73.09375 19.140625 63.90625 8.859375 
Q 54.734375 -1.421875 39.40625 -1.421875 
Q 24.03125 -1.421875 14.8125 8.828125 
Q 5.609375 19.09375 5.609375 36.375 
Q 5.609375 53.65625 14.8125 63.9375 
Q 24.03125 74.21875 39.40625 74.21875 
" id="DejaVuSans-4f"/>
     <path d="M 9.8125 72.90625 
L 24.515625 72.90625 
L 43.109375 23.296875 
L 61.8125 72.90625 
L 76.515625 72.90625 
L 76.515625 0 
L 66.890625 0 
L 66.890625 64.015625 
L 48.09375 14.015625 
L 38.1875 14.015625 
L 19.390625 64.015625 
L 19.390625 0 
L 9.8125 0 
z
" id="DejaVuSans-4d"/>
     <path d="M 53.515625 70.515625 
L 53.515625 60.890625 
Q 47.90625 63.578125 42.921875 64.890625 
Q 37.9375 66.21875 33.296875 66.21875 
Q 25.25 66.21875 20.875 63.09375 
Q 16.5 59.96875 16.5 54.203125 
Q 16.5 49.359375 19.40625 46.890625 
Q 22.3125 44.4375 30.421875 42.921875 
L 36.375 41.703125 
Q 47.40625 39.59375 52.65625 34.296875 
Q 57.90625 29 57.90625 20.125 
Q 57.90625 9.515625 50.796875 4.046875 
Q 43.703125 -1.421875 29.984375 -1.421875 
Q 24.8125 -1.421875 18.96875 -0.25 
Q 13.140625 0.921875 6.890625 3.21875 
L 6.890625 13.375 
Q 12.890625 10.015625 18.65625 8.296875 
Q 24.421875 6.59375 29.984375 6.59375 
Q 38.421875 6.59375 43.015625 9.90625 
Q 47.609375 13.234375 47.609375 19.390625 
Q 47.609375 24.75 44.3125 27.78125 
Q 41.015625 30.8125 33.5 32.328125 
L 27.484375 33.5 
Q 16.453125 35.6875 11.515625 40.375 
Q 6.59375 45.0625 6.59375 53.421875 
Q 6.59375 63.09375 13.40625 68.65625 
Q 20.21875 74.21875 32.171875 74.21875 
Q 37.3125 74.21875 42.625 73.28125 
Q 47.953125 72.359375 53.515625 70.515625 
" id="DejaVuSans-53"/>
     <path d="M 9.8125 72.90625 
L 55.90625 72.90625 
L 55.90625 64.59375 
L 19.671875 64.59375 
L 19.671875 43.015625 
L 54.390625 43.015625 
L 54.390625 34.71875 
L 19.671875 34.71875 
L 19.671875 8.296875 
L 56.78125 8.296875 
L 56.78125 0 
L 9.8125 0 
z
" id="DejaVuSans-45"/>
    </defs>
    <g transform="translate(369.543806 208.188759)scale(0.17 -0.17)">
     <use xlink:href="#DejaVuSans-52"/>
     <use x="69.419922" xlink:href="#DejaVuSans-41"/>
     <use x="137.828125" xlink:href="#DejaVuSans-4e"/>
     <use x="212.632812" xlink:href="#DejaVuSans-44"/>
     <use x="289.634766" xlink:href="#DejaVuSans-4f"/>
     <use x="368.345703" xlink:href="#DejaVuSans-4d"/>
     <use x="454.625" xlink:href="#DejaVuSans-53"/>
     <use x="518.101562" xlink:href="#DejaVuSans-45"/>
     <use x="581.285156" xlink:href="#DejaVuSans-41"/>
    </g>
   </g>
   <g id="text_16">
    <!-- NSGA-II-M -->
    <defs>
     <path d="M 59.515625 10.40625 
L 59.515625 29.984375 
L 43.40625 29.984375 
L 43.40625 38.09375 
L 69.28125 38.09375 
L 69.28125 6.78125 
Q 63.578125 2.734375 56.6875 0.65625 
Q 49.8125 -1.421875 42 -1.421875 
Q 24.90625 -1.421875 15.25 8.5625 
Q 5.609375 18.5625 5.609375 36.375 
Q 5.609375 54.25 15.25 64.234375 
Q 24.90625 74.21875 42 74.21875 
Q 49.125 74.21875 55.546875 72.453125 
Q 61.96875 70.703125 67.390625 67.28125 
L 67.390625 56.78125 
Q 61.921875 61.421875 55.765625 63.765625 
Q 49.609375 66.109375 42.828125 66.109375 
Q 29.4375 66.109375 22.71875 58.640625 
Q 16.015625 51.171875 16.015625 36.375 
Q 16.015625 21.625 22.71875 14.15625 
Q 29.4375 6.6875 42.828125 6.6875 
Q 48.046875 6.6875 52.140625 7.59375 
Q 56.25 8.5 59.515625 10.40625 
" id="DejaVuSans-47"/>
     <path d="M 9.8125 72.90625 
L 19.671875 72.90625 
L 19.671875 0 
L 9.8125 0 
z
" id="DejaVuSans-49"/>
    </defs>
    <g transform="translate(369.543806 122.85965)scale(0.17 -0.17)">
     <use xlink:href="#DejaVuSans-4e"/>
     <use x="74.804688" xlink:href="#DejaVuSans-53"/>
     <use x="138.28125" xlink:href="#DejaVuSans-47"/>
     <use x="215.771484" xlink:href="#DejaVuSans-41"/>
     <use x="284.148438" xlink:href="#DejaVuSans-2d"/>
     <use x="320.232422" xlink:href="#DejaVuSans-49"/>
     <use x="349.724609" xlink:href="#DejaVuSans-49"/>
     <use x="379.216797" xlink:href="#DejaVuSans-2d"/>
     <use x="415.300781" xlink:href="#DejaVuSans-4d"/>
    </g>
   </g>
   <g id="text_17">
    <!-- best 2016 -->
    <defs>
     <path d="M 48.6875 27.296875 
Q 48.6875 37.203125 44.609375 42.84375 
Q 40.53125 48.484375 33.40625 48.484375 
Q 26.265625 48.484375 22.1875 42.84375 
Q 18.109375 37.203125 18.109375 27.296875 
Q 18.109375 17.390625 22.1875 11.75 
Q 26.265625 6.109375 33.40625 6.109375 
Q 40.53125 6.109375 44.609375 11.75 
Q 48.6875 17.390625 48.6875 27.296875 
M 18.109375 46.390625 
Q 20.953125 51.265625 25.265625 53.625 
Q 29.59375 56 35.59375 56 
Q 45.5625 56 51.78125 48.09375 
Q 58.015625 40.1875 58.015625 27.296875 
Q 58.015625 14.40625 51.78125 6.484375 
Q 45.5625 -1.421875 35.59375 -1.421875 
Q 29.59375 -1.421875 25.265625 0.953125 
Q 20.953125 3.328125 18.109375 8.203125 
L 18.109375 0 
L 9.078125 0 
L 9.078125 75.984375 
L 18.109375 75.984375 
z
" id="DejaVuSans-62"/>
    </defs>
    <g transform="translate(369.543806 37.530541)scale(0.17 -0.17)">
     <use xlink:href="#DejaVuSans-62"/>
     <use x="63.476562" xlink:href="#DejaVuSans-65"/>
     <use x="125" xlink:href="#DejaVuSans-73"/>
     <use x="177.099609" xlink:href="#DejaVuSans-74"/>
     <use x="216.308594" xlink:href="#DejaVuSans-20"/>
     <use x="248.095703" xlink:href="#DejaVuSans-32"/>
     <use x="311.71875" xlink:href="#DejaVuSans-30"/>
     <use x="375.341797" xlink:href="#DejaVuSans-31"/>
     <use x="438.964844" xlink:href="#DejaVuSans-36"/>
    </g>
   </g>
   <g id="text_18">
    <!-- bbob-biobj f17, 3-D -->
    <defs>
     <path d="M 9.421875 54.6875 
L 18.40625 54.6875 
L 18.40625 -0.984375 
Q 18.40625 -11.421875 14.421875 -16.109375 
Q 10.453125 -20.796875 1.609375 -20.796875 
L -1.8125 -20.796875 
L -1.8125 -13.1875 
L 0.59375 -13.1875 
Q 5.71875 -13.1875 7.5625 -10.8125 
Q 9.421875 -8.453125 9.421875 -0.984375 
z
M 9.421875 75.984375 
L 18.40625 75.984375 
L 18.40625 64.59375 
L 9.421875 64.59375 
z
" id="DejaVuSans-6a"/>
     <path d="M 8.203125 72.90625 
L 55.078125 72.90625 
L 55.078125 68.703125 
L 28.609375 0 
L 18.3125 0 
L 43.21875 64.59375 
L 8.203125 64.59375 
z
" id="DejaVuSans-37"/>
     <path d="M 40.578125 39.3125 
Q 47.65625 37.796875 51.625 33 
Q 55.609375 28.21875 55.609375 21.1875 
Q 55.609375 10.40625 48.1875 4.484375 
Q 40.765625 -1.421875 27.09375 -1.421875 
Q 22.515625 -1.421875 17.65625 -0.515625 
Q 12.796875 0.390625 7.625 2.203125 
L 7.625 11.71875 
Q 11.71875 9.328125 16.59375 8.109375 
Q 21.484375 6.890625 26.8125 6.890625 
Q 36.078125 6.890625 40.9375 10.546875 
Q 45.796875 14.203125 45.796875 21.1875 
Q 45.796875 27.640625 41.28125 31.265625 
Q 36.765625 34.90625 28.71875 34.90625 
L 20.21875 34.90625 
L 20.21875 43.015625 
L 29.109375 43.015625 
Q 36.375 43.015625 40.234375 45.921875 
Q 44.09375 48.828125 44.09375 54.296875 
Q 44.09375 59.90625 40.109375 62.90625 
Q 36.140625 65.921875 28.71875 65.921875 
Q 24.65625 65.921875 20.015625 65.03125 
Q 15.375 64.15625 9.8125 62.3125 
L 9.8125 71.09375 
Q 15.4375 72.65625 20.34375 73.4375 
Q 25.25 74.21875 29.59375 74.21875 
Q 40.828125 74.21875 47.359375 69.109375 
Q 53.90625 64.015625 53.90625 55.328125 
Q 53.90625 49.265625 50.4375 45.09375 
Q 46.96875 40.921875 40.578125 39.3125 
" id="DejaVuSans-33"/>
    </defs>
    <g transform="translate(60.27144 35.283606)scale(0.102 -0.102)">
     <use xlink:href="#DejaVuSans-62"/>
     <use x="63.476562" xlink:href="#DejaVuSans-62"/>
     <use x="126.953125" xlink:href="#DejaVuSans-6f"/>
     <use x="188.134766" xlink:href="#DejaVuSans-62"/>
     <use x="251.611328" xlink:href="#DejaVuSans-2d"/>
     <use x="287.695312" xlink:href="#DejaVuSans-62"/>
     <use x="351.171875" xlink:href="#DejaVuSans-69"/>
     <use x="378.955078" xlink:href="#DejaVuSans-6f"/>
     <use x="440.136719" xlink:href="#DejaVuSans-62"/>
     <use x="503.613281" xlink:href="#DejaVuSans-6a"/>
     <use x="531.396484" xlink:href="#DejaVuSans-20"/>
     <use x="563.183594" xlink:href="#DejaVuSans-66"/>
     <use x="598.388672" xlink:href="#DejaVuSans-31"/>
     <use x="662.011719" xlink:href="#DejaVuSans-37"/>
     <use x="725.634766" xlink:href="#DejaVuSans-2c"/>
     <use x="757.421875" xlink:href="#DejaVuSans-20"/>
     <use x="789.208984" xlink:href="#DejaVuSans-33"/>
     <use x="852.832031" xlink:href="#DejaVuSans-2d"/>
     <use x="888.916016" xlink:href="#DejaVuSans-44"/>
    </g>
    <!-- 58 targets: 1..-1.0e-4 -->
    <defs>
     <path d="M 10.796875 72.90625 
L 49.515625 72.90625 
L 49.515625 64.59375 
L 19.828125 64.59375 
L 19.828125 46.734375 
Q 21.96875 47.46875 24.109375 47.828125 
Q 26.265625 48.1875 28.421875 48.1875 
Q 40.625 48.1875 47.75 41.5 
Q 54.890625 34.8125 54.890625 23.390625 
Q 54.890625 11.625 47.5625 5.09375 
Q 40.234375 -1.421875 26.90625 -1.421875 
Q 22.3125 -1.421875 17.546875 -0.640625 
Q 12.796875 0.140625 7.71875 1.703125 
L 7.71875 11.625 
Q 12.109375 9.234375 16.796875 8.0625 
Q 21.484375 6.890625 26.703125 6.890625 
Q 35.15625 6.890625 40.078125 11.328125 
Q 45.015625 15.765625 45.015625 23.390625 
Q 45.015625 31 40.078125 35.4375 
Q 35.15625 39.890625 26.703125 39.890625 
Q 22.75 39.890625 18.8125 39.015625 
Q 14.890625 38.140625 10.796875 36.28125 
z
" id="DejaVuSans-35"/>
     <path d="M 11.71875 12.40625 
L 22.015625 12.40625 
L 22.015625 0 
L 11.71875 0 
z
M 11.71875 51.703125 
L 22.015625 51.703125 
L 22.015625 39.3125 
L 11.71875 39.3125 
z
" id="DejaVuSans-3a"/>
    </defs>
    <g transform="translate(60.27144 46.705375)scale(0.102 -0.102)">
     <use xlink:href="#DejaVuSans-35"/>
     <use x="63.623047" xlink:href="#DejaVuSans-38"/>
     <use x="127.246094" xlink:href="#DejaVuSans-20"/>
     <use x="159.033203" xlink:href="#DejaVuSans-74"/>
     <use x="198.242188" xlink:href="#DejaVuSans-61"/>
     <use x="259.521484" xlink:href="#DejaVuSans-72"/>
     <use x="300.619141" xlink:href="#DejaVuSans-67"/>
     <use x="364.095703" xlink:href="#DejaVuSans-65"/>
     <use x="425.619141" xlink:href="#DejaVuSans-74"/>
     <use x="464.828125" xlink:href="#DejaVuSans-73"/>
     <use x="516.927734" xlink:href="#DejaVuSans-3a"/>
     <use x="550.619141" xlink:href="#DejaVuSans-20"/>
     <use x="582.40625" xlink:href="#DejaVuSans-31"/>
     <use x="646.029297" xlink:href="#DejaVuSans-2e"/>
     <use x="677.816406" xlink:href="#DejaVuSans-2e"/>
     <use x="709.603516" xlink:href="#DejaVuSans-2d"/>
     <use x="745.6875" xlink:href="#DejaVuSans-31"/>
     <use x="809.310547" xlink:href="#DejaVuSans-2e"/>
     <use x="841.097656" xlink:href="#DejaVuSans-30"/>
     <use x="904.720703" xlink:href="#DejaVuSans-65"/>
     <use x="966.244141" xlink:href="#DejaVuSans-2d"/>
     <use x="1002.328125" xlink:href="#DejaVuSans-34"/>
    </g>
    <!-- 10 instances -->
    <g transform="translate(60.27144 58.127144)scale(0.102 -0.102)">
     <use xlink:href="#DejaVuSans-31"/>
     <use x="63.623047" xlink:href="#DejaVuSans-30"/>
     <use x="127.246094" xlink:href="#DejaVuSans-20"/>
     <use x="159.033203" xlink:href="#DejaVuSans-69"/>
     <use x="186.816406" xlink:href="#DejaVuSans-6e"/>
     <use x="250.195312" xlink:href="#DejaVuSans-73"/>
     <use x="302.294922" xlink:href="#DejaVuSans-74"/>
     <use x="341.503906" xlink:href="#DejaVuSans-61"/>
     <use x="402.783203" xlink:href="#DejaVuSans-6e"/>
     <use x="466.162109" xlink:href="#DejaVuSans-63"/>
     <use x="521.142578" xlink:href="#DejaVuSans-65"/>
     <use x="582.666016" xlink:href="#DejaVuSans-73"/>
    </g>
   </g>
   <g id="text_19">
    <!-- v2.2.1.10, hv-hash=ff0e71e8cd978373 -->
    <defs>
     <path d="M 54.890625 33.015625 
L 54.890625 0 
L 45.90625 0 
L 45.90625 32.71875 
Q 45.90625 40.484375 42.875 44.328125 
Q 39.84375 48.1875 33.796875 48.1875 
Q 26.515625 48.1875 22.3125 43.546875 
Q 18.109375 38.921875 18.109375 30.90625 
L 18.109375 0 
L 9.078125 0 
L 9.078125 75.984375 
L 18.109375 75.984375 
L 18.109375 46.1875 
Q 21.34375 51.125 25.703125 53.5625 
Q 30.078125 56 35.796875 56 
Q 45.21875 56 50.046875 50.171875 
Q 54.890625 44.34375 54.890625 33.015625 
" id="DejaVuSans-68"/>
     <path d="M 10.59375 45.40625 
L 73.1875 45.40625 
L 73.1875 37.203125 
L 10.59375 37.203125 
z
M 10.59375 25.484375 
L 73.1875 25.484375 
L 73.1875 17.1875 
L 10.59375 17.1875 
z
" id="DejaVuSans-3d"/>
     <path d="M 10.984375 1.515625 
L 10.984375 10.5 
Q 14.703125 8.734375 18.5 7.8125 
Q 22.3125 6.890625 25.984375 6.890625 
Q 35.75 6.890625 40.890625 13.453125 
Q 46.046875 20.015625 46.78125 33.40625 
Q 43.953125 29.203125 39.59375 26.953125 
Q 35.25 24.703125 29.984375 24.703125 
Q 19.046875 24.703125 12.671875 31.3125 
Q 6.296875 37.9375 6.296875 49.421875 
Q 6.296875 60.640625 12.9375 67.421875 
Q 19.578125 74.21875 30.609375 74.21875 
Q 43.265625 74.21875 49.921875 64.515625 
Q 56.59375 54.828125 56.59375 36.375 
Q 56.59375 19.140625 48.40625 8.859375 
Q 40.234375 -1.421875 26.421875 -1.421875 
Q 22.703125 -1.421875 18.890625 -0.6875 
Q 15.09375 0.046875 10.984375 1.515625 
M 30.609375 32.421875 
Q 37.25 32.421875 41.125 36.953125 
Q 45.015625 41.5 45.015625 49.421875 
Q 45.015625 57.28125 41.125 61.84375 
Q 37.25 66.40625 30.609375 66.40625 
Q 23.96875 66.40625 20.09375 61.84375 
Q 16.21875 57.28125 16.21875 49.421875 
Q 16.21875 41.5 20.09375 36.953125 
Q 23.96875 32.421875 30.609375 32.421875 
" id="DejaVuSans-39"/>
    </defs>
    <g style="fill:#808080;" transform="translate(130.065125 289.387113)scale(0.1 -0.1)">
     <use xlink:href="#DejaVuSans-76"/>
     <use x="59.179688" xlink:href="#DejaVuSans-32"/>
     <use x="122.802734" xlink:href="#DejaVuSans-2e"/>
     <use x="154.589844" xlink:href="#DejaVuSans-32"/>
     <use x="218.212891" xlink:href="#DejaVuSans-2e"/>
     <use x="250" xlink:href="#DejaVuSans-31"/>
     <use x="313.623047" xlink:href="#DejaVuSans-2e"/>
     <use x="345.410156" xlink:href="#DejaVuSans-31"/>
     <use x="409.033203" xlink:href="#DejaVuSans-30"/>
     <use x="472.65625" xlink:href="#DejaVuSans-2c"/>
     <use x="504.443359" xlink:href="#DejaVuSans-20"/>
     <use x="536.230469" xlink:href="#DejaVuSans-68"/>
     <use x="599.609375" xlink:href="#DejaVuSans-76"/>
     <use x="658.757812" xlink:href="#DejaVuSans-2d"/>
     <use x="694.841797" xlink:href="#DejaVuSans-68"/>
     <use x="758.220703" xlink:href="#DejaVuSans-61"/>
     <use x="819.5" xlink:href="#DejaVuSans-73"/>
     <use x="871.599609" xlink:href="#DejaVuSans-68"/>
     <use x="934.978516" xlink:href="#DejaVuSans-3d"/>
     <use x="1018.767578" xlink:href="#DejaVuSans-66"/>
     <use x="1053.972656" xlink:href="#DejaVuSans-66"/>
     <use x="1089.177734" xlink:href="#DejaVuSans-30"/>
     <use x="1152.800781" xlink:href="#DejaVuSans-65"/>
     <use x="1214.324219" xlink:href="#DejaVuSans-37"/>
     <use x="1277.947266" xlink:href="#DejaVuSans-31"/>
     <use x="1341.570312" xlink:href="#DejaVuSans-65"/>
     <use x="1403.09375" xlink:href="#DejaVuSans-38"/>
     <use x="1466.716797" xlink:href="#DejaVuSans-63"/>
     <use x="1521.697266" xlink:href="#DejaVuSans-64"/>
     <use x="1585.173828" xlink:href="#DejaVuSans-39"/>
     <use x="1648.796875" xlink:href="#DejaVuSans-37"/>
     <use x="1712.419922" xlink:href="#DejaVuSans-38"/>
     <use x="1776.042969" xlink:href="#DejaVuSans-33"/>
     <use x="1839.666016" xlink:href="#DejaVuSans-37"/>
     <use x="1903.289062" xlink:href="#DejaVuSans-33"/>
    </g>
   </g>
   <g id="text_20">
    <!-- 17 sep. Ellipsoid/Schaffer F7 -->
    <g transform="translate(86.707313 18.84)scale(0.2 -0.2)">
     <use xlink:href="#DejaVuSans-31"/>
     <use x="63.623047" xlink:href="#DejaVuSans-37"/>
     <use x="127.246094" xlink:href="#DejaVuSans-20"/>
     <use x="159.033203" xlink:href="#DejaVuSans-73"/>
     <use x="211.132812" xlink:href="#DejaVuSans-65"/>
     <use x="272.65625" xlink:href="#DejaVuSans-70"/>
     <use x="336.132812" xlink:href="#DejaVuSans-2e"/>
     <use x="367.919922" xlink:href="#DejaVuSans-20"/>
     <use x="399.707031" xlink:href="#DejaVuSans-45"/>
     <use x="462.890625" xlink:href="#DejaVuSans-6c"/>
     <use x="490.673828" xlink:href="#DejaVuSans-6c"/>
     <use x="518.457031" xlink:href="#DejaVuSans-69"/>
     <use x="546.240234" xlink:href="#DejaVuSans-70"/>
     <use x="609.716797" xlink:href="#DejaVuSans-73"/>
     <use x="661.816406" xlink:href="#DejaVuSans-6f"/>
     <use x="722.998047" xlink:href="#DejaVuSans-69"/>
     <use x="750.78125" xlink:href="#DejaVuSans-64"/>
     <use x="814.257812" xlink:href="#DejaVuSans-2f"/>
     <use x="847.949219" xlink:href="#DejaVuSans-53"/>
     <use x="911.425781" xlink:href="#DejaVuSans-63"/>
     <use x="966.40625" xlink:href="#DejaVuSans-68"/>
     <use x="1029.785156" xlink:href="#DejaVuSans-61"/>
     <use x="1091.064453" xlink:href="#DejaVuSans-66"/>
     <use x="1126.269531" xlink:href="#DejaVuSans-66"/>
     <use x="1161.474609" xlink:href="#DejaVuSans-65"/>
     <use x="1222.998047" xlink:href="#DejaVuSans-72"/>
     <use x="1264.111328" xlink:href="#DejaVuSans-20"/>
     <use x="1295.898438" xlink:href="#DejaVuSans-46"/>
     <use x="1353.417969" xlink:href="#DejaVuSans-37"/>
    </g>
   </g>
  </g>
 </g>
 <defs>
  <clipPath id="p34b1155278">
   <rect height="269.32" width="343.144" x="56.84" y="24.84"/>
  </clipPath>
 </defs>
</svg>
