<?xml version="1.0" encoding="utf-8" standalone="no"?>
<!DOCTYPE svg PUBLIC "-//W3C//DTD SVG 1.1//EN"
  "http://www.w3.org/Graphics/SVG/1.1/DTD/svg11.dtd">
<!-- Created with matplotlib (http://matplotlib.org/) -->
<svg height="345pt" version="1.1" viewBox="0 0 460 345" width="460pt" xmlns="http://www.w3.org/2000/svg" xmlns:xlink="http://www.w3.org/1999/xlink">
 <defs>
  <style type="text/css">
*{stroke-linecap:butt;stroke-linejoin:round;}
  </style>
 </defs>
 <g id="figure_1">
  <g id="patch_1">
   <path d="M 0 345.6 
L 460.8 345.6 
L 460.8 0 
L 0 0 
z
" style="fill:#ffffff;"/>
  </g>
  <g id="axes_1">
   <g id="patch_2">
    <path d="M 56.84 294.16 
L 399.984 294.16 
L 399.984 24.84 
L 56.84 24.84 
z
" style="fill:#ffffff;"/>
   </g>
   <g id="line2d_1">
    <path d="M 63.801366 294.16 
L 63.801366 289.562526 
L 68.740534 289.562526 
L 68.740534 280.367579 
L 75.7019 280.367579 
L 75.7019 271.172632 
L 84.472185 271.172632 
L 84.472185 266.575159 
L 96.372719 266.575159 
L 96.372719 252.782738 
L 103.334085 252.782738 
L 103.334085 243.587791 
L 110.295451 243.587791 
L 110.295451 238.990318 
L 114.652569 238.990318 
L 114.652569 229.79537 
L 119.293141 229.79537 
L 119.293141 216.00295 
L 124.842574 216.00295 
L 124.842574 206.808003 
L 135.905438 206.808003 
L 135.905438 197.613056 
L 141.121357 197.613056 
L 141.121357 188.418109 
L 145.708495 188.418109 
L 145.708495 183.820635 
L 150.280008 183.820635 
L 150.280008 170.028214 
L 156.273141 170.028214 
L 156.273141 165.430741 
L 164.177948 165.430741 
L 164.177948 151.63832 
L 172.79872 151.63832 
L 172.79872 142.443373 
L 181.288419 142.443373 
L 181.288419 137.8459 
L 194.130395 137.8459 
L 194.130395 124.053479 
L 203.849046 124.053479 
L 203.849046 119.456005 
L 211.450266 119.456005 
L 211.450266 105.663585 
L 218.78344 105.663585 
L 218.78344 96.468638 
L 226.727015 96.468638 
L 226.727015 87.273691 
L 234.366361 87.273691 
L 234.366361 82.676217 
L 241.873555 82.676217 
L 241.873555 73.48127 
L 249.698619 73.48127 
L 249.698619 59.688849 
L 333.569032 59.688849 
" style="fill:none;stroke:#f5deb3;stroke-linecap:square;stroke-width:6;"/>
   </g>
   <g id="line2d_2">
    <defs>
     <path d="M -0 7.778175 
L 7.778175 0 
L 0 -7.778175 
L -7.778175 -0 
z
" id="md45300fd9e" style="stroke:#f5deb3;stroke-linejoin:miter;stroke-width:1.5;"/>
    </defs>
    <g>
     <use style="fill:#f5deb3;stroke:#f5deb3;stroke-linejoin:miter;stroke-width:1.5;" x="103.334085" xlink:href="#md45300fd9e" y="252.782738"/>
     <use style="fill:#f5deb3;stroke:#f5deb3;stroke-linejoin:miter;stroke-width:1.5;" x="150.280008" xlink:href="#md45300fd9e" y="183.820635"/>
     <use style="fill:#f5deb3;stroke:#f5deb3;stroke-linejoin:miter;stroke-width:1.5;" x="218.78344" xlink:href="#md45300fd9e" y="96.468638"/>
     <use style="fill:#f5deb3;stroke:#f5deb3;stroke-linejoin:miter;stroke-width:1.5;" x="249.698619" xlink:href="#md45300fd9e" y="59.688849"/>
     <use style="fill:#f5deb3;stroke:#f5deb3;stroke-linejoin:miter;stroke-width:1.5;" x="333.569032" xlink:href="#md45300fd9e" y="59.688849"/>
    </g>
   </g>
   <g id="line2d_3">
    <path style="fill:none;stroke:#f5deb3;stroke-linecap:square;stroke-width:6;"/>
    <g/>
   </g>
   <g id="line2d_4">
    <path d="M 333.569032 59.688849 
L 364.009226 32.839604 
" style="fill:none;stroke:#f5deb3;stroke-linecap:square;stroke-width:6;"/>
    <g>
     <use style="fill:#f5deb3;stroke:#f5deb3;stroke-linejoin:miter;stroke-width:1.5;" x="333.569032" xlink:href="#md45300fd9e" y="59.688849"/>
     <use style="fill:#f5deb3;stroke:#f5deb3;stroke-linejoin:miter;stroke-width:1.5;" x="364.009226" xlink:href="#md45300fd9e" y="32.839604"/>
    </g>
   </g>
   <g id="matplotlib.axis_1">
    <g id="xtick_1">
     <g id="line2d_5">
      <path clip-path="url(#pf569731a16)" d="M 56.84 294.16 
L 56.84 24.84 
" style="fill:none;stroke:#b0b0b0;stroke-linecap:square;stroke-width:0.8;"/>
     </g>
     <g id="line2d_6">
      <defs>
       <path d="M 0 0 
L 0 3.5 
" id="m2873ab98f5" style="stroke:#000000;stroke-width:0.8;"/>
      </defs>
      <g>
       <use style="stroke:#000000;stroke-width:0.8;" x="56.84" xlink:href="#m2873ab98f5" y="294.16"/>
      </g>
     </g>
     <g id="text_1">
      <!-- 0 -->
      <defs>
       <path d="M 31.78125 66.40625 
Q 24.171875 66.40625 20.328125 58.90625 
Q 16.5 51.421875 16.5 36.375 
Q 16.5 21.390625 20.328125 13.890625 
Q 24.171875 6.390625 31.78125 6.390625 
Q 39.453125 6.390625 43.28125 13.890625 
Q 47.125 21.390625 47.125 36.375 
Q 47.125 51.421875 43.28125 58.90625 
Q 39.453125 66.40625 31.78125 66.40625 
M 31.78125 74.21875 
Q 44.046875 74.21875 50.515625 64.515625 
Q 56.984375 54.828125 56.984375 36.375 
Q 56.984375 17.96875 50.515625 8.265625 
Q 44.046875 -1.421875 31.78125 -1.421875 
Q 19.53125 -1.421875 13.0625 8.265625 
Q 6.59375 17.96875 6.59375 36.375 
Q 6.59375 54.828125 13.0625 64.515625 
Q 19.53125 74.21875 31.78125 74.21875 
" id="DejaVuSans-30"/>
      </defs>
      <g transform="translate(50.4775 316.356875)scale(0.2 -0.2)">
       <use xlink:href="#DejaVuSans-30"/>
      </g>
     </g>
    </g>
    <g id="xtick_2">
     <g id="line2d_7">
      <path clip-path="url(#pf569731a16)" d="M 135.905438 294.16 
L 135.905438 24.84 
" style="fill:none;stroke:#b0b0b0;stroke-linecap:square;stroke-width:0.8;"/>
     </g>
     <g id="line2d_8">
      <g>
       <use style="stroke:#000000;stroke-width:0.8;" x="135.905438" xlink:href="#m2873ab98f5" y="294.16"/>
      </g>
     </g>
     <g id="text_2">
      <!-- 2 -->
      <defs>
       <path d="M 19.1875 8.296875 
L 53.609375 8.296875 
L 53.609375 0 
L 7.328125 0 
L 7.328125 8.296875 
Q 12.9375 14.109375 22.625 23.890625 
Q 32.328125 33.6875 34.8125 36.53125 
Q 39.546875 41.84375 41.421875 45.53125 
Q 43.3125 49.21875 43.3125 52.78125 
Q 43.3125 58.59375 39.234375 62.25 
Q 35.15625 65.921875 28.609375 65.921875 
Q 23.96875 65.921875 18.8125 64.3125 
Q 13.671875 62.703125 7.8125 59.421875 
L 7.8125 69.390625 
Q 13.765625 71.78125 18.9375 73 
Q 24.125 74.21875 28.421875 74.21875 
Q 39.75 74.21875 46.484375 68.546875 
Q 53.21875 62.890625 53.21875 53.421875 
Q 53.21875 48.921875 51.53125 44.890625 
Q 49.859375 40.875 45.40625 35.40625 
Q 44.1875 33.984375 37.640625 27.21875 
Q 31.109375 20.453125 19.1875 8.296875 
" id="DejaVuSans-32"/>
      </defs>
      <g transform="translate(129.542938 316.356875)scale(0.2 -0.2)">
       <use xlink:href="#DejaVuSans-32"/>
      </g>
     </g>
    </g>
    <g id="xtick_3">
     <g id="line2d_9">
      <path clip-path="url(#pf569731a16)" d="M 214.970876 294.16 
L 214.970876 24.84 
" style="fill:none;stroke:#b0b0b0;stroke-linecap:square;stroke-width:0.8;"/>
     </g>
     <g id="line2d_10">
      <g>
       <use style="stroke:#000000;stroke-width:0.8;" x="214.970876" xlink:href="#m2873ab98f5" y="294.16"/>
      </g>
     </g>
     <g id="text_3">
      <!-- 4 -->
      <defs>
       <path d="M 37.796875 64.3125 
L 12.890625 25.390625 
L 37.796875 25.390625 
z
M 35.203125 72.90625 
L 47.609375 72.90625 
L 47.609375 25.390625 
L 58.015625 25.390625 
L 58.015625 17.1875 
L 47.609375 17.1875 
L 47.609375 0 
L 37.796875 0 
L 37.796875 17.1875 
L 4.890625 17.1875 
L 4.890625 26.703125 
z
" id="DejaVuSans-34"/>
      </defs>
      <g transform="translate(208.608376 316.356875)scale(0.2 -0.2)">
       <use xlink:href="#DejaVuSans-34"/>
      </g>
     </g>
    </g>
    <g id="xtick_4">
     <g id="line2d_11">
      <path clip-path="url(#pf569731a16)" d="M 294.036313 294.16 
L 294.036313 24.84 
" style="fill:none;stroke:#b0b0b0;stroke-linecap:square;stroke-width:0.8;"/>
     </g>
     <g id="line2d_12">
      <g>
       <use style="stroke:#000000;stroke-width:0.8;" x="294.036313" xlink:href="#m2873ab98f5" y="294.16"/>
      </g>
     </g>
     <g id="text_4">
      <!-- 6 -->
      <defs>
       <path d="M 33.015625 40.375 
Q 26.375 40.375 22.484375 35.828125 
Q 18.609375 31.296875 18.609375 23.390625 
Q 18.609375 15.53125 22.484375 10.953125 
Q 26.375 6.390625 33.015625 6.390625 
Q 39.65625 6.390625 43.53125 10.953125 
Q 47.40625 15.53125 47.40625 23.390625 
Q 47.40625 31.296875 43.53125 35.828125 
Q 39.65625 40.375 33.015625 40.375 
M 52.59375 71.296875 
L 52.59375 62.3125 
Q 48.875 64.0625 45.09375 64.984375 
Q 41.3125 65.921875 37.59375 65.921875 
Q 27.828125 65.921875 22.671875 59.328125 
Q 17.53125 52.734375 16.796875 39.40625 
Q 19.671875 43.65625 24.015625 45.921875 
Q 28.375 48.1875 33.59375 48.1875 
Q 44.578125 48.1875 50.953125 41.515625 
Q 57.328125 34.859375 57.328125 23.390625 
Q 57.328125 12.15625 50.6875 5.359375 
Q 44.046875 -1.421875 33.015625 -1.421875 
Q 20.359375 -1.421875 13.671875 8.265625 
Q 6.984375 17.96875 6.984375 36.375 
Q 6.984375 53.65625 15.1875 63.9375 
Q 23.390625 74.21875 37.203125 74.21875 
Q 40.921875 74.21875 44.703125 73.484375 
Q 48.484375 72.75 52.59375 71.296875 
" id="DejaVuSans-36"/>
      </defs>
      <g transform="translate(287.673813 316.356875)scale(0.2 -0.2)">
       <use xlink:href="#DejaVuSans-36"/>
      </g>
     </g>
    </g>
    <g id="xtick_5">
     <g id="line2d_13">
      <path clip-path="url(#pf569731a16)" d="M 373.101751 294.16 
L 373.101751 24.84 
" style="fill:none;stroke:#b0b0b0;stroke-linecap:square;stroke-width:0.8;"/>
     </g>
     <g id="line2d_14">
      <g>
       <use style="stroke:#000000;stroke-width:0.8;" x="373.101751" xlink:href="#m2873ab98f5" y="294.16"/>
      </g>
     </g>
     <g id="text_5">
      <!-- 8 -->
      <defs>
       <path d="M 31.78125 34.625 
Q 24.75 34.625 20.71875 30.859375 
Q 16.703125 27.09375 16.703125 20.515625 
Q 16.703125 13.921875 20.71875 10.15625 
Q 24.75 6.390625 31.78125 6.390625 
Q 38.8125 6.390625 42.859375 10.171875 
Q 46.921875 13.96875 46.921875 20.515625 
Q 46.921875 27.09375 42.890625 30.859375 
Q 38.875 34.625 31.78125 34.625 
M 21.921875 38.8125 
Q 15.578125 40.375 12.03125 44.71875 
Q 8.5 49.078125 8.5 55.328125 
Q 8.5 64.0625 14.71875 69.140625 
Q 20.953125 74.21875 31.78125 74.21875 
Q 42.671875 74.21875 48.875 69.140625 
Q 55.078125 64.0625 55.078125 55.328125 
Q 55.078125 49.078125 51.53125 44.71875 
Q 48 40.375 41.703125 38.8125 
Q 48.828125 37.15625 52.796875 32.3125 
Q 56.78125 27.484375 56.78125 20.515625 
Q 56.78125 9.90625 50.3125 4.234375 
Q 43.84375 -1.421875 31.78125 -1.421875 
Q 19.734375 -1.421875 13.25 4.234375 
Q 6.78125 9.90625 6.78125 20.515625 
Q 6.78125 27.484375 10.78125 32.3125 
Q 14.796875 37.15625 21.921875 38.8125 
M 18.3125 54.390625 
Q 18.3125 48.734375 21.84375 45.5625 
Q 25.390625 42.390625 31.78125 42.390625 
Q 38.140625 42.390625 41.71875 45.5625 
Q 45.3125 48.734375 45.3125 54.390625 
Q 45.3125 60.0625 41.71875 63.234375 
Q 38.140625 66.40625 31.78125 66.40625 
Q 25.390625 66.40625 21.84375 63.234375 
Q 18.3125 60.0625 18.3125 54.390625 
" id="DejaVuSans-38"/>
      </defs>
      <g transform="translate(366.739251 316.356875)scale(0.2 -0.2)">
       <use xlink:href="#DejaVuSans-38"/>
      </g>
     </g>
    </g>
    <g id="xtick_6">
     <g id="line2d_15">
      <defs>
       <path d="M 0 0 
L 0 2 
" id="m2bfaf93c3a" style="stroke:#000000;stroke-width:0.6;"/>
      </defs>
      <g>
       <use style="stroke:#000000;stroke-width:0.6;" x="68.740534" xlink:href="#m2bfaf93c3a" y="294.16"/>
      </g>
     </g>
    </g>
    <g id="xtick_7">
     <g id="line2d_16">
      <g>
       <use style="stroke:#000000;stroke-width:0.6;" x="80.641068" xlink:href="#m2bfaf93c3a" y="294.16"/>
      </g>
     </g>
    </g>
    <g id="xtick_8">
     <g id="line2d_17">
      <g>
       <use style="stroke:#000000;stroke-width:0.6;" x="87.602435" xlink:href="#m2bfaf93c3a" y="294.16"/>
      </g>
     </g>
    </g>
    <g id="xtick_9">
     <g id="line2d_18">
      <g>
       <use style="stroke:#000000;stroke-width:0.6;" x="92.541603" xlink:href="#m2bfaf93c3a" y="294.16"/>
      </g>
     </g>
    </g>
    <g id="xtick_10">
     <g id="line2d_19">
      <g>
       <use style="stroke:#000000;stroke-width:0.6;" x="147.805972" xlink:href="#m2bfaf93c3a" y="294.16"/>
      </g>
     </g>
    </g>
    <g id="xtick_11">
     <g id="line2d_20">
      <g>
       <use style="stroke:#000000;stroke-width:0.6;" x="159.706506" xlink:href="#m2bfaf93c3a" y="294.16"/>
      </g>
     </g>
    </g>
    <g id="xtick_12">
     <g id="line2d_21">
      <g>
       <use style="stroke:#000000;stroke-width:0.6;" x="166.667872" xlink:href="#m2bfaf93c3a" y="294.16"/>
      </g>
     </g>
    </g>
    <g id="xtick_13">
     <g id="line2d_22">
      <g>
       <use style="stroke:#000000;stroke-width:0.6;" x="171.60704" xlink:href="#m2bfaf93c3a" y="294.16"/>
      </g>
     </g>
    </g>
    <g id="xtick_14">
     <g id="line2d_23">
      <g>
       <use style="stroke:#000000;stroke-width:0.6;" x="226.87141" xlink:href="#m2bfaf93c3a" y="294.16"/>
      </g>
     </g>
    </g>
    <g id="xtick_15">
     <g id="line2d_24">
      <g>
       <use style="stroke:#000000;stroke-width:0.6;" x="238.771944" xlink:href="#m2bfaf93c3a" y="294.16"/>
      </g>
     </g>
    </g>
    <g id="xtick_16">
     <g id="line2d_25">
      <g>
       <use style="stroke:#000000;stroke-width:0.6;" x="245.73331" xlink:href="#m2bfaf93c3a" y="294.16"/>
      </g>
     </g>
    </g>
    <g id="xtick_17">
     <g id="line2d_26">
      <g>
       <use style="stroke:#000000;stroke-width:0.6;" x="250.672478" xlink:href="#m2bfaf93c3a" y="294.16"/>
      </g>
     </g>
    </g>
    <g id="xtick_18">
     <g id="line2d_27">
      <g>
       <use style="stroke:#000000;stroke-width:0.6;" x="305.936848" xlink:href="#m2bfaf93c3a" y="294.16"/>
      </g>
     </g>
    </g>
    <g id="xtick_19">
     <g id="line2d_28">
      <g>
       <use style="stroke:#000000;stroke-width:0.6;" x="317.837382" xlink:href="#m2bfaf93c3a" y="294.16"/>
      </g>
     </g>
    </g>
    <g id="xtick_20">
     <g id="line2d_29">
      <g>
       <use style="stroke:#000000;stroke-width:0.6;" x="324.798748" xlink:href="#m2bfaf93c3a" y="294.16"/>
      </g>
     </g>
    </g>
    <g id="xtick_21">
     <g id="line2d_30">
      <g>
       <use style="stroke:#000000;stroke-width:0.6;" x="329.737916" xlink:href="#m2bfaf93c3a" y="294.16"/>
      </g>
     </g>
    </g>
    <g id="xtick_22">
     <g id="line2d_31">
      <g>
       <use style="stroke:#000000;stroke-width:0.6;" x="385.002285" xlink:href="#m2bfaf93c3a" y="294.16"/>
      </g>
     </g>
    </g>
    <g id="xtick_23">
     <g id="line2d_32">
      <g>
       <use style="stroke:#000000;stroke-width:0.6;" x="396.90282" xlink:href="#m2bfaf93c3a" y="294.16"/>
      </g>
     </g>
    </g>
    <g id="text_6">
     <!-- log10(# f-evals / dimension) -->
     <defs>
      <path d="M 9.421875 75.984375 
L 18.40625 75.984375 
L 18.40625 0 
L 9.421875 0 
z
" id="DejaVuSans-6c"/>
      <path d="M 30.609375 48.390625 
Q 23.390625 48.390625 19.1875 42.75 
Q 14.984375 37.109375 14.984375 27.296875 
Q 14.984375 17.484375 19.15625 11.84375 
Q 23.34375 6.203125 30.609375 6.203125 
Q 37.796875 6.203125 41.984375 11.859375 
Q 46.1875 17.53125 46.1875 27.296875 
Q 46.1875 37.015625 41.984375 42.703125 
Q 37.796875 48.390625 30.609375 48.390625 
M 30.609375 56 
Q 42.328125 56 49.015625 48.375 
Q 55.71875 40.765625 55.71875 27.296875 
Q 55.71875 13.875 49.015625 6.21875 
Q 42.328125 -1.421875 30.609375 -1.421875 
Q 18.84375 -1.421875 12.171875 6.21875 
Q 5.515625 13.875 5.515625 27.296875 
Q 5.515625 40.765625 12.171875 48.375 
Q 18.84375 56 30.609375 56 
" id="DejaVuSans-6f"/>
      <path d="M 45.40625 27.984375 
Q 45.40625 37.75 41.375 43.109375 
Q 37.359375 48.484375 30.078125 48.484375 
Q 22.859375 48.484375 18.828125 43.109375 
Q 14.796875 37.75 14.796875 27.984375 
Q 14.796875 18.265625 18.828125 12.890625 
Q 22.859375 7.515625 30.078125 7.515625 
Q 37.359375 7.515625 41.375 12.890625 
Q 45.40625 18.265625 45.40625 27.984375 
M 54.390625 6.78125 
Q 54.390625 -7.171875 48.1875 -13.984375 
Q 42 -20.796875 29.203125 -20.796875 
Q 24.46875 -20.796875 20.265625 -20.09375 
Q 16.0625 -19.390625 12.109375 -17.921875 
L 12.109375 -9.1875 
Q 16.0625 -11.328125 19.921875 -12.34375 
Q 23.78125 -13.375 27.78125 -13.375 
Q 36.625 -13.375 41.015625 -8.765625 
Q 45.40625 -4.15625 45.40625 5.171875 
L 45.40625 9.625 
Q 42.625 4.78125 38.28125 2.390625 
Q 33.9375 0 27.875 0 
Q 17.828125 0 11.671875 7.65625 
Q 5.515625 15.328125 5.515625 27.984375 
Q 5.515625 40.671875 11.671875 48.328125 
Q 17.828125 56 27.875 56 
Q 33.9375 56 38.28125 53.609375 
Q 42.625 51.21875 45.40625 46.390625 
L 45.40625 54.6875 
L 54.390625 54.6875 
z
" id="DejaVuSans-67"/>
      <path d="M 12.40625 8.296875 
L 28.515625 8.296875 
L 28.515625 63.921875 
L 10.984375 60.40625 
L 10.984375 69.390625 
L 28.421875 72.90625 
L 38.28125 72.90625 
L 38.28125 8.296875 
L 54.390625 8.296875 
L 54.390625 0 
L 12.40625 0 
z
" id="DejaVuSans-31"/>
      <path d="M 31 75.875 
Q 24.46875 64.65625 21.28125 53.65625 
Q 18.109375 42.671875 18.109375 31.390625 
Q 18.109375 20.125 21.3125 9.0625 
Q 24.515625 -2 31 -13.1875 
L 23.1875 -13.1875 
Q 15.875 -1.703125 12.234375 9.375 
Q 8.59375 20.453125 8.59375 31.390625 
Q 8.59375 42.28125 12.203125 53.3125 
Q 15.828125 64.359375 23.1875 75.875 
z
" id="DejaVuSans-28"/>
      <path d="M 51.125 44 
L 36.921875 44 
L 32.8125 27.6875 
L 47.125 27.6875 
z
M 43.796875 71.78125 
L 38.71875 51.515625 
L 52.984375 51.515625 
L 58.109375 71.78125 
L 65.921875 71.78125 
L 60.890625 51.515625 
L 76.125 51.515625 
L 76.125 44 
L 58.984375 44 
L 54.984375 27.6875 
L 70.515625 27.6875 
L 70.515625 20.21875 
L 53.078125 20.21875 
L 48 0 
L 40.1875 0 
L 45.21875 20.21875 
L 30.90625 20.21875 
L 25.875 0 
L 18.015625 0 
L 23.09375 20.21875 
L 7.71875 20.21875 
L 7.71875 27.6875 
L 24.90625 27.6875 
L 29 44 
L 13.28125 44 
L 13.28125 51.515625 
L 30.90625 51.515625 
L 35.890625 71.78125 
z
" id="DejaVuSans-23"/>
      <path id="DejaVuSans-20"/>
      <path d="M 37.109375 75.984375 
L 37.109375 68.5 
L 28.515625 68.5 
Q 23.6875 68.5 21.796875 66.546875 
Q 19.921875 64.59375 19.921875 59.515625 
L 19.921875 54.6875 
L 34.71875 54.6875 
L 34.71875 47.703125 
L 19.921875 47.703125 
L 19.921875 0 
L 10.890625 0 
L 10.890625 47.703125 
L 2.296875 47.703125 
L 2.296875 54.6875 
L 10.890625 54.6875 
L 10.890625 58.5 
Q 10.890625 67.625 15.140625 71.796875 
Q 19.390625 75.984375 28.609375 75.984375 
z
" id="DejaVuSans-66"/>
      <path d="M 4.890625 31.390625 
L 31.203125 31.390625 
L 31.203125 23.390625 
L 4.890625 23.390625 
z
" id="DejaVuSans-2d"/>
      <path d="M 56.203125 29.59375 
L 56.203125 25.203125 
L 14.890625 25.203125 
Q 15.484375 15.921875 20.484375 11.0625 
Q 25.484375 6.203125 34.421875 6.203125 
Q 39.59375 6.203125 44.453125 7.46875 
Q 49.3125 8.734375 54.109375 11.28125 
L 54.109375 2.78125 
Q 49.265625 0.734375 44.1875 -0.34375 
Q 39.109375 -1.421875 33.890625 -1.421875 
Q 20.796875 -1.421875 13.15625 6.1875 
Q 5.515625 13.8125 5.515625 26.8125 
Q 5.515625 40.234375 12.765625 48.109375 
Q 20.015625 56 32.328125 56 
Q 43.359375 56 49.78125 48.890625 
Q 56.203125 41.796875 56.203125 29.59375 
M 47.21875 32.234375 
Q 47.125 39.59375 43.09375 43.984375 
Q 39.0625 48.390625 32.421875 48.390625 
Q 24.90625 48.390625 20.390625 44.140625 
Q 15.875 39.890625 15.1875 32.171875 
z
" id="DejaVuSans-65"/>
      <path d="M 2.984375 54.6875 
L 12.5 54.6875 
L 29.59375 8.796875 
L 46.6875 54.6875 
L 56.203125 54.6875 
L 35.6875 0 
L 23.484375 0 
z
" id="DejaVuSans-76"/>
      <path d="M 34.28125 27.484375 
Q 23.390625 27.484375 19.1875 25 
Q 14.984375 22.515625 14.984375 16.5 
Q 14.984375 11.71875 18.140625 8.90625 
Q 21.296875 6.109375 26.703125 6.109375 
Q 34.1875 6.109375 38.703125 11.40625 
Q 43.21875 16.703125 43.21875 25.484375 
L 43.21875 27.484375 
z
M 52.203125 31.203125 
L 52.203125 0 
L 43.21875 0 
L 43.21875 8.296875 
Q 40.140625 3.328125 35.546875 0.953125 
Q 30.953125 -1.421875 24.3125 -1.421875 
Q 15.921875 -1.421875 10.953125 3.296875 
Q 6 8.015625 6 15.921875 
Q 6 25.140625 12.171875 29.828125 
Q 18.359375 34.515625 30.609375 34.515625 
L 43.21875 34.515625 
L 43.21875 35.40625 
Q 43.21875 41.609375 39.140625 45 
Q 35.0625 48.390625 27.6875 48.390625 
Q 23 48.390625 18.546875 47.265625 
Q 14.109375 46.140625 10.015625 43.890625 
L 10.015625 52.203125 
Q 14.9375 54.109375 19.578125 55.046875 
Q 24.21875 56 28.609375 56 
Q 40.484375 56 46.34375 49.84375 
Q 52.203125 43.703125 52.203125 31.203125 
" id="DejaVuSans-61"/>
      <path d="M 44.28125 53.078125 
L 44.28125 44.578125 
Q 40.484375 46.53125 36.375 47.5 
Q 32.28125 48.484375 27.875 48.484375 
Q 21.1875 48.484375 17.84375 46.4375 
Q 14.5 44.390625 14.5 40.28125 
Q 14.5 37.15625 16.890625 35.375 
Q 19.28125 33.59375 26.515625 31.984375 
L 29.59375 31.296875 
Q 39.15625 29.25 43.1875 25.515625 
Q 47.21875 21.78125 47.21875 15.09375 
Q 47.21875 7.46875 41.1875 3.015625 
Q 35.15625 -1.421875 24.609375 -1.421875 
Q 20.21875 -1.421875 15.453125 -0.5625 
Q 10.6875 0.296875 5.421875 2 
L 5.421875 11.28125 
Q 10.40625 8.6875 15.234375 7.390625 
Q 20.0625 6.109375 24.8125 6.109375 
Q 31.15625 6.109375 34.5625 8.28125 
Q 37.984375 10.453125 37.984375 14.40625 
Q 37.984375 18.0625 35.515625 20.015625 
Q 33.0625 21.96875 24.703125 23.78125 
L 21.578125 24.515625 
Q 13.234375 26.265625 9.515625 29.90625 
Q 5.8125 33.546875 5.8125 39.890625 
Q 5.8125 47.609375 11.28125 51.796875 
Q 16.75 56 26.8125 56 
Q 31.78125 56 36.171875 55.265625 
Q 40.578125 54.546875 44.28125 53.078125 
" id="DejaVuSans-73"/>
      <path d="M 25.390625 72.90625 
L 33.6875 72.90625 
L 8.296875 -9.28125 
L 0 -9.28125 
z
" id="DejaVuSans-2f"/>
      <path d="M 45.40625 46.390625 
L 45.40625 75.984375 
L 54.390625 75.984375 
L 54.390625 0 
L 45.40625 0 
L 45.40625 8.203125 
Q 42.578125 3.328125 38.25 0.953125 
Q 33.9375 -1.421875 27.875 -1.421875 
Q 17.96875 -1.421875 11.734375 6.484375 
Q 5.515625 14.40625 5.515625 27.296875 
Q 5.515625 40.1875 11.734375 48.09375 
Q 17.96875 56 27.875 56 
Q 33.9375 56 38.25 53.625 
Q 42.578125 51.265625 45.40625 46.390625 
M 14.796875 27.296875 
Q 14.796875 17.390625 18.875 11.75 
Q 22.953125 6.109375 30.078125 6.109375 
Q 37.203125 6.109375 41.296875 11.75 
Q 45.40625 17.390625 45.40625 27.296875 
Q 45.40625 37.203125 41.296875 42.84375 
Q 37.203125 48.484375 30.078125 48.484375 
Q 22.953125 48.484375 18.875 42.84375 
Q 14.796875 37.203125 14.796875 27.296875 
" id="DejaVuSans-64"/>
      <path d="M 9.421875 54.6875 
L 18.40625 54.6875 
L 18.40625 0 
L 9.421875 0 
z
M 9.421875 75.984375 
L 18.40625 75.984375 
L 18.40625 64.59375 
L 9.421875 64.59375 
z
" id="DejaVuSans-69"/>
      <path d="M 52 44.1875 
Q 55.375 50.25 60.0625 53.125 
Q 64.75 56 71.09375 56 
Q 79.640625 56 84.28125 50.015625 
Q 88.921875 44.046875 88.921875 33.015625 
L 88.921875 0 
L 79.890625 0 
L 79.890625 32.71875 
Q 79.890625 40.578125 77.09375 44.375 
Q 74.3125 48.1875 68.609375 48.1875 
Q 61.625 48.1875 57.5625 43.546875 
Q 53.515625 38.921875 53.515625 30.90625 
L 53.515625 0 
L 44.484375 0 
L 44.484375 32.71875 
Q 44.484375 40.625 41.703125 44.40625 
Q 38.921875 48.1875 33.109375 48.1875 
Q 26.21875 48.1875 22.15625 43.53125 
Q 18.109375 38.875 18.109375 30.90625 
L 18.109375 0 
L 9.078125 0 
L 9.078125 54.6875 
L 18.109375 54.6875 
L 18.109375 46.1875 
Q 21.1875 51.21875 25.484375 53.609375 
Q 29.78125 56 35.6875 56 
Q 41.65625 56 45.828125 52.96875 
Q 50 49.953125 52 44.1875 
" id="DejaVuSans-6d"/>
      <path d="M 54.890625 33.015625 
L 54.890625 0 
L 45.90625 0 
L 45.90625 32.71875 
Q 45.90625 40.484375 42.875 44.328125 
Q 39.84375 48.1875 33.796875 48.1875 
Q 26.515625 48.1875 22.3125 43.546875 
Q 18.109375 38.921875 18.109375 30.90625 
L 18.109375 0 
L 9.078125 0 
L 9.078125 54.6875 
L 18.109375 54.6875 
L 18.109375 46.1875 
Q 21.34375 51.125 25.703125 53.5625 
Q 30.078125 56 35.796875 56 
Q 45.21875 56 50.046875 50.171875 
Q 54.890625 44.34375 54.890625 33.015625 
" id="DejaVuSans-6e"/>
      <path d="M 8.015625 75.875 
L 15.828125 75.875 
Q 23.140625 64.359375 26.78125 53.3125 
Q 30.421875 42.28125 30.421875 31.390625 
Q 30.421875 20.453125 26.78125 9.375 
Q 23.140625 -1.703125 15.828125 -13.1875 
L 8.015625 -13.1875 
Q 14.5 -2 17.703125 9.0625 
Q 20.90625 20.125 20.90625 31.390625 
Q 20.90625 42.671875 17.703125 53.65625 
Q 14.5 64.65625 8.015625 75.875 
" id="DejaVuSans-29"/>
     </defs>
     <g transform="translate(107.571219 337.433594)scale(0.17 -0.17)">
      <use xlink:href="#DejaVuSans-6c"/>
      <use x="27.783203" xlink:href="#DejaVuSans-6f"/>
      <use x="88.964844" xlink:href="#DejaVuSans-67"/>
      <use x="152.441406" xlink:href="#DejaVuSans-31"/>
      <use x="216.064453" xlink:href="#DejaVuSans-30"/>
      <use x="279.6875" xlink:href="#DejaVuSans-28"/>
      <use x="318.701172" xlink:href="#DejaVuSans-23"/>
      <use x="402.490234" xlink:href="#DejaVuSans-20"/>
      <use x="434.277344" xlink:href="#DejaVuSans-66"/>
      <use x="469.404297" xlink:href="#DejaVuSans-2d"/>
      <use x="505.488281" xlink:href="#DejaVuSans-65"/>
      <use x="567.011719" xlink:href="#DejaVuSans-76"/>
      <use x="626.191406" xlink:href="#DejaVuSans-61"/>
      <use x="687.470703" xlink:href="#DejaVuSans-6c"/>
      <use x="715.253906" xlink:href="#DejaVuSans-73"/>
      <use x="767.353516" xlink:href="#DejaVuSans-20"/>
      <use x="799.140625" xlink:href="#DejaVuSans-2f"/>
      <use x="832.832031" xlink:href="#DejaVuSans-20"/>
      <use x="864.619141" xlink:href="#DejaVuSans-64"/>
      <use x="928.095703" xlink:href="#DejaVuSans-69"/>
      <use x="955.878906" xlink:href="#DejaVuSans-6d"/>
      <use x="1053.291016" xlink:href="#DejaVuSans-65"/>
      <use x="1114.814453" xlink:href="#DejaVuSans-6e"/>
      <use x="1178.193359" xlink:href="#DejaVuSans-73"/>
      <use x="1230.292969" xlink:href="#DejaVuSans-69"/>
      <use x="1258.076172" xlink:href="#DejaVuSans-6f"/>
      <use x="1319.257812" xlink:href="#DejaVuSans-6e"/>
      <use x="1382.636719" xlink:href="#DejaVuSans-29"/>
     </g>
    </g>
   </g>
   <g id="matplotlib.axis_2">
    <g id="ytick_1">
     <g id="line2d_33">
      <path clip-path="url(#pf569731a16)" d="M 56.84 294.16 
L 399.984 294.16 
" style="fill:none;stroke:#b0b0b0;stroke-linecap:square;stroke-width:0.8;"/>
     </g>
     <g id="line2d_34">
      <defs>
       <path d="M 0 0 
L -3.5 0 
" id="m2049ef6019" style="stroke:#000000;stroke-width:0.8;"/>
      </defs>
      <g>
       <use style="stroke:#000000;stroke-width:0.8;" x="56.84" xlink:href="#m2049ef6019" y="294.16"/>
      </g>
     </g>
     <g id="text_7">
      <!-- 0.0 -->
      <defs>
       <path d="M 10.6875 12.40625 
L 21 12.40625 
L 21 0 
L 10.6875 0 
z
" id="DejaVuSans-2e"/>
      </defs>
      <g transform="translate(24.395 300.23875)scale(0.16 -0.16)">
       <use xlink:href="#DejaVuSans-30"/>
       <use x="63.623047" xlink:href="#DejaVuSans-2e"/>
       <use x="95.410156" xlink:href="#DejaVuSans-30"/>
      </g>
     </g>
    </g>
    <g id="ytick_2">
     <g id="line2d_35">
      <path clip-path="url(#pf569731a16)" d="M 56.84 240.829307 
L 399.984 240.829307 
" style="fill:none;stroke:#b0b0b0;stroke-linecap:square;stroke-width:0.8;"/>
     </g>
     <g id="line2d_36">
      <g>
       <use style="stroke:#000000;stroke-width:0.8;" x="56.84" xlink:href="#m2049ef6019" y="240.829307"/>
      </g>
     </g>
     <g id="text_8">
      <!-- 0.2 -->
      <g transform="translate(24.395 246.908057)scale(0.16 -0.16)">
       <use xlink:href="#DejaVuSans-30"/>
       <use x="63.623047" xlink:href="#DejaVuSans-2e"/>
       <use x="95.410156" xlink:href="#DejaVuSans-32"/>
      </g>
     </g>
    </g>
    <g id="ytick_3">
     <g id="line2d_37">
      <path clip-path="url(#pf569731a16)" d="M 56.84 187.498614 
L 399.984 187.498614 
" style="fill:none;stroke:#b0b0b0;stroke-linecap:square;stroke-width:0.8;"/>
     </g>
     <g id="line2d_38">
      <g>
       <use style="stroke:#000000;stroke-width:0.8;" x="56.84" xlink:href="#m2049ef6019" y="187.498614"/>
      </g>
     </g>
     <g id="text_9">
      <!-- 0.4 -->
      <g transform="translate(24.395 193.577364)scale(0.16 -0.16)">
       <use xlink:href="#DejaVuSans-30"/>
       <use x="63.623047" xlink:href="#DejaVuSans-2e"/>
       <use x="95.410156" xlink:href="#DejaVuSans-34"/>
      </g>
     </g>
    </g>
    <g id="ytick_4">
     <g id="line2d_39">
      <path clip-path="url(#pf569731a16)" d="M 56.84 134.167921 
L 399.984 134.167921 
" style="fill:none;stroke:#b0b0b0;stroke-linecap:square;stroke-width:0.8;"/>
     </g>
     <g id="line2d_40">
      <g>
       <use style="stroke:#000000;stroke-width:0.8;" x="56.84" xlink:href="#m2049ef6019" y="134.167921"/>
      </g>
     </g>
     <g id="text_10">
      <!-- 0.6 -->
      <g transform="translate(24.395 140.246671)scale(0.16 -0.16)">
       <use xlink:href="#DejaVuSans-30"/>
       <use x="63.623047" xlink:href="#DejaVuSans-2e"/>
       <use x="95.410156" xlink:href="#DejaVuSans-36"/>
      </g>
     </g>
    </g>
    <g id="ytick_5">
     <g id="line2d_41">
      <path clip-path="url(#pf569731a16)" d="M 56.84 80.837228 
L 399.984 80.837228 
" style="fill:none;stroke:#b0b0b0;stroke-linecap:square;stroke-width:0.8;"/>
     </g>
     <g id="line2d_42">
      <g>
       <use style="stroke:#000000;stroke-width:0.8;" x="56.84" xlink:href="#m2049ef6019" y="80.837228"/>
      </g>
     </g>
     <g id="text_11">
      <!-- 0.8 -->
      <g transform="translate(24.395 86.915978)scale(0.16 -0.16)">
       <use xlink:href="#DejaVuSans-30"/>
       <use x="63.623047" xlink:href="#DejaVuSans-2e"/>
       <use x="95.410156" xlink:href="#DejaVuSans-38"/>
      </g>
     </g>
    </g>
    <g id="ytick_6">
     <g id="line2d_43">
      <path clip-path="url(#pf569731a16)" d="M 56.84 27.506535 
L 399.984 27.506535 
" style="fill:none;stroke:#b0b0b0;stroke-linecap:square;stroke-width:0.8;"/>
     </g>
     <g id="line2d_44">
      <g>
       <use style="stroke:#000000;stroke-width:0.8;" x="56.84" xlink:href="#m2049ef6019" y="27.506535"/>
      </g>
     </g>
     <g id="text_12">
      <!-- 1.0 -->
      <g transform="translate(24.395 33.585285)scale(0.16 -0.16)">
       <use xlink:href="#DejaVuSans-31"/>
       <use x="63.623047" xlink:href="#DejaVuSans-2e"/>
       <use x="95.410156" xlink:href="#DejaVuSans-30"/>
      </g>
     </g>
    </g>
    <g id="text_13">
     <!-- Fraction of function,target pairs -->
     <defs>
      <path d="M 9.8125 72.90625 
L 51.703125 72.90625 
L 51.703125 64.59375 
L 19.671875 64.59375 
L 19.671875 43.109375 
L 48.578125 43.109375 
L 48.578125 34.8125 
L 19.671875 34.8125 
L 19.671875 0 
L 9.8125 0 
z
" id="DejaVuSans-46"/>
      <path d="M 41.109375 46.296875 
Q 39.59375 47.171875 37.8125 47.578125 
Q 36.03125 48 33.890625 48 
Q 26.265625 48 22.1875 43.046875 
Q 18.109375 38.09375 18.109375 28.8125 
L 18.109375 0 
L 9.078125 0 
L 9.078125 54.6875 
L 18.109375 54.6875 
L 18.109375 46.1875 
Q 20.953125 51.171875 25.484375 53.578125 
Q 30.03125 56 36.53125 56 
Q 37.453125 56 38.578125 55.875 
Q 39.703125 55.765625 41.0625 55.515625 
z
" id="DejaVuSans-72"/>
      <path d="M 48.78125 52.59375 
L 48.78125 44.1875 
Q 44.96875 46.296875 41.140625 47.34375 
Q 37.3125 48.390625 33.40625 48.390625 
Q 24.65625 48.390625 19.8125 42.84375 
Q 14.984375 37.3125 14.984375 27.296875 
Q 14.984375 17.28125 19.8125 11.734375 
Q 24.65625 6.203125 33.40625 6.203125 
Q 37.3125 6.203125 41.140625 7.25 
Q 44.96875 8.296875 48.78125 10.40625 
L 48.78125 2.09375 
Q 45.015625 0.34375 40.984375 -0.53125 
Q 36.96875 -1.421875 32.421875 -1.421875 
Q 20.0625 -1.421875 12.78125 6.34375 
Q 5.515625 14.109375 5.515625 27.296875 
Q 5.515625 40.671875 12.859375 48.328125 
Q 20.21875 56 33.015625 56 
Q 37.15625 56 41.109375 55.140625 
Q 45.0625 54.296875 48.78125 52.59375 
" id="DejaVuSans-63"/>
      <path d="M 18.3125 70.21875 
L 18.3125 54.6875 
L 36.8125 54.6875 
L 36.8125 47.703125 
L 18.3125 47.703125 
L 18.3125 18.015625 
Q 18.3125 11.328125 20.140625 9.421875 
Q 21.96875 7.515625 27.59375 7.515625 
L 36.8125 7.515625 
L 36.8125 0 
L 27.59375 0 
Q 17.1875 0 13.234375 3.875 
Q 9.28125 7.765625 9.28125 18.015625 
L 9.28125 47.703125 
L 2.6875 47.703125 
L 2.6875 54.6875 
L 9.28125 54.6875 
L 9.28125 70.21875 
z
" id="DejaVuSans-74"/>
      <path d="M 8.5 21.578125 
L 8.5 54.6875 
L 17.484375 54.6875 
L 17.484375 21.921875 
Q 17.484375 14.15625 20.5 10.265625 
Q 23.53125 6.390625 29.59375 6.390625 
Q 36.859375 6.390625 41.078125 11.03125 
Q 45.3125 15.671875 45.3125 23.6875 
L 45.3125 54.6875 
L 54.296875 54.6875 
L 54.296875 0 
L 45.3125 0 
L 45.3125 8.40625 
Q 42.046875 3.421875 37.71875 1 
Q 33.40625 -1.421875 27.6875 -1.421875 
Q 18.265625 -1.421875 13.375 4.4375 
Q 8.5 10.296875 8.5 21.578125 
M 31.109375 56 
z
" id="DejaVuSans-75"/>
      <path d="M 11.71875 12.40625 
L 22.015625 12.40625 
L 22.015625 4 
L 14.015625 -11.625 
L 7.71875 -11.625 
L 11.71875 4 
z
" id="DejaVuSans-2c"/>
      <path d="M 18.109375 8.203125 
L 18.109375 -20.796875 
L 9.078125 -20.796875 
L 9.078125 54.6875 
L 18.109375 54.6875 
L 18.109375 46.390625 
Q 20.953125 51.265625 25.265625 53.625 
Q 29.59375 56 35.59375 56 
Q 45.5625 56 51.78125 48.09375 
Q 58.015625 40.1875 58.015625 27.296875 
Q 58.015625 14.40625 51.78125 6.484375 
Q 45.5625 -1.421875 35.59375 -1.421875 
Q 29.59375 -1.421875 25.265625 0.953125 
Q 20.953125 3.328125 18.109375 8.203125 
M 48.6875 27.296875 
Q 48.6875 37.203125 44.609375 42.84375 
Q 40.53125 48.484375 33.40625 48.484375 
Q 26.265625 48.484375 22.1875 42.84375 
Q 18.109375 37.203125 18.109375 27.296875 
Q 18.109375 17.390625 22.1875 11.75 
Q 26.265625 6.109375 33.40625 6.109375 
Q 40.53125 6.109375 44.609375 11.75 
Q 48.6875 17.390625 48.6875 27.296875 
" id="DejaVuSans-70"/>
     </defs>
     <g transform="translate(16.859531 294.639375)rotate(-90)scale(0.17 -0.17)">
      <use xlink:href="#DejaVuSans-46"/>
      <use x="57.410156" xlink:href="#DejaVuSans-72"/>
      <use x="98.523438" xlink:href="#DejaVuSans-61"/>
      <use x="159.802734" xlink:href="#DejaVuSans-63"/>
      <use x="214.783203" xlink:href="#DejaVuSans-74"/>
      <use x="253.992188" xlink:href="#DejaVuSans-69"/>
      <use x="281.775391" xlink:href="#DejaVuSans-6f"/>
      <use x="342.957031" xlink:href="#DejaVuSans-6e"/>
      <use x="406.335938" xlink:href="#DejaVuSans-20"/>
      <use x="438.123047" xlink:href="#DejaVuSans-6f"/>
      <use x="499.304688" xlink:href="#DejaVuSans-66"/>
      <use x="534.509766" xlink:href="#DejaVuSans-20"/>
      <use x="566.296875" xlink:href="#DejaVuSans-66"/>
      <use x="601.501953" xlink:href="#DejaVuSans-75"/>
      <use x="664.880859" xlink:href="#DejaVuSans-6e"/>
      <use x="728.259766" xlink:href="#DejaVuSans-63"/>
      <use x="783.240234" xlink:href="#DejaVuSans-74"/>
      <use x="822.449219" xlink:href="#DejaVuSans-69"/>
      <use x="850.232422" xlink:href="#DejaVuSans-6f"/>
      <use x="911.414062" xlink:href="#DejaVuSans-6e"/>
      <use x="974.792969" xlink:href="#DejaVuSans-2c"/>
      <use x="1006.580078" xlink:href="#DejaVuSans-74"/>
      <use x="1045.789062" xlink:href="#DejaVuSans-61"/>
      <use x="1107.068359" xlink:href="#DejaVuSans-72"/>
      <use x="1148.166016" xlink:href="#DejaVuSans-67"/>
      <use x="1211.642578" xlink:href="#DejaVuSans-65"/>
      <use x="1273.166016" xlink:href="#DejaVuSans-74"/>
      <use x="1312.375" xlink:href="#DejaVuSans-20"/>
      <use x="1344.162109" xlink:href="#DejaVuSans-70"/>
      <use x="1407.638672" xlink:href="#DejaVuSans-61"/>
      <use x="1468.917969" xlink:href="#DejaVuSans-69"/>
      <use x="1496.701172" xlink:href="#DejaVuSans-72"/>
      <use x="1537.814453" xlink:href="#DejaVuSans-73"/>
     </g>
    </g>
   </g>
   <g id="line2d_45">
    <defs>
     <path d="M 0 1.5 
C 0.397805 1.5 0.77937 1.341951 1.06066 1.06066 
C 1.341951 0.77937 1.5 0.397805 1.5 0 
C 1.5 -0.397805 1.341951 -0.77937 1.06066 -1.06066 
C 0.77937 -1.341951 0.397805 -1.5 0 -1.5 
C -0.397805 -1.5 -0.77937 -1.341951 -1.06066 -1.06066 
C -1.341951 -0.77937 -1.5 -0.397805 -1.5 0 
C -1.5 0.397805 -1.341951 0.77937 -1.06066 1.06066 
C -0.77937 1.341951 -0.397805 1.5 0 1.5 
z
" id="m7f95d40275" style="stroke:#f5deb3;"/>
    </defs>
    <g>
     <use style="fill:#f5deb3;stroke:#f5deb3;" x="249.698619" xlink:href="#m7f95d40275" y="59.688849"/>
     <use style="fill:#f5deb3;stroke:#f5deb3;" x="249.698619" xlink:href="#m7f95d40275" y="59.688849"/>
    </g>
   </g>
   <g id="line2d_46">
    <defs>
     <path d="M 0 1.5 
C 0.397805 1.5 0.77937 1.341951 1.06066 1.06066 
C 1.341951 0.77937 1.5 0.397805 1.5 0 
C 1.5 -0.397805 1.341951 -0.77937 1.06066 -1.06066 
C 0.77937 -1.341951 0.397805 -1.5 0 -1.5 
C -0.397805 -1.5 -0.77937 -1.341951 -1.06066 -1.06066 
C -1.341951 -0.77937 -1.5 -0.397805 -1.5 0 
C -1.5 0.397805 -1.341951 0.77937 -1.06066 1.06066 
C -0.77937 1.341951 -0.397805 1.5 0 1.5 
z
" id="m7b7d0e6219" style="stroke:#000080;"/>
    </defs>
    <g>
     <use style="fill:#000080;stroke:#000080;" x="283.772909" xlink:href="#m7b7d0e6219" y="59.688849"/>
     <use style="fill:#000080;stroke:#000080;" x="283.772909" xlink:href="#m7b7d0e6219" y="59.688849"/>
    </g>
   </g>
   <g id="line2d_47">
    <path d="M 44.939466 294.16 
L 44.939466 282.666316 
L 72.57165 282.666316 
L 72.57165 280.827327 
L 75.7019 280.827327 
L 75.7019 278.068843 
L 97.210389 278.068843 
L 97.210389 277.149348 
L 100.203835 277.149348 
L 100.203835 275.310358 
L 105.482991 275.310358 
L 105.482991 273.471369 
L 107.838576 273.471369 
L 107.838576 273.011622 
L 108.273253 273.011622 
L 108.273253 269.79339 
L 110.295451 269.79339 
L 110.295451 267.954401 
L 120.173787 267.954401 
L 120.173787 267.494653 
L 120.805841 267.494653 
L 120.805841 267.034906 
L 122.573338 267.034906 
L 122.573338 266.575159 
L 127.972824 266.575159 
L 127.972824 266.115411 
L 132.074321 266.115411 
L 132.074321 265.655664 
L 134.09652 265.655664 
L 134.09652 264.736169 
L 136.076273 264.736169 
L 136.076273 263.816675 
L 136.412928 263.816675 
L 136.49607 262.437433 
L 136.986642 262.437433 
L 136.986642 258.759454 
L 137.1471 258.759454 
L 137.1471 258.299706 
L 137.306072 258.299706 
L 137.385009 254.16198 
L 137.541803 254.16198 
L 137.541803 253.242485 
L 138.453637 253.242485 
L 138.453637 251.863243 
L 138.747129 251.863243 
L 138.747129 250.024254 
L 143.150593 250.024254 
L 143.150593 249.104759 
L 143.318642 249.104759 
L 143.318642 248.185265 
L 143.485062 248.185265 
L 143.595119 246.346275 
L 143.649884 246.346275 
L 143.649884 243.128044 
L 144.081827 243.128044 
L 144.081827 242.208549 
L 144.293791 242.208549 
L 144.346375 239.450065 
L 144.606909 239.450065 
L 144.606909 238.53057 
L 145.166536 238.53057 
L 145.216518 237.151328 
L 145.316047 237.151328 
L 145.316047 236.691581 
L 145.708495 236.691581 
L 145.708495 235.312339 
L 145.853381 235.312339 
L 145.853381 234.852591 
L 146.044679 234.852591 
L 146.044679 234.392844 
L 146.233869 234.392844 
L 146.280843 233.013602 
L 146.789244 233.013602 
L 146.789244 232.553855 
L 146.970447 232.553855 
L 146.970447 231.174612 
L 147.976808 231.174612 
L 147.976808 230.255118 
L 148.438025 230.255118 
L 148.479346 227.496634 
L 148.643643 227.496634 
L 148.643643 226.117392 
L 148.887176 226.117392 
L 148.887176 224.73815 
L 149.167001 224.73815 
L 149.167001 222.89916 
L 149.285543 222.89916 
L 149.285543 221.519918 
L 149.559 221.519918 
L 149.559 220.140676 
L 149.674876 220.140676 
L 149.713328 216.922445 
L 149.980108 216.922445 
L 149.980108 216.00295 
L 150.61125 216.00295 
L 150.683999 210.945729 
L 150.756442 210.945729 
L 150.756442 210.485982 
L 151.705627 210.485982 
L 151.705627 210.026234 
L 151.875785 210.026234 
L 151.875785 209.566487 
L 152.077774 209.566487 
L 152.077774 208.646992 
L 152.244301 208.646992 
L 152.310463 205.888508 
L 152.572587 205.888508 
L 152.572587 203.130024 
L 153.053539 203.130024 
L 153.053539 202.210529 
L 153.304641 202.210529 
L 153.397866 200.37154 
L 153.521383 200.37154 
L 153.552124 198.53255 
L 154.507855 198.53255 
L 154.507855 198.072803 
L 154.881417 198.072803 
L 154.881417 197.153308 
L 155.07925 197.153308 
L 155.07925 195.314319 
L 155.330302 195.314319 
L 155.330302 193.935077 
L 155.495653 193.935077 
L 155.495653 193.015582 
L 155.713673 193.015582 
L 155.713673 191.63634 
L 156.115145 191.63634 
L 156.141579 190.716845 
L 156.584839 190.716845 
L 156.584839 189.797351 
L 157.266131 189.797351 
L 157.266131 187.498614 
L 157.560461 187.498614 
L 157.560461 185.659624 
L 157.753915 185.659624 
L 157.753915 185.199877 
L 158.228223 185.199877 
L 158.228223 183.820635 
L 158.367997 183.820635 
L 158.414337 182.441393 
L 158.506642 182.441393 
L 158.506642 181.981646 
L 159.072575 181.981646 
L 159.072575 181.521898 
L 159.490543 181.521898 
L 159.533954 180.602404 
L 160.172274 180.602404 
L 160.172274 179.682909 
L 160.359232 179.682909 
L 160.421102 178.303667 
L 160.544177 178.303667 
L 160.585006 176.924425 
L 160.948168 176.924425 
L 160.948168 176.464677 
L 161.22541 176.464677 
L 161.22541 175.545183 
L 161.478902 175.545183 
L 161.478902 175.085435 
L 161.95611 175.085435 
L 161.95611 173.706193 
L 162.383726 173.706193 
L 162.383726 173.246446 
L 162.872487 173.246446 
L 162.872487 172.326951 
L 163.067691 172.326951 
L 163.067691 171.867204 
L 163.606161 171.867204 
L 163.606161 170.028214 
L 163.776319 170.028214 
L 163.86077 166.809983 
L 164.667122 166.809983 
L 164.667122 166.350236 
L 165.080083 166.350236 
L 165.173988 164.970994 
L 165.666318 164.970994 
L 165.666318 164.051499 
L 166.321015 164.051499 
L 166.350189 162.212509 
L 166.610547 162.212509 
L 166.610547 161.293015 
L 166.838708 161.293015 
L 166.838708 160.37352 
L 168.068506 160.37352 
L 168.068506 158.994278 
L 168.239081 158.994278 
L 168.239081 157.615036 
L 168.753542 157.615036 
L 168.753542 156.235794 
L 169.07986 156.235794 
L 169.07986 155.776046 
L 169.810041 155.776046 
L 169.810041 155.316299 
L 170.280128 155.316299 
L 170.280128 154.396804 
L 170.544711 154.396804 
L 170.544711 153.937057 
L 171.017588 153.937057 
L 171.017588 153.47731 
L 171.314844 153.47731 
L 171.314844 153.017562 
L 172.04145 153.017562 
L 172.04145 151.63832 
L 172.61757 151.63832 
L 172.61757 151.178573 
L 172.808728 151.178573 
L 172.808728 149.799331 
L 173.950514 149.799331 
L 173.950514 149.339583 
L 174.182969 149.339583 
L 174.182969 148.420089 
L 175.498143 148.420089 
L 175.498143 147.960341 
L 175.794969 147.960341 
L 175.794969 147.040847 
L 176.04537 147.040847 
L 176.04537 146.121352 
L 178.395854 146.121352 
L 178.395854 145.661605 
L 178.654037 145.661605 
L 178.654037 145.201857 
L 179.48764 145.201857 
L 179.48764 144.74211 
L 180.211274 144.74211 
L 180.211274 144.282363 
L 181.680763 144.282363 
L 181.680763 143.362868 
L 182.278918 143.362868 
L 182.278918 142.903121 
L 182.979093 142.903121 
L 182.979093 142.443373 
L 183.910568 142.443373 
L 183.910568 141.523878 
L 184.082649 141.523878 
L 184.170628 140.144636 
L 184.273559 140.144636 
L 184.273559 139.684889 
L 185.065722 139.684889 
L 185.065722 139.225142 
L 185.216947 139.225142 
L 185.216947 138.765394 
L 186.476107 138.765394 
L 186.557156 136.466658 
L 186.678017 136.466658 
L 186.678017 136.00691 
L 188.241642 136.00691 
L 188.241642 134.627668 
L 191.193827 134.627668 
L 191.193827 134.167921 
L 192.398688 134.167921 
L 192.398688 132.788679 
L 192.83736 132.788679 
L 192.83736 131.869184 
L 194.144838 131.869184 
L 194.144838 130.949689 
L 195.884317 130.949689 
L 195.884317 130.489942 
L 196.684672 130.489942 
L 196.684672 130.030195 
L 197.190179 130.030195 
L 197.190179 129.570447 
L 197.532538 129.570447 
L 197.532538 129.1107 
L 197.914631 129.1107 
L 197.914631 128.650953 
L 198.356319 128.650953 
L 198.356319 127.731458 
L 200.129955 127.731458 
L 200.129955 126.811963 
L 200.908726 126.811963 
L 200.908726 126.352216 
L 201.301437 126.352216 
L 201.328062 123.593732 
L 202.319326 123.593732 
L 202.319326 123.133984 
L 203.354693 123.133984 
L 203.354693 121.754742 
L 203.641057 121.754742 
L 203.641057 120.3755 
L 204.564083 120.3755 
L 204.564083 118.996258 
L 205.389083 118.996258 
L 205.389083 118.076763 
L 206.028039 118.076763 
L 206.028039 116.697521 
L 206.239178 116.697521 
L 206.239178 115.778027 
L 206.600789 115.778027 
L 206.663574 113.939037 
L 207.515298 113.939037 
L 207.515298 113.019543 
L 208.384809 113.019543 
L 208.384809 112.100048 
L 208.674627 112.100048 
L 208.674627 111.6403 
L 209.139009 111.6403 
L 209.139009 111.180553 
L 209.870713 111.180553 
L 209.870713 110.720806 
L 210.163969 110.720806 
L 210.163969 110.261058 
L 211.160135 110.261058 
L 211.160135 109.341564 
L 212.355449 109.341564 
L 212.355449 108.881816 
L 213.085482 108.881816 
L 213.115156 107.042827 
L 213.465437 107.042827 
L 213.465437 106.58308 
L 215.183308 106.58308 
L 215.183308 106.123332 
L 216.166159 106.123332 
L 216.251622 105.203837 
L 216.542345 105.203837 
L 216.542345 104.74409 
L 217.324831 104.74409 
L 217.324831 103.824595 
L 217.767403 103.824595 
L 217.767403 103.364848 
L 219.344784 103.364848 
L 219.344784 102.445353 
L 219.587258 102.445353 
L 219.587258 101.525859 
L 219.826356 101.525859 
L 219.826356 101.066111 
L 220.392721 101.066111 
L 220.460818 99.686869 
L 220.575781 99.686869 
L 220.629579 98.307627 
L 222.28569 98.307627 
L 222.28569 97.388132 
L 222.833021 97.388132 
L 222.908879 95.549143 
L 223.681653 95.549143 
L 223.681653 94.169901 
L 223.854443 94.169901 
L 223.854443 93.710154 
L 224.653719 93.710154 
L 224.653719 93.250406 
L 225.359879 93.250406 
L 225.359879 92.790659 
L 228.137809 92.790659 
L 228.209028 91.411417 
L 228.471839 91.411417 
L 228.471839 90.491922 
L 231.497958 90.491922 
L 231.497958 89.11268 
L 233.334589 89.11268 
L 233.334589 88.193185 
L 235.846833 88.193185 
L 235.846833 87.273691 
L 236.042675 87.273691 
L 236.042675 86.354196 
L 236.366662 86.354196 
L 236.366662 84.974954 
L 240.487921 84.974954 
L 240.487921 84.515207 
L 240.71115 84.515207 
L 240.71115 84.055459 
L 241.193688 84.055459 
L 241.193688 83.595712 
L 241.653601 83.595712 
L 241.653601 81.756722 
L 241.910419 81.756722 
L 241.910419 80.37748 
L 242.515793 80.37748 
L 242.515793 79.457986 
L 243.646662 79.457986 
L 243.646662 77.618996 
L 244.26438 77.618996 
L 244.26438 76.239754 
L 244.607852 76.239754 
L 244.607852 75.780007 
L 245.566682 75.780007 
L 245.566682 75.320259 
L 245.856767 75.320259 
L 245.856767 74.860512 
L 248.073913 74.860512 
L 248.073913 73.48127 
L 248.507576 73.48127 
L 248.507576 73.021523 
L 250.398281 73.021523 
L 250.398281 72.561775 
L 253.370527 72.561775 
L 253.370527 71.642281 
L 255.644343 71.642281 
L 255.644343 71.182533 
L 256.269098 71.182533 
L 256.269098 70.263039 
L 257.031653 70.263039 
L 257.031653 69.803291 
L 257.291731 69.803291 
L 257.291731 68.883797 
L 257.872047 68.883797 
L 257.919111 67.964302 
L 261.014369 67.964302 
L 261.014369 67.504554 
L 261.442283 67.504554 
L 261.442283 67.044807 
L 261.826256 67.044807 
L 261.826256 66.58506 
L 262.165552 66.58506 
L 262.165552 66.125312 
L 263.494229 66.125312 
L 263.494229 65.665565 
L 263.897424 65.665565 
L 263.897474 64.74607 
L 269.164293 64.74607 
L 269.164293 64.286323 
L 269.880818 64.286323 
L 269.880923 63.366828 
L 270.225422 63.366828 
L 270.225593 62.447334 
L 270.662806 62.447334 
L 270.662806 61.987586 
L 270.944438 61.987586 
L 270.944438 61.527839 
L 275.25684 61.527839 
L 275.25684 61.068091 
L 280.184438 61.068091 
L 280.232498 60.148597 
L 283.772909 60.148597 
L 283.772909 59.688849 
L 333.569032 59.688849 
L 333.569032 59.688849 
" style="fill:none;stroke:#000080;stroke-linecap:square;stroke-width:1.5;"/>
   </g>
   <g id="line2d_48">
    <defs>
     <path d="M 0 6 
C 1.591219 6 3.117479 5.367802 4.242641 4.242641 
C 5.367802 3.117479 6 1.591219 6 0 
C 6 -1.591219 5.367802 -3.117479 4.242641 -4.242641 
C 3.117479 -5.367802 1.591219 -6 0 -6 
C -1.591219 -6 -3.117479 -5.367802 -4.242641 -4.242641 
C -5.367802 -3.117479 -6 -1.591219 -6 0 
C -6 1.591219 -5.367802 3.117479 -4.242641 4.242641 
C -3.117479 5.367802 -1.591219 6 0 6 
z
" id="m856edb1531" style="stroke:#000080;stroke-width:1.5;"/>
    </defs>
    <g>
     <use style="fill:none;stroke:#000080;stroke-width:1.5;" x="110.295451" xlink:href="#m856edb1531" y="267.954401"/>
     <use style="fill:none;stroke:#000080;stroke-width:1.5;" x="161.95611" xlink:href="#m856edb1531" y="175.085435"/>
     <use style="fill:none;stroke:#000080;stroke-width:1.5;" x="211.160135" xlink:href="#m856edb1531" y="110.261058"/>
     <use style="fill:none;stroke:#000080;stroke-width:1.5;" x="283.772909" xlink:href="#m856edb1531" y="60.148597"/>
     <use style="fill:none;stroke:#000080;stroke-width:1.5;" x="283.772909" xlink:href="#m856edb1531" y="59.688849"/>
     <use style="fill:none;stroke:#000080;stroke-width:1.5;" x="333.569032" xlink:href="#m856edb1531" y="59.688849"/>
    </g>
   </g>
   <g id="line2d_49">
    <path style="fill:none;stroke:#000080;stroke-linecap:square;stroke-width:1.5;"/>
    <g/>
   </g>
   <g id="line2d_50">
    <path clip-path="url(#pf569731a16)" d="M 254.513121 71.642281 
" style="fill:none;stroke:#000080;stroke-linecap:square;stroke-width:1.5;"/>
    <defs>
     <path d="M -12 12 
L 12 -12 
M -12 -12 
L 12 12 
" id="m56c043759f" style="stroke:#000080;stroke-width:3;"/>
    </defs>
    <g clip-path="url(#pf569731a16)">
     <use style="fill:#000080;stroke:#000080;stroke-width:3;" x="254.513121" xlink:href="#m56c043759f" y="71.642281"/>
    </g>
   </g>
   <g id="line2d_51">
    <defs>
     <path d="M 0 1.5 
C 0.397805 1.5 0.77937 1.341951 1.06066 1.06066 
C 1.341951 0.77937 1.5 0.397805 1.5 0 
C 1.5 -0.397805 1.341951 -0.77937 1.06066 -1.06066 
C 0.77937 -1.341951 0.397805 -1.5 0 -1.5 
C -0.397805 -1.5 -0.77937 -1.341951 -1.06066 -1.06066 
C -1.341951 -0.77937 -1.5 -0.397805 -1.5 0 
C -1.5 0.397805 -1.341951 0.77937 -1.06066 1.06066 
C -0.77937 1.341951 -0.397805 1.5 0 1.5 
z
" id="mbb70b0c498" style="stroke:#ff00ff;"/>
    </defs>
    <g>
     <use style="fill:#ff00ff;stroke:#ff00ff;" x="307.308535" xlink:href="#mbb70b0c498" y="59.688849"/>
     <use style="fill:#ff00ff;stroke:#ff00ff;" x="307.308535" xlink:href="#mbb70b0c498" y="59.688849"/>
    </g>
   </g>
   <g id="line2d_52">
    <path d="M 44.939466 294.16 
L 44.939466 285.4248 
L 56.84 285.4248 
L 56.84 277.149348 
L 68.740534 277.149348 
L 68.740534 274.850611 
L 72.57165 274.850611 
L 72.57165 260.598443 
L 80.641068 260.598443 
L 80.641068 257.839959 
L 82.663267 257.839959 
L 82.663267 254.621728 
L 86.10855 254.621728 
L 86.10855 250.943749 
L 87.602435 250.943749 
L 87.602435 250.024254 
L 88.976675 250.024254 
L 88.976675 249.104759 
L 90.249023 249.104759 
L 90.249023 246.806023 
L 91.433551 246.806023 
L 91.433551 245.42678 
L 100.877209 245.42678 
L 100.877209 243.587791 
L 103.334085 243.587791 
L 103.334085 240.829307 
L 106.934744 240.829307 
L 106.934744 238.53057 
L 107.392607 238.53057 
L 107.392607 238.070823 
L 108.273253 238.070823 
L 108.273253 237.611075 
L 110.295451 237.611075 
L 110.295451 233.013602 
L 110.672804 233.013602 
L 110.672804 231.174612 
L 112.104369 231.174612 
L 112.104369 227.496634 
L 117.129168 227.496634 
L 117.129168 226.577139 
L 117.383526 226.577139 
L 117.383526 226.117392 
L 117.63417 226.117392 
L 117.63417 225.197897 
L 118.835278 225.197897 
L 118.835278 222.89916 
L 119.517573 222.89916 
L 119.517573 220.600423 
L 120.387068 220.600423 
L 120.387068 219.221181 
L 124.344892 219.221181 
L 124.344892 218.301687 
L 124.678278 218.301687 
L 124.678278 217.382192 
L 126.553103 217.382192 
L 126.553103 216.922445 
L 127.698117 216.922445 
L 127.698117 216.462697 
L 127.83602 216.462697 
L 127.83602 215.543202 
L 130.502219 215.543202 
L 130.502219 213.244466 
L 131.529233 213.244466 
L 131.529233 212.324971 
L 131.966679 212.324971 
L 131.966679 211.865224 
L 132.911992 211.865224 
L 132.911992 210.026234 
L 133.904687 210.026234 
L 133.904687 209.10674 
L 134.93419 209.10674 
L 135.024791 207.727497 
L 139.248968 207.727497 
L 139.248968 207.26775 
L 139.873358 207.26775 
L 139.873358 205.888508 
L 141.682276 205.888508 
L 141.682276 204.509266 
L 142.165938 204.509266 
L 142.165938 204.049519 
L 142.284754 204.049519 
L 142.284754 203.589771 
L 143.206792 203.589771 
L 143.206792 202.210529 
L 144.710025 202.210529 
L 144.710025 201.291034 
L 145.464269 201.291034 
L 145.464269 200.831287 
L 145.708495 200.831287 
L 145.708495 199.452045 
L 147.719912 199.452045 
L 147.719912 198.072803 
L 148.14596 198.072803 
L 148.14596 197.613056 
L 149.559 197.613056 
L 149.559 194.394824 
L 149.713328 194.394824 
L 149.713328 193.475329 
L 150.280008 193.475329 
L 150.280008 191.63634 
L 150.82858 191.63634 
L 150.82858 191.176593 
L 152.144579 191.176593 
L 152.144579 190.257098 
L 154.594786 190.257098 
L 154.594786 189.337603 
L 155.163342 189.337603 
L 155.163342 188.418109 
L 157.609029 188.418109 
L 157.657461 186.119372 
L 158.181377 186.119372 
L 158.181377 185.659624 
L 159.512262 185.659624 
L 159.512262 184.74013 
L 162.199113 184.74013 
L 162.199113 183.360888 
L 163.347719 183.360888 
L 163.347719 182.90114 
L 164.747313 182.90114 
L 164.747313 181.521898 
L 165.158373 181.521898 
L 165.158373 179.682909 
L 165.620757 179.682909 
L 165.620757 176.924425 
L 166.174398 176.924425 
L 166.174398 176.00493 
L 166.624897 176.00493 
L 166.624897 175.085435 
L 166.739261 175.085435 
L 166.739261 174.625688 
L 166.852868 174.625688 
L 166.852868 174.165941 
L 168.892357 174.165941 
L 168.892357 172.786699 
L 169.33897 172.786699 
L 169.33897 172.326951 
L 169.786195 172.326951 
L 169.786195 170.947709 
L 171.128284 170.947709 
L 171.161354 169.568467 
L 171.380207 169.568467 
L 171.380207 168.648972 
L 173.11612 168.648972 
L 173.11612 168.189225 
L 173.969227 168.189225 
L 173.969227 167.26973 
L 174.593617 167.26973 
L 174.593617 166.809983 
L 175.073771 166.809983 
L 175.073771 165.890488 
L 176.136276 165.890488 
L 176.136276 165.430741 
L 179.228018 165.430741 
L 179.228018 164.970994 
L 179.636172 164.970994 
L 179.636172 164.511246 
L 181.122772 164.511246 
L 181.122772 164.051499 
L 181.257864 164.051499 
L 181.367608 161.293015 
L 183.182603 161.293015 
L 183.182603 160.37352 
L 183.879094 160.37352 
L 183.879094 159.913773 
L 184.719265 159.913773 
L 184.719265 158.534531 
L 184.868603 158.534531 
L 184.868603 158.074783 
L 185.400521 158.074783 
L 185.400521 157.615036 
L 186.069644 157.615036 
L 186.069644 157.155288 
L 186.198561 157.155288 
L 186.198561 156.695541 
L 187.720708 156.695541 
L 187.720708 156.235794 
L 188.139532 156.235794 
L 188.139532 155.776046 
L 188.671941 155.776046 
L 188.671941 154.396804 
L 188.818262 154.396804 
L 188.818262 152.098068 
L 189.588294 152.098068 
L 189.588294 151.63832 
L 189.786694 151.63832 
L 189.786694 151.178573 
L 191.094098 151.178573 
L 191.094098 150.259078 
L 191.77039 150.259078 
L 191.77039 149.799331 
L 193.054102 149.799331 
L 193.054102 148.879836 
L 193.319723 148.879836 
L 193.319723 148.420089 
L 196.019464 148.420089 
L 196.076323 146.581099 
L 196.499386 146.581099 
L 196.499386 145.661605 
L 197.124765 145.661605 
L 197.124765 145.201857 
L 199.834004 145.201857 
L 199.883685 144.282363 
L 200.267956 144.282363 
L 200.267956 142.903121 
L 201.160019 142.903121 
L 201.221316 141.523878 
L 201.415252 141.523878 
L 201.415252 139.684889 
L 204.410739 139.684889 
L 204.410739 139.225142 
L 204.913049 139.225142 
L 204.913049 138.765394 
L 206.279102 138.765394 
L 206.279102 138.305647 
L 206.536371 138.305647 
L 206.536371 137.386152 
L 207.814831 137.386152 
L 207.814831 136.466658 
L 208.450195 136.466658 
L 208.450195 135.547163 
L 208.91694 135.547163 
L 208.91694 134.167921 
L 209.470957 134.167921 
L 209.470957 132.788679 
L 209.761763 132.788679 
L 209.761763 132.328931 
L 210.068295 132.328931 
L 210.068295 131.409437 
L 211.097859 131.409437 
L 211.097859 130.489942 
L 211.9406 130.489942 
L 211.9406 129.570447 
L 212.377428 129.570447 
L 212.377428 128.191205 
L 212.776125 128.191205 
L 212.776125 127.731458 
L 213.591484 127.731458 
L 213.591484 127.27171 
L 214.291457 127.27171 
L 214.291457 126.811963 
L 214.475339 126.811963 
L 214.475339 124.513226 
L 214.869279 124.513226 
L 214.869279 124.053479 
L 215.080406 124.053479 
L 215.080406 122.674237 
L 216.080268 122.674237 
L 216.116443 121.294995 
L 216.579123 121.294995 
L 216.579123 120.835248 
L 217.156353 120.835248 
L 217.156353 120.3755 
L 217.327825 120.3755 
L 217.327825 119.456005 
L 218.282582 119.456005 
L 218.282582 118.536511 
L 218.837666 118.536511 
L 218.837666 117.157269 
L 219.017646 117.157269 
L 219.017646 116.237774 
L 219.18233 116.237774 
L 219.18233 114.858532 
L 220.170949 114.858532 
L 220.170949 113.939037 
L 220.744035 113.939037 
L 220.744035 113.019543 
L 222.765552 113.019543 
L 222.765552 112.559795 
L 224.282954 112.559795 
L 224.282954 112.100048 
L 226.025969 112.100048 
L 226.025969 111.6403 
L 226.57834 111.6403 
L 226.57834 110.261058 
L 227.346365 110.261058 
L 227.346365 109.801311 
L 227.728691 109.801311 
L 227.728691 109.341564 
L 227.953017 109.341564 
L 227.953017 108.422069 
L 228.649224 108.422069 
L 228.649224 107.962322 
L 229.412207 107.962322 
L 229.412207 107.502574 
L 229.892578 107.502574 
L 229.892578 107.042827 
L 230.324105 107.042827 
L 230.324105 105.203837 
L 230.461857 105.203837 
L 230.461857 103.824595 
L 230.867581 103.824595 
L 230.867581 103.364848 
L 231.344836 103.364848 
L 231.344836 102.905101 
L 232.235254 102.905101 
L 232.235254 101.985606 
L 235.766742 101.985606 
L 235.766742 101.525859 
L 236.147517 101.525859 
L 236.176749 100.146617 
L 236.733052 100.146617 
L 236.733052 99.686869 
L 237.70345 99.686869 
L 237.70345 97.84788 
L 238.775163 97.84788 
L 238.775163 96.928385 
L 239.092354 96.928385 
L 239.092354 96.00889 
L 239.369211 96.00889 
L 239.369211 95.089396 
L 240.266866 95.089396 
L 240.266866 94.629648 
L 240.393085 94.629648 
L 240.393085 93.710154 
L 240.663545 93.710154 
L 240.663545 92.790659 
L 240.814733 92.790659 
L 240.814733 92.330912 
L 243.568611 92.330912 
L 243.573317 90.95167 
L 244.747522 90.95167 
L 244.747522 90.032175 
L 245.800138 90.032175 
L 245.800138 89.572427 
L 247.259416 89.572427 
L 247.259416 89.11268 
L 248.220472 89.11268 
L 248.248547 87.733438 
L 248.425948 87.733438 
L 248.425948 87.273691 
L 248.958086 87.273691 
L 248.958086 86.354196 
L 249.259448 86.354196 
L 249.259448 85.434701 
L 249.882182 85.434701 
L 249.882182 84.974954 
L 253.121877 84.974954 
L 253.121877 84.515207 
L 253.868327 84.515207 
L 253.868327 84.055459 
L 257.126228 84.055459 
L 257.126228 82.676217 
L 257.807796 82.676217 
L 257.807796 81.296975 
L 258.335878 81.296975 
L 258.335878 80.37748 
L 261.485894 80.37748 
L 261.485894 79.917733 
L 262.45338 79.917733 
L 262.508777 76.699502 
L 263.240659 76.699502 
L 263.240659 75.780007 
L 267.963491 75.780007 
L 267.963491 74.400765 
L 272.737352 74.400765 
L 272.737352 73.021523 
L 273.140576 73.021523 
L 273.140576 72.102028 
L 273.827141 72.102028 
L 273.827141 71.182533 
L 274.329964 71.182533 
L 274.329964 70.263039 
L 278.01406 70.263039 
L 278.01406 69.803291 
L 279.395195 69.803291 
L 279.395195 69.343544 
L 280.427727 69.343544 
L 280.427727 68.883797 
L 292.626074 68.883797 
L 292.626074 67.964302 
L 294.066024 67.964302 
L 294.139488 63.366828 
L 294.1833 63.366828 
L 294.232145 62.447334 
L 294.429912 62.447334 
L 294.44095 61.527839 
L 294.603325 61.527839 
L 294.635586 60.608344 
L 306.307435 60.608344 
L 306.307435 60.148597 
L 307.308535 60.148597 
L 307.308535 59.688849 
L 333.569032 59.688849 
L 333.569032 59.688849 
" style="fill:none;stroke:#ff00ff;stroke-linecap:square;stroke-width:1.5;"/>
   </g>
   <g id="line2d_53">
    <defs>
     <path d="M -0 8.485281 
L 5.091169 0 
L 0 -8.485281 
L -5.091169 -0 
z
" id="m5e5f0b7f10" style="stroke:#ff00ff;stroke-linejoin:miter;stroke-width:1.5;"/>
    </defs>
    <g>
     <use style="fill:none;stroke:#ff00ff;stroke-linejoin:miter;stroke-width:1.5;" x="119.517573" xlink:href="#m5e5f0b7f10" y="222.89916"/>
     <use style="fill:none;stroke:#ff00ff;stroke-linejoin:miter;stroke-width:1.5;" x="181.367608" xlink:href="#m5e5f0b7f10" y="162.672257"/>
     <use style="fill:none;stroke:#ff00ff;stroke-linejoin:miter;stroke-width:1.5;" x="239.092354" xlink:href="#m5e5f0b7f10" y="96.928385"/>
     <use style="fill:none;stroke:#ff00ff;stroke-linejoin:miter;stroke-width:1.5;" x="307.308535" xlink:href="#m5e5f0b7f10" y="59.688849"/>
     <use style="fill:none;stroke:#ff00ff;stroke-linejoin:miter;stroke-width:1.5;" x="307.308535" xlink:href="#m5e5f0b7f10" y="59.688849"/>
     <use style="fill:none;stroke:#ff00ff;stroke-linejoin:miter;stroke-width:1.5;" x="333.569032" xlink:href="#m5e5f0b7f10" y="59.688849"/>
    </g>
   </g>
   <g id="line2d_54">
    <path style="fill:none;stroke:#ff00ff;stroke-linecap:square;stroke-width:1.5;"/>
    <g/>
   </g>
   <g id="line2d_55">
    <path clip-path="url(#pf569731a16)" d="M 294.036313 67.964302 
" style="fill:none;stroke:#ff00ff;stroke-linecap:square;stroke-width:1.5;"/>
    <defs>
     <path d="M -12 12 
L 12 -12 
M -12 -12 
L 12 12 
" id="m98584246da" style="stroke:#ff00ff;stroke-width:3;"/>
    </defs>
    <g clip-path="url(#pf569731a16)">
     <use style="fill:#ff00ff;stroke:#ff00ff;stroke-width:3;" x="294.036313" xlink:href="#m98584246da" y="67.964302"/>
    </g>
   </g>
   <g id="line2d_56">
    <defs>
     <path d="M 0 1.5 
C 0.397805 1.5 0.77937 1.341951 1.06066 1.06066 
C 1.341951 0.77937 1.5 0.397805 1.5 0 
C 1.5 -0.397805 1.341951 -0.77937 1.06066 -1.06066 
C 0.77937 -1.341951 0.397805 -1.5 0 -1.5 
C -0.397805 -1.5 -0.77937 -1.341951 -1.06066 -1.06066 
C -1.341951 -0.77937 -1.5 -0.397805 -1.5 0 
C -1.5 0.397805 -1.341951 0.77937 -1.06066 1.06066 
C -0.77937 1.341951 -0.397805 1.5 0 1.5 
z
" id="m6ec763b910" style="stroke:#ffa500;"/>
    </defs>
    <g>
     <use style="fill:#ffa500;stroke:#ffa500;" x="238.189154" xlink:href="#m6ec763b910" y="165.430741"/>
     <use style="fill:#ffa500;stroke:#ffa500;" x="238.189154" xlink:href="#m6ec763b910" y="165.430741"/>
    </g>
   </g>
   <g id="line2d_57">
    <path d="M 44.939466 294.16 
L 44.939466 278.52859 
L 92.541603 278.52859 
L 92.541603 275.310358 
L 98.009084 275.310358 
L 98.009084 273.931116 
L 110.672804 273.931116 
L 110.672804 272.092127 
L 114.652569 272.092127 
L 114.652569 271.63238 
L 115.797583 271.63238 
L 115.797583 271.172632 
L 117.129168 271.172632 
L 117.129168 268.873896 
L 117.881208 268.873896 
L 117.881208 267.494653 
L 119.065736 267.494653 
L 119.065736 264.276422 
L 119.73911 264.276422 
L 119.73911 262.89718 
L 119.957824 262.89718 
L 119.957824 261.977685 
L 121.415449 261.977685 
L 121.415449 259.678948 
L 122.195986 259.678948 
L 122.195986 258.759454 
L 122.942575 258.759454 
L 122.942575 256.920464 
L 123.481954 256.920464 
L 123.481954 256.460717 
L 123.658047 256.460717 
L 123.658047 252.782738 
L 125.005313 252.782738 
L 125.005313 251.863243 
L 126.404454 251.863243 
L 126.404454 251.403496 
L 126.846595 251.403496 
L 126.846595 250.484001 
L 127.559097 250.484001 
L 127.559097 248.645012 
L 128.108547 248.645012 
L 128.108547 248.185265 
L 129.534704 248.185265 
L 129.534704 247.26577 
L 131.418108 247.26577 
L 131.418108 245.886528 
L 131.858358 245.886528 
L 131.858358 243.587791 
L 132.287602 243.587791 
L 132.287602 242.208549 
L 132.809491 242.208549 
L 132.809491 240.36956 
L 133.904687 240.36956 
L 133.904687 238.990318 
L 134.380309 238.990318 
L 134.380309 238.070823 
L 135.114917 238.070823 
L 135.114917 237.611075 
L 136.076273 237.611075 
L 136.076273 236.691581 
L 136.49607 236.691581 
L 136.49607 236.231833 
L 138.674225 236.231833 
L 138.674225 235.772086 
L 139.529282 235.772086 
L 139.529282 234.852591 
L 139.736554 234.852591 
L 139.736554 233.473349 
L 140.27735 233.473349 
L 140.27735 232.553855 
L 141.121357 232.553855 
L 141.121357 232.094107 
L 141.804475 232.094107 
L 141.804475 231.63436 
L 142.519947 231.63436 
L 142.519947 231.174612 
L 143.429767 231.174612 
L 143.429767 230.255118 
L 144.346375 230.255118 
L 144.346375 227.956381 
L 144.710025 227.956381 
L 144.710025 227.496634 
L 145.415004 227.496634 
L 145.415004 226.577139 
L 147.415261 226.577139 
L 147.415261 226.117392 
L 147.546488 226.117392 
L 147.546488 225.657644 
L 147.976808 225.657644 
L 147.976808 224.73815 
L 149.24612 224.73815 
L 149.24612 224.278402 
L 149.403273 224.278402 
L 149.403273 222.439413 
L 151.184793 222.439413 
L 151.184793 221.060171 
L 151.875785 221.060171 
L 151.875785 219.680929 
L 152.766588 219.680929 
L 152.766588 218.761434 
L 152.926597 218.761434 
L 153.021891 216.00295 
L 153.210908 216.00295 
L 153.273454 214.623708 
L 154.244389 214.623708 
L 154.244389 213.704213 
L 156.403704 213.704213 
L 156.403704 211.405476 
L 157.016942 211.405476 
L 157.016942 209.566487 
L 158.228223 209.566487 
L 158.228223 209.10674 
L 163.537622 209.10674 
L 163.537622 208.187245 
L 164.128255 208.187245 
L 164.128255 207.26775 
L 166.189116 207.26775 
L 166.189116 205.888508 
L 166.55303 205.888508 
L 166.55303 204.969013 
L 167.519164 204.969013 
L 167.519164 204.509266 
L 169.976039 204.509266 
L 169.976039 203.589771 
L 171.106202 203.589771 
L 171.106202 203.130024 
L 173.027443 203.130024 
L 173.066911 200.831287 
L 173.610152 200.831287 
L 173.610152 199.452045 
L 176.292171 199.452045 
L 176.292171 198.992298 
L 177.253083 198.992298 
L 177.253083 198.53255 
L 178.76755 198.53255 
L 178.76755 197.613056 
L 179.006303 197.613056 
L 179.006303 197.153308 
L 179.255532 197.153308 
L 179.255532 196.233814 
L 180.347253 196.233814 
L 180.347253 195.314319 
L 181.306726 195.314319 
L 181.306726 194.394824 
L 183.001211 194.394824 
L 183.001211 193.935077 
L 183.426906 193.935077 
L 183.448455 192.555835 
L 183.662466 192.555835 
L 183.667783 191.63634 
L 183.815973 191.63634 
L 183.815973 191.176593 
L 183.999431 191.176593 
L 183.999431 190.257098 
L 184.355462 190.257098 
L 184.416633 189.337603 
L 184.679221 189.337603 
L 184.679221 188.877856 
L 184.957587 188.877856 
L 184.972373 187.958361 
L 185.11465 187.958361 
L 185.192646 186.579119 
L 185.255758 186.579119 
L 185.255758 186.119372 
L 185.653324 186.119372 
L 185.653324 185.659624 
L 185.874436 185.659624 
L 185.874436 185.199877 
L 188.512342 185.199877 
L 188.512342 184.74013 
L 189.982827 184.74013 
L 189.997539 183.820635 
L 190.586573 183.820635 
L 190.586573 183.360888 
L 190.938189 183.360888 
L 190.938189 182.90114 
L 192.215509 182.90114 
L 192.215509 182.441393 
L 192.865381 182.441393 
L 192.865381 181.981646 
L 193.081772 181.981646 
L 193.081772 181.521898 
L 193.216406 181.521898 
L 193.216406 181.062151 
L 193.542464 181.062151 
L 193.542464 180.602404 
L 194.167922 180.602404 
L 194.167922 180.142656 
L 195.050299 180.142656 
L 195.050299 179.682909 
L 196.248334 179.682909 
L 196.248334 179.223161 
L 198.636441 179.223161 
L 198.718488 177.843919 
L 198.753847 177.843919 
L 198.753847 177.384172 
L 199.204853 177.384172 
L 199.307763 176.464677 
L 200.184883 176.464677 
L 200.184883 176.00493 
L 200.596288 176.00493 
L 200.655675 174.625688 
L 206.422348 174.625688 
L 206.422348 174.165941 
L 209.618148 174.165941 
L 209.618148 173.706193 
L 212.150289 173.706193 
L 212.150289 173.246446 
L 213.08644 173.246446 
L 213.08644 172.786699 
L 215.793824 172.786699 
L 215.85916 171.867204 
L 216.093943 171.867204 
L 216.093943 171.407456 
L 218.494333 171.407456 
L 218.494333 170.947709 
L 220.308005 170.947709 
L 220.308005 170.487962 
L 220.457077 170.487962 
L 220.510005 169.568467 
L 222.329364 169.568467 
L 222.333837 168.648972 
L 222.443066 168.648972 
L 222.443066 168.189225 
L 223.931024 168.189225 
L 223.931024 167.729478 
L 224.063465 167.729478 
L 224.063465 167.26973 
L 226.827573 167.26973 
L 226.839618 166.350236 
L 229.346932 166.350236 
L 229.346932 165.890488 
L 238.189154 165.890488 
L 238.189154 165.430741 
L 333.569032 165.430741 
L 333.569032 165.430741 
" style="fill:none;stroke:#ffa500;stroke-linecap:square;stroke-width:1.5;"/>
   </g>
   <g id="line2d_58">
    <defs>
     <path d="M 0 -6 
L -1.347084 -1.854102 
L -5.706339 -1.854102 
L -2.179628 0.708204 
L -3.526712 4.854102 
L -0 2.291796 
L 3.526712 4.854102 
L 2.179628 0.708204 
L 5.706339 -1.854102 
L 1.347084 -1.854102 
z
" id="m17ae254ffd" style="stroke:#ffa500;stroke-linejoin:bevel;stroke-width:1.5;"/>
    </defs>
    <g>
     <use style="fill:none;stroke:#ffa500;stroke-linejoin:bevel;stroke-width:1.5;" x="144.710025" xlink:href="#m17ae254ffd" y="227.956381"/>
     <use style="fill:none;stroke:#ffa500;stroke-linejoin:bevel;stroke-width:1.5;" x="181.306726" xlink:href="#m17ae254ffd" y="194.394824"/>
     <use style="fill:none;stroke:#ffa500;stroke-linejoin:bevel;stroke-width:1.5;" x="238.189154" xlink:href="#m17ae254ffd" y="165.890488"/>
     <use style="fill:none;stroke:#ffa500;stroke-linejoin:bevel;stroke-width:1.5;" x="238.189154" xlink:href="#m17ae254ffd" y="165.430741"/>
     <use style="fill:none;stroke:#ffa500;stroke-linejoin:bevel;stroke-width:1.5;" x="333.569032" xlink:href="#m17ae254ffd" y="165.430741"/>
    </g>
   </g>
   <g id="line2d_59">
    <path style="fill:none;stroke:#ffa500;stroke-linecap:square;stroke-width:1.5;"/>
    <g/>
   </g>
   <g id="line2d_60">
    <path clip-path="url(#pf569731a16)" d="M 183.001211 193.935077 
" style="fill:none;stroke:#ffa500;stroke-linecap:square;stroke-width:1.5;"/>
    <defs>
     <path d="M -12 12 
L 12 -12 
M -12 -12 
L 12 12 
" id="m94bea7bce6" style="stroke:#ffa500;stroke-width:3;"/>
    </defs>
    <g clip-path="url(#pf569731a16)">
     <use style="fill:#ffa500;stroke:#ffa500;stroke-width:3;" x="183.001211" xlink:href="#m94bea7bce6" y="193.935077"/>
    </g>
   </g>
   <g id="line2d_61">
    <path d="M 333.569032 165.430741 
L 364.009226 288.826931 
" style="fill:none;stroke:#ffa500;stroke-linecap:square;stroke-width:1.5;"/>
    <g>
     <use style="fill:none;stroke:#ffa500;stroke-linejoin:bevel;stroke-width:1.5;" x="333.569032" xlink:href="#m17ae254ffd" y="165.430741"/>
     <use style="fill:none;stroke:#ffa500;stroke-linejoin:bevel;stroke-width:1.5;" x="364.009226" xlink:href="#m17ae254ffd" y="288.826931"/>
    </g>
   </g>
   <g id="line2d_62">
    <path d="M 333.569032 59.688849 
L 364.009226 203.497822 
" style="fill:none;stroke:#ff00ff;stroke-linecap:square;stroke-width:1.5;"/>
    <g>
     <use style="fill:none;stroke:#ff00ff;stroke-linejoin:miter;stroke-width:1.5;" x="333.569032" xlink:href="#m5e5f0b7f10" y="59.688849"/>
     <use style="fill:none;stroke:#ff00ff;stroke-linejoin:miter;stroke-width:1.5;" x="364.009226" xlink:href="#m5e5f0b7f10" y="203.497822"/>
    </g>
   </g>
   <g id="line2d_63">
    <path d="M 333.569032 59.688849 
L 364.009226 118.168713 
" style="fill:none;stroke:#000080;stroke-linecap:square;stroke-width:1.5;"/>
    <g>
     <use style="fill:none;stroke:#000080;stroke-width:1.5;" x="333.569032" xlink:href="#m856edb1531" y="59.688849"/>
     <use style="fill:none;stroke:#000080;stroke-width:1.5;" x="364.009226" xlink:href="#m856edb1531" y="118.168713"/>
    </g>
   </g>
   <g id="line2d_64">
    <path d="M 333.569032 294.16 
L 333.569032 27.506535 
" style="fill:none;stroke:#000000;stroke-linecap:square;stroke-width:1.5;"/>
   </g>
   <g id="patch_3">
    <path d="M 56.84 294.16 
L 56.84 24.84 
" style="fill:none;stroke:#000000;stroke-linecap:square;stroke-linejoin:miter;stroke-width:0.8;"/>
   </g>
   <g id="patch_4">
    <path d="M 399.984 294.16 
L 399.984 24.84 
" style="fill:none;stroke:#000000;stroke-linecap:square;stroke-linejoin:miter;stroke-width:0.8;"/>
   </g>
   <g id="patch_5">
    <path d="M 56.84 294.16 
L 399.984 294.16 
" style="fill:none;stroke:#000000;stroke-linecap:square;stroke-linejoin:miter;stroke-width:0.8;"/>
   </g>
   <g id="patch_6">
    <path d="M 56.84 24.84 
L 399.984 24.84 
" style="fill:none;stroke:#000000;stroke-linecap:square;stroke-linejoin:miter;stroke-width:0.8;"/>
   </g>
   <g id="text_14">
    <!-- adaptiveH -->
    <defs>
     <path d="M 9.8125 72.90625 
L 19.671875 72.90625 
L 19.671875 43.015625 
L 55.515625 43.015625 
L 55.515625 72.90625 
L 65.375 72.90625 
L 65.375 0 
L 55.515625 0 
L 55.515625 34.71875 
L 19.671875 34.71875 
L 19.671875 0 
L 9.8125 0 
z
" id="DejaVuSans-48"/>
    </defs>
    <g transform="translate(369.543806 293.517868)scale(0.17 -0.17)">
     <use xlink:href="#DejaVuSans-61"/>
     <use x="61.279297" xlink:href="#DejaVuSans-64"/>
     <use x="124.755859" xlink:href="#DejaVuSans-61"/>
     <use x="186.035156" xlink:href="#DejaVuSans-70"/>
     <use x="249.511719" xlink:href="#DejaVuSans-74"/>
     <use x="288.720703" xlink:href="#DejaVuSans-69"/>
     <use x="316.503906" xlink:href="#DejaVuSans-76"/>
     <use x="375.683594" xlink:href="#DejaVuSans-65"/>
     <use x="437.207031" xlink:href="#DejaVuSans-48"/>
    </g>
   </g>
   <g id="text_15">
    <!-- RANDOMSEA -->
    <defs>
     <path d="M 44.390625 34.1875 
Q 47.5625 33.109375 50.5625 29.59375 
Q 53.5625 26.078125 56.59375 19.921875 
L 66.609375 0 
L 56 0 
L 46.6875 18.703125 
Q 43.0625 26.03125 39.671875 28.421875 
Q 36.28125 30.8125 30.421875 30.8125 
L 19.671875 30.8125 
L 19.671875 0 
L 9.8125 0 
L 9.8125 72.90625 
L 32.078125 72.90625 
Q 44.578125 72.90625 50.734375 67.671875 
Q 56.890625 62.453125 56.890625 51.90625 
Q 56.890625 45.015625 53.6875 40.46875 
Q 50.484375 35.9375 44.390625 34.1875 
M 19.671875 64.796875 
L 19.671875 38.921875 
L 32.078125 38.921875 
Q 39.203125 38.921875 42.84375 42.21875 
Q 46.484375 45.515625 46.484375 51.90625 
Q 46.484375 58.296875 42.84375 61.546875 
Q 39.203125 64.796875 32.078125 64.796875 
z
" id="DejaVuSans-52"/>
     <path d="M 34.1875 63.1875 
L 20.796875 26.90625 
L 47.609375 26.90625 
z
M 28.609375 72.90625 
L 39.796875 72.90625 
L 67.578125 0 
L 57.328125 0 
L 50.6875 18.703125 
L 17.828125 18.703125 
L 11.1875 0 
L 0.78125 0 
z
" id="DejaVuSans-41"/>
     <path d="M 9.8125 72.90625 
L 23.09375 72.90625 
L 55.421875 11.921875 
L 55.421875 72.90625 
L 64.984375 72.90625 
L 64.984375 0 
L 51.703125 0 
L 19.390625 60.984375 
L 19.390625 0 
L 9.8125 0 
z
" id="DejaVuSans-4e"/>
     <path d="M 19.671875 64.796875 
L 19.671875 8.109375 
L 31.59375 8.109375 
Q 46.6875 8.109375 53.6875 14.9375 
Q 60.6875 21.78125 60.6875 36.53125 
Q 60.6875 51.171875 53.6875 57.984375 
Q 46.6875 64.796875 31.59375 64.796875 
z
M 9.8125 72.90625 
L 30.078125 72.90625 
Q 51.265625 72.90625 61.171875 64.09375 
Q 71.09375 55.28125 71.09375 36.53125 
Q 71.09375 17.671875 61.125 8.828125 
Q 51.171875 0 30.078125 0 
L 9.8125 0 
z
" id="DejaVuSans-44"/>
     <path d="M 39.40625 66.21875 
Q 28.65625 66.21875 22.328125 58.203125 
Q 16.015625 50.203125 16.015625 36.375 
Q 16.015625 22.609375 22.328125 14.59375 
Q 28.65625 6.59375 39.40625 6.59375 
Q 50.140625 6.59375 56.421875 14.59375 
Q 62.703125 22.609375 62.703125 36.375 
Q 62.703125 50.203125 56.421875 58.203125 
Q 50.140625 66.21875 39.40625 66.21875 
M 39.40625 74.21875 
Q 54.734375 74.21875 63.90625 63.9375 
Q 73.09375 53.65625 73.09375 36.375 
Q 73.09375 19.140625 63.90625 8.859375 
Q 54.734375 -1.421875 39.40625 -1.421875 
Q 24.03125 -1.421875 14.8125 8.828125 
Q 5.609375 19.09375 5.609375 36.375 
Q 5.609375 53.65625 14.8125 63.9375 
Q 24.03125 74.21875 39.40625 74.21875 
" id="DejaVuSans-4f"/>
     <path d="M 9.8125 72.90625 
L 24.515625 72.90625 
L 43.109375 23.296875 
L 61.8125 72.90625 
L 76.515625 72.90625 
L 76.515625 0 
L 66.890625 0 
L 66.890625 64.015625 
L 48.09375 14.015625 
L 38.1875 14.015625 
L 19.390625 64.015625 
L 19.390625 0 
L 9.8125 0 
z
" id="DejaVuSans-4d"/>
     <path d="M 53.515625 70.515625 
L 53.515625 60.890625 
Q 47.90625 63.578125 42.921875 64.890625 
Q 37.9375 66.21875 33.296875 66.21875 
Q 25.25 66.21875 20.875 63.09375 
Q 16.5 59.96875 16.5 54.203125 
Q 16.5 49.359375 19.40625 46.890625 
Q 22.3125 44.4375 30.421875 42.921875 
L 36.375 41.703125 
Q 47.40625 39.59375 52.65625 34.296875 
Q 57.90625 29 57.90625 20.125 
Q 57.90625 9.515625 50.796875 4.046875 
Q 43.703125 -1.421875 29.984375 -1.421875 
Q 24.8125 -1.421875 18.96875 -0.25 
Q 13.140625 0.921875 6.890625 3.21875 
L 6.890625 13.375 
Q 12.890625 10.015625 18.65625 8.296875 
Q 24.421875 6.59375 29.984375 6.59375 
Q 38.421875 6.59375 43.015625 9.90625 
Q 47.609375 13.234375 47.609375 19.390625 
Q 47.609375 24.75 44.3125 27.78125 
Q 41.015625 30.8125 33.5 32.328125 
L 27.484375 33.5 
Q 16.453125 35.6875 11.515625 40.375 
Q 6.59375 45.0625 6.59375 53.421875 
Q 6.59375 63.09375 13.40625 68.65625 
Q 20.21875 74.21875 32.171875 74.21875 
Q 37.3125 74.21875 42.625 73.28125 
Q 47.953125 72.359375 53.515625 70.515625 
" id="DejaVuSans-53"/>
     <path d="M 9.8125 72.90625 
L 55.90625 72.90625 
L 55.90625 64.59375 
L 19.671875 64.59375 
L 19.671875 43.015625 
L 54.390625 43.015625 
L 54.390625 34.71875 
L 19.671875 34.71875 
L 19.671875 8.296875 
L 56.78125 8.296875 
L 56.78125 0 
L 9.8125 0 
z
" id="DejaVuSans-45"/>
    </defs>
    <g transform="translate(369.543806 208.188759)scale(0.17 -0.17)">
     <use xlink:href="#DejaVuSans-52"/>
     <use x="69.419922" xlink:href="#DejaVuSans-41"/>
     <use x="137.828125" xlink:href="#DejaVuSans-4e"/>
     <use x="212.632812" xlink:href="#DejaVuSans-44"/>
     <use x="289.634766" xlink:href="#DejaVuSans-4f"/>
     <use x="368.345703" xlink:href="#DejaVuSans-4d"/>
     <use x="454.625" xlink:href="#DejaVuSans-53"/>
     <use x="518.101562" xlink:href="#DejaVuSans-45"/>
     <use x="581.285156" xlink:href="#DejaVuSans-41"/>
    </g>
   </g>
   <g id="text_16">
    <!-- NSGA-II-M -->
    <defs>
     <path d="M 59.515625 10.40625 
L 59.515625 29.984375 
L 43.40625 29.984375 
L 43.40625 38.09375 
L 69.28125 38.09375 
L 69.28125 6.78125 
Q 63.578125 2.734375 56.6875 0.65625 
Q 49.8125 -1.421875 42 -1.421875 
Q 24.90625 -1.421875 15.25 8.5625 
Q 5.609375 18.5625 5.609375 36.375 
Q 5.609375 54.25 15.25 64.234375 
Q 24.90625 74.21875 42 74.21875 
Q 49.125 74.21875 55.546875 72.453125 
Q 61.96875 70.703125 67.390625 67.28125 
L 67.390625 56.78125 
Q 61.921875 61.421875 55.765625 63.765625 
Q 49.609375 66.109375 42.828125 66.109375 
Q 29.4375 66.109375 22.71875 58.640625 
Q 16.015625 51.171875 16.015625 36.375 
Q 16.015625 21.625 22.71875 14.15625 
Q 29.4375 6.6875 42.828125 6.6875 
Q 48.046875 6.6875 52.140625 7.59375 
Q 56.25 8.5 59.515625 10.40625 
" id="DejaVuSans-47"/>
     <path d="M 9.8125 72.90625 
L 19.671875 72.90625 
L 19.671875 0 
L 9.8125 0 
z
" id="DejaVuSans-49"/>
    </defs>
    <g transform="translate(369.543806 122.85965)scale(0.17 -0.17)">
     <use xlink:href="#DejaVuSans-4e"/>
     <use x="74.804688" xlink:href="#DejaVuSans-53"/>
     <use x="138.28125" xlink:href="#DejaVuSans-47"/>
     <use x="215.771484" xlink:href="#DejaVuSans-41"/>
     <use x="284.148438" xlink:href="#DejaVuSans-2d"/>
     <use x="320.232422" xlink:href="#DejaVuSans-49"/>
     <use x="349.724609" xlink:href="#DejaVuSans-49"/>
     <use x="379.216797" xlink:href="#DejaVuSans-2d"/>
     <use x="415.300781" xlink:href="#DejaVuSans-4d"/>
    </g>
   </g>
   <g id="text_17">
    <!-- best 2016 -->
    <defs>
     <path d="M 48.6875 27.296875 
Q 48.6875 37.203125 44.609375 42.84375 
Q 40.53125 48.484375 33.40625 48.484375 
Q 26.265625 48.484375 22.1875 42.84375 
Q 18.109375 37.203125 18.109375 27.296875 
Q 18.109375 17.390625 22.1875 11.75 
Q 26.265625 6.109375 33.40625 6.109375 
Q 40.53125 6.109375 44.609375 11.75 
Q 48.6875 17.390625 48.6875 27.296875 
M 18.109375 46.390625 
Q 20.953125 51.265625 25.265625 53.625 
Q 29.59375 56 35.59375 56 
Q 45.5625 56 51.78125 48.09375 
Q 58.015625 40.1875 58.015625 27.296875 
Q 58.015625 14.40625 51.78125 6.484375 
Q 45.5625 -1.421875 35.59375 -1.421875 
Q 29.59375 -1.421875 25.265625 0.953125 
Q 20.953125 3.328125 18.109375 8.203125 
L 18.109375 0 
L 9.078125 0 
L 9.078125 75.984375 
L 18.109375 75.984375 
z
" id="DejaVuSans-62"/>
    </defs>
    <g transform="translate(369.543806 37.530541)scale(0.17 -0.17)">
     <use xlink:href="#DejaVuSans-62"/>
     <use x="63.476562" xlink:href="#DejaVuSans-65"/>
     <use x="125" xlink:href="#DejaVuSans-73"/>
     <use x="177.099609" xlink:href="#DejaVuSans-74"/>
     <use x="216.308594" xlink:href="#DejaVuSans-20"/>
     <use x="248.095703" xlink:href="#DejaVuSans-32"/>
     <use x="311.71875" xlink:href="#DejaVuSans-30"/>
     <use x="375.341797" xlink:href="#DejaVuSans-31"/>
     <use x="438.964844" xlink:href="#DejaVuSans-36"/>
    </g>
   </g>
   <g id="text_18">
    <!-- bbob-biobj f11, 2-D -->
    <defs>
     <path d="M 9.421875 54.6875 
L 18.40625 54.6875 
L 18.40625 -0.984375 
Q 18.40625 -11.421875 14.421875 -16.109375 
Q 10.453125 -20.796875 1.609375 -20.796875 
L -1.8125 -20.796875 
L -1.8125 -13.1875 
L 0.59375 -13.1875 
Q 5.71875 -13.1875 7.5625 -10.8125 
Q 9.421875 -8.453125 9.421875 -0.984375 
z
M 9.421875 75.984375 
L 18.40625 75.984375 
L 18.40625 64.59375 
L 9.421875 64.59375 
z
" id="DejaVuSans-6a"/>
    </defs>
    <g transform="translate(60.27144 35.283606)scale(0.102 -0.102)">
     <use xlink:href="#DejaVuSans-62"/>
     <use x="63.476562" xlink:href="#DejaVuSans-62"/>
     <use x="126.953125" xlink:href="#DejaVuSans-6f"/>
     <use x="188.134766" xlink:href="#DejaVuSans-62"/>
     <use x="251.611328" xlink:href="#DejaVuSans-2d"/>
     <use x="287.695312" xlink:href="#DejaVuSans-62"/>
     <use x="351.171875" xlink:href="#DejaVuSans-69"/>
     <use x="378.955078" xlink:href="#DejaVuSans-6f"/>
     <use x="440.136719" xlink:href="#DejaVuSans-62"/>
     <use x="503.613281" xlink:href="#DejaVuSans-6a"/>
     <use x="531.396484" xlink:href="#DejaVuSans-20"/>
     <use x="563.183594" xlink:href="#DejaVuSans-66"/>
     <use x="598.388672" xlink:href="#DejaVuSans-31"/>
     <use x="662.011719" xlink:href="#DejaVuSans-31"/>
     <use x="725.634766" xlink:href="#DejaVuSans-2c"/>
     <use x="757.421875" xlink:href="#DejaVuSans-20"/>
     <use x="789.208984" xlink:href="#DejaVuSans-32"/>
     <use x="852.832031" xlink:href="#DejaVuSans-2d"/>
     <use x="888.916016" xlink:href="#DejaVuSans-44"/>
    </g>
    <!-- 58 targets: 1..-1.0e-4 -->
    <defs>
     <path d="M 10.796875 72.90625 
L 49.515625 72.90625 
L 49.515625 64.59375 
L 19.828125 64.59375 
L 19.828125 46.734375 
Q 21.96875 47.46875 24.109375 47.828125 
Q 26.265625 48.1875 28.421875 48.1875 
Q 40.625 48.1875 47.75 41.5 
Q 54.890625 34.8125 54.890625 23.390625 
Q 54.890625 11.625 47.5625 5.09375 
Q 40.234375 -1.421875 26.90625 -1.421875 
Q 22.3125 -1.421875 17.546875 -0.640625 
Q 12.796875 0.140625 7.71875 1.703125 
L 7.71875 11.625 
Q 12.109375 9.234375 16.796875 8.0625 
Q 21.484375 6.890625 26.703125 6.890625 
Q 35.15625 6.890625 40.078125 11.328125 
Q 45.015625 15.765625 45.015625 23.390625 
Q 45.015625 31 40.078125 35.4375 
Q 35.15625 39.890625 26.703125 39.890625 
Q 22.75 39.890625 18.8125 39.015625 
Q 14.890625 38.140625 10.796875 36.28125 
z
" id="DejaVuSans-35"/>
     <path d="M 11.71875 12.40625 
L 22.015625 12.40625 
L 22.015625 0 
L 11.71875 0 
z
M 11.71875 51.703125 
L 22.015625 51.703125 
L 22.015625 39.3125 
L 11.71875 39.3125 
z
" id="DejaVuSans-3a"/>
    </defs>
    <g transform="translate(60.27144 46.705375)scale(0.102 -0.102)">
     <use xlink:href="#DejaVuSans-35"/>
     <use x="63.623047" xlink:href="#DejaVuSans-38"/>
     <use x="127.246094" xlink:href="#DejaVuSans-20"/>
     <use x="159.033203" xlink:href="#DejaVuSans-74"/>
     <use x="198.242188" xlink:href="#DejaVuSans-61"/>
     <use x="259.521484" xlink:href="#DejaVuSans-72"/>
     <use x="300.619141" xlink:href="#DejaVuSans-67"/>
     <use x="364.095703" xlink:href="#DejaVuSans-65"/>
     <use x="425.619141" xlink:href="#DejaVuSans-74"/>
     <use x="464.828125" xlink:href="#DejaVuSans-73"/>
     <use x="516.927734" xlink:href="#DejaVuSans-3a"/>
     <use x="550.619141" xlink:href="#DejaVuSans-20"/>
     <use x="582.40625" xlink:href="#DejaVuSans-31"/>
     <use x="646.029297" xlink:href="#DejaVuSans-2e"/>
     <use x="677.816406" xlink:href="#DejaVuSans-2e"/>
     <use x="709.603516" xlink:href="#DejaVuSans-2d"/>
     <use x="745.6875" xlink:href="#DejaVuSans-31"/>
     <use x="809.310547" xlink:href="#DejaVuSans-2e"/>
     <use x="841.097656" xlink:href="#DejaVuSans-30"/>
     <use x="904.720703" xlink:href="#DejaVuSans-65"/>
     <use x="966.244141" xlink:href="#DejaVuSans-2d"/>
     <use x="1002.328125" xlink:href="#DejaVuSans-34"/>
    </g>
    <!-- 10 instances -->
    <g transform="translate(60.27144 58.127144)scale(0.102 -0.102)">
     <use xlink:href="#DejaVuSans-31"/>
     <use x="63.623047" xlink:href="#DejaVuSans-30"/>
     <use x="127.246094" xlink:href="#DejaVuSans-20"/>
     <use x="159.033203" xlink:href="#DejaVuSans-69"/>
     <use x="186.816406" xlink:href="#DejaVuSans-6e"/>
     <use x="250.195312" xlink:href="#DejaVuSans-73"/>
     <use x="302.294922" xlink:href="#DejaVuSans-74"/>
     <use x="341.503906" xlink:href="#DejaVuSans-61"/>
     <use x="402.783203" xlink:href="#DejaVuSans-6e"/>
     <use x="466.162109" xlink:href="#DejaVuSans-63"/>
     <use x="521.142578" xlink:href="#DejaVuSans-65"/>
     <use x="582.666016" xlink:href="#DejaVuSans-73"/>
    </g>
   </g>
   <g id="text_19">
    <!-- v2.2.1.10, hv-hash=ff0e71e8cd978373 -->
    <defs>
     <path d="M 54.890625 33.015625 
L 54.890625 0 
L 45.90625 0 
L 45.90625 32.71875 
Q 45.90625 40.484375 42.875 44.328125 
Q 39.84375 48.1875 33.796875 48.1875 
Q 26.515625 48.1875 22.3125 43.546875 
Q 18.109375 38.921875 18.109375 30.90625 
L 18.109375 0 
L 9.078125 0 
L 9.078125 75.984375 
L 18.109375 75.984375 
L 18.109375 46.1875 
Q 21.34375 51.125 25.703125 53.5625 
Q 30.078125 56 35.796875 56 
Q 45.21875 56 50.046875 50.171875 
Q 54.890625 44.34375 54.890625 33.015625 
" id="DejaVuSans-68"/>
     <path d="M 10.59375 45.40625 
L 73.1875 45.40625 
L 73.1875 37.203125 
L 10.59375 37.203125 
z
M 10.59375 25.484375 
L 73.1875 25.484375 
L 73.1875 17.1875 
L 10.59375 17.1875 
z
" id="DejaVuSans-3d"/>
     <path d="M 8.203125 72.90625 
L 55.078125 72.90625 
L 55.078125 68.703125 
L 28.609375 0 
L 18.3125 0 
L 43.21875 64.59375 
L 8.203125 64.59375 
z
" id="DejaVuSans-37"/>
     <path d="M 10.984375 1.515625 
L 10.984375 10.5 
Q 14.703125 8.734375 18.5 7.8125 
Q 22.3125 6.890625 25.984375 6.890625 
Q 35.75 6.890625 40.890625 13.453125 
Q 46.046875 20.015625 46.78125 33.40625 
Q 43.953125 29.203125 39.59375 26.953125 
Q 35.25 24.703125 29.984375 24.703125 
Q 19.046875 24.703125 12.671875 31.3125 
Q 6.296875 37.9375 6.296875 49.421875 
Q 6.296875 60.640625 12.9375 67.421875 
Q 19.578125 74.21875 30.609375 74.21875 
Q 43.265625 74.21875 49.921875 64.515625 
Q 56.59375 54.828125 56.59375 36.375 
Q 56.59375 19.140625 48.40625 8.859375 
Q 40.234375 -1.421875 26.421875 -1.421875 
Q 22.703125 -1.421875 18.890625 -0.6875 
Q 15.09375 0.046875 10.984375 1.515625 
M 30.609375 32.421875 
Q 37.25 32.421875 41.125 36.953125 
Q 45.015625 41.5 45.015625 49.421875 
Q 45.015625 57.28125 41.125 61.84375 
Q 37.25 66.40625 30.609375 66.40625 
Q 23.96875 66.40625 20.09375 61.84375 
Q 16.21875 57.28125 16.21875 49.421875 
Q 16.21875 41.5 20.09375 36.953125 
Q 23.96875 32.421875 30.609375 32.421875 
" id="DejaVuSans-39"/>
     <path d="M 40.578125 39.3125 
Q 47.65625 37.796875 51.625 33 
Q 55.609375 28.21875 55.609375 21.1875 
Q 55.609375 10.40625 48.1875 4.484375 
Q 40.765625 -1.421875 27.09375 -1.421875 
Q 22.515625 -1.421875 17.65625 -0.515625 
Q 12.796875 0.390625 7.625 2.203125 
L 7.625 11.71875 
Q 11.71875 9.328125 16.59375 8.109375 
Q 21.484375 6.890625 26.8125 6.890625 
Q 36.078125 6.890625 40.9375 10.546875 
Q 45.796875 14.203125 45.796875 21.1875 
Q 45.796875 27.640625 41.28125 31.265625 
Q 36.765625 34.90625 28.71875 34.90625 
L 20.21875 34.90625 
L 20.21875 43.015625 
L 29.109375 43.015625 
Q 36.375 43.015625 40.234375 45.921875 
Q 44.09375 48.828125 44.09375 54.296875 
Q 44.09375 59.90625 40.109375 62.90625 
Q 36.140625 65.921875 28.71875 65.921875 
Q 24.65625 65.921875 20.015625 65.03125 
Q 15.375 64.15625 9.8125 62.3125 
L 9.8125 71.09375 
Q 15.4375 72.65625 20.34375 73.4375 
Q 25.25 74.21875 29.59375 74.21875 
Q 40.828125 74.21875 47.359375 69.109375 
Q 53.90625 64.015625 53.90625 55.328125 
Q 53.90625 49.265625 50.4375 45.09375 
Q 46.96875 40.921875 40.578125 39.3125 
" id="DejaVuSans-33"/>
    </defs>
    <g style="fill:#808080;" transform="translate(130.065125 289.387113)scale(0.1 -0.1)">
     <use xlink:href="#DejaVuSans-76"/>
     <use x="59.179688" xlink:href="#DejaVuSans-32"/>
     <use x="122.802734" xlink:href="#DejaVuSans-2e"/>
     <use x="154.589844" xlink:href="#DejaVuSans-32"/>
     <use x="218.212891" xlink:href="#DejaVuSans-2e"/>
     <use x="250" xlink:href="#DejaVuSans-31"/>
     <use x="313.623047" xlink:href="#DejaVuSans-2e"/>
     <use x="345.410156" xlink:href="#DejaVuSans-31"/>
     <use x="409.033203" xlink:href="#DejaVuSans-30"/>
     <use x="472.65625" xlink:href="#DejaVuSans-2c"/>
     <use x="504.443359" xlink:href="#DejaVuSans-20"/>
     <use x="536.230469" xlink:href="#DejaVuSans-68"/>
     <use x="599.609375" xlink:href="#DejaVuSans-76"/>
     <use x="658.757812" xlink:href="#DejaVuSans-2d"/>
     <use x="694.841797" xlink:href="#DejaVuSans-68"/>
     <use x="758.220703" xlink:href="#DejaVuSans-61"/>
     <use x="819.5" xlink:href="#DejaVuSans-73"/>
     <use x="871.599609" xlink:href="#DejaVuSans-68"/>
     <use x="934.978516" xlink:href="#DejaVuSans-3d"/>
     <use x="1018.767578" xlink:href="#DejaVuSans-66"/>
     <use x="1053.972656" xlink:href="#DejaVuSans-66"/>
     <use x="1089.177734" xlink:href="#DejaVuSans-30"/>
     <use x="1152.800781" xlink:href="#DejaVuSans-65"/>
     <use x="1214.324219" xlink:href="#DejaVuSans-37"/>
     <use x="1277.947266" xlink:href="#DejaVuSans-31"/>
     <use x="1341.570312" xlink:href="#DejaVuSans-65"/>
     <use x="1403.09375" xlink:href="#DejaVuSans-38"/>
     <use x="1466.716797" xlink:href="#DejaVuSans-63"/>
     <use x="1521.697266" xlink:href="#DejaVuSans-64"/>
     <use x="1585.173828" xlink:href="#DejaVuSans-39"/>
     <use x="1648.796875" xlink:href="#DejaVuSans-37"/>
     <use x="1712.419922" xlink:href="#DejaVuSans-38"/>
     <use x="1776.042969" xlink:href="#DejaVuSans-33"/>
     <use x="1839.666016" xlink:href="#DejaVuSans-37"/>
     <use x="1903.289062" xlink:href="#DejaVuSans-33"/>
    </g>
   </g>
   <g id="text_20">
    <!-- 11 sep. Ellipsoid/sep. Ellipsoid -->
    <g transform="translate(78.09325 18.84)scale(0.2 -0.2)">
     <use xlink:href="#DejaVuSans-31"/>
     <use x="63.623047" xlink:href="#DejaVuSans-31"/>
     <use x="127.246094" xlink:href="#DejaVuSans-20"/>
     <use x="159.033203" xlink:href="#DejaVuSans-73"/>
     <use x="211.132812" xlink:href="#DejaVuSans-65"/>
     <use x="272.65625" xlink:href="#DejaVuSans-70"/>
     <use x="336.132812" xlink:href="#DejaVuSans-2e"/>
     <use x="367.919922" xlink:href="#DejaVuSans-20"/>
     <use x="399.707031" xlink:href="#DejaVuSans-45"/>
     <use x="462.890625" xlink:href="#DejaVuSans-6c"/>
     <use x="490.673828" xlink:href="#DejaVuSans-6c"/>
     <use x="518.457031" xlink:href="#DejaVuSans-69"/>
     <use x="546.240234" xlink:href="#DejaVuSans-70"/>
     <use x="609.716797" xlink:href="#DejaVuSans-73"/>
     <use x="661.816406" xlink:href="#DejaVuSans-6f"/>
     <use x="722.998047" xlink:href="#DejaVuSans-69"/>
     <use x="750.78125" xlink:href="#DejaVuSans-64"/>
     <use x="814.257812" xlink:href="#DejaVuSans-2f"/>
     <use x="847.949219" xlink:href="#DejaVuSans-73"/>
     <use x="900.048828" xlink:href="#DejaVuSans-65"/>
     <use x="961.572266" xlink:href="#DejaVuSans-70"/>
     <use x="1025.048828" xlink:href="#DejaVuSans-2e"/>
     <use x="1056.835938" xlink:href="#DejaVuSans-20"/>
     <use x="1088.623047" xlink:href="#DejaVuSans-45"/>
     <use x="1151.806641" xlink:href="#DejaVuSans-6c"/>
     <use x="1179.589844" xlink:href="#DejaVuSans-6c"/>
     <use x="1207.373047" xlink:href="#DejaVuSans-69"/>
     <use x="1235.15625" xlink:href="#DejaVuSans-70"/>
     <use x="1298.632812" xlink:href="#DejaVuSans-73"/>
     <use x="1350.732422" xlink:href="#DejaVuSans-6f"/>
     <use x="1411.914062" xlink:href="#DejaVuSans-69"/>
     <use x="1439.697266" xlink:href="#DejaVuSans-64"/>
    </g>
   </g>
  </g>
 </g>
 <defs>
  <clipPath id="pf569731a16">
   <rect height="269.32" width="343.144" x="56.84" y="24.84"/>
  </clipPath>
 </defs>
</svg>
