<?xml version="1.0" encoding="utf-8" standalone="no"?>
<!DOCTYPE svg PUBLIC "-//W3C//DTD SVG 1.1//EN"
  "http://www.w3.org/Graphics/SVG/1.1/DTD/svg11.dtd">
<!-- Created with matplotlib (http://matplotlib.org/) -->
<svg height="345pt" version="1.1" viewBox="0 0 460 345" width="460pt" xmlns="http://www.w3.org/2000/svg" xmlns:xlink="http://www.w3.org/1999/xlink">
 <defs>
  <style type="text/css">
*{stroke-linecap:butt;stroke-linejoin:round;}
  </style>
 </defs>
 <g id="figure_1">
  <g id="patch_1">
   <path d="M 0 345.6 
L 460.8 345.6 
L 460.8 0 
L 0 0 
z
" style="fill:#ffffff;"/>
  </g>
  <g id="axes_1">
   <g id="patch_2">
    <path d="M 56.84 294.16 
L 395.58525 294.16 
L 395.58525 24.84 
L 56.84 24.84 
z
" style="fill:#ffffff;"/>
   </g>
   <g id="line2d_1">
    <path d="M 56.84 294.16 
L 56.84 280.367579 
L 68.587982 280.367579 
L 68.587982 271.172632 
L 92.083945 271.172632 
L 92.083945 266.575159 
L 97.481339 266.575159 
L 97.481339 252.782738 
L 104.353468 252.782738 
L 104.353468 243.587791 
L 114.766212 243.587791 
L 114.766212 238.990318 
L 123.808661 238.990318 
L 123.808661 229.79537 
L 130.016048 229.79537 
L 130.016048 216.00295 
L 135.31041 216.00295 
L 135.31041 206.808003 
L 141.305927 206.808003 
L 141.305927 197.613056 
L 147.983464 197.613056 
L 147.983464 188.418109 
L 154.040399 188.418109 
L 154.040399 183.820635 
L 160.701297 183.820635 
L 160.701297 170.028214 
L 167.218563 170.028214 
L 167.218563 165.430741 
L 179.626689 165.430741 
L 179.626689 151.63832 
L 191.58813 151.63832 
L 191.58813 142.443373 
L 197.508884 142.443373 
L 197.508884 137.8459 
L 204.268986 137.8459 
L 204.268986 124.053479 
L 211.835485 124.053479 
L 211.835485 119.456005 
L 218.570754 119.456005 
L 218.570754 105.663585 
L 227.02812 105.663585 
L 227.02812 96.468638 
L 233.796568 96.468638 
L 233.796568 87.273691 
L 239.468692 87.273691 
L 239.468692 82.676217 
L 245.70658 82.676217 
L 245.70658 73.48127 
L 252.226687 73.48127 
L 252.226687 59.688849 
L 330.021653 59.688849 
" style="fill:none;stroke:#f5deb3;stroke-linecap:square;stroke-width:6;"/>
   </g>
   <g id="line2d_2">
    <defs>
     <path d="M -0 7.778175 
L 7.778175 0 
L 0 -7.778175 
L -7.778175 -0 
z
" id="ma940ed26e2" style="stroke:#f5deb3;stroke-linejoin:miter;stroke-width:1.5;"/>
    </defs>
    <g>
     <use style="fill:#f5deb3;stroke:#f5deb3;stroke-linejoin:miter;stroke-width:1.5;" x="97.481339" xlink:href="#ma940ed26e2" y="266.575159"/>
     <use style="fill:#f5deb3;stroke:#f5deb3;stroke-linejoin:miter;stroke-width:1.5;" x="167.218563" xlink:href="#ma940ed26e2" y="165.430741"/>
     <use style="fill:#f5deb3;stroke:#f5deb3;stroke-linejoin:miter;stroke-width:1.5;" x="227.02812" xlink:href="#ma940ed26e2" y="96.468638"/>
     <use style="fill:#f5deb3;stroke:#f5deb3;stroke-linejoin:miter;stroke-width:1.5;" x="252.226687" xlink:href="#ma940ed26e2" y="59.688849"/>
     <use style="fill:#f5deb3;stroke:#f5deb3;stroke-linejoin:miter;stroke-width:1.5;" x="330.021653" xlink:href="#ma940ed26e2" y="59.688849"/>
    </g>
   </g>
   <g id="line2d_3">
    <path style="fill:none;stroke:#f5deb3;stroke-linecap:square;stroke-width:6;"/>
    <g/>
   </g>
   <g id="line2d_4">
    <path d="M 330.021653 59.688849 
L 360.071635 32.839604 
" style="fill:none;stroke:#f5deb3;stroke-linecap:square;stroke-width:6;"/>
    <g>
     <use style="fill:#f5deb3;stroke:#f5deb3;stroke-linejoin:miter;stroke-width:1.5;" x="330.021653" xlink:href="#ma940ed26e2" y="59.688849"/>
     <use style="fill:#f5deb3;stroke:#f5deb3;stroke-linejoin:miter;stroke-width:1.5;" x="360.071635" xlink:href="#ma940ed26e2" y="32.839604"/>
    </g>
   </g>
   <g id="matplotlib.axis_1">
    <g id="xtick_1">
     <g id="line2d_5">
      <path clip-path="url(#p203b2d9698)" d="M 56.84 294.16 
L 56.84 24.84 
" style="fill:none;stroke:#b0b0b0;stroke-linecap:square;stroke-width:0.8;"/>
     </g>
     <g id="line2d_6">
      <defs>
       <path d="M 0 0 
L 0 3.5 
" id="m8638e0bbad" style="stroke:#000000;stroke-width:0.8;"/>
      </defs>
      <g>
       <use style="stroke:#000000;stroke-width:0.8;" x="56.84" xlink:href="#m8638e0bbad" y="294.16"/>
      </g>
     </g>
     <g id="text_1">
      <!-- 0 -->
      <defs>
       <path d="M 31.78125 66.40625 
Q 24.171875 66.40625 20.328125 58.90625 
Q 16.5 51.421875 16.5 36.375 
Q 16.5 21.390625 20.328125 13.890625 
Q 24.171875 6.390625 31.78125 6.390625 
Q 39.453125 6.390625 43.28125 13.890625 
Q 47.125 21.390625 47.125 36.375 
Q 47.125 51.421875 43.28125 58.90625 
Q 39.453125 66.40625 31.78125 66.40625 
M 31.78125 74.21875 
Q 44.046875 74.21875 50.515625 64.515625 
Q 56.984375 54.828125 56.984375 36.375 
Q 56.984375 17.96875 50.515625 8.265625 
Q 44.046875 -1.421875 31.78125 -1.421875 
Q 19.53125 -1.421875 13.0625 8.265625 
Q 6.59375 17.96875 6.59375 36.375 
Q 6.59375 54.828125 13.0625 64.515625 
Q 19.53125 74.21875 31.78125 74.21875 
" id="DejaVuSans-30"/>
      </defs>
      <g transform="translate(50.4775 316.356875)scale(0.2 -0.2)">
       <use xlink:href="#DejaVuSans-30"/>
      </g>
     </g>
    </g>
    <g id="xtick_2">
     <g id="line2d_7">
      <path clip-path="url(#p203b2d9698)" d="M 134.891901 294.16 
L 134.891901 24.84 
" style="fill:none;stroke:#b0b0b0;stroke-linecap:square;stroke-width:0.8;"/>
     </g>
     <g id="line2d_8">
      <g>
       <use style="stroke:#000000;stroke-width:0.8;" x="134.891901" xlink:href="#m8638e0bbad" y="294.16"/>
      </g>
     </g>
     <g id="text_2">
      <!-- 2 -->
      <defs>
       <path d="M 19.1875 8.296875 
L 53.609375 8.296875 
L 53.609375 0 
L 7.328125 0 
L 7.328125 8.296875 
Q 12.9375 14.109375 22.625 23.890625 
Q 32.328125 33.6875 34.8125 36.53125 
Q 39.546875 41.84375 41.421875 45.53125 
Q 43.3125 49.21875 43.3125 52.78125 
Q 43.3125 58.59375 39.234375 62.25 
Q 35.15625 65.921875 28.609375 65.921875 
Q 23.96875 65.921875 18.8125 64.3125 
Q 13.671875 62.703125 7.8125 59.421875 
L 7.8125 69.390625 
Q 13.765625 71.78125 18.9375 73 
Q 24.125 74.21875 28.421875 74.21875 
Q 39.75 74.21875 46.484375 68.546875 
Q 53.21875 62.890625 53.21875 53.421875 
Q 53.21875 48.921875 51.53125 44.890625 
Q 49.859375 40.875 45.40625 35.40625 
Q 44.1875 33.984375 37.640625 27.21875 
Q 31.109375 20.453125 19.1875 8.296875 
" id="DejaVuSans-32"/>
      </defs>
      <g transform="translate(128.529401 316.356875)scale(0.2 -0.2)">
       <use xlink:href="#DejaVuSans-32"/>
      </g>
     </g>
    </g>
    <g id="xtick_3">
     <g id="line2d_9">
      <path clip-path="url(#p203b2d9698)" d="M 212.943802 294.16 
L 212.943802 24.84 
" style="fill:none;stroke:#b0b0b0;stroke-linecap:square;stroke-width:0.8;"/>
     </g>
     <g id="line2d_10">
      <g>
       <use style="stroke:#000000;stroke-width:0.8;" x="212.943802" xlink:href="#m8638e0bbad" y="294.16"/>
      </g>
     </g>
     <g id="text_3">
      <!-- 4 -->
      <defs>
       <path d="M 37.796875 64.3125 
L 12.890625 25.390625 
L 37.796875 25.390625 
z
M 35.203125 72.90625 
L 47.609375 72.90625 
L 47.609375 25.390625 
L 58.015625 25.390625 
L 58.015625 17.1875 
L 47.609375 17.1875 
L 47.609375 0 
L 37.796875 0 
L 37.796875 17.1875 
L 4.890625 17.1875 
L 4.890625 26.703125 
z
" id="DejaVuSans-34"/>
      </defs>
      <g transform="translate(206.581302 316.356875)scale(0.2 -0.2)">
       <use xlink:href="#DejaVuSans-34"/>
      </g>
     </g>
    </g>
    <g id="xtick_4">
     <g id="line2d_11">
      <path clip-path="url(#p203b2d9698)" d="M 290.995703 294.16 
L 290.995703 24.84 
" style="fill:none;stroke:#b0b0b0;stroke-linecap:square;stroke-width:0.8;"/>
     </g>
     <g id="line2d_12">
      <g>
       <use style="stroke:#000000;stroke-width:0.8;" x="290.995703" xlink:href="#m8638e0bbad" y="294.16"/>
      </g>
     </g>
     <g id="text_4">
      <!-- 6 -->
      <defs>
       <path d="M 33.015625 40.375 
Q 26.375 40.375 22.484375 35.828125 
Q 18.609375 31.296875 18.609375 23.390625 
Q 18.609375 15.53125 22.484375 10.953125 
Q 26.375 6.390625 33.015625 6.390625 
Q 39.65625 6.390625 43.53125 10.953125 
Q 47.40625 15.53125 47.40625 23.390625 
Q 47.40625 31.296875 43.53125 35.828125 
Q 39.65625 40.375 33.015625 40.375 
M 52.59375 71.296875 
L 52.59375 62.3125 
Q 48.875 64.0625 45.09375 64.984375 
Q 41.3125 65.921875 37.59375 65.921875 
Q 27.828125 65.921875 22.671875 59.328125 
Q 17.53125 52.734375 16.796875 39.40625 
Q 19.671875 43.65625 24.015625 45.921875 
Q 28.375 48.1875 33.59375 48.1875 
Q 44.578125 48.1875 50.953125 41.515625 
Q 57.328125 34.859375 57.328125 23.390625 
Q 57.328125 12.15625 50.6875 5.359375 
Q 44.046875 -1.421875 33.015625 -1.421875 
Q 20.359375 -1.421875 13.671875 8.265625 
Q 6.984375 17.96875 6.984375 36.375 
Q 6.984375 53.65625 15.1875 63.9375 
Q 23.390625 74.21875 37.203125 74.21875 
Q 40.921875 74.21875 44.703125 73.484375 
Q 48.484375 72.75 52.59375 71.296875 
" id="DejaVuSans-36"/>
      </defs>
      <g transform="translate(284.633203 316.356875)scale(0.2 -0.2)">
       <use xlink:href="#DejaVuSans-36"/>
      </g>
     </g>
    </g>
    <g id="xtick_5">
     <g id="line2d_13">
      <path clip-path="url(#p203b2d9698)" d="M 369.047604 294.16 
L 369.047604 24.84 
" style="fill:none;stroke:#b0b0b0;stroke-linecap:square;stroke-width:0.8;"/>
     </g>
     <g id="line2d_14">
      <g>
       <use style="stroke:#000000;stroke-width:0.8;" x="369.047604" xlink:href="#m8638e0bbad" y="294.16"/>
      </g>
     </g>
     <g id="text_5">
      <!-- 8 -->
      <defs>
       <path d="M 31.78125 34.625 
Q 24.75 34.625 20.71875 30.859375 
Q 16.703125 27.09375 16.703125 20.515625 
Q 16.703125 13.921875 20.71875 10.15625 
Q 24.75 6.390625 31.78125 6.390625 
Q 38.8125 6.390625 42.859375 10.171875 
Q 46.921875 13.96875 46.921875 20.515625 
Q 46.921875 27.09375 42.890625 30.859375 
Q 38.875 34.625 31.78125 34.625 
M 21.921875 38.8125 
Q 15.578125 40.375 12.03125 44.71875 
Q 8.5 49.078125 8.5 55.328125 
Q 8.5 64.0625 14.71875 69.140625 
Q 20.953125 74.21875 31.78125 74.21875 
Q 42.671875 74.21875 48.875 69.140625 
Q 55.078125 64.0625 55.078125 55.328125 
Q 55.078125 49.078125 51.53125 44.71875 
Q 48 40.375 41.703125 38.8125 
Q 48.828125 37.15625 52.796875 32.3125 
Q 56.78125 27.484375 56.78125 20.515625 
Q 56.78125 9.90625 50.3125 4.234375 
Q 43.84375 -1.421875 31.78125 -1.421875 
Q 19.734375 -1.421875 13.25 4.234375 
Q 6.78125 9.90625 6.78125 20.515625 
Q 6.78125 27.484375 10.78125 32.3125 
Q 14.796875 37.15625 21.921875 38.8125 
M 18.3125 54.390625 
Q 18.3125 48.734375 21.84375 45.5625 
Q 25.390625 42.390625 31.78125 42.390625 
Q 38.140625 42.390625 41.71875 45.5625 
Q 45.3125 48.734375 45.3125 54.390625 
Q 45.3125 60.0625 41.71875 63.234375 
Q 38.140625 66.40625 31.78125 66.40625 
Q 25.390625 66.40625 21.84375 63.234375 
Q 18.3125 60.0625 18.3125 54.390625 
" id="DejaVuSans-38"/>
      </defs>
      <g transform="translate(362.685104 316.356875)scale(0.2 -0.2)">
       <use xlink:href="#DejaVuSans-38"/>
      </g>
     </g>
    </g>
    <g id="xtick_6">
     <g id="line2d_15">
      <defs>
       <path d="M 0 0 
L 0 2 
" id="mca52eeeafa" style="stroke:#000000;stroke-width:0.6;"/>
      </defs>
      <g>
       <use style="stroke:#000000;stroke-width:0.6;" x="68.587982" xlink:href="#mca52eeeafa" y="294.16"/>
      </g>
     </g>
    </g>
    <g id="xtick_7">
     <g id="line2d_16">
      <g>
       <use style="stroke:#000000;stroke-width:0.6;" x="80.335963" xlink:href="#mca52eeeafa" y="294.16"/>
      </g>
     </g>
    </g>
    <g id="xtick_8">
     <g id="line2d_17">
      <g>
       <use style="stroke:#000000;stroke-width:0.6;" x="87.208092" xlink:href="#mca52eeeafa" y="294.16"/>
      </g>
     </g>
    </g>
    <g id="xtick_9">
     <g id="line2d_18">
      <g>
       <use style="stroke:#000000;stroke-width:0.6;" x="92.083945" xlink:href="#mca52eeeafa" y="294.16"/>
      </g>
     </g>
    </g>
    <g id="xtick_10">
     <g id="line2d_19">
      <g>
       <use style="stroke:#000000;stroke-width:0.6;" x="146.639883" xlink:href="#mca52eeeafa" y="294.16"/>
      </g>
     </g>
    </g>
    <g id="xtick_11">
     <g id="line2d_20">
      <g>
       <use style="stroke:#000000;stroke-width:0.6;" x="158.387864" xlink:href="#mca52eeeafa" y="294.16"/>
      </g>
     </g>
    </g>
    <g id="xtick_12">
     <g id="line2d_21">
      <g>
       <use style="stroke:#000000;stroke-width:0.6;" x="165.259993" xlink:href="#mca52eeeafa" y="294.16"/>
      </g>
     </g>
    </g>
    <g id="xtick_13">
     <g id="line2d_22">
      <g>
       <use style="stroke:#000000;stroke-width:0.6;" x="170.135846" xlink:href="#mca52eeeafa" y="294.16"/>
      </g>
     </g>
    </g>
    <g id="xtick_14">
     <g id="line2d_23">
      <g>
       <use style="stroke:#000000;stroke-width:0.6;" x="224.691784" xlink:href="#mca52eeeafa" y="294.16"/>
      </g>
     </g>
    </g>
    <g id="xtick_15">
     <g id="line2d_24">
      <g>
       <use style="stroke:#000000;stroke-width:0.6;" x="236.439765" xlink:href="#mca52eeeafa" y="294.16"/>
      </g>
     </g>
    </g>
    <g id="xtick_16">
     <g id="line2d_25">
      <g>
       <use style="stroke:#000000;stroke-width:0.6;" x="243.311894" xlink:href="#mca52eeeafa" y="294.16"/>
      </g>
     </g>
    </g>
    <g id="xtick_17">
     <g id="line2d_26">
      <g>
       <use style="stroke:#000000;stroke-width:0.6;" x="248.187747" xlink:href="#mca52eeeafa" y="294.16"/>
      </g>
     </g>
    </g>
    <g id="xtick_18">
     <g id="line2d_27">
      <g>
       <use style="stroke:#000000;stroke-width:0.6;" x="302.743684" xlink:href="#mca52eeeafa" y="294.16"/>
      </g>
     </g>
    </g>
    <g id="xtick_19">
     <g id="line2d_28">
      <g>
       <use style="stroke:#000000;stroke-width:0.6;" x="314.491666" xlink:href="#mca52eeeafa" y="294.16"/>
      </g>
     </g>
    </g>
    <g id="xtick_20">
     <g id="line2d_29">
      <g>
       <use style="stroke:#000000;stroke-width:0.6;" x="321.363795" xlink:href="#mca52eeeafa" y="294.16"/>
      </g>
     </g>
    </g>
    <g id="xtick_21">
     <g id="line2d_30">
      <g>
       <use style="stroke:#000000;stroke-width:0.6;" x="326.239648" xlink:href="#mca52eeeafa" y="294.16"/>
      </g>
     </g>
    </g>
    <g id="xtick_22">
     <g id="line2d_31">
      <g>
       <use style="stroke:#000000;stroke-width:0.6;" x="380.795585" xlink:href="#mca52eeeafa" y="294.16"/>
      </g>
     </g>
    </g>
    <g id="xtick_23">
     <g id="line2d_32">
      <g>
       <use style="stroke:#000000;stroke-width:0.6;" x="392.543567" xlink:href="#mca52eeeafa" y="294.16"/>
      </g>
     </g>
    </g>
    <g id="text_6">
     <!-- log10(# f-evals / dimension) -->
     <defs>
      <path d="M 9.421875 75.984375 
L 18.40625 75.984375 
L 18.40625 0 
L 9.421875 0 
z
" id="DejaVuSans-6c"/>
      <path d="M 30.609375 48.390625 
Q 23.390625 48.390625 19.1875 42.75 
Q 14.984375 37.109375 14.984375 27.296875 
Q 14.984375 17.484375 19.15625 11.84375 
Q 23.34375 6.203125 30.609375 6.203125 
Q 37.796875 6.203125 41.984375 11.859375 
Q 46.1875 17.53125 46.1875 27.296875 
Q 46.1875 37.015625 41.984375 42.703125 
Q 37.796875 48.390625 30.609375 48.390625 
M 30.609375 56 
Q 42.328125 56 49.015625 48.375 
Q 55.71875 40.765625 55.71875 27.296875 
Q 55.71875 13.875 49.015625 6.21875 
Q 42.328125 -1.421875 30.609375 -1.421875 
Q 18.84375 -1.421875 12.171875 6.21875 
Q 5.515625 13.875 5.515625 27.296875 
Q 5.515625 40.765625 12.171875 48.375 
Q 18.84375 56 30.609375 56 
" id="DejaVuSans-6f"/>
      <path d="M 45.40625 27.984375 
Q 45.40625 37.75 41.375 43.109375 
Q 37.359375 48.484375 30.078125 48.484375 
Q 22.859375 48.484375 18.828125 43.109375 
Q 14.796875 37.75 14.796875 27.984375 
Q 14.796875 18.265625 18.828125 12.890625 
Q 22.859375 7.515625 30.078125 7.515625 
Q 37.359375 7.515625 41.375 12.890625 
Q 45.40625 18.265625 45.40625 27.984375 
M 54.390625 6.78125 
Q 54.390625 -7.171875 48.1875 -13.984375 
Q 42 -20.796875 29.203125 -20.796875 
Q 24.46875 -20.796875 20.265625 -20.09375 
Q 16.0625 -19.390625 12.109375 -17.921875 
L 12.109375 -9.1875 
Q 16.0625 -11.328125 19.921875 -12.34375 
Q 23.78125 -13.375 27.78125 -13.375 
Q 36.625 -13.375 41.015625 -8.765625 
Q 45.40625 -4.15625 45.40625 5.171875 
L 45.40625 9.625 
Q 42.625 4.78125 38.28125 2.390625 
Q 33.9375 0 27.875 0 
Q 17.828125 0 11.671875 7.65625 
Q 5.515625 15.328125 5.515625 27.984375 
Q 5.515625 40.671875 11.671875 48.328125 
Q 17.828125 56 27.875 56 
Q 33.9375 56 38.28125 53.609375 
Q 42.625 51.21875 45.40625 46.390625 
L 45.40625 54.6875 
L 54.390625 54.6875 
z
" id="DejaVuSans-67"/>
      <path d="M 12.40625 8.296875 
L 28.515625 8.296875 
L 28.515625 63.921875 
L 10.984375 60.40625 
L 10.984375 69.390625 
L 28.421875 72.90625 
L 38.28125 72.90625 
L 38.28125 8.296875 
L 54.390625 8.296875 
L 54.390625 0 
L 12.40625 0 
z
" id="DejaVuSans-31"/>
      <path d="M 31 75.875 
Q 24.46875 64.65625 21.28125 53.65625 
Q 18.109375 42.671875 18.109375 31.390625 
Q 18.109375 20.125 21.3125 9.0625 
Q 24.515625 -2 31 -13.1875 
L 23.1875 -13.1875 
Q 15.875 -1.703125 12.234375 9.375 
Q 8.59375 20.453125 8.59375 31.390625 
Q 8.59375 42.28125 12.203125 53.3125 
Q 15.828125 64.359375 23.1875 75.875 
z
" id="DejaVuSans-28"/>
      <path d="M 51.125 44 
L 36.921875 44 
L 32.8125 27.6875 
L 47.125 27.6875 
z
M 43.796875 71.78125 
L 38.71875 51.515625 
L 52.984375 51.515625 
L 58.109375 71.78125 
L 65.921875 71.78125 
L 60.890625 51.515625 
L 76.125 51.515625 
L 76.125 44 
L 58.984375 44 
L 54.984375 27.6875 
L 70.515625 27.6875 
L 70.515625 20.21875 
L 53.078125 20.21875 
L 48 0 
L 40.1875 0 
L 45.21875 20.21875 
L 30.90625 20.21875 
L 25.875 0 
L 18.015625 0 
L 23.09375 20.21875 
L 7.71875 20.21875 
L 7.71875 27.6875 
L 24.90625 27.6875 
L 29 44 
L 13.28125 44 
L 13.28125 51.515625 
L 30.90625 51.515625 
L 35.890625 71.78125 
z
" id="DejaVuSans-23"/>
      <path id="DejaVuSans-20"/>
      <path d="M 37.109375 75.984375 
L 37.109375 68.5 
L 28.515625 68.5 
Q 23.6875 68.5 21.796875 66.546875 
Q 19.921875 64.59375 19.921875 59.515625 
L 19.921875 54.6875 
L 34.71875 54.6875 
L 34.71875 47.703125 
L 19.921875 47.703125 
L 19.921875 0 
L 10.890625 0 
L 10.890625 47.703125 
L 2.296875 47.703125 
L 2.296875 54.6875 
L 10.890625 54.6875 
L 10.890625 58.5 
Q 10.890625 67.625 15.140625 71.796875 
Q 19.390625 75.984375 28.609375 75.984375 
z
" id="DejaVuSans-66"/>
      <path d="M 4.890625 31.390625 
L 31.203125 31.390625 
L 31.203125 23.390625 
L 4.890625 23.390625 
z
" id="DejaVuSans-2d"/>
      <path d="M 56.203125 29.59375 
L 56.203125 25.203125 
L 14.890625 25.203125 
Q 15.484375 15.921875 20.484375 11.0625 
Q 25.484375 6.203125 34.421875 6.203125 
Q 39.59375 6.203125 44.453125 7.46875 
Q 49.3125 8.734375 54.109375 11.28125 
L 54.109375 2.78125 
Q 49.265625 0.734375 44.1875 -0.34375 
Q 39.109375 -1.421875 33.890625 -1.421875 
Q 20.796875 -1.421875 13.15625 6.1875 
Q 5.515625 13.8125 5.515625 26.8125 
Q 5.515625 40.234375 12.765625 48.109375 
Q 20.015625 56 32.328125 56 
Q 43.359375 56 49.78125 48.890625 
Q 56.203125 41.796875 56.203125 29.59375 
M 47.21875 32.234375 
Q 47.125 39.59375 43.09375 43.984375 
Q 39.0625 48.390625 32.421875 48.390625 
Q 24.90625 48.390625 20.390625 44.140625 
Q 15.875 39.890625 15.1875 32.171875 
z
" id="DejaVuSans-65"/>
      <path d="M 2.984375 54.6875 
L 12.5 54.6875 
L 29.59375 8.796875 
L 46.6875 54.6875 
L 56.203125 54.6875 
L 35.6875 0 
L 23.484375 0 
z
" id="DejaVuSans-76"/>
      <path d="M 34.28125 27.484375 
Q 23.390625 27.484375 19.1875 25 
Q 14.984375 22.515625 14.984375 16.5 
Q 14.984375 11.71875 18.140625 8.90625 
Q 21.296875 6.109375 26.703125 6.109375 
Q 34.1875 6.109375 38.703125 11.40625 
Q 43.21875 16.703125 43.21875 25.484375 
L 43.21875 27.484375 
z
M 52.203125 31.203125 
L 52.203125 0 
L 43.21875 0 
L 43.21875 8.296875 
Q 40.140625 3.328125 35.546875 0.953125 
Q 30.953125 -1.421875 24.3125 -1.421875 
Q 15.921875 -1.421875 10.953125 3.296875 
Q 6 8.015625 6 15.921875 
Q 6 25.140625 12.171875 29.828125 
Q 18.359375 34.515625 30.609375 34.515625 
L 43.21875 34.515625 
L 43.21875 35.40625 
Q 43.21875 41.609375 39.140625 45 
Q 35.0625 48.390625 27.6875 48.390625 
Q 23 48.390625 18.546875 47.265625 
Q 14.109375 46.140625 10.015625 43.890625 
L 10.015625 52.203125 
Q 14.9375 54.109375 19.578125 55.046875 
Q 24.21875 56 28.609375 56 
Q 40.484375 56 46.34375 49.84375 
Q 52.203125 43.703125 52.203125 31.203125 
" id="DejaVuSans-61"/>
      <path d="M 44.28125 53.078125 
L 44.28125 44.578125 
Q 40.484375 46.53125 36.375 47.5 
Q 32.28125 48.484375 27.875 48.484375 
Q 21.1875 48.484375 17.84375 46.4375 
Q 14.5 44.390625 14.5 40.28125 
Q 14.5 37.15625 16.890625 35.375 
Q 19.28125 33.59375 26.515625 31.984375 
L 29.59375 31.296875 
Q 39.15625 29.25 43.1875 25.515625 
Q 47.21875 21.78125 47.21875 15.09375 
Q 47.21875 7.46875 41.1875 3.015625 
Q 35.15625 -1.421875 24.609375 -1.421875 
Q 20.21875 -1.421875 15.453125 -0.5625 
Q 10.6875 0.296875 5.421875 2 
L 5.421875 11.28125 
Q 10.40625 8.6875 15.234375 7.390625 
Q 20.0625 6.109375 24.8125 6.109375 
Q 31.15625 6.109375 34.5625 8.28125 
Q 37.984375 10.453125 37.984375 14.40625 
Q 37.984375 18.0625 35.515625 20.015625 
Q 33.0625 21.96875 24.703125 23.78125 
L 21.578125 24.515625 
Q 13.234375 26.265625 9.515625 29.90625 
Q 5.8125 33.546875 5.8125 39.890625 
Q 5.8125 47.609375 11.28125 51.796875 
Q 16.75 56 26.8125 56 
Q 31.78125 56 36.171875 55.265625 
Q 40.578125 54.546875 44.28125 53.078125 
" id="DejaVuSans-73"/>
      <path d="M 25.390625 72.90625 
L 33.6875 72.90625 
L 8.296875 -9.28125 
L 0 -9.28125 
z
" id="DejaVuSans-2f"/>
      <path d="M 45.40625 46.390625 
L 45.40625 75.984375 
L 54.390625 75.984375 
L 54.390625 0 
L 45.40625 0 
L 45.40625 8.203125 
Q 42.578125 3.328125 38.25 0.953125 
Q 33.9375 -1.421875 27.875 -1.421875 
Q 17.96875 -1.421875 11.734375 6.484375 
Q 5.515625 14.40625 5.515625 27.296875 
Q 5.515625 40.1875 11.734375 48.09375 
Q 17.96875 56 27.875 56 
Q 33.9375 56 38.25 53.625 
Q 42.578125 51.265625 45.40625 46.390625 
M 14.796875 27.296875 
Q 14.796875 17.390625 18.875 11.75 
Q 22.953125 6.109375 30.078125 6.109375 
Q 37.203125 6.109375 41.296875 11.75 
Q 45.40625 17.390625 45.40625 27.296875 
Q 45.40625 37.203125 41.296875 42.84375 
Q 37.203125 48.484375 30.078125 48.484375 
Q 22.953125 48.484375 18.875 42.84375 
Q 14.796875 37.203125 14.796875 27.296875 
" id="DejaVuSans-64"/>
      <path d="M 9.421875 54.6875 
L 18.40625 54.6875 
L 18.40625 0 
L 9.421875 0 
z
M 9.421875 75.984375 
L 18.40625 75.984375 
L 18.40625 64.59375 
L 9.421875 64.59375 
z
" id="DejaVuSans-69"/>
      <path d="M 52 44.1875 
Q 55.375 50.25 60.0625 53.125 
Q 64.75 56 71.09375 56 
Q 79.640625 56 84.28125 50.015625 
Q 88.921875 44.046875 88.921875 33.015625 
L 88.921875 0 
L 79.890625 0 
L 79.890625 32.71875 
Q 79.890625 40.578125 77.09375 44.375 
Q 74.3125 48.1875 68.609375 48.1875 
Q 61.625 48.1875 57.5625 43.546875 
Q 53.515625 38.921875 53.515625 30.90625 
L 53.515625 0 
L 44.484375 0 
L 44.484375 32.71875 
Q 44.484375 40.625 41.703125 44.40625 
Q 38.921875 48.1875 33.109375 48.1875 
Q 26.21875 48.1875 22.15625 43.53125 
Q 18.109375 38.875 18.109375 30.90625 
L 18.109375 0 
L 9.078125 0 
L 9.078125 54.6875 
L 18.109375 54.6875 
L 18.109375 46.1875 
Q 21.1875 51.21875 25.484375 53.609375 
Q 29.78125 56 35.6875 56 
Q 41.65625 56 45.828125 52.96875 
Q 50 49.953125 52 44.1875 
" id="DejaVuSans-6d"/>
      <path d="M 54.890625 33.015625 
L 54.890625 0 
L 45.90625 0 
L 45.90625 32.71875 
Q 45.90625 40.484375 42.875 44.328125 
Q 39.84375 48.1875 33.796875 48.1875 
Q 26.515625 48.1875 22.3125 43.546875 
Q 18.109375 38.921875 18.109375 30.90625 
L 18.109375 0 
L 9.078125 0 
L 9.078125 54.6875 
L 18.109375 54.6875 
L 18.109375 46.1875 
Q 21.34375 51.125 25.703125 53.5625 
Q 30.078125 56 35.796875 56 
Q 45.21875 56 50.046875 50.171875 
Q 54.890625 44.34375 54.890625 33.015625 
" id="DejaVuSans-6e"/>
      <path d="M 8.015625 75.875 
L 15.828125 75.875 
Q 23.140625 64.359375 26.78125 53.3125 
Q 30.421875 42.28125 30.421875 31.390625 
Q 30.421875 20.453125 26.78125 9.375 
Q 23.140625 -1.703125 15.828125 -13.1875 
L 8.015625 -13.1875 
Q 14.5 -2 17.703125 9.0625 
Q 20.90625 20.125 20.90625 31.390625 
Q 20.90625 42.671875 17.703125 53.65625 
Q 14.5 64.65625 8.015625 75.875 
" id="DejaVuSans-29"/>
     </defs>
     <g transform="translate(105.371844 337.433594)scale(0.17 -0.17)">
      <use xlink:href="#DejaVuSans-6c"/>
      <use x="27.783203" xlink:href="#DejaVuSans-6f"/>
      <use x="88.964844" xlink:href="#DejaVuSans-67"/>
      <use x="152.441406" xlink:href="#DejaVuSans-31"/>
      <use x="216.064453" xlink:href="#DejaVuSans-30"/>
      <use x="279.6875" xlink:href="#DejaVuSans-28"/>
      <use x="318.701172" xlink:href="#DejaVuSans-23"/>
      <use x="402.490234" xlink:href="#DejaVuSans-20"/>
      <use x="434.277344" xlink:href="#DejaVuSans-66"/>
      <use x="469.404297" xlink:href="#DejaVuSans-2d"/>
      <use x="505.488281" xlink:href="#DejaVuSans-65"/>
      <use x="567.011719" xlink:href="#DejaVuSans-76"/>
      <use x="626.191406" xlink:href="#DejaVuSans-61"/>
      <use x="687.470703" xlink:href="#DejaVuSans-6c"/>
      <use x="715.253906" xlink:href="#DejaVuSans-73"/>
      <use x="767.353516" xlink:href="#DejaVuSans-20"/>
      <use x="799.140625" xlink:href="#DejaVuSans-2f"/>
      <use x="832.832031" xlink:href="#DejaVuSans-20"/>
      <use x="864.619141" xlink:href="#DejaVuSans-64"/>
      <use x="928.095703" xlink:href="#DejaVuSans-69"/>
      <use x="955.878906" xlink:href="#DejaVuSans-6d"/>
      <use x="1053.291016" xlink:href="#DejaVuSans-65"/>
      <use x="1114.814453" xlink:href="#DejaVuSans-6e"/>
      <use x="1178.193359" xlink:href="#DejaVuSans-73"/>
      <use x="1230.292969" xlink:href="#DejaVuSans-69"/>
      <use x="1258.076172" xlink:href="#DejaVuSans-6f"/>
      <use x="1319.257812" xlink:href="#DejaVuSans-6e"/>
      <use x="1382.636719" xlink:href="#DejaVuSans-29"/>
     </g>
    </g>
   </g>
   <g id="matplotlib.axis_2">
    <g id="ytick_1">
     <g id="line2d_33">
      <path clip-path="url(#p203b2d9698)" d="M 56.84 294.16 
L 395.58525 294.16 
" style="fill:none;stroke:#b0b0b0;stroke-linecap:square;stroke-width:0.8;"/>
     </g>
     <g id="line2d_34">
      <defs>
       <path d="M 0 0 
L -3.5 0 
" id="m4b042e5ba4" style="stroke:#000000;stroke-width:0.8;"/>
      </defs>
      <g>
       <use style="stroke:#000000;stroke-width:0.8;" x="56.84" xlink:href="#m4b042e5ba4" y="294.16"/>
      </g>
     </g>
     <g id="text_7">
      <!-- 0.0 -->
      <defs>
       <path d="M 10.6875 12.40625 
L 21 12.40625 
L 21 0 
L 10.6875 0 
z
" id="DejaVuSans-2e"/>
      </defs>
      <g transform="translate(24.395 300.23875)scale(0.16 -0.16)">
       <use xlink:href="#DejaVuSans-30"/>
       <use x="63.623047" xlink:href="#DejaVuSans-2e"/>
       <use x="95.410156" xlink:href="#DejaVuSans-30"/>
      </g>
     </g>
    </g>
    <g id="ytick_2">
     <g id="line2d_35">
      <path clip-path="url(#p203b2d9698)" d="M 56.84 240.829307 
L 395.58525 240.829307 
" style="fill:none;stroke:#b0b0b0;stroke-linecap:square;stroke-width:0.8;"/>
     </g>
     <g id="line2d_36">
      <g>
       <use style="stroke:#000000;stroke-width:0.8;" x="56.84" xlink:href="#m4b042e5ba4" y="240.829307"/>
      </g>
     </g>
     <g id="text_8">
      <!-- 0.2 -->
      <g transform="translate(24.395 246.908057)scale(0.16 -0.16)">
       <use xlink:href="#DejaVuSans-30"/>
       <use x="63.623047" xlink:href="#DejaVuSans-2e"/>
       <use x="95.410156" xlink:href="#DejaVuSans-32"/>
      </g>
     </g>
    </g>
    <g id="ytick_3">
     <g id="line2d_37">
      <path clip-path="url(#p203b2d9698)" d="M 56.84 187.498614 
L 395.58525 187.498614 
" style="fill:none;stroke:#b0b0b0;stroke-linecap:square;stroke-width:0.8;"/>
     </g>
     <g id="line2d_38">
      <g>
       <use style="stroke:#000000;stroke-width:0.8;" x="56.84" xlink:href="#m4b042e5ba4" y="187.498614"/>
      </g>
     </g>
     <g id="text_9">
      <!-- 0.4 -->
      <g transform="translate(24.395 193.577364)scale(0.16 -0.16)">
       <use xlink:href="#DejaVuSans-30"/>
       <use x="63.623047" xlink:href="#DejaVuSans-2e"/>
       <use x="95.410156" xlink:href="#DejaVuSans-34"/>
      </g>
     </g>
    </g>
    <g id="ytick_4">
     <g id="line2d_39">
      <path clip-path="url(#p203b2d9698)" d="M 56.84 134.167921 
L 395.58525 134.167921 
" style="fill:none;stroke:#b0b0b0;stroke-linecap:square;stroke-width:0.8;"/>
     </g>
     <g id="line2d_40">
      <g>
       <use style="stroke:#000000;stroke-width:0.8;" x="56.84" xlink:href="#m4b042e5ba4" y="134.167921"/>
      </g>
     </g>
     <g id="text_10">
      <!-- 0.6 -->
      <g transform="translate(24.395 140.246671)scale(0.16 -0.16)">
       <use xlink:href="#DejaVuSans-30"/>
       <use x="63.623047" xlink:href="#DejaVuSans-2e"/>
       <use x="95.410156" xlink:href="#DejaVuSans-36"/>
      </g>
     </g>
    </g>
    <g id="ytick_5">
     <g id="line2d_41">
      <path clip-path="url(#p203b2d9698)" d="M 56.84 80.837228 
L 395.58525 80.837228 
" style="fill:none;stroke:#b0b0b0;stroke-linecap:square;stroke-width:0.8;"/>
     </g>
     <g id="line2d_42">
      <g>
       <use style="stroke:#000000;stroke-width:0.8;" x="56.84" xlink:href="#m4b042e5ba4" y="80.837228"/>
      </g>
     </g>
     <g id="text_11">
      <!-- 0.8 -->
      <g transform="translate(24.395 86.915978)scale(0.16 -0.16)">
       <use xlink:href="#DejaVuSans-30"/>
       <use x="63.623047" xlink:href="#DejaVuSans-2e"/>
       <use x="95.410156" xlink:href="#DejaVuSans-38"/>
      </g>
     </g>
    </g>
    <g id="ytick_6">
     <g id="line2d_43">
      <path clip-path="url(#p203b2d9698)" d="M 56.84 27.506535 
L 395.58525 27.506535 
" style="fill:none;stroke:#b0b0b0;stroke-linecap:square;stroke-width:0.8;"/>
     </g>
     <g id="line2d_44">
      <g>
       <use style="stroke:#000000;stroke-width:0.8;" x="56.84" xlink:href="#m4b042e5ba4" y="27.506535"/>
      </g>
     </g>
     <g id="text_12">
      <!-- 1.0 -->
      <g transform="translate(24.395 33.585285)scale(0.16 -0.16)">
       <use xlink:href="#DejaVuSans-31"/>
       <use x="63.623047" xlink:href="#DejaVuSans-2e"/>
       <use x="95.410156" xlink:href="#DejaVuSans-30"/>
      </g>
     </g>
    </g>
    <g id="text_13">
     <!-- Fraction of function,target pairs -->
     <defs>
      <path d="M 9.8125 72.90625 
L 51.703125 72.90625 
L 51.703125 64.59375 
L 19.671875 64.59375 
L 19.671875 43.109375 
L 48.578125 43.109375 
L 48.578125 34.8125 
L 19.671875 34.8125 
L 19.671875 0 
L 9.8125 0 
z
" id="DejaVuSans-46"/>
      <path d="M 41.109375 46.296875 
Q 39.59375 47.171875 37.8125 47.578125 
Q 36.03125 48 33.890625 48 
Q 26.265625 48 22.1875 43.046875 
Q 18.109375 38.09375 18.109375 28.8125 
L 18.109375 0 
L 9.078125 0 
L 9.078125 54.6875 
L 18.109375 54.6875 
L 18.109375 46.1875 
Q 20.953125 51.171875 25.484375 53.578125 
Q 30.03125 56 36.53125 56 
Q 37.453125 56 38.578125 55.875 
Q 39.703125 55.765625 41.0625 55.515625 
z
" id="DejaVuSans-72"/>
      <path d="M 48.78125 52.59375 
L 48.78125 44.1875 
Q 44.96875 46.296875 41.140625 47.34375 
Q 37.3125 48.390625 33.40625 48.390625 
Q 24.65625 48.390625 19.8125 42.84375 
Q 14.984375 37.3125 14.984375 27.296875 
Q 14.984375 17.28125 19.8125 11.734375 
Q 24.65625 6.203125 33.40625 6.203125 
Q 37.3125 6.203125 41.140625 7.25 
Q 44.96875 8.296875 48.78125 10.40625 
L 48.78125 2.09375 
Q 45.015625 0.34375 40.984375 -0.53125 
Q 36.96875 -1.421875 32.421875 -1.421875 
Q 20.0625 -1.421875 12.78125 6.34375 
Q 5.515625 14.109375 5.515625 27.296875 
Q 5.515625 40.671875 12.859375 48.328125 
Q 20.21875 56 33.015625 56 
Q 37.15625 56 41.109375 55.140625 
Q 45.0625 54.296875 48.78125 52.59375 
" id="DejaVuSans-63"/>
      <path d="M 18.3125 70.21875 
L 18.3125 54.6875 
L 36.8125 54.6875 
L 36.8125 47.703125 
L 18.3125 47.703125 
L 18.3125 18.015625 
Q 18.3125 11.328125 20.140625 9.421875 
Q 21.96875 7.515625 27.59375 7.515625 
L 36.8125 7.515625 
L 36.8125 0 
L 27.59375 0 
Q 17.1875 0 13.234375 3.875 
Q 9.28125 7.765625 9.28125 18.015625 
L 9.28125 47.703125 
L 2.6875 47.703125 
L 2.6875 54.6875 
L 9.28125 54.6875 
L 9.28125 70.21875 
z
" id="DejaVuSans-74"/>
      <path d="M 8.5 21.578125 
L 8.5 54.6875 
L 17.484375 54.6875 
L 17.484375 21.921875 
Q 17.484375 14.15625 20.5 10.265625 
Q 23.53125 6.390625 29.59375 6.390625 
Q 36.859375 6.390625 41.078125 11.03125 
Q 45.3125 15.671875 45.3125 23.6875 
L 45.3125 54.6875 
L 54.296875 54.6875 
L 54.296875 0 
L 45.3125 0 
L 45.3125 8.40625 
Q 42.046875 3.421875 37.71875 1 
Q 33.40625 -1.421875 27.6875 -1.421875 
Q 18.265625 -1.421875 13.375 4.4375 
Q 8.5 10.296875 8.5 21.578125 
M 31.109375 56 
z
" id="DejaVuSans-75"/>
      <path d="M 11.71875 12.40625 
L 22.015625 12.40625 
L 22.015625 4 
L 14.015625 -11.625 
L 7.71875 -11.625 
L 11.71875 4 
z
" id="DejaVuSans-2c"/>
      <path d="M 18.109375 8.203125 
L 18.109375 -20.796875 
L 9.078125 -20.796875 
L 9.078125 54.6875 
L 18.109375 54.6875 
L 18.109375 46.390625 
Q 20.953125 51.265625 25.265625 53.625 
Q 29.59375 56 35.59375 56 
Q 45.5625 56 51.78125 48.09375 
Q 58.015625 40.1875 58.015625 27.296875 
Q 58.015625 14.40625 51.78125 6.484375 
Q 45.5625 -1.421875 35.59375 -1.421875 
Q 29.59375 -1.421875 25.265625 0.953125 
Q 20.953125 3.328125 18.109375 8.203125 
M 48.6875 27.296875 
Q 48.6875 37.203125 44.609375 42.84375 
Q 40.53125 48.484375 33.40625 48.484375 
Q 26.265625 48.484375 22.1875 42.84375 
Q 18.109375 37.203125 18.109375 27.296875 
Q 18.109375 17.390625 22.1875 11.75 
Q 26.265625 6.109375 33.40625 6.109375 
Q 40.53125 6.109375 44.609375 11.75 
Q 48.6875 17.390625 48.6875 27.296875 
" id="DejaVuSans-70"/>
     </defs>
     <g transform="translate(16.859531 294.639375)rotate(-90)scale(0.17 -0.17)">
      <use xlink:href="#DejaVuSans-46"/>
      <use x="57.410156" xlink:href="#DejaVuSans-72"/>
      <use x="98.523438" xlink:href="#DejaVuSans-61"/>
      <use x="159.802734" xlink:href="#DejaVuSans-63"/>
      <use x="214.783203" xlink:href="#DejaVuSans-74"/>
      <use x="253.992188" xlink:href="#DejaVuSans-69"/>
      <use x="281.775391" xlink:href="#DejaVuSans-6f"/>
      <use x="342.957031" xlink:href="#DejaVuSans-6e"/>
      <use x="406.335938" xlink:href="#DejaVuSans-20"/>
      <use x="438.123047" xlink:href="#DejaVuSans-6f"/>
      <use x="499.304688" xlink:href="#DejaVuSans-66"/>
      <use x="534.509766" xlink:href="#DejaVuSans-20"/>
      <use x="566.296875" xlink:href="#DejaVuSans-66"/>
      <use x="601.501953" xlink:href="#DejaVuSans-75"/>
      <use x="664.880859" xlink:href="#DejaVuSans-6e"/>
      <use x="728.259766" xlink:href="#DejaVuSans-63"/>
      <use x="783.240234" xlink:href="#DejaVuSans-74"/>
      <use x="822.449219" xlink:href="#DejaVuSans-69"/>
      <use x="850.232422" xlink:href="#DejaVuSans-6f"/>
      <use x="911.414062" xlink:href="#DejaVuSans-6e"/>
      <use x="974.792969" xlink:href="#DejaVuSans-2c"/>
      <use x="1006.580078" xlink:href="#DejaVuSans-74"/>
      <use x="1045.789062" xlink:href="#DejaVuSans-61"/>
      <use x="1107.068359" xlink:href="#DejaVuSans-72"/>
      <use x="1148.166016" xlink:href="#DejaVuSans-67"/>
      <use x="1211.642578" xlink:href="#DejaVuSans-65"/>
      <use x="1273.166016" xlink:href="#DejaVuSans-74"/>
      <use x="1312.375" xlink:href="#DejaVuSans-20"/>
      <use x="1344.162109" xlink:href="#DejaVuSans-70"/>
      <use x="1407.638672" xlink:href="#DejaVuSans-61"/>
      <use x="1468.917969" xlink:href="#DejaVuSans-69"/>
      <use x="1496.701172" xlink:href="#DejaVuSans-72"/>
      <use x="1537.814453" xlink:href="#DejaVuSans-73"/>
     </g>
    </g>
   </g>
   <g id="line2d_45">
    <defs>
     <path d="M 0 1.5 
C 0.397805 1.5 0.77937 1.341951 1.06066 1.06066 
C 1.341951 0.77937 1.5 0.397805 1.5 0 
C 1.5 -0.397805 1.341951 -0.77937 1.06066 -1.06066 
C 0.77937 -1.341951 0.397805 -1.5 0 -1.5 
C -0.397805 -1.5 -0.77937 -1.341951 -1.06066 -1.06066 
C -1.341951 -0.77937 -1.5 -0.397805 -1.5 0 
C -1.5 0.397805 -1.341951 0.77937 -1.06066 1.06066 
C -0.77937 1.341951 -0.397805 1.5 0 1.5 
z
" id="m6e80b2bcea" style="stroke:#f5deb3;"/>
    </defs>
    <g>
     <use style="fill:#f5deb3;stroke:#f5deb3;" x="252.226687" xlink:href="#m6e80b2bcea" y="59.688849"/>
     <use style="fill:#f5deb3;stroke:#f5deb3;" x="252.226687" xlink:href="#m6e80b2bcea" y="59.688849"/>
    </g>
   </g>
   <g id="line2d_46">
    <defs>
     <path d="M 0 1.5 
C 0.397805 1.5 0.77937 1.341951 1.06066 1.06066 
C 1.341951 0.77937 1.5 0.397805 1.5 0 
C 1.5 -0.397805 1.341951 -0.77937 1.06066 -1.06066 
C 0.77937 -1.341951 0.397805 -1.5 0 -1.5 
C -0.397805 -1.5 -0.77937 -1.341951 -1.06066 -1.06066 
C -1.341951 -0.77937 -1.5 -0.397805 -1.5 0 
C -1.5 0.397805 -1.341951 0.77937 -1.06066 1.06066 
C -0.77937 1.341951 -0.397805 1.5 0 1.5 
z
" id="mcdd69f8787" style="stroke:#000080;"/>
    </defs>
    <g>
     <use style="fill:#000080;stroke:#000080;" x="311.126731" xlink:href="#mcdd69f8787" y="96.468638"/>
     <use style="fill:#000080;stroke:#000080;" x="311.126731" xlink:href="#mcdd69f8787" y="96.468638"/>
    </g>
   </g>
   <g id="line2d_47">
    <path d="M 45.092018 294.16 
L 45.092018 287.723537 
L 107.184827 287.723537 
L 107.184827 286.344295 
L 117.098723 286.344295 
L 117.098723 285.4248 
L 132.725284 285.4248 
L 132.725284 284.965053 
L 136.50729 284.965053 
L 136.50729 282.666316 
L 140.894672 282.666316 
L 140.894672 282.206569 
L 141.65066 282.206569 
L 141.65066 278.988337 
L 143.224634 278.988337 
L 143.276386 276.229853 
L 143.430701 276.229853 
L 143.481828 274.850611 
L 143.935165 274.850611 
L 143.935165 274.390864 
L 144.425048 274.390864 
L 144.425048 271.172632 
L 145.087933 271.172632 
L 145.087933 269.79339 
L 146.210777 269.79339 
L 146.210777 269.333643 
L 146.639883 269.333643 
L 146.639883 268.414148 
L 147.140868 268.414148 
L 147.140868 267.494653 
L 147.385914 267.494653 
L 147.426413 266.575159 
L 147.627468 266.575159 
L 147.627468 264.276422 
L 148.061569 264.276422 
L 148.061569 263.816675 
L 148.370439 263.816675 
L 148.370439 262.89718 
L 148.484829 262.89718 
L 148.484829 261.517938 
L 148.748775 261.517938 
L 148.748775 261.058191 
L 149.045479 261.058191 
L 149.045479 260.598443 
L 150.182929 260.598443 
L 150.182929 260.138696 
L 150.590534 260.138696 
L 150.690921 257.839959 
L 150.889931 257.839959 
L 150.955751 253.242485 
L 151.08663 253.242485 
L 151.184131 251.863243 
L 151.216506 251.863243 
L 151.216506 251.403496 
L 151.694866 251.403496 
L 151.788939 248.185265 
L 152.937422 248.185265 
L 153.024862 244.047538 
L 153.140752 244.047538 
L 153.140752 243.587791 
L 153.568413 243.587791 
L 153.652666 240.829307 
L 153.708602 240.829307 
L 153.708602 239.909812 
L 154.012996 239.909812 
L 154.012996 239.450065 
L 154.14957 239.450065 
L 154.203893 238.070823 
L 154.419461 238.070823 
L 154.419461 235.312339 
L 155.280784 235.312339 
L 155.280784 234.852591 
L 155.407551 234.852591 
L 155.508287 231.174612 
L 155.558431 231.174612 
L 155.558431 230.714865 
L 156.197156 230.714865 
L 156.269329 229.335623 
L 156.341197 229.335623 
L 156.341197 228.416128 
L 156.460303 228.416128 
L 156.554989 226.577139 
L 156.649149 226.577139 
L 156.696034 224.73815 
L 157.271403 224.73815 
L 157.271403 224.278402 
L 157.451471 224.278402 
L 157.451471 223.358907 
L 157.56305 223.358907 
L 157.56305 222.89916 
L 157.805968 222.89916 
L 157.805968 222.439413 
L 157.937016 222.439413 
L 157.937016 221.979665 
L 158.345439 221.979665 
L 158.345439 221.519918 
L 158.661068 221.519918 
L 158.723494 220.140676 
L 158.847661 220.140676 
L 158.847661 219.680929 
L 159.59389 219.680929 
L 159.613609 217.841939 
L 159.926038 217.841939 
L 159.926038 216.00295 
L 160.421762 216.00295 
L 160.478039 213.704213 
L 160.53413 213.704213 
L 160.571421 210.485982 
L 161.030765 210.485982 
L 161.048882 208.187245 
L 161.175164 208.187245 
L 161.193128 204.969013 
L 162.18681 204.969013 
L 162.18681 204.509266 
L 162.355288 204.509266 
L 162.355288 204.049519 
L 162.621417 204.049519 
L 162.621417 201.291034 
L 163.583762 201.291034 
L 163.661544 198.992298 
L 163.846779 198.992298 
L 163.908076 196.693561 
L 164.105776 196.693561 
L 164.211282 194.394824 
L 164.375762 194.394824 
L 164.390636 193.015582 
L 164.582817 193.015582 
L 164.582817 191.63634 
L 164.772844 191.63634 
L 164.772844 189.797351 
L 164.931988 189.797351 
L 164.931988 189.337603 
L 165.217568 189.337603 
L 165.217568 188.877856 
L 165.650921 188.877856 
L 165.650921 188.418109 
L 165.911149 188.418109 
L 165.911149 187.958361 
L 166.875382 187.958361 
L 166.875382 187.498614 
L 167.054195 187.498614 
L 167.054195 186.119372 
L 167.256269 186.119372 
L 167.318926 185.199877 
L 167.65333 185.199877 
L 167.65333 184.74013 
L 168.136922 184.74013 
L 168.136922 183.820635 
L 169.825832 183.820635 
L 169.825832 183.360888 
L 171.173325 183.360888 
L 171.173325 182.441393 
L 171.31225 182.441393 
L 171.31225 181.981646 
L 171.770484 181.981646 
L 171.770484 181.521898 
L 172.550631 181.521898 
L 172.550631 180.602404 
L 172.751534 180.602404 
L 172.751534 180.142656 
L 173.514801 180.142656 
L 173.514801 178.303667 
L 174.598883 178.303667 
L 174.69629 176.464677 
L 174.881436 176.464677 
L 174.881436 175.545183 
L 175.617773 175.545183 
L 175.617773 174.625688 
L 176.138617 174.625688 
L 176.138617 173.706193 
L 176.80193 173.706193 
L 176.816221 171.867204 
L 178.397161 171.867204 
L 178.397161 170.947709 
L 179.456409 170.947709 
L 179.456409 170.487962 
L 179.747278 170.487962 
L 179.747278 170.028214 
L 182.141389 170.028214 
L 182.141389 168.648972 
L 182.695621 168.648972 
L 182.695621 166.350236 
L 182.931268 166.350236 
L 182.931268 165.430741 
L 183.628725 165.430741 
L 183.628725 164.511246 
L 184.494976 164.511246 
L 184.494976 163.132004 
L 186.812563 163.132004 
L 186.812563 162.212509 
L 188.137478 162.212509 
L 188.232429 161.293015 
L 188.471097 161.293015 
L 188.557058 159.454025 
L 191.050896 159.454025 
L 191.050896 157.615036 
L 191.477226 157.615036 
L 191.477226 157.155288 
L 194.145645 157.155288 
L 194.145645 156.695541 
L 194.997395 156.695541 
L 194.997395 156.235794 
L 195.455367 156.235794 
L 195.455367 155.776046 
L 198.025509 155.776046 
L 198.025509 154.396804 
L 199.868971 154.396804 
L 199.868971 152.557815 
L 200.670836 152.557815 
L 200.670836 152.098068 
L 201.117676 152.098068 
L 201.117676 151.63832 
L 201.883363 151.63832 
L 201.924001 150.718826 
L 202.328288 150.718826 
L 202.328288 149.339583 
L 206.695216 149.339583 
L 206.695216 147.960341 
L 208.602907 147.960341 
L 208.602907 147.500594 
L 208.717474 147.500594 
L 208.717474 147.040847 
L 209.587538 147.040847 
L 209.587538 146.581099 
L 212.525123 146.581099 
L 212.525123 146.121352 
L 212.940412 146.121352 
L 212.940412 145.661605 
L 213.095658 145.661605 
L 213.176931 144.282363 
L 215.012989 144.282363 
L 215.012989 142.903121 
L 215.471751 142.903121 
L 215.471751 141.523878 
L 215.601922 141.523878 
L 215.601922 140.144636 
L 215.897078 140.144636 
L 215.936189 138.765394 
L 218.756398 138.765394 
L 218.756398 138.305647 
L 219.792751 138.305647 
L 219.792751 137.8459 
L 220.677264 137.8459 
L 220.677264 137.386152 
L 221.698836 137.386152 
L 221.698836 136.926405 
L 222.444565 136.926405 
L 222.444565 136.00691 
L 223.207956 136.00691 
L 223.207956 135.087416 
L 226.060789 135.087416 
L 226.060789 134.167921 
L 226.260885 134.167921 
L 226.260885 133.708173 
L 227.026274 133.708173 
L 227.026274 133.248426 
L 227.234691 133.248426 
L 227.234691 132.788679 
L 228.021374 132.788679 
L 228.021374 132.328931 
L 228.647468 132.328931 
L 228.647468 131.409437 
L 230.550025 131.409437 
L 230.550025 130.489942 
L 231.589316 130.489942 
L 231.589316 128.650953 
L 232.010508 128.650953 
L 232.010508 126.811963 
L 232.472433 126.811963 
L 232.472433 126.352216 
L 233.780961 126.352216 
L 233.834905 125.432721 
L 236.024127 125.432721 
L 236.024127 124.513226 
L 236.223996 124.513226 
L 236.223996 123.593732 
L 236.376939 123.593732 
L 236.376939 122.21449 
L 238.982491 122.21449 
L 238.982491 120.835248 
L 241.074671 120.835248 
L 241.074671 119.915753 
L 241.513448 119.915753 
L 241.513448 119.456005 
L 242.516415 119.456005 
L 242.516415 118.076763 
L 243.236446 118.076763 
L 243.236446 117.157269 
L 245.542445 117.157269 
L 245.542445 116.697521 
L 246.205263 116.697521 
L 246.205263 116.237774 
L 247.525852 116.237774 
L 247.525852 115.318279 
L 247.731241 115.318279 
L 247.731241 114.858532 
L 248.339288 114.858532 
L 248.339288 113.939037 
L 251.206217 113.939037 
L 251.206217 113.47929 
L 256.195514 113.47929 
L 256.195514 113.019543 
L 257.618093 113.019543 
L 257.618093 112.559795 
L 259.137307 112.559795 
L 259.137418 111.6403 
L 260.472414 111.6403 
L 260.472414 111.180553 
L 261.736107 111.180553 
L 261.736107 110.720806 
L 263.34529 110.720806 
L 263.34529 110.261058 
L 267.681503 110.261058 
L 267.773743 109.341564 
L 269.298321 109.341564 
L 269.298321 108.881816 
L 269.470837 108.881816 
L 269.470958 107.502574 
L 270.345689 107.502574 
L 270.345689 107.042827 
L 274.080595 107.042827 
L 274.080595 106.58308 
L 274.205681 106.58308 
L 274.205681 106.123332 
L 274.509026 106.123332 
L 274.509071 104.74409 
L 278.488759 104.74409 
L 278.58935 103.824595 
L 281.70946 103.824595 
L 281.792656 102.445353 
L 284.41478 102.445353 
L 284.414805 101.525859 
L 286.808933 101.525859 
L 286.808933 101.066111 
L 288.796978 101.066111 
L 288.796978 100.606364 
L 293.77948 100.606364 
L 293.77948 100.146617 
L 298.734947 100.146617 
L 298.734947 99.227122 
L 300.757675 99.227122 
L 300.75769 97.84788 
L 302.56452 97.84788 
L 302.56452 97.388132 
L 304.197174 97.388132 
L 304.197174 96.928385 
L 311.126731 96.928385 
L 311.126731 96.468638 
L 330.021653 96.468638 
L 330.021653 96.468638 
" style="fill:none;stroke:#000080;stroke-linecap:square;stroke-width:1.5;"/>
   </g>
   <g id="line2d_48">
    <defs>
     <path d="M 0 6 
C 1.591219 6 3.117479 5.367802 4.242641 4.242641 
C 5.367802 3.117479 6 1.591219 6 0 
C 6 -1.591219 5.367802 -3.117479 4.242641 -4.242641 
C 3.117479 -5.367802 1.591219 -6 0 -6 
C -1.591219 -6 -3.117479 -5.367802 -4.242641 -4.242641 
C -5.367802 -3.117479 -6 -1.591219 -6 0 
C -6 1.591219 -5.367802 3.117479 -4.242641 4.242641 
C -3.117479 5.367802 -1.591219 6 0 6 
z
" id="m78d24b06fb" style="stroke:#000080;stroke-width:1.5;"/>
    </defs>
    <g>
     <use style="fill:none;stroke:#000080;stroke-width:1.5;" x="143.276386" xlink:href="#m78d24b06fb" y="276.229853"/>
     <use style="fill:none;stroke:#000080;stroke-width:1.5;" x="161.193128" xlink:href="#m78d24b06fb" y="204.969013"/>
     <use style="fill:none;stroke:#000080;stroke-width:1.5;" x="226.260885" xlink:href="#m78d24b06fb" y="134.167921"/>
     <use style="fill:none;stroke:#000080;stroke-width:1.5;" x="311.126731" xlink:href="#m78d24b06fb" y="96.928385"/>
     <use style="fill:none;stroke:#000080;stroke-width:1.5;" x="311.126731" xlink:href="#m78d24b06fb" y="96.468638"/>
     <use style="fill:none;stroke:#000080;stroke-width:1.5;" x="330.021653" xlink:href="#m78d24b06fb" y="96.468638"/>
    </g>
   </g>
   <g id="line2d_49">
    <path style="fill:none;stroke:#000080;stroke-linecap:square;stroke-width:1.5;"/>
    <g/>
   </g>
   <g id="line2d_50">
    <path clip-path="url(#p203b2d9698)" d="M 251.979495 113.47929 
" style="fill:none;stroke:#000080;stroke-linecap:square;stroke-width:1.5;"/>
    <defs>
     <path d="M -12 12 
L 12 -12 
M -12 -12 
L 12 12 
" id="m74e38b2daf" style="stroke:#000080;stroke-width:3;"/>
    </defs>
    <g clip-path="url(#p203b2d9698)">
     <use style="fill:#000080;stroke:#000080;stroke-width:3;" x="251.979495" xlink:href="#m74e38b2daf" y="113.47929"/>
    </g>
   </g>
   <g id="line2d_51">
    <defs>
     <path d="M 0 1.5 
C 0.397805 1.5 0.77937 1.341951 1.06066 1.06066 
C 1.341951 0.77937 1.5 0.397805 1.5 0 
C 1.5 -0.397805 1.341951 -0.77937 1.06066 -1.06066 
C 0.77937 -1.341951 0.397805 -1.5 0 -1.5 
C -0.397805 -1.5 -0.77937 -1.341951 -1.06066 -1.06066 
C -1.341951 -0.77937 -1.5 -0.397805 -1.5 0 
C -1.5 0.397805 -1.341951 0.77937 -1.06066 1.06066 
C -0.77937 1.341951 -0.397805 1.5 0 1.5 
z
" id="m86517a938b" style="stroke:#ff00ff;"/>
    </defs>
    <g>
     <use style="fill:#ff00ff;stroke:#ff00ff;" x="343.960566" xlink:href="#m86517a938b" y="96.468638"/>
     <use style="fill:#ff00ff;stroke:#ff00ff;" x="343.960566" xlink:href="#m86517a938b" y="96.468638"/>
    </g>
   </g>
   <g id="line2d_52">
    <path d="M 45.092018 294.16 
L 45.092018 290.941769 
L 63.712129 290.941769 
L 63.712129 279.448085 
L 68.587982 279.448085 
L 68.587982 269.79339 
L 75.46011 269.79339 
L 75.46011 268.414148 
L 80.335963 268.414148 
L 80.335963 267.494653 
L 85.733358 267.494653 
L 85.733358 266.115411 
L 89.820754 266.115411 
L 89.820754 265.655664 
L 92.083945 265.655664 
L 92.083945 264.276422 
L 107.613932 264.276422 
L 107.613932 262.437433 
L 112.06068 262.437433 
L 112.06068 258.299706 
L 115.579908 258.299706 
L 115.579908 257.380212 
L 117.809964 257.380212 
L 117.809964 256.00097 
L 121.35819 256.00097 
L 121.35819 255.541222 
L 121.545471 255.541222 
L 121.545471 254.16198 
L 122.274562 254.16198 
L 122.274562 253.242485 
L 123.644904 253.242485 
L 123.644904 252.322991 
L 128.104305 252.322991 
L 128.104305 250.484001 
L 128.725208 250.484001 
L 128.725208 250.024254 
L 129.557946 250.024254 
L 129.557946 249.564507 
L 129.788544 249.564507 
L 129.788544 248.645012 
L 130.351678 248.645012 
L 130.351678 247.725517 
L 131.215496 247.725517 
L 131.215496 246.806023 
L 133.011749 246.806023 
L 133.011749 243.128044 
L 135.879486 243.128044 
L 135.879486 242.668296 
L 136.963338 242.668296 
L 136.963338 242.208549 
L 139.533091 242.208549 
L 139.533091 240.829307 
L 139.725329 240.829307 
L 139.725329 239.909812 
L 142.374362 239.909812 
L 142.374362 238.070823 
L 144.617104 238.070823 
L 144.617104 237.151328 
L 144.759731 237.151328 
L 144.759731 236.691581 
L 145.4554 236.691581 
L 145.4554 235.772086 
L 145.636188 235.772086 
L 145.636188 233.473349 
L 146.682202 233.473349 
L 146.682202 232.094107 
L 147.707227 232.094107 
L 147.707227 230.714865 
L 148.408655 230.714865 
L 148.408655 230.255118 
L 151.377464 230.255118 
L 151.377464 229.335623 
L 151.63186 229.335623 
L 151.63186 228.416128 
L 152.19066 228.416128 
L 152.19066 227.496634 
L 152.433223 227.496634 
L 152.433223 226.577139 
L 152.790679 226.577139 
L 152.790679 226.117392 
L 153.708602 226.117392 
L 153.708602 225.657644 
L 155.856221 225.657644 
L 155.856221 224.73815 
L 157.429067 224.73815 
L 157.429067 224.278402 
L 158.681902 224.278402 
L 158.681902 222.439413 
L 158.847661 222.439413 
L 158.847661 221.519918 
L 159.574148 221.519918 
L 159.574148 220.600423 
L 162.254402 220.600423 
L 162.254402 220.140676 
L 164.316135 220.140676 
L 164.316135 219.221181 
L 164.523916 219.221181 
L 164.523916 218.301687 
L 165.217568 218.301687 
L 165.217568 216.922445 
L 166.113807 216.922445 
L 166.113807 216.462697 
L 167.381353 216.462697 
L 167.381353 215.543202 
L 169.804241 215.543202 
L 169.804241 215.083455 
L 170.314977 215.083455 
L 170.314977 214.623708 
L 172.122703 214.623708 
L 172.122703 212.784718 
L 173.084138 212.784718 
L 173.084138 211.405476 
L 173.627245 211.405476 
L 173.627245 210.945729 
L 178.507408 210.945729 
L 178.507408 209.566487 
L 179.425821 209.566487 
L 179.425821 209.10674 
L 181.681357 209.10674 
L 181.681357 207.727497 
L 184.238796 207.727497 
L 184.238796 206.348255 
L 184.680112 206.348255 
L 184.680112 205.428761 
L 185.657357 205.428761 
L 185.750366 203.130024 
L 185.876379 203.130024 
L 185.876379 202.670277 
L 186.104999 202.670277 
L 186.104999 200.37154 
L 188.896611 200.37154 
L 188.896611 198.53255 
L 189.693501 198.53255 
L 189.693501 198.072803 
L 190.512 198.072803 
L 190.512 197.613056 
L 191.807784 197.613056 
L 191.90776 195.314319 
L 192.39613 195.314319 
L 192.39613 194.854572 
L 197.527834 194.854572 
L 197.527834 194.394824 
L 198.722131 194.394824 
L 198.722131 193.935077 
L 198.83745 193.935077 
L 198.83745 192.555835 
L 200.827448 192.555835 
L 200.827448 191.176593 
L 203.274755 191.176593 
L 203.274755 190.716845 
L 204.492304 190.716845 
L 204.492304 190.257098 
L 204.799265 190.257098 
L 204.799265 189.337603 
L 209.200945 189.337603 
L 209.200945 188.877856 
L 209.742811 188.877856 
L 209.742811 187.958361 
L 210.055183 187.958361 
L 210.055183 187.498614 
L 210.423962 187.498614 
L 210.423962 186.579119 
L 211.588519 186.579119 
L 211.625199 184.280382 
L 212.051235 184.280382 
L 212.051235 183.820635 
L 213.694698 183.820635 
L 213.694698 182.90114 
L 214.256825 182.90114 
L 214.256825 181.981646 
L 215.280876 181.981646 
L 215.280876 181.521898 
L 216.477907 181.521898 
L 216.477907 180.602404 
L 216.65243 180.602404 
L 216.676924 177.384172 
L 217.144978 177.384172 
L 217.144978 175.545183 
L 217.779778 175.545183 
L 217.779778 174.625688 
L 218.983997 174.625688 
L 218.983997 174.165941 
L 222.782728 174.165941 
L 222.782728 173.706193 
L 223.255986 173.706193 
L 223.255986 173.246446 
L 223.896748 173.246446 
L 223.896748 172.786699 
L 224.994564 172.786699 
L 224.994564 172.326951 
L 225.830988 172.326951 
L 225.830988 171.867204 
L 225.995393 171.867204 
L 225.995393 170.947709 
L 227.441298 170.947709 
L 227.441298 170.487962 
L 227.594438 170.487962 
L 227.594438 170.028214 
L 228.313375 170.028214 
L 228.313375 169.568467 
L 228.858864 169.568467 
L 228.858864 169.10872 
L 231.065712 169.10872 
L 231.065712 168.648972 
L 232.039647 168.648972 
L 232.039647 167.729478 
L 233.027367 167.729478 
L 233.027367 166.809983 
L 234.14143 166.809983 
L 234.250021 165.890488 
L 235.423928 165.890488 
L 235.423928 165.430741 
L 237.000295 165.430741 
L 237.000295 164.511246 
L 237.60213 164.511246 
L 237.60213 164.051499 
L 239.287348 164.051499 
L 239.287348 163.132004 
L 240.356989 163.132004 
L 240.356989 162.212509 
L 242.461259 162.212509 
L 242.461259 160.833267 
L 244.234866 160.833267 
L 244.234866 160.37352 
L 244.501865 160.37352 
L 244.501865 158.994278 
L 244.645557 158.994278 
L 244.645557 158.534531 
L 245.867561 158.534531 
L 245.867561 156.235794 
L 248.89684 156.235794 
L 248.89684 155.776046 
L 249.933887 155.776046 
L 249.933887 155.316299 
L 250.978821 155.316299 
L 250.978821 154.856552 
L 251.230666 154.856552 
L 251.230666 154.396804 
L 251.440921 154.396804 
L 251.447914 153.47731 
L 252.500823 153.47731 
L 252.500823 153.017562 
L 255.23649 153.017562 
L 255.23649 152.557815 
L 256.281547 152.557815 
L 256.281547 151.178573 
L 256.560667 151.178573 
L 256.560667 150.259078 
L 256.949163 150.259078 
L 256.949163 149.799331 
L 257.359441 149.799331 
L 257.359441 148.879836 
L 257.712079 148.879836 
L 257.712079 147.960341 
L 258.050605 147.960341 
L 258.050605 147.500594 
L 259.317231 147.500594 
L 259.317231 146.581099 
L 261.313281 146.581099 
L 261.313281 146.121352 
L 262.86037 146.121352 
L 262.86037 145.201857 
L 263.05509 145.201857 
L 263.05509 144.282363 
L 263.98927 144.282363 
L 263.98927 142.443373 
L 264.357768 142.443373 
L 264.357768 141.523878 
L 265.079859 141.523878 
L 265.079859 140.604384 
L 268.600725 140.604384 
L 268.600725 140.144636 
L 268.732735 140.144636 
L 268.829945 139.225142 
L 268.965941 139.225142 
L 268.965941 138.305647 
L 269.759561 138.305647 
L 269.759561 137.8459 
L 272.350184 137.8459 
L 272.350184 137.386152 
L 273.044237 137.386152 
L 273.044237 136.926405 
L 273.451791 136.926405 
L 273.451791 136.00691 
L 273.797115 136.00691 
L 273.797115 135.547163 
L 274.943506 135.547163 
L 274.943506 134.167921 
L 275.454865 134.167921 
L 275.454865 132.788679 
L 279.754826 132.788679 
L 279.754826 131.869184 
L 280.455625 131.869184 
L 280.455625 130.489942 
L 281.012217 130.489942 
L 281.012217 130.030195 
L 281.373322 130.030195 
L 281.373322 129.1107 
L 284.464039 129.1107 
L 284.484782 127.731458 
L 286.342121 127.731458 
L 286.405924 124.513226 
L 289.461194 124.513226 
L 289.461194 124.053479 
L 291.781626 124.053479 
L 291.781626 123.593732 
L 292.660064 123.593732 
L 292.660064 123.133984 
L 293.129278 123.133984 
L 293.129278 122.674237 
L 294.99883 122.674237 
L 295.052232 121.754742 
L 296.55092 121.754742 
L 296.55092 121.294995 
L 296.783533 121.294995 
L 296.783533 120.3755 
L 298.280106 120.3755 
L 298.280106 119.915753 
L 298.476638 119.915753 
L 298.500531 118.076763 
L 298.606384 118.076763 
L 298.606384 117.157269 
L 300.307536 117.157269 
L 300.307536 116.697521 
L 300.57611 116.697521 
L 300.57611 114.858532 
L 303.893004 114.858532 
L 303.893004 113.939037 
L 304.881474 113.939037 
L 304.881474 113.47929 
L 305.453498 113.47929 
L 305.453498 113.019543 
L 305.883469 113.019543 
L 305.883469 112.559795 
L 306.893591 112.559795 
L 306.893591 111.6403 
L 308.201988 111.6403 
L 308.201988 111.180553 
L 309.119588 111.180553 
L 309.119588 110.720806 
L 310.148215 110.720806 
L 310.148215 110.261058 
L 310.750379 110.261058 
L 310.750379 109.801311 
L 311.676565 109.801311 
L 311.676565 108.881816 
L 313.079345 108.881816 
L 313.079345 108.422069 
L 313.442507 108.422069 
L 313.442507 107.962322 
L 316.060241 107.962322 
L 316.134161 106.58308 
L 316.693317 106.58308 
L 316.693317 106.123332 
L 317.439604 106.123332 
L 317.439604 105.663585 
L 320.057279 105.663585 
L 320.057279 104.284343 
L 320.67162 104.284343 
L 320.67162 103.824595 
L 322.106758 103.824595 
L 322.106758 103.364848 
L 323.384912 103.364848 
L 323.384912 102.905101 
L 325.723185 102.905101 
L 325.723185 102.445353 
L 326.799901 102.445353 
L 326.799901 101.985606 
L 327.777629 101.985606 
L 327.777629 101.066111 
L 328.951045 101.066111 
L 328.951045 100.606364 
L 330.021653 100.606364 
L 330.021653 100.606364 
" style="fill:none;stroke:#ff00ff;stroke-linecap:square;stroke-width:1.5;"/>
   </g>
   <g id="line2d_53">
    <defs>
     <path d="M -0 8.485281 
L 5.091169 0 
L 0 -8.485281 
L -5.091169 -0 
z
" id="m06b620dcb8" style="stroke:#ff00ff;stroke-linejoin:miter;stroke-width:1.5;"/>
    </defs>
    <g>
     <use style="fill:none;stroke:#ff00ff;stroke-linejoin:miter;stroke-width:1.5;" x="112.06068" xlink:href="#m06b620dcb8" y="262.437433"/>
     <use style="fill:none;stroke:#ff00ff;stroke-linejoin:miter;stroke-width:1.5;" x="162.254402" xlink:href="#m06b620dcb8" y="220.140676"/>
     <use style="fill:none;stroke:#ff00ff;stroke-linejoin:miter;stroke-width:1.5;" x="218.983997" xlink:href="#m06b620dcb8" y="174.165941"/>
     <use style="fill:none;stroke:#ff00ff;stroke-linejoin:miter;stroke-width:1.5;" x="289.461194" xlink:href="#m06b620dcb8" y="124.513226"/>
     <use style="fill:none;stroke:#ff00ff;stroke-linejoin:miter;stroke-width:1.5;" x="328.951045" xlink:href="#m06b620dcb8" y="100.606364"/>
     <use style="fill:none;stroke:#ff00ff;stroke-linejoin:miter;stroke-width:1.5;" x="330.021653" xlink:href="#m06b620dcb8" y="100.606364"/>
    </g>
   </g>
   <g id="line2d_54">
    <path style="fill:none;stroke:#ff00ff;stroke-linecap:square;stroke-width:1.5;"/>
    <g/>
   </g>
   <g id="line2d_55">
    <path clip-path="url(#p203b2d9698)" d="M 290.995703 124.053479 
" style="fill:none;stroke:#ff00ff;stroke-linecap:square;stroke-width:1.5;"/>
    <defs>
     <path d="M -12 12 
L 12 -12 
M -12 -12 
L 12 12 
" id="m085bdb396f" style="stroke:#ff00ff;stroke-width:3;"/>
    </defs>
    <g clip-path="url(#p203b2d9698)">
     <use style="fill:#ff00ff;stroke:#ff00ff;stroke-width:3;" x="290.995703" xlink:href="#m085bdb396f" y="124.053479"/>
    </g>
   </g>
   <g id="line2d_56">
    <defs>
     <path d="M 0 1.5 
C 0.397805 1.5 0.77937 1.341951 1.06066 1.06066 
C 1.341951 0.77937 1.5 0.397805 1.5 0 
C 1.5 -0.397805 1.341951 -0.77937 1.06066 -1.06066 
C 0.77937 -1.341951 0.397805 -1.5 0 -1.5 
C -0.397805 -1.5 -0.77937 -1.341951 -1.06066 -1.06066 
C -1.341951 -0.77937 -1.5 -0.397805 -1.5 0 
C -1.5 0.397805 -1.341951 0.77937 -1.06066 1.06066 
C -0.77937 1.341951 -0.397805 1.5 0 1.5 
z
" id="m07068d25b2" style="stroke:#ffa500;"/>
    </defs>
    <g>
     <use style="fill:#ffa500;stroke:#ffa500;" x="243.377866" xlink:href="#m07068d25b2" y="216.00295"/>
     <use style="fill:#ffa500;stroke:#ffa500;" x="243.377866" xlink:href="#m07068d25b2" y="216.00295"/>
    </g>
   </g>
   <g id="line2d_57">
    <path d="M 45.092018 294.16 
L 45.092018 283.585811 
L 124.290649 283.585811 
L 124.290649 282.666316 
L 146.426688 282.666316 
L 146.426688 282.206569 
L 146.724415 282.206569 
L 146.724415 281.287074 
L 150.182929 281.287074 
L 150.182929 280.827327 
L 152.160094 280.827327 
L 152.160094 279.907832 
L 154.658741 279.907832 
L 154.658741 279.448085 
L 156.602135 279.448085 
L 156.602135 278.068843 
L 157.135086 278.068843 
L 157.135086 275.770106 
L 159.514783 275.770106 
L 159.514783 275.310358 
L 160.866832 275.310358 
L 160.866832 274.390864 
L 168.94 274.390864 
L 168.94 273.931116 
L 170.667656 273.931116 
L 170.667656 272.551874 
L 172.00927 272.551874 
L 172.00927 271.63238 
L 175.26926 271.63238 
L 175.26926 270.253138 
L 175.42504 270.253138 
L 175.42504 267.954401 
L 175.610105 267.954401 
L 175.610105 267.034906 
L 175.831063 267.034906 
L 175.861316 265.655664 
L 178.481532 265.655664 
L 178.481532 263.816675 
L 178.94766 263.816675 
L 178.94766 262.89718 
L 179.614583 262.89718 
L 179.614583 262.437433 
L 180.693664 262.437433 
L 180.693664 261.058191 
L 180.919425 261.058191 
L 180.919425 260.598443 
L 181.279991 260.598443 
L 181.301932 259.678948 
L 181.606148 259.678948 
L 181.606148 259.219201 
L 183.334711 259.219201 
L 183.368711 257.839959 
L 183.450998 257.839959 
L 183.450998 257.380212 
L 184.020758 257.380212 
L 184.020758 256.920464 
L 185.972359 256.920464 
L 185.972359 256.460717 
L 186.549168 256.460717 
L 186.549168 256.00097 
L 186.661411 256.00097 
L 186.757032 255.081475 
L 188.427952 255.081475 
L 188.427952 254.16198 
L 188.748893 254.16198 
L 188.748893 253.702233 
L 189.015256 253.702233 
L 189.112344 252.782738 
L 189.222625 252.782738 
L 189.222625 252.322991 
L 190.011238 252.322991 
L 190.011238 251.863243 
L 190.476945 251.863243 
L 190.543804 250.484001 
L 190.930198 250.484001 
L 190.930198 250.024254 
L 191.83725 250.024254 
L 191.898962 248.645012 
L 192.224351 248.645012 
L 192.224351 248.185265 
L 193.243397 248.185265 
L 193.243397 247.725517 
L 194.400633 247.725517 
L 194.400633 247.26577 
L 194.661814 247.26577 
L 194.661814 246.806023 
L 195.230337 246.806023 
L 195.230337 246.346275 
L 195.99369 246.346275 
L 195.99369 245.886528 
L 196.982536 245.886528 
L 196.982536 245.42678 
L 197.099485 245.42678 
L 197.177004 244.047538 
L 197.330988 244.047538 
L 197.398978 242.668296 
L 198.232675 242.668296 
L 198.307201 239.909812 
L 199.013789 239.909812 
L 199.075365 238.990318 
L 199.366722 238.990318 
L 199.366722 238.53057 
L 199.791814 238.53057 
L 199.791814 238.070823 
L 201.438142 238.070823 
L 201.491524 237.151328 
L 202.768012 237.151328 
L 202.768012 236.691581 
L 203.415099 236.691581 
L 203.415099 236.231833 
L 203.604357 236.231833 
L 203.604357 235.312339 
L 204.233604 235.312339 
L 204.23927 233.933097 
L 205.51563 233.933097 
L 205.51563 233.473349 
L 206.959029 233.473349 
L 206.959029 233.013602 
L 207.289928 233.013602 
L 207.289928 232.553855 
L 208.128855 232.553855 
L 208.128855 232.094107 
L 210.346105 232.094107 
L 210.346105 231.63436 
L 210.7897 231.63436 
L 210.897135 230.255118 
L 210.904783 230.255118 
L 210.993437 228.416128 
L 213.634599 228.416128 
L 213.72224 225.197897 
L 221.57452 225.197897 
L 221.57452 224.73815 
L 222.906054 224.73815 
L 222.906054 224.278402 
L 223.068639 224.278402 
L 223.130079 222.439413 
L 224.485024 222.439413 
L 224.524011 220.600423 
L 225.692555 220.600423 
L 225.692555 220.140676 
L 226.942258 220.140676 
L 226.942258 219.680929 
L 228.050593 219.680929 
L 228.050593 219.221181 
L 230.099344 219.221181 
L 230.099344 218.761434 
L 231.019687 218.761434 
L 231.019687 218.301687 
L 233.589541 218.301687 
L 233.589541 217.841939 
L 235.749207 217.841939 
L 235.749207 217.382192 
L 236.389905 217.382192 
L 236.389905 216.922445 
L 237.701537 216.922445 
L 237.701537 216.462697 
L 243.377866 216.462697 
L 243.377866 216.00295 
L 330.021653 216.00295 
L 330.021653 216.00295 
" style="fill:none;stroke:#ffa500;stroke-linecap:square;stroke-width:1.5;"/>
   </g>
   <g id="line2d_58">
    <defs>
     <path d="M 0 -6 
L -1.347084 -1.854102 
L -5.706339 -1.854102 
L -2.179628 0.708204 
L -3.526712 4.854102 
L -0 2.291796 
L 3.526712 4.854102 
L 2.179628 0.708204 
L 5.706339 -1.854102 
L 1.347084 -1.854102 
z
" id="m9067734991" style="stroke:#ffa500;stroke-linejoin:bevel;stroke-width:1.5;"/>
    </defs>
    <g>
     <use style="fill:none;stroke:#ffa500;stroke-linejoin:bevel;stroke-width:1.5;" x="186.757032" xlink:href="#m9067734991" y="255.081475"/>
     <use style="fill:none;stroke:#ffa500;stroke-linejoin:bevel;stroke-width:1.5;" x="231.019687" xlink:href="#m9067734991" y="218.301687"/>
     <use style="fill:none;stroke:#ffa500;stroke-linejoin:bevel;stroke-width:1.5;" x="243.377866" xlink:href="#m9067734991" y="216.00295"/>
     <use style="fill:none;stroke:#ffa500;stroke-linejoin:bevel;stroke-width:1.5;" x="243.377866" xlink:href="#m9067734991" y="216.00295"/>
     <use style="fill:none;stroke:#ffa500;stroke-linejoin:bevel;stroke-width:1.5;" x="330.021653" xlink:href="#m9067734991" y="216.00295"/>
    </g>
   </g>
   <g id="line2d_59">
    <path style="fill:none;stroke:#ffa500;stroke-linecap:square;stroke-width:1.5;"/>
    <g/>
   </g>
   <g id="line2d_60">
    <path clip-path="url(#p203b2d9698)" d="M 181.427539 259.678948 
" style="fill:none;stroke:#ffa500;stroke-linecap:square;stroke-width:1.5;"/>
    <defs>
     <path d="M -12 12 
L 12 -12 
M -12 -12 
L 12 12 
" id="m8f9f6c6127" style="stroke:#ffa500;stroke-width:3;"/>
    </defs>
    <g clip-path="url(#p203b2d9698)">
     <use style="fill:#ffa500;stroke:#ffa500;stroke-width:3;" x="181.427539" xlink:href="#m8f9f6c6127" y="259.678948"/>
    </g>
   </g>
   <g id="line2d_61">
    <path d="M 330.021653 216.00295 
L 360.071635 288.826931 
" style="fill:none;stroke:#ffa500;stroke-linecap:square;stroke-width:1.5;"/>
    <g>
     <use style="fill:none;stroke:#ffa500;stroke-linejoin:bevel;stroke-width:1.5;" x="330.021653" xlink:href="#m9067734991" y="216.00295"/>
     <use style="fill:none;stroke:#ffa500;stroke-linejoin:bevel;stroke-width:1.5;" x="360.071635" xlink:href="#m9067734991" y="288.826931"/>
    </g>
   </g>
   <g id="line2d_62">
    <path d="M 330.021653 100.606364 
L 360.071635 203.497822 
" style="fill:none;stroke:#ff00ff;stroke-linecap:square;stroke-width:1.5;"/>
    <g>
     <use style="fill:none;stroke:#ff00ff;stroke-linejoin:miter;stroke-width:1.5;" x="330.021653" xlink:href="#m06b620dcb8" y="100.606364"/>
     <use style="fill:none;stroke:#ff00ff;stroke-linejoin:miter;stroke-width:1.5;" x="360.071635" xlink:href="#m06b620dcb8" y="203.497822"/>
    </g>
   </g>
   <g id="line2d_63">
    <path d="M 330.021653 96.468638 
L 360.071635 118.168713 
" style="fill:none;stroke:#000080;stroke-linecap:square;stroke-width:1.5;"/>
    <g>
     <use style="fill:none;stroke:#000080;stroke-width:1.5;" x="330.021653" xlink:href="#m78d24b06fb" y="96.468638"/>
     <use style="fill:none;stroke:#000080;stroke-width:1.5;" x="360.071635" xlink:href="#m78d24b06fb" y="118.168713"/>
    </g>
   </g>
   <g id="line2d_64">
    <path d="M 330.021653 294.16 
L 330.021653 27.506535 
" style="fill:none;stroke:#000000;stroke-linecap:square;stroke-width:1.5;"/>
   </g>
   <g id="patch_3">
    <path d="M 56.84 294.16 
L 56.84 24.84 
" style="fill:none;stroke:#000000;stroke-linecap:square;stroke-linejoin:miter;stroke-width:0.8;"/>
   </g>
   <g id="patch_4">
    <path d="M 395.58525 294.16 
L 395.58525 24.84 
" style="fill:none;stroke:#000000;stroke-linecap:square;stroke-linejoin:miter;stroke-width:0.8;"/>
   </g>
   <g id="patch_5">
    <path d="M 56.84 294.16 
L 395.58525 294.16 
" style="fill:none;stroke:#000000;stroke-linecap:square;stroke-linejoin:miter;stroke-width:0.8;"/>
   </g>
   <g id="patch_6">
    <path d="M 56.84 24.84 
L 395.58525 24.84 
" style="fill:none;stroke:#000000;stroke-linecap:square;stroke-linejoin:miter;stroke-width:0.8;"/>
   </g>
   <g id="text_14">
    <!-- adaptiveH -->
    <defs>
     <path d="M 9.8125 72.90625 
L 19.671875 72.90625 
L 19.671875 43.015625 
L 55.515625 43.015625 
L 55.515625 72.90625 
L 65.375 72.90625 
L 65.375 0 
L 55.515625 0 
L 55.515625 34.71875 
L 19.671875 34.71875 
L 19.671875 0 
L 9.8125 0 
z
" id="DejaVuSans-48"/>
    </defs>
    <g transform="translate(365.535268 293.517868)scale(0.17 -0.17)">
     <use xlink:href="#DejaVuSans-61"/>
     <use x="61.279297" xlink:href="#DejaVuSans-64"/>
     <use x="124.755859" xlink:href="#DejaVuSans-61"/>
     <use x="186.035156" xlink:href="#DejaVuSans-70"/>
     <use x="249.511719" xlink:href="#DejaVuSans-74"/>
     <use x="288.720703" xlink:href="#DejaVuSans-69"/>
     <use x="316.503906" xlink:href="#DejaVuSans-76"/>
     <use x="375.683594" xlink:href="#DejaVuSans-65"/>
     <use x="437.207031" xlink:href="#DejaVuSans-48"/>
    </g>
   </g>
   <g id="text_15">
    <!-- RANDOMSEA -->
    <defs>
     <path d="M 44.390625 34.1875 
Q 47.5625 33.109375 50.5625 29.59375 
Q 53.5625 26.078125 56.59375 19.921875 
L 66.609375 0 
L 56 0 
L 46.6875 18.703125 
Q 43.0625 26.03125 39.671875 28.421875 
Q 36.28125 30.8125 30.421875 30.8125 
L 19.671875 30.8125 
L 19.671875 0 
L 9.8125 0 
L 9.8125 72.90625 
L 32.078125 72.90625 
Q 44.578125 72.90625 50.734375 67.671875 
Q 56.890625 62.453125 56.890625 51.90625 
Q 56.890625 45.015625 53.6875 40.46875 
Q 50.484375 35.9375 44.390625 34.1875 
M 19.671875 64.796875 
L 19.671875 38.921875 
L 32.078125 38.921875 
Q 39.203125 38.921875 42.84375 42.21875 
Q 46.484375 45.515625 46.484375 51.90625 
Q 46.484375 58.296875 42.84375 61.546875 
Q 39.203125 64.796875 32.078125 64.796875 
z
" id="DejaVuSans-52"/>
     <path d="M 34.1875 63.1875 
L 20.796875 26.90625 
L 47.609375 26.90625 
z
M 28.609375 72.90625 
L 39.796875 72.90625 
L 67.578125 0 
L 57.328125 0 
L 50.6875 18.703125 
L 17.828125 18.703125 
L 11.1875 0 
L 0.78125 0 
z
" id="DejaVuSans-41"/>
     <path d="M 9.8125 72.90625 
L 23.09375 72.90625 
L 55.421875 11.921875 
L 55.421875 72.90625 
L 64.984375 72.90625 
L 64.984375 0 
L 51.703125 0 
L 19.390625 60.984375 
L 19.390625 0 
L 9.8125 0 
z
" id="DejaVuSans-4e"/>
     <path d="M 19.671875 64.796875 
L 19.671875 8.109375 
L 31.59375 8.109375 
Q 46.6875 8.109375 53.6875 14.9375 
Q 60.6875 21.78125 60.6875 36.53125 
Q 60.6875 51.171875 53.6875 57.984375 
Q 46.6875 64.796875 31.59375 64.796875 
z
M 9.8125 72.90625 
L 30.078125 72.90625 
Q 51.265625 72.90625 61.171875 64.09375 
Q 71.09375 55.28125 71.09375 36.53125 
Q 71.09375 17.671875 61.125 8.828125 
Q 51.171875 0 30.078125 0 
L 9.8125 0 
z
" id="DejaVuSans-44"/>
     <path d="M 39.40625 66.21875 
Q 28.65625 66.21875 22.328125 58.203125 
Q 16.015625 50.203125 16.015625 36.375 
Q 16.015625 22.609375 22.328125 14.59375 
Q 28.65625 6.59375 39.40625 6.59375 
Q 50.140625 6.59375 56.421875 14.59375 
Q 62.703125 22.609375 62.703125 36.375 
Q 62.703125 50.203125 56.421875 58.203125 
Q 50.140625 66.21875 39.40625 66.21875 
M 39.40625 74.21875 
Q 54.734375 74.21875 63.90625 63.9375 
Q 73.09375 53.65625 73.09375 36.375 
Q 73.09375 19.140625 63.90625 8.859375 
Q 54.734375 -1.421875 39.40625 -1.421875 
Q 24.03125 -1.421875 14.8125 8.828125 
Q 5.609375 19.09375 5.609375 36.375 
Q 5.609375 53.65625 14.8125 63.9375 
Q 24.03125 74.21875 39.40625 74.21875 
" id="DejaVuSans-4f"/>
     <path d="M 9.8125 72.90625 
L 24.515625 72.90625 
L 43.109375 23.296875 
L 61.8125 72.90625 
L 76.515625 72.90625 
L 76.515625 0 
L 66.890625 0 
L 66.890625 64.015625 
L 48.09375 14.015625 
L 38.1875 14.015625 
L 19.390625 64.015625 
L 19.390625 0 
L 9.8125 0 
z
" id="DejaVuSans-4d"/>
     <path d="M 53.515625 70.515625 
L 53.515625 60.890625 
Q 47.90625 63.578125 42.921875 64.890625 
Q 37.9375 66.21875 33.296875 66.21875 
Q 25.25 66.21875 20.875 63.09375 
Q 16.5 59.96875 16.5 54.203125 
Q 16.5 49.359375 19.40625 46.890625 
Q 22.3125 44.4375 30.421875 42.921875 
L 36.375 41.703125 
Q 47.40625 39.59375 52.65625 34.296875 
Q 57.90625 29 57.90625 20.125 
Q 57.90625 9.515625 50.796875 4.046875 
Q 43.703125 -1.421875 29.984375 -1.421875 
Q 24.8125 -1.421875 18.96875 -0.25 
Q 13.140625 0.921875 6.890625 3.21875 
L 6.890625 13.375 
Q 12.890625 10.015625 18.65625 8.296875 
Q 24.421875 6.59375 29.984375 6.59375 
Q 38.421875 6.59375 43.015625 9.90625 
Q 47.609375 13.234375 47.609375 19.390625 
Q 47.609375 24.75 44.3125 27.78125 
Q 41.015625 30.8125 33.5 32.328125 
L 27.484375 33.5 
Q 16.453125 35.6875 11.515625 40.375 
Q 6.59375 45.0625 6.59375 53.421875 
Q 6.59375 63.09375 13.40625 68.65625 
Q 20.21875 74.21875 32.171875 74.21875 
Q 37.3125 74.21875 42.625 73.28125 
Q 47.953125 72.359375 53.515625 70.515625 
" id="DejaVuSans-53"/>
     <path d="M 9.8125 72.90625 
L 55.90625 72.90625 
L 55.90625 64.59375 
L 19.671875 64.59375 
L 19.671875 43.015625 
L 54.390625 43.015625 
L 54.390625 34.71875 
L 19.671875 34.71875 
L 19.671875 8.296875 
L 56.78125 8.296875 
L 56.78125 0 
L 9.8125 0 
z
" id="DejaVuSans-45"/>
    </defs>
    <g transform="translate(365.535268 208.188759)scale(0.17 -0.17)">
     <use xlink:href="#DejaVuSans-52"/>
     <use x="69.419922" xlink:href="#DejaVuSans-41"/>
     <use x="137.828125" xlink:href="#DejaVuSans-4e"/>
     <use x="212.632812" xlink:href="#DejaVuSans-44"/>
     <use x="289.634766" xlink:href="#DejaVuSans-4f"/>
     <use x="368.345703" xlink:href="#DejaVuSans-4d"/>
     <use x="454.625" xlink:href="#DejaVuSans-53"/>
     <use x="518.101562" xlink:href="#DejaVuSans-45"/>
     <use x="581.285156" xlink:href="#DejaVuSans-41"/>
    </g>
   </g>
   <g id="text_16">
    <!-- NSGA-II-M -->
    <defs>
     <path d="M 59.515625 10.40625 
L 59.515625 29.984375 
L 43.40625 29.984375 
L 43.40625 38.09375 
L 69.28125 38.09375 
L 69.28125 6.78125 
Q 63.578125 2.734375 56.6875 0.65625 
Q 49.8125 -1.421875 42 -1.421875 
Q 24.90625 -1.421875 15.25 8.5625 
Q 5.609375 18.5625 5.609375 36.375 
Q 5.609375 54.25 15.25 64.234375 
Q 24.90625 74.21875 42 74.21875 
Q 49.125 74.21875 55.546875 72.453125 
Q 61.96875 70.703125 67.390625 67.28125 
L 67.390625 56.78125 
Q 61.921875 61.421875 55.765625 63.765625 
Q 49.609375 66.109375 42.828125 66.109375 
Q 29.4375 66.109375 22.71875 58.640625 
Q 16.015625 51.171875 16.015625 36.375 
Q 16.015625 21.625 22.71875 14.15625 
Q 29.4375 6.6875 42.828125 6.6875 
Q 48.046875 6.6875 52.140625 7.59375 
Q 56.25 8.5 59.515625 10.40625 
" id="DejaVuSans-47"/>
     <path d="M 9.8125 72.90625 
L 19.671875 72.90625 
L 19.671875 0 
L 9.8125 0 
z
" id="DejaVuSans-49"/>
    </defs>
    <g transform="translate(365.535268 122.85965)scale(0.17 -0.17)">
     <use xlink:href="#DejaVuSans-4e"/>
     <use x="74.804688" xlink:href="#DejaVuSans-53"/>
     <use x="138.28125" xlink:href="#DejaVuSans-47"/>
     <use x="215.771484" xlink:href="#DejaVuSans-41"/>
     <use x="284.148438" xlink:href="#DejaVuSans-2d"/>
     <use x="320.232422" xlink:href="#DejaVuSans-49"/>
     <use x="349.724609" xlink:href="#DejaVuSans-49"/>
     <use x="379.216797" xlink:href="#DejaVuSans-2d"/>
     <use x="415.300781" xlink:href="#DejaVuSans-4d"/>
    </g>
   </g>
   <g id="text_17">
    <!-- best 2016 -->
    <defs>
     <path d="M 48.6875 27.296875 
Q 48.6875 37.203125 44.609375 42.84375 
Q 40.53125 48.484375 33.40625 48.484375 
Q 26.265625 48.484375 22.1875 42.84375 
Q 18.109375 37.203125 18.109375 27.296875 
Q 18.109375 17.390625 22.1875 11.75 
Q 26.265625 6.109375 33.40625 6.109375 
Q 40.53125 6.109375 44.609375 11.75 
Q 48.6875 17.390625 48.6875 27.296875 
M 18.109375 46.390625 
Q 20.953125 51.265625 25.265625 53.625 
Q 29.59375 56 35.59375 56 
Q 45.5625 56 51.78125 48.09375 
Q 58.015625 40.1875 58.015625 27.296875 
Q 58.015625 14.40625 51.78125 6.484375 
Q 45.5625 -1.421875 35.59375 -1.421875 
Q 29.59375 -1.421875 25.265625 0.953125 
Q 20.953125 3.328125 18.109375 8.203125 
L 18.109375 0 
L 9.078125 0 
L 9.078125 75.984375 
L 18.109375 75.984375 
z
" id="DejaVuSans-62"/>
    </defs>
    <g transform="translate(365.535268 37.530541)scale(0.17 -0.17)">
     <use xlink:href="#DejaVuSans-62"/>
     <use x="63.476562" xlink:href="#DejaVuSans-65"/>
     <use x="125" xlink:href="#DejaVuSans-73"/>
     <use x="177.099609" xlink:href="#DejaVuSans-74"/>
     <use x="216.308594" xlink:href="#DejaVuSans-20"/>
     <use x="248.095703" xlink:href="#DejaVuSans-32"/>
     <use x="311.71875" xlink:href="#DejaVuSans-30"/>
     <use x="375.341797" xlink:href="#DejaVuSans-31"/>
     <use x="438.964844" xlink:href="#DejaVuSans-36"/>
    </g>
   </g>
   <g id="text_18">
    <!-- bbob-biobj f41, 2-D -->
    <defs>
     <path d="M 9.421875 54.6875 
L 18.40625 54.6875 
L 18.40625 -0.984375 
Q 18.40625 -11.421875 14.421875 -16.109375 
Q 10.453125 -20.796875 1.609375 -20.796875 
L -1.8125 -20.796875 
L -1.8125 -13.1875 
L 0.59375 -13.1875 
Q 5.71875 -13.1875 7.5625 -10.8125 
Q 9.421875 -8.453125 9.421875 -0.984375 
z
M 9.421875 75.984375 
L 18.40625 75.984375 
L 18.40625 64.59375 
L 9.421875 64.59375 
z
" id="DejaVuSans-6a"/>
    </defs>
    <g transform="translate(60.227453 35.283606)scale(0.102 -0.102)">
     <use xlink:href="#DejaVuSans-62"/>
     <use x="63.476562" xlink:href="#DejaVuSans-62"/>
     <use x="126.953125" xlink:href="#DejaVuSans-6f"/>
     <use x="188.134766" xlink:href="#DejaVuSans-62"/>
     <use x="251.611328" xlink:href="#DejaVuSans-2d"/>
     <use x="287.695312" xlink:href="#DejaVuSans-62"/>
     <use x="351.171875" xlink:href="#DejaVuSans-69"/>
     <use x="378.955078" xlink:href="#DejaVuSans-6f"/>
     <use x="440.136719" xlink:href="#DejaVuSans-62"/>
     <use x="503.613281" xlink:href="#DejaVuSans-6a"/>
     <use x="531.396484" xlink:href="#DejaVuSans-20"/>
     <use x="563.183594" xlink:href="#DejaVuSans-66"/>
     <use x="598.388672" xlink:href="#DejaVuSans-34"/>
     <use x="662.011719" xlink:href="#DejaVuSans-31"/>
     <use x="725.634766" xlink:href="#DejaVuSans-2c"/>
     <use x="757.421875" xlink:href="#DejaVuSans-20"/>
     <use x="789.208984" xlink:href="#DejaVuSans-32"/>
     <use x="852.832031" xlink:href="#DejaVuSans-2d"/>
     <use x="888.916016" xlink:href="#DejaVuSans-44"/>
    </g>
    <!-- 58 targets: 1..-1.0e-4 -->
    <defs>
     <path d="M 10.796875 72.90625 
L 49.515625 72.90625 
L 49.515625 64.59375 
L 19.828125 64.59375 
L 19.828125 46.734375 
Q 21.96875 47.46875 24.109375 47.828125 
Q 26.265625 48.1875 28.421875 48.1875 
Q 40.625 48.1875 47.75 41.5 
Q 54.890625 34.8125 54.890625 23.390625 
Q 54.890625 11.625 47.5625 5.09375 
Q 40.234375 -1.421875 26.90625 -1.421875 
Q 22.3125 -1.421875 17.546875 -0.640625 
Q 12.796875 0.140625 7.71875 1.703125 
L 7.71875 11.625 
Q 12.109375 9.234375 16.796875 8.0625 
Q 21.484375 6.890625 26.703125 6.890625 
Q 35.15625 6.890625 40.078125 11.328125 
Q 45.015625 15.765625 45.015625 23.390625 
Q 45.015625 31 40.078125 35.4375 
Q 35.15625 39.890625 26.703125 39.890625 
Q 22.75 39.890625 18.8125 39.015625 
Q 14.890625 38.140625 10.796875 36.28125 
z
" id="DejaVuSans-35"/>
     <path d="M 11.71875 12.40625 
L 22.015625 12.40625 
L 22.015625 0 
L 11.71875 0 
z
M 11.71875 51.703125 
L 22.015625 51.703125 
L 22.015625 39.3125 
L 11.71875 39.3125 
z
" id="DejaVuSans-3a"/>
    </defs>
    <g transform="translate(60.227453 46.705375)scale(0.102 -0.102)">
     <use xlink:href="#DejaVuSans-35"/>
     <use x="63.623047" xlink:href="#DejaVuSans-38"/>
     <use x="127.246094" xlink:href="#DejaVuSans-20"/>
     <use x="159.033203" xlink:href="#DejaVuSans-74"/>
     <use x="198.242188" xlink:href="#DejaVuSans-61"/>
     <use x="259.521484" xlink:href="#DejaVuSans-72"/>
     <use x="300.619141" xlink:href="#DejaVuSans-67"/>
     <use x="364.095703" xlink:href="#DejaVuSans-65"/>
     <use x="425.619141" xlink:href="#DejaVuSans-74"/>
     <use x="464.828125" xlink:href="#DejaVuSans-73"/>
     <use x="516.927734" xlink:href="#DejaVuSans-3a"/>
     <use x="550.619141" xlink:href="#DejaVuSans-20"/>
     <use x="582.40625" xlink:href="#DejaVuSans-31"/>
     <use x="646.029297" xlink:href="#DejaVuSans-2e"/>
     <use x="677.816406" xlink:href="#DejaVuSans-2e"/>
     <use x="709.603516" xlink:href="#DejaVuSans-2d"/>
     <use x="745.6875" xlink:href="#DejaVuSans-31"/>
     <use x="809.310547" xlink:href="#DejaVuSans-2e"/>
     <use x="841.097656" xlink:href="#DejaVuSans-30"/>
     <use x="904.720703" xlink:href="#DejaVuSans-65"/>
     <use x="966.244141" xlink:href="#DejaVuSans-2d"/>
     <use x="1002.328125" xlink:href="#DejaVuSans-34"/>
    </g>
    <!-- 10 instances -->
    <g transform="translate(60.227453 58.127144)scale(0.102 -0.102)">
     <use xlink:href="#DejaVuSans-31"/>
     <use x="63.623047" xlink:href="#DejaVuSans-30"/>
     <use x="127.246094" xlink:href="#DejaVuSans-20"/>
     <use x="159.033203" xlink:href="#DejaVuSans-69"/>
     <use x="186.816406" xlink:href="#DejaVuSans-6e"/>
     <use x="250.195312" xlink:href="#DejaVuSans-73"/>
     <use x="302.294922" xlink:href="#DejaVuSans-74"/>
     <use x="341.503906" xlink:href="#DejaVuSans-61"/>
     <use x="402.783203" xlink:href="#DejaVuSans-6e"/>
     <use x="466.162109" xlink:href="#DejaVuSans-63"/>
     <use x="521.142578" xlink:href="#DejaVuSans-65"/>
     <use x="582.666016" xlink:href="#DejaVuSans-73"/>
    </g>
   </g>
   <g id="text_19">
    <!-- v2.2.1.10, hv-hash=ff0e71e8cd978373 -->
    <defs>
     <path d="M 54.890625 33.015625 
L 54.890625 0 
L 45.90625 0 
L 45.90625 32.71875 
Q 45.90625 40.484375 42.875 44.328125 
Q 39.84375 48.1875 33.796875 48.1875 
Q 26.515625 48.1875 22.3125 43.546875 
Q 18.109375 38.921875 18.109375 30.90625 
L 18.109375 0 
L 9.078125 0 
L 9.078125 75.984375 
L 18.109375 75.984375 
L 18.109375 46.1875 
Q 21.34375 51.125 25.703125 53.5625 
Q 30.078125 56 35.796875 56 
Q 45.21875 56 50.046875 50.171875 
Q 54.890625 44.34375 54.890625 33.015625 
" id="DejaVuSans-68"/>
     <path d="M 10.59375 45.40625 
L 73.1875 45.40625 
L 73.1875 37.203125 
L 10.59375 37.203125 
z
M 10.59375 25.484375 
L 73.1875 25.484375 
L 73.1875 17.1875 
L 10.59375 17.1875 
z
" id="DejaVuSans-3d"/>
     <path d="M 8.203125 72.90625 
L 55.078125 72.90625 
L 55.078125 68.703125 
L 28.609375 0 
L 18.3125 0 
L 43.21875 64.59375 
L 8.203125 64.59375 
z
" id="DejaVuSans-37"/>
     <path d="M 10.984375 1.515625 
L 10.984375 10.5 
Q 14.703125 8.734375 18.5 7.8125 
Q 22.3125 6.890625 25.984375 6.890625 
Q 35.75 6.890625 40.890625 13.453125 
Q 46.046875 20.015625 46.78125 33.40625 
Q 43.953125 29.203125 39.59375 26.953125 
Q 35.25 24.703125 29.984375 24.703125 
Q 19.046875 24.703125 12.671875 31.3125 
Q 6.296875 37.9375 6.296875 49.421875 
Q 6.296875 60.640625 12.9375 67.421875 
Q 19.578125 74.21875 30.609375 74.21875 
Q 43.265625 74.21875 49.921875 64.515625 
Q 56.59375 54.828125 56.59375 36.375 
Q 56.59375 19.140625 48.40625 8.859375 
Q 40.234375 -1.421875 26.421875 -1.421875 
Q 22.703125 -1.421875 18.890625 -0.6875 
Q 15.09375 0.046875 10.984375 1.515625 
M 30.609375 32.421875 
Q 37.25 32.421875 41.125 36.953125 
Q 45.015625 41.5 45.015625 49.421875 
Q 45.015625 57.28125 41.125 61.84375 
Q 37.25 66.40625 30.609375 66.40625 
Q 23.96875 66.40625 20.09375 61.84375 
Q 16.21875 57.28125 16.21875 49.421875 
Q 16.21875 41.5 20.09375 36.953125 
Q 23.96875 32.421875 30.609375 32.421875 
" id="DejaVuSans-39"/>
     <path d="M 40.578125 39.3125 
Q 47.65625 37.796875 51.625 33 
Q 55.609375 28.21875 55.609375 21.1875 
Q 55.609375 10.40625 48.1875 4.484375 
Q 40.765625 -1.421875 27.09375 -1.421875 
Q 22.515625 -1.421875 17.65625 -0.515625 
Q 12.796875 0.390625 7.625 2.203125 
L 7.625 11.71875 
Q 11.71875 9.328125 16.59375 8.109375 
Q 21.484375 6.890625 26.8125 6.890625 
Q 36.078125 6.890625 40.9375 10.546875 
Q 45.796875 14.203125 45.796875 21.1875 
Q 45.796875 27.640625 41.28125 31.265625 
Q 36.765625 34.90625 28.71875 34.90625 
L 20.21875 34.90625 
L 20.21875 43.015625 
L 29.109375 43.015625 
Q 36.375 43.015625 40.234375 45.921875 
Q 44.09375 48.828125 44.09375 54.296875 
Q 44.09375 59.90625 40.109375 62.90625 
Q 36.140625 65.921875 28.71875 65.921875 
Q 24.65625 65.921875 20.015625 65.03125 
Q 15.375 64.15625 9.8125 62.3125 
L 9.8125 71.09375 
Q 15.4375 72.65625 20.34375 73.4375 
Q 25.25 74.21875 29.59375 74.21875 
Q 40.828125 74.21875 47.359375 69.109375 
Q 53.90625 64.015625 53.90625 55.328125 
Q 53.90625 49.265625 50.4375 45.09375 
Q 46.96875 40.921875 40.578125 39.3125 
" id="DejaVuSans-33"/>
    </defs>
    <g style="fill:#808080;" transform="translate(127.86575 289.387113)scale(0.1 -0.1)">
     <use xlink:href="#DejaVuSans-76"/>
     <use x="59.179688" xlink:href="#DejaVuSans-32"/>
     <use x="122.802734" xlink:href="#DejaVuSans-2e"/>
     <use x="154.589844" xlink:href="#DejaVuSans-32"/>
     <use x="218.212891" xlink:href="#DejaVuSans-2e"/>
     <use x="250" xlink:href="#DejaVuSans-31"/>
     <use x="313.623047" xlink:href="#DejaVuSans-2e"/>
     <use x="345.410156" xlink:href="#DejaVuSans-31"/>
     <use x="409.033203" xlink:href="#DejaVuSans-30"/>
     <use x="472.65625" xlink:href="#DejaVuSans-2c"/>
     <use x="504.443359" xlink:href="#DejaVuSans-20"/>
     <use x="536.230469" xlink:href="#DejaVuSans-68"/>
     <use x="599.609375" xlink:href="#DejaVuSans-76"/>
     <use x="658.757812" xlink:href="#DejaVuSans-2d"/>
     <use x="694.841797" xlink:href="#DejaVuSans-68"/>
     <use x="758.220703" xlink:href="#DejaVuSans-61"/>
     <use x="819.5" xlink:href="#DejaVuSans-73"/>
     <use x="871.599609" xlink:href="#DejaVuSans-68"/>
     <use x="934.978516" xlink:href="#DejaVuSans-3d"/>
     <use x="1018.767578" xlink:href="#DejaVuSans-66"/>
     <use x="1053.972656" xlink:href="#DejaVuSans-66"/>
     <use x="1089.177734" xlink:href="#DejaVuSans-30"/>
     <use x="1152.800781" xlink:href="#DejaVuSans-65"/>
     <use x="1214.324219" xlink:href="#DejaVuSans-37"/>
     <use x="1277.947266" xlink:href="#DejaVuSans-31"/>
     <use x="1341.570312" xlink:href="#DejaVuSans-65"/>
     <use x="1403.09375" xlink:href="#DejaVuSans-38"/>
     <use x="1466.716797" xlink:href="#DejaVuSans-63"/>
     <use x="1521.697266" xlink:href="#DejaVuSans-64"/>
     <use x="1585.173828" xlink:href="#DejaVuSans-39"/>
     <use x="1648.796875" xlink:href="#DejaVuSans-37"/>
     <use x="1712.419922" xlink:href="#DejaVuSans-38"/>
     <use x="1776.042969" xlink:href="#DejaVuSans-33"/>
     <use x="1839.666016" xlink:href="#DejaVuSans-37"/>
     <use x="1903.289062" xlink:href="#DejaVuSans-33"/>
    </g>
   </g>
   <g id="text_20">
    <!-- 41 Different Powers/Different Powers -->
    <defs>
     <path d="M 19.671875 64.796875 
L 19.671875 37.40625 
L 32.078125 37.40625 
Q 38.96875 37.40625 42.71875 40.96875 
Q 46.484375 44.53125 46.484375 51.125 
Q 46.484375 57.671875 42.71875 61.234375 
Q 38.96875 64.796875 32.078125 64.796875 
z
M 9.8125 72.90625 
L 32.078125 72.90625 
Q 44.34375 72.90625 50.609375 67.359375 
Q 56.890625 61.8125 56.890625 51.125 
Q 56.890625 40.328125 50.609375 34.8125 
Q 44.34375 29.296875 32.078125 29.296875 
L 19.671875 29.296875 
L 19.671875 0 
L 9.8125 0 
z
" id="DejaVuSans-50"/>
     <path d="M 4.203125 54.6875 
L 13.1875 54.6875 
L 24.421875 12.015625 
L 35.59375 54.6875 
L 46.1875 54.6875 
L 57.421875 12.015625 
L 68.609375 54.6875 
L 77.59375 54.6875 
L 63.28125 0 
L 52.6875 0 
L 40.921875 44.828125 
L 29.109375 0 
L 18.5 0 
z
" id="DejaVuSans-77"/>
    </defs>
    <g transform="translate(40.612625 18.84)scale(0.2 -0.2)">
     <use xlink:href="#DejaVuSans-34"/>
     <use x="63.623047" xlink:href="#DejaVuSans-31"/>
     <use x="127.246094" xlink:href="#DejaVuSans-20"/>
     <use x="159.033203" xlink:href="#DejaVuSans-44"/>
     <use x="236.035156" xlink:href="#DejaVuSans-69"/>
     <use x="263.818359" xlink:href="#DejaVuSans-66"/>
     <use x="299.023438" xlink:href="#DejaVuSans-66"/>
     <use x="334.228516" xlink:href="#DejaVuSans-65"/>
     <use x="395.751953" xlink:href="#DejaVuSans-72"/>
     <use x="436.833984" xlink:href="#DejaVuSans-65"/>
     <use x="498.357422" xlink:href="#DejaVuSans-6e"/>
     <use x="561.736328" xlink:href="#DejaVuSans-74"/>
     <use x="600.945312" xlink:href="#DejaVuSans-20"/>
     <use x="632.732422" xlink:href="#DejaVuSans-50"/>
     <use x="692.988281" xlink:href="#DejaVuSans-6f"/>
     <use x="754.169922" xlink:href="#DejaVuSans-77"/>
     <use x="835.957031" xlink:href="#DejaVuSans-65"/>
     <use x="897.480469" xlink:href="#DejaVuSans-72"/>
     <use x="938.59375" xlink:href="#DejaVuSans-73"/>
     <use x="990.693359" xlink:href="#DejaVuSans-2f"/>
     <use x="1024.384766" xlink:href="#DejaVuSans-44"/>
     <use x="1101.386719" xlink:href="#DejaVuSans-69"/>
     <use x="1129.169922" xlink:href="#DejaVuSans-66"/>
     <use x="1164.375" xlink:href="#DejaVuSans-66"/>
     <use x="1199.580078" xlink:href="#DejaVuSans-65"/>
     <use x="1261.103516" xlink:href="#DejaVuSans-72"/>
     <use x="1302.185547" xlink:href="#DejaVuSans-65"/>
     <use x="1363.708984" xlink:href="#DejaVuSans-6e"/>
     <use x="1427.087891" xlink:href="#DejaVuSans-74"/>
     <use x="1466.296875" xlink:href="#DejaVuSans-20"/>
     <use x="1498.083984" xlink:href="#DejaVuSans-50"/>
     <use x="1558.339844" xlink:href="#DejaVuSans-6f"/>
     <use x="1619.521484" xlink:href="#DejaVuSans-77"/>
     <use x="1701.308594" xlink:href="#DejaVuSans-65"/>
     <use x="1762.832031" xlink:href="#DejaVuSans-72"/>
     <use x="1803.945312" xlink:href="#DejaVuSans-73"/>
    </g>
   </g>
  </g>
 </g>
 <defs>
  <clipPath id="p203b2d9698">
   <rect height="269.32" width="338.74525" x="56.84" y="24.84"/>
  </clipPath>
 </defs>
</svg>
