<?xml version="1.0" encoding="utf-8" standalone="no"?>
<!DOCTYPE svg PUBLIC "-//W3C//DTD SVG 1.1//EN"
  "http://www.w3.org/Graphics/SVG/1.1/DTD/svg11.dtd">
<!-- Created with matplotlib (http://matplotlib.org/) -->
<svg height="345pt" version="1.1" viewBox="0 0 460 345" width="460pt" xmlns="http://www.w3.org/2000/svg" xmlns:xlink="http://www.w3.org/1999/xlink">
 <defs>
  <style type="text/css">
*{stroke-linecap:butt;stroke-linejoin:round;}
  </style>
 </defs>
 <g id="figure_1">
  <g id="patch_1">
   <path d="M 0 345.6 
L 460.8 345.6 
L 460.8 0 
L 0 0 
z
" style="fill:#ffffff;"/>
  </g>
  <g id="axes_1">
   <g id="patch_2">
    <path d="M 56.84 294.16 
L 395.58525 294.16 
L 395.58525 24.84 
L 56.84 24.84 
z
" style="fill:#ffffff;"/>
   </g>
   <g id="line2d_1">
    <path d="M 61.715853 294.16 
L 61.715853 289.562526 
L 68.587982 289.562526 
L 68.587982 280.367579 
L 73.463835 280.367579 
L 73.463835 271.172632 
L 87.208092 271.172632 
L 87.208092 266.575159 
L 94.696607 266.575159 
L 94.696607 252.782738 
L 106.139198 252.782738 
L 106.139198 243.587791 
L 112.908294 243.587791 
L 112.908294 238.990318 
L 118.040563 238.990318 
L 118.040563 229.79537 
L 124.861718 229.79537 
L 124.861718 216.00295 
L 133.539984 216.00295 
L 133.539984 206.808003 
L 141.98852 206.808003 
L 141.98852 197.613056 
L 148.229572 197.613056 
L 148.229572 188.418109 
L 154.085973 188.418109 
L 154.085973 183.820635 
L 160.27077 183.820635 
L 160.27077 170.028214 
L 167.163951 170.028214 
L 167.163951 165.430741 
L 180.409093 165.430741 
L 180.409093 151.63832 
L 189.144584 151.63832 
L 189.144584 142.443373 
L 197.702299 142.443373 
L 197.702299 137.8459 
L 203.178029 137.8459 
L 203.178029 124.053479 
L 209.69566 124.053479 
L 209.69566 119.456005 
L 216.596505 119.456005 
L 216.596505 105.663585 
L 224.159222 105.663585 
L 224.159222 96.468638 
L 232.731925 96.468638 
L 232.731925 87.273691 
L 238.151437 87.273691 
L 238.151437 82.676217 
L 243.933576 82.676217 
L 243.933576 73.48127 
L 250.176237 73.48127 
L 250.176237 59.688849 
L 330.021653 59.688849 
" style="fill:none;stroke:#f5deb3;stroke-linecap:square;stroke-width:6;"/>
   </g>
   <g id="line2d_2">
    <defs>
     <path d="M -0 7.778175 
L 7.778175 0 
L 0 -7.778175 
L -7.778175 -0 
z
" id="mc98650813a" style="stroke:#f5deb3;stroke-linejoin:miter;stroke-width:1.5;"/>
    </defs>
    <g>
     <use style="fill:#f5deb3;stroke:#f5deb3;stroke-linejoin:miter;stroke-width:1.5;" x="112.908294" xlink:href="#mc98650813a" y="238.990318"/>
     <use style="fill:#f5deb3;stroke:#f5deb3;stroke-linejoin:miter;stroke-width:1.5;" x="180.409093" xlink:href="#mc98650813a" y="165.430741"/>
     <use style="fill:#f5deb3;stroke:#f5deb3;stroke-linejoin:miter;stroke-width:1.5;" x="243.933576" xlink:href="#mc98650813a" y="82.676217"/>
     <use style="fill:#f5deb3;stroke:#f5deb3;stroke-linejoin:miter;stroke-width:1.5;" x="250.176237" xlink:href="#mc98650813a" y="59.688849"/>
     <use style="fill:#f5deb3;stroke:#f5deb3;stroke-linejoin:miter;stroke-width:1.5;" x="330.021653" xlink:href="#mc98650813a" y="59.688849"/>
    </g>
   </g>
   <g id="line2d_3">
    <path style="fill:none;stroke:#f5deb3;stroke-linecap:square;stroke-width:6;"/>
    <g/>
   </g>
   <g id="line2d_4">
    <path d="M 330.021653 59.688849 
L 360.071635 32.839604 
" style="fill:none;stroke:#f5deb3;stroke-linecap:square;stroke-width:6;"/>
    <g>
     <use style="fill:#f5deb3;stroke:#f5deb3;stroke-linejoin:miter;stroke-width:1.5;" x="330.021653" xlink:href="#mc98650813a" y="59.688849"/>
     <use style="fill:#f5deb3;stroke:#f5deb3;stroke-linejoin:miter;stroke-width:1.5;" x="360.071635" xlink:href="#mc98650813a" y="32.839604"/>
    </g>
   </g>
   <g id="matplotlib.axis_1">
    <g id="xtick_1">
     <g id="line2d_5">
      <path clip-path="url(#pefc59fcdb9)" d="M 56.84 294.16 
L 56.84 24.84 
" style="fill:none;stroke:#b0b0b0;stroke-linecap:square;stroke-width:0.8;"/>
     </g>
     <g id="line2d_6">
      <defs>
       <path d="M 0 0 
L 0 3.5 
" id="mca4c08ba25" style="stroke:#000000;stroke-width:0.8;"/>
      </defs>
      <g>
       <use style="stroke:#000000;stroke-width:0.8;" x="56.84" xlink:href="#mca4c08ba25" y="294.16"/>
      </g>
     </g>
     <g id="text_1">
      <!-- 0 -->
      <defs>
       <path d="M 31.78125 66.40625 
Q 24.171875 66.40625 20.328125 58.90625 
Q 16.5 51.421875 16.5 36.375 
Q 16.5 21.390625 20.328125 13.890625 
Q 24.171875 6.390625 31.78125 6.390625 
Q 39.453125 6.390625 43.28125 13.890625 
Q 47.125 21.390625 47.125 36.375 
Q 47.125 51.421875 43.28125 58.90625 
Q 39.453125 66.40625 31.78125 66.40625 
M 31.78125 74.21875 
Q 44.046875 74.21875 50.515625 64.515625 
Q 56.984375 54.828125 56.984375 36.375 
Q 56.984375 17.96875 50.515625 8.265625 
Q 44.046875 -1.421875 31.78125 -1.421875 
Q 19.53125 -1.421875 13.0625 8.265625 
Q 6.59375 17.96875 6.59375 36.375 
Q 6.59375 54.828125 13.0625 64.515625 
Q 19.53125 74.21875 31.78125 74.21875 
" id="DejaVuSans-30"/>
      </defs>
      <g transform="translate(50.4775 316.356875)scale(0.2 -0.2)">
       <use xlink:href="#DejaVuSans-30"/>
      </g>
     </g>
    </g>
    <g id="xtick_2">
     <g id="line2d_7">
      <path clip-path="url(#pefc59fcdb9)" d="M 134.891901 294.16 
L 134.891901 24.84 
" style="fill:none;stroke:#b0b0b0;stroke-linecap:square;stroke-width:0.8;"/>
     </g>
     <g id="line2d_8">
      <g>
       <use style="stroke:#000000;stroke-width:0.8;" x="134.891901" xlink:href="#mca4c08ba25" y="294.16"/>
      </g>
     </g>
     <g id="text_2">
      <!-- 2 -->
      <defs>
       <path d="M 19.1875 8.296875 
L 53.609375 8.296875 
L 53.609375 0 
L 7.328125 0 
L 7.328125 8.296875 
Q 12.9375 14.109375 22.625 23.890625 
Q 32.328125 33.6875 34.8125 36.53125 
Q 39.546875 41.84375 41.421875 45.53125 
Q 43.3125 49.21875 43.3125 52.78125 
Q 43.3125 58.59375 39.234375 62.25 
Q 35.15625 65.921875 28.609375 65.921875 
Q 23.96875 65.921875 18.8125 64.3125 
Q 13.671875 62.703125 7.8125 59.421875 
L 7.8125 69.390625 
Q 13.765625 71.78125 18.9375 73 
Q 24.125 74.21875 28.421875 74.21875 
Q 39.75 74.21875 46.484375 68.546875 
Q 53.21875 62.890625 53.21875 53.421875 
Q 53.21875 48.921875 51.53125 44.890625 
Q 49.859375 40.875 45.40625 35.40625 
Q 44.1875 33.984375 37.640625 27.21875 
Q 31.109375 20.453125 19.1875 8.296875 
" id="DejaVuSans-32"/>
      </defs>
      <g transform="translate(128.529401 316.356875)scale(0.2 -0.2)">
       <use xlink:href="#DejaVuSans-32"/>
      </g>
     </g>
    </g>
    <g id="xtick_3">
     <g id="line2d_9">
      <path clip-path="url(#pefc59fcdb9)" d="M 212.943802 294.16 
L 212.943802 24.84 
" style="fill:none;stroke:#b0b0b0;stroke-linecap:square;stroke-width:0.8;"/>
     </g>
     <g id="line2d_10">
      <g>
       <use style="stroke:#000000;stroke-width:0.8;" x="212.943802" xlink:href="#mca4c08ba25" y="294.16"/>
      </g>
     </g>
     <g id="text_3">
      <!-- 4 -->
      <defs>
       <path d="M 37.796875 64.3125 
L 12.890625 25.390625 
L 37.796875 25.390625 
z
M 35.203125 72.90625 
L 47.609375 72.90625 
L 47.609375 25.390625 
L 58.015625 25.390625 
L 58.015625 17.1875 
L 47.609375 17.1875 
L 47.609375 0 
L 37.796875 0 
L 37.796875 17.1875 
L 4.890625 17.1875 
L 4.890625 26.703125 
z
" id="DejaVuSans-34"/>
      </defs>
      <g transform="translate(206.581302 316.356875)scale(0.2 -0.2)">
       <use xlink:href="#DejaVuSans-34"/>
      </g>
     </g>
    </g>
    <g id="xtick_4">
     <g id="line2d_11">
      <path clip-path="url(#pefc59fcdb9)" d="M 290.995703 294.16 
L 290.995703 24.84 
" style="fill:none;stroke:#b0b0b0;stroke-linecap:square;stroke-width:0.8;"/>
     </g>
     <g id="line2d_12">
      <g>
       <use style="stroke:#000000;stroke-width:0.8;" x="290.995703" xlink:href="#mca4c08ba25" y="294.16"/>
      </g>
     </g>
     <g id="text_4">
      <!-- 6 -->
      <defs>
       <path d="M 33.015625 40.375 
Q 26.375 40.375 22.484375 35.828125 
Q 18.609375 31.296875 18.609375 23.390625 
Q 18.609375 15.53125 22.484375 10.953125 
Q 26.375 6.390625 33.015625 6.390625 
Q 39.65625 6.390625 43.53125 10.953125 
Q 47.40625 15.53125 47.40625 23.390625 
Q 47.40625 31.296875 43.53125 35.828125 
Q 39.65625 40.375 33.015625 40.375 
M 52.59375 71.296875 
L 52.59375 62.3125 
Q 48.875 64.0625 45.09375 64.984375 
Q 41.3125 65.921875 37.59375 65.921875 
Q 27.828125 65.921875 22.671875 59.328125 
Q 17.53125 52.734375 16.796875 39.40625 
Q 19.671875 43.65625 24.015625 45.921875 
Q 28.375 48.1875 33.59375 48.1875 
Q 44.578125 48.1875 50.953125 41.515625 
Q 57.328125 34.859375 57.328125 23.390625 
Q 57.328125 12.15625 50.6875 5.359375 
Q 44.046875 -1.421875 33.015625 -1.421875 
Q 20.359375 -1.421875 13.671875 8.265625 
Q 6.984375 17.96875 6.984375 36.375 
Q 6.984375 53.65625 15.1875 63.9375 
Q 23.390625 74.21875 37.203125 74.21875 
Q 40.921875 74.21875 44.703125 73.484375 
Q 48.484375 72.75 52.59375 71.296875 
" id="DejaVuSans-36"/>
      </defs>
      <g transform="translate(284.633203 316.356875)scale(0.2 -0.2)">
       <use xlink:href="#DejaVuSans-36"/>
      </g>
     </g>
    </g>
    <g id="xtick_5">
     <g id="line2d_13">
      <path clip-path="url(#pefc59fcdb9)" d="M 369.047604 294.16 
L 369.047604 24.84 
" style="fill:none;stroke:#b0b0b0;stroke-linecap:square;stroke-width:0.8;"/>
     </g>
     <g id="line2d_14">
      <g>
       <use style="stroke:#000000;stroke-width:0.8;" x="369.047604" xlink:href="#mca4c08ba25" y="294.16"/>
      </g>
     </g>
     <g id="text_5">
      <!-- 8 -->
      <defs>
       <path d="M 31.78125 34.625 
Q 24.75 34.625 20.71875 30.859375 
Q 16.703125 27.09375 16.703125 20.515625 
Q 16.703125 13.921875 20.71875 10.15625 
Q 24.75 6.390625 31.78125 6.390625 
Q 38.8125 6.390625 42.859375 10.171875 
Q 46.921875 13.96875 46.921875 20.515625 
Q 46.921875 27.09375 42.890625 30.859375 
Q 38.875 34.625 31.78125 34.625 
M 21.921875 38.8125 
Q 15.578125 40.375 12.03125 44.71875 
Q 8.5 49.078125 8.5 55.328125 
Q 8.5 64.0625 14.71875 69.140625 
Q 20.953125 74.21875 31.78125 74.21875 
Q 42.671875 74.21875 48.875 69.140625 
Q 55.078125 64.0625 55.078125 55.328125 
Q 55.078125 49.078125 51.53125 44.71875 
Q 48 40.375 41.703125 38.8125 
Q 48.828125 37.15625 52.796875 32.3125 
Q 56.78125 27.484375 56.78125 20.515625 
Q 56.78125 9.90625 50.3125 4.234375 
Q 43.84375 -1.421875 31.78125 -1.421875 
Q 19.734375 -1.421875 13.25 4.234375 
Q 6.78125 9.90625 6.78125 20.515625 
Q 6.78125 27.484375 10.78125 32.3125 
Q 14.796875 37.15625 21.921875 38.8125 
M 18.3125 54.390625 
Q 18.3125 48.734375 21.84375 45.5625 
Q 25.390625 42.390625 31.78125 42.390625 
Q 38.140625 42.390625 41.71875 45.5625 
Q 45.3125 48.734375 45.3125 54.390625 
Q 45.3125 60.0625 41.71875 63.234375 
Q 38.140625 66.40625 31.78125 66.40625 
Q 25.390625 66.40625 21.84375 63.234375 
Q 18.3125 60.0625 18.3125 54.390625 
" id="DejaVuSans-38"/>
      </defs>
      <g transform="translate(362.685104 316.356875)scale(0.2 -0.2)">
       <use xlink:href="#DejaVuSans-38"/>
      </g>
     </g>
    </g>
    <g id="xtick_6">
     <g id="line2d_15">
      <defs>
       <path d="M 0 0 
L 0 2 
" id="m808c8a66aa" style="stroke:#000000;stroke-width:0.6;"/>
      </defs>
      <g>
       <use style="stroke:#000000;stroke-width:0.6;" x="68.587982" xlink:href="#m808c8a66aa" y="294.16"/>
      </g>
     </g>
    </g>
    <g id="xtick_7">
     <g id="line2d_16">
      <g>
       <use style="stroke:#000000;stroke-width:0.6;" x="80.335963" xlink:href="#m808c8a66aa" y="294.16"/>
      </g>
     </g>
    </g>
    <g id="xtick_8">
     <g id="line2d_17">
      <g>
       <use style="stroke:#000000;stroke-width:0.6;" x="87.208092" xlink:href="#m808c8a66aa" y="294.16"/>
      </g>
     </g>
    </g>
    <g id="xtick_9">
     <g id="line2d_18">
      <g>
       <use style="stroke:#000000;stroke-width:0.6;" x="92.083945" xlink:href="#m808c8a66aa" y="294.16"/>
      </g>
     </g>
    </g>
    <g id="xtick_10">
     <g id="line2d_19">
      <g>
       <use style="stroke:#000000;stroke-width:0.6;" x="146.639883" xlink:href="#m808c8a66aa" y="294.16"/>
      </g>
     </g>
    </g>
    <g id="xtick_11">
     <g id="line2d_20">
      <g>
       <use style="stroke:#000000;stroke-width:0.6;" x="158.387864" xlink:href="#m808c8a66aa" y="294.16"/>
      </g>
     </g>
    </g>
    <g id="xtick_12">
     <g id="line2d_21">
      <g>
       <use style="stroke:#000000;stroke-width:0.6;" x="165.259993" xlink:href="#m808c8a66aa" y="294.16"/>
      </g>
     </g>
    </g>
    <g id="xtick_13">
     <g id="line2d_22">
      <g>
       <use style="stroke:#000000;stroke-width:0.6;" x="170.135846" xlink:href="#m808c8a66aa" y="294.16"/>
      </g>
     </g>
    </g>
    <g id="xtick_14">
     <g id="line2d_23">
      <g>
       <use style="stroke:#000000;stroke-width:0.6;" x="224.691784" xlink:href="#m808c8a66aa" y="294.16"/>
      </g>
     </g>
    </g>
    <g id="xtick_15">
     <g id="line2d_24">
      <g>
       <use style="stroke:#000000;stroke-width:0.6;" x="236.439765" xlink:href="#m808c8a66aa" y="294.16"/>
      </g>
     </g>
    </g>
    <g id="xtick_16">
     <g id="line2d_25">
      <g>
       <use style="stroke:#000000;stroke-width:0.6;" x="243.311894" xlink:href="#m808c8a66aa" y="294.16"/>
      </g>
     </g>
    </g>
    <g id="xtick_17">
     <g id="line2d_26">
      <g>
       <use style="stroke:#000000;stroke-width:0.6;" x="248.187747" xlink:href="#m808c8a66aa" y="294.16"/>
      </g>
     </g>
    </g>
    <g id="xtick_18">
     <g id="line2d_27">
      <g>
       <use style="stroke:#000000;stroke-width:0.6;" x="302.743684" xlink:href="#m808c8a66aa" y="294.16"/>
      </g>
     </g>
    </g>
    <g id="xtick_19">
     <g id="line2d_28">
      <g>
       <use style="stroke:#000000;stroke-width:0.6;" x="314.491666" xlink:href="#m808c8a66aa" y="294.16"/>
      </g>
     </g>
    </g>
    <g id="xtick_20">
     <g id="line2d_29">
      <g>
       <use style="stroke:#000000;stroke-width:0.6;" x="321.363795" xlink:href="#m808c8a66aa" y="294.16"/>
      </g>
     </g>
    </g>
    <g id="xtick_21">
     <g id="line2d_30">
      <g>
       <use style="stroke:#000000;stroke-width:0.6;" x="326.239648" xlink:href="#m808c8a66aa" y="294.16"/>
      </g>
     </g>
    </g>
    <g id="xtick_22">
     <g id="line2d_31">
      <g>
       <use style="stroke:#000000;stroke-width:0.6;" x="380.795585" xlink:href="#m808c8a66aa" y="294.16"/>
      </g>
     </g>
    </g>
    <g id="xtick_23">
     <g id="line2d_32">
      <g>
       <use style="stroke:#000000;stroke-width:0.6;" x="392.543567" xlink:href="#m808c8a66aa" y="294.16"/>
      </g>
     </g>
    </g>
    <g id="text_6">
     <!-- log10(# f-evals / dimension) -->
     <defs>
      <path d="M 9.421875 75.984375 
L 18.40625 75.984375 
L 18.40625 0 
L 9.421875 0 
z
" id="DejaVuSans-6c"/>
      <path d="M 30.609375 48.390625 
Q 23.390625 48.390625 19.1875 42.75 
Q 14.984375 37.109375 14.984375 27.296875 
Q 14.984375 17.484375 19.15625 11.84375 
Q 23.34375 6.203125 30.609375 6.203125 
Q 37.796875 6.203125 41.984375 11.859375 
Q 46.1875 17.53125 46.1875 27.296875 
Q 46.1875 37.015625 41.984375 42.703125 
Q 37.796875 48.390625 30.609375 48.390625 
M 30.609375 56 
Q 42.328125 56 49.015625 48.375 
Q 55.71875 40.765625 55.71875 27.296875 
Q 55.71875 13.875 49.015625 6.21875 
Q 42.328125 -1.421875 30.609375 -1.421875 
Q 18.84375 -1.421875 12.171875 6.21875 
Q 5.515625 13.875 5.515625 27.296875 
Q 5.515625 40.765625 12.171875 48.375 
Q 18.84375 56 30.609375 56 
" id="DejaVuSans-6f"/>
      <path d="M 45.40625 27.984375 
Q 45.40625 37.75 41.375 43.109375 
Q 37.359375 48.484375 30.078125 48.484375 
Q 22.859375 48.484375 18.828125 43.109375 
Q 14.796875 37.75 14.796875 27.984375 
Q 14.796875 18.265625 18.828125 12.890625 
Q 22.859375 7.515625 30.078125 7.515625 
Q 37.359375 7.515625 41.375 12.890625 
Q 45.40625 18.265625 45.40625 27.984375 
M 54.390625 6.78125 
Q 54.390625 -7.171875 48.1875 -13.984375 
Q 42 -20.796875 29.203125 -20.796875 
Q 24.46875 -20.796875 20.265625 -20.09375 
Q 16.0625 -19.390625 12.109375 -17.921875 
L 12.109375 -9.1875 
Q 16.0625 -11.328125 19.921875 -12.34375 
Q 23.78125 -13.375 27.78125 -13.375 
Q 36.625 -13.375 41.015625 -8.765625 
Q 45.40625 -4.15625 45.40625 5.171875 
L 45.40625 9.625 
Q 42.625 4.78125 38.28125 2.390625 
Q 33.9375 0 27.875 0 
Q 17.828125 0 11.671875 7.65625 
Q 5.515625 15.328125 5.515625 27.984375 
Q 5.515625 40.671875 11.671875 48.328125 
Q 17.828125 56 27.875 56 
Q 33.9375 56 38.28125 53.609375 
Q 42.625 51.21875 45.40625 46.390625 
L 45.40625 54.6875 
L 54.390625 54.6875 
z
" id="DejaVuSans-67"/>
      <path d="M 12.40625 8.296875 
L 28.515625 8.296875 
L 28.515625 63.921875 
L 10.984375 60.40625 
L 10.984375 69.390625 
L 28.421875 72.90625 
L 38.28125 72.90625 
L 38.28125 8.296875 
L 54.390625 8.296875 
L 54.390625 0 
L 12.40625 0 
z
" id="DejaVuSans-31"/>
      <path d="M 31 75.875 
Q 24.46875 64.65625 21.28125 53.65625 
Q 18.109375 42.671875 18.109375 31.390625 
Q 18.109375 20.125 21.3125 9.0625 
Q 24.515625 -2 31 -13.1875 
L 23.1875 -13.1875 
Q 15.875 -1.703125 12.234375 9.375 
Q 8.59375 20.453125 8.59375 31.390625 
Q 8.59375 42.28125 12.203125 53.3125 
Q 15.828125 64.359375 23.1875 75.875 
z
" id="DejaVuSans-28"/>
      <path d="M 51.125 44 
L 36.921875 44 
L 32.8125 27.6875 
L 47.125 27.6875 
z
M 43.796875 71.78125 
L 38.71875 51.515625 
L 52.984375 51.515625 
L 58.109375 71.78125 
L 65.921875 71.78125 
L 60.890625 51.515625 
L 76.125 51.515625 
L 76.125 44 
L 58.984375 44 
L 54.984375 27.6875 
L 70.515625 27.6875 
L 70.515625 20.21875 
L 53.078125 20.21875 
L 48 0 
L 40.1875 0 
L 45.21875 20.21875 
L 30.90625 20.21875 
L 25.875 0 
L 18.015625 0 
L 23.09375 20.21875 
L 7.71875 20.21875 
L 7.71875 27.6875 
L 24.90625 27.6875 
L 29 44 
L 13.28125 44 
L 13.28125 51.515625 
L 30.90625 51.515625 
L 35.890625 71.78125 
z
" id="DejaVuSans-23"/>
      <path id="DejaVuSans-20"/>
      <path d="M 37.109375 75.984375 
L 37.109375 68.5 
L 28.515625 68.5 
Q 23.6875 68.5 21.796875 66.546875 
Q 19.921875 64.59375 19.921875 59.515625 
L 19.921875 54.6875 
L 34.71875 54.6875 
L 34.71875 47.703125 
L 19.921875 47.703125 
L 19.921875 0 
L 10.890625 0 
L 10.890625 47.703125 
L 2.296875 47.703125 
L 2.296875 54.6875 
L 10.890625 54.6875 
L 10.890625 58.5 
Q 10.890625 67.625 15.140625 71.796875 
Q 19.390625 75.984375 28.609375 75.984375 
z
" id="DejaVuSans-66"/>
      <path d="M 4.890625 31.390625 
L 31.203125 31.390625 
L 31.203125 23.390625 
L 4.890625 23.390625 
z
" id="DejaVuSans-2d"/>
      <path d="M 56.203125 29.59375 
L 56.203125 25.203125 
L 14.890625 25.203125 
Q 15.484375 15.921875 20.484375 11.0625 
Q 25.484375 6.203125 34.421875 6.203125 
Q 39.59375 6.203125 44.453125 7.46875 
Q 49.3125 8.734375 54.109375 11.28125 
L 54.109375 2.78125 
Q 49.265625 0.734375 44.1875 -0.34375 
Q 39.109375 -1.421875 33.890625 -1.421875 
Q 20.796875 -1.421875 13.15625 6.1875 
Q 5.515625 13.8125 5.515625 26.8125 
Q 5.515625 40.234375 12.765625 48.109375 
Q 20.015625 56 32.328125 56 
Q 43.359375 56 49.78125 48.890625 
Q 56.203125 41.796875 56.203125 29.59375 
M 47.21875 32.234375 
Q 47.125 39.59375 43.09375 43.984375 
Q 39.0625 48.390625 32.421875 48.390625 
Q 24.90625 48.390625 20.390625 44.140625 
Q 15.875 39.890625 15.1875 32.171875 
z
" id="DejaVuSans-65"/>
      <path d="M 2.984375 54.6875 
L 12.5 54.6875 
L 29.59375 8.796875 
L 46.6875 54.6875 
L 56.203125 54.6875 
L 35.6875 0 
L 23.484375 0 
z
" id="DejaVuSans-76"/>
      <path d="M 34.28125 27.484375 
Q 23.390625 27.484375 19.1875 25 
Q 14.984375 22.515625 14.984375 16.5 
Q 14.984375 11.71875 18.140625 8.90625 
Q 21.296875 6.109375 26.703125 6.109375 
Q 34.1875 6.109375 38.703125 11.40625 
Q 43.21875 16.703125 43.21875 25.484375 
L 43.21875 27.484375 
z
M 52.203125 31.203125 
L 52.203125 0 
L 43.21875 0 
L 43.21875 8.296875 
Q 40.140625 3.328125 35.546875 0.953125 
Q 30.953125 -1.421875 24.3125 -1.421875 
Q 15.921875 -1.421875 10.953125 3.296875 
Q 6 8.015625 6 15.921875 
Q 6 25.140625 12.171875 29.828125 
Q 18.359375 34.515625 30.609375 34.515625 
L 43.21875 34.515625 
L 43.21875 35.40625 
Q 43.21875 41.609375 39.140625 45 
Q 35.0625 48.390625 27.6875 48.390625 
Q 23 48.390625 18.546875 47.265625 
Q 14.109375 46.140625 10.015625 43.890625 
L 10.015625 52.203125 
Q 14.9375 54.109375 19.578125 55.046875 
Q 24.21875 56 28.609375 56 
Q 40.484375 56 46.34375 49.84375 
Q 52.203125 43.703125 52.203125 31.203125 
" id="DejaVuSans-61"/>
      <path d="M 44.28125 53.078125 
L 44.28125 44.578125 
Q 40.484375 46.53125 36.375 47.5 
Q 32.28125 48.484375 27.875 48.484375 
Q 21.1875 48.484375 17.84375 46.4375 
Q 14.5 44.390625 14.5 40.28125 
Q 14.5 37.15625 16.890625 35.375 
Q 19.28125 33.59375 26.515625 31.984375 
L 29.59375 31.296875 
Q 39.15625 29.25 43.1875 25.515625 
Q 47.21875 21.78125 47.21875 15.09375 
Q 47.21875 7.46875 41.1875 3.015625 
Q 35.15625 -1.421875 24.609375 -1.421875 
Q 20.21875 -1.421875 15.453125 -0.5625 
Q 10.6875 0.296875 5.421875 2 
L 5.421875 11.28125 
Q 10.40625 8.6875 15.234375 7.390625 
Q 20.0625 6.109375 24.8125 6.109375 
Q 31.15625 6.109375 34.5625 8.28125 
Q 37.984375 10.453125 37.984375 14.40625 
Q 37.984375 18.0625 35.515625 20.015625 
Q 33.0625 21.96875 24.703125 23.78125 
L 21.578125 24.515625 
Q 13.234375 26.265625 9.515625 29.90625 
Q 5.8125 33.546875 5.8125 39.890625 
Q 5.8125 47.609375 11.28125 51.796875 
Q 16.75 56 26.8125 56 
Q 31.78125 56 36.171875 55.265625 
Q 40.578125 54.546875 44.28125 53.078125 
" id="DejaVuSans-73"/>
      <path d="M 25.390625 72.90625 
L 33.6875 72.90625 
L 8.296875 -9.28125 
L 0 -9.28125 
z
" id="DejaVuSans-2f"/>
      <path d="M 45.40625 46.390625 
L 45.40625 75.984375 
L 54.390625 75.984375 
L 54.390625 0 
L 45.40625 0 
L 45.40625 8.203125 
Q 42.578125 3.328125 38.25 0.953125 
Q 33.9375 -1.421875 27.875 -1.421875 
Q 17.96875 -1.421875 11.734375 6.484375 
Q 5.515625 14.40625 5.515625 27.296875 
Q 5.515625 40.1875 11.734375 48.09375 
Q 17.96875 56 27.875 56 
Q 33.9375 56 38.25 53.625 
Q 42.578125 51.265625 45.40625 46.390625 
M 14.796875 27.296875 
Q 14.796875 17.390625 18.875 11.75 
Q 22.953125 6.109375 30.078125 6.109375 
Q 37.203125 6.109375 41.296875 11.75 
Q 45.40625 17.390625 45.40625 27.296875 
Q 45.40625 37.203125 41.296875 42.84375 
Q 37.203125 48.484375 30.078125 48.484375 
Q 22.953125 48.484375 18.875 42.84375 
Q 14.796875 37.203125 14.796875 27.296875 
" id="DejaVuSans-64"/>
      <path d="M 9.421875 54.6875 
L 18.40625 54.6875 
L 18.40625 0 
L 9.421875 0 
z
M 9.421875 75.984375 
L 18.40625 75.984375 
L 18.40625 64.59375 
L 9.421875 64.59375 
z
" id="DejaVuSans-69"/>
      <path d="M 52 44.1875 
Q 55.375 50.25 60.0625 53.125 
Q 64.75 56 71.09375 56 
Q 79.640625 56 84.28125 50.015625 
Q 88.921875 44.046875 88.921875 33.015625 
L 88.921875 0 
L 79.890625 0 
L 79.890625 32.71875 
Q 79.890625 40.578125 77.09375 44.375 
Q 74.3125 48.1875 68.609375 48.1875 
Q 61.625 48.1875 57.5625 43.546875 
Q 53.515625 38.921875 53.515625 30.90625 
L 53.515625 0 
L 44.484375 0 
L 44.484375 32.71875 
Q 44.484375 40.625 41.703125 44.40625 
Q 38.921875 48.1875 33.109375 48.1875 
Q 26.21875 48.1875 22.15625 43.53125 
Q 18.109375 38.875 18.109375 30.90625 
L 18.109375 0 
L 9.078125 0 
L 9.078125 54.6875 
L 18.109375 54.6875 
L 18.109375 46.1875 
Q 21.1875 51.21875 25.484375 53.609375 
Q 29.78125 56 35.6875 56 
Q 41.65625 56 45.828125 52.96875 
Q 50 49.953125 52 44.1875 
" id="DejaVuSans-6d"/>
      <path d="M 54.890625 33.015625 
L 54.890625 0 
L 45.90625 0 
L 45.90625 32.71875 
Q 45.90625 40.484375 42.875 44.328125 
Q 39.84375 48.1875 33.796875 48.1875 
Q 26.515625 48.1875 22.3125 43.546875 
Q 18.109375 38.921875 18.109375 30.90625 
L 18.109375 0 
L 9.078125 0 
L 9.078125 54.6875 
L 18.109375 54.6875 
L 18.109375 46.1875 
Q 21.34375 51.125 25.703125 53.5625 
Q 30.078125 56 35.796875 56 
Q 45.21875 56 50.046875 50.171875 
Q 54.890625 44.34375 54.890625 33.015625 
" id="DejaVuSans-6e"/>
      <path d="M 8.015625 75.875 
L 15.828125 75.875 
Q 23.140625 64.359375 26.78125 53.3125 
Q 30.421875 42.28125 30.421875 31.390625 
Q 30.421875 20.453125 26.78125 9.375 
Q 23.140625 -1.703125 15.828125 -13.1875 
L 8.015625 -13.1875 
Q 14.5 -2 17.703125 9.0625 
Q 20.90625 20.125 20.90625 31.390625 
Q 20.90625 42.671875 17.703125 53.65625 
Q 14.5 64.65625 8.015625 75.875 
" id="DejaVuSans-29"/>
     </defs>
     <g transform="translate(105.371844 337.433594)scale(0.17 -0.17)">
      <use xlink:href="#DejaVuSans-6c"/>
      <use x="27.783203" xlink:href="#DejaVuSans-6f"/>
      <use x="88.964844" xlink:href="#DejaVuSans-67"/>
      <use x="152.441406" xlink:href="#DejaVuSans-31"/>
      <use x="216.064453" xlink:href="#DejaVuSans-30"/>
      <use x="279.6875" xlink:href="#DejaVuSans-28"/>
      <use x="318.701172" xlink:href="#DejaVuSans-23"/>
      <use x="402.490234" xlink:href="#DejaVuSans-20"/>
      <use x="434.277344" xlink:href="#DejaVuSans-66"/>
      <use x="469.404297" xlink:href="#DejaVuSans-2d"/>
      <use x="505.488281" xlink:href="#DejaVuSans-65"/>
      <use x="567.011719" xlink:href="#DejaVuSans-76"/>
      <use x="626.191406" xlink:href="#DejaVuSans-61"/>
      <use x="687.470703" xlink:href="#DejaVuSans-6c"/>
      <use x="715.253906" xlink:href="#DejaVuSans-73"/>
      <use x="767.353516" xlink:href="#DejaVuSans-20"/>
      <use x="799.140625" xlink:href="#DejaVuSans-2f"/>
      <use x="832.832031" xlink:href="#DejaVuSans-20"/>
      <use x="864.619141" xlink:href="#DejaVuSans-64"/>
      <use x="928.095703" xlink:href="#DejaVuSans-69"/>
      <use x="955.878906" xlink:href="#DejaVuSans-6d"/>
      <use x="1053.291016" xlink:href="#DejaVuSans-65"/>
      <use x="1114.814453" xlink:href="#DejaVuSans-6e"/>
      <use x="1178.193359" xlink:href="#DejaVuSans-73"/>
      <use x="1230.292969" xlink:href="#DejaVuSans-69"/>
      <use x="1258.076172" xlink:href="#DejaVuSans-6f"/>
      <use x="1319.257812" xlink:href="#DejaVuSans-6e"/>
      <use x="1382.636719" xlink:href="#DejaVuSans-29"/>
     </g>
    </g>
   </g>
   <g id="matplotlib.axis_2">
    <g id="ytick_1">
     <g id="line2d_33">
      <path clip-path="url(#pefc59fcdb9)" d="M 56.84 294.16 
L 395.58525 294.16 
" style="fill:none;stroke:#b0b0b0;stroke-linecap:square;stroke-width:0.8;"/>
     </g>
     <g id="line2d_34">
      <defs>
       <path d="M 0 0 
L -3.5 0 
" id="mec95da90cb" style="stroke:#000000;stroke-width:0.8;"/>
      </defs>
      <g>
       <use style="stroke:#000000;stroke-width:0.8;" x="56.84" xlink:href="#mec95da90cb" y="294.16"/>
      </g>
     </g>
     <g id="text_7">
      <!-- 0.0 -->
      <defs>
       <path d="M 10.6875 12.40625 
L 21 12.40625 
L 21 0 
L 10.6875 0 
z
" id="DejaVuSans-2e"/>
      </defs>
      <g transform="translate(24.395 300.23875)scale(0.16 -0.16)">
       <use xlink:href="#DejaVuSans-30"/>
       <use x="63.623047" xlink:href="#DejaVuSans-2e"/>
       <use x="95.410156" xlink:href="#DejaVuSans-30"/>
      </g>
     </g>
    </g>
    <g id="ytick_2">
     <g id="line2d_35">
      <path clip-path="url(#pefc59fcdb9)" d="M 56.84 240.829307 
L 395.58525 240.829307 
" style="fill:none;stroke:#b0b0b0;stroke-linecap:square;stroke-width:0.8;"/>
     </g>
     <g id="line2d_36">
      <g>
       <use style="stroke:#000000;stroke-width:0.8;" x="56.84" xlink:href="#mec95da90cb" y="240.829307"/>
      </g>
     </g>
     <g id="text_8">
      <!-- 0.2 -->
      <g transform="translate(24.395 246.908057)scale(0.16 -0.16)">
       <use xlink:href="#DejaVuSans-30"/>
       <use x="63.623047" xlink:href="#DejaVuSans-2e"/>
       <use x="95.410156" xlink:href="#DejaVuSans-32"/>
      </g>
     </g>
    </g>
    <g id="ytick_3">
     <g id="line2d_37">
      <path clip-path="url(#pefc59fcdb9)" d="M 56.84 187.498614 
L 395.58525 187.498614 
" style="fill:none;stroke:#b0b0b0;stroke-linecap:square;stroke-width:0.8;"/>
     </g>
     <g id="line2d_38">
      <g>
       <use style="stroke:#000000;stroke-width:0.8;" x="56.84" xlink:href="#mec95da90cb" y="187.498614"/>
      </g>
     </g>
     <g id="text_9">
      <!-- 0.4 -->
      <g transform="translate(24.395 193.577364)scale(0.16 -0.16)">
       <use xlink:href="#DejaVuSans-30"/>
       <use x="63.623047" xlink:href="#DejaVuSans-2e"/>
       <use x="95.410156" xlink:href="#DejaVuSans-34"/>
      </g>
     </g>
    </g>
    <g id="ytick_4">
     <g id="line2d_39">
      <path clip-path="url(#pefc59fcdb9)" d="M 56.84 134.167921 
L 395.58525 134.167921 
" style="fill:none;stroke:#b0b0b0;stroke-linecap:square;stroke-width:0.8;"/>
     </g>
     <g id="line2d_40">
      <g>
       <use style="stroke:#000000;stroke-width:0.8;" x="56.84" xlink:href="#mec95da90cb" y="134.167921"/>
      </g>
     </g>
     <g id="text_10">
      <!-- 0.6 -->
      <g transform="translate(24.395 140.246671)scale(0.16 -0.16)">
       <use xlink:href="#DejaVuSans-30"/>
       <use x="63.623047" xlink:href="#DejaVuSans-2e"/>
       <use x="95.410156" xlink:href="#DejaVuSans-36"/>
      </g>
     </g>
    </g>
    <g id="ytick_5">
     <g id="line2d_41">
      <path clip-path="url(#pefc59fcdb9)" d="M 56.84 80.837228 
L 395.58525 80.837228 
" style="fill:none;stroke:#b0b0b0;stroke-linecap:square;stroke-width:0.8;"/>
     </g>
     <g id="line2d_42">
      <g>
       <use style="stroke:#000000;stroke-width:0.8;" x="56.84" xlink:href="#mec95da90cb" y="80.837228"/>
      </g>
     </g>
     <g id="text_11">
      <!-- 0.8 -->
      <g transform="translate(24.395 86.915978)scale(0.16 -0.16)">
       <use xlink:href="#DejaVuSans-30"/>
       <use x="63.623047" xlink:href="#DejaVuSans-2e"/>
       <use x="95.410156" xlink:href="#DejaVuSans-38"/>
      </g>
     </g>
    </g>
    <g id="ytick_6">
     <g id="line2d_43">
      <path clip-path="url(#pefc59fcdb9)" d="M 56.84 27.506535 
L 395.58525 27.506535 
" style="fill:none;stroke:#b0b0b0;stroke-linecap:square;stroke-width:0.8;"/>
     </g>
     <g id="line2d_44">
      <g>
       <use style="stroke:#000000;stroke-width:0.8;" x="56.84" xlink:href="#mec95da90cb" y="27.506535"/>
      </g>
     </g>
     <g id="text_12">
      <!-- 1.0 -->
      <g transform="translate(24.395 33.585285)scale(0.16 -0.16)">
       <use xlink:href="#DejaVuSans-31"/>
       <use x="63.623047" xlink:href="#DejaVuSans-2e"/>
       <use x="95.410156" xlink:href="#DejaVuSans-30"/>
      </g>
     </g>
    </g>
    <g id="text_13">
     <!-- Fraction of function,target pairs -->
     <defs>
      <path d="M 9.8125 72.90625 
L 51.703125 72.90625 
L 51.703125 64.59375 
L 19.671875 64.59375 
L 19.671875 43.109375 
L 48.578125 43.109375 
L 48.578125 34.8125 
L 19.671875 34.8125 
L 19.671875 0 
L 9.8125 0 
z
" id="DejaVuSans-46"/>
      <path d="M 41.109375 46.296875 
Q 39.59375 47.171875 37.8125 47.578125 
Q 36.03125 48 33.890625 48 
Q 26.265625 48 22.1875 43.046875 
Q 18.109375 38.09375 18.109375 28.8125 
L 18.109375 0 
L 9.078125 0 
L 9.078125 54.6875 
L 18.109375 54.6875 
L 18.109375 46.1875 
Q 20.953125 51.171875 25.484375 53.578125 
Q 30.03125 56 36.53125 56 
Q 37.453125 56 38.578125 55.875 
Q 39.703125 55.765625 41.0625 55.515625 
z
" id="DejaVuSans-72"/>
      <path d="M 48.78125 52.59375 
L 48.78125 44.1875 
Q 44.96875 46.296875 41.140625 47.34375 
Q 37.3125 48.390625 33.40625 48.390625 
Q 24.65625 48.390625 19.8125 42.84375 
Q 14.984375 37.3125 14.984375 27.296875 
Q 14.984375 17.28125 19.8125 11.734375 
Q 24.65625 6.203125 33.40625 6.203125 
Q 37.3125 6.203125 41.140625 7.25 
Q 44.96875 8.296875 48.78125 10.40625 
L 48.78125 2.09375 
Q 45.015625 0.34375 40.984375 -0.53125 
Q 36.96875 -1.421875 32.421875 -1.421875 
Q 20.0625 -1.421875 12.78125 6.34375 
Q 5.515625 14.109375 5.515625 27.296875 
Q 5.515625 40.671875 12.859375 48.328125 
Q 20.21875 56 33.015625 56 
Q 37.15625 56 41.109375 55.140625 
Q 45.0625 54.296875 48.78125 52.59375 
" id="DejaVuSans-63"/>
      <path d="M 18.3125 70.21875 
L 18.3125 54.6875 
L 36.8125 54.6875 
L 36.8125 47.703125 
L 18.3125 47.703125 
L 18.3125 18.015625 
Q 18.3125 11.328125 20.140625 9.421875 
Q 21.96875 7.515625 27.59375 7.515625 
L 36.8125 7.515625 
L 36.8125 0 
L 27.59375 0 
Q 17.1875 0 13.234375 3.875 
Q 9.28125 7.765625 9.28125 18.015625 
L 9.28125 47.703125 
L 2.6875 47.703125 
L 2.6875 54.6875 
L 9.28125 54.6875 
L 9.28125 70.21875 
z
" id="DejaVuSans-74"/>
      <path d="M 8.5 21.578125 
L 8.5 54.6875 
L 17.484375 54.6875 
L 17.484375 21.921875 
Q 17.484375 14.15625 20.5 10.265625 
Q 23.53125 6.390625 29.59375 6.390625 
Q 36.859375 6.390625 41.078125 11.03125 
Q 45.3125 15.671875 45.3125 23.6875 
L 45.3125 54.6875 
L 54.296875 54.6875 
L 54.296875 0 
L 45.3125 0 
L 45.3125 8.40625 
Q 42.046875 3.421875 37.71875 1 
Q 33.40625 -1.421875 27.6875 -1.421875 
Q 18.265625 -1.421875 13.375 4.4375 
Q 8.5 10.296875 8.5 21.578125 
M 31.109375 56 
z
" id="DejaVuSans-75"/>
      <path d="M 11.71875 12.40625 
L 22.015625 12.40625 
L 22.015625 4 
L 14.015625 -11.625 
L 7.71875 -11.625 
L 11.71875 4 
z
" id="DejaVuSans-2c"/>
      <path d="M 18.109375 8.203125 
L 18.109375 -20.796875 
L 9.078125 -20.796875 
L 9.078125 54.6875 
L 18.109375 54.6875 
L 18.109375 46.390625 
Q 20.953125 51.265625 25.265625 53.625 
Q 29.59375 56 35.59375 56 
Q 45.5625 56 51.78125 48.09375 
Q 58.015625 40.1875 58.015625 27.296875 
Q 58.015625 14.40625 51.78125 6.484375 
Q 45.5625 -1.421875 35.59375 -1.421875 
Q 29.59375 -1.421875 25.265625 0.953125 
Q 20.953125 3.328125 18.109375 8.203125 
M 48.6875 27.296875 
Q 48.6875 37.203125 44.609375 42.84375 
Q 40.53125 48.484375 33.40625 48.484375 
Q 26.265625 48.484375 22.1875 42.84375 
Q 18.109375 37.203125 18.109375 27.296875 
Q 18.109375 17.390625 22.1875 11.75 
Q 26.265625 6.109375 33.40625 6.109375 
Q 40.53125 6.109375 44.609375 11.75 
Q 48.6875 17.390625 48.6875 27.296875 
" id="DejaVuSans-70"/>
     </defs>
     <g transform="translate(16.859531 294.639375)rotate(-90)scale(0.17 -0.17)">
      <use xlink:href="#DejaVuSans-46"/>
      <use x="57.410156" xlink:href="#DejaVuSans-72"/>
      <use x="98.523438" xlink:href="#DejaVuSans-61"/>
      <use x="159.802734" xlink:href="#DejaVuSans-63"/>
      <use x="214.783203" xlink:href="#DejaVuSans-74"/>
      <use x="253.992188" xlink:href="#DejaVuSans-69"/>
      <use x="281.775391" xlink:href="#DejaVuSans-6f"/>
      <use x="342.957031" xlink:href="#DejaVuSans-6e"/>
      <use x="406.335938" xlink:href="#DejaVuSans-20"/>
      <use x="438.123047" xlink:href="#DejaVuSans-6f"/>
      <use x="499.304688" xlink:href="#DejaVuSans-66"/>
      <use x="534.509766" xlink:href="#DejaVuSans-20"/>
      <use x="566.296875" xlink:href="#DejaVuSans-66"/>
      <use x="601.501953" xlink:href="#DejaVuSans-75"/>
      <use x="664.880859" xlink:href="#DejaVuSans-6e"/>
      <use x="728.259766" xlink:href="#DejaVuSans-63"/>
      <use x="783.240234" xlink:href="#DejaVuSans-74"/>
      <use x="822.449219" xlink:href="#DejaVuSans-69"/>
      <use x="850.232422" xlink:href="#DejaVuSans-6f"/>
      <use x="911.414062" xlink:href="#DejaVuSans-6e"/>
      <use x="974.792969" xlink:href="#DejaVuSans-2c"/>
      <use x="1006.580078" xlink:href="#DejaVuSans-74"/>
      <use x="1045.789062" xlink:href="#DejaVuSans-61"/>
      <use x="1107.068359" xlink:href="#DejaVuSans-72"/>
      <use x="1148.166016" xlink:href="#DejaVuSans-67"/>
      <use x="1211.642578" xlink:href="#DejaVuSans-65"/>
      <use x="1273.166016" xlink:href="#DejaVuSans-74"/>
      <use x="1312.375" xlink:href="#DejaVuSans-20"/>
      <use x="1344.162109" xlink:href="#DejaVuSans-70"/>
      <use x="1407.638672" xlink:href="#DejaVuSans-61"/>
      <use x="1468.917969" xlink:href="#DejaVuSans-69"/>
      <use x="1496.701172" xlink:href="#DejaVuSans-72"/>
      <use x="1537.814453" xlink:href="#DejaVuSans-73"/>
     </g>
    </g>
   </g>
   <g id="line2d_45">
    <defs>
     <path d="M 0 1.5 
C 0.397805 1.5 0.77937 1.341951 1.06066 1.06066 
C 1.341951 0.77937 1.5 0.397805 1.5 0 
C 1.5 -0.397805 1.341951 -0.77937 1.06066 -1.06066 
C 0.77937 -1.341951 0.397805 -1.5 0 -1.5 
C -0.397805 -1.5 -0.77937 -1.341951 -1.06066 -1.06066 
C -1.341951 -0.77937 -1.5 -0.397805 -1.5 0 
C -1.5 0.397805 -1.341951 0.77937 -1.06066 1.06066 
C -0.77937 1.341951 -0.397805 1.5 0 1.5 
z
" id="mbd54c2469c" style="stroke:#f5deb3;"/>
    </defs>
    <g>
     <use style="fill:#f5deb3;stroke:#f5deb3;" x="250.176237" xlink:href="#mbd54c2469c" y="59.688849"/>
     <use style="fill:#f5deb3;stroke:#f5deb3;" x="250.176237" xlink:href="#mbd54c2469c" y="59.688849"/>
    </g>
   </g>
   <g id="line2d_46">
    <defs>
     <path d="M 0 1.5 
C 0.397805 1.5 0.77937 1.341951 1.06066 1.06066 
C 1.341951 0.77937 1.5 0.397805 1.5 0 
C 1.5 -0.397805 1.341951 -0.77937 1.06066 -1.06066 
C 0.77937 -1.341951 0.397805 -1.5 0 -1.5 
C -0.397805 -1.5 -0.77937 -1.341951 -1.06066 -1.06066 
C -1.341951 -0.77937 -1.5 -0.397805 -1.5 0 
C -1.5 0.397805 -1.341951 0.77937 -1.06066 1.06066 
C -0.77937 1.341951 -0.397805 1.5 0 1.5 
z
" id="me57f000a5d" style="stroke:#000080;"/>
    </defs>
    <g>
     <use style="fill:#000080;stroke:#000080;" x="311.171193" xlink:href="#me57f000a5d" y="119.456005"/>
     <use style="fill:#000080;stroke:#000080;" x="311.171193" xlink:href="#me57f000a5d" y="119.456005"/>
    </g>
   </g>
   <g id="line2d_47">
    <path d="M 38.21989 294.16 
L 38.21989 282.666316 
L 128.765804 282.666316 
L 128.765804 281.287074 
L 134.664397 281.287074 
L 134.664397 280.827327 
L 139.554559 280.827327 
L 139.554559 279.907832 
L 139.810073 279.907832 
L 139.852286 278.068843 
L 140.144874 278.068843 
L 140.144874 276.689601 
L 142.89315 276.689601 
L 142.998532 274.850611 
L 143.751934 274.850611 
L 143.751934 274.390864 
L 144.083622 274.390864 
L 144.083622 272.092127 
L 144.473266 272.092127 
L 144.473266 271.172632 
L 144.979237 271.172632 
L 145.010364 270.253138 
L 146.639883 270.253138 
L 146.668107 269.333643 
L 146.920034 269.333643 
L 146.947796 266.575159 
L 147.600798 266.575159 
L 147.627468 264.736169 
L 147.73373 264.736169 
L 147.73373 264.276422 
L 149.179751 264.276422 
L 149.179751 262.437433 
L 149.325027 262.437433 
L 149.397201 261.058191 
L 149.56442 261.058191 
L 149.56442 259.678948 
L 149.682861 259.678948 
L 149.682861 257.380212 
L 149.823905 257.380212 
L 149.823905 256.460717 
L 149.963786 256.460717 
L 149.963786 255.081475 
L 150.079477 255.081475 
L 150.079477 254.621728 
L 150.331253 254.621728 
L 150.331253 254.16198 
L 150.489548 254.16198 
L 150.489548 252.782738 
L 150.690921 252.782738 
L 150.801771 250.024254 
L 150.845908 250.024254 
L 150.933839 249.104759 
L 150.977635 249.104759 
L 150.99949 247.725517 
L 151.621336 247.725517 
L 151.726282 246.806023 
L 151.830582 246.806023 
L 151.830582 246.346275 
L 152.078315 246.346275 
L 152.078315 245.42678 
L 152.221171 245.42678 
L 152.221171 244.507286 
L 152.342668 244.507286 
L 152.342668 243.587791 
L 152.4633 243.587791 
L 152.523296 241.289054 
L 153.322638 241.289054 
L 153.341671 238.53057 
L 153.436516 238.53057 
L 153.436516 238.070823 
L 153.717907 238.070823 
L 153.792162 236.231833 
L 153.958057 236.231833 
L 154.03127 233.933097 
L 154.267051 233.933097 
L 154.267051 233.013602 
L 154.428383 233.013602 
L 154.517354 231.63436 
L 154.552811 231.63436 
L 154.552811 230.714865 
L 154.728995 230.714865 
L 154.816405 228.875876 
L 155.666571 228.875876 
L 155.666571 228.416128 
L 155.782263 228.416128 
L 155.848019 225.657644 
L 156.173029 225.657644 
L 156.173029 224.73815 
L 156.380992 224.73815 
L 156.380992 223.358907 
L 157.020644 223.358907 
L 157.066513 221.060171 
L 157.142688 221.060171 
L 157.173062 219.221181 
L 157.263859 219.221181 
L 157.263859 218.761434 
L 157.666532 218.761434 
L 157.710688 217.841939 
L 158.416089 217.841939 
L 158.416089 216.462697 
L 158.528519 216.462697 
L 158.626287 212.784718 
L 158.888849 212.784718 
L 158.888849 212.324971 
L 159.547789 212.324971 
L 159.547789 210.485982 
L 159.900221 210.485982 
L 160.003253 208.187245 
L 160.054535 208.187245 
L 160.118421 205.888508 
L 161.024722 205.888508 
L 161.024722 204.969013 
L 161.240938 204.969013 
L 161.240938 204.049519 
L 161.359877 204.049519 
L 161.359877 202.670277 
L 161.999529 202.670277 
L 161.999529 201.750782 
L 162.856327 201.750782 
L 162.856327 200.37154 
L 163.114763 200.37154 
L 163.114763 199.452045 
L 163.306036 199.452045 
L 163.306036 198.072803 
L 163.692558 198.072803 
L 163.692558 197.153308 
L 164.341005 197.153308 
L 164.341005 196.233814 
L 164.499313 196.233814 
L 164.528832 194.394824 
L 165.344526 194.394824 
L 165.344526 193.935077 
L 166.686008 193.935077 
L 166.686008 193.015582 
L 167.088042 193.015582 
L 167.088042 192.096087 
L 167.222757 192.096087 
L 167.222757 191.63634 
L 167.489017 191.63634 
L 167.489017 191.176593 
L 168.04929 191.176593 
L 168.04929 190.716845 
L 168.397131 190.716845 
L 168.397131 189.797351 
L 168.860241 189.797351 
L 168.860241 189.337603 
L 169.466018 189.337603 
L 169.466018 188.877856 
L 170.255477 188.877856 
L 170.283503 187.038867 
L 170.664234 187.038867 
L 170.664234 185.659624 
L 170.956052 185.659624 
L 170.956052 185.199877 
L 171.706235 185.199877 
L 171.706235 184.74013 
L 173.143379 184.74013 
L 173.143379 184.280382 
L 174.857401 184.280382 
L 174.857401 183.820635 
L 175.237931 183.820635 
L 175.237931 183.360888 
L 176.197983 183.360888 
L 176.197983 182.90114 
L 176.325898 182.90114 
L 176.325898 182.441393 
L 176.655953 182.441393 
L 176.655953 181.521898 
L 176.989132 181.521898 
L 176.989132 180.602404 
L 180.184192 180.602404 
L 180.184192 179.682909 
L 181.670633 179.682909 
L 181.670633 178.763414 
L 181.922624 178.763414 
L 181.922624 177.384172 
L 183.129269 177.384172 
L 183.129269 176.00493 
L 184.246477 176.00493 
L 184.246477 175.545183 
L 184.805394 175.545183 
L 184.805394 174.625688 
L 185.167051 174.625688 
L 185.167051 174.165941 
L 185.915393 174.165941 
L 185.97652 171.867204 
L 186.775563 171.867204 
L 186.775563 170.947709 
L 188.137478 170.947709 
L 188.137478 170.028214 
L 191.137025 170.028214 
L 191.137025 169.568467 
L 192.784738 169.568467 
L 192.784738 168.189225 
L 194.818093 168.189225 
L 194.818093 167.26973 
L 197.124645 167.26973 
L 197.124645 166.350236 
L 197.457543 166.350236 
L 197.457543 165.890488 
L 197.972295 165.890488 
L 197.972295 165.430741 
L 199.218178 165.430741 
L 199.218178 164.970994 
L 199.601096 164.970994 
L 199.613506 163.132004 
L 204.001084 163.132004 
L 204.001084 162.672257 
L 205.763816 162.672257 
L 205.763816 162.212509 
L 208.121347 162.212509 
L 208.121347 161.752762 
L 212.74719 161.752762 
L 212.74719 160.833267 
L 213.74381 160.833267 
L 213.74381 159.913773 
L 215.028732 159.913773 
L 215.028732 158.994278 
L 215.156141 158.994278 
L 215.156141 158.534531 
L 215.388569 158.534531 
L 215.388569 157.615036 
L 216.289051 157.615036 
L 216.289051 156.695541 
L 219.542175 156.695541 
L 219.542175 156.235794 
L 220.240685 156.235794 
L 220.240685 155.316299 
L 221.683157 155.316299 
L 221.683157 154.856552 
L 222.984652 154.856552 
L 222.984652 154.396804 
L 223.640969 154.396804 
L 223.640969 153.937057 
L 226.708135 153.937057 
L 226.708135 153.017562 
L 226.91131 153.017562 
L 226.91131 150.718826 
L 227.635327 150.718826 
L 227.635327 150.259078 
L 227.781201 150.259078 
L 227.781201 148.420089 
L 229.797422 148.420089 
L 229.797422 147.500594 
L 231.164526 147.500594 
L 231.221309 146.121352 
L 232.24223 146.121352 
L 232.24223 145.201857 
L 233.67613 145.201857 
L 233.67613 144.74211 
L 234.487182 144.74211 
L 234.487182 144.282363 
L 235.141912 144.282363 
L 235.141912 143.822615 
L 236.318004 143.822615 
L 236.318004 143.362868 
L 237.694522 143.362868 
L 237.694522 142.443373 
L 239.269309 142.443373 
L 239.269309 141.983626 
L 240.192254 141.983626 
L 240.192254 141.523878 
L 240.885644 141.523878 
L 240.885644 141.064131 
L 243.074081 141.064131 
L 243.074081 140.604384 
L 245.392078 140.604384 
L 245.392078 139.684889 
L 246.086248 139.684889 
L 246.086248 137.8459 
L 247.422734 137.8459 
L 247.422734 136.00691 
L 249.619885 136.00691 
L 249.619885 135.547163 
L 256.93292 135.547163 
L 256.93292 135.087416 
L 258.836532 135.087416 
L 258.836607 133.708173 
L 259.851234 133.708173 
L 259.851234 132.788679 
L 261.600031 132.788679 
L 261.600031 132.328931 
L 265.87231 132.328931 
L 265.87231 131.869184 
L 269.846842 131.869184 
L 269.84694 130.949689 
L 272.414597 130.949689 
L 272.414597 130.489942 
L 273.204058 130.489942 
L 273.204139 129.570447 
L 276.853874 129.570447 
L 276.853913 128.650953 
L 280.368464 128.650953 
L 280.368485 127.731458 
L 280.866602 127.731458 
L 280.866602 127.27171 
L 283.698466 127.27171 
L 283.698466 126.811963 
L 284.377003 126.811963 
L 284.377003 126.352216 
L 284.640003 126.352216 
L 284.640077 125.432721 
L 286.124241 125.432721 
L 286.124248 124.513226 
L 286.713854 124.513226 
L 286.713854 124.053479 
L 286.943209 124.053479 
L 286.943209 123.593732 
L 288.245881 123.593732 
L 288.245881 123.133984 
L 288.767181 123.133984 
L 288.767181 122.674237 
L 290.131191 122.674237 
L 290.168391 121.754742 
L 292.416641 121.754742 
L 292.416641 121.294995 
L 293.133355 121.294995 
L 293.133355 120.835248 
L 293.908236 120.835248 
L 293.908236 120.3755 
L 304.26552 120.3755 
L 304.26552 119.915753 
L 311.171193 119.915753 
L 311.171193 119.456005 
L 330.021653 119.456005 
L 330.021653 119.456005 
" style="fill:none;stroke:#000080;stroke-linecap:square;stroke-width:1.5;"/>
   </g>
   <g id="line2d_48">
    <defs>
     <path d="M 0 6 
C 1.591219 6 3.117479 5.367802 4.242641 4.242641 
C 5.367802 3.117479 6 1.591219 6 0 
C 6 -1.591219 5.367802 -3.117479 4.242641 -4.242641 
C 3.117479 -5.367802 1.591219 -6 0 -6 
C -1.591219 -6 -3.117479 -5.367802 -4.242641 -4.242641 
C -5.367802 -3.117479 -6 -1.591219 -6 0 
C -6 1.591219 -5.367802 3.117479 -4.242641 4.242641 
C -3.117479 5.367802 -1.591219 6 0 6 
z
" id="mf1f087ed3c" style="stroke:#000080;stroke-width:1.5;"/>
    </defs>
    <g>
     <use style="fill:none;stroke:#000080;stroke-width:1.5;" x="151.830582" xlink:href="#mf1f087ed3c" y="246.346275"/>
     <use style="fill:none;stroke:#000080;stroke-width:1.5;" x="216.289051" xlink:href="#mf1f087ed3c" y="157.615036"/>
     <use style="fill:none;stroke:#000080;stroke-width:1.5;" x="284.640077" xlink:href="#mf1f087ed3c" y="125.892468"/>
     <use style="fill:none;stroke:#000080;stroke-width:1.5;" x="311.171193" xlink:href="#mf1f087ed3c" y="119.456005"/>
     <use style="fill:none;stroke:#000080;stroke-width:1.5;" x="330.021653" xlink:href="#mf1f087ed3c" y="119.456005"/>
    </g>
   </g>
   <g id="line2d_49">
    <path style="fill:none;stroke:#000080;stroke-linecap:square;stroke-width:1.5;"/>
    <g/>
   </g>
   <g id="line2d_50">
    <path clip-path="url(#pefc59fcdb9)" d="M 251.976559 135.547163 
" style="fill:none;stroke:#000080;stroke-linecap:square;stroke-width:1.5;"/>
    <defs>
     <path d="M -12 12 
L 12 -12 
M -12 -12 
L 12 12 
" id="m54a069b311" style="stroke:#000080;stroke-width:3;"/>
    </defs>
    <g clip-path="url(#pefc59fcdb9)">
     <use style="fill:#000080;stroke:#000080;stroke-width:3;" x="251.976559" xlink:href="#m54a069b311" y="135.547163"/>
    </g>
   </g>
   <g id="line2d_51">
    <defs>
     <path d="M 0 1.5 
C 0.397805 1.5 0.77937 1.341951 1.06066 1.06066 
C 1.341951 0.77937 1.5 0.397805 1.5 0 
C 1.5 -0.397805 1.341951 -0.77937 1.06066 -1.06066 
C 0.77937 -1.341951 0.397805 -1.5 0 -1.5 
C -0.397805 -1.5 -0.77937 -1.341951 -1.06066 -1.06066 
C -1.341951 -0.77937 -1.5 -0.397805 -1.5 0 
C -1.5 0.397805 -1.341951 0.77937 -1.06066 1.06066 
C -0.77937 1.341951 -0.397805 1.5 0 1.5 
z
" id="mea60cbcd9a" style="stroke:#ff00ff;"/>
    </defs>
    <g>
     <use style="fill:#ff00ff;stroke:#ff00ff;" x="348.066256" xlink:href="#mea60cbcd9a" y="137.8459"/>
     <use style="fill:#ff00ff;stroke:#ff00ff;" x="348.066256" xlink:href="#mea60cbcd9a" y="137.8459"/>
    </g>
   </g>
   <g id="line2d_52">
    <path d="M 49.967871 294.16 
L 49.967871 293.240505 
L 61.715853 293.240505 
L 61.715853 292.780758 
L 73.463835 292.780758 
L 73.463835 290.941769 
L 75.46011 290.941769 
L 75.46011 285.884548 
L 77.24584 285.884548 
L 77.24584 280.827327 
L 84.117969 280.827327 
L 84.117969 278.068843 
L 85.211816 278.068843 
L 85.211816 277.609095 
L 88.993822 277.609095 
L 88.993822 275.310358 
L 89.820754 275.310358 
L 89.820754 274.850611 
L 92.083945 274.850611 
L 92.083945 272.092127 
L 95.86595 272.092127 
L 95.86595 270.712885 
L 96.421697 270.712885 
L 96.421697 269.79339 
L 101.967549 269.79339 
L 101.967549 268.873896 
L 105.828203 268.873896 
L 105.828203 267.494653 
L 108.440865 267.494653 
L 108.440865 266.575159 
L 109.735292 266.575159 
L 109.735292 265.655664 
L 113.113736 265.655664 
L 113.113736 262.437433 
L 113.517297 262.437433 
L 113.517297 261.517938 
L 114.673342 261.517938 
L 114.673342 261.058191 
L 118.787325 261.058191 
L 118.787325 260.138696 
L 123.916961 260.138696 
L 124.024572 255.541222 
L 124.759308 255.541222 
L 124.759308 255.081475 
L 125.165286 255.081475 
L 125.165286 254.16198 
L 127.677361 254.16198 
L 127.677361 253.702233 
L 128.355402 253.702233 
L 128.438281 252.322991 
L 130.68079 252.322991 
L 130.68079 251.403496 
L 132.003952 251.403496 
L 132.003952 250.943749 
L 135.172052 250.943749 
L 135.282829 247.725517 
L 137.063036 247.725517 
L 137.063036 247.26577 
L 139.640159 247.26577 
L 139.640159 246.806023 
L 140.513785 246.806023 
L 140.594686 245.42678 
L 141.98852 245.42678 
L 141.98852 244.507286 
L 145.103404 244.507286 
L 145.103404 242.208549 
L 146.583292 242.208549 
L 146.583292 241.748802 
L 149.986987 241.748802 
L 149.986987 241.289054 
L 151.151693 241.289054 
L 151.151693 240.36956 
L 151.934245 240.36956 
L 151.934245 239.909812 
L 153.265411 239.909812 
L 153.265411 238.53057 
L 155.365401 238.53057 
L 155.365401 238.070823 
L 156.365085 238.070823 
L 156.412761 236.691581 
L 157.324121 236.691581 
L 157.324121 235.312339 
L 157.458933 235.312339 
L 157.458933 234.852591 
L 158.792588 234.852591 
L 158.792588 234.392844 
L 159.521389 234.392844 
L 159.521389 233.473349 
L 160.79346 233.473349 
L 160.79346 232.553855 
L 164.331062 232.553855 
L 164.331062 230.714865 
L 164.917582 230.714865 
L 164.917582 229.335623 
L 167.63697 229.335623 
L 167.63697 228.416128 
L 169.45867 228.416128 
L 169.45867 227.496634 
L 174.008005 227.496634 
L 174.008005 227.036886 
L 174.522733 227.036886 
L 174.522733 225.657644 
L 177.162631 225.657644 
L 177.162631 223.358907 
L 181.320193 223.358907 
L 181.320193 222.439413 
L 181.490899 222.439413 
L 181.490899 221.060171 
L 184.175684 221.060171 
L 184.175684 220.600423 
L 184.677118 220.600423 
L 184.677118 219.680929 
L 185.256996 219.680929 
L 185.256996 219.221181 
L 188.336506 219.221181 
L 188.336506 217.382192 
L 189.304868 217.382192 
L 189.304868 215.543202 
L 190.514122 215.543202 
L 190.514122 213.244466 
L 191.477226 213.244466 
L 191.477226 212.784718 
L 191.996459 212.784718 
L 191.996459 212.324971 
L 192.605622 212.324971 
L 192.605622 211.865224 
L 192.8902 211.865224 
L 192.8902 210.485982 
L 198.420044 210.485982 
L 198.420044 209.566487 
L 200.672584 209.566487 
L 200.672584 209.10674 
L 203.678204 209.10674 
L 203.678204 208.646992 
L 206.402317 208.646992 
L 206.402317 208.187245 
L 207.280856 208.187245 
L 207.364293 205.888508 
L 208.815062 205.888508 
L 208.815062 204.969013 
L 209.163915 204.969013 
L 209.163915 204.509266 
L 210.847019 204.509266 
L 210.847019 203.589771 
L 211.037117 203.589771 
L 211.037117 202.210529 
L 211.929314 202.210529 
L 211.929314 201.291034 
L 216.06262 201.291034 
L 216.06262 200.831287 
L 216.591494 200.831287 
L 216.591494 200.37154 
L 218.77403 200.37154 
L 218.77403 199.911792 
L 222.082228 199.911792 
L 222.188979 198.53255 
L 224.881113 198.53255 
L 224.881113 198.072803 
L 225.500682 198.072803 
L 225.500682 197.153308 
L 226.81414 197.153308 
L 226.818626 196.233814 
L 227.341209 196.233814 
L 227.341209 195.314319 
L 232.174608 195.314319 
L 232.174608 194.854572 
L 234.657802 194.854572 
L 234.657802 194.394824 
L 236.067062 194.394824 
L 236.067062 193.935077 
L 237.726233 193.935077 
L 237.726233 193.475329 
L 238.576446 193.475329 
L 238.576446 191.63634 
L 240.73131 191.63634 
L 240.73131 191.176593 
L 241.430795 191.176593 
L 241.430795 190.257098 
L 242.712838 190.257098 
L 242.712838 189.797351 
L 245.53233 189.797351 
L 245.53233 188.877856 
L 247.925925 188.877856 
L 247.925925 188.418109 
L 248.100732 188.418109 
L 248.100732 187.498614 
L 248.234503 187.498614 
L 248.234503 185.659624 
L 249.42807 185.659624 
L 249.42807 184.74013 
L 250.399342 184.74013 
L 250.399342 184.280382 
L 251.424827 184.280382 
L 251.424827 182.90114 
L 252.395315 182.90114 
L 252.395315 182.441393 
L 253.01018 182.441393 
L 253.01018 181.981646 
L 253.276605 181.981646 
L 253.276605 180.602404 
L 256.190186 180.602404 
L 256.190186 180.142656 
L 256.991456 180.142656 
L 256.991456 179.682909 
L 259.187921 179.682909 
L 259.187921 178.763414 
L 261.024842 178.763414 
L 261.024842 177.843919 
L 261.238226 177.843919 
L 261.238226 177.384172 
L 265.963261 177.384172 
L 265.963261 176.464677 
L 267.280456 176.464677 
L 267.280456 176.00493 
L 268.270038 176.00493 
L 268.270038 175.545183 
L 269.648474 175.545183 
L 269.648474 175.085435 
L 271.912416 175.085435 
L 271.912416 174.625688 
L 272.210986 174.625688 
L 272.210986 174.165941 
L 273.886952 174.165941 
L 273.886952 173.246446 
L 275.394835 173.246446 
L 275.394835 171.867204 
L 276.970384 171.867204 
L 276.970384 171.407456 
L 278.066679 171.407456 
L 278.066679 170.487962 
L 278.192109 170.487962 
L 278.192109 169.568467 
L 279.679861 169.568467 
L 279.679861 167.26973 
L 280.791043 167.26973 
L 280.791043 166.809983 
L 283.274293 166.809983 
L 283.274293 166.350236 
L 284.758532 166.350236 
L 284.758532 164.511246 
L 285.273955 164.511246 
L 285.273955 163.132004 
L 286.074185 163.132004 
L 286.074185 162.672257 
L 286.638896 162.672257 
L 286.638896 162.212509 
L 287.966965 162.212509 
L 287.966965 161.752762 
L 290.71178 161.752762 
L 290.71178 160.833267 
L 291.15234 160.833267 
L 291.15234 160.37352 
L 291.711773 160.37352 
L 291.711773 159.913773 
L 292.395151 159.913773 
L 292.395151 158.994278 
L 292.697178 158.994278 
L 292.697178 158.534531 
L 293.410032 158.534531 
L 293.410032 158.074783 
L 294.934594 158.074783 
L 294.934594 157.615036 
L 296.262217 157.615036 
L 296.262217 157.155288 
L 296.678267 157.155288 
L 296.678267 156.235794 
L 298.013106 156.235794 
L 298.013106 155.776046 
L 300.123124 155.776046 
L 300.123124 155.316299 
L 300.32198 155.316299 
L 300.32198 154.856552 
L 300.460938 154.856552 
L 300.460938 154.396804 
L 301.29688 154.396804 
L 301.29688 153.937057 
L 301.730597 153.937057 
L 301.730597 153.47731 
L 302.602317 153.47731 
L 302.602317 153.017562 
L 302.730366 153.017562 
L 302.730366 152.557815 
L 303.046115 152.557815 
L 303.046115 152.098068 
L 303.457848 152.098068 
L 303.457848 151.63832 
L 303.993803 151.63832 
L 303.993803 151.178573 
L 304.827298 151.178573 
L 304.827298 150.718826 
L 305.580683 150.718826 
L 305.580683 150.259078 
L 305.885737 150.259078 
L 305.885737 149.799331 
L 306.094046 149.799331 
L 306.094046 149.339583 
L 306.845802 149.339583 
L 306.845802 148.879836 
L 307.914535 148.879836 
L 307.914535 148.420089 
L 308.128637 148.420089 
L 308.128637 147.500594 
L 308.947194 147.500594 
L 308.947194 147.040847 
L 312.685977 147.040847 
L 312.685977 146.581099 
L 313.783697 146.581099 
L 313.783697 146.121352 
L 313.992691 146.121352 
L 313.992691 145.661605 
L 314.485008 145.661605 
L 314.485008 144.74211 
L 315.565472 144.74211 
L 315.565472 144.282363 
L 319.13809 144.282363 
L 319.13809 143.822615 
L 319.572825 143.822615 
L 319.572825 143.362868 
L 320.181623 143.362868 
L 320.181623 142.903121 
L 321.359357 142.903121 
L 321.359357 141.983626 
L 322.08717 141.983626 
L 322.08717 141.523878 
L 323.972653 141.523878 
L 323.972653 141.064131 
L 325.253177 141.064131 
L 325.253177 140.604384 
L 326.236319 140.604384 
L 326.236319 140.144636 
L 328.969932 140.144636 
L 328.969932 139.684889 
L 329.237124 139.684889 
L 329.237124 139.225142 
L 330.01899 139.225142 
L 330.01899 138.765394 
L 330.021653 138.765394 
" style="fill:none;stroke:#ff00ff;stroke-linecap:square;stroke-width:1.5;"/>
   </g>
   <g id="line2d_53">
    <defs>
     <path d="M -0 8.485281 
L 5.091169 0 
L 0 -8.485281 
L -5.091169 -0 
z
" id="mb2f49578ab" style="stroke:#ff00ff;stroke-linejoin:miter;stroke-width:1.5;"/>
    </defs>
    <g>
     <use style="fill:none;stroke:#ff00ff;stroke-linejoin:miter;stroke-width:1.5;" x="118.787325" xlink:href="#mb2f49578ab" y="260.138696"/>
     <use style="fill:none;stroke:#ff00ff;stroke-linejoin:miter;stroke-width:1.5;" x="184.175684" xlink:href="#mb2f49578ab" y="220.600423"/>
     <use style="fill:none;stroke:#ff00ff;stroke-linejoin:miter;stroke-width:1.5;" x="242.712838" xlink:href="#mb2f49578ab" y="189.797351"/>
     <use style="fill:none;stroke:#ff00ff;stroke-linejoin:miter;stroke-width:1.5;" x="301.29688" xlink:href="#mb2f49578ab" y="154.396804"/>
     <use style="fill:none;stroke:#ff00ff;stroke-linejoin:miter;stroke-width:1.5;" x="330.01899" xlink:href="#mb2f49578ab" y="138.765394"/>
     <use style="fill:none;stroke:#ff00ff;stroke-linejoin:miter;stroke-width:1.5;" x="330.021653" xlink:href="#mb2f49578ab" y="138.765394"/>
    </g>
   </g>
   <g id="line2d_54">
    <path style="fill:none;stroke:#ff00ff;stroke-linecap:square;stroke-width:1.5;"/>
    <g/>
   </g>
   <g id="line2d_55">
    <path clip-path="url(#pefc59fcdb9)" d="M 290.995703 160.833267 
" style="fill:none;stroke:#ff00ff;stroke-linecap:square;stroke-width:1.5;"/>
    <defs>
     <path d="M -12 12 
L 12 -12 
M -12 -12 
L 12 12 
" id="mdbb9b4074f" style="stroke:#ff00ff;stroke-width:3;"/>
    </defs>
    <g clip-path="url(#pefc59fcdb9)">
     <use style="fill:#ff00ff;stroke:#ff00ff;stroke-width:3;" x="290.995703" xlink:href="#mdbb9b4074f" y="160.833267"/>
    </g>
   </g>
   <g id="line2d_56">
    <defs>
     <path d="M 0 1.5 
C 0.397805 1.5 0.77937 1.341951 1.06066 1.06066 
C 1.341951 0.77937 1.5 0.397805 1.5 0 
C 1.5 -0.397805 1.341951 -0.77937 1.06066 -1.06066 
C 0.77937 -1.341951 0.397805 -1.5 0 -1.5 
C -0.397805 -1.5 -0.77937 -1.341951 -1.06066 -1.06066 
C -1.341951 -0.77937 -1.5 -0.397805 -1.5 0 
C -1.5 0.397805 -1.341951 0.77937 -1.06066 1.06066 
C -0.77937 1.341951 -0.397805 1.5 0 1.5 
z
" id="mabc3d80599" style="stroke:#ffa500;"/>
    </defs>
    <g>
     <use style="fill:#ffa500;stroke:#ffa500;" x="217.956387" xlink:href="#mabc3d80599" y="266.575159"/>
     <use style="fill:#ffa500;stroke:#ffa500;" x="217.956387" xlink:href="#mabc3d80599" y="266.575159"/>
    </g>
   </g>
   <g id="line2d_57">
    <path d="M 38.21989 294.16 
L 38.21989 282.206569 
L 137.162152 282.206569 
L 137.162152 281.746821 
L 171.564025 281.746821 
L 171.564025 281.287074 
L 174.363897 281.287074 
L 174.363897 279.448085 
L 174.429803 279.448085 
L 174.429803 278.52859 
L 174.539079 278.52859 
L 174.539079 278.068843 
L 174.625996 278.068843 
L 174.625996 277.609095 
L 174.669288 277.609095 
L 174.669288 275.770106 
L 186.240705 275.770106 
L 186.240705 275.310358 
L 186.251623 275.310358 
L 186.251623 274.850611 
L 186.327859 274.850611 
L 186.327859 274.390864 
L 193.00234 274.390864 
L 193.00234 273.931116 
L 193.075474 273.931116 
L 193.075474 273.471369 
L 193.119204 273.471369 
L 193.119204 273.011622 
L 193.126481 273.011622 
L 193.126481 272.551874 
L 193.170079 272.551874 
L 193.170079 272.092127 
L 193.199082 272.092127 
L 193.199082 271.63238 
L 193.25694 271.63238 
L 193.25694 271.172632 
L 193.271374 271.172632 
L 193.271374 270.712885 
L 193.285795 270.712885 
L 193.285795 270.253138 
L 198.009153 270.253138 
L 198.009153 269.79339 
L 198.063612 269.79339 
L 198.063612 268.873896 
L 198.128731 268.873896 
L 198.128731 268.414148 
L 201.747192 268.414148 
L 201.747192 267.954401 
L 201.821405 267.954401 
L 201.821405 267.494653 
L 204.982345 267.494653 
L 204.982345 267.034906 
L 217.956387 267.034906 
L 217.956387 266.575159 
L 330.021653 266.575159 
" style="fill:none;stroke:#ffa500;stroke-linecap:square;stroke-width:1.5;"/>
   </g>
   <g id="line2d_58">
    <defs>
     <path d="M 0 -6 
L -1.347084 -1.854102 
L -5.706339 -1.854102 
L -2.179628 0.708204 
L -3.526712 4.854102 
L -0 2.291796 
L 3.526712 4.854102 
L 2.179628 0.708204 
L 5.706339 -1.854102 
L 1.347084 -1.854102 
z
" id="m4cbf34b4d4" style="stroke:#ffa500;stroke-linejoin:bevel;stroke-width:1.5;"/>
    </defs>
    <g>
     <use style="fill:none;stroke:#ffa500;stroke-linejoin:bevel;stroke-width:1.5;" x="137.162152" xlink:href="#m4cbf34b4d4" y="281.746821"/>
     <use style="fill:none;stroke:#ffa500;stroke-linejoin:bevel;stroke-width:1.5;" x="217.956387" xlink:href="#m4cbf34b4d4" y="267.034906"/>
     <use style="fill:none;stroke:#ffa500;stroke-linejoin:bevel;stroke-width:1.5;" x="217.956387" xlink:href="#m4cbf34b4d4" y="266.575159"/>
     <use style="fill:none;stroke:#ffa500;stroke-linejoin:bevel;stroke-width:1.5;" x="217.956387" xlink:href="#m4cbf34b4d4" y="266.575159"/>
     <use style="fill:none;stroke:#ffa500;stroke-linejoin:bevel;stroke-width:1.5;" x="330.021653" xlink:href="#m4cbf34b4d4" y="266.575159"/>
    </g>
   </g>
   <g id="line2d_59">
    <path style="fill:none;stroke:#ffa500;stroke-linecap:square;stroke-width:1.5;"/>
    <g/>
   </g>
   <g id="line2d_60">
    <path clip-path="url(#pefc59fcdb9)" d="M 174.533632 278.52859 
" style="fill:none;stroke:#ffa500;stroke-linecap:square;stroke-width:1.5;"/>
    <defs>
     <path d="M -12 12 
L 12 -12 
M -12 -12 
L 12 12 
" id="m41db2c12ed" style="stroke:#ffa500;stroke-width:3;"/>
    </defs>
    <g clip-path="url(#pefc59fcdb9)">
     <use style="fill:#ffa500;stroke:#ffa500;stroke-width:3;" x="174.533632" xlink:href="#m41db2c12ed" y="278.52859"/>
    </g>
   </g>
   <g id="line2d_61">
    <path d="M 330.021653 266.575159 
L 360.071635 288.826931 
" style="fill:none;stroke:#ffa500;stroke-linecap:square;stroke-width:1.5;"/>
    <g>
     <use style="fill:none;stroke:#ffa500;stroke-linejoin:bevel;stroke-width:1.5;" x="330.021653" xlink:href="#m4cbf34b4d4" y="266.575159"/>
     <use style="fill:none;stroke:#ffa500;stroke-linejoin:bevel;stroke-width:1.5;" x="360.071635" xlink:href="#m4cbf34b4d4" y="288.826931"/>
    </g>
   </g>
   <g id="line2d_62">
    <path d="M 330.021653 138.765394 
L 360.071635 203.497822 
" style="fill:none;stroke:#ff00ff;stroke-linecap:square;stroke-width:1.5;"/>
    <g>
     <use style="fill:none;stroke:#ff00ff;stroke-linejoin:miter;stroke-width:1.5;" x="330.021653" xlink:href="#mb2f49578ab" y="138.765394"/>
     <use style="fill:none;stroke:#ff00ff;stroke-linejoin:miter;stroke-width:1.5;" x="360.071635" xlink:href="#mb2f49578ab" y="203.497822"/>
    </g>
   </g>
   <g id="line2d_63">
    <path d="M 330.021653 119.456005 
L 360.071635 118.168713 
" style="fill:none;stroke:#000080;stroke-linecap:square;stroke-width:1.5;"/>
    <g>
     <use style="fill:none;stroke:#000080;stroke-width:1.5;" x="330.021653" xlink:href="#mf1f087ed3c" y="119.456005"/>
     <use style="fill:none;stroke:#000080;stroke-width:1.5;" x="360.071635" xlink:href="#mf1f087ed3c" y="118.168713"/>
    </g>
   </g>
   <g id="line2d_64">
    <path d="M 330.021653 294.16 
L 330.021653 27.506535 
" style="fill:none;stroke:#000000;stroke-linecap:square;stroke-width:1.5;"/>
   </g>
   <g id="patch_3">
    <path d="M 56.84 294.16 
L 56.84 24.84 
" style="fill:none;stroke:#000000;stroke-linecap:square;stroke-linejoin:miter;stroke-width:0.8;"/>
   </g>
   <g id="patch_4">
    <path d="M 395.58525 294.16 
L 395.58525 24.84 
" style="fill:none;stroke:#000000;stroke-linecap:square;stroke-linejoin:miter;stroke-width:0.8;"/>
   </g>
   <g id="patch_5">
    <path d="M 56.84 294.16 
L 395.58525 294.16 
" style="fill:none;stroke:#000000;stroke-linecap:square;stroke-linejoin:miter;stroke-width:0.8;"/>
   </g>
   <g id="patch_6">
    <path d="M 56.84 24.84 
L 395.58525 24.84 
" style="fill:none;stroke:#000000;stroke-linecap:square;stroke-linejoin:miter;stroke-width:0.8;"/>
   </g>
   <g id="text_14">
    <!-- adaptiveH -->
    <defs>
     <path d="M 9.8125 72.90625 
L 19.671875 72.90625 
L 19.671875 43.015625 
L 55.515625 43.015625 
L 55.515625 72.90625 
L 65.375 72.90625 
L 65.375 0 
L 55.515625 0 
L 55.515625 34.71875 
L 19.671875 34.71875 
L 19.671875 0 
L 9.8125 0 
z
" id="DejaVuSans-48"/>
    </defs>
    <g transform="translate(365.535268 293.517868)scale(0.17 -0.17)">
     <use xlink:href="#DejaVuSans-61"/>
     <use x="61.279297" xlink:href="#DejaVuSans-64"/>
     <use x="124.755859" xlink:href="#DejaVuSans-61"/>
     <use x="186.035156" xlink:href="#DejaVuSans-70"/>
     <use x="249.511719" xlink:href="#DejaVuSans-74"/>
     <use x="288.720703" xlink:href="#DejaVuSans-69"/>
     <use x="316.503906" xlink:href="#DejaVuSans-76"/>
     <use x="375.683594" xlink:href="#DejaVuSans-65"/>
     <use x="437.207031" xlink:href="#DejaVuSans-48"/>
    </g>
   </g>
   <g id="text_15">
    <!-- RANDOMSEA -->
    <defs>
     <path d="M 44.390625 34.1875 
Q 47.5625 33.109375 50.5625 29.59375 
Q 53.5625 26.078125 56.59375 19.921875 
L 66.609375 0 
L 56 0 
L 46.6875 18.703125 
Q 43.0625 26.03125 39.671875 28.421875 
Q 36.28125 30.8125 30.421875 30.8125 
L 19.671875 30.8125 
L 19.671875 0 
L 9.8125 0 
L 9.8125 72.90625 
L 32.078125 72.90625 
Q 44.578125 72.90625 50.734375 67.671875 
Q 56.890625 62.453125 56.890625 51.90625 
Q 56.890625 45.015625 53.6875 40.46875 
Q 50.484375 35.9375 44.390625 34.1875 
M 19.671875 64.796875 
L 19.671875 38.921875 
L 32.078125 38.921875 
Q 39.203125 38.921875 42.84375 42.21875 
Q 46.484375 45.515625 46.484375 51.90625 
Q 46.484375 58.296875 42.84375 61.546875 
Q 39.203125 64.796875 32.078125 64.796875 
z
" id="DejaVuSans-52"/>
     <path d="M 34.1875 63.1875 
L 20.796875 26.90625 
L 47.609375 26.90625 
z
M 28.609375 72.90625 
L 39.796875 72.90625 
L 67.578125 0 
L 57.328125 0 
L 50.6875 18.703125 
L 17.828125 18.703125 
L 11.1875 0 
L 0.78125 0 
z
" id="DejaVuSans-41"/>
     <path d="M 9.8125 72.90625 
L 23.09375 72.90625 
L 55.421875 11.921875 
L 55.421875 72.90625 
L 64.984375 72.90625 
L 64.984375 0 
L 51.703125 0 
L 19.390625 60.984375 
L 19.390625 0 
L 9.8125 0 
z
" id="DejaVuSans-4e"/>
     <path d="M 19.671875 64.796875 
L 19.671875 8.109375 
L 31.59375 8.109375 
Q 46.6875 8.109375 53.6875 14.9375 
Q 60.6875 21.78125 60.6875 36.53125 
Q 60.6875 51.171875 53.6875 57.984375 
Q 46.6875 64.796875 31.59375 64.796875 
z
M 9.8125 72.90625 
L 30.078125 72.90625 
Q 51.265625 72.90625 61.171875 64.09375 
Q 71.09375 55.28125 71.09375 36.53125 
Q 71.09375 17.671875 61.125 8.828125 
Q 51.171875 0 30.078125 0 
L 9.8125 0 
z
" id="DejaVuSans-44"/>
     <path d="M 39.40625 66.21875 
Q 28.65625 66.21875 22.328125 58.203125 
Q 16.015625 50.203125 16.015625 36.375 
Q 16.015625 22.609375 22.328125 14.59375 
Q 28.65625 6.59375 39.40625 6.59375 
Q 50.140625 6.59375 56.421875 14.59375 
Q 62.703125 22.609375 62.703125 36.375 
Q 62.703125 50.203125 56.421875 58.203125 
Q 50.140625 66.21875 39.40625 66.21875 
M 39.40625 74.21875 
Q 54.734375 74.21875 63.90625 63.9375 
Q 73.09375 53.65625 73.09375 36.375 
Q 73.09375 19.140625 63.90625 8.859375 
Q 54.734375 -1.421875 39.40625 -1.421875 
Q 24.03125 -1.421875 14.8125 8.828125 
Q 5.609375 19.09375 5.609375 36.375 
Q 5.609375 53.65625 14.8125 63.9375 
Q 24.03125 74.21875 39.40625 74.21875 
" id="DejaVuSans-4f"/>
     <path d="M 9.8125 72.90625 
L 24.515625 72.90625 
L 43.109375 23.296875 
L 61.8125 72.90625 
L 76.515625 72.90625 
L 76.515625 0 
L 66.890625 0 
L 66.890625 64.015625 
L 48.09375 14.015625 
L 38.1875 14.015625 
L 19.390625 64.015625 
L 19.390625 0 
L 9.8125 0 
z
" id="DejaVuSans-4d"/>
     <path d="M 53.515625 70.515625 
L 53.515625 60.890625 
Q 47.90625 63.578125 42.921875 64.890625 
Q 37.9375 66.21875 33.296875 66.21875 
Q 25.25 66.21875 20.875 63.09375 
Q 16.5 59.96875 16.5 54.203125 
Q 16.5 49.359375 19.40625 46.890625 
Q 22.3125 44.4375 30.421875 42.921875 
L 36.375 41.703125 
Q 47.40625 39.59375 52.65625 34.296875 
Q 57.90625 29 57.90625 20.125 
Q 57.90625 9.515625 50.796875 4.046875 
Q 43.703125 -1.421875 29.984375 -1.421875 
Q 24.8125 -1.421875 18.96875 -0.25 
Q 13.140625 0.921875 6.890625 3.21875 
L 6.890625 13.375 
Q 12.890625 10.015625 18.65625 8.296875 
Q 24.421875 6.59375 29.984375 6.59375 
Q 38.421875 6.59375 43.015625 9.90625 
Q 47.609375 13.234375 47.609375 19.390625 
Q 47.609375 24.75 44.3125 27.78125 
Q 41.015625 30.8125 33.5 32.328125 
L 27.484375 33.5 
Q 16.453125 35.6875 11.515625 40.375 
Q 6.59375 45.0625 6.59375 53.421875 
Q 6.59375 63.09375 13.40625 68.65625 
Q 20.21875 74.21875 32.171875 74.21875 
Q 37.3125 74.21875 42.625 73.28125 
Q 47.953125 72.359375 53.515625 70.515625 
" id="DejaVuSans-53"/>
     <path d="M 9.8125 72.90625 
L 55.90625 72.90625 
L 55.90625 64.59375 
L 19.671875 64.59375 
L 19.671875 43.015625 
L 54.390625 43.015625 
L 54.390625 34.71875 
L 19.671875 34.71875 
L 19.671875 8.296875 
L 56.78125 8.296875 
L 56.78125 0 
L 9.8125 0 
z
" id="DejaVuSans-45"/>
    </defs>
    <g transform="translate(365.535268 208.188759)scale(0.17 -0.17)">
     <use xlink:href="#DejaVuSans-52"/>
     <use x="69.419922" xlink:href="#DejaVuSans-41"/>
     <use x="137.828125" xlink:href="#DejaVuSans-4e"/>
     <use x="212.632812" xlink:href="#DejaVuSans-44"/>
     <use x="289.634766" xlink:href="#DejaVuSans-4f"/>
     <use x="368.345703" xlink:href="#DejaVuSans-4d"/>
     <use x="454.625" xlink:href="#DejaVuSans-53"/>
     <use x="518.101562" xlink:href="#DejaVuSans-45"/>
     <use x="581.285156" xlink:href="#DejaVuSans-41"/>
    </g>
   </g>
   <g id="text_16">
    <!-- NSGA-II-M -->
    <defs>
     <path d="M 59.515625 10.40625 
L 59.515625 29.984375 
L 43.40625 29.984375 
L 43.40625 38.09375 
L 69.28125 38.09375 
L 69.28125 6.78125 
Q 63.578125 2.734375 56.6875 0.65625 
Q 49.8125 -1.421875 42 -1.421875 
Q 24.90625 -1.421875 15.25 8.5625 
Q 5.609375 18.5625 5.609375 36.375 
Q 5.609375 54.25 15.25 64.234375 
Q 24.90625 74.21875 42 74.21875 
Q 49.125 74.21875 55.546875 72.453125 
Q 61.96875 70.703125 67.390625 67.28125 
L 67.390625 56.78125 
Q 61.921875 61.421875 55.765625 63.765625 
Q 49.609375 66.109375 42.828125 66.109375 
Q 29.4375 66.109375 22.71875 58.640625 
Q 16.015625 51.171875 16.015625 36.375 
Q 16.015625 21.625 22.71875 14.15625 
Q 29.4375 6.6875 42.828125 6.6875 
Q 48.046875 6.6875 52.140625 7.59375 
Q 56.25 8.5 59.515625 10.40625 
" id="DejaVuSans-47"/>
     <path d="M 9.8125 72.90625 
L 19.671875 72.90625 
L 19.671875 0 
L 9.8125 0 
z
" id="DejaVuSans-49"/>
    </defs>
    <g transform="translate(365.535268 122.85965)scale(0.17 -0.17)">
     <use xlink:href="#DejaVuSans-4e"/>
     <use x="74.804688" xlink:href="#DejaVuSans-53"/>
     <use x="138.28125" xlink:href="#DejaVuSans-47"/>
     <use x="215.771484" xlink:href="#DejaVuSans-41"/>
     <use x="284.148438" xlink:href="#DejaVuSans-2d"/>
     <use x="320.232422" xlink:href="#DejaVuSans-49"/>
     <use x="349.724609" xlink:href="#DejaVuSans-49"/>
     <use x="379.216797" xlink:href="#DejaVuSans-2d"/>
     <use x="415.300781" xlink:href="#DejaVuSans-4d"/>
    </g>
   </g>
   <g id="text_17">
    <!-- best 2016 -->
    <defs>
     <path d="M 48.6875 27.296875 
Q 48.6875 37.203125 44.609375 42.84375 
Q 40.53125 48.484375 33.40625 48.484375 
Q 26.265625 48.484375 22.1875 42.84375 
Q 18.109375 37.203125 18.109375 27.296875 
Q 18.109375 17.390625 22.1875 11.75 
Q 26.265625 6.109375 33.40625 6.109375 
Q 40.53125 6.109375 44.609375 11.75 
Q 48.6875 17.390625 48.6875 27.296875 
M 18.109375 46.390625 
Q 20.953125 51.265625 25.265625 53.625 
Q 29.59375 56 35.59375 56 
Q 45.5625 56 51.78125 48.09375 
Q 58.015625 40.1875 58.015625 27.296875 
Q 58.015625 14.40625 51.78125 6.484375 
Q 45.5625 -1.421875 35.59375 -1.421875 
Q 29.59375 -1.421875 25.265625 0.953125 
Q 20.953125 3.328125 18.109375 8.203125 
L 18.109375 0 
L 9.078125 0 
L 9.078125 75.984375 
L 18.109375 75.984375 
z
" id="DejaVuSans-62"/>
    </defs>
    <g transform="translate(365.535268 37.530541)scale(0.17 -0.17)">
     <use xlink:href="#DejaVuSans-62"/>
     <use x="63.476562" xlink:href="#DejaVuSans-65"/>
     <use x="125" xlink:href="#DejaVuSans-73"/>
     <use x="177.099609" xlink:href="#DejaVuSans-74"/>
     <use x="216.308594" xlink:href="#DejaVuSans-20"/>
     <use x="248.095703" xlink:href="#DejaVuSans-32"/>
     <use x="311.71875" xlink:href="#DejaVuSans-30"/>
     <use x="375.341797" xlink:href="#DejaVuSans-31"/>
     <use x="438.964844" xlink:href="#DejaVuSans-36"/>
    </g>
   </g>
   <g id="text_18">
    <!-- bbob-biobj f41, 3-D -->
    <defs>
     <path d="M 9.421875 54.6875 
L 18.40625 54.6875 
L 18.40625 -0.984375 
Q 18.40625 -11.421875 14.421875 -16.109375 
Q 10.453125 -20.796875 1.609375 -20.796875 
L -1.8125 -20.796875 
L -1.8125 -13.1875 
L 0.59375 -13.1875 
Q 5.71875 -13.1875 7.5625 -10.8125 
Q 9.421875 -8.453125 9.421875 -0.984375 
z
M 9.421875 75.984375 
L 18.40625 75.984375 
L 18.40625 64.59375 
L 9.421875 64.59375 
z
" id="DejaVuSans-6a"/>
     <path d="M 40.578125 39.3125 
Q 47.65625 37.796875 51.625 33 
Q 55.609375 28.21875 55.609375 21.1875 
Q 55.609375 10.40625 48.1875 4.484375 
Q 40.765625 -1.421875 27.09375 -1.421875 
Q 22.515625 -1.421875 17.65625 -0.515625 
Q 12.796875 0.390625 7.625 2.203125 
L 7.625 11.71875 
Q 11.71875 9.328125 16.59375 8.109375 
Q 21.484375 6.890625 26.8125 6.890625 
Q 36.078125 6.890625 40.9375 10.546875 
Q 45.796875 14.203125 45.796875 21.1875 
Q 45.796875 27.640625 41.28125 31.265625 
Q 36.765625 34.90625 28.71875 34.90625 
L 20.21875 34.90625 
L 20.21875 43.015625 
L 29.109375 43.015625 
Q 36.375 43.015625 40.234375 45.921875 
Q 44.09375 48.828125 44.09375 54.296875 
Q 44.09375 59.90625 40.109375 62.90625 
Q 36.140625 65.921875 28.71875 65.921875 
Q 24.65625 65.921875 20.015625 65.03125 
Q 15.375 64.15625 9.8125 62.3125 
L 9.8125 71.09375 
Q 15.4375 72.65625 20.34375 73.4375 
Q 25.25 74.21875 29.59375 74.21875 
Q 40.828125 74.21875 47.359375 69.109375 
Q 53.90625 64.015625 53.90625 55.328125 
Q 53.90625 49.265625 50.4375 45.09375 
Q 46.96875 40.921875 40.578125 39.3125 
" id="DejaVuSans-33"/>
    </defs>
    <g transform="translate(60.227453 35.283606)scale(0.102 -0.102)">
     <use xlink:href="#DejaVuSans-62"/>
     <use x="63.476562" xlink:href="#DejaVuSans-62"/>
     <use x="126.953125" xlink:href="#DejaVuSans-6f"/>
     <use x="188.134766" xlink:href="#DejaVuSans-62"/>
     <use x="251.611328" xlink:href="#DejaVuSans-2d"/>
     <use x="287.695312" xlink:href="#DejaVuSans-62"/>
     <use x="351.171875" xlink:href="#DejaVuSans-69"/>
     <use x="378.955078" xlink:href="#DejaVuSans-6f"/>
     <use x="440.136719" xlink:href="#DejaVuSans-62"/>
     <use x="503.613281" xlink:href="#DejaVuSans-6a"/>
     <use x="531.396484" xlink:href="#DejaVuSans-20"/>
     <use x="563.183594" xlink:href="#DejaVuSans-66"/>
     <use x="598.388672" xlink:href="#DejaVuSans-34"/>
     <use x="662.011719" xlink:href="#DejaVuSans-31"/>
     <use x="725.634766" xlink:href="#DejaVuSans-2c"/>
     <use x="757.421875" xlink:href="#DejaVuSans-20"/>
     <use x="789.208984" xlink:href="#DejaVuSans-33"/>
     <use x="852.832031" xlink:href="#DejaVuSans-2d"/>
     <use x="888.916016" xlink:href="#DejaVuSans-44"/>
    </g>
    <!-- 58 targets: 1..-1.0e-4 -->
    <defs>
     <path d="M 10.796875 72.90625 
L 49.515625 72.90625 
L 49.515625 64.59375 
L 19.828125 64.59375 
L 19.828125 46.734375 
Q 21.96875 47.46875 24.109375 47.828125 
Q 26.265625 48.1875 28.421875 48.1875 
Q 40.625 48.1875 47.75 41.5 
Q 54.890625 34.8125 54.890625 23.390625 
Q 54.890625 11.625 47.5625 5.09375 
Q 40.234375 -1.421875 26.90625 -1.421875 
Q 22.3125 -1.421875 17.546875 -0.640625 
Q 12.796875 0.140625 7.71875 1.703125 
L 7.71875 11.625 
Q 12.109375 9.234375 16.796875 8.0625 
Q 21.484375 6.890625 26.703125 6.890625 
Q 35.15625 6.890625 40.078125 11.328125 
Q 45.015625 15.765625 45.015625 23.390625 
Q 45.015625 31 40.078125 35.4375 
Q 35.15625 39.890625 26.703125 39.890625 
Q 22.75 39.890625 18.8125 39.015625 
Q 14.890625 38.140625 10.796875 36.28125 
z
" id="DejaVuSans-35"/>
     <path d="M 11.71875 12.40625 
L 22.015625 12.40625 
L 22.015625 0 
L 11.71875 0 
z
M 11.71875 51.703125 
L 22.015625 51.703125 
L 22.015625 39.3125 
L 11.71875 39.3125 
z
" id="DejaVuSans-3a"/>
    </defs>
    <g transform="translate(60.227453 46.705375)scale(0.102 -0.102)">
     <use xlink:href="#DejaVuSans-35"/>
     <use x="63.623047" xlink:href="#DejaVuSans-38"/>
     <use x="127.246094" xlink:href="#DejaVuSans-20"/>
     <use x="159.033203" xlink:href="#DejaVuSans-74"/>
     <use x="198.242188" xlink:href="#DejaVuSans-61"/>
     <use x="259.521484" xlink:href="#DejaVuSans-72"/>
     <use x="300.619141" xlink:href="#DejaVuSans-67"/>
     <use x="364.095703" xlink:href="#DejaVuSans-65"/>
     <use x="425.619141" xlink:href="#DejaVuSans-74"/>
     <use x="464.828125" xlink:href="#DejaVuSans-73"/>
     <use x="516.927734" xlink:href="#DejaVuSans-3a"/>
     <use x="550.619141" xlink:href="#DejaVuSans-20"/>
     <use x="582.40625" xlink:href="#DejaVuSans-31"/>
     <use x="646.029297" xlink:href="#DejaVuSans-2e"/>
     <use x="677.816406" xlink:href="#DejaVuSans-2e"/>
     <use x="709.603516" xlink:href="#DejaVuSans-2d"/>
     <use x="745.6875" xlink:href="#DejaVuSans-31"/>
     <use x="809.310547" xlink:href="#DejaVuSans-2e"/>
     <use x="841.097656" xlink:href="#DejaVuSans-30"/>
     <use x="904.720703" xlink:href="#DejaVuSans-65"/>
     <use x="966.244141" xlink:href="#DejaVuSans-2d"/>
     <use x="1002.328125" xlink:href="#DejaVuSans-34"/>
    </g>
    <!-- 10 instances -->
    <g transform="translate(60.227453 58.127144)scale(0.102 -0.102)">
     <use xlink:href="#DejaVuSans-31"/>
     <use x="63.623047" xlink:href="#DejaVuSans-30"/>
     <use x="127.246094" xlink:href="#DejaVuSans-20"/>
     <use x="159.033203" xlink:href="#DejaVuSans-69"/>
     <use x="186.816406" xlink:href="#DejaVuSans-6e"/>
     <use x="250.195312" xlink:href="#DejaVuSans-73"/>
     <use x="302.294922" xlink:href="#DejaVuSans-74"/>
     <use x="341.503906" xlink:href="#DejaVuSans-61"/>
     <use x="402.783203" xlink:href="#DejaVuSans-6e"/>
     <use x="466.162109" xlink:href="#DejaVuSans-63"/>
     <use x="521.142578" xlink:href="#DejaVuSans-65"/>
     <use x="582.666016" xlink:href="#DejaVuSans-73"/>
    </g>
   </g>
   <g id="text_19">
    <!-- v2.2.1.10, hv-hash=ff0e71e8cd978373 -->
    <defs>
     <path d="M 54.890625 33.015625 
L 54.890625 0 
L 45.90625 0 
L 45.90625 32.71875 
Q 45.90625 40.484375 42.875 44.328125 
Q 39.84375 48.1875 33.796875 48.1875 
Q 26.515625 48.1875 22.3125 43.546875 
Q 18.109375 38.921875 18.109375 30.90625 
L 18.109375 0 
L 9.078125 0 
L 9.078125 75.984375 
L 18.109375 75.984375 
L 18.109375 46.1875 
Q 21.34375 51.125 25.703125 53.5625 
Q 30.078125 56 35.796875 56 
Q 45.21875 56 50.046875 50.171875 
Q 54.890625 44.34375 54.890625 33.015625 
" id="DejaVuSans-68"/>
     <path d="M 10.59375 45.40625 
L 73.1875 45.40625 
L 73.1875 37.203125 
L 10.59375 37.203125 
z
M 10.59375 25.484375 
L 73.1875 25.484375 
L 73.1875 17.1875 
L 10.59375 17.1875 
z
" id="DejaVuSans-3d"/>
     <path d="M 8.203125 72.90625 
L 55.078125 72.90625 
L 55.078125 68.703125 
L 28.609375 0 
L 18.3125 0 
L 43.21875 64.59375 
L 8.203125 64.59375 
z
" id="DejaVuSans-37"/>
     <path d="M 10.984375 1.515625 
L 10.984375 10.5 
Q 14.703125 8.734375 18.5 7.8125 
Q 22.3125 6.890625 25.984375 6.890625 
Q 35.75 6.890625 40.890625 13.453125 
Q 46.046875 20.015625 46.78125 33.40625 
Q 43.953125 29.203125 39.59375 26.953125 
Q 35.25 24.703125 29.984375 24.703125 
Q 19.046875 24.703125 12.671875 31.3125 
Q 6.296875 37.9375 6.296875 49.421875 
Q 6.296875 60.640625 12.9375 67.421875 
Q 19.578125 74.21875 30.609375 74.21875 
Q 43.265625 74.21875 49.921875 64.515625 
Q 56.59375 54.828125 56.59375 36.375 
Q 56.59375 19.140625 48.40625 8.859375 
Q 40.234375 -1.421875 26.421875 -1.421875 
Q 22.703125 -1.421875 18.890625 -0.6875 
Q 15.09375 0.046875 10.984375 1.515625 
M 30.609375 32.421875 
Q 37.25 32.421875 41.125 36.953125 
Q 45.015625 41.5 45.015625 49.421875 
Q 45.015625 57.28125 41.125 61.84375 
Q 37.25 66.40625 30.609375 66.40625 
Q 23.96875 66.40625 20.09375 61.84375 
Q 16.21875 57.28125 16.21875 49.421875 
Q 16.21875 41.5 20.09375 36.953125 
Q 23.96875 32.421875 30.609375 32.421875 
" id="DejaVuSans-39"/>
    </defs>
    <g style="fill:#808080;" transform="translate(127.86575 289.387113)scale(0.1 -0.1)">
     <use xlink:href="#DejaVuSans-76"/>
     <use x="59.179688" xlink:href="#DejaVuSans-32"/>
     <use x="122.802734" xlink:href="#DejaVuSans-2e"/>
     <use x="154.589844" xlink:href="#DejaVuSans-32"/>
     <use x="218.212891" xlink:href="#DejaVuSans-2e"/>
     <use x="250" xlink:href="#DejaVuSans-31"/>
     <use x="313.623047" xlink:href="#DejaVuSans-2e"/>
     <use x="345.410156" xlink:href="#DejaVuSans-31"/>
     <use x="409.033203" xlink:href="#DejaVuSans-30"/>
     <use x="472.65625" xlink:href="#DejaVuSans-2c"/>
     <use x="504.443359" xlink:href="#DejaVuSans-20"/>
     <use x="536.230469" xlink:href="#DejaVuSans-68"/>
     <use x="599.609375" xlink:href="#DejaVuSans-76"/>
     <use x="658.757812" xlink:href="#DejaVuSans-2d"/>
     <use x="694.841797" xlink:href="#DejaVuSans-68"/>
     <use x="758.220703" xlink:href="#DejaVuSans-61"/>
     <use x="819.5" xlink:href="#DejaVuSans-73"/>
     <use x="871.599609" xlink:href="#DejaVuSans-68"/>
     <use x="934.978516" xlink:href="#DejaVuSans-3d"/>
     <use x="1018.767578" xlink:href="#DejaVuSans-66"/>
     <use x="1053.972656" xlink:href="#DejaVuSans-66"/>
     <use x="1089.177734" xlink:href="#DejaVuSans-30"/>
     <use x="1152.800781" xlink:href="#DejaVuSans-65"/>
     <use x="1214.324219" xlink:href="#DejaVuSans-37"/>
     <use x="1277.947266" xlink:href="#DejaVuSans-31"/>
     <use x="1341.570312" xlink:href="#DejaVuSans-65"/>
     <use x="1403.09375" xlink:href="#DejaVuSans-38"/>
     <use x="1466.716797" xlink:href="#DejaVuSans-63"/>
     <use x="1521.697266" xlink:href="#DejaVuSans-64"/>
     <use x="1585.173828" xlink:href="#DejaVuSans-39"/>
     <use x="1648.796875" xlink:href="#DejaVuSans-37"/>
     <use x="1712.419922" xlink:href="#DejaVuSans-38"/>
     <use x="1776.042969" xlink:href="#DejaVuSans-33"/>
     <use x="1839.666016" xlink:href="#DejaVuSans-37"/>
     <use x="1903.289062" xlink:href="#DejaVuSans-33"/>
    </g>
   </g>
   <g id="text_20">
    <!-- 41 Different Powers/Different Powers -->
    <defs>
     <path d="M 19.671875 64.796875 
L 19.671875 37.40625 
L 32.078125 37.40625 
Q 38.96875 37.40625 42.71875 40.96875 
Q 46.484375 44.53125 46.484375 51.125 
Q 46.484375 57.671875 42.71875 61.234375 
Q 38.96875 64.796875 32.078125 64.796875 
z
M 9.8125 72.90625 
L 32.078125 72.90625 
Q 44.34375 72.90625 50.609375 67.359375 
Q 56.890625 61.8125 56.890625 51.125 
Q 56.890625 40.328125 50.609375 34.8125 
Q 44.34375 29.296875 32.078125 29.296875 
L 19.671875 29.296875 
L 19.671875 0 
L 9.8125 0 
z
" id="DejaVuSans-50"/>
     <path d="M 4.203125 54.6875 
L 13.1875 54.6875 
L 24.421875 12.015625 
L 35.59375 54.6875 
L 46.1875 54.6875 
L 57.421875 12.015625 
L 68.609375 54.6875 
L 77.59375 54.6875 
L 63.28125 0 
L 52.6875 0 
L 40.921875 44.828125 
L 29.109375 0 
L 18.5 0 
z
" id="DejaVuSans-77"/>
    </defs>
    <g transform="translate(40.612625 18.84)scale(0.2 -0.2)">
     <use xlink:href="#DejaVuSans-34"/>
     <use x="63.623047" xlink:href="#DejaVuSans-31"/>
     <use x="127.246094" xlink:href="#DejaVuSans-20"/>
     <use x="159.033203" xlink:href="#DejaVuSans-44"/>
     <use x="236.035156" xlink:href="#DejaVuSans-69"/>
     <use x="263.818359" xlink:href="#DejaVuSans-66"/>
     <use x="299.023438" xlink:href="#DejaVuSans-66"/>
     <use x="334.228516" xlink:href="#DejaVuSans-65"/>
     <use x="395.751953" xlink:href="#DejaVuSans-72"/>
     <use x="436.833984" xlink:href="#DejaVuSans-65"/>
     <use x="498.357422" xlink:href="#DejaVuSans-6e"/>
     <use x="561.736328" xlink:href="#DejaVuSans-74"/>
     <use x="600.945312" xlink:href="#DejaVuSans-20"/>
     <use x="632.732422" xlink:href="#DejaVuSans-50"/>
     <use x="692.988281" xlink:href="#DejaVuSans-6f"/>
     <use x="754.169922" xlink:href="#DejaVuSans-77"/>
     <use x="835.957031" xlink:href="#DejaVuSans-65"/>
     <use x="897.480469" xlink:href="#DejaVuSans-72"/>
     <use x="938.59375" xlink:href="#DejaVuSans-73"/>
     <use x="990.693359" xlink:href="#DejaVuSans-2f"/>
     <use x="1024.384766" xlink:href="#DejaVuSans-44"/>
     <use x="1101.386719" xlink:href="#DejaVuSans-69"/>
     <use x="1129.169922" xlink:href="#DejaVuSans-66"/>
     <use x="1164.375" xlink:href="#DejaVuSans-66"/>
     <use x="1199.580078" xlink:href="#DejaVuSans-65"/>
     <use x="1261.103516" xlink:href="#DejaVuSans-72"/>
     <use x="1302.185547" xlink:href="#DejaVuSans-65"/>
     <use x="1363.708984" xlink:href="#DejaVuSans-6e"/>
     <use x="1427.087891" xlink:href="#DejaVuSans-74"/>
     <use x="1466.296875" xlink:href="#DejaVuSans-20"/>
     <use x="1498.083984" xlink:href="#DejaVuSans-50"/>
     <use x="1558.339844" xlink:href="#DejaVuSans-6f"/>
     <use x="1619.521484" xlink:href="#DejaVuSans-77"/>
     <use x="1701.308594" xlink:href="#DejaVuSans-65"/>
     <use x="1762.832031" xlink:href="#DejaVuSans-72"/>
     <use x="1803.945312" xlink:href="#DejaVuSans-73"/>
    </g>
   </g>
  </g>
 </g>
 <defs>
  <clipPath id="pefc59fcdb9">
   <rect height="269.32" width="338.74525" x="56.84" y="24.84"/>
  </clipPath>
 </defs>
</svg>
