%
% index = 1156, name = bbob_f006_i03_d03__bbob_f014_i05_d03
% instance = 2, reference value = 8.620957064524710e-01
% function evaluation | indicator value | target hit
1	3.837061545007295e-01	3.890451449942806e-01
567	2.912265615085664e-01	2.951209226666385e-01
595	1.865812068208225e-01	1.905460717963247e-01
791	1.744243722840724e-01	1.778279410038923e-01
3083	1.744243722840724e-01	1.778279410038923e-01
%
% index = 1160, name = bbob_f006_i13_d03__bbob_f014_i14_d03
% instance = 6, reference value = 8.504557095540251e-01
% function evaluation | indicator value | target hit
1	4.305175967001970e-01	4.365158322401660e-01
3087	4.305175967001970e-01	4.365158322401660e-01
%
% index = 1164, name = bbob_f006_i21_d03__bbob_f014_i22_d03
% instance = 10, reference value = 9.352046767251710e-01
% function evaluation | indicator value | target hit
1	8.337788619878055e-01	8.511380382023764e-01
3083	8.337788619878055e-01	8.511380382023764e-01
%
% index = 1168, name = bbob_f006_i29_d03__bbob_f014_i30_d03
% instance = 14, reference value = 1.000000000000000e+00
% function evaluation | indicator value | target hit
1	4.094453370946853e-01	4.168693834703354e-01
3091	4.094453370946853e-01	4.168693834703354e-01
