<?xml version="1.0" encoding="utf-8" standalone="no"?>
<!DOCTYPE svg PUBLIC "-//W3C//DTD SVG 1.1//EN"
  "http://www.w3.org/Graphics/SVG/1.1/DTD/svg11.dtd">
<!-- Created with matplotlib (http://matplotlib.org/) -->
<svg height="345pt" version="1.1" viewBox="0 0 460 345" width="460pt" xmlns="http://www.w3.org/2000/svg" xmlns:xlink="http://www.w3.org/1999/xlink">
 <defs>
  <style type="text/css">
*{stroke-linecap:butt;stroke-linejoin:round;}
  </style>
 </defs>
 <g id="figure_1">
  <g id="patch_1">
   <path d="M 0 345.6 
L 460.8 345.6 
L 460.8 0 
L 0 0 
z
" style="fill:#ffffff;"/>
  </g>
  <g id="axes_1">
   <g id="patch_2">
    <path d="M 5.52 291.28 
L 450.672 291.28 
L 450.672 5.52 
L 5.52 5.52 
z
" style="fill:#ffffff;"/>
   </g>
   <g id="matplotlib.axis_1">
    <g id="xtick_1">
     <g id="line2d_1">
      <path clip-path="url(#pc641e8ad54)" d="M 5.300298 291.28 
L 5.300298 5.52 
" style="fill:none;stroke:#b0b0b0;stroke-linecap:square;stroke-width:0.8;"/>
     </g>
     <g id="line2d_2">
      <defs>
       <path d="M 0 0 
L 0 3.5 
" id="m6b1a572080" style="stroke:#000000;stroke-width:0.8;"/>
      </defs>
      <g>
       <use style="stroke:#000000;stroke-width:0.8;" x="5.300298" xlink:href="#m6b1a572080" y="291.28"/>
      </g>
     </g>
    </g>
    <g id="xtick_2">
     <g id="line2d_3">
      <path clip-path="url(#pc641e8ad54)" d="M 106.981936 291.28 
L 106.981936 5.52 
" style="fill:none;stroke:#b0b0b0;stroke-linecap:square;stroke-width:0.8;"/>
     </g>
     <g id="line2d_4">
      <g>
       <use style="stroke:#000000;stroke-width:0.8;" x="106.981936" xlink:href="#m6b1a572080" y="291.28"/>
      </g>
     </g>
     <g id="text_1">
      <!-- -6 -->
      <defs>
       <path d="M 4.890625 31.390625 
L 31.203125 31.390625 
L 31.203125 23.390625 
L 4.890625 23.390625 
z
" id="DejaVuSans-2d"/>
       <path d="M 33.015625 40.375 
Q 26.375 40.375 22.484375 35.828125 
Q 18.609375 31.296875 18.609375 23.390625 
Q 18.609375 15.53125 22.484375 10.953125 
Q 26.375 6.390625 33.015625 6.390625 
Q 39.65625 6.390625 43.53125 10.953125 
Q 47.40625 15.53125 47.40625 23.390625 
Q 47.40625 31.296875 43.53125 35.828125 
Q 39.65625 40.375 33.015625 40.375 
M 52.59375 71.296875 
L 52.59375 62.3125 
Q 48.875 64.0625 45.09375 64.984375 
Q 41.3125 65.921875 37.59375 65.921875 
Q 27.828125 65.921875 22.671875 59.328125 
Q 17.53125 52.734375 16.796875 39.40625 
Q 19.671875 43.65625 24.015625 45.921875 
Q 28.375 48.1875 33.59375 48.1875 
Q 44.578125 48.1875 50.953125 41.515625 
Q 57.328125 34.859375 57.328125 23.390625 
Q 57.328125 12.15625 50.6875 5.359375 
Q 44.046875 -1.421875 33.015625 -1.421875 
Q 20.359375 -1.421875 13.671875 8.265625 
Q 6.984375 17.96875 6.984375 36.375 
Q 6.984375 53.65625 15.1875 63.9375 
Q 23.390625 74.21875 37.203125 74.21875 
Q 40.921875 74.21875 44.703125 73.484375 
Q 48.484375 72.75 52.59375 71.296875 
" id="DejaVuSans-36"/>
      </defs>
      <g transform="translate(97.011623 313.476875)scale(0.2 -0.2)">
       <use xlink:href="#DejaVuSans-2d"/>
       <use x="36.083984" xlink:href="#DejaVuSans-36"/>
      </g>
     </g>
    </g>
    <g id="xtick_3">
     <g id="line2d_5">
      <path clip-path="url(#pc641e8ad54)" d="M 208.663574 291.28 
L 208.663574 5.52 
" style="fill:none;stroke:#b0b0b0;stroke-linecap:square;stroke-width:0.8;"/>
     </g>
     <g id="line2d_6">
      <g>
       <use style="stroke:#000000;stroke-width:0.8;" x="208.663574" xlink:href="#m6b1a572080" y="291.28"/>
      </g>
     </g>
     <g id="text_2">
      <!-- -4 -->
      <defs>
       <path d="M 37.796875 64.3125 
L 12.890625 25.390625 
L 37.796875 25.390625 
z
M 35.203125 72.90625 
L 47.609375 72.90625 
L 47.609375 25.390625 
L 58.015625 25.390625 
L 58.015625 17.1875 
L 47.609375 17.1875 
L 47.609375 0 
L 37.796875 0 
L 37.796875 17.1875 
L 4.890625 17.1875 
L 4.890625 26.703125 
z
" id="DejaVuSans-34"/>
      </defs>
      <g transform="translate(198.693261 313.476875)scale(0.2 -0.2)">
       <use xlink:href="#DejaVuSans-2d"/>
       <use x="36.083984" xlink:href="#DejaVuSans-34"/>
      </g>
     </g>
    </g>
    <g id="xtick_4">
     <g id="line2d_7">
      <path clip-path="url(#pc641e8ad54)" d="M 310.345211 291.28 
L 310.345211 5.52 
" style="fill:none;stroke:#b0b0b0;stroke-linecap:square;stroke-width:0.8;"/>
     </g>
     <g id="line2d_8">
      <g>
       <use style="stroke:#000000;stroke-width:0.8;" x="310.345211" xlink:href="#m6b1a572080" y="291.28"/>
      </g>
     </g>
     <g id="text_3">
      <!-- -2 -->
      <defs>
       <path d="M 19.1875 8.296875 
L 53.609375 8.296875 
L 53.609375 0 
L 7.328125 0 
L 7.328125 8.296875 
Q 12.9375 14.109375 22.625 23.890625 
Q 32.328125 33.6875 34.8125 36.53125 
Q 39.546875 41.84375 41.421875 45.53125 
Q 43.3125 49.21875 43.3125 52.78125 
Q 43.3125 58.59375 39.234375 62.25 
Q 35.15625 65.921875 28.609375 65.921875 
Q 23.96875 65.921875 18.8125 64.3125 
Q 13.671875 62.703125 7.8125 59.421875 
L 7.8125 69.390625 
Q 13.765625 71.78125 18.9375 73 
Q 24.125 74.21875 28.421875 74.21875 
Q 39.75 74.21875 46.484375 68.546875 
Q 53.21875 62.890625 53.21875 53.421875 
Q 53.21875 48.921875 51.53125 44.890625 
Q 49.859375 40.875 45.40625 35.40625 
Q 44.1875 33.984375 37.640625 27.21875 
Q 31.109375 20.453125 19.1875 8.296875 
" id="DejaVuSans-32"/>
      </defs>
      <g transform="translate(300.374899 313.476875)scale(0.2 -0.2)">
       <use xlink:href="#DejaVuSans-2d"/>
       <use x="36.083984" xlink:href="#DejaVuSans-32"/>
      </g>
     </g>
    </g>
    <g id="xtick_5">
     <g id="line2d_9">
      <path clip-path="url(#pc641e8ad54)" d="M 412.026849 291.28 
L 412.026849 5.52 
" style="fill:none;stroke:#b0b0b0;stroke-linecap:square;stroke-width:0.8;"/>
     </g>
     <g id="line2d_10">
      <g>
       <use style="stroke:#000000;stroke-width:0.8;" x="412.026849" xlink:href="#m6b1a572080" y="291.28"/>
      </g>
     </g>
     <g id="text_4">
      <!-- 0 -->
      <defs>
       <path d="M 31.78125 66.40625 
Q 24.171875 66.40625 20.328125 58.90625 
Q 16.5 51.421875 16.5 36.375 
Q 16.5 21.390625 20.328125 13.890625 
Q 24.171875 6.390625 31.78125 6.390625 
Q 39.453125 6.390625 43.28125 13.890625 
Q 47.125 21.390625 47.125 36.375 
Q 47.125 51.421875 43.28125 58.90625 
Q 39.453125 66.40625 31.78125 66.40625 
M 31.78125 74.21875 
Q 44.046875 74.21875 50.515625 64.515625 
Q 56.984375 54.828125 56.984375 36.375 
Q 56.984375 17.96875 50.515625 8.265625 
Q 44.046875 -1.421875 31.78125 -1.421875 
Q 19.53125 -1.421875 13.0625 8.265625 
Q 6.59375 17.96875 6.59375 36.375 
Q 6.59375 54.828125 13.0625 64.515625 
Q 19.53125 74.21875 31.78125 74.21875 
" id="DejaVuSans-30"/>
      </defs>
      <g transform="translate(405.664349 313.476875)scale(0.2 -0.2)">
       <use xlink:href="#DejaVuSans-30"/>
      </g>
     </g>
    </g>
    <g id="xtick_6">
     <g id="line2d_11">
      <defs>
       <path d="M 0 0 
L 0 2 
" id="mfe838f64cf" style="stroke:#000000;stroke-width:0.6;"/>
      </defs>
      <g>
       <use style="stroke:#000000;stroke-width:0.6;" x="20.604909" xlink:href="#mfe838f64cf" y="291.28"/>
      </g>
     </g>
    </g>
    <g id="xtick_7">
     <g id="line2d_12">
      <g>
       <use style="stroke:#000000;stroke-width:0.6;" x="35.909521" xlink:href="#mfe838f64cf" y="291.28"/>
      </g>
     </g>
    </g>
    <g id="xtick_8">
     <g id="line2d_13">
      <g>
       <use style="stroke:#000000;stroke-width:0.6;" x="44.862145" xlink:href="#mfe838f64cf" y="291.28"/>
      </g>
     </g>
    </g>
    <g id="xtick_9">
     <g id="line2d_14">
      <g>
       <use style="stroke:#000000;stroke-width:0.6;" x="51.214132" xlink:href="#mfe838f64cf" y="291.28"/>
      </g>
     </g>
    </g>
    <g id="xtick_10">
     <g id="line2d_15">
      <g>
       <use style="stroke:#000000;stroke-width:0.6;" x="122.286547" xlink:href="#mfe838f64cf" y="291.28"/>
      </g>
     </g>
    </g>
    <g id="xtick_11">
     <g id="line2d_16">
      <g>
       <use style="stroke:#000000;stroke-width:0.6;" x="137.591159" xlink:href="#mfe838f64cf" y="291.28"/>
      </g>
     </g>
    </g>
    <g id="xtick_12">
     <g id="line2d_17">
      <g>
       <use style="stroke:#000000;stroke-width:0.6;" x="146.543783" xlink:href="#mfe838f64cf" y="291.28"/>
      </g>
     </g>
    </g>
    <g id="xtick_13">
     <g id="line2d_18">
      <g>
       <use style="stroke:#000000;stroke-width:0.6;" x="152.89577" xlink:href="#mfe838f64cf" y="291.28"/>
      </g>
     </g>
    </g>
    <g id="xtick_14">
     <g id="line2d_19">
      <g>
       <use style="stroke:#000000;stroke-width:0.6;" x="223.968185" xlink:href="#mfe838f64cf" y="291.28"/>
      </g>
     </g>
    </g>
    <g id="xtick_15">
     <g id="line2d_20">
      <g>
       <use style="stroke:#000000;stroke-width:0.6;" x="239.272797" xlink:href="#mfe838f64cf" y="291.28"/>
      </g>
     </g>
    </g>
    <g id="xtick_16">
     <g id="line2d_21">
      <g>
       <use style="stroke:#000000;stroke-width:0.6;" x="248.22542" xlink:href="#mfe838f64cf" y="291.28"/>
      </g>
     </g>
    </g>
    <g id="xtick_17">
     <g id="line2d_22">
      <g>
       <use style="stroke:#000000;stroke-width:0.6;" x="254.577408" xlink:href="#mfe838f64cf" y="291.28"/>
      </g>
     </g>
    </g>
    <g id="xtick_18">
     <g id="line2d_23">
      <g>
       <use style="stroke:#000000;stroke-width:0.6;" x="325.649823" xlink:href="#mfe838f64cf" y="291.28"/>
      </g>
     </g>
    </g>
    <g id="xtick_19">
     <g id="line2d_24">
      <g>
       <use style="stroke:#000000;stroke-width:0.6;" x="340.954434" xlink:href="#mfe838f64cf" y="291.28"/>
      </g>
     </g>
    </g>
    <g id="xtick_20">
     <g id="line2d_25">
      <g>
       <use style="stroke:#000000;stroke-width:0.6;" x="349.907058" xlink:href="#mfe838f64cf" y="291.28"/>
      </g>
     </g>
    </g>
    <g id="xtick_21">
     <g id="line2d_26">
      <g>
       <use style="stroke:#000000;stroke-width:0.6;" x="356.259046" xlink:href="#mfe838f64cf" y="291.28"/>
      </g>
     </g>
    </g>
    <g id="xtick_22">
     <g id="line2d_27">
      <g>
       <use style="stroke:#000000;stroke-width:0.6;" x="427.331461" xlink:href="#mfe838f64cf" y="291.28"/>
      </g>
     </g>
    </g>
    <g id="xtick_23">
     <g id="line2d_28">
      <g>
       <use style="stroke:#000000;stroke-width:0.6;" x="442.636072" xlink:href="#mfe838f64cf" y="291.28"/>
      </g>
     </g>
    </g>
    <g id="text_5">
     <!-- log10 of Df -->
     <defs>
      <path d="M 9.421875 75.984375 
L 18.40625 75.984375 
L 18.40625 0 
L 9.421875 0 
z
" id="DejaVuSans-6c"/>
      <path d="M 30.609375 48.390625 
Q 23.390625 48.390625 19.1875 42.75 
Q 14.984375 37.109375 14.984375 27.296875 
Q 14.984375 17.484375 19.15625 11.84375 
Q 23.34375 6.203125 30.609375 6.203125 
Q 37.796875 6.203125 41.984375 11.859375 
Q 46.1875 17.53125 46.1875 27.296875 
Q 46.1875 37.015625 41.984375 42.703125 
Q 37.796875 48.390625 30.609375 48.390625 
M 30.609375 56 
Q 42.328125 56 49.015625 48.375 
Q 55.71875 40.765625 55.71875 27.296875 
Q 55.71875 13.875 49.015625 6.21875 
Q 42.328125 -1.421875 30.609375 -1.421875 
Q 18.84375 -1.421875 12.171875 6.21875 
Q 5.515625 13.875 5.515625 27.296875 
Q 5.515625 40.765625 12.171875 48.375 
Q 18.84375 56 30.609375 56 
" id="DejaVuSans-6f"/>
      <path d="M 45.40625 27.984375 
Q 45.40625 37.75 41.375 43.109375 
Q 37.359375 48.484375 30.078125 48.484375 
Q 22.859375 48.484375 18.828125 43.109375 
Q 14.796875 37.75 14.796875 27.984375 
Q 14.796875 18.265625 18.828125 12.890625 
Q 22.859375 7.515625 30.078125 7.515625 
Q 37.359375 7.515625 41.375 12.890625 
Q 45.40625 18.265625 45.40625 27.984375 
M 54.390625 6.78125 
Q 54.390625 -7.171875 48.1875 -13.984375 
Q 42 -20.796875 29.203125 -20.796875 
Q 24.46875 -20.796875 20.265625 -20.09375 
Q 16.0625 -19.390625 12.109375 -17.921875 
L 12.109375 -9.1875 
Q 16.0625 -11.328125 19.921875 -12.34375 
Q 23.78125 -13.375 27.78125 -13.375 
Q 36.625 -13.375 41.015625 -8.765625 
Q 45.40625 -4.15625 45.40625 5.171875 
L 45.40625 9.625 
Q 42.625 4.78125 38.28125 2.390625 
Q 33.9375 0 27.875 0 
Q 17.828125 0 11.671875 7.65625 
Q 5.515625 15.328125 5.515625 27.984375 
Q 5.515625 40.671875 11.671875 48.328125 
Q 17.828125 56 27.875 56 
Q 33.9375 56 38.28125 53.609375 
Q 42.625 51.21875 45.40625 46.390625 
L 45.40625 54.6875 
L 54.390625 54.6875 
z
" id="DejaVuSans-67"/>
      <path d="M 12.40625 8.296875 
L 28.515625 8.296875 
L 28.515625 63.921875 
L 10.984375 60.40625 
L 10.984375 69.390625 
L 28.421875 72.90625 
L 38.28125 72.90625 
L 38.28125 8.296875 
L 54.390625 8.296875 
L 54.390625 0 
L 12.40625 0 
z
" id="DejaVuSans-31"/>
      <path id="DejaVuSans-20"/>
      <path d="M 37.109375 75.984375 
L 37.109375 68.5 
L 28.515625 68.5 
Q 23.6875 68.5 21.796875 66.546875 
Q 19.921875 64.59375 19.921875 59.515625 
L 19.921875 54.6875 
L 34.71875 54.6875 
L 34.71875 47.703125 
L 19.921875 47.703125 
L 19.921875 0 
L 10.890625 0 
L 10.890625 47.703125 
L 2.296875 47.703125 
L 2.296875 54.6875 
L 10.890625 54.6875 
L 10.890625 58.5 
Q 10.890625 67.625 15.140625 71.796875 
Q 19.390625 75.984375 28.609375 75.984375 
z
" id="DejaVuSans-66"/>
      <path d="M 19.671875 64.796875 
L 19.671875 8.109375 
L 31.59375 8.109375 
Q 46.6875 8.109375 53.6875 14.9375 
Q 60.6875 21.78125 60.6875 36.53125 
Q 60.6875 51.171875 53.6875 57.984375 
Q 46.6875 64.796875 31.59375 64.796875 
z
M 9.8125 72.90625 
L 30.078125 72.90625 
Q 51.265625 72.90625 61.171875 64.09375 
Q 71.09375 55.28125 71.09375 36.53125 
Q 71.09375 17.671875 61.125 8.828125 
Q 51.171875 0 30.078125 0 
L 9.8125 0 
z
" id="DejaVuSans-44"/>
     </defs>
     <g transform="translate(172.910063 336.833125)scale(0.2 -0.2)">
      <use xlink:href="#DejaVuSans-6c"/>
      <use x="27.783203" xlink:href="#DejaVuSans-6f"/>
      <use x="88.964844" xlink:href="#DejaVuSans-67"/>
      <use x="152.441406" xlink:href="#DejaVuSans-31"/>
      <use x="216.064453" xlink:href="#DejaVuSans-30"/>
      <use x="279.6875" xlink:href="#DejaVuSans-20"/>
      <use x="311.474609" xlink:href="#DejaVuSans-6f"/>
      <use x="372.65625" xlink:href="#DejaVuSans-66"/>
      <use x="407.861328" xlink:href="#DejaVuSans-20"/>
      <use x="439.648438" xlink:href="#DejaVuSans-44"/>
      <use x="516.650391" xlink:href="#DejaVuSans-66"/>
     </g>
    </g>
   </g>
   <g id="matplotlib.axis_2">
    <g id="ytick_1">
     <g id="line2d_29">
      <path clip-path="url(#pc641e8ad54)" d="M 5.52 291.28 
L 450.672 291.28 
" style="fill:none;stroke:#b0b0b0;stroke-linecap:square;stroke-width:0.8;"/>
     </g>
     <g id="line2d_30">
      <defs>
       <path d="M 0 0 
L -3.5 0 
" id="m7525cf75bf" style="stroke:#000000;stroke-width:0.8;"/>
      </defs>
      <g>
       <use style="stroke:#000000;stroke-width:0.8;" x="5.52" xlink:href="#m7525cf75bf" y="291.28"/>
      </g>
     </g>
    </g>
    <g id="ytick_2">
     <g id="line2d_31">
      <path clip-path="url(#pc641e8ad54)" d="M 5.52 234.693861 
L 450.672 234.693861 
" style="fill:none;stroke:#b0b0b0;stroke-linecap:square;stroke-width:0.8;"/>
     </g>
     <g id="line2d_32">
      <g>
       <use style="stroke:#000000;stroke-width:0.8;" x="5.52" xlink:href="#m7525cf75bf" y="234.693861"/>
      </g>
     </g>
    </g>
    <g id="ytick_3">
     <g id="line2d_33">
      <path clip-path="url(#pc641e8ad54)" d="M 5.52 178.107723 
L 450.672 178.107723 
" style="fill:none;stroke:#b0b0b0;stroke-linecap:square;stroke-width:0.8;"/>
     </g>
     <g id="line2d_34">
      <g>
       <use style="stroke:#000000;stroke-width:0.8;" x="5.52" xlink:href="#m7525cf75bf" y="178.107723"/>
      </g>
     </g>
    </g>
    <g id="ytick_4">
     <g id="line2d_35">
      <path clip-path="url(#pc641e8ad54)" d="M 5.52 121.521584 
L 450.672 121.521584 
" style="fill:none;stroke:#b0b0b0;stroke-linecap:square;stroke-width:0.8;"/>
     </g>
     <g id="line2d_36">
      <g>
       <use style="stroke:#000000;stroke-width:0.8;" x="5.52" xlink:href="#m7525cf75bf" y="121.521584"/>
      </g>
     </g>
    </g>
    <g id="ytick_5">
     <g id="line2d_37">
      <path clip-path="url(#pc641e8ad54)" d="M 5.52 64.935446 
L 450.672 64.935446 
" style="fill:none;stroke:#b0b0b0;stroke-linecap:square;stroke-width:0.8;"/>
     </g>
     <g id="line2d_38">
      <g>
       <use style="stroke:#000000;stroke-width:0.8;" x="5.52" xlink:href="#m7525cf75bf" y="64.935446"/>
      </g>
     </g>
    </g>
    <g id="ytick_6">
     <g id="line2d_39">
      <path clip-path="url(#pc641e8ad54)" d="M 5.52 8.349307 
L 450.672 8.349307 
" style="fill:none;stroke:#b0b0b0;stroke-linecap:square;stroke-width:0.8;"/>
     </g>
     <g id="line2d_40">
      <g>
       <use style="stroke:#000000;stroke-width:0.8;" x="5.52" xlink:href="#m7525cf75bf" y="8.349307"/>
      </g>
     </g>
    </g>
   </g>
   <g id="line2d_41">
    <path clip-path="url(#pc641e8ad54)" d="M 385.213723 291.28 
L 385.213723 284.206733 
L 394.807414 284.206733 
L 394.807414 277.133465 
L 395.230722 277.133465 
L 395.230722 270.060198 
L 395.789023 270.060198 
L 395.789023 262.986931 
L 396.936812 262.986931 
L 396.936812 255.913663 
L 397.136218 255.913663 
L 397.136218 248.840396 
L 397.42324 248.840396 
L 397.42324 241.767129 
L 398.604699 241.767129 
L 398.604699 234.693861 
L 399.842166 234.693861 
L 399.842166 227.620594 
L 400.113268 227.620594 
L 400.113268 220.547327 
L 400.909856 220.547327 
L 400.909856 213.474059 
L 403.330486 213.474059 
L 403.330486 206.400792 
L 403.444695 206.400792 
L 403.444695 199.327525 
L 403.458464 199.327525 
L 403.458464 192.254257 
L 403.656474 192.254257 
L 403.656474 185.18099 
L 404.007543 185.18099 
L 404.007543 178.107723 
L 404.209478 178.107723 
L 404.209478 171.034455 
L 404.448906 171.034455 
L 404.448906 163.961188 
L 404.523245 163.961188 
L 404.523245 156.887921 
L 404.959148 156.887921 
L 404.959148 149.814653 
L 405.283531 149.814653 
L 405.283531 142.741386 
L 405.399976 142.741386 
L 405.399976 135.668119 
L 405.714355 135.668119 
L 405.714355 128.594851 
L 405.751745 128.594851 
L 405.751745 121.521584 
L 405.929576 121.521584 
L 405.929576 114.448317 
L 406.252432 114.448317 
L 406.252432 107.37505 
L 407.012317 107.37505 
L 407.012317 100.301782 
L 407.553224 100.301782 
L 407.553224 93.228515 
L 407.88703 93.228515 
L 407.88703 86.155248 
L 408.067234 86.155248 
L 408.067234 79.08198 
L 408.085584 79.08198 
L 408.085584 72.008713 
L 408.434808 72.008713 
L 408.434808 64.935446 
L 408.896684 64.935446 
L 408.896684 57.862178 
L 410.236382 57.862178 
L 410.236382 50.788911 
L 411.04975 50.788911 
L 411.04975 43.715644 
L 411.062266 43.715644 
L 411.062266 36.642376 
L 411.609883 36.642376 
L 411.609883 29.569109 
L 415.791341 29.569109 
L 415.791341 22.495842 
L 417.164516 22.495842 
L 417.164516 15.422574 
L 430.396453 15.422574 
L 430.396453 8.349307 
L 430.396453 8.349307 
L 430.396453 8.349307 
L 450.672 8.349307 
" style="fill:none;stroke:#ff0000;stroke-linecap:square;stroke-width:3;"/>
   </g>
   <g id="line2d_42">
    <path clip-path="url(#pc641e8ad54)" d="M 385.213723 291.28 
L 385.213723 284.206733 
L 394.807414 284.206733 
L 394.807414 277.133465 
L 395.230722 277.133465 
L 395.230722 270.060198 
L 395.789023 270.060198 
L 395.789023 262.986931 
L 396.936812 262.986931 
L 396.936812 255.913663 
L 397.136218 255.913663 
L 397.136218 248.840396 
L 397.42324 248.840396 
L 397.42324 241.767129 
L 398.604699 241.767129 
L 398.604699 234.693861 
L 399.842166 234.693861 
L 399.842166 227.620594 
L 400.113268 227.620594 
L 400.113268 220.547327 
L 400.909856 220.547327 
L 400.909856 213.474059 
L 403.330486 213.474059 
L 403.330486 206.400792 
L 403.444695 206.400792 
L 403.444695 199.327525 
L 403.458464 199.327525 
L 403.458464 192.254257 
L 403.656474 192.254257 
L 403.656474 185.18099 
L 404.007543 185.18099 
L 404.007543 178.107723 
L 404.209478 178.107723 
L 404.209478 171.034455 
L 404.448906 171.034455 
L 404.448906 163.961188 
L 404.523245 163.961188 
L 404.523245 156.887921 
L 404.959148 156.887921 
L 404.959148 149.814653 
L 405.283531 149.814653 
L 405.283531 142.741386 
L 405.399976 142.741386 
L 405.399976 135.668119 
L 405.714355 135.668119 
L 405.714355 128.594851 
L 405.751745 128.594851 
L 405.751745 121.521584 
L 405.929576 121.521584 
L 405.929576 114.448317 
L 406.252432 114.448317 
L 406.252432 107.37505 
L 407.012317 107.37505 
L 407.012317 100.301782 
L 407.553224 100.301782 
L 407.553224 93.228515 
L 407.88703 93.228515 
L 407.88703 86.155248 
L 408.067234 86.155248 
L 408.067234 79.08198 
L 408.085584 79.08198 
L 408.085584 72.008713 
L 408.434808 72.008713 
L 408.434808 64.935446 
L 408.896684 64.935446 
L 408.896684 57.862178 
L 410.236382 57.862178 
L 410.236382 50.788911 
L 411.04975 50.788911 
L 411.04975 43.715644 
L 411.062266 43.715644 
L 411.062266 36.642376 
L 411.609883 36.642376 
L 411.609883 29.569109 
L 415.791341 29.569109 
L 415.791341 22.495842 
L 417.164516 22.495842 
L 417.164516 15.422574 
L 430.396453 15.422574 
L 430.396453 8.349307 
L 430.396453 8.349307 
L 430.396453 8.349307 
L 450.672 8.349307 
" style="fill:none;stroke:#00bfbf;stroke-linecap:square;stroke-width:1.5;"/>
   </g>
   <g id="line2d_43">
    <path clip-path="url(#pc641e8ad54)" d="M 385.213723 291.28 
L 385.213723 284.206733 
L 394.807414 284.206733 
L 394.807414 277.133465 
L 395.230722 277.133465 
L 395.230722 270.060198 
L 395.789023 270.060198 
L 395.789023 262.986931 
L 396.936812 262.986931 
L 396.936812 255.913663 
L 397.136218 255.913663 
L 397.136218 248.840396 
L 397.42324 248.840396 
L 397.42324 241.767129 
L 398.604699 241.767129 
L 398.604699 234.693861 
L 399.842166 234.693861 
L 399.842166 227.620594 
L 400.113268 227.620594 
L 400.113268 220.547327 
L 400.909856 220.547327 
L 400.909856 213.474059 
L 403.330486 213.474059 
L 403.330486 206.400792 
L 403.444695 206.400792 
L 403.444695 199.327525 
L 403.458464 199.327525 
L 403.458464 192.254257 
L 403.656474 192.254257 
L 403.656474 185.18099 
L 404.007543 185.18099 
L 404.007543 178.107723 
L 404.209478 178.107723 
L 404.209478 171.034455 
L 404.448906 171.034455 
L 404.448906 163.961188 
L 404.523245 163.961188 
L 404.523245 156.887921 
L 404.959148 156.887921 
L 404.959148 149.814653 
L 405.283531 149.814653 
L 405.283531 142.741386 
L 405.399976 142.741386 
L 405.399976 135.668119 
L 405.714355 135.668119 
L 405.714355 128.594851 
L 405.751745 128.594851 
L 405.751745 121.521584 
L 405.929576 121.521584 
L 405.929576 114.448317 
L 406.252432 114.448317 
L 406.252432 107.37505 
L 407.012317 107.37505 
L 407.012317 100.301782 
L 407.553224 100.301782 
L 407.553224 93.228515 
L 407.88703 93.228515 
L 407.88703 86.155248 
L 408.067234 86.155248 
L 408.067234 79.08198 
L 408.085584 79.08198 
L 408.085584 72.008713 
L 408.434808 72.008713 
L 408.434808 64.935446 
L 408.896684 64.935446 
L 408.896684 57.862178 
L 410.236382 57.862178 
L 410.236382 50.788911 
L 411.04975 50.788911 
L 411.04975 43.715644 
L 411.062266 43.715644 
L 411.062266 36.642376 
L 411.609883 36.642376 
L 411.609883 29.569109 
L 415.791341 29.569109 
L 415.791341 22.495842 
L 417.164516 22.495842 
L 417.164516 15.422574 
L 430.396453 15.422574 
L 430.396453 8.349307 
L 430.396453 8.349307 
L 430.396453 8.349307 
L 450.672 8.349307 
" style="fill:none;stroke:#bf00bf;stroke-linecap:square;stroke-width:1.5;"/>
   </g>
   <g id="line2d_44">
    <path clip-path="url(#pc641e8ad54)" d="M 385.213723 291.28 
L 385.213723 284.206733 
L 394.807414 284.206733 
L 394.807414 277.133465 
L 395.230722 277.133465 
L 395.230722 270.060198 
L 395.789023 270.060198 
L 395.789023 262.986931 
L 396.936812 262.986931 
L 396.936812 255.913663 
L 397.136218 255.913663 
L 397.136218 248.840396 
L 397.42324 248.840396 
L 397.42324 241.767129 
L 398.604699 241.767129 
L 398.604699 234.693861 
L 399.842166 234.693861 
L 399.842166 227.620594 
L 400.113268 227.620594 
L 400.113268 220.547327 
L 400.909856 220.547327 
L 400.909856 213.474059 
L 403.330486 213.474059 
L 403.330486 206.400792 
L 403.444695 206.400792 
L 403.444695 199.327525 
L 403.458464 199.327525 
L 403.458464 192.254257 
L 403.656474 192.254257 
L 403.656474 185.18099 
L 404.007543 185.18099 
L 404.007543 178.107723 
L 404.209478 178.107723 
L 404.209478 171.034455 
L 404.448906 171.034455 
L 404.448906 163.961188 
L 404.523245 163.961188 
L 404.523245 156.887921 
L 404.959148 156.887921 
L 404.959148 149.814653 
L 405.283531 149.814653 
L 405.283531 142.741386 
L 405.399976 142.741386 
L 405.399976 135.668119 
L 405.714355 135.668119 
L 405.714355 128.594851 
L 405.751745 128.594851 
L 405.751745 121.521584 
L 405.929576 121.521584 
L 405.929576 114.448317 
L 406.252432 114.448317 
L 406.252432 107.37505 
L 407.012317 107.37505 
L 407.012317 100.301782 
L 407.553224 100.301782 
L 407.553224 93.228515 
L 407.88703 93.228515 
L 407.88703 86.155248 
L 408.067234 86.155248 
L 408.067234 79.08198 
L 408.085584 79.08198 
L 408.085584 72.008713 
L 408.434808 72.008713 
L 408.434808 64.935446 
L 408.896684 64.935446 
L 408.896684 57.862178 
L 410.236382 57.862178 
L 410.236382 50.788911 
L 411.04975 50.788911 
L 411.04975 43.715644 
L 411.062266 43.715644 
L 411.062266 36.642376 
L 411.609883 36.642376 
L 411.609883 29.569109 
L 415.791341 29.569109 
L 415.791341 22.495842 
L 417.164516 22.495842 
L 417.164516 15.422574 
L 430.396453 15.422574 
L 430.396453 8.349307 
L 430.396453 8.349307 
L 430.396453 8.349307 
L 450.672 8.349307 
" style="fill:none;stroke:#000000;stroke-linecap:square;stroke-width:1.5;"/>
   </g>
   <g id="line2d_45">
    <path clip-path="url(#pc641e8ad54)" d="M 385.213723 291.28 
L 385.213723 284.206733 
L 394.807414 284.206733 
L 394.807414 277.133465 
L 395.230722 277.133465 
L 395.230722 270.060198 
L 395.789023 270.060198 
L 395.789023 262.986931 
L 396.936812 262.986931 
L 396.936812 255.913663 
L 397.136218 255.913663 
L 397.136218 248.840396 
L 397.42324 248.840396 
L 397.42324 241.767129 
L 398.604699 241.767129 
L 398.604699 234.693861 
L 399.842166 234.693861 
L 399.842166 227.620594 
L 400.113268 227.620594 
L 400.113268 220.547327 
L 400.909856 220.547327 
L 400.909856 213.474059 
L 403.330486 213.474059 
L 403.330486 206.400792 
L 403.444695 206.400792 
L 403.444695 199.327525 
L 403.458464 199.327525 
L 403.458464 192.254257 
L 403.656474 192.254257 
L 403.656474 185.18099 
L 404.007543 185.18099 
L 404.007543 178.107723 
L 404.209478 178.107723 
L 404.209478 171.034455 
L 404.448906 171.034455 
L 404.448906 163.961188 
L 404.523245 163.961188 
L 404.523245 156.887921 
L 404.959148 156.887921 
L 404.959148 149.814653 
L 405.283531 149.814653 
L 405.283531 142.741386 
L 405.399976 142.741386 
L 405.399976 135.668119 
L 405.714355 135.668119 
L 405.714355 128.594851 
L 405.751745 128.594851 
L 405.751745 121.521584 
L 405.929576 121.521584 
L 405.929576 114.448317 
L 406.252432 114.448317 
L 406.252432 107.37505 
L 407.012317 107.37505 
L 407.012317 100.301782 
L 407.553224 100.301782 
L 407.553224 93.228515 
L 407.88703 93.228515 
L 407.88703 86.155248 
L 408.067234 86.155248 
L 408.067234 79.08198 
L 408.085584 79.08198 
L 408.085584 72.008713 
L 408.434808 72.008713 
L 408.434808 64.935446 
L 408.896684 64.935446 
L 408.896684 57.862178 
L 410.236382 57.862178 
L 410.236382 50.788911 
L 411.04975 50.788911 
L 411.04975 43.715644 
L 411.062266 43.715644 
L 411.062266 36.642376 
L 411.609883 36.642376 
L 411.609883 29.569109 
L 415.791341 29.569109 
L 415.791341 22.495842 
L 417.164516 22.495842 
L 417.164516 15.422574 
L 430.396453 15.422574 
L 430.396453 8.349307 
L 430.396453 8.349307 
L 430.396453 8.349307 
L 450.672 8.349307 
" style="fill:none;stroke:#00bfbf;stroke-linecap:square;stroke-width:1.5;"/>
   </g>
   <g id="line2d_46">
    <path clip-path="url(#pc641e8ad54)" d="M 385.213723 291.28 
L 385.213723 284.206733 
L 394.807414 284.206733 
L 394.807414 277.133465 
L 395.230722 277.133465 
L 395.230722 270.060198 
L 395.789023 270.060198 
L 395.789023 262.986931 
L 396.936812 262.986931 
L 396.936812 255.913663 
L 397.136218 255.913663 
L 397.136218 248.840396 
L 397.42324 248.840396 
L 397.42324 241.767129 
L 398.604699 241.767129 
L 398.604699 234.693861 
L 399.842166 234.693861 
L 399.842166 227.620594 
L 400.113268 227.620594 
L 400.113268 220.547327 
L 400.909856 220.547327 
L 400.909856 213.474059 
L 403.330486 213.474059 
L 403.330486 206.400792 
L 403.444695 206.400792 
L 403.444695 199.327525 
L 403.458464 199.327525 
L 403.458464 192.254257 
L 403.656474 192.254257 
L 403.656474 185.18099 
L 404.007543 185.18099 
L 404.007543 178.107723 
L 404.209478 178.107723 
L 404.209478 171.034455 
L 404.448906 171.034455 
L 404.448906 163.961188 
L 404.523245 163.961188 
L 404.523245 156.887921 
L 404.959148 156.887921 
L 404.959148 149.814653 
L 405.283531 149.814653 
L 405.283531 142.741386 
L 405.399976 142.741386 
L 405.399976 135.668119 
L 405.714355 135.668119 
L 405.714355 128.594851 
L 405.751745 128.594851 
L 405.751745 121.521584 
L 405.929576 121.521584 
L 405.929576 114.448317 
L 406.252432 114.448317 
L 406.252432 107.37505 
L 407.012317 107.37505 
L 407.012317 100.301782 
L 407.553224 100.301782 
L 407.553224 93.228515 
L 407.88703 93.228515 
L 407.88703 86.155248 
L 408.067234 86.155248 
L 408.067234 79.08198 
L 408.085584 79.08198 
L 408.085584 72.008713 
L 408.434808 72.008713 
L 408.434808 64.935446 
L 408.896684 64.935446 
L 408.896684 57.862178 
L 410.236382 57.862178 
L 410.236382 50.788911 
L 411.04975 50.788911 
L 411.04975 43.715644 
L 411.062266 43.715644 
L 411.062266 36.642376 
L 411.609883 36.642376 
L 411.609883 29.569109 
L 415.791341 29.569109 
L 415.791341 22.495842 
L 417.164516 22.495842 
L 417.164516 15.422574 
L 430.396453 15.422574 
L 430.396453 8.349307 
L 430.396453 8.349307 
L 430.396453 8.349307 
L 450.672 8.349307 
" style="fill:none;stroke:#bf00bf;stroke-linecap:square;stroke-width:1.5;"/>
   </g>
   <g id="patch_3">
    <path d="M 5.52 291.28 
L 5.52 5.52 
" style="fill:none;stroke:#000000;stroke-linecap:square;stroke-linejoin:miter;stroke-width:0.8;"/>
   </g>
   <g id="patch_4">
    <path d="M 450.672 291.28 
L 450.672 5.52 
" style="fill:none;stroke:#000000;stroke-linecap:square;stroke-linejoin:miter;stroke-width:0.8;"/>
   </g>
   <g id="patch_5">
    <path d="M 5.52 291.28 
L 450.672 291.28 
" style="fill:none;stroke:#000000;stroke-linecap:square;stroke-linejoin:miter;stroke-width:0.8;"/>
   </g>
   <g id="patch_6">
    <path d="M 5.52 5.52 
L 450.672 5.52 
" style="fill:none;stroke:#000000;stroke-linecap:square;stroke-linejoin:miter;stroke-width:0.8;"/>
   </g>
   <g id="text_6">
    <!-- {f37, f38, f42, f43}, 20-D -->
    <defs>
     <path d="M 51.125 -9.28125 
L 51.125 -16.3125 
L 48.09375 -16.3125 
Q 35.9375 -16.3125 31.8125 -12.6875 
Q 27.6875 -9.078125 27.6875 1.703125 
L 27.6875 13.375 
Q 27.6875 20.75 25.046875 23.578125 
Q 22.40625 26.421875 15.484375 26.421875 
L 12.5 26.421875 
L 12.5 33.40625 
L 15.484375 33.40625 
Q 22.46875 33.40625 25.078125 36.203125 
Q 27.6875 39.015625 27.6875 46.296875 
L 27.6875 58.015625 
Q 27.6875 68.796875 31.8125 72.390625 
Q 35.9375 75.984375 48.09375 75.984375 
L 51.125 75.984375 
L 51.125 69 
L 47.796875 69 
Q 40.921875 69 38.8125 66.84375 
Q 36.71875 64.703125 36.71875 57.8125 
L 36.71875 45.703125 
Q 36.71875 38.03125 34.5 34.5625 
Q 32.28125 31.109375 26.90625 29.890625 
Q 32.328125 28.5625 34.515625 25.09375 
Q 36.71875 21.625 36.71875 14.015625 
L 36.71875 1.90625 
Q 36.71875 -4.984375 38.8125 -7.125 
Q 40.921875 -9.28125 47.796875 -9.28125 
z
" id="DejaVuSans-7b"/>
     <path d="M 40.578125 39.3125 
Q 47.65625 37.796875 51.625 33 
Q 55.609375 28.21875 55.609375 21.1875 
Q 55.609375 10.40625 48.1875 4.484375 
Q 40.765625 -1.421875 27.09375 -1.421875 
Q 22.515625 -1.421875 17.65625 -0.515625 
Q 12.796875 0.390625 7.625 2.203125 
L 7.625 11.71875 
Q 11.71875 9.328125 16.59375 8.109375 
Q 21.484375 6.890625 26.8125 6.890625 
Q 36.078125 6.890625 40.9375 10.546875 
Q 45.796875 14.203125 45.796875 21.1875 
Q 45.796875 27.640625 41.28125 31.265625 
Q 36.765625 34.90625 28.71875 34.90625 
L 20.21875 34.90625 
L 20.21875 43.015625 
L 29.109375 43.015625 
Q 36.375 43.015625 40.234375 45.921875 
Q 44.09375 48.828125 44.09375 54.296875 
Q 44.09375 59.90625 40.109375 62.90625 
Q 36.140625 65.921875 28.71875 65.921875 
Q 24.65625 65.921875 20.015625 65.03125 
Q 15.375 64.15625 9.8125 62.3125 
L 9.8125 71.09375 
Q 15.4375 72.65625 20.34375 73.4375 
Q 25.25 74.21875 29.59375 74.21875 
Q 40.828125 74.21875 47.359375 69.109375 
Q 53.90625 64.015625 53.90625 55.328125 
Q 53.90625 49.265625 50.4375 45.09375 
Q 46.96875 40.921875 40.578125 39.3125 
" id="DejaVuSans-33"/>
     <path d="M 8.203125 72.90625 
L 55.078125 72.90625 
L 55.078125 68.703125 
L 28.609375 0 
L 18.3125 0 
L 43.21875 64.59375 
L 8.203125 64.59375 
z
" id="DejaVuSans-37"/>
     <path d="M 11.71875 12.40625 
L 22.015625 12.40625 
L 22.015625 4 
L 14.015625 -11.625 
L 7.71875 -11.625 
L 11.71875 4 
z
" id="DejaVuSans-2c"/>
     <path d="M 31.78125 34.625 
Q 24.75 34.625 20.71875 30.859375 
Q 16.703125 27.09375 16.703125 20.515625 
Q 16.703125 13.921875 20.71875 10.15625 
Q 24.75 6.390625 31.78125 6.390625 
Q 38.8125 6.390625 42.859375 10.171875 
Q 46.921875 13.96875 46.921875 20.515625 
Q 46.921875 27.09375 42.890625 30.859375 
Q 38.875 34.625 31.78125 34.625 
M 21.921875 38.8125 
Q 15.578125 40.375 12.03125 44.71875 
Q 8.5 49.078125 8.5 55.328125 
Q 8.5 64.0625 14.71875 69.140625 
Q 20.953125 74.21875 31.78125 74.21875 
Q 42.671875 74.21875 48.875 69.140625 
Q 55.078125 64.0625 55.078125 55.328125 
Q 55.078125 49.078125 51.53125 44.71875 
Q 48 40.375 41.703125 38.8125 
Q 48.828125 37.15625 52.796875 32.3125 
Q 56.78125 27.484375 56.78125 20.515625 
Q 56.78125 9.90625 50.3125 4.234375 
Q 43.84375 -1.421875 31.78125 -1.421875 
Q 19.734375 -1.421875 13.25 4.234375 
Q 6.78125 9.90625 6.78125 20.515625 
Q 6.78125 27.484375 10.78125 32.3125 
Q 14.796875 37.15625 21.921875 38.8125 
M 18.3125 54.390625 
Q 18.3125 48.734375 21.84375 45.5625 
Q 25.390625 42.390625 31.78125 42.390625 
Q 38.140625 42.390625 41.71875 45.5625 
Q 45.3125 48.734375 45.3125 54.390625 
Q 45.3125 60.0625 41.71875 63.234375 
Q 38.140625 66.40625 31.78125 66.40625 
Q 25.390625 66.40625 21.84375 63.234375 
Q 18.3125 60.0625 18.3125 54.390625 
" id="DejaVuSans-38"/>
     <path d="M 12.5 -9.28125 
L 15.921875 -9.28125 
Q 22.75 -9.28125 24.828125 -7.171875 
Q 26.90625 -5.078125 26.90625 1.90625 
L 26.90625 14.015625 
Q 26.90625 21.625 29.09375 25.09375 
Q 31.296875 28.5625 36.71875 29.890625 
Q 31.296875 31.109375 29.09375 34.5625 
Q 26.90625 38.03125 26.90625 45.703125 
L 26.90625 57.8125 
Q 26.90625 64.75 24.828125 66.875 
Q 22.75 69 15.921875 69 
L 12.5 69 
L 12.5 75.984375 
L 15.578125 75.984375 
Q 27.734375 75.984375 31.8125 72.390625 
Q 35.890625 68.796875 35.890625 58.015625 
L 35.890625 46.296875 
Q 35.890625 39.015625 38.515625 36.203125 
Q 41.15625 33.40625 48.09375 33.40625 
L 51.125 33.40625 
L 51.125 26.421875 
L 48.09375 26.421875 
Q 41.15625 26.421875 38.515625 23.578125 
Q 35.890625 20.75 35.890625 13.375 
L 35.890625 1.703125 
Q 35.890625 -9.078125 31.8125 -12.6875 
Q 27.734375 -16.3125 15.578125 -16.3125 
L 12.5 -16.3125 
z
" id="DejaVuSans-7d"/>
    </defs>
    <g transform="translate(187.440835 285.5648)scale(0.2 -0.2)">
     <use xlink:href="#DejaVuSans-7b"/>
     <use x="63.623047" xlink:href="#DejaVuSans-66"/>
     <use x="98.828125" xlink:href="#DejaVuSans-33"/>
     <use x="162.451172" xlink:href="#DejaVuSans-37"/>
     <use x="226.074219" xlink:href="#DejaVuSans-2c"/>
     <use x="257.861328" xlink:href="#DejaVuSans-20"/>
     <use x="289.648438" xlink:href="#DejaVuSans-66"/>
     <use x="324.853516" xlink:href="#DejaVuSans-33"/>
     <use x="388.476562" xlink:href="#DejaVuSans-38"/>
     <use x="452.099609" xlink:href="#DejaVuSans-2c"/>
     <use x="483.886719" xlink:href="#DejaVuSans-20"/>
     <use x="515.673828" xlink:href="#DejaVuSans-66"/>
     <use x="550.878906" xlink:href="#DejaVuSans-34"/>
     <use x="614.501953" xlink:href="#DejaVuSans-32"/>
     <use x="678.125" xlink:href="#DejaVuSans-2c"/>
     <use x="709.912109" xlink:href="#DejaVuSans-20"/>
     <use x="741.699219" xlink:href="#DejaVuSans-66"/>
     <use x="776.904297" xlink:href="#DejaVuSans-34"/>
     <use x="840.527344" xlink:href="#DejaVuSans-33"/>
     <use x="904.150391" xlink:href="#DejaVuSans-7d"/>
     <use x="967.773438" xlink:href="#DejaVuSans-2c"/>
     <use x="999.560547" xlink:href="#DejaVuSans-20"/>
     <use x="1031.347656" xlink:href="#DejaVuSans-32"/>
     <use x="1094.970703" xlink:href="#DejaVuSans-30"/>
     <use x="1158.59375" xlink:href="#DejaVuSans-2d"/>
     <use x="1194.677734" xlink:href="#DejaVuSans-44"/>
    </g>
   </g>
   <g id="text_7">
    <!-- v2.2.1.10, hv-hash=ff0e71e8cd978373 -->
    <defs>
     <path d="M 2.984375 54.6875 
L 12.5 54.6875 
L 29.59375 8.796875 
L 46.6875 54.6875 
L 56.203125 54.6875 
L 35.6875 0 
L 23.484375 0 
z
" id="DejaVuSans-76"/>
     <path d="M 10.6875 12.40625 
L 21 12.40625 
L 21 0 
L 10.6875 0 
z
" id="DejaVuSans-2e"/>
     <path d="M 54.890625 33.015625 
L 54.890625 0 
L 45.90625 0 
L 45.90625 32.71875 
Q 45.90625 40.484375 42.875 44.328125 
Q 39.84375 48.1875 33.796875 48.1875 
Q 26.515625 48.1875 22.3125 43.546875 
Q 18.109375 38.921875 18.109375 30.90625 
L 18.109375 0 
L 9.078125 0 
L 9.078125 75.984375 
L 18.109375 75.984375 
L 18.109375 46.1875 
Q 21.34375 51.125 25.703125 53.5625 
Q 30.078125 56 35.796875 56 
Q 45.21875 56 50.046875 50.171875 
Q 54.890625 44.34375 54.890625 33.015625 
" id="DejaVuSans-68"/>
     <path d="M 34.28125 27.484375 
Q 23.390625 27.484375 19.1875 25 
Q 14.984375 22.515625 14.984375 16.5 
Q 14.984375 11.71875 18.140625 8.90625 
Q 21.296875 6.109375 26.703125 6.109375 
Q 34.1875 6.109375 38.703125 11.40625 
Q 43.21875 16.703125 43.21875 25.484375 
L 43.21875 27.484375 
z
M 52.203125 31.203125 
L 52.203125 0 
L 43.21875 0 
L 43.21875 8.296875 
Q 40.140625 3.328125 35.546875 0.953125 
Q 30.953125 -1.421875 24.3125 -1.421875 
Q 15.921875 -1.421875 10.953125 3.296875 
Q 6 8.015625 6 15.921875 
Q 6 25.140625 12.171875 29.828125 
Q 18.359375 34.515625 30.609375 34.515625 
L 43.21875 34.515625 
L 43.21875 35.40625 
Q 43.21875 41.609375 39.140625 45 
Q 35.0625 48.390625 27.6875 48.390625 
Q 23 48.390625 18.546875 47.265625 
Q 14.109375 46.140625 10.015625 43.890625 
L 10.015625 52.203125 
Q 14.9375 54.109375 19.578125 55.046875 
Q 24.21875 56 28.609375 56 
Q 40.484375 56 46.34375 49.84375 
Q 52.203125 43.703125 52.203125 31.203125 
" id="DejaVuSans-61"/>
     <path d="M 44.28125 53.078125 
L 44.28125 44.578125 
Q 40.484375 46.53125 36.375 47.5 
Q 32.28125 48.484375 27.875 48.484375 
Q 21.1875 48.484375 17.84375 46.4375 
Q 14.5 44.390625 14.5 40.28125 
Q 14.5 37.15625 16.890625 35.375 
Q 19.28125 33.59375 26.515625 31.984375 
L 29.59375 31.296875 
Q 39.15625 29.25 43.1875 25.515625 
Q 47.21875 21.78125 47.21875 15.09375 
Q 47.21875 7.46875 41.1875 3.015625 
Q 35.15625 -1.421875 24.609375 -1.421875 
Q 20.21875 -1.421875 15.453125 -0.5625 
Q 10.6875 0.296875 5.421875 2 
L 5.421875 11.28125 
Q 10.40625 8.6875 15.234375 7.390625 
Q 20.0625 6.109375 24.8125 6.109375 
Q 31.15625 6.109375 34.5625 8.28125 
Q 37.984375 10.453125 37.984375 14.40625 
Q 37.984375 18.0625 35.515625 20.015625 
Q 33.0625 21.96875 24.703125 23.78125 
L 21.578125 24.515625 
Q 13.234375 26.265625 9.515625 29.90625 
Q 5.8125 33.546875 5.8125 39.890625 
Q 5.8125 47.609375 11.28125 51.796875 
Q 16.75 56 26.8125 56 
Q 31.78125 56 36.171875 55.265625 
Q 40.578125 54.546875 44.28125 53.078125 
" id="DejaVuSans-73"/>
     <path d="M 10.59375 45.40625 
L 73.1875 45.40625 
L 73.1875 37.203125 
L 10.59375 37.203125 
z
M 10.59375 25.484375 
L 73.1875 25.484375 
L 73.1875 17.1875 
L 10.59375 17.1875 
z
" id="DejaVuSans-3d"/>
     <path d="M 56.203125 29.59375 
L 56.203125 25.203125 
L 14.890625 25.203125 
Q 15.484375 15.921875 20.484375 11.0625 
Q 25.484375 6.203125 34.421875 6.203125 
Q 39.59375 6.203125 44.453125 7.46875 
Q 49.3125 8.734375 54.109375 11.28125 
L 54.109375 2.78125 
Q 49.265625 0.734375 44.1875 -0.34375 
Q 39.109375 -1.421875 33.890625 -1.421875 
Q 20.796875 -1.421875 13.15625 6.1875 
Q 5.515625 13.8125 5.515625 26.8125 
Q 5.515625 40.234375 12.765625 48.109375 
Q 20.015625 56 32.328125 56 
Q 43.359375 56 49.78125 48.890625 
Q 56.203125 41.796875 56.203125 29.59375 
M 47.21875 32.234375 
Q 47.125 39.59375 43.09375 43.984375 
Q 39.0625 48.390625 32.421875 48.390625 
Q 24.90625 48.390625 20.390625 44.140625 
Q 15.875 39.890625 15.1875 32.171875 
z
" id="DejaVuSans-65"/>
     <path d="M 48.78125 52.59375 
L 48.78125 44.1875 
Q 44.96875 46.296875 41.140625 47.34375 
Q 37.3125 48.390625 33.40625 48.390625 
Q 24.65625 48.390625 19.8125 42.84375 
Q 14.984375 37.3125 14.984375 27.296875 
Q 14.984375 17.28125 19.8125 11.734375 
Q 24.65625 6.203125 33.40625 6.203125 
Q 37.3125 6.203125 41.140625 7.25 
Q 44.96875 8.296875 48.78125 10.40625 
L 48.78125 2.09375 
Q 45.015625 0.34375 40.984375 -0.53125 
Q 36.96875 -1.421875 32.421875 -1.421875 
Q 20.0625 -1.421875 12.78125 6.34375 
Q 5.515625 14.109375 5.515625 27.296875 
Q 5.515625 40.671875 12.859375 48.328125 
Q 20.21875 56 33.015625 56 
Q 37.15625 56 41.109375 55.140625 
Q 45.0625 54.296875 48.78125 52.59375 
" id="DejaVuSans-63"/>
     <path d="M 45.40625 46.390625 
L 45.40625 75.984375 
L 54.390625 75.984375 
L 54.390625 0 
L 45.40625 0 
L 45.40625 8.203125 
Q 42.578125 3.328125 38.25 0.953125 
Q 33.9375 -1.421875 27.875 -1.421875 
Q 17.96875 -1.421875 11.734375 6.484375 
Q 5.515625 14.40625 5.515625 27.296875 
Q 5.515625 40.1875 11.734375 48.09375 
Q 17.96875 56 27.875 56 
Q 33.9375 56 38.25 53.625 
Q 42.578125 51.265625 45.40625 46.390625 
M 14.796875 27.296875 
Q 14.796875 17.390625 18.875 11.75 
Q 22.953125 6.109375 30.078125 6.109375 
Q 37.203125 6.109375 41.296875 11.75 
Q 45.40625 17.390625 45.40625 27.296875 
Q 45.40625 37.203125 41.296875 42.84375 
Q 37.203125 48.484375 30.078125 48.484375 
Q 22.953125 48.484375 18.875 42.84375 
Q 14.796875 37.203125 14.796875 27.296875 
" id="DejaVuSans-64"/>
     <path d="M 10.984375 1.515625 
L 10.984375 10.5 
Q 14.703125 8.734375 18.5 7.8125 
Q 22.3125 6.890625 25.984375 6.890625 
Q 35.75 6.890625 40.890625 13.453125 
Q 46.046875 20.015625 46.78125 33.40625 
Q 43.953125 29.203125 39.59375 26.953125 
Q 35.25 24.703125 29.984375 24.703125 
Q 19.046875 24.703125 12.671875 31.3125 
Q 6.296875 37.9375 6.296875 49.421875 
Q 6.296875 60.640625 12.9375 67.421875 
Q 19.578125 74.21875 30.609375 74.21875 
Q 43.265625 74.21875 49.921875 64.515625 
Q 56.59375 54.828125 56.59375 36.375 
Q 56.59375 19.140625 48.40625 8.859375 
Q 40.234375 -1.421875 26.421875 -1.421875 
Q 22.703125 -1.421875 18.890625 -0.6875 
Q 15.09375 0.046875 10.984375 1.515625 
M 30.609375 32.421875 
Q 37.25 32.421875 41.125 36.953125 
Q 45.015625 41.5 45.015625 49.421875 
Q 45.015625 57.28125 41.125 61.84375 
Q 37.25 66.40625 30.609375 66.40625 
Q 23.96875 66.40625 20.09375 61.84375 
Q 16.21875 57.28125 16.21875 49.421875 
Q 16.21875 41.5 20.09375 36.953125 
Q 23.96875 32.421875 30.609375 32.421875 
" id="DejaVuSans-39"/>
    </defs>
    <g style="fill:#808080;" transform="translate(129.749125 286.342713)scale(0.1 -0.1)">
     <use xlink:href="#DejaVuSans-76"/>
     <use x="59.179688" xlink:href="#DejaVuSans-32"/>
     <use x="122.802734" xlink:href="#DejaVuSans-2e"/>
     <use x="154.589844" xlink:href="#DejaVuSans-32"/>
     <use x="218.212891" xlink:href="#DejaVuSans-2e"/>
     <use x="250" xlink:href="#DejaVuSans-31"/>
     <use x="313.623047" xlink:href="#DejaVuSans-2e"/>
     <use x="345.410156" xlink:href="#DejaVuSans-31"/>
     <use x="409.033203" xlink:href="#DejaVuSans-30"/>
     <use x="472.65625" xlink:href="#DejaVuSans-2c"/>
     <use x="504.443359" xlink:href="#DejaVuSans-20"/>
     <use x="536.230469" xlink:href="#DejaVuSans-68"/>
     <use x="599.609375" xlink:href="#DejaVuSans-76"/>
     <use x="658.757812" xlink:href="#DejaVuSans-2d"/>
     <use x="694.841797" xlink:href="#DejaVuSans-68"/>
     <use x="758.220703" xlink:href="#DejaVuSans-61"/>
     <use x="819.5" xlink:href="#DejaVuSans-73"/>
     <use x="871.599609" xlink:href="#DejaVuSans-68"/>
     <use x="934.978516" xlink:href="#DejaVuSans-3d"/>
     <use x="1018.767578" xlink:href="#DejaVuSans-66"/>
     <use x="1053.972656" xlink:href="#DejaVuSans-66"/>
     <use x="1089.177734" xlink:href="#DejaVuSans-30"/>
     <use x="1152.800781" xlink:href="#DejaVuSans-65"/>
     <use x="1214.324219" xlink:href="#DejaVuSans-37"/>
     <use x="1277.947266" xlink:href="#DejaVuSans-31"/>
     <use x="1341.570312" xlink:href="#DejaVuSans-65"/>
     <use x="1403.09375" xlink:href="#DejaVuSans-38"/>
     <use x="1466.716797" xlink:href="#DejaVuSans-63"/>
     <use x="1521.697266" xlink:href="#DejaVuSans-64"/>
     <use x="1585.173828" xlink:href="#DejaVuSans-39"/>
     <use x="1648.796875" xlink:href="#DejaVuSans-37"/>
     <use x="1712.419922" xlink:href="#DejaVuSans-38"/>
     <use x="1776.042969" xlink:href="#DejaVuSans-33"/>
     <use x="1839.666016" xlink:href="#DejaVuSans-37"/>
     <use x="1903.289062" xlink:href="#DejaVuSans-33"/>
    </g>
   </g>
  </g>
 </g>
 <defs>
  <clipPath id="pc641e8ad54">
   <rect height="285.76" width="445.152" x="5.52" y="5.52"/>
  </clipPath>
 </defs>
</svg>
