%
% index = 2175, name = bbob_f013_i02_d05__bbob_f014_i04_d05
% instance = 1, reference value = 8.859521644457879e-01
% function evaluation | indicator value | target hit
1	8.904405829752879e-01	8.912509381337456e-01
3123	8.904405829752879e-01	8.912509381337456e-01
%
% index = 2176, name = bbob_f013_i03_d05__bbob_f014_i05_d05
% instance = 2, reference value = 9.301689834545770e-01
% function evaluation | indicator value | target hit
1	6.682229602727972e-01	6.760829753919817e-01
1007	5.825878551993495e-01	5.888436553555889e-01
1190	5.710743848687638e-01	5.754399373371569e-01
1242	5.550822974720216e-01	5.623413251903491e-01
1262	4.920298185252618e-01	5.011872336272722e-01
1282	4.873953122101289e-01	4.897788193684462e-01
1343	3.997742811193733e-01	4.073802778041127e-01
1378	3.939082722722191e-01	3.981071705534972e-01
1423	3.798573148276599e-01	3.801893963205612e-01
1427	3.714336912897016e-01	3.715352290971726e-01
1475	3.464527733500864e-01	3.467368504525316e-01
1650	3.261353238955479e-01	3.311311214825911e-01
1850	3.209168204203668e-01	3.235936569296283e-01
1919	2.936907182193471e-01	2.951209226666385e-01
1958	2.840875393733328e-01	2.884031503126606e-01
1995	2.567933247642168e-01	2.570395782768864e-01
2042	2.418888272410901e-01	2.454708915685030e-01
2214	2.316698337829540e-01	2.344228815319922e-01
2411	2.278523213114421e-01	2.290867652767773e-01
2563	2.215572008871491e-01	2.238721138568339e-01
2618	2.058417840347981e-01	2.089296130854039e-01
3075	2.058417840347981e-01	2.089296130854039e-01
%
% index = 2177, name = bbob_f013_i07_d05__bbob_f014_i08_d05
% instance = 3, reference value = 6.273154507369680e-01
% function evaluation | indicator value | target hit
1	3.627908542705468e+00	3.630780547701014e+00
3083	3.627908542705468e+00	3.630780547701014e+00
%
% index = 2178, name = bbob_f013_i09_d05__bbob_f014_i10_d05
% instance = 4, reference value = 9.147245384105070e-01
% function evaluation | indicator value | target hit
1	6.195536642418747e-01	6.309573444801932e-01
3119	6.195536642418747e-01	6.309573444801932e-01
%
% index = 2179, name = bbob_f013_i11_d05__bbob_f014_i12_d05
% instance = 5, reference value = 9.547006003008690e-01
% function evaluation | indicator value | target hit
1	4.275229091428122e-01	4.365158322401660e-01
2166	4.236416817848747e-01	4.265795188015927e-01
2238	4.091459707213786e-01	4.168693834703354e-01
2266	3.760860372278908e-01	3.801893963205612e-01
2327	3.610986349968477e-01	3.630780547701014e-01
2391	3.494450889559324e-01	3.548133892335755e-01
2399	3.099032377910146e-01	3.162277660168379e-01
2402	3.079391437927579e-01	3.090295432513591e-01
2403	3.011386512667962e-01	3.019951720402016e-01
2426	2.935721480742659e-01	2.951209226666385e-01
2514	2.798932528698000e-01	2.818382931264454e-01
2714	2.327789482808666e-01	2.344228815319922e-01
2751	2.166578991148451e-01	2.187761623949552e-01
3103	2.150400583370037e-01	2.187761623949552e-01
%
% index = 2180, name = bbob_f013_i13_d05__bbob_f014_i14_d05
% instance = 6, reference value = 8.311675091370380e-01
% function evaluation | indicator value | target hit
1	5.786192307049726e-01	5.888436553555889e-01
3087	5.786192307049726e-01	5.888436553555889e-01
%
% index = 2181, name = bbob_f013_i15_d05__bbob_f014_i16_d05
% instance = 7, reference value = 8.932195444308531e-01
% function evaluation | indicator value | target hit
1	8.831032739408800e-01	8.912509381337456e-01
3099	8.831032739408800e-01	8.912509381337456e-01
%
% index = 2182, name = bbob_f013_i17_d05__bbob_f014_i18_d05
% instance = 8, reference value = 9.360033315588900e-01
% function evaluation | indicator value | target hit
1	7.522570847645703e-01	7.585775750291838e-01
3095	7.522570847645703e-01	7.585775750291838e-01
%
% index = 2183, name = bbob_f013_i19_d05__bbob_f014_i21_d05
% instance = 9, reference value = 8.204740660763520e-01
% function evaluation | indicator value | target hit
1	7.828078377133608e-01	7.943282347242815e-01
3139	7.828078377133608e-01	7.943282347242815e-01
%
% index = 2184, name = bbob_f013_i21_d05__bbob_f014_i22_d05
% instance = 10, reference value = 9.211172349058760e-01
% function evaluation | indicator value | target hit
1	1.172691191583376e+00	1.174897554939530e+00
746	1.131409428368376e+00	1.148153621496883e+00
747	1.075443020284219e+00	1.096478196143185e+00
758	1.021864250892876e+00	1.023292992280754e+00
798	9.204097546475928e-01	9.332543007969910e-01
807	8.501622226410537e-01	8.511380382023764e-01
835	8.022640475077054e-01	8.128305161640993e-01
838	6.717874682053679e-01	6.760829753919817e-01
943	6.404560183005423e-01	6.456542290346555e-01
994	6.222580630323729e-01	6.309573444801932e-01
1051	6.076322656073708e-01	6.165950018614822e-01
1066	5.289768010944571e-01	5.370317963702527e-01
1171	5.242530880268741e-01	5.248074602497725e-01
1210	4.953745563619312e-01	5.011872336272722e-01
1274	4.617486269059490e-01	4.677351412871982e-01
1586	4.539183033593973e-01	4.570881896148750e-01
1711	4.238322770117555e-01	4.265795188015927e-01
3119	4.215640844912988e-01	4.265795188015927e-01
%
% index = 2185, name = bbob_f013_i23_d05__bbob_f014_i24_d05
% instance = 11, reference value = 1.000000000000000e+00
% function evaluation | indicator value | target hit
1	1.825656178670825e+01	1.862087136662868e+01
1934	1.560148411788952e+01	1.584893192461113e+01
3119	1.560148411788952e+01	1.584893192461113e+01
%
% index = 2186, name = bbob_f013_i25_d05__bbob_f014_i26_d05
% instance = 12, reference value = 1.000000000000000e+00
% function evaluation | indicator value | target hit
1	5.891463685830837e-01	6.025595860743578e-01
3111	5.891463685830837e-01	6.025595860743578e-01
%
% index = 2187, name = bbob_f013_i27_d05__bbob_f014_i28_d05
% instance = 13, reference value = 1.000000000000000e+00
% function evaluation | indicator value | target hit
1	2.212775015157500e+00	2.238721138568339e+00
3119	2.212775015157500e+00	2.238721138568339e+00
%
% index = 2188, name = bbob_f013_i29_d05__bbob_f014_i30_d05
% instance = 14, reference value = 1.000000000000000e+00
% function evaluation | indicator value | target hit
1	9.639739985182224e-01	9.772372209558107e-01
3087	9.639739985182224e-01	9.772372209558107e-01
%
% index = 2189, name = bbob_f013_i31_d05__bbob_f014_i34_d05
% instance = 15, reference value = 1.000000000000000e+00
% function evaluation | indicator value | target hit
1	8.959414059400208e-01	9.120108393559098e-01
3119	8.959414059400208e-01	9.120108393559098e-01
