%
% index = 0, name = bbob_f001_i02_d02__bbob_f001_i04_d02
% instance = 1, reference value = 8.333329238494520e-01
% function evaluation | indicator value | target hit
1	5.910890219930732e-01	6.025595860743578e-01
527	5.837316659001586e-01	5.888436553555889e-01
546	4.721716258268666e-01	4.786300923226383e-01
571	4.411938535960908e-01	4.466835921509631e-01
594	4.137660915934539e-01	4.168693834703354e-01
807	2.627452709883045e-01	2.630267991895382e-01
875	2.490448257130459e-01	2.511886431509580e-01
1039	2.130934670950166e-01	2.137962089502232e-01
1070	2.079237479366334e-01	2.089296130854039e-01
1078	1.995508405111397e-01	2.041737944669530e-01
1083	1.992441585224234e-01	1.995262314968880e-01
1126	1.936270425762529e-01	1.949844599758045e-01
1338	1.904995059277866e-01	1.905460717963247e-01
1427	1.834588959713637e-01	1.862087136662867e-01
2098	1.232817464673286e-01	1.258925411794167e-01
2183	8.231468966984157e-02	8.317637711026708e-02
2338	7.752931974576516e-02	7.762471166286916e-02
2443	6.866310259183994e-02	6.918309709189366e-02
2491	6.710395867391994e-02	6.760829753919818e-02
2563	6.564762471003027e-02	6.606934480075961e-02
3047	6.269931289006136e-02	6.309573444801933e-02
3050	5.958719197228168e-02	6.025595860743578e-02
3051	5.821296422511213e-02	5.888436553555890e-02
3075	5.804314168770996e-02	5.888436553555890e-02
%
% index = 4, name = bbob_f001_i11_d02__bbob_f001_i12_d02
% instance = 5, reference value = 8.333329452963470e-01
% function evaluation | indicator value | target hit
1	2.755743096683392e-01	2.818382931264454e-01
181	2.741718203895948e-01	2.754228703338166e-01
322	2.405303866183903e-01	2.454708915685030e-01
427	2.213429999737168e-01	2.238721138568339e-01
467	2.026083959041424e-01	2.041737944669530e-01
534	1.256644180569496e-01	1.258925411794167e-01
567	1.176421817985793e-01	1.202264434617413e-01
578	1.111914542825757e-01	1.122018454301964e-01
623	1.082056501256591e-01	1.096478196143185e-01
1027	1.030492969290675e-01	1.047128548050900e-01
1486	9.379737531106869e-02	9.549925860214359e-02
1511	8.685810832445817e-02	8.709635899560805e-02
2191	7.303788732738314e-02	7.413102413009177e-02
2203	7.206898245070392e-02	7.244359600749903e-02
2463	6.916678987430924e-02	6.918309709189366e-02
2691	6.618311599294013e-02	6.760829753919818e-02
2746	6.605429005532581e-02	6.606934480075961e-02
2827	4.890584629285766e-02	4.897788193684462e-02
2859	4.337819744752536e-02	4.365158322401658e-02
2867	4.132973422624298e-02	4.168693834703355e-02
2887	4.001720806736364e-02	4.073802778041128e-02
3095	4.000412949286303e-02	4.073802778041128e-02
%
% index = 8, name = bbob_f001_i19_d02__bbob_f001_i21_d02
% instance = 9, reference value = 8.333326081592400e-01
% function evaluation | indicator value | target hit
1	7.267898340678460e-01	7.413102413009175e-01
582	4.281100203423392e-01	4.365158322401660e-01
646	4.255822945783223e-01	4.265795188015927e-01
675	3.938583565559142e-01	3.981071705534972e-01
694	3.871982785132259e-01	3.890451449942806e-01
810	3.768764216447880e-01	3.801893963205612e-01
811	2.607327934583377e-01	2.630267991895382e-01
863	2.552286424676451e-01	2.570395782768864e-01
870	1.616678518204091e-01	1.621810097358930e-01
930	1.279698348369892e-01	1.288249551693134e-01
962	1.219811906183410e-01	1.230268770812381e-01
967	1.168785580631704e-01	1.174897554939529e-01
1162	1.078156384807039e-01	1.096478196143185e-01
1175	1.065720000020730e-01	1.071519305237607e-01
1199	9.648140147522544e-02	9.772372209558107e-02
1203	9.369000387409765e-02	9.549925860214359e-02
1210	7.819011658526898e-02	7.943282347242814e-02
1978	7.703140484720172e-02	7.762471166286916e-02
2046	7.435647232771614e-02	7.585775750291836e-02
3059	7.435647232771614e-02	7.585775750291836e-02
%
% index = 12, name = bbob_f001_i27_d02__bbob_f001_i28_d02
% instance = 13, reference value = 1.000000000000000e+00
% function evaluation | indicator value | target hit
1	5.083612957697883e-01	5.128613839913648e-01
443	4.752201716256134e-01	4.786300923226383e-01
490	4.398186095629155e-01	4.466835921509631e-01
498	4.293232441881693e-01	4.365158322401660e-01
547	4.227490016998992e-01	4.265795188015927e-01
583	4.143263216641110e-01	4.168693834703354e-01
1843	3.576059829579472e-01	3.630780547701014e-01
2458	3.412900201888425e-01	3.467368504525316e-01
2890	2.964978644301023e-01	3.019951720402016e-01
2891	2.560483263965736e-01	2.570395782768864e-01
2915	2.366325150038422e-01	2.398832919019490e-01
2918	2.308883407376003e-01	2.344228815319922e-01
2919	2.289608651441065e-01	2.290867652767773e-01
2954	2.235740891993672e-01	2.238721138568339e-01
3042	2.183848484339224e-01	2.187761623949552e-01
3070	2.042735198526918e-01	2.089296130854039e-01
3078	2.041416324906814e-01	2.041737944669530e-01
3083	1.931251841355909e-01	1.949844599758045e-01
3111	1.931251841355909e-01	1.949844599758045e-01
