%
% index = 152, name = bbob_f002_i07_d02__bbob_f002_i08_d02
% instance = 3, reference value = 8.174369511008270e-01
% function evaluation | indicator value | target hit
1	3.593610420833111e-01	3.630780547701014e-01
54	3.547550015726142e-01	3.548133892335755e-01
71	3.453433724292148e-01	3.467368504525316e-01
94	1.766722132090131e-01	1.778279410038923e-01
102	1.439977120233017e-01	1.445439770745928e-01
106	6.955332554252791e-02	7.079457843841380e-02
114	6.746749508902183e-02	6.760829753919818e-02
126	6.560160616507471e-02	6.606934480075961e-02
147	6.425725248070502e-02	6.456542290346556e-02
170	5.499422874839410e-02	5.623413251903491e-02
171	5.491589056306778e-02	5.495408738576246e-02
191	4.976853602926357e-02	5.011872336272722e-02
195	4.449413205083508e-02	4.466835921509630e-02
222	4.051567015028912e-02	4.073802778041128e-02
223	3.843019195209596e-02	3.890451449942807e-02
231	3.689062408145860e-02	3.715352290971726e-02
258	2.685354364103887e-02	2.691534803926915e-02
266	2.609524190388735e-02	2.630267991895381e-02
290	2.353818524595475e-02	2.398832919019490e-02
291	2.188902904446155e-02	2.238721138568340e-02
299	2.057204011285385e-02	2.089296130854040e-02
302	1.936767527110705e-02	1.949844599758046e-02
306	1.879529700575078e-02	1.905460717963247e-02
310	1.845035597661571e-02	1.862087136662868e-02
311	1.816040075228731e-02	1.819700858609984e-02
331	1.729384253334854e-02	1.737800828749375e-02
346	1.683451888901877e-02	1.698243652461744e-02
354	1.648906070622902e-02	1.659586907437561e-02
365	1.578880424997620e-02	1.584893192461113e-02
378	1.539571113037230e-02	1.548816618912481e-02
382	1.470393945961146e-02	1.479108388168207e-02
387	1.350734293115408e-02	1.380384264602885e-02
390	1.343399134972145e-02	1.348962882591653e-02
394	1.310373622723360e-02	1.318256738556407e-02
410	1.272508772422154e-02	1.288249551693134e-02
415	1.012156553871302e-02	1.023292992280754e-02
442	9.673815088546034e-03	9.772372209558112e-03
443	9.270531026451367e-03	9.332543007969915e-03
462	9.118370145622112e-03	9.120108393559097e-03
522	8.910446491005586e-03	8.912509381337459e-03
579	8.697026646370953e-03	8.709635899560805e-03
847	8.466205149525785e-03	8.511380382023767e-03
1378	8.108745339603263e-03	8.128305161640995e-03
1490	7.875491166051019e-03	7.943282347242814e-03
1604	7.292388511478509e-03	7.413102413009177e-03
1849	7.073936920623636e-03	7.079457843841380e-03
2182	6.891703273776861e-03	6.918309709189363e-03
2261	6.754631381989173e-03	6.760829753919818e-03
2804	6.592409063018723e-03	6.606934480075957e-03
3095	6.559861571595937e-03	6.606934480075957e-03
%
% index = 156, name = bbob_f002_i15_d02__bbob_f002_i16_d02
% instance = 7, reference value = 8.271245246928750e-01
% function evaluation | indicator value | target hit
1	1.084516443097875e+00	1.096478196143185e+00
70	2.866054551981230e-01	2.884031503126606e-01
95	2.067272267656529e-01	2.089296130854039e-01
106	1.448913957260648e-01	1.479108388168208e-01
130	1.120270031571514e-01	1.122018454301964e-01
131	7.253544198021789e-02	7.413102413009177e-02
135	7.107030930798686e-02	7.244359600749903e-02
138	6.812969251505885e-02	6.918309709189366e-02
151	6.597925058182275e-02	6.606934480075961e-02
162	6.254525932924537e-02	6.309573444801933e-02
171	6.130213214458868e-02	6.165950018614822e-02
175	6.003520734530610e-02	6.025595860743578e-02
178	4.631885728914709e-02	4.677351412871981e-02
185	4.409122305561042e-02	4.466835921509630e-02
190	4.303666255816196e-02	4.365158322401658e-02
194	4.261774508294291e-02	4.265795188015926e-02
195	4.039836202813496e-02	4.073802778041128e-02
210	3.972653425389439e-02	3.981071705534973e-02
246	3.720944601622356e-02	3.801893963205612e-02
250	3.691348117377302e-02	3.715352290971726e-02
271	3.627747606539178e-02	3.630780547701014e-02
303	3.508245333919202e-02	3.548133892335755e-02
327	3.460546765037853e-02	3.467368504525317e-02
346	3.374662711912024e-02	3.388441561392026e-02
429	3.302303093893477e-02	3.311311214825911e-02
516	3.135923824732423e-02	3.162277660168379e-02
547	3.088972635932818e-02	3.090295432513590e-02
563	2.246072058872961e-02	2.290867652767773e-02
1057	2.219549632962992e-02	2.238721138568340e-02
1604	2.182856560490365e-02	2.187761623949553e-02
1808	1.503820512032950e-02	1.513561248436208e-02
2066	1.470325566689135e-02	1.479108388168207e-02
2071	1.315895303552361e-02	1.318256738556407e-02
3115	1.300575563974837e-02	1.318256738556407e-02
%
% index = 160, name = bbob_f002_i23_d02__bbob_f002_i24_d02
% instance = 11, reference value = 1.000000000000000e+00
% function evaluation | indicator value | target hit
1	6.953737643136267e-01	7.079457843841379e-01
79	3.991673087571820e-01	4.073802778041127e-01
102	3.979017291302385e-01	3.981071705534972e-01
106	3.071529892265420e-01	3.090295432513591e-01
122	3.017669355150630e-01	3.019951720402016e-01
134	2.757650624686645e-01	2.818382931264454e-01
139	2.685256006255331e-01	2.691534803926916e-01
166	2.450470178407751e-01	2.454708915685030e-01
178	2.358053648033098e-01	2.398832919019490e-01
198	2.329641790089123e-01	2.344228815319922e-01
222	2.289018408507439e-01	2.290867652767773e-01
258	2.214186448495102e-01	2.238721138568339e-01
433	2.177090770074582e-01	2.187761623949552e-01
612	2.132493368436024e-01	2.137962089502232e-01
2984	2.074492428895306e-01	2.089296130854039e-01
3064	2.037439329106734e-01	2.041737944669530e-01
3119	2.037408127501409e-01	2.041737944669530e-01
%
% index = 164, name = bbob_f002_i31_d02__bbob_f002_i34_d02
% instance = 15, reference value = 1.000000000000000e+00
% function evaluation | indicator value | target hit
1	4.440843978914889e-01	4.466835921509631e-01
68	3.882312601538234e-01	3.890451449942806e-01
92	2.658171316031763e-01	2.691534803926916e-01
119	2.536612629642521e-01	2.570395782768864e-01
127	2.376236295893549e-01	2.398832919019490e-01
187	2.338718747448778e-01	2.344228815319922e-01
218	2.286631180355803e-01	2.290867652767773e-01
283	2.159549042789208e-01	2.187761623949552e-01
290	2.071200917860296e-01	2.089296130854039e-01
347	2.038235221965409e-01	2.041737944669530e-01
593	1.985698335827759e-01	1.995262314968880e-01
603	1.896261525759805e-01	1.905460717963247e-01
672	1.852595306847932e-01	1.862087136662867e-01
859	1.806774558733235e-01	1.819700858609984e-01
1090	1.777858764964162e-01	1.778279410038923e-01
1386	1.731409276850790e-01	1.737800828749375e-01
2634	1.696133155365338e-01	1.698243652461744e-01
3111	1.693720659966280e-01	1.698243652461744e-01
