%
% index = 150, name = bbob_f002_i02_d02__bbob_f002_i04_d02
% instance = 1, reference value = 8.239728125623880e-01
% function evaluation | indicator value | target hit
1	2.825238832870306e-01	2.884031503126606e-01
11	2.490471134071560e-01	2.511886431509580e-01
42	1.971565326919333e-01	1.995262314968880e-01
71	1.727227933541086e-01	1.737800828749375e-01
79	1.680375025155805e-01	1.698243652461744e-01
86	8.786200373782060e-02	8.912509381337455e-02
94	7.978905971053274e-02	8.128305161640990e-02
98	7.625063412800337e-02	7.762471166286916e-02
99	7.488683458124312e-02	7.585775750291836e-02
102	7.032346224476338e-02	7.079457843841380e-02
114	6.914697953056226e-02	6.918309709189366e-02
118	4.076624441972543e-02	4.168693834703355e-02
119	4.060030181801466e-02	4.073802778041128e-02
122	3.828605083785896e-02	3.890451449942807e-02
123	3.765618397925585e-02	3.801893963205612e-02
131	3.667752881857955e-02	3.715352290971726e-02
135	3.561825528981932e-02	3.630780547701014e-02
138	3.526336731657953e-02	3.548133892335755e-02
147	3.459869295945450e-02	3.467368504525317e-02
158	3.102263871747779e-02	3.162277660168379e-02
166	2.554492094286298e-02	2.570395782768863e-02
183	2.507725126074190e-02	2.511886431509579e-02
194	2.411177217318894e-02	2.454708915685030e-02
210	2.389611896098531e-02	2.398832919019490e-02
223	2.163089426697784e-02	2.187761623949553e-02
231	1.811373134658556e-02	1.819700858609984e-02
248	1.712596912968734e-02	1.737800828749375e-02
258	1.579398247115527e-02	1.584893192461113e-02
266	1.538801322880989e-02	1.548816618912481e-02
271	1.273406059708715e-02	1.288249551693134e-02
282	1.256114938647956e-02	1.258925411794167e-02
284	1.227916007897800e-02	1.230268770812382e-02
294	1.190439557799550e-02	1.202264434617413e-02
299	1.122737536676410e-02	1.148153621496883e-02
302	1.120852394019889e-02	1.122018454301964e-02
307	1.031771579861185e-02	1.047128548050900e-02
326	1.003981829084977e-02	1.023292992280754e-02
327	9.944204014651459e-03	1.000000000000000e-02
330	9.551599751313811e-03	9.772372209558112e-03
331	8.512659523648325e-03	8.709635899560805e-03
334	8.504073967020909e-03	8.511380382023767e-03
346	8.300765827972789e-03	8.317637711026709e-03
347	7.878487665281209e-03	7.943282347242814e-03
367	7.699143485540128e-03	7.762471166286920e-03
382	7.436994749788428e-03	7.585775750291836e-03
386	7.412230637746986e-03	7.413102413009177e-03
418	6.905600834484771e-03	6.918309709189363e-03
422	6.357348693323717e-03	6.456542290346556e-03
435	6.275574770515768e-03	6.309573444801930e-03
474	6.099253111472969e-03	6.165950018614822e-03
510	5.783933093542526e-03	5.888436553555890e-03
511	5.718734551336757e-03	5.754399373371567e-03
928	5.405544408701779e-03	5.495408738576248e-03
964	5.353310872417638e-03	5.370317963702527e-03
1279	5.172114079863732e-03	5.248074602497728e-03
1282	5.044406645049460e-03	5.128613839913648e-03
1290	4.930839191262359e-03	5.011872336272725e-03
1303	4.887594395506345e-03	4.897788193684461e-03
1322	4.769033686509050e-03	4.786300923226385e-03
1338	4.603220891977400e-03	4.677351412871981e-03
1355	4.549250209455180e-03	4.570881896148752e-03
1430	4.293054777435246e-03	4.365158322401661e-03
1446	4.257187592561551e-03	4.265795188015926e-03
1451	4.123667947234955e-03	4.168693834703355e-03
1474	4.060928799665131e-03	4.073802778041126e-03
1531	3.978575866922962e-03	3.981071705534973e-03
1600	3.616846584472255e-03	3.630780547701014e-03
1654	3.546480082989634e-03	3.548133892335753e-03
1731	3.405652509292478e-03	3.467368504525317e-03
1750	3.351372848399370e-03	3.388441561392024e-03
1763	3.307464512409486e-03	3.311311214825911e-03
1794	3.167897471237580e-03	3.235936569296281e-03
1798	3.161166962520445e-03	3.162277660168379e-03
1878	3.090257386808792e-03	3.090295432513592e-03
2735	3.017313554694478e-03	3.019951720402016e-03
3123	2.988502051529118e-03	3.019951720402016e-03
%
% index = 151, name = bbob_f002_i03_d02__bbob_f002_i05_d02
% instance = 2, reference value = 8.344746405897751e-01
% function evaluation | indicator value | target hit
1	2.748056948965255e-01	2.754228703338166e-01
32	2.172546390617788e-01	2.187761623949552e-01
46	1.908496867169638e-01	1.949844599758045e-01
55	1.773563560429096e-01	1.778279410038923e-01
62	1.580042271229439e-01	1.584893192461113e-01
65	1.518880332122309e-01	1.548816618912481e-01
70	9.931713739973724e-02	1.000000000000000e-01
86	9.729072667424854e-02	9.772372209558107e-02
98	6.275048546174722e-02	6.309573444801933e-02
102	5.457271296141097e-02	5.495408738576246e-02
123	5.328457120174834e-02	5.370317963702527e-02
152	5.195576164233184e-02	5.248074602497726e-02
178	3.745574592739365e-02	3.801893963205612e-02
179	3.411137268285325e-02	3.467368504525317e-02
230	3.375914150122750e-02	3.388441561392026e-02
344	3.299121349539669e-02	3.311311214825911e-02
548	2.377393805552996e-02	2.398832919019490e-02
581	2.189168444688983e-02	2.238721138568340e-02
672	2.043967348633657e-02	2.089296130854040e-02
789	2.031345050157907e-02	2.041737944669529e-02
840	1.952422800370668e-02	1.995262314968880e-02
896	1.891027909622855e-02	1.905460717963247e-02
921	1.819490247117106e-02	1.819700858609984e-02
1127	1.765981021087715e-02	1.778279410038923e-02
1192	1.529041897663730e-02	1.548816618912481e-02
1233	1.466373426716916e-02	1.479108388168207e-02
1310	1.444758726813611e-02	1.445439770745927e-02
1331	1.337061741315537e-02	1.348962882591653e-02
1358	1.272726081069175e-02	1.288249551693134e-02
1362	1.234401143515407e-02	1.258925411794167e-02
1365	1.191985973773124e-02	1.202264434617413e-02
1371	1.156490218720096e-02	1.174897554939530e-02
1382	1.140747345494308e-02	1.148153621496883e-02
1426	1.120780886186046e-02	1.122018454301964e-02
1435	1.090932415731649e-02	1.096478196143185e-02
1455	9.563294505970377e-03	9.772372209558112e-03
1458	9.521453872175512e-03	9.549925860214359e-03
1474	9.071832985853567e-03	9.120108393559097e-03
1492	8.827331010480721e-03	8.912509381337459e-03
1498	8.606536119198704e-03	8.709635899560805e-03
1519	8.394876079096947e-03	8.511380382023767e-03
1535	8.112026453778176e-03	8.128305161640995e-03
1554	7.915520847405211e-03	7.943282347242814e-03
1570	7.751551408095025e-03	7.762471166286920e-03
1583	7.540321150745877e-03	7.585775750291836e-03
1657	7.409533724695994e-03	7.413102413009177e-03
1702	6.912582989406446e-03	6.918309709189363e-03
1719	6.711029581483174e-03	6.760829753919818e-03
1738	5.783877300142293e-03	5.888436553555890e-03
1754	5.742526348280208e-03	5.754399373371567e-03
1799	5.620952755480246e-03	5.623413251903491e-03
1826	5.472001417417327e-03	5.495408738576248e-03
1889	5.370057318155652e-03	5.370317963702527e-03
2172	4.340182724533403e-03	4.365158322401661e-03
2185	4.256939837953055e-03	4.265795188015926e-03
2466	4.108135268335311e-03	4.168693834703355e-03
3111	4.094344338180900e-03	4.168693834703355e-03
%
% index = 152, name = bbob_f002_i07_d02__bbob_f002_i08_d02
% instance = 3, reference value = 8.174369511008270e-01
% function evaluation | indicator value | target hit
1	3.593610420833111e-01	3.630780547701014e-01
39	3.478186644403473e-01	3.548133892335755e-01
45	3.462772567942939e-01	3.467368504525316e-01
67	1.922753708238681e-01	1.949844599758045e-01
75	9.528247961379910e-02	9.549925860214359e-02
78	9.279800780635317e-02	9.332543007969910e-02
79	9.106395767011122e-02	9.120108393559097e-02
87	8.506131558951990e-02	8.511380382023763e-02
90	7.816913789555258e-02	7.943282347242814e-02
95	7.327897565140751e-02	7.413102413009177e-02
98	6.114232822009080e-02	6.165950018614822e-02
106	4.787533806249911e-02	4.897788193684462e-02
107	3.518110700336097e-02	3.548133892335755e-02
130	3.402849651362205e-02	3.467368504525317e-02
131	3.313504505238196e-02	3.388441561392026e-02
134	3.228275341173548e-02	3.235936569296283e-02
138	3.121995529706223e-02	3.162277660168379e-02
154	2.378187289966627e-02	2.398832919019490e-02
174	2.327129297615338e-02	2.344228815319923e-02
195	2.099534896485189e-02	2.137962089502233e-02
207	2.085344537507905e-02	2.089296130854040e-02
210	1.993714064897978e-02	1.995262314968880e-02
219	1.847370906535695e-02	1.862087136662868e-02
226	1.731917941325689e-02	1.737800828749375e-02
227	1.665897518211346e-02	1.698243652461744e-02
235	1.544159316794624e-02	1.548816618912481e-02
282	1.510796788458879e-02	1.513561248436208e-02
283	1.458807658277694e-02	1.479108388168207e-02
298	1.440545870876275e-02	1.445439770745927e-02
318	1.408877587730317e-02	1.412537544622754e-02
319	1.309479529076996e-02	1.318256738556407e-02
334	1.261309920005016e-02	1.288249551693134e-02
343	1.248319110434415e-02	1.258925411794167e-02
363	1.138527559891078e-02	1.148153621496883e-02
402	1.080191090105120e-02	1.096478196143185e-02
411	1.057438070700045e-02	1.071519305237606e-02
427	1.046579750937104e-02	1.047128548050900e-02
539	1.012168668931968e-02	1.023292992280754e-02
542	9.942411061816814e-03	1.000000000000000e-02
558	9.747446524129844e-03	9.772372209558112e-03
562	9.367219368353608e-03	9.549925860214359e-03
567	9.332206316678415e-03	9.332543007969915e-03
583	9.105484870554958e-03	9.120108393559097e-03
603	8.774233496950279e-03	8.912509381337459e-03
606	8.630873572845643e-03	8.709635899560805e-03
646	8.487962061935250e-03	8.511380382023767e-03
649	8.290373025758635e-03	8.317637711026709e-03
670	7.870073181417081e-03	7.943282347242814e-03
695	7.726032974711639e-03	7.762471166286920e-03
787	7.580640687328888e-03	7.585775750291836e-03
1010	7.115140785114993e-03	7.244359600749898e-03
1018	6.982690079199827e-03	7.079457843841380e-03
1023	6.826840627757069e-03	6.918309709189363e-03
1229	6.326462199099270e-03	6.456542290346556e-03
1742	6.249270899312598e-03	6.309573444801930e-03
1747	5.774214936616007e-03	5.888436553555890e-03
1770	5.530897106932220e-03	5.623413251903491e-03
1778	5.480111877340987e-03	5.495408738576248e-03
1803	5.136117438504617e-03	5.248074602497728e-03
1806	5.084021509183745e-03	5.128613839913648e-03
1811	4.977861859648214e-03	5.011872336272725e-03
1814	4.808705756078835e-03	4.897788193684461e-03
1818	4.709931665912381e-03	4.786300923226385e-03
1826	4.677079567971143e-03	4.677351412871981e-03
1862	4.564721962236784e-03	4.570881896148752e-03
1922	4.464945361889239e-03	4.466835921509630e-03
1925	4.362392148457794e-03	4.365158322401661e-03
1971	4.247922531250725e-03	4.265795188015926e-03
2073	4.157646784255897e-03	4.168693834703355e-03
2283	4.073788302366599e-03	4.073802778041126e-03
3095	4.027060336331045e-03	4.073802778041126e-03
%
% index = 153, name = bbob_f002_i09_d02__bbob_f002_i10_d02
% instance = 4, reference value = 8.830876162066350e-01
% function evaluation | indicator value | target hit
1	1.057739792613635e+00	1.071519305237606e+00
16	3.034130663217746e-01	3.090295432513591e-01
78	1.530834684304042e-01	1.548816618912481e-01
80	1.509533696092780e-01	1.513561248436208e-01
83	1.327645479870281e-01	1.348962882591654e-01
98	1.282247168458572e-01	1.288249551693134e-01
106	9.847024443663521e-02	1.000000000000000e-01
111	9.565870413214195e-02	9.772372209558107e-02
115	5.513235275548345e-02	5.623413251903491e-02
118	5.453370205170072e-02	5.495408738576246e-02
138	3.907617051575907e-02	3.981071705534973e-02
142	3.859400317368689e-02	3.890451449942807e-02
163	3.597656623775181e-02	3.630780547701014e-02
171	2.947324494834946e-02	2.951209226666385e-02
186	2.638158039216965e-02	2.691534803926915e-02
187	2.399876402690604e-02	2.454708915685030e-02
191	2.329027146387863e-02	2.344228815319923e-02
226	2.058803302655976e-02	2.089296130854040e-02
227	1.847520801553326e-02	1.862087136662868e-02
230	1.818993692952597e-02	1.819700858609984e-02
231	1.731864447866793e-02	1.737800828749375e-02
239	1.696731745972213e-02	1.698243652461744e-02
246	1.589639096749562e-02	1.621810097358930e-02
247	1.551468954279234e-02	1.584893192461113e-02
250	1.518456340532293e-02	1.548816618912481e-02
251	1.458255775823147e-02	1.479108388168207e-02
259	1.433393579651088e-02	1.445439770745927e-02
267	1.395843991279255e-02	1.412537544622754e-02
279	1.372519775947900e-02	1.380384264602885e-02
283	1.342656139377230e-02	1.348962882591653e-02
295	1.250584205156635e-02	1.258925411794167e-02
307	1.228876715703675e-02	1.230268770812382e-02
335	1.201162610535189e-02	1.202264434617413e-02
350	1.173951843842147e-02	1.174897554939530e-02
366	1.143421618001217e-02	1.148153621496883e-02
372	1.085016757566104e-02	1.096478196143185e-02
398	1.071295308925946e-02	1.071519305237606e-02
434	1.047052523431458e-02	1.047128548050900e-02
471	1.019168323475472e-02	1.023292992280754e-02
539	9.971655016676850e-03	1.000000000000000e-02
646	9.766874750912757e-03	9.772372209558112e-03
767	9.514178753449287e-03	9.549925860214359e-03
1070	8.943976268971254e-03	9.120108393559097e-03
1094	8.315808859919005e-03	8.317637711026709e-03
1114	8.065227456243385e-03	8.128305161640995e-03
1135	7.847486633584033e-03	7.943282347242814e-03
1166	7.425804649428325e-03	7.585775750291836e-03
1170	7.408658870001861e-03	7.413102413009177e-03
1219	7.083103723976913e-03	7.244359600749898e-03
1222	6.781968612786460e-03	6.918309709189363e-03
1231	6.740534905954831e-03	6.760829753919818e-03
1263	6.606746504438599e-03	6.606934480075957e-03
1314	6.408254993719664e-03	6.456542290346556e-03
1318	6.298184830571651e-03	6.309573444801930e-03
1327	6.142552066841556e-03	6.165950018614822e-03
1603	6.024577163462608e-03	6.025595860743574e-03
2104	5.882018372355136e-03	5.888436553555890e-03
2484	5.634112429059090e-03	5.754399373371567e-03
2717	5.613337576450217e-03	5.623413251903491e-03
3091	5.613278289658408e-03	5.623413251903491e-03
%
% index = 154, name = bbob_f002_i11_d02__bbob_f002_i12_d02
% instance = 5, reference value = 8.493442979994670e-01
% function evaluation | indicator value | target hit
1	7.694606345821941e+03	7.762471166286919e+03
25	7.432425132794950e+00	7.585775750291837e+00
83	1.504126279433467e+00	1.513561248436208e+00
134	1.350265670100967e+00	1.380384264602885e+00
162	8.376766255968831e-01	8.511380382023764e-01
191	7.667066469908613e-01	7.762471166286917e-01
194	6.342757006990529e-01	6.456542290346555e-01
214	5.649568063932138e-01	5.754399373371569e-01
215	5.334012035300730e-01	5.370317963702527e-01
239	5.247337311742277e-01	5.248074602497725e-01
323	5.081245182737819e-01	5.128613839913648e-01
386	4.810359777788105e-01	4.897788193684462e-01
399	4.751527482930064e-01	4.786300923226383e-01
450	4.558938882417717e-01	4.570881896148750e-01
451	4.051043048665829e-01	4.073802778041127e-01
534	3.968143250051106e-01	3.981071705534972e-01
550	3.879021461849103e-01	3.890451449942806e-01
571	3.487247322602899e-01	3.548133892335755e-01
591	3.424701493720410e-01	3.467368504525316e-01
611	3.370550396484309e-01	3.388441561392025e-01
883	3.305992474660777e-01	3.311311214825911e-01
995	3.235027950950147e-01	3.235936569296283e-01
1035	3.060367468326750e-01	3.090295432513591e-01
1062	2.963268053531871e-01	3.019951720402016e-01
1078	2.904774867911338e-01	2.951209226666385e-01
1090	2.691650675781718e-01	2.754228703338166e-01
1099	2.689669688647767e-01	2.691534803926916e-01
3091	2.646780498077178e-01	2.691534803926916e-01
%
% index = 155, name = bbob_f002_i13_d02__bbob_f002_i14_d02
% instance = 6, reference value = 8.269280909082440e-01
% function evaluation | indicator value | target hit
1	2.559092242385160e-01	2.570395782768864e-01
14	2.316491208628927e-01	2.344228815319922e-01
16	1.575408498318868e-01	1.584893192461113e-01
42	1.394611189547327e-01	1.412537544622754e-01
46	1.350424574913701e-01	1.380384264602885e-01
54	1.176424823101233e-01	1.202264434617413e-01
66	1.095243365935423e-01	1.096478196143185e-01
71	9.965299163625330e-02	1.000000000000000e-01
75	9.706139338531350e-02	9.772372209558107e-02
90	5.595666338962579e-02	5.623413251903491e-02
98	4.950569570346952e-02	5.011872336272722e-02
100	4.865430847526475e-02	4.897788193684462e-02
150	4.778920457915636e-02	4.786300923226382e-02
174	4.319964760423067e-02	4.365158322401658e-02
191	3.727765131772809e-02	3.801893963205612e-02
199	3.677114451928987e-02	3.715352290971726e-02
208	3.537571463885980e-02	3.548133892335755e-02
227	3.445563724676670e-02	3.467368504525317e-02
232	3.359776342849552e-02	3.388441561392026e-02
255	3.294362566852405e-02	3.311311214825911e-02
263	3.230820449926242e-02	3.235936569296283e-02
271	3.160353050130527e-02	3.162277660168379e-02
286	2.993831145368797e-02	3.019951720402016e-02
294	2.420130964048650e-02	2.454708915685030e-02
303	2.360741925920817e-02	2.398832919019490e-02
305	2.292908531660631e-02	2.344228815319923e-02
306	2.272301125075660e-02	2.290867652767773e-02
315	2.164160708317431e-02	2.187761623949553e-02
318	2.092576382707823e-02	2.137962089502233e-02
319	2.085975224690395e-02	2.089296130854040e-02
346	2.021202077525708e-02	2.041737944669529e-02
375	1.989510715625242e-02	1.995262314968880e-02
394	1.942626466419672e-02	1.949844599758046e-02
401	1.609482892037561e-02	1.621810097358930e-02
404	1.387936863813966e-02	1.412537544622754e-02
419	1.316090421890237e-02	1.318256738556407e-02
443	1.276573219450117e-02	1.288249551693134e-02
471	1.258776388310179e-02	1.258925411794167e-02
535	1.225499992658075e-02	1.230268770812382e-02
608	1.196062785988450e-02	1.202264434617413e-02
656	1.076243129672783e-02	1.096478196143185e-02
677	1.063057391550937e-02	1.071519305237606e-02
684	9.503891252083174e-03	9.549925860214359e-03
1000	6.784216139497312e-03	6.918309709189363e-03
1064	6.750801756673197e-03	6.760829753919818e-03
1093	6.495201564909459e-03	6.606934480075957e-03
1404	5.894146857990168e-03	6.025595860743574e-03
1405	5.876684031876911e-03	5.888436553555890e-03
1494	5.601417406648435e-03	5.623413251903491e-03
1616	5.484280980023182e-03	5.495408738576248e-03
1809	5.342262087748351e-03	5.370317963702527e-03
1916	5.218572779666530e-03	5.248074602497728e-03
1959	4.884770516512593e-03	4.897788193684461e-03
2066	4.780989166312866e-03	4.786300923226385e-03
2118	4.656851303380227e-03	4.677351412871981e-03
2163	4.568949378758402e-03	4.570881896148752e-03
2187	4.196428174031097e-03	4.265795188015926e-03
2194	4.166263781284929e-03	4.168693834703355e-03
2207	4.061649722424066e-03	4.073802778041126e-03
2223	3.949381999172163e-03	3.981071705534973e-03
2246	3.889239919630083e-03	3.890451449942805e-03
2258	3.774966156010695e-03	3.801893963205613e-03
2270	3.696387463734796e-03	3.715352290971724e-03
2284	3.441341464652914e-03	3.467368504525317e-03
2289	3.341192690756167e-03	3.388441561392024e-03
2319	3.299152745932510e-03	3.311311214825911e-03
2428	2.805356371596845e-03	2.818382931264455e-03
2526	2.751500512531369e-03	2.754228703338166e-03
2627	2.688060978059181e-03	2.691534803926917e-03
2638	2.533028257486136e-03	2.570395782768865e-03
2662	2.509730440136582e-03	2.511886431509579e-03
2663	2.426528848738285e-03	2.454708915685031e-03
2678	2.249052266584783e-03	2.290867652767772e-03
2679	2.214627064895835e-03	2.238721138568340e-03
2714	2.186153709987870e-03	2.187761623949552e-03
2746	2.129294836370699e-03	2.137962089502233e-03
2774	2.086534367566339e-03	2.089296130854039e-03
2782	2.038524714696011e-03	2.041737944669530e-03
2815	1.987287574880314e-03	1.995262314968879e-03
2879	1.942853891448881e-03	1.949844599758046e-03
3127	1.906488479980206e-03	1.949844599758046e-03
%
% index = 156, name = bbob_f002_i15_d02__bbob_f002_i16_d02
% instance = 7, reference value = 8.271245246928750e-01
% function evaluation | indicator value | target hit
1	1.084516443097875e+00	1.096478196143185e+00
22	3.800577565889572e-01	3.801893963205612e-01
46	3.641485176848945e-01	3.715352290971726e-01
58	2.255116388109785e-01	2.290867652767773e-01
70	2.139897800031432e-01	2.187761623949552e-01
86	2.132352650803881e-01	2.137962089502232e-01
127	1.762954252563363e-01	1.778279410038923e-01
146	1.737478655245406e-01	1.737800828749375e-01
150	1.616628100042932e-01	1.621810097358930e-01
167	1.459637294821148e-01	1.479108388168208e-01
182	1.436684994551125e-01	1.445439770745928e-01
183	1.314856628754936e-01	1.318256738556407e-01
315	1.266152953685170e-01	1.288249551693134e-01
334	1.258495772363672e-01	1.258925411794167e-01
660	4.579149942068672e-02	4.677351412871981e-02
741	4.530133958975846e-02	4.570881896148749e-02
872	4.282533452129966e-02	4.365158322401658e-02
1060	4.124564402030517e-02	4.168693834703355e-02
1167	2.288565007113541e-02	2.290867652767773e-02
1252	2.180970055156761e-02	2.187761623949553e-02
1693	2.121757391001811e-02	2.137962089502233e-02
1850	2.037686431270225e-02	2.041737944669529e-02
2009	1.988820815580061e-02	1.995262314968880e-02
2508	1.945508194525580e-02	1.949844599758046e-02
3139	1.937726277122553e-02	1.949844599758046e-02
%
% index = 157, name = bbob_f002_i17_d02__bbob_f002_i18_d02
% instance = 8, reference value = 8.167854902805231e-01
% function evaluation | indicator value | target hit
1	7.771427572925976e-01	7.943282347242815e-01
46	5.118937476134280e-01	5.128613839913648e-01
71	4.346327494480729e-01	4.365158322401660e-01
79	2.709225680816945e-01	2.754228703338166e-01
115	2.195170226441865e-01	2.238721138568339e-01
123	1.211547915833839e-01	1.230268770812381e-01
143	1.200461569960932e-01	1.202264434617413e-01
147	1.165959799801294e-01	1.174897554939529e-01
158	7.841348360847589e-02	7.943282347242814e-02
190	7.750724585156343e-02	7.762471166286916e-02
195	6.460825464618125e-02	6.606934480075961e-02
198	6.428481973574229e-02	6.456542290346556e-02
202	4.144877656093438e-02	4.168693834703355e-02
203	3.579280365434490e-02	3.630780547701014e-02
206	3.529015716460904e-02	3.548133892335755e-02
207	3.156593585496514e-02	3.162277660168379e-02
235	3.089353493320690e-02	3.090295432513590e-02
278	2.757999588468019e-02	2.818382931264454e-02
279	2.742931586734310e-02	2.754228703338166e-02
282	2.511717668654800e-02	2.511886431509579e-02
291	2.229766401116651e-02	2.238721138568340e-02
294	2.125455209545679e-02	2.137962089502233e-02
298	2.021789744957736e-02	2.041737944669529e-02
302	1.947819197818301e-02	1.949844599758046e-02
310	1.523908390485929e-02	1.548816618912481e-02
315	1.508038478948437e-02	1.513561248436208e-02
338	1.432240956250019e-02	1.445439770745927e-02
339	1.404943463007124e-02	1.412537544622754e-02
347	1.362392135583068e-02	1.380384264602885e-02
350	1.341291862009830e-02	1.348962882591653e-02
355	1.285752053400890e-02	1.288249551693134e-02
363	1.247864428677459e-02	1.258925411794167e-02
374	1.132672107328370e-02	1.148153621496883e-02
379	1.109067380721396e-02	1.122018454301964e-02
382	1.069646893311971e-02	1.071519305237606e-02
391	1.014095871111353e-02	1.023292992280754e-02
394	9.788317847795214e-03	1.000000000000000e-02
395	9.770381352795177e-03	9.772372209558112e-03
507	9.526493160327387e-03	9.549925860214359e-03
850	9.178990803119458e-03	9.332543007969915e-03
1379	9.056857028655552e-03	9.120108393559097e-03
1716	8.893794016150536e-03	8.912509381337459e-03
1760	8.506344736058491e-03	8.511380382023767e-03
1979	8.314503345461799e-03	8.317637711026709e-03
2007	8.113420187923381e-03	8.128305161640995e-03
2102	7.674147411915300e-03	7.762471166286920e-03
2167	7.553594957827037e-03	7.585775750291836e-03
2214	7.347940980288792e-03	7.413102413009177e-03
2231	7.185335375698543e-03	7.244359600749898e-03
2255	7.075666263339553e-03	7.079457843841380e-03
2307	6.911382132126276e-03	6.918309709189363e-03
2323	6.749685120263416e-03	6.760829753919818e-03
2387	6.545216121278674e-03	6.606934480075957e-03
2462	6.181358837674567e-03	6.309573444801930e-03
2465	6.152709831250158e-03	6.165950018614822e-03
2474	6.011240961571462e-03	6.025595860743574e-03
2756	5.800249576766170e-03	5.888436553555890e-03
3015	5.722297370677754e-03	5.754399373371567e-03
3058	5.374242955668018e-03	5.495408738576248e-03
3059	5.354648875237955e-03	5.370317963702527e-03
3062	4.854024307853977e-03	4.897788193684461e-03
3078	4.751228701991406e-03	4.786300923226385e-03
3083	4.658981117467986e-03	4.677351412871981e-03
3111	4.568039231121146e-03	4.570881896148752e-03
3135	4.475422270339924e-03	4.570881896148752e-03
%
% index = 158, name = bbob_f002_i19_d02__bbob_f002_i21_d02
% instance = 9, reference value = 8.327615457309160e-01
% function evaluation | indicator value | target hit
1	2.539118473584980e-01	2.570395782768864e-01
45	1.738497799706638e-01	1.778279410038923e-01
79	1.463439624693066e-01	1.479108388168208e-01
86	1.196212748915718e-01	1.202264434617413e-01
93	1.133397924234382e-01	1.148153621496883e-01
97	6.946246678823265e-02	7.079457843841380e-02
99	6.706410334141943e-02	6.760829753919818e-02
103	5.723495061747841e-02	5.754399373371569e-02
139	4.430390077123392e-02	4.466835921509630e-02
143	4.083161651965672e-02	4.168693834703355e-02
155	3.962764736052093e-02	3.981071705534973e-02
167	3.858912064711228e-02	3.890451449942807e-02
202	3.764204996226017e-02	3.801893963205612e-02
218	3.678798991994492e-02	3.715352290971726e-02
230	3.613097231735496e-02	3.630780547701014e-02
231	3.447910710000923e-02	3.467368504525317e-02
247	3.182924226134676e-02	3.235936569296283e-02
250	2.959777326519475e-02	3.019951720402016e-02
251	2.934560594950619e-02	2.951209226666385e-02
254	2.599881892065359e-02	2.630267991895381e-02
271	2.202587539855638e-02	2.238721138568340e-02
275	2.167180305049077e-02	2.187761623949553e-02
279	2.137605412702837e-02	2.137962089502233e-02
283	2.074278902040183e-02	2.089296130854040e-02
286	2.021796335029946e-02	2.041737944669529e-02
287	1.978585522543197e-02	1.995262314968880e-02
294	1.934105879487114e-02	1.949844599758046e-02
295	1.711220784980261e-02	1.737800828749375e-02
311	1.697852103534403e-02	1.698243652461744e-02
322	1.608211638520263e-02	1.621810097358930e-02
327	1.470251860313121e-02	1.479108388168207e-02
335	1.425522796570677e-02	1.445439770745927e-02
339	1.264388967460772e-02	1.288249551693134e-02
350	1.245649049274455e-02	1.258925411794167e-02
355	1.227313394457374e-02	1.230268770812382e-02
370	1.200643686406022e-02	1.202264434617413e-02
375	1.125792756441002e-02	1.148153621496883e-02
383	1.069518611413989e-02	1.071519305237606e-02
386	1.004187234270304e-02	1.023292992280754e-02
391	8.789823138550479e-03	8.912509381337459e-03
399	8.648677604687460e-03	8.709635899560805e-03
423	8.508074491247908e-03	8.511380382023767e-03
463	8.284942590386590e-03	8.317637711026709e-03
479	8.127587803183123e-03	8.128305161640995e-03
487	7.463694191694792e-03	7.585775750291836e-03
510	7.279880868744759e-03	7.413102413009177e-03
526	7.242820566544239e-03	7.244359600749898e-03
539	7.040957568403949e-03	7.079457843841380e-03
611	6.901348607796343e-03	6.918309709189363e-03
703	6.724076674736179e-03	6.760829753919818e-03
726	6.570689385283490e-03	6.606934480075957e-03
734	5.562690834691630e-03	5.623413251903491e-03
743	5.489264413540806e-03	5.495408738576248e-03
762	5.190241194094947e-03	5.248074602497728e-03
774	5.041864987983313e-03	5.128613839913648e-03
775	4.927064432011297e-03	5.011872336272725e-03
778	4.828109211334253e-03	4.897788193684461e-03
783	4.654779704983736e-03	4.677351412871981e-03
806	4.552508129914146e-03	4.570881896148752e-03
1127	4.460473530919273e-03	4.466835921509630e-03
1318	4.355024218123615e-03	4.365158322401661e-03
1355	4.257149487615686e-03	4.265795188015926e-03
1363	4.167780092525497e-03	4.168693834703355e-03
1386	4.069790360927361e-03	4.073802778041126e-03
1487	3.980552543701110e-03	3.981071705534973e-03
1499	3.599150447516686e-03	3.630780547701014e-03
1566	3.548115471478264e-03	3.548133892335753e-03
2085	3.332911390238946e-03	3.388441561392024e-03
2409	3.264628460628693e-03	3.311311214825911e-03
2470	3.230184237299927e-03	3.235936569296281e-03
2498	3.038404802894856e-03	3.090295432513592e-03
2608	3.013118750771593e-03	3.019951720402016e-03
3107	2.961136751229665e-03	3.019951720402016e-03
%
% index = 159, name = bbob_f002_i21_d02__bbob_f002_i22_d02
% instance = 10, reference value = 8.268721580388150e-01
% function evaluation | indicator value | target hit
1	9.344614348788149e-01	9.549925860214360e-01
47	7.334411064852098e-01	7.413102413009175e-01
67	4.158077602538964e-01	4.168693834703354e-01
94	1.366900397180419e-01	1.380384264602885e-01
98	1.182740941049706e-01	1.202264434617413e-01
165	1.093010728066958e-01	1.096478196143185e-01
239	1.065531749746917e-01	1.071519305237607e-01
293	1.006419358122781e-01	1.023292992280754e-01
348	9.813044229818713e-02	1.000000000000000e-01
382	9.364643438038334e-02	9.549925860214359e-02
395	9.270210653965449e-02	9.332543007969910e-02
431	5.622962787033903e-02	5.623413251903491e-02
439	3.951251507705722e-02	3.981071705534973e-02
442	3.642780485809927e-02	3.715352290971726e-02
443	3.567357276726801e-02	3.630780547701014e-02
459	3.507082364744363e-02	3.548133892335755e-02
462	3.286370904679414e-02	3.311311214825911e-02
499	3.170107549727597e-02	3.235936569296283e-02
507	3.149074895699133e-02	3.162277660168379e-02
518	3.044761650922412e-02	3.090295432513590e-02
526	2.898110879454174e-02	2.951209226666385e-02
539	2.784960684437643e-02	2.818382931264454e-02
546	2.726065730983407e-02	2.754228703338166e-02
547	2.594889097300990e-02	2.630267991895381e-02
550	2.469694636829345e-02	2.511886431509579e-02
562	1.893821636872750e-02	1.905460717963247e-02
566	1.787521121636704e-02	1.819700858609984e-02
574	1.752522995932337e-02	1.778279410038923e-02
578	1.629869907313175e-02	1.659586907437561e-02
582	1.446958368394247e-02	1.479108388168207e-02
586	1.398401315781128e-02	1.412537544622754e-02
598	1.358763975590749e-02	1.380384264602885e-02
607	1.291353204108281e-02	1.318256738556407e-02
611	1.282443246534104e-02	1.288249551693134e-02
623	1.255845624027840e-02	1.258925411794167e-02
634	1.209178027485669e-02	1.230268770812382e-02
642	1.194821412627012e-02	1.202264434617413e-02
651	1.131036333359614e-02	1.148153621496883e-02
659	1.119443642417906e-02	1.122018454301964e-02
714	1.090733274815092e-02	1.096478196143185e-02
731	1.038408036817895e-02	1.047128548050900e-02
764	1.012132295990875e-02	1.023292992280754e-02
1261	9.552602879498773e-03	9.772372209558112e-03
1268	9.489800219418365e-03	9.549925860214359e-03
1758	9.324783159343930e-03	9.332543007969915e-03
2003	9.069249069568297e-03	9.120108393559097e-03
2018	8.907653907537227e-03	8.912509381337459e-03
2115	8.604686163447561e-03	8.709635899560805e-03
2158	8.410820286268272e-03	8.511380382023767e-03
2186	8.267601029780414e-03	8.317637711026709e-03
3079	8.135334888713097e-03	8.317637711026709e-03
%
% index = 160, name = bbob_f002_i23_d02__bbob_f002_i24_d02
% instance = 11, reference value = 1.000000000000000e+00
% function evaluation | indicator value | target hit
1	6.953737643136267e-01	7.079457843841379e-01
54	4.721937740018178e-01	4.786300923226383e-01
62	3.491187445601855e-01	3.548133892335755e-01
64	3.457773859002283e-01	3.467368504525316e-01
86	2.769693845028176e-01	2.818382931264454e-01
94	2.710052897378784e-01	2.754228703338166e-01
98	2.651500200935716e-01	2.691534803926916e-01
106	2.550322061350407e-01	2.570395782768864e-01
122	2.486308602071968e-01	2.511886431509580e-01
123	2.431747640617195e-01	2.454708915685030e-01
158	2.340733877672500e-01	2.344228815319922e-01
235	2.219122907107816e-01	2.238721138568339e-01
306	2.182228381831901e-01	2.187761623949552e-01
366	2.098532250591219e-01	2.137962089502232e-01
545	2.068643999921477e-01	2.089296130854039e-01
1952	2.041211643829501e-01	2.041737944669530e-01
3095	2.026833651628873e-01	2.041737944669530e-01
%
% index = 161, name = bbob_f002_i25_d02__bbob_f002_i26_d02
% instance = 12, reference value = 1.000000000000000e+00
% function evaluation | indicator value | target hit
1	7.065665615707606e-01	7.079457843841379e-01
82	6.849966942996775e-01	6.918309709189365e-01
90	6.130102372523563e-01	6.165950018614822e-01
127	3.466937804570480e-01	3.467368504525316e-01
167	2.692023764085514e-01	2.754228703338166e-01
178	2.657321981266483e-01	2.691534803926916e-01
182	2.479630768760983e-01	2.511886431509580e-01
186	2.419615965696408e-01	2.454708915685030e-01
194	2.398637424169547e-01	2.398832919019490e-01
226	2.340465318697301e-01	2.344228815319922e-01
372	2.210918510128206e-01	2.238721138568339e-01
1016	2.180612260999676e-01	2.187761623949552e-01
1241	2.105751864840595e-01	2.137962089502232e-01
1381	2.080337797573740e-01	2.089296130854039e-01
3087	2.070004740587403e-01	2.089296130854039e-01
%
% index = 162, name = bbob_f002_i27_d02__bbob_f002_i28_d02
% instance = 13, reference value = 1.000000000000000e+00
% function evaluation | indicator value | target hit
1	4.414238654023822e-01	4.466835921509631e-01
5	4.093262966886503e-01	4.168693834703354e-01
14	3.977251297417295e-01	3.981071705534972e-01
33	3.560908990774638e-01	3.630780547701014e-01
35	3.401120821851200e-01	3.467368504525316e-01
47	2.659262401893536e-01	2.691534803926916e-01
70	2.593685108084262e-01	2.630267991895382e-01
71	2.492707537990537e-01	2.511886431509580e-01
98	2.398371689236103e-01	2.398832919019490e-01
115	2.209589767032203e-01	2.238721138568339e-01
142	2.159157421765735e-01	2.187761623949552e-01
274	2.096498181225865e-01	2.137962089502232e-01
405	2.056505158394889e-01	2.089296130854039e-01
448	2.028319230926954e-01	2.041737944669530e-01
508	1.971488674067761e-01	1.995262314968880e-01
612	1.845707758990739e-01	1.862087136662867e-01
769	1.811992739879174e-01	1.819700858609984e-01
1301	1.778278559068511e-01	1.778279410038923e-01
1574	1.727313221764248e-01	1.737800828749375e-01
3087	1.713365991601374e-01	1.737800828749375e-01
%
% index = 163, name = bbob_f002_i29_d02__bbob_f002_i30_d02
% instance = 14, reference value = 1.000000000000000e+00
% function evaluation | indicator value | target hit
1	5.105376151899581e-01	5.128613839913648e-01
17	4.882388230026857e-01	4.897788193684462e-01
49	3.402464837347389e-01	3.467368504525316e-01
59	3.374091750201007e-01	3.388441561392025e-01
78	3.104554060289834e-01	3.162277660168379e-01
89	2.883384276185514e-01	2.884031503126606e-01
131	2.770302432506756e-01	2.818382931264454e-01
154	2.722919643003132e-01	2.754228703338166e-01
174	2.688514795560921e-01	2.691534803926916e-01
190	2.438919679263597e-01	2.454708915685030e-01
191	2.350444445365776e-01	2.398832919019490e-01
199	2.335063790070245e-01	2.344228815319922e-01
239	2.200099394003865e-01	2.238721138568339e-01
247	2.178050300439660e-01	2.187761623949552e-01
262	1.980615734516729e-01	1.995262314968880e-01
286	1.932497990410553e-01	1.949844599758045e-01
391	1.895748974875218e-01	1.905460717963247e-01
419	1.859655722661183e-01	1.862087136662867e-01
499	1.815688215139341e-01	1.819700858609984e-01
1087	1.778256942779937e-01	1.778279410038923e-01
3075	1.761416683292367e-01	1.778279410038923e-01
%
% index = 164, name = bbob_f002_i31_d02__bbob_f002_i34_d02
% instance = 15, reference value = 1.000000000000000e+00
% function evaluation | indicator value | target hit
1	4.440843978914889e-01	4.466835921509631e-01
9	4.052987500209125e-01	4.073802778041127e-01
48	3.253612286899923e-01	3.311311214825911e-01
53	2.691474077834579e-01	2.691534803926916e-01
84	2.538874855438604e-01	2.570395782768864e-01
107	2.432682655196066e-01	2.454708915685030e-01
131	2.201102014169438e-01	2.238721138568339e-01
134	2.154805908148096e-01	2.187761623949552e-01
146	2.132166579269003e-01	2.137962089502232e-01
155	2.086373897992047e-01	2.089296130854039e-01
182	1.964184887979328e-01	1.995262314968880e-01
195	1.946296087356983e-01	1.949844599758045e-01
286	1.905454939748620e-01	1.905460717963247e-01
327	1.843947501931776e-01	1.862087136662867e-01
355	1.785350202089683e-01	1.819700858609984e-01
359	1.775232874398928e-01	1.778279410038923e-01
422	1.737209305114187e-01	1.737800828749375e-01
1019	1.698059157690346e-01	1.698243652461744e-01
3099	1.680596323137915e-01	1.698243652461744e-01
