%
% index = 1890, name = bbob_f002_i02_d05__bbob_f017_i04_d05
% instance = 1, reference value = 9.803831624411160e-01
% function evaluation | indicator value | target hit
1	9.863444400236160e-01	1.000000000000000e+00
3131	9.863444400236160e-01	1.000000000000000e+00
%
% index = 1891, name = bbob_f002_i03_d05__bbob_f017_i05_d05
% instance = 2, reference value = 9.717368478837540e-01
% function evaluation | indicator value | target hit
1	6.277995644991372e+03	6.309573444801930e+03
974	6.163476528676893e+03	6.165950018614823e+03
1158	5.677244064762395e+03	5.754399373371566e+03
1254	3.329738554912222e+03	3.388441561392024e+03
1255	3.190940665131445e+03	3.235936569296281e+03
1326	3.150382173165411e+03	3.162277660168379e+03
1582	1.336431912841897e+03	1.348962882591653e+03
1919	4.305248434204372e+02	4.365158322401661e+02
3075	4.305248434204372e+02	4.365158322401661e+02
%
% index = 1892, name = bbob_f002_i07_d05__bbob_f017_i08_d05
% instance = 3, reference value = 9.679082371201450e-01
% function evaluation | indicator value | target hit
1	2.849476484872708e+00	2.884031503126606e+00
3127	2.849476484872708e+00	2.884031503126606e+00
%
% index = 1893, name = bbob_f002_i09_d05__bbob_f017_i10_d05
% instance = 4, reference value = 9.956949838959640e-01
% function evaluation | indicator value | target hit
1	4.611924483474250e-01	4.677351412871982e-01
1615	3.348334243385793e-01	3.388441561392025e-01
1723	2.912460866177091e-01	2.951209226666385e-01
1966	2.584629860543364e-01	2.630267991895382e-01
3127	2.583855497722235e-01	2.630267991895382e-01
%
% index = 1894, name = bbob_f002_i11_d05__bbob_f017_i12_d05
% instance = 5, reference value = 9.896997737581200e-01
% function evaluation | indicator value | target hit
1	3.075802496306410e+00	3.090295432513591e+00
3087	3.075802496306410e+00	3.090295432513591e+00
%
% index = 1895, name = bbob_f002_i13_d05__bbob_f017_i14_d05
% instance = 6, reference value = 9.951147387482140e-01
% function evaluation | indicator value | target hit
1	9.989836533402139e-01	1.000000000000000e+00
3107	9.989836533402139e-01	1.000000000000000e+00
%
% index = 1896, name = bbob_f002_i15_d05__bbob_f017_i16_d05
% instance = 7, reference value = 9.973369558370730e-01
% function evaluation | indicator value | target hit
1	3.486503359411827e-01	3.548133892335755e-01
3119	3.486503359411827e-01	3.548133892335755e-01
%
% index = 1897, name = bbob_f002_i17_d05__bbob_f017_i18_d05
% instance = 8, reference value = 9.353113682266910e-01
% function evaluation | indicator value | target hit
1	1.248717796669691e+00	1.258925411794167e+00
3111	1.248717796669691e+00	1.258925411794167e+00
%
% index = 1898, name = bbob_f002_i19_d05__bbob_f017_i21_d05
% instance = 9, reference value = 9.534462901446020e-01
% function evaluation | indicator value | target hit
1	5.640685460596069e-01	5.754399373371569e-01
3107	5.640685460596069e-01	5.754399373371569e-01
%
% index = 1899, name = bbob_f002_i21_d05__bbob_f017_i22_d05
% instance = 10, reference value = 9.828597866892980e-01
% function evaluation | indicator value | target hit
1	9.777960237194824e-01	1.000000000000000e+00
3075	9.777960237194824e-01	1.000000000000000e+00
%
% index = 1900, name = bbob_f002_i23_d05__bbob_f017_i24_d05
% instance = 11, reference value = 1.000000000000000e+00
% function evaluation | indicator value | target hit
1	1.044659181624967e+01	1.047128548050900e+01
3087	1.044659181624967e+01	1.047128548050900e+01
%
% index = 1901, name = bbob_f002_i25_d05__bbob_f017_i26_d05
% instance = 12, reference value = 1.000000000000000e+00
% function evaluation | indicator value | target hit
1	6.535458175712506e-01	6.606934480075960e-01
3127	6.535458175712506e-01	6.606934480075960e-01
%
% index = 1902, name = bbob_f002_i27_d05__bbob_f017_i28_d05
% instance = 13, reference value = 1.000000000000000e+00
% function evaluation | indicator value | target hit
1	7.531265794382300e-01	7.585775750291838e-01
3139	7.531265794382300e-01	7.585775750291838e-01
%
% index = 1903, name = bbob_f002_i29_d05__bbob_f017_i30_d05
% instance = 14, reference value = 1.000000000000000e+00
% function evaluation | indicator value | target hit
1	5.803078542128500e+00	5.888436553555890e+00
3107	5.803078542128500e+00	5.888436553555890e+00
%
% index = 1904, name = bbob_f002_i31_d05__bbob_f017_i34_d05
% instance = 15, reference value = 1.000000000000000e+00
% function evaluation | indicator value | target hit
1	1.054149108464500e+00	1.071519305237606e+00
3083	1.054149108464500e+00	1.071519305237606e+00
