%
% index = 1875, name = bbob_f002_i02_d05__bbob_f015_i04_d05
% instance = 1, reference value = 9.919307991520530e-01
% function evaluation | indicator value | target hit
1	7.552902288795988e-01	7.585775750291838e-01
3127	7.552902288795988e-01	7.585775750291838e-01
%
% index = 1876, name = bbob_f002_i03_d05__bbob_f015_i05_d05
% instance = 2, reference value = 9.546883606639710e-01
% function evaluation | indicator value | target hit
1	4.674988572499267e-01	4.677351412871982e-01
3139	4.674988572499267e-01	4.677351412871982e-01
%
% index = 1877, name = bbob_f002_i07_d05__bbob_f015_i08_d05
% instance = 3, reference value = 9.900383481999010e-01
% function evaluation | indicator value | target hit
1	5.704944946654855e-01	5.754399373371569e-01
2075	4.257077132611837e-01	4.265795188015927e-01
2939	3.456119184287469e-01	3.467368504525316e-01
3095	3.455882879187778e-01	3.467368504525316e-01
%
% index = 1878, name = bbob_f002_i09_d05__bbob_f015_i10_d05
% instance = 4, reference value = 9.848397145374550e-01
% function evaluation | indicator value | target hit
1	8.206452524377541e-01	8.317637711026710e-01
3103	8.206452524377541e-01	8.317637711026710e-01
%
% index = 1879, name = bbob_f002_i11_d05__bbob_f015_i12_d05
% instance = 5, reference value = 9.952573041891700e-01
% function evaluation | indicator value | target hit
1	2.725918174305670e+00	2.754228703338166e+00
2654	2.083658331213170e+00	2.089296130854040e+00
3099	2.083658331213170e+00	2.089296130854040e+00
%
% index = 1880, name = bbob_f002_i13_d05__bbob_f015_i14_d05
% instance = 6, reference value = 9.664568802720560e-01
% function evaluation | indicator value | target hit
1	1.817285271679056e+00	1.819700858609983e+00
3111	1.817285271679056e+00	1.819700858609983e+00
%
% index = 1881, name = bbob_f002_i15_d05__bbob_f015_i16_d05
% instance = 7, reference value = 9.940675022257350e-01
% function evaluation | indicator value | target hit
1	1.070900980352235e+00	1.071519305237606e+00
3127	1.070900980352235e+00	1.071519305237606e+00
%
% index = 1882, name = bbob_f002_i17_d05__bbob_f015_i18_d05
% instance = 8, reference value = 9.829972620201420e-01
% function evaluation | indicator value | target hit
1	9.398612697714068e-01	9.549925860214360e-01
3079	9.398612697714068e-01	9.549925860214360e-01
%
% index = 1883, name = bbob_f002_i19_d05__bbob_f015_i21_d05
% instance = 9, reference value = 9.756005776223560e-01
% function evaluation | indicator value | target hit
1	3.803266278459481e+00	3.890451449942806e+00
3107	3.803266278459481e+00	3.890451449942806e+00
%
% index = 1884, name = bbob_f002_i21_d05__bbob_f015_i22_d05
% instance = 10, reference value = 9.551409287139790e-01
% function evaluation | indicator value | target hit
1	5.493748761823740e-01	5.495408738576245e-01
3059	5.493748761823740e-01	5.495408738576245e-01
%
% index = 1885, name = bbob_f002_i23_d05__bbob_f015_i24_d05
% instance = 11, reference value = 1.000000000000000e+00
% function evaluation | indicator value | target hit
1	9.265853198353934e-01	9.332543007969910e-01
3091	9.265853198353934e-01	9.332543007969910e-01
%
% index = 1886, name = bbob_f002_i25_d05__bbob_f015_i26_d05
% instance = 12, reference value = 1.000000000000000e+00
% function evaluation | indicator value | target hit
1	4.439380666595500e+00	4.466835921509632e+00
2946	4.336479163309930e+00	4.365158322401660e+00
3107	4.336479163309930e+00	4.365158322401660e+00
%
% index = 1887, name = bbob_f002_i27_d05__bbob_f015_i28_d05
% instance = 13, reference value = 1.000000000000000e+00
% function evaluation | indicator value | target hit
1	5.721014547866402e-01	5.754399373371569e-01
3127	5.721014547866402e-01	5.754399373371569e-01
%
% index = 1888, name = bbob_f002_i29_d05__bbob_f015_i30_d05
% instance = 14, reference value = 1.000000000000000e+00
% function evaluation | indicator value | target hit
1	2.319412821746568e+00	2.344228815319922e+00
775	2.265279199612000e+00	2.290867652767773e+00
3147	2.250463955884000e+00	2.290867652767773e+00
%
% index = 1889, name = bbob_f002_i31_d05__bbob_f015_i34_d05
% instance = 15, reference value = 1.000000000000000e+00
% function evaluation | indicator value | target hit
1	8.748792792401375e-01	8.912509381337456e-01
3067	8.748792792401375e-01	8.912509381337456e-01
