%
% index = 2311, name = bbob_f014_i03_d05__bbob_f021_i05_d05
% instance = 2, reference value = 8.926982904206880e-01
% function evaluation | indicator value | target hit
1	1.024654265630688e+00	1.047128548050900e+00
3127	1.024654265630688e+00	1.047128548050900e+00
%
% index = 2315, name = bbob_f014_i13_d05__bbob_f021_i14_d05
% instance = 6, reference value = 9.086175588894200e-01
% function evaluation | indicator value | target hit
1	5.932062136799006e-01	6.025595860743578e-01
3111	5.932062136799006e-01	6.025595860743578e-01
%
% index = 2319, name = bbob_f014_i21_d05__bbob_f021_i22_d05
% instance = 10, reference value = 8.887387065627160e-01
% function evaluation | indicator value | target hit
1	1.484063983398381e+00	1.513561248436208e+00
1770	1.464936526160749e+00	1.479108388168207e+00
3095	1.464936526160749e+00	1.479108388168207e+00
%
% index = 2323, name = bbob_f014_i29_d05__bbob_f021_i30_d05
% instance = 14, reference value = 1.000000000000000e+00
% function evaluation | indicator value | target hit
1	9.969286525921429e-01	1.000000000000000e+00
3131	9.969286525921429e-01	1.000000000000000e+00
