<?xml version="1.0" encoding="utf-8" standalone="no"?>
<!DOCTYPE svg PUBLIC "-//W3C//DTD SVG 1.1//EN"
  "http://www.w3.org/Graphics/SVG/1.1/DTD/svg11.dtd">
<!-- Created with matplotlib (http://matplotlib.org/) -->
<svg height="345pt" version="1.1" viewBox="0 0 460 345" width="460pt" xmlns="http://www.w3.org/2000/svg" xmlns:xlink="http://www.w3.org/1999/xlink">
 <defs>
  <style type="text/css">
*{stroke-linecap:butt;stroke-linejoin:round;}
  </style>
 </defs>
 <g id="figure_1">
  <g id="patch_1">
   <path d="M 0 345.6 
L 460.8 345.6 
L 460.8 0 
L 0 0 
z
" style="fill:#ffffff;"/>
  </g>
  <g id="axes_1">
   <g id="patch_2">
    <path d="M 56.84 294.16 
L 399.984 294.16 
L 399.984 24.84 
L 56.84 24.84 
z
" style="fill:#ffffff;"/>
   </g>
   <g id="line2d_1">
    <path d="M 56.84 294.16 
L 56.84 289.562526 
L 68.740534 289.562526 
L 68.740534 280.367579 
L 79.147184 280.367579 
L 79.147184 271.172632 
L 103.334085 271.172632 
L 103.334085 266.575159 
L 104.796146 266.575159 
L 104.796146 252.782738 
L 106.779369 252.782738 
L 106.779369 243.587791 
L 109.909618 243.587791 
L 109.909618 238.990318 
L 118.043947 238.990318 
L 118.043947 229.79537 
L 122.195986 229.79537 
L 122.195986 216.00295 
L 126.354617 216.00295 
L 126.354617 206.808003 
L 130.185734 206.808003 
L 130.185734 197.613056 
L 134.72091 197.613056 
L 134.72091 188.418109 
L 141.015441 188.418109 
L 141.015441 183.820635 
L 147.69113 183.820635 
L 147.69113 170.028214 
L 158.352522 170.028214 
L 158.352522 165.430741 
L 166.951661 165.430741 
L 166.951661 151.63832 
L 178.265292 151.63832 
L 178.265292 142.443373 
L 187.344413 142.443373 
L 187.344413 137.8459 
L 194.9771 137.8459 
L 194.9771 124.053479 
L 206.200591 124.053479 
L 206.200591 119.456005 
L 209.686408 119.456005 
L 209.686408 105.663585 
L 214.638028 105.663585 
L 214.638028 96.468638 
L 220.064723 96.468638 
L 220.064723 87.273691 
L 222.621017 87.273691 
L 222.621017 82.676217 
L 225.886834 82.676217 
L 225.886834 73.48127 
L 229.932847 73.48127 
L 229.932847 59.688849 
L 333.569032 59.688849 
" style="fill:none;stroke:#f5deb3;stroke-linecap:square;stroke-width:6;"/>
   </g>
   <g id="line2d_2">
    <defs>
     <path d="M -0 7.778175 
L 7.778175 0 
L 0 -7.778175 
L -7.778175 -0 
z
" id="m09a1bb3e02" style="stroke:#f5deb3;stroke-linejoin:miter;stroke-width:1.5;"/>
    </defs>
    <g>
     <use style="fill:#f5deb3;stroke:#f5deb3;stroke-linejoin:miter;stroke-width:1.5;" x="134.72091" xlink:href="#m09a1bb3e02" y="188.418109"/>
     <use style="fill:#f5deb3;stroke:#f5deb3;stroke-linejoin:miter;stroke-width:1.5;" x="187.344413" xlink:href="#m09a1bb3e02" y="137.8459"/>
     <use style="fill:#f5deb3;stroke:#f5deb3;stroke-linejoin:miter;stroke-width:1.5;" x="229.932847" xlink:href="#m09a1bb3e02" y="73.48127"/>
     <use style="fill:#f5deb3;stroke:#f5deb3;stroke-linejoin:miter;stroke-width:1.5;" x="229.932847" xlink:href="#m09a1bb3e02" y="59.688849"/>
     <use style="fill:#f5deb3;stroke:#f5deb3;stroke-linejoin:miter;stroke-width:1.5;" x="333.569032" xlink:href="#m09a1bb3e02" y="59.688849"/>
    </g>
   </g>
   <g id="line2d_3">
    <path style="fill:none;stroke:#f5deb3;stroke-linecap:square;stroke-width:6;"/>
    <g/>
   </g>
   <g id="line2d_4">
    <path d="M 333.569032 59.688849 
L 364.009226 32.839604 
" style="fill:none;stroke:#f5deb3;stroke-linecap:square;stroke-width:6;"/>
    <g>
     <use style="fill:#f5deb3;stroke:#f5deb3;stroke-linejoin:miter;stroke-width:1.5;" x="333.569032" xlink:href="#m09a1bb3e02" y="59.688849"/>
     <use style="fill:#f5deb3;stroke:#f5deb3;stroke-linejoin:miter;stroke-width:1.5;" x="364.009226" xlink:href="#m09a1bb3e02" y="32.839604"/>
    </g>
   </g>
   <g id="matplotlib.axis_1">
    <g id="xtick_1">
     <g id="line2d_5">
      <path clip-path="url(#p9fc52c41cc)" d="M 56.84 294.16 
L 56.84 24.84 
" style="fill:none;stroke:#b0b0b0;stroke-linecap:square;stroke-width:0.8;"/>
     </g>
     <g id="line2d_6">
      <defs>
       <path d="M 0 0 
L 0 3.5 
" id="mbf9e1166fc" style="stroke:#000000;stroke-width:0.8;"/>
      </defs>
      <g>
       <use style="stroke:#000000;stroke-width:0.8;" x="56.84" xlink:href="#mbf9e1166fc" y="294.16"/>
      </g>
     </g>
     <g id="text_1">
      <!-- 0 -->
      <defs>
       <path d="M 31.78125 66.40625 
Q 24.171875 66.40625 20.328125 58.90625 
Q 16.5 51.421875 16.5 36.375 
Q 16.5 21.390625 20.328125 13.890625 
Q 24.171875 6.390625 31.78125 6.390625 
Q 39.453125 6.390625 43.28125 13.890625 
Q 47.125 21.390625 47.125 36.375 
Q 47.125 51.421875 43.28125 58.90625 
Q 39.453125 66.40625 31.78125 66.40625 
M 31.78125 74.21875 
Q 44.046875 74.21875 50.515625 64.515625 
Q 56.984375 54.828125 56.984375 36.375 
Q 56.984375 17.96875 50.515625 8.265625 
Q 44.046875 -1.421875 31.78125 -1.421875 
Q 19.53125 -1.421875 13.0625 8.265625 
Q 6.59375 17.96875 6.59375 36.375 
Q 6.59375 54.828125 13.0625 64.515625 
Q 19.53125 74.21875 31.78125 74.21875 
" id="DejaVuSans-30"/>
      </defs>
      <g transform="translate(50.4775 316.356875)scale(0.2 -0.2)">
       <use xlink:href="#DejaVuSans-30"/>
      </g>
     </g>
    </g>
    <g id="xtick_2">
     <g id="line2d_7">
      <path clip-path="url(#p9fc52c41cc)" d="M 135.905438 294.16 
L 135.905438 24.84 
" style="fill:none;stroke:#b0b0b0;stroke-linecap:square;stroke-width:0.8;"/>
     </g>
     <g id="line2d_8">
      <g>
       <use style="stroke:#000000;stroke-width:0.8;" x="135.905438" xlink:href="#mbf9e1166fc" y="294.16"/>
      </g>
     </g>
     <g id="text_2">
      <!-- 2 -->
      <defs>
       <path d="M 19.1875 8.296875 
L 53.609375 8.296875 
L 53.609375 0 
L 7.328125 0 
L 7.328125 8.296875 
Q 12.9375 14.109375 22.625 23.890625 
Q 32.328125 33.6875 34.8125 36.53125 
Q 39.546875 41.84375 41.421875 45.53125 
Q 43.3125 49.21875 43.3125 52.78125 
Q 43.3125 58.59375 39.234375 62.25 
Q 35.15625 65.921875 28.609375 65.921875 
Q 23.96875 65.921875 18.8125 64.3125 
Q 13.671875 62.703125 7.8125 59.421875 
L 7.8125 69.390625 
Q 13.765625 71.78125 18.9375 73 
Q 24.125 74.21875 28.421875 74.21875 
Q 39.75 74.21875 46.484375 68.546875 
Q 53.21875 62.890625 53.21875 53.421875 
Q 53.21875 48.921875 51.53125 44.890625 
Q 49.859375 40.875 45.40625 35.40625 
Q 44.1875 33.984375 37.640625 27.21875 
Q 31.109375 20.453125 19.1875 8.296875 
" id="DejaVuSans-32"/>
      </defs>
      <g transform="translate(129.542938 316.356875)scale(0.2 -0.2)">
       <use xlink:href="#DejaVuSans-32"/>
      </g>
     </g>
    </g>
    <g id="xtick_3">
     <g id="line2d_9">
      <path clip-path="url(#p9fc52c41cc)" d="M 214.970876 294.16 
L 214.970876 24.84 
" style="fill:none;stroke:#b0b0b0;stroke-linecap:square;stroke-width:0.8;"/>
     </g>
     <g id="line2d_10">
      <g>
       <use style="stroke:#000000;stroke-width:0.8;" x="214.970876" xlink:href="#mbf9e1166fc" y="294.16"/>
      </g>
     </g>
     <g id="text_3">
      <!-- 4 -->
      <defs>
       <path d="M 37.796875 64.3125 
L 12.890625 25.390625 
L 37.796875 25.390625 
z
M 35.203125 72.90625 
L 47.609375 72.90625 
L 47.609375 25.390625 
L 58.015625 25.390625 
L 58.015625 17.1875 
L 47.609375 17.1875 
L 47.609375 0 
L 37.796875 0 
L 37.796875 17.1875 
L 4.890625 17.1875 
L 4.890625 26.703125 
z
" id="DejaVuSans-34"/>
      </defs>
      <g transform="translate(208.608376 316.356875)scale(0.2 -0.2)">
       <use xlink:href="#DejaVuSans-34"/>
      </g>
     </g>
    </g>
    <g id="xtick_4">
     <g id="line2d_11">
      <path clip-path="url(#p9fc52c41cc)" d="M 294.036313 294.16 
L 294.036313 24.84 
" style="fill:none;stroke:#b0b0b0;stroke-linecap:square;stroke-width:0.8;"/>
     </g>
     <g id="line2d_12">
      <g>
       <use style="stroke:#000000;stroke-width:0.8;" x="294.036313" xlink:href="#mbf9e1166fc" y="294.16"/>
      </g>
     </g>
     <g id="text_4">
      <!-- 6 -->
      <defs>
       <path d="M 33.015625 40.375 
Q 26.375 40.375 22.484375 35.828125 
Q 18.609375 31.296875 18.609375 23.390625 
Q 18.609375 15.53125 22.484375 10.953125 
Q 26.375 6.390625 33.015625 6.390625 
Q 39.65625 6.390625 43.53125 10.953125 
Q 47.40625 15.53125 47.40625 23.390625 
Q 47.40625 31.296875 43.53125 35.828125 
Q 39.65625 40.375 33.015625 40.375 
M 52.59375 71.296875 
L 52.59375 62.3125 
Q 48.875 64.0625 45.09375 64.984375 
Q 41.3125 65.921875 37.59375 65.921875 
Q 27.828125 65.921875 22.671875 59.328125 
Q 17.53125 52.734375 16.796875 39.40625 
Q 19.671875 43.65625 24.015625 45.921875 
Q 28.375 48.1875 33.59375 48.1875 
Q 44.578125 48.1875 50.953125 41.515625 
Q 57.328125 34.859375 57.328125 23.390625 
Q 57.328125 12.15625 50.6875 5.359375 
Q 44.046875 -1.421875 33.015625 -1.421875 
Q 20.359375 -1.421875 13.671875 8.265625 
Q 6.984375 17.96875 6.984375 36.375 
Q 6.984375 53.65625 15.1875 63.9375 
Q 23.390625 74.21875 37.203125 74.21875 
Q 40.921875 74.21875 44.703125 73.484375 
Q 48.484375 72.75 52.59375 71.296875 
" id="DejaVuSans-36"/>
      </defs>
      <g transform="translate(287.673813 316.356875)scale(0.2 -0.2)">
       <use xlink:href="#DejaVuSans-36"/>
      </g>
     </g>
    </g>
    <g id="xtick_5">
     <g id="line2d_13">
      <path clip-path="url(#p9fc52c41cc)" d="M 373.101751 294.16 
L 373.101751 24.84 
" style="fill:none;stroke:#b0b0b0;stroke-linecap:square;stroke-width:0.8;"/>
     </g>
     <g id="line2d_14">
      <g>
       <use style="stroke:#000000;stroke-width:0.8;" x="373.101751" xlink:href="#mbf9e1166fc" y="294.16"/>
      </g>
     </g>
     <g id="text_5">
      <!-- 8 -->
      <defs>
       <path d="M 31.78125 34.625 
Q 24.75 34.625 20.71875 30.859375 
Q 16.703125 27.09375 16.703125 20.515625 
Q 16.703125 13.921875 20.71875 10.15625 
Q 24.75 6.390625 31.78125 6.390625 
Q 38.8125 6.390625 42.859375 10.171875 
Q 46.921875 13.96875 46.921875 20.515625 
Q 46.921875 27.09375 42.890625 30.859375 
Q 38.875 34.625 31.78125 34.625 
M 21.921875 38.8125 
Q 15.578125 40.375 12.03125 44.71875 
Q 8.5 49.078125 8.5 55.328125 
Q 8.5 64.0625 14.71875 69.140625 
Q 20.953125 74.21875 31.78125 74.21875 
Q 42.671875 74.21875 48.875 69.140625 
Q 55.078125 64.0625 55.078125 55.328125 
Q 55.078125 49.078125 51.53125 44.71875 
Q 48 40.375 41.703125 38.8125 
Q 48.828125 37.15625 52.796875 32.3125 
Q 56.78125 27.484375 56.78125 20.515625 
Q 56.78125 9.90625 50.3125 4.234375 
Q 43.84375 -1.421875 31.78125 -1.421875 
Q 19.734375 -1.421875 13.25 4.234375 
Q 6.78125 9.90625 6.78125 20.515625 
Q 6.78125 27.484375 10.78125 32.3125 
Q 14.796875 37.15625 21.921875 38.8125 
M 18.3125 54.390625 
Q 18.3125 48.734375 21.84375 45.5625 
Q 25.390625 42.390625 31.78125 42.390625 
Q 38.140625 42.390625 41.71875 45.5625 
Q 45.3125 48.734375 45.3125 54.390625 
Q 45.3125 60.0625 41.71875 63.234375 
Q 38.140625 66.40625 31.78125 66.40625 
Q 25.390625 66.40625 21.84375 63.234375 
Q 18.3125 60.0625 18.3125 54.390625 
" id="DejaVuSans-38"/>
      </defs>
      <g transform="translate(366.739251 316.356875)scale(0.2 -0.2)">
       <use xlink:href="#DejaVuSans-38"/>
      </g>
     </g>
    </g>
    <g id="xtick_6">
     <g id="line2d_15">
      <defs>
       <path d="M 0 0 
L 0 2 
" id="me285fdb0d9" style="stroke:#000000;stroke-width:0.6;"/>
      </defs>
      <g>
       <use style="stroke:#000000;stroke-width:0.6;" x="68.740534" xlink:href="#me285fdb0d9" y="294.16"/>
      </g>
     </g>
    </g>
    <g id="xtick_7">
     <g id="line2d_16">
      <g>
       <use style="stroke:#000000;stroke-width:0.6;" x="80.641068" xlink:href="#me285fdb0d9" y="294.16"/>
      </g>
     </g>
    </g>
    <g id="xtick_8">
     <g id="line2d_17">
      <g>
       <use style="stroke:#000000;stroke-width:0.6;" x="87.602435" xlink:href="#me285fdb0d9" y="294.16"/>
      </g>
     </g>
    </g>
    <g id="xtick_9">
     <g id="line2d_18">
      <g>
       <use style="stroke:#000000;stroke-width:0.6;" x="92.541603" xlink:href="#me285fdb0d9" y="294.16"/>
      </g>
     </g>
    </g>
    <g id="xtick_10">
     <g id="line2d_19">
      <g>
       <use style="stroke:#000000;stroke-width:0.6;" x="147.805972" xlink:href="#me285fdb0d9" y="294.16"/>
      </g>
     </g>
    </g>
    <g id="xtick_11">
     <g id="line2d_20">
      <g>
       <use style="stroke:#000000;stroke-width:0.6;" x="159.706506" xlink:href="#me285fdb0d9" y="294.16"/>
      </g>
     </g>
    </g>
    <g id="xtick_12">
     <g id="line2d_21">
      <g>
       <use style="stroke:#000000;stroke-width:0.6;" x="166.667872" xlink:href="#me285fdb0d9" y="294.16"/>
      </g>
     </g>
    </g>
    <g id="xtick_13">
     <g id="line2d_22">
      <g>
       <use style="stroke:#000000;stroke-width:0.6;" x="171.60704" xlink:href="#me285fdb0d9" y="294.16"/>
      </g>
     </g>
    </g>
    <g id="xtick_14">
     <g id="line2d_23">
      <g>
       <use style="stroke:#000000;stroke-width:0.6;" x="226.87141" xlink:href="#me285fdb0d9" y="294.16"/>
      </g>
     </g>
    </g>
    <g id="xtick_15">
     <g id="line2d_24">
      <g>
       <use style="stroke:#000000;stroke-width:0.6;" x="238.771944" xlink:href="#me285fdb0d9" y="294.16"/>
      </g>
     </g>
    </g>
    <g id="xtick_16">
     <g id="line2d_25">
      <g>
       <use style="stroke:#000000;stroke-width:0.6;" x="245.73331" xlink:href="#me285fdb0d9" y="294.16"/>
      </g>
     </g>
    </g>
    <g id="xtick_17">
     <g id="line2d_26">
      <g>
       <use style="stroke:#000000;stroke-width:0.6;" x="250.672478" xlink:href="#me285fdb0d9" y="294.16"/>
      </g>
     </g>
    </g>
    <g id="xtick_18">
     <g id="line2d_27">
      <g>
       <use style="stroke:#000000;stroke-width:0.6;" x="305.936848" xlink:href="#me285fdb0d9" y="294.16"/>
      </g>
     </g>
    </g>
    <g id="xtick_19">
     <g id="line2d_28">
      <g>
       <use style="stroke:#000000;stroke-width:0.6;" x="317.837382" xlink:href="#me285fdb0d9" y="294.16"/>
      </g>
     </g>
    </g>
    <g id="xtick_20">
     <g id="line2d_29">
      <g>
       <use style="stroke:#000000;stroke-width:0.6;" x="324.798748" xlink:href="#me285fdb0d9" y="294.16"/>
      </g>
     </g>
    </g>
    <g id="xtick_21">
     <g id="line2d_30">
      <g>
       <use style="stroke:#000000;stroke-width:0.6;" x="329.737916" xlink:href="#me285fdb0d9" y="294.16"/>
      </g>
     </g>
    </g>
    <g id="xtick_22">
     <g id="line2d_31">
      <g>
       <use style="stroke:#000000;stroke-width:0.6;" x="385.002285" xlink:href="#me285fdb0d9" y="294.16"/>
      </g>
     </g>
    </g>
    <g id="xtick_23">
     <g id="line2d_32">
      <g>
       <use style="stroke:#000000;stroke-width:0.6;" x="396.90282" xlink:href="#me285fdb0d9" y="294.16"/>
      </g>
     </g>
    </g>
    <g id="text_6">
     <!-- log10(# f-evals / dimension) -->
     <defs>
      <path d="M 9.421875 75.984375 
L 18.40625 75.984375 
L 18.40625 0 
L 9.421875 0 
z
" id="DejaVuSans-6c"/>
      <path d="M 30.609375 48.390625 
Q 23.390625 48.390625 19.1875 42.75 
Q 14.984375 37.109375 14.984375 27.296875 
Q 14.984375 17.484375 19.15625 11.84375 
Q 23.34375 6.203125 30.609375 6.203125 
Q 37.796875 6.203125 41.984375 11.859375 
Q 46.1875 17.53125 46.1875 27.296875 
Q 46.1875 37.015625 41.984375 42.703125 
Q 37.796875 48.390625 30.609375 48.390625 
M 30.609375 56 
Q 42.328125 56 49.015625 48.375 
Q 55.71875 40.765625 55.71875 27.296875 
Q 55.71875 13.875 49.015625 6.21875 
Q 42.328125 -1.421875 30.609375 -1.421875 
Q 18.84375 -1.421875 12.171875 6.21875 
Q 5.515625 13.875 5.515625 27.296875 
Q 5.515625 40.765625 12.171875 48.375 
Q 18.84375 56 30.609375 56 
" id="DejaVuSans-6f"/>
      <path d="M 45.40625 27.984375 
Q 45.40625 37.75 41.375 43.109375 
Q 37.359375 48.484375 30.078125 48.484375 
Q 22.859375 48.484375 18.828125 43.109375 
Q 14.796875 37.75 14.796875 27.984375 
Q 14.796875 18.265625 18.828125 12.890625 
Q 22.859375 7.515625 30.078125 7.515625 
Q 37.359375 7.515625 41.375 12.890625 
Q 45.40625 18.265625 45.40625 27.984375 
M 54.390625 6.78125 
Q 54.390625 -7.171875 48.1875 -13.984375 
Q 42 -20.796875 29.203125 -20.796875 
Q 24.46875 -20.796875 20.265625 -20.09375 
Q 16.0625 -19.390625 12.109375 -17.921875 
L 12.109375 -9.1875 
Q 16.0625 -11.328125 19.921875 -12.34375 
Q 23.78125 -13.375 27.78125 -13.375 
Q 36.625 -13.375 41.015625 -8.765625 
Q 45.40625 -4.15625 45.40625 5.171875 
L 45.40625 9.625 
Q 42.625 4.78125 38.28125 2.390625 
Q 33.9375 0 27.875 0 
Q 17.828125 0 11.671875 7.65625 
Q 5.515625 15.328125 5.515625 27.984375 
Q 5.515625 40.671875 11.671875 48.328125 
Q 17.828125 56 27.875 56 
Q 33.9375 56 38.28125 53.609375 
Q 42.625 51.21875 45.40625 46.390625 
L 45.40625 54.6875 
L 54.390625 54.6875 
z
" id="DejaVuSans-67"/>
      <path d="M 12.40625 8.296875 
L 28.515625 8.296875 
L 28.515625 63.921875 
L 10.984375 60.40625 
L 10.984375 69.390625 
L 28.421875 72.90625 
L 38.28125 72.90625 
L 38.28125 8.296875 
L 54.390625 8.296875 
L 54.390625 0 
L 12.40625 0 
z
" id="DejaVuSans-31"/>
      <path d="M 31 75.875 
Q 24.46875 64.65625 21.28125 53.65625 
Q 18.109375 42.671875 18.109375 31.390625 
Q 18.109375 20.125 21.3125 9.0625 
Q 24.515625 -2 31 -13.1875 
L 23.1875 -13.1875 
Q 15.875 -1.703125 12.234375 9.375 
Q 8.59375 20.453125 8.59375 31.390625 
Q 8.59375 42.28125 12.203125 53.3125 
Q 15.828125 64.359375 23.1875 75.875 
z
" id="DejaVuSans-28"/>
      <path d="M 51.125 44 
L 36.921875 44 
L 32.8125 27.6875 
L 47.125 27.6875 
z
M 43.796875 71.78125 
L 38.71875 51.515625 
L 52.984375 51.515625 
L 58.109375 71.78125 
L 65.921875 71.78125 
L 60.890625 51.515625 
L 76.125 51.515625 
L 76.125 44 
L 58.984375 44 
L 54.984375 27.6875 
L 70.515625 27.6875 
L 70.515625 20.21875 
L 53.078125 20.21875 
L 48 0 
L 40.1875 0 
L 45.21875 20.21875 
L 30.90625 20.21875 
L 25.875 0 
L 18.015625 0 
L 23.09375 20.21875 
L 7.71875 20.21875 
L 7.71875 27.6875 
L 24.90625 27.6875 
L 29 44 
L 13.28125 44 
L 13.28125 51.515625 
L 30.90625 51.515625 
L 35.890625 71.78125 
z
" id="DejaVuSans-23"/>
      <path id="DejaVuSans-20"/>
      <path d="M 37.109375 75.984375 
L 37.109375 68.5 
L 28.515625 68.5 
Q 23.6875 68.5 21.796875 66.546875 
Q 19.921875 64.59375 19.921875 59.515625 
L 19.921875 54.6875 
L 34.71875 54.6875 
L 34.71875 47.703125 
L 19.921875 47.703125 
L 19.921875 0 
L 10.890625 0 
L 10.890625 47.703125 
L 2.296875 47.703125 
L 2.296875 54.6875 
L 10.890625 54.6875 
L 10.890625 58.5 
Q 10.890625 67.625 15.140625 71.796875 
Q 19.390625 75.984375 28.609375 75.984375 
z
" id="DejaVuSans-66"/>
      <path d="M 4.890625 31.390625 
L 31.203125 31.390625 
L 31.203125 23.390625 
L 4.890625 23.390625 
z
" id="DejaVuSans-2d"/>
      <path d="M 56.203125 29.59375 
L 56.203125 25.203125 
L 14.890625 25.203125 
Q 15.484375 15.921875 20.484375 11.0625 
Q 25.484375 6.203125 34.421875 6.203125 
Q 39.59375 6.203125 44.453125 7.46875 
Q 49.3125 8.734375 54.109375 11.28125 
L 54.109375 2.78125 
Q 49.265625 0.734375 44.1875 -0.34375 
Q 39.109375 -1.421875 33.890625 -1.421875 
Q 20.796875 -1.421875 13.15625 6.1875 
Q 5.515625 13.8125 5.515625 26.8125 
Q 5.515625 40.234375 12.765625 48.109375 
Q 20.015625 56 32.328125 56 
Q 43.359375 56 49.78125 48.890625 
Q 56.203125 41.796875 56.203125 29.59375 
M 47.21875 32.234375 
Q 47.125 39.59375 43.09375 43.984375 
Q 39.0625 48.390625 32.421875 48.390625 
Q 24.90625 48.390625 20.390625 44.140625 
Q 15.875 39.890625 15.1875 32.171875 
z
" id="DejaVuSans-65"/>
      <path d="M 2.984375 54.6875 
L 12.5 54.6875 
L 29.59375 8.796875 
L 46.6875 54.6875 
L 56.203125 54.6875 
L 35.6875 0 
L 23.484375 0 
z
" id="DejaVuSans-76"/>
      <path d="M 34.28125 27.484375 
Q 23.390625 27.484375 19.1875 25 
Q 14.984375 22.515625 14.984375 16.5 
Q 14.984375 11.71875 18.140625 8.90625 
Q 21.296875 6.109375 26.703125 6.109375 
Q 34.1875 6.109375 38.703125 11.40625 
Q 43.21875 16.703125 43.21875 25.484375 
L 43.21875 27.484375 
z
M 52.203125 31.203125 
L 52.203125 0 
L 43.21875 0 
L 43.21875 8.296875 
Q 40.140625 3.328125 35.546875 0.953125 
Q 30.953125 -1.421875 24.3125 -1.421875 
Q 15.921875 -1.421875 10.953125 3.296875 
Q 6 8.015625 6 15.921875 
Q 6 25.140625 12.171875 29.828125 
Q 18.359375 34.515625 30.609375 34.515625 
L 43.21875 34.515625 
L 43.21875 35.40625 
Q 43.21875 41.609375 39.140625 45 
Q 35.0625 48.390625 27.6875 48.390625 
Q 23 48.390625 18.546875 47.265625 
Q 14.109375 46.140625 10.015625 43.890625 
L 10.015625 52.203125 
Q 14.9375 54.109375 19.578125 55.046875 
Q 24.21875 56 28.609375 56 
Q 40.484375 56 46.34375 49.84375 
Q 52.203125 43.703125 52.203125 31.203125 
" id="DejaVuSans-61"/>
      <path d="M 44.28125 53.078125 
L 44.28125 44.578125 
Q 40.484375 46.53125 36.375 47.5 
Q 32.28125 48.484375 27.875 48.484375 
Q 21.1875 48.484375 17.84375 46.4375 
Q 14.5 44.390625 14.5 40.28125 
Q 14.5 37.15625 16.890625 35.375 
Q 19.28125 33.59375 26.515625 31.984375 
L 29.59375 31.296875 
Q 39.15625 29.25 43.1875 25.515625 
Q 47.21875 21.78125 47.21875 15.09375 
Q 47.21875 7.46875 41.1875 3.015625 
Q 35.15625 -1.421875 24.609375 -1.421875 
Q 20.21875 -1.421875 15.453125 -0.5625 
Q 10.6875 0.296875 5.421875 2 
L 5.421875 11.28125 
Q 10.40625 8.6875 15.234375 7.390625 
Q 20.0625 6.109375 24.8125 6.109375 
Q 31.15625 6.109375 34.5625 8.28125 
Q 37.984375 10.453125 37.984375 14.40625 
Q 37.984375 18.0625 35.515625 20.015625 
Q 33.0625 21.96875 24.703125 23.78125 
L 21.578125 24.515625 
Q 13.234375 26.265625 9.515625 29.90625 
Q 5.8125 33.546875 5.8125 39.890625 
Q 5.8125 47.609375 11.28125 51.796875 
Q 16.75 56 26.8125 56 
Q 31.78125 56 36.171875 55.265625 
Q 40.578125 54.546875 44.28125 53.078125 
" id="DejaVuSans-73"/>
      <path d="M 25.390625 72.90625 
L 33.6875 72.90625 
L 8.296875 -9.28125 
L 0 -9.28125 
z
" id="DejaVuSans-2f"/>
      <path d="M 45.40625 46.390625 
L 45.40625 75.984375 
L 54.390625 75.984375 
L 54.390625 0 
L 45.40625 0 
L 45.40625 8.203125 
Q 42.578125 3.328125 38.25 0.953125 
Q 33.9375 -1.421875 27.875 -1.421875 
Q 17.96875 -1.421875 11.734375 6.484375 
Q 5.515625 14.40625 5.515625 27.296875 
Q 5.515625 40.1875 11.734375 48.09375 
Q 17.96875 56 27.875 56 
Q 33.9375 56 38.25 53.625 
Q 42.578125 51.265625 45.40625 46.390625 
M 14.796875 27.296875 
Q 14.796875 17.390625 18.875 11.75 
Q 22.953125 6.109375 30.078125 6.109375 
Q 37.203125 6.109375 41.296875 11.75 
Q 45.40625 17.390625 45.40625 27.296875 
Q 45.40625 37.203125 41.296875 42.84375 
Q 37.203125 48.484375 30.078125 48.484375 
Q 22.953125 48.484375 18.875 42.84375 
Q 14.796875 37.203125 14.796875 27.296875 
" id="DejaVuSans-64"/>
      <path d="M 9.421875 54.6875 
L 18.40625 54.6875 
L 18.40625 0 
L 9.421875 0 
z
M 9.421875 75.984375 
L 18.40625 75.984375 
L 18.40625 64.59375 
L 9.421875 64.59375 
z
" id="DejaVuSans-69"/>
      <path d="M 52 44.1875 
Q 55.375 50.25 60.0625 53.125 
Q 64.75 56 71.09375 56 
Q 79.640625 56 84.28125 50.015625 
Q 88.921875 44.046875 88.921875 33.015625 
L 88.921875 0 
L 79.890625 0 
L 79.890625 32.71875 
Q 79.890625 40.578125 77.09375 44.375 
Q 74.3125 48.1875 68.609375 48.1875 
Q 61.625 48.1875 57.5625 43.546875 
Q 53.515625 38.921875 53.515625 30.90625 
L 53.515625 0 
L 44.484375 0 
L 44.484375 32.71875 
Q 44.484375 40.625 41.703125 44.40625 
Q 38.921875 48.1875 33.109375 48.1875 
Q 26.21875 48.1875 22.15625 43.53125 
Q 18.109375 38.875 18.109375 30.90625 
L 18.109375 0 
L 9.078125 0 
L 9.078125 54.6875 
L 18.109375 54.6875 
L 18.109375 46.1875 
Q 21.1875 51.21875 25.484375 53.609375 
Q 29.78125 56 35.6875 56 
Q 41.65625 56 45.828125 52.96875 
Q 50 49.953125 52 44.1875 
" id="DejaVuSans-6d"/>
      <path d="M 54.890625 33.015625 
L 54.890625 0 
L 45.90625 0 
L 45.90625 32.71875 
Q 45.90625 40.484375 42.875 44.328125 
Q 39.84375 48.1875 33.796875 48.1875 
Q 26.515625 48.1875 22.3125 43.546875 
Q 18.109375 38.921875 18.109375 30.90625 
L 18.109375 0 
L 9.078125 0 
L 9.078125 54.6875 
L 18.109375 54.6875 
L 18.109375 46.1875 
Q 21.34375 51.125 25.703125 53.5625 
Q 30.078125 56 35.796875 56 
Q 45.21875 56 50.046875 50.171875 
Q 54.890625 44.34375 54.890625 33.015625 
" id="DejaVuSans-6e"/>
      <path d="M 8.015625 75.875 
L 15.828125 75.875 
Q 23.140625 64.359375 26.78125 53.3125 
Q 30.421875 42.28125 30.421875 31.390625 
Q 30.421875 20.453125 26.78125 9.375 
Q 23.140625 -1.703125 15.828125 -13.1875 
L 8.015625 -13.1875 
Q 14.5 -2 17.703125 9.0625 
Q 20.90625 20.125 20.90625 31.390625 
Q 20.90625 42.671875 17.703125 53.65625 
Q 14.5 64.65625 8.015625 75.875 
" id="DejaVuSans-29"/>
     </defs>
     <g transform="translate(107.571219 337.433594)scale(0.17 -0.17)">
      <use xlink:href="#DejaVuSans-6c"/>
      <use x="27.783203" xlink:href="#DejaVuSans-6f"/>
      <use x="88.964844" xlink:href="#DejaVuSans-67"/>
      <use x="152.441406" xlink:href="#DejaVuSans-31"/>
      <use x="216.064453" xlink:href="#DejaVuSans-30"/>
      <use x="279.6875" xlink:href="#DejaVuSans-28"/>
      <use x="318.701172" xlink:href="#DejaVuSans-23"/>
      <use x="402.490234" xlink:href="#DejaVuSans-20"/>
      <use x="434.277344" xlink:href="#DejaVuSans-66"/>
      <use x="469.404297" xlink:href="#DejaVuSans-2d"/>
      <use x="505.488281" xlink:href="#DejaVuSans-65"/>
      <use x="567.011719" xlink:href="#DejaVuSans-76"/>
      <use x="626.191406" xlink:href="#DejaVuSans-61"/>
      <use x="687.470703" xlink:href="#DejaVuSans-6c"/>
      <use x="715.253906" xlink:href="#DejaVuSans-73"/>
      <use x="767.353516" xlink:href="#DejaVuSans-20"/>
      <use x="799.140625" xlink:href="#DejaVuSans-2f"/>
      <use x="832.832031" xlink:href="#DejaVuSans-20"/>
      <use x="864.619141" xlink:href="#DejaVuSans-64"/>
      <use x="928.095703" xlink:href="#DejaVuSans-69"/>
      <use x="955.878906" xlink:href="#DejaVuSans-6d"/>
      <use x="1053.291016" xlink:href="#DejaVuSans-65"/>
      <use x="1114.814453" xlink:href="#DejaVuSans-6e"/>
      <use x="1178.193359" xlink:href="#DejaVuSans-73"/>
      <use x="1230.292969" xlink:href="#DejaVuSans-69"/>
      <use x="1258.076172" xlink:href="#DejaVuSans-6f"/>
      <use x="1319.257812" xlink:href="#DejaVuSans-6e"/>
      <use x="1382.636719" xlink:href="#DejaVuSans-29"/>
     </g>
    </g>
   </g>
   <g id="matplotlib.axis_2">
    <g id="ytick_1">
     <g id="line2d_33">
      <path clip-path="url(#p9fc52c41cc)" d="M 56.84 294.16 
L 399.984 294.16 
" style="fill:none;stroke:#b0b0b0;stroke-linecap:square;stroke-width:0.8;"/>
     </g>
     <g id="line2d_34">
      <defs>
       <path d="M 0 0 
L -3.5 0 
" id="m7c42827018" style="stroke:#000000;stroke-width:0.8;"/>
      </defs>
      <g>
       <use style="stroke:#000000;stroke-width:0.8;" x="56.84" xlink:href="#m7c42827018" y="294.16"/>
      </g>
     </g>
     <g id="text_7">
      <!-- 0.0 -->
      <defs>
       <path d="M 10.6875 12.40625 
L 21 12.40625 
L 21 0 
L 10.6875 0 
z
" id="DejaVuSans-2e"/>
      </defs>
      <g transform="translate(24.395 300.23875)scale(0.16 -0.16)">
       <use xlink:href="#DejaVuSans-30"/>
       <use x="63.623047" xlink:href="#DejaVuSans-2e"/>
       <use x="95.410156" xlink:href="#DejaVuSans-30"/>
      </g>
     </g>
    </g>
    <g id="ytick_2">
     <g id="line2d_35">
      <path clip-path="url(#p9fc52c41cc)" d="M 56.84 240.829307 
L 399.984 240.829307 
" style="fill:none;stroke:#b0b0b0;stroke-linecap:square;stroke-width:0.8;"/>
     </g>
     <g id="line2d_36">
      <g>
       <use style="stroke:#000000;stroke-width:0.8;" x="56.84" xlink:href="#m7c42827018" y="240.829307"/>
      </g>
     </g>
     <g id="text_8">
      <!-- 0.2 -->
      <g transform="translate(24.395 246.908057)scale(0.16 -0.16)">
       <use xlink:href="#DejaVuSans-30"/>
       <use x="63.623047" xlink:href="#DejaVuSans-2e"/>
       <use x="95.410156" xlink:href="#DejaVuSans-32"/>
      </g>
     </g>
    </g>
    <g id="ytick_3">
     <g id="line2d_37">
      <path clip-path="url(#p9fc52c41cc)" d="M 56.84 187.498614 
L 399.984 187.498614 
" style="fill:none;stroke:#b0b0b0;stroke-linecap:square;stroke-width:0.8;"/>
     </g>
     <g id="line2d_38">
      <g>
       <use style="stroke:#000000;stroke-width:0.8;" x="56.84" xlink:href="#m7c42827018" y="187.498614"/>
      </g>
     </g>
     <g id="text_9">
      <!-- 0.4 -->
      <g transform="translate(24.395 193.577364)scale(0.16 -0.16)">
       <use xlink:href="#DejaVuSans-30"/>
       <use x="63.623047" xlink:href="#DejaVuSans-2e"/>
       <use x="95.410156" xlink:href="#DejaVuSans-34"/>
      </g>
     </g>
    </g>
    <g id="ytick_4">
     <g id="line2d_39">
      <path clip-path="url(#p9fc52c41cc)" d="M 56.84 134.167921 
L 399.984 134.167921 
" style="fill:none;stroke:#b0b0b0;stroke-linecap:square;stroke-width:0.8;"/>
     </g>
     <g id="line2d_40">
      <g>
       <use style="stroke:#000000;stroke-width:0.8;" x="56.84" xlink:href="#m7c42827018" y="134.167921"/>
      </g>
     </g>
     <g id="text_10">
      <!-- 0.6 -->
      <g transform="translate(24.395 140.246671)scale(0.16 -0.16)">
       <use xlink:href="#DejaVuSans-30"/>
       <use x="63.623047" xlink:href="#DejaVuSans-2e"/>
       <use x="95.410156" xlink:href="#DejaVuSans-36"/>
      </g>
     </g>
    </g>
    <g id="ytick_5">
     <g id="line2d_41">
      <path clip-path="url(#p9fc52c41cc)" d="M 56.84 80.837228 
L 399.984 80.837228 
" style="fill:none;stroke:#b0b0b0;stroke-linecap:square;stroke-width:0.8;"/>
     </g>
     <g id="line2d_42">
      <g>
       <use style="stroke:#000000;stroke-width:0.8;" x="56.84" xlink:href="#m7c42827018" y="80.837228"/>
      </g>
     </g>
     <g id="text_11">
      <!-- 0.8 -->
      <g transform="translate(24.395 86.915978)scale(0.16 -0.16)">
       <use xlink:href="#DejaVuSans-30"/>
       <use x="63.623047" xlink:href="#DejaVuSans-2e"/>
       <use x="95.410156" xlink:href="#DejaVuSans-38"/>
      </g>
     </g>
    </g>
    <g id="ytick_6">
     <g id="line2d_43">
      <path clip-path="url(#p9fc52c41cc)" d="M 56.84 27.506535 
L 399.984 27.506535 
" style="fill:none;stroke:#b0b0b0;stroke-linecap:square;stroke-width:0.8;"/>
     </g>
     <g id="line2d_44">
      <g>
       <use style="stroke:#000000;stroke-width:0.8;" x="56.84" xlink:href="#m7c42827018" y="27.506535"/>
      </g>
     </g>
     <g id="text_12">
      <!-- 1.0 -->
      <g transform="translate(24.395 33.585285)scale(0.16 -0.16)">
       <use xlink:href="#DejaVuSans-31"/>
       <use x="63.623047" xlink:href="#DejaVuSans-2e"/>
       <use x="95.410156" xlink:href="#DejaVuSans-30"/>
      </g>
     </g>
    </g>
    <g id="text_13">
     <!-- Fraction of function,target pairs -->
     <defs>
      <path d="M 9.8125 72.90625 
L 51.703125 72.90625 
L 51.703125 64.59375 
L 19.671875 64.59375 
L 19.671875 43.109375 
L 48.578125 43.109375 
L 48.578125 34.8125 
L 19.671875 34.8125 
L 19.671875 0 
L 9.8125 0 
z
" id="DejaVuSans-46"/>
      <path d="M 41.109375 46.296875 
Q 39.59375 47.171875 37.8125 47.578125 
Q 36.03125 48 33.890625 48 
Q 26.265625 48 22.1875 43.046875 
Q 18.109375 38.09375 18.109375 28.8125 
L 18.109375 0 
L 9.078125 0 
L 9.078125 54.6875 
L 18.109375 54.6875 
L 18.109375 46.1875 
Q 20.953125 51.171875 25.484375 53.578125 
Q 30.03125 56 36.53125 56 
Q 37.453125 56 38.578125 55.875 
Q 39.703125 55.765625 41.0625 55.515625 
z
" id="DejaVuSans-72"/>
      <path d="M 48.78125 52.59375 
L 48.78125 44.1875 
Q 44.96875 46.296875 41.140625 47.34375 
Q 37.3125 48.390625 33.40625 48.390625 
Q 24.65625 48.390625 19.8125 42.84375 
Q 14.984375 37.3125 14.984375 27.296875 
Q 14.984375 17.28125 19.8125 11.734375 
Q 24.65625 6.203125 33.40625 6.203125 
Q 37.3125 6.203125 41.140625 7.25 
Q 44.96875 8.296875 48.78125 10.40625 
L 48.78125 2.09375 
Q 45.015625 0.34375 40.984375 -0.53125 
Q 36.96875 -1.421875 32.421875 -1.421875 
Q 20.0625 -1.421875 12.78125 6.34375 
Q 5.515625 14.109375 5.515625 27.296875 
Q 5.515625 40.671875 12.859375 48.328125 
Q 20.21875 56 33.015625 56 
Q 37.15625 56 41.109375 55.140625 
Q 45.0625 54.296875 48.78125 52.59375 
" id="DejaVuSans-63"/>
      <path d="M 18.3125 70.21875 
L 18.3125 54.6875 
L 36.8125 54.6875 
L 36.8125 47.703125 
L 18.3125 47.703125 
L 18.3125 18.015625 
Q 18.3125 11.328125 20.140625 9.421875 
Q 21.96875 7.515625 27.59375 7.515625 
L 36.8125 7.515625 
L 36.8125 0 
L 27.59375 0 
Q 17.1875 0 13.234375 3.875 
Q 9.28125 7.765625 9.28125 18.015625 
L 9.28125 47.703125 
L 2.6875 47.703125 
L 2.6875 54.6875 
L 9.28125 54.6875 
L 9.28125 70.21875 
z
" id="DejaVuSans-74"/>
      <path d="M 8.5 21.578125 
L 8.5 54.6875 
L 17.484375 54.6875 
L 17.484375 21.921875 
Q 17.484375 14.15625 20.5 10.265625 
Q 23.53125 6.390625 29.59375 6.390625 
Q 36.859375 6.390625 41.078125 11.03125 
Q 45.3125 15.671875 45.3125 23.6875 
L 45.3125 54.6875 
L 54.296875 54.6875 
L 54.296875 0 
L 45.3125 0 
L 45.3125 8.40625 
Q 42.046875 3.421875 37.71875 1 
Q 33.40625 -1.421875 27.6875 -1.421875 
Q 18.265625 -1.421875 13.375 4.4375 
Q 8.5 10.296875 8.5 21.578125 
M 31.109375 56 
z
" id="DejaVuSans-75"/>
      <path d="M 11.71875 12.40625 
L 22.015625 12.40625 
L 22.015625 4 
L 14.015625 -11.625 
L 7.71875 -11.625 
L 11.71875 4 
z
" id="DejaVuSans-2c"/>
      <path d="M 18.109375 8.203125 
L 18.109375 -20.796875 
L 9.078125 -20.796875 
L 9.078125 54.6875 
L 18.109375 54.6875 
L 18.109375 46.390625 
Q 20.953125 51.265625 25.265625 53.625 
Q 29.59375 56 35.59375 56 
Q 45.5625 56 51.78125 48.09375 
Q 58.015625 40.1875 58.015625 27.296875 
Q 58.015625 14.40625 51.78125 6.484375 
Q 45.5625 -1.421875 35.59375 -1.421875 
Q 29.59375 -1.421875 25.265625 0.953125 
Q 20.953125 3.328125 18.109375 8.203125 
M 48.6875 27.296875 
Q 48.6875 37.203125 44.609375 42.84375 
Q 40.53125 48.484375 33.40625 48.484375 
Q 26.265625 48.484375 22.1875 42.84375 
Q 18.109375 37.203125 18.109375 27.296875 
Q 18.109375 17.390625 22.1875 11.75 
Q 26.265625 6.109375 33.40625 6.109375 
Q 40.53125 6.109375 44.609375 11.75 
Q 48.6875 17.390625 48.6875 27.296875 
" id="DejaVuSans-70"/>
     </defs>
     <g transform="translate(16.859531 294.639375)rotate(-90)scale(0.17 -0.17)">
      <use xlink:href="#DejaVuSans-46"/>
      <use x="57.410156" xlink:href="#DejaVuSans-72"/>
      <use x="98.523438" xlink:href="#DejaVuSans-61"/>
      <use x="159.802734" xlink:href="#DejaVuSans-63"/>
      <use x="214.783203" xlink:href="#DejaVuSans-74"/>
      <use x="253.992188" xlink:href="#DejaVuSans-69"/>
      <use x="281.775391" xlink:href="#DejaVuSans-6f"/>
      <use x="342.957031" xlink:href="#DejaVuSans-6e"/>
      <use x="406.335938" xlink:href="#DejaVuSans-20"/>
      <use x="438.123047" xlink:href="#DejaVuSans-6f"/>
      <use x="499.304688" xlink:href="#DejaVuSans-66"/>
      <use x="534.509766" xlink:href="#DejaVuSans-20"/>
      <use x="566.296875" xlink:href="#DejaVuSans-66"/>
      <use x="601.501953" xlink:href="#DejaVuSans-75"/>
      <use x="664.880859" xlink:href="#DejaVuSans-6e"/>
      <use x="728.259766" xlink:href="#DejaVuSans-63"/>
      <use x="783.240234" xlink:href="#DejaVuSans-74"/>
      <use x="822.449219" xlink:href="#DejaVuSans-69"/>
      <use x="850.232422" xlink:href="#DejaVuSans-6f"/>
      <use x="911.414062" xlink:href="#DejaVuSans-6e"/>
      <use x="974.792969" xlink:href="#DejaVuSans-2c"/>
      <use x="1006.580078" xlink:href="#DejaVuSans-74"/>
      <use x="1045.789062" xlink:href="#DejaVuSans-61"/>
      <use x="1107.068359" xlink:href="#DejaVuSans-72"/>
      <use x="1148.166016" xlink:href="#DejaVuSans-67"/>
      <use x="1211.642578" xlink:href="#DejaVuSans-65"/>
      <use x="1273.166016" xlink:href="#DejaVuSans-74"/>
      <use x="1312.375" xlink:href="#DejaVuSans-20"/>
      <use x="1344.162109" xlink:href="#DejaVuSans-70"/>
      <use x="1407.638672" xlink:href="#DejaVuSans-61"/>
      <use x="1468.917969" xlink:href="#DejaVuSans-69"/>
      <use x="1496.701172" xlink:href="#DejaVuSans-72"/>
      <use x="1537.814453" xlink:href="#DejaVuSans-73"/>
     </g>
    </g>
   </g>
   <g id="line2d_45">
    <defs>
     <path d="M 0 1.5 
C 0.397805 1.5 0.77937 1.341951 1.06066 1.06066 
C 1.341951 0.77937 1.5 0.397805 1.5 0 
C 1.5 -0.397805 1.341951 -0.77937 1.06066 -1.06066 
C 0.77937 -1.341951 0.397805 -1.5 0 -1.5 
C -0.397805 -1.5 -0.77937 -1.341951 -1.06066 -1.06066 
C -1.341951 -0.77937 -1.5 -0.397805 -1.5 0 
C -1.5 0.397805 -1.341951 0.77937 -1.06066 1.06066 
C -0.77937 1.341951 -0.397805 1.5 0 1.5 
z
" id="mafbccee5b7" style="stroke:#f5deb3;"/>
    </defs>
    <g>
     <use style="fill:#f5deb3;stroke:#f5deb3;" x="229.932847" xlink:href="#mafbccee5b7" y="59.688849"/>
     <use style="fill:#f5deb3;stroke:#f5deb3;" x="229.932847" xlink:href="#mafbccee5b7" y="59.688849"/>
    </g>
   </g>
   <g id="line2d_46">
    <defs>
     <path d="M 0 1.5 
C 0.397805 1.5 0.77937 1.341951 1.06066 1.06066 
C 1.341951 0.77937 1.5 0.397805 1.5 0 
C 1.5 -0.397805 1.341951 -0.77937 1.06066 -1.06066 
C 0.77937 -1.341951 0.397805 -1.5 0 -1.5 
C -0.397805 -1.5 -0.77937 -1.341951 -1.06066 -1.06066 
C -1.341951 -0.77937 -1.5 -0.397805 -1.5 0 
C -1.5 0.397805 -1.341951 0.77937 -1.06066 1.06066 
C -0.77937 1.341951 -0.397805 1.5 0 1.5 
z
" id="m6dcce718d6" style="stroke:#000080;"/>
    </defs>
    <g>
     <use style="fill:#000080;stroke:#000080;" x="315.459619" xlink:href="#m6dcce718d6" y="64.286323"/>
     <use style="fill:#000080;stroke:#000080;" x="315.459619" xlink:href="#m6dcce718d6" y="64.286323"/>
    </g>
   </g>
   <g id="line2d_47">
    <path d="M 37.9781 294.16 
L 37.9781 288.183284 
L 132.35811 288.183284 
L 132.35811 287.26379 
L 135.848113 287.26379 
L 135.848113 284.965053 
L 136.959753 284.965053 
L 136.959753 283.585811 
L 137.437433 283.585811 
L 137.437433 281.287074 
L 138.843855 281.287074 
L 138.843855 275.310358 
L 139.552436 275.310358 
L 139.552436 274.390864 
L 140.453895 274.390864 
L 140.453895 273.011622 
L 143.318642 273.011622 
L 143.318642 272.092127 
L 144.606909 272.092127 
L 144.606909 270.253138 
L 145.149842 270.253138 
L 145.216518 268.414148 
L 145.316047 268.414148 
L 145.316047 267.494653 
L 145.447863 267.494653 
L 145.546064 266.575159 
L 145.578673 266.575159 
L 145.578673 266.115411 
L 146.155293 266.115411 
L 146.249541 263.816675 
L 146.652076 263.816675 
L 146.743643 262.89718 
L 146.834725 262.89718 
L 146.834725 262.437433 
L 147.045388 262.437433 
L 147.045388 261.058191 
L 147.283023 261.058191 
L 147.283023 260.598443 
L 147.891602 260.598443 
L 147.891602 259.219201 
L 148.033377 259.219201 
L 148.033377 258.759454 
L 148.173991 258.759454 
L 148.25781 256.460717 
L 148.967593 256.460717 
L 148.967593 254.621728 
L 149.649193 254.621728 
L 149.674876 251.863243 
L 149.853587 251.863243 
L 149.929611 247.725517 
L 150.155686 247.725517 
L 150.155686 246.346275 
L 150.599095 246.346275 
L 150.671896 244.967033 
L 150.720259 244.967033 
L 150.744389 243.587791 
L 150.91236 243.587791 
L 150.983847 240.829307 
L 151.220011 240.829307 
L 151.220011 238.53057 
L 151.383414 238.53057 
L 151.406631 236.231833 
L 152.111209 236.231833 
L 152.222191 233.013602 
L 152.354429 233.013602 
L 152.398283 231.63436 
L 152.788008 231.63436 
L 152.788008 229.79537 
L 153.00076 229.79537 
L 153.00076 228.416128 
L 153.190008 228.416128 
L 153.190008 227.956381 
L 153.335773 227.956381 
L 153.335773 226.577139 
L 153.541884 226.577139 
L 153.644019 224.73815 
L 153.765784 224.73815 
L 153.846484 221.519918 
L 154.066472 221.519918 
L 154.066472 220.140676 
L 154.205011 220.140676 
L 154.205011 218.761434 
L 154.478779 218.761434 
L 154.536881 217.841939 
L 154.67169 217.841939 
L 154.67169 217.382192 
L 154.843475 217.382192 
L 154.862457 214.623708 
L 154.975908 214.623708 
L 155.051127 211.865224 
L 155.274829 211.865224 
L 155.29334 210.026234 
L 155.440712 210.026234 
L 155.495653 207.26775 
L 156.141579 207.26775 
L 156.141579 206.808003 
L 156.264402 206.808003 
L 156.264402 206.348255 
L 156.644795 206.348255 
L 156.678961 204.969013 
L 156.933068 204.969013 
L 157.033667 203.130024 
L 157.083747 203.130024 
L 157.083747 200.831287 
L 157.24963 200.831287 
L 157.24963 200.37154 
L 157.495489 200.37154 
L 157.495489 199.452045 
L 158.181377 199.452045 
L 158.181377 197.153308 
L 158.306015 197.153308 
L 158.306015 196.233814 
L 158.491292 196.233814 
L 158.491292 193.015582 
L 158.855954 193.015582 
L 158.855954 192.555835 
L 158.975807 192.555835 
L 158.975807 192.096087 
L 159.154032 192.096087 
L 159.242455 189.797351 
L 159.735097 189.797351 
L 159.806367 187.958361 
L 159.933911 187.958361 
L 160.018418 186.579119 
L 160.144402 186.579119 
L 160.2001 184.74013 
L 160.706916 184.74013 
L 160.747361 182.441393 
L 161.001323 182.441393 
L 161.001323 181.062151 
L 161.212309 181.062151 
L 161.212309 179.682909 
L 161.368865 179.682909 
L 161.420735 177.843919 
L 161.511131 177.843919 
L 161.562574 176.464677 
L 161.868032 176.464677 
L 161.868032 175.545183 
L 162.14334 175.545183 
L 162.14334 174.625688 
L 162.860585 174.625688 
L 162.860585 173.706193 
L 163.026469 173.706193 
L 163.026469 173.246446 
L 163.44581 173.246446 
L 163.44581 171.867204 
L 163.560499 171.867204 
L 163.560499 171.407456 
L 163.674427 171.407456 
L 163.674427 170.947709 
L 163.79888 170.947709 
L 163.79888 170.487962 
L 164.210997 170.487962 
L 164.210997 170.028214 
L 164.602698 170.028214 
L 164.602698 169.568467 
L 166.291792 169.568467 
L 166.398703 168.189225 
L 167.332073 168.189225 
L 167.332073 167.26973 
L 167.496457 167.26973 
L 167.587105 165.430741 
L 168.622109 165.430741 
L 168.622109 164.970994 
L 169.191386 164.970994 
L 169.191386 164.511246 
L 170.276263 164.511246 
L 170.276263 164.051499 
L 170.453144 164.051499 
L 170.453144 163.132004 
L 170.928515 163.132004 
L 170.928515 161.752762 
L 171.135638 161.752762 
L 171.135638 161.293015 
L 173.145577 161.293015 
L 173.145577 158.994278 
L 173.334212 158.994278 
L 173.334212 158.074783 
L 173.981691 158.074783 
L 173.981691 157.615036 
L 174.731328 157.615036 
L 174.731328 157.155288 
L 179.264694 157.155288 
L 179.264694 156.235794 
L 180.441587 156.235794 
L 180.441587 155.776046 
L 180.620254 155.776046 
L 180.620254 154.396804 
L 182.536327 154.396804 
L 182.536327 152.557815 
L 184.156857 152.557815 
L 184.156857 152.098068 
L 186.839325 152.098068 
L 186.839325 151.63832 
L 187.543491 151.63832 
L 187.543491 150.259078 
L 190.892884 150.259078 
L 190.892884 149.799331 
L 196.49435 149.799331 
L 196.49435 149.339583 
L 198.819216 149.339583 
L 198.819216 148.879836 
L 198.979741 148.879836 
L 198.979741 148.420089 
L 200.329831 148.420089 
L 200.329831 146.581099 
L 200.906778 146.581099 
L 200.906778 144.282363 
L 203.551141 144.282363 
L 203.551141 143.822615 
L 205.854707 143.822615 
L 205.854707 142.903121 
L 207.001887 142.903121 
L 207.001887 141.983626 
L 212.95919 141.983626 
L 212.95919 141.523878 
L 213.840834 141.523878 
L 213.862213 140.144636 
L 214.654941 140.144636 
L 214.654941 139.684889 
L 214.788493 139.684889 
L 214.788493 139.225142 
L 215.698642 139.225142 
L 215.698642 138.765394 
L 216.142655 138.765394 
L 216.142655 138.305647 
L 216.367289 138.305647 
L 216.367289 137.8459 
L 216.599956 137.8459 
L 216.599956 137.386152 
L 218.662704 137.386152 
L 218.662704 136.926405 
L 218.836752 136.926405 
L 218.836752 135.087416 
L 219.56669 135.087416 
L 219.56669 134.627668 
L 219.687559 134.627668 
L 219.687559 133.708173 
L 220.297517 133.708173 
L 220.297517 133.248426 
L 220.511041 133.248426 
L 220.511041 131.869184 
L 222.086826 131.869184 
L 222.1295 130.489942 
L 225.501318 130.489942 
L 225.501318 129.1107 
L 226.692786 129.1107 
L 226.692786 128.650953 
L 227.680715 128.650953 
L 227.680715 127.27171 
L 228.190622 127.27171 
L 228.190622 125.892468 
L 229.892578 125.892468 
L 229.892578 125.432721 
L 231.024775 125.432721 
L 231.024775 124.972974 
L 231.401634 124.972974 
L 231.401634 123.133984 
L 232.387727 123.133984 
L 232.387727 122.674237 
L 232.660916 122.674237 
L 232.660916 122.21449 
L 233.878689 122.21449 
L 233.955191 119.456005 
L 234.17239 119.456005 
L 234.17239 118.996258 
L 237.346131 118.996258 
L 237.346131 118.076763 
L 237.839563 118.076763 
L 237.839563 117.617016 
L 238.756771 117.617016 
L 238.756771 117.157269 
L 239.722746 117.157269 
L 239.722746 115.318279 
L 240.50998 115.318279 
L 240.50998 114.398785 
L 240.896089 114.398785 
L 240.896089 113.47929 
L 241.601142 113.47929 
L 241.601142 112.559795 
L 241.989129 112.559795 
L 241.989129 111.180553 
L 243.53379 111.180553 
L 243.53379 110.720806 
L 245.028469 110.720806 
L 245.028469 108.881816 
L 245.260143 108.881816 
L 245.260143 108.422069 
L 246.145245 108.422069 
L 246.145245 107.962322 
L 246.666461 107.962322 
L 246.666461 106.58308 
L 247.168897 106.58308 
L 247.168897 105.203837 
L 247.36239 105.203837 
L 247.36239 104.74409 
L 248.026617 104.74409 
L 248.026617 103.364848 
L 248.285374 103.364848 
L 248.285374 102.905101 
L 248.600526 102.905101 
L 248.600526 102.445353 
L 249.590884 102.445353 
L 249.590884 101.985606 
L 250.96506 101.985606 
L 250.96506 101.066111 
L 252.224418 101.066111 
L 252.224418 99.686869 
L 253.277259 99.686869 
L 253.277259 98.767375 
L 255.113901 98.767375 
L 255.113901 98.307627 
L 255.850978 98.307627 
L 255.850978 97.84788 
L 256.535354 97.84788 
L 256.535354 97.388132 
L 258.181155 97.388132 
L 258.181155 96.928385 
L 258.404754 96.928385 
L 258.404754 96.468638 
L 259.023838 96.468638 
L 259.023838 96.00889 
L 259.889889 96.00889 
L 259.889889 95.089396 
L 260.02402 95.089396 
L 260.02402 94.629648 
L 260.562091 94.629648 
L 260.562292 93.710154 
L 260.799667 93.710154 
L 260.799667 93.250406 
L 260.919026 93.250406 
L 260.919026 92.790659 
L 262.148494 92.790659 
L 262.148494 92.330912 
L 263.069039 92.330912 
L 263.129571 90.491922 
L 263.206031 90.491922 
L 263.206272 88.652933 
L 263.473079 88.652933 
L 263.473079 88.193185 
L 263.709041 88.193185 
L 263.709041 87.733438 
L 264.72946 87.733438 
L 264.72946 87.273691 
L 267.542923 87.273691 
L 267.542923 86.813943 
L 268.343974 86.813943 
L 268.343974 86.354196 
L 268.627708 86.354196 
L 268.627708 85.894449 
L 269.702074 85.894449 
L 269.702074 85.434701 
L 270.651236 85.434701 
L 270.651236 84.974954 
L 271.009618 84.974954 
L 271.009618 84.515207 
L 271.133483 84.515207 
L 271.133483 84.055459 
L 271.30344 84.055459 
L 271.303548 83.135964 
L 271.537023 83.135964 
L 271.618992 82.21647 
L 272.269831 82.21647 
L 272.269872 81.296975 
L 272.970841 81.296975 
L 272.970841 80.837228 
L 276.72144 80.837228 
L 276.783708 79.457986 
L 277.013249 79.457986 
L 277.013249 78.998238 
L 281.06501 78.998238 
L 281.06501 78.538491 
L 281.48948 78.538491 
L 281.48948 78.078744 
L 284.246974 78.078744 
L 284.26953 76.699502 
L 284.730331 76.699502 
L 284.730331 76.239754 
L 287.062942 76.239754 
L 287.063071 75.320259 
L 289.46509 75.320259 
L 289.46509 74.860512 
L 289.806705 74.860512 
L 289.806756 73.48127 
L 291.557057 73.48127 
L 291.571683 72.561775 
L 291.874315 72.561775 
L 291.874392 71.642281 
L 293.719645 71.642281 
L 293.719645 71.182533 
L 295.139396 71.182533 
L 295.139434 70.263039 
L 295.385628 70.263039 
L 295.385628 69.803291 
L 296.667998 69.803291 
L 296.678859 68.883797 
L 298.091798 68.883797 
L 298.091798 68.424049 
L 301.742972 68.424049 
L 301.742972 67.964302 
L 305.782521 67.964302 
L 305.782521 67.504554 
L 306.500334 67.504554 
L 306.500334 67.044807 
L 306.627891 67.044807 
L 306.627907 65.665565 
L 309.645942 65.665565 
L 309.645942 65.205818 
L 312.115567 65.205818 
L 312.115567 64.74607 
L 315.459619 64.74607 
L 315.459619 64.286323 
L 333.569032 64.286323 
L 333.569032 64.286323 
" style="fill:none;stroke:#000080;stroke-linecap:square;stroke-width:1.5;"/>
   </g>
   <g id="line2d_48">
    <defs>
     <path d="M 0 6 
C 1.591219 6 3.117479 5.367802 4.242641 4.242641 
C 5.367802 3.117479 6 1.591219 6 0 
C 6 -1.591219 5.367802 -3.117479 4.242641 -4.242641 
C 3.117479 -5.367802 1.591219 -6 0 -6 
C -1.591219 -6 -3.117479 -5.367802 -4.242641 -4.242641 
C -5.367802 -3.117479 -6 -1.591219 -6 0 
C -6 1.591219 -5.367802 3.117479 -4.242641 4.242641 
C -3.117479 5.367802 -1.591219 6 0 6 
z
" id="md0b803f95a" style="stroke:#000080;stroke-width:1.5;"/>
    </defs>
    <g>
     <use style="fill:none;stroke:#000080;stroke-width:1.5;" x="139.552436" xlink:href="#md0b803f95a" y="274.390864"/>
     <use style="fill:none;stroke:#000080;stroke-width:1.5;" x="184.156857" xlink:href="#md0b803f95a" y="152.557815"/>
     <use style="fill:none;stroke:#000080;stroke-width:1.5;" x="259.889889" xlink:href="#md0b803f95a" y="96.00889"/>
     <use style="fill:none;stroke:#000080;stroke-width:1.5;" x="315.459619" xlink:href="#md0b803f95a" y="64.286323"/>
     <use style="fill:none;stroke:#000080;stroke-width:1.5;" x="315.459619" xlink:href="#md0b803f95a" y="64.286323"/>
     <use style="fill:none;stroke:#000080;stroke-width:1.5;" x="333.569032" xlink:href="#md0b803f95a" y="64.286323"/>
    </g>
   </g>
   <g id="line2d_49">
    <path style="fill:none;stroke:#000080;stroke-linecap:square;stroke-width:1.5;"/>
    <g/>
   </g>
   <g id="line2d_50">
    <path clip-path="url(#p9fc52c41cc)" d="M 254.510289 98.767375 
" style="fill:none;stroke:#000080;stroke-linecap:square;stroke-width:1.5;"/>
    <defs>
     <path d="M -12 12 
L 12 -12 
M -12 -12 
L 12 12 
" id="mf51386c859" style="stroke:#000080;stroke-width:3;"/>
    </defs>
    <g clip-path="url(#p9fc52c41cc)">
     <use style="fill:#000080;stroke:#000080;stroke-width:3;" x="254.510289" xlink:href="#mf51386c859" y="98.767375"/>
    </g>
   </g>
   <g id="line2d_51">
    <defs>
     <path d="M 0 1.5 
C 0.397805 1.5 0.77937 1.341951 1.06066 1.06066 
C 1.341951 0.77937 1.5 0.397805 1.5 0 
C 1.5 -0.397805 1.341951 -0.77937 1.06066 -1.06066 
C 0.77937 -1.341951 0.397805 -1.5 0 -1.5 
C -0.397805 -1.5 -0.77937 -1.341951 -1.06066 -1.06066 
C -1.341951 -0.77937 -1.5 -0.397805 -1.5 0 
C -1.5 0.397805 -1.341951 0.77937 -1.06066 1.06066 
C -0.77937 1.341951 -0.397805 1.5 0 1.5 
z
" id="mae10cf2cb5" style="stroke:#ff00ff;"/>
    </defs>
    <g>
     <use style="fill:#ff00ff;stroke:#ff00ff;" x="345.349174" xlink:href="#mae10cf2cb5" y="114.858532"/>
     <use style="fill:#ff00ff;stroke:#ff00ff;" x="345.349174" xlink:href="#mae10cf2cb5" y="114.858532"/>
    </g>
   </g>
   <g id="line2d_52">
    <path d="M 49.878634 294.16 
L 49.878634 290.482021 
L 80.641068 290.482021 
L 80.641068 281.287074 
L 84.472185 281.287074 
L 84.472185 280.827327 
L 85.580236 280.827327 
L 85.580236 279.448085 
L 87.602435 279.448085 
L 87.602435 276.689601 
L 99.502969 276.689601 
L 99.502969 268.873896 
L 104.080674 268.873896 
L 104.080674 267.034906 
L 105.482991 267.034906 
L 105.482991 262.437433 
L 107.984694 262.437433 
L 107.984694 259.678948 
L 109.110924 259.678948 
L 109.110924 258.759454 
L 110.672804 258.759454 
L 110.672804 257.380212 
L 112.556207 257.380212 
L 112.556207 255.541222 
L 114.848786 255.541222 
L 114.848786 253.702233 
L 116.520588 253.702233 
L 116.520588 252.322991 
L 117.383526 252.322991 
L 117.383526 251.403496 
L 120.457576 251.403496 
L 120.457576 250.943749 
L 122.697301 250.943749 
L 122.697301 250.484001 
L 122.820376 250.484001 
L 122.820376 250.024254 
L 124.787983 250.024254 
L 124.787983 248.645012 
L 125.219927 248.645012 
L 125.219927 246.346275 
L 126.15381 246.346275 
L 126.15381 244.967033 
L 126.454147 244.967033 
L 126.454147 244.047538 
L 127.512506 244.047538 
L 127.512506 243.128044 
L 128.063425 243.128044 
L 128.063425 241.289054 
L 128.332394 241.289054 
L 128.332394 240.829307 
L 128.597214 240.829307 
L 128.597214 239.450065 
L 130.502219 239.450065 
L 130.502219 238.990318 
L 130.889794 238.990318 
L 130.889794 236.691581 
L 132.637285 236.691581 
L 132.637285 236.231833 
L 134.903884 236.231833 
L 134.903884 235.772086 
L 137.332424 235.772086 
L 137.332424 234.852591 
L 138.892015 234.852591 
L 138.892015 234.392844 
L 139.736554 234.392844 
L 139.736554 233.473349 
L 141.966065 233.473349 
L 141.966065 231.63436 
L 142.402753 231.63436 
L 142.402753 231.174612 
L 144.948249 231.174612 
L 144.948249 229.79537 
L 145.316047 229.79537 
L 145.316047 229.335623 
L 147.371295 229.335623 
L 147.400618 227.496634 
L 149.751694 227.496634 
L 149.751694 227.036886 
L 151.499185 227.036886 
L 151.499185 224.278402 
L 152.485656 224.278402 
L 152.529177 222.89916 
L 156.831876 222.89916 
L 156.831876 222.439413 
L 157.033667 222.439413 
L 157.033667 221.979665 
L 161.70325 221.979665 
L 161.70325 219.680929 
L 162.192925 219.680929 
L 162.192925 219.221181 
L 165.575075 219.221181 
L 165.575075 218.301687 
L 165.947123 218.301687 
L 165.947123 216.922445 
L 166.543425 216.922445 
L 166.543425 216.00295 
L 169.694479 216.00295 
L 169.694479 215.543202 
L 171.869707 215.543202 
L 171.869707 214.623708 
L 173.850368 214.623708 
L 173.931781 212.324971 
L 174.527363 212.324971 
L 174.527363 210.945729 
L 174.647636 210.945729 
L 174.647636 209.10674 
L 175.167049 209.10674 
L 175.167049 208.646992 
L 175.973406 208.646992 
L 175.973406 207.727497 
L 177.936949 207.727497 
L 177.936949 206.348255 
L 180.017323 206.348255 
L 180.126554 204.969013 
L 181.149465 204.969013 
L 181.149465 203.589771 
L 182.513602 203.589771 
L 182.589236 201.291034 
L 185.376479 201.291034 
L 185.376479 199.911792 
L 185.574227 199.911792 
L 185.574227 199.452045 
L 187.868392 199.452045 
L 187.868392 198.992298 
L 189.238363 198.992298 
L 189.238363 197.613056 
L 190.895211 197.613056 
L 190.895211 197.153308 
L 192.374163 197.153308 
L 192.374163 196.693561 
L 192.653578 196.693561 
L 192.653578 195.774066 
L 194.48977 195.774066 
L 194.48977 194.394824 
L 195.584256 194.394824 
L 195.584256 193.935077 
L 197.067221 193.935077 
L 197.067221 193.015582 
L 198.302765 193.015582 
L 198.302765 191.63634 
L 199.145974 191.63634 
L 199.145974 190.257098 
L 202.779454 190.257098 
L 202.779454 189.797351 
L 203.790975 189.797351 
L 203.790975 188.877856 
L 205.156517 188.877856 
L 205.156517 188.418109 
L 206.604982 188.418109 
L 206.604982 187.038867 
L 208.009509 187.038867 
L 208.009509 185.659624 
L 209.810528 185.659624 
L 209.810528 184.280382 
L 211.154775 184.280382 
L 211.154775 183.820635 
L 211.728318 183.820635 
L 211.728318 183.360888 
L 211.894109 183.360888 
L 211.894109 181.981646 
L 213.268455 181.981646 
L 213.268455 181.521898 
L 214.410716 181.521898 
L 214.410716 180.602404 
L 214.547934 180.602404 
L 214.547934 180.142656 
L 219.268094 180.142656 
L 219.268094 179.223161 
L 219.386209 179.223161 
L 219.386209 178.303667 
L 221.789723 178.303667 
L 221.789723 177.843919 
L 222.711676 177.843919 
L 222.711676 176.00493 
L 225.777698 176.00493 
L 225.777698 174.625688 
L 227.184726 174.625688 
L 227.184726 174.165941 
L 227.917381 174.165941 
L 227.917381 171.867204 
L 229.199149 171.867204 
L 229.199149 171.407456 
L 229.414428 171.407456 
L 229.414428 170.487962 
L 229.843312 170.487962 
L 229.843312 169.568467 
L 231.309518 169.568467 
L 231.309518 169.10872 
L 231.475104 169.10872 
L 231.475104 168.189225 
L 232.728183 168.189225 
L 232.728183 167.26973 
L 235.682336 167.26973 
L 235.682336 166.350236 
L 235.999179 166.350236 
L 235.999179 164.511246 
L 238.32332 164.511246 
L 238.32332 164.051499 
L 239.079218 164.051499 
L 239.079218 163.132004 
L 241.816015 163.132004 
L 241.816015 162.672257 
L 242.649011 162.672257 
L 242.724869 161.293015 
L 244.219123 161.293015 
L 244.219123 159.913773 
L 246.72778 159.913773 
L 246.72778 159.454025 
L 248.891596 159.454025 
L 248.891596 158.534531 
L 251.11142 158.534531 
L 251.11142 158.074783 
L 254.699174 158.074783 
L 254.699174 156.695541 
L 256.40337 156.695541 
L 256.40337 156.235794 
L 258.629844 156.235794 
L 258.698606 153.937057 
L 260.047448 153.937057 
L 260.047448 153.47731 
L 262.253398 153.47731 
L 262.253398 152.098068 
L 263.751005 152.098068 
L 263.751005 150.259078 
L 270.291991 150.259078 
L 270.291991 149.799331 
L 272.565723 149.799331 
L 272.565723 149.339583 
L 272.730158 149.339583 
L 272.730158 147.500594 
L 273.102273 147.500594 
L 273.102273 146.581099 
L 273.411998 146.581099 
L 273.411998 145.661605 
L 275.595308 145.661605 
L 275.697532 143.362868 
L 276.070293 143.362868 
L 276.070293 142.903121 
L 278.447456 142.903121 
L 278.447456 142.443373 
L 280.406847 142.443373 
L 280.406847 141.983626 
L 281.286779 141.983626 
L 281.286779 141.064131 
L 282.400351 141.064131 
L 282.500863 139.225142 
L 285.250055 139.225142 
L 285.250055 138.305647 
L 288.522151 138.305647 
L 288.522151 137.386152 
L 290.267122 137.386152 
L 290.267122 136.926405 
L 290.407395 136.926405 
L 290.407395 136.466658 
L 290.990635 136.466658 
L 290.990635 136.00691 
L 293.608725 136.00691 
L 293.681764 134.167921 
L 294.673501 134.167921 
L 294.673501 133.708173 
L 294.837313 133.708173 
L 294.879804 132.788679 
L 296.54078 132.788679 
L 296.54078 132.328931 
L 297.878794 132.328931 
L 297.878794 130.949689 
L 298.35952 130.949689 
L 298.35952 130.489942 
L 299.081676 130.489942 
L 299.081676 130.030195 
L 299.203872 130.030195 
L 299.203872 129.570447 
L 299.854071 129.570447 
L 299.854071 129.1107 
L 300.719318 129.1107 
L 300.719318 128.191205 
L 304.69316 128.191205 
L 304.69316 127.27171 
L 305.724384 127.27171 
L 305.724384 126.811963 
L 306.282914 126.811963 
L 306.282914 126.352216 
L 307.234707 126.352216 
L 307.234707 125.892468 
L 308.234169 125.892468 
L 308.234169 125.432721 
L 308.65915 125.432721 
L 308.65915 124.972974 
L 309.167323 124.972974 
L 309.167323 124.513226 
L 310.437653 124.513226 
L 310.437653 124.053479 
L 311.941787 124.053479 
L 311.941787 123.593732 
L 312.756864 123.593732 
L 312.756864 123.133984 
L 313.774262 123.133984 
L 313.774262 122.674237 
L 318.192067 122.674237 
L 318.192067 121.754742 
L 320.23485 121.754742 
L 320.23485 120.835248 
L 321.583828 120.835248 
L 321.583828 119.915753 
L 322.199472 119.915753 
L 322.199472 119.456005 
L 323.612509 119.456005 
L 323.612509 118.996258 
L 325.160261 118.996258 
L 325.160261 118.536511 
L 326.109151 118.536511 
L 326.109151 118.076763 
L 326.433662 118.076763 
L 326.433662 117.617016 
L 327.64891 117.617016 
L 327.64891 117.157269 
L 330.978464 117.157269 
L 330.978464 116.697521 
L 332.232059 116.697521 
L 332.232059 116.237774 
L 333.569032 116.237774 
L 333.569032 116.237774 
" style="fill:none;stroke:#ff00ff;stroke-linecap:square;stroke-width:1.5;"/>
   </g>
   <g id="line2d_53">
    <defs>
     <path d="M -0 8.485281 
L 5.091169 0 
L 0 -8.485281 
L -5.091169 -0 
z
" id="mb0b0ca4e13" style="stroke:#ff00ff;stroke-linejoin:miter;stroke-width:1.5;"/>
    </defs>
    <g>
     <use style="fill:none;stroke:#ff00ff;stroke-linejoin:miter;stroke-width:1.5;" x="127.512506" xlink:href="#mb0b0ca4e13" y="243.128044"/>
     <use style="fill:none;stroke:#ff00ff;stroke-linejoin:miter;stroke-width:1.5;" x="185.574227" xlink:href="#mb0b0ca4e13" y="199.452045"/>
     <use style="fill:none;stroke:#ff00ff;stroke-linejoin:miter;stroke-width:1.5;" x="239.079218" xlink:href="#mb0b0ca4e13" y="163.132004"/>
     <use style="fill:none;stroke:#ff00ff;stroke-linejoin:miter;stroke-width:1.5;" x="311.941787" xlink:href="#mb0b0ca4e13" y="123.593732"/>
     <use style="fill:none;stroke:#ff00ff;stroke-linejoin:miter;stroke-width:1.5;" x="332.232059" xlink:href="#mb0b0ca4e13" y="116.237774"/>
     <use style="fill:none;stroke:#ff00ff;stroke-linejoin:miter;stroke-width:1.5;" x="333.569032" xlink:href="#mb0b0ca4e13" y="116.237774"/>
    </g>
   </g>
   <g id="line2d_54">
    <path style="fill:none;stroke:#ff00ff;stroke-linecap:square;stroke-width:1.5;"/>
    <g/>
   </g>
   <g id="line2d_55">
    <path clip-path="url(#p9fc52c41cc)" d="M 294.036313 134.167921 
" style="fill:none;stroke:#ff00ff;stroke-linecap:square;stroke-width:1.5;"/>
    <defs>
     <path d="M -12 12 
L 12 -12 
M -12 -12 
L 12 12 
" id="m5aa55f8e31" style="stroke:#ff00ff;stroke-width:3;"/>
    </defs>
    <g clip-path="url(#p9fc52c41cc)">
     <use style="fill:#ff00ff;stroke:#ff00ff;stroke-width:3;" x="294.036313" xlink:href="#m5aa55f8e31" y="134.167921"/>
    </g>
   </g>
   <g id="line2d_56">
    <defs>
     <path d="M 0 1.5 
C 0.397805 1.5 0.77937 1.341951 1.06066 1.06066 
C 1.341951 0.77937 1.5 0.397805 1.5 0 
C 1.5 -0.397805 1.341951 -0.77937 1.06066 -1.06066 
C 0.77937 -1.341951 0.397805 -1.5 0 -1.5 
C -0.397805 -1.5 -0.77937 -1.341951 -1.06066 -1.06066 
C -1.341951 -0.77937 -1.5 -0.397805 -1.5 0 
C -1.5 0.397805 -1.341951 0.77937 -1.06066 1.06066 
C -0.77937 1.341951 -0.397805 1.5 0 1.5 
z
" id="m6e63239687" style="stroke:#ffa500;"/>
    </defs>
    <g>
     <use style="fill:#ffa500;stroke:#ffa500;" x="209.478051" xlink:href="#m6e63239687" y="266.575159"/>
     <use style="fill:#ffa500;stroke:#ffa500;" x="209.478051" xlink:href="#m6e63239687" y="266.575159"/>
    </g>
   </g>
   <g id="line2d_57">
    <path d="M 37.9781 294.16 
L 37.9781 286.344295 
L 141.142462 286.344295 
L 141.142462 285.884548 
L 162.291668 285.884548 
L 162.291668 284.965053 
L 166.194019 284.965053 
L 166.194019 284.505306 
L 167.865113 284.505306 
L 167.865113 283.126064 
L 169.460995 283.126064 
L 169.460995 280.367579 
L 175.956756 280.367579 
L 175.956756 279.448085 
L 175.978952 279.448085 
L 175.978952 278.988337 
L 176.04537 278.988337 
L 176.04537 278.52859 
L 176.067452 278.52859 
L 176.067452 278.068843 
L 176.155497 278.068843 
L 176.155497 277.609095 
L 176.177438 277.609095 
L 176.177438 277.149348 
L 182.361327 277.149348 
L 182.361327 276.689601 
L 182.407152 276.689601 
L 182.407152 276.229853 
L 184.294071 276.229853 
L 184.294071 275.770106 
L 184.335023 275.770106 
L 184.335023 274.850611 
L 184.416633 274.850611 
L 184.416633 273.931116 
L 184.96416 273.931116 
L 184.96416 273.471369 
L 184.977298 273.471369 
L 184.977298 273.011622 
L 187.965227 273.011622 
L 187.965227 272.551874 
L 189.00884 272.551874 
L 189.00884 272.092127 
L 192.558833 272.092127 
L 192.558833 271.63238 
L 192.59258 271.63238 
L 192.59258 271.172632 
L 192.601007 271.172632 
L 192.601007 270.712885 
L 192.634671 270.712885 
L 192.634671 270.253138 
L 194.859328 270.253138 
L 194.859328 269.79339 
L 194.955079 269.79339 
L 194.955079 269.333643 
L 199.842294 269.333643 
L 199.842294 268.873896 
L 199.89746 268.873896 
L 199.89746 268.414148 
L 203.620008 268.414148 
L 203.620008 267.954401 
L 206.843673 267.954401 
L 206.843673 267.494653 
L 209.446499 267.494653 
L 209.446499 267.034906 
L 209.478051 267.034906 
L 209.478051 266.575159 
L 333.569032 266.575159 
" style="fill:none;stroke:#ffa500;stroke-linecap:square;stroke-width:1.5;"/>
   </g>
   <g id="line2d_58">
    <defs>
     <path d="M 0 -6 
L -1.347084 -1.854102 
L -5.706339 -1.854102 
L -2.179628 0.708204 
L -3.526712 4.854102 
L -0 2.291796 
L 3.526712 4.854102 
L 2.179628 0.708204 
L 5.706339 -1.854102 
L 1.347084 -1.854102 
z
" id="mf5d929c97b" style="stroke:#ffa500;stroke-linejoin:bevel;stroke-width:1.5;"/>
    </defs>
    <g>
     <use style="fill:none;stroke:#ffa500;stroke-linejoin:bevel;stroke-width:1.5;" x="169.460995" xlink:href="#mf5d929c97b" y="283.126064"/>
     <use style="fill:none;stroke:#ffa500;stroke-linejoin:bevel;stroke-width:1.5;" x="209.478051" xlink:href="#mf5d929c97b" y="267.034906"/>
     <use style="fill:none;stroke:#ffa500;stroke-linejoin:bevel;stroke-width:1.5;" x="209.478051" xlink:href="#mf5d929c97b" y="266.575159"/>
     <use style="fill:none;stroke:#ffa500;stroke-linejoin:bevel;stroke-width:1.5;" x="209.478051" xlink:href="#mf5d929c97b" y="266.575159"/>
     <use style="fill:none;stroke:#ffa500;stroke-linejoin:bevel;stroke-width:1.5;" x="333.569032" xlink:href="#mf5d929c97b" y="266.575159"/>
    </g>
   </g>
   <g id="line2d_59">
    <path style="fill:none;stroke:#ffa500;stroke-linecap:square;stroke-width:1.5;"/>
    <g/>
   </g>
   <g id="line2d_60">
    <path clip-path="url(#p9fc52c41cc)" d="M 176.039845 278.988337 
" style="fill:none;stroke:#ffa500;stroke-linecap:square;stroke-width:1.5;"/>
    <defs>
     <path d="M -12 12 
L 12 -12 
M -12 -12 
L 12 12 
" id="m0856144fde" style="stroke:#ffa500;stroke-width:3;"/>
    </defs>
    <g clip-path="url(#p9fc52c41cc)">
     <use style="fill:#ffa500;stroke:#ffa500;stroke-width:3;" x="176.039845" xlink:href="#m0856144fde" y="278.988337"/>
    </g>
   </g>
   <g id="line2d_61">
    <defs>
     <path d="M 0 1.5 
C 0.397805 1.5 0.77937 1.341951 1.06066 1.06066 
C 1.341951 0.77937 1.5 0.397805 1.5 0 
C 1.5 -0.397805 1.341951 -0.77937 1.06066 -1.06066 
C 0.77937 -1.341951 0.397805 -1.5 0 -1.5 
C -0.397805 -1.5 -0.77937 -1.341951 -1.06066 -1.06066 
C -1.341951 -0.77937 -1.5 -0.397805 -1.5 0 
C -1.5 0.397805 -1.341951 0.77937 -1.06066 1.06066 
C -0.77937 1.341951 -0.397805 1.5 0 1.5 
z
" id="m47d0edb1cb" style="stroke:#6495ed;"/>
    </defs>
    <g>
     <use style="fill:#6495ed;stroke:#6495ed;" x="245.08205" xlink:href="#m47d0edb1cb" y="124.053479"/>
     <use style="fill:#6495ed;stroke:#6495ed;" x="245.08205" xlink:href="#m47d0edb1cb" y="124.053479"/>
    </g>
   </g>
   <g id="line2d_62">
    <path d="M 37.9781 294.16 
L 37.9781 288.643032 
L 56.84 288.643032 
L 56.84 288.183284 
L 61.779168 288.183284 
L 61.779168 287.723537 
L 65.610284 287.723537 
L 65.610284 287.26379 
L 71.387123 287.26379 
L 71.387123 286.344295 
L 73.679702 286.344295 
L 73.679702 285.4248 
L 75.7019 285.4248 
L 75.7019 282.666316 
L 79.147184 282.666316 
L 79.147184 281.287074 
L 83.287657 281.287074 
L 83.287657 280.827327 
L 88.530706 280.827327 
L 88.530706 278.988337 
L 89.411353 278.988337 
L 89.411353 276.689601 
L 92.541603 276.689601 
L 92.541603 276.229853 
L 93.915843 276.229853 
L 93.915843 274.390864 
L 94.563801 274.390864 
L 94.563801 273.011622 
L 95.188191 273.011622 
L 95.188191 268.873896 
L 95.790669 268.873896 
L 95.790669 267.954401 
L 96.935682 267.954401 
L 96.935682 267.034906 
L 104.080674 267.034906 
L 104.080674 266.115411 
L 106.779369 266.115411 
L 106.779369 262.437433 
L 111.403503 262.437433 
L 111.403503 257.839959 
L 111.873912 257.839959 
L 111.873912 256.00097 
L 113.212421 256.00097 
L 113.212421 253.242485 
L 114.253276 253.242485 
L 114.253276 252.782738 
L 114.652569 252.782738 
L 114.652569 252.322991 
L 118.043947 252.322991 
L 118.043947 251.863243 
L 120.173787 251.863243 
L 120.173787 250.943749 
L 121.415449 250.943749 
L 121.415449 250.484001 
L 122.068336 250.484001 
L 122.068336 250.024254 
L 123.304037 250.024254 
L 123.304037 248.645012 
L 123.422853 248.645012 
L 123.422853 247.725517 
L 123.890061 247.725517 
L 123.890061 246.346275 
L 124.004904 246.346275 
L 124.004904 245.886528 
L 125.848125 245.886528 
L 125.848125 243.128044 
L 126.15381 243.128044 
L 126.254507 241.289054 
L 126.454147 241.289054 
L 126.454147 239.450065 
L 128.063425 239.450065 
L 128.063425 238.990318 
L 128.684588 238.990318 
L 128.684588 237.611075 
L 131.566116 237.611075 
L 131.566116 237.151328 
L 131.858358 237.151328 
L 131.858358 236.691581 
L 132.911992 236.691581 
L 132.911992 234.852591 
L 133.64553 234.852591 
L 133.64553 234.392844 
L 134.09652 234.392844 
L 134.09652 233.473349 
L 134.72091 233.473349 
L 134.72091 232.553855 
L 135.732885 232.553855 
L 135.732885 231.174612 
L 136.132843 231.174612 
L 136.132843 230.714865 
L 136.245426 230.714865 
L 136.245426 227.036886 
L 139.598651 227.036886 
L 139.598651 225.657644 
L 140.541491 225.657644 
L 140.541491 224.73815 
L 141.804475 224.73815 
L 141.804475 221.979665 
L 142.674971 221.979665 
L 142.674971 221.519918 
L 142.828609 221.519918 
L 142.828609 221.060171 
L 143.244156 221.060171 
L 143.244156 218.761434 
L 143.355764 218.761434 
L 143.355764 218.301687 
L 144.046244 218.301687 
L 144.046244 217.841939 
L 144.46845 217.841939 
L 144.46845 216.462697 
L 144.778427 216.462697 
L 144.778427 215.083455 
L 145.01571 215.083455 
L 145.01571 214.16396 
L 145.546064 214.16396 
L 145.546064 213.244466 
L 145.708495 213.244466 
L 145.708495 212.324971 
L 146.155293 212.324971 
L 146.155293 211.405476 
L 147.223922 211.405476 
L 147.223922 210.026234 
L 148.752307 210.026234 
L 148.833355 208.646992 
L 149.285543 208.646992 
L 149.285543 207.727497 
L 149.546077 207.727497 
L 149.546077 207.26775 
L 149.726126 207.26775 
L 149.726126 206.348255 
L 150.180622 206.348255 
L 150.255215 203.589771 
L 150.452561 203.589771 
L 150.452561 203.130024 
L 150.696094 203.130024 
L 150.696094 202.210529 
L 150.816578 202.210529 
L 150.816578 201.291034 
L 150.983847 201.291034 
L 150.983847 200.831287 
L 151.887069 200.831287 
L 151.909615 199.911792 
L 152.088926 199.911792 
L 152.088926 198.992298 
L 152.222191 198.992298 
L 152.310463 196.693561 
L 152.398283 196.693561 
L 152.398283 196.233814 
L 152.572587 196.233814 
L 152.572587 195.314319 
L 153.085128 195.314319 
L 153.085128 193.935077 
L 153.459736 193.935077 
L 153.459736 193.475329 
L 153.603237 193.475329 
L 153.603237 192.555835 
L 154.026683 192.555835 
L 154.086332 191.63634 
L 154.420481 191.63634 
L 154.420481 190.716845 
L 154.556204 190.716845 
L 154.556204 189.337603 
L 154.824473 189.337603 
L 154.824473 188.418109 
L 155.107326 188.418109 
L 155.107326 187.958361 
L 155.42236 187.958361 
L 155.42236 187.038867 
L 156.176761 187.038867 
L 156.246909 186.119372 
L 157.833882 186.119372 
L 157.897588 184.280382 
L 158.750392 184.280382 
L 158.810793 181.062151 
L 159.079996 181.062151 
L 159.079996 180.602404 
L 160.088523 180.602404 
L 160.088523 179.682909 
L 160.255618 179.682909 
L 160.324764 176.924425 
L 161.498247 176.924425 
L 161.498247 176.464677 
L 161.968655 176.464677 
L 161.968655 175.085435 
L 162.499629 175.085435 
L 162.499629 174.165941 
L 162.777038 174.165941 
L 162.777038 173.706193 
L 162.931875 173.706193 
L 162.931875 172.786699 
L 163.787603 172.786699 
L 163.787603 171.867204 
L 163.911242 171.867204 
L 164.011743 170.028214 
L 164.720624 170.028214 
L 164.720624 169.568467 
L 164.94353 169.568467 
L 164.94353 169.10872 
L 165.153165 169.10872 
L 165.153165 168.189225 
L 166.066076 168.189225 
L 166.066076 167.729478 
L 166.330745 167.729478 
L 166.330745 167.26973 
L 166.791424 167.26973 
L 166.791424 166.809983 
L 167.578062 166.809983 
L 167.578062 164.051499 
L 169.396023 164.051499 
L 169.396023 163.591751 
L 170.74897 163.591751 
L 170.74897 162.672257 
L 170.913624 162.672257 
L 170.913624 161.752762 
L 171.391077 161.752762 
L 171.391077 160.833267 
L 173.862918 160.833267 
L 173.894254 159.454025 
L 176.155497 159.454025 
L 176.155497 158.994278 
L 176.449361 158.994278 
L 176.449361 158.074783 
L 176.996304 158.074783 
L 176.996304 156.695541 
L 178.880318 156.695541 
L 178.880318 156.235794 
L 181.050699 156.235794 
L 181.050699 155.776046 
L 182.300037 155.776046 
L 182.300037 155.316299 
L 190.182807 155.316299 
L 190.182807 154.856552 
L 190.864945 154.856552 
L 190.864945 153.937057 
L 192.433814 153.937057 
L 192.433814 153.017562 
L 198.585984 153.017562 
L 198.585984 152.557815 
L 198.826545 152.557815 
L 198.826545 152.098068 
L 198.963756 152.098068 
L 198.963756 151.63832 
L 199.201986 151.63832 
L 199.286375 150.259078 
L 199.441197 150.259078 
L 199.441197 149.799331 
L 200.003157 149.799331 
L 200.003157 149.339583 
L 200.129955 149.339583 
L 200.162526 148.420089 
L 200.312367 148.420089 
L 200.341911 147.500594 
L 202.123301 147.500594 
L 202.123301 147.040847 
L 202.561546 147.040847 
L 202.561546 146.581099 
L 203.125194 146.581099 
L 203.125194 146.121352 
L 206.192005 146.121352 
L 206.192005 145.661605 
L 206.476873 145.661605 
L 206.476873 145.201857 
L 209.899188 145.201857 
L 209.899188 144.74211 
L 210.288455 144.74211 
L 210.288455 144.282363 
L 210.435912 144.282363 
L 210.518442 143.362868 
L 210.674238 143.362868 
L 210.674238 142.903121 
L 210.861382 142.903121 
L 210.889714 141.983626 
L 211.534365 141.983626 
L 211.534365 141.523878 
L 211.797994 141.523878 
L 211.905744 140.144636 
L 214.308715 140.144636 
L 214.331302 139.225142 
L 216.938556 139.225142 
L 216.938556 138.765394 
L 217.075287 138.765394 
L 217.175238 137.386152 
L 217.371919 137.386152 
L 217.392309 136.466658 
L 217.821294 136.466658 
L 217.821294 136.00691 
L 218.014107 136.00691 
L 218.014107 135.547163 
L 218.262515 135.547163 
L 218.262987 134.627668 
L 218.509242 134.627668 
L 218.509242 134.167921 
L 221.002126 134.167921 
L 221.002126 133.708173 
L 221.915064 133.708173 
L 221.915064 133.248426 
L 222.108365 133.248426 
L 222.108365 132.788679 
L 222.26325 132.788679 
L 222.26325 132.328931 
L 222.626148 132.328931 
L 222.6397 131.409437 
L 222.769912 131.409437 
L 222.769912 130.949689 
L 225.754199 130.949689 
L 225.754199 130.489942 
L 226.061402 130.489942 
L 226.061402 130.030195 
L 226.330161 130.030195 
L 226.330161 129.570447 
L 229.192901 129.570447 
L 229.192901 129.1107 
L 230.776536 129.1107 
L 230.776536 128.650953 
L 231.789748 128.650953 
L 231.789748 128.191205 
L 233.096104 128.191205 
L 233.096104 127.731458 
L 233.980175 127.731458 
L 233.980175 127.27171 
L 235.861925 127.27171 
L 235.932631 126.352216 
L 236.011617 126.352216 
L 236.011617 125.892468 
L 240.784474 125.892468 
L 240.784474 125.432721 
L 241.140862 125.432721 
L 241.140862 124.972974 
L 243.255291 124.972974 
L 243.255291 124.513226 
L 245.08205 124.513226 
L 245.08205 124.053479 
L 333.569032 124.053479 
L 333.569032 124.053479 
" style="fill:none;stroke:#6495ed;stroke-linecap:square;stroke-width:1.5;"/>
   </g>
   <g id="line2d_63">
    <defs>
     <path d="M -0 6 
L 6 -6 
L -6 -6 
z
" id="m93b166e317" style="stroke:#6495ed;stroke-linejoin:miter;stroke-width:1.5;"/>
    </defs>
    <g>
     <use style="fill:none;stroke:#6495ed;stroke-linejoin:miter;stroke-width:1.5;" x="114.652569" xlink:href="#m93b166e317" y="252.782738"/>
     <use style="fill:none;stroke:#6495ed;stroke-linejoin:miter;stroke-width:1.5;" x="162.931875" xlink:href="#m93b166e317" y="173.706193"/>
     <use style="fill:none;stroke:#6495ed;stroke-linejoin:miter;stroke-width:1.5;" x="221.002126" xlink:href="#m93b166e317" y="133.708173"/>
     <use style="fill:none;stroke:#6495ed;stroke-linejoin:miter;stroke-width:1.5;" x="245.08205" xlink:href="#m93b166e317" y="124.053479"/>
     <use style="fill:none;stroke:#6495ed;stroke-linejoin:miter;stroke-width:1.5;" x="245.08205" xlink:href="#m93b166e317" y="124.053479"/>
     <use style="fill:none;stroke:#6495ed;stroke-linejoin:miter;stroke-width:1.5;" x="333.569032" xlink:href="#m93b166e317" y="124.053479"/>
    </g>
   </g>
   <g id="line2d_64">
    <path style="fill:none;stroke:#6495ed;stroke-linecap:square;stroke-width:1.5;"/>
    <g/>
   </g>
   <g id="line2d_65">
    <path clip-path="url(#p9fc52c41cc)" d="M 197.582245 153.017562 
" style="fill:none;stroke:#6495ed;stroke-linecap:square;stroke-width:1.5;"/>
    <defs>
     <path d="M -12 12 
L 12 -12 
M -12 -12 
L 12 12 
" id="mf0e2d30089" style="stroke:#6495ed;stroke-width:3;"/>
    </defs>
    <g clip-path="url(#p9fc52c41cc)">
     <use style="fill:#6495ed;stroke:#6495ed;stroke-width:3;" x="197.582245" xlink:href="#mf0e2d30089" y="153.017562"/>
    </g>
   </g>
   <g id="line2d_66">
    <path d="M 333.569032 266.575159 
L 364.009226 288.826931 
" style="fill:none;stroke:#ffa500;stroke-linecap:square;stroke-width:1.5;"/>
    <g>
     <use style="fill:none;stroke:#ffa500;stroke-linejoin:bevel;stroke-width:1.5;" x="333.569032" xlink:href="#mf5d929c97b" y="266.575159"/>
     <use style="fill:none;stroke:#ffa500;stroke-linejoin:bevel;stroke-width:1.5;" x="364.009226" xlink:href="#mf5d929c97b" y="288.826931"/>
    </g>
   </g>
   <g id="line2d_67">
    <path d="M 333.569032 124.053479 
L 364.009226 224.830099 
" style="fill:none;stroke:#6495ed;stroke-linecap:square;stroke-width:1.5;"/>
    <g>
     <use style="fill:none;stroke:#6495ed;stroke-linejoin:miter;stroke-width:1.5;" x="333.569032" xlink:href="#m93b166e317" y="124.053479"/>
     <use style="fill:none;stroke:#6495ed;stroke-linejoin:miter;stroke-width:1.5;" x="364.009226" xlink:href="#m93b166e317" y="224.830099"/>
    </g>
   </g>
   <g id="line2d_68">
    <path d="M 333.569032 116.237774 
L 364.009226 160.833267 
" style="fill:none;stroke:#ff00ff;stroke-linecap:square;stroke-width:1.5;"/>
    <g>
     <use style="fill:none;stroke:#ff00ff;stroke-linejoin:miter;stroke-width:1.5;" x="333.569032" xlink:href="#mb0b0ca4e13" y="116.237774"/>
     <use style="fill:none;stroke:#ff00ff;stroke-linejoin:miter;stroke-width:1.5;" x="364.009226" xlink:href="#mb0b0ca4e13" y="160.833267"/>
    </g>
   </g>
   <g id="line2d_69">
    <path d="M 333.569032 64.286323 
L 364.009226 96.836436 
" style="fill:none;stroke:#000080;stroke-linecap:square;stroke-width:1.5;"/>
    <g>
     <use style="fill:none;stroke:#000080;stroke-width:1.5;" x="333.569032" xlink:href="#md0b803f95a" y="64.286323"/>
     <use style="fill:none;stroke:#000080;stroke-width:1.5;" x="364.009226" xlink:href="#md0b803f95a" y="96.836436"/>
    </g>
   </g>
   <g id="line2d_70">
    <path d="M 333.569032 294.16 
L 333.569032 27.506535 
" style="fill:none;stroke:#000000;stroke-linecap:square;stroke-width:1.5;"/>
   </g>
   <g id="patch_3">
    <path d="M 56.84 294.16 
L 56.84 24.84 
" style="fill:none;stroke:#000000;stroke-linecap:square;stroke-linejoin:miter;stroke-width:0.8;"/>
   </g>
   <g id="patch_4">
    <path d="M 399.984 294.16 
L 399.984 24.84 
" style="fill:none;stroke:#000000;stroke-linecap:square;stroke-linejoin:miter;stroke-width:0.8;"/>
   </g>
   <g id="patch_5">
    <path d="M 56.84 294.16 
L 399.984 294.16 
" style="fill:none;stroke:#000000;stroke-linecap:square;stroke-linejoin:miter;stroke-width:0.8;"/>
   </g>
   <g id="patch_6">
    <path d="M 56.84 24.84 
L 399.984 24.84 
" style="fill:none;stroke:#000000;stroke-linecap:square;stroke-linejoin:miter;stroke-width:0.8;"/>
   </g>
   <g id="text_14">
    <!-- adaptiveH -->
    <defs>
     <path d="M 9.8125 72.90625 
L 19.671875 72.90625 
L 19.671875 43.015625 
L 55.515625 43.015625 
L 55.515625 72.90625 
L 65.375 72.90625 
L 65.375 0 
L 55.515625 0 
L 55.515625 34.71875 
L 19.671875 34.71875 
L 19.671875 0 
L 9.8125 0 
z
" id="DejaVuSans-48"/>
    </defs>
    <g transform="translate(369.543806 293.517868)scale(0.17 -0.17)">
     <use xlink:href="#DejaVuSans-61"/>
     <use x="61.279297" xlink:href="#DejaVuSans-64"/>
     <use x="124.755859" xlink:href="#DejaVuSans-61"/>
     <use x="186.035156" xlink:href="#DejaVuSans-70"/>
     <use x="249.511719" xlink:href="#DejaVuSans-74"/>
     <use x="288.720703" xlink:href="#DejaVuSans-69"/>
     <use x="316.503906" xlink:href="#DejaVuSans-76"/>
     <use x="375.683594" xlink:href="#DejaVuSans-65"/>
     <use x="437.207031" xlink:href="#DejaVuSans-48"/>
    </g>
   </g>
   <g id="text_15">
    <!-- final  bu -->
    <defs>
     <path d="M 48.6875 27.296875 
Q 48.6875 37.203125 44.609375 42.84375 
Q 40.53125 48.484375 33.40625 48.484375 
Q 26.265625 48.484375 22.1875 42.84375 
Q 18.109375 37.203125 18.109375 27.296875 
Q 18.109375 17.390625 22.1875 11.75 
Q 26.265625 6.109375 33.40625 6.109375 
Q 40.53125 6.109375 44.609375 11.75 
Q 48.6875 17.390625 48.6875 27.296875 
M 18.109375 46.390625 
Q 20.953125 51.265625 25.265625 53.625 
Q 29.59375 56 35.59375 56 
Q 45.5625 56 51.78125 48.09375 
Q 58.015625 40.1875 58.015625 27.296875 
Q 58.015625 14.40625 51.78125 6.484375 
Q 45.5625 -1.421875 35.59375 -1.421875 
Q 29.59375 -1.421875 25.265625 0.953125 
Q 20.953125 3.328125 18.109375 8.203125 
L 18.109375 0 
L 9.078125 0 
L 9.078125 75.984375 
L 18.109375 75.984375 
z
" id="DejaVuSans-62"/>
    </defs>
    <g transform="translate(369.543806 229.521037)scale(0.17 -0.17)">
     <use xlink:href="#DejaVuSans-66"/>
     <use x="35.205078" xlink:href="#DejaVuSans-69"/>
     <use x="62.988281" xlink:href="#DejaVuSans-6e"/>
     <use x="126.367188" xlink:href="#DejaVuSans-61"/>
     <use x="187.646484" xlink:href="#DejaVuSans-6c"/>
     <use x="215.429688" xlink:href="#DejaVuSans-20"/>
     <use x="247.216797" xlink:href="#DejaVuSans-20"/>
     <use x="279.003906" xlink:href="#DejaVuSans-62"/>
     <use x="342.480469" xlink:href="#DejaVuSans-75"/>
    </g>
   </g>
   <g id="text_16">
    <!-- RANDOMSEA -->
    <defs>
     <path d="M 44.390625 34.1875 
Q 47.5625 33.109375 50.5625 29.59375 
Q 53.5625 26.078125 56.59375 19.921875 
L 66.609375 0 
L 56 0 
L 46.6875 18.703125 
Q 43.0625 26.03125 39.671875 28.421875 
Q 36.28125 30.8125 30.421875 30.8125 
L 19.671875 30.8125 
L 19.671875 0 
L 9.8125 0 
L 9.8125 72.90625 
L 32.078125 72.90625 
Q 44.578125 72.90625 50.734375 67.671875 
Q 56.890625 62.453125 56.890625 51.90625 
Q 56.890625 45.015625 53.6875 40.46875 
Q 50.484375 35.9375 44.390625 34.1875 
M 19.671875 64.796875 
L 19.671875 38.921875 
L 32.078125 38.921875 
Q 39.203125 38.921875 42.84375 42.21875 
Q 46.484375 45.515625 46.484375 51.90625 
Q 46.484375 58.296875 42.84375 61.546875 
Q 39.203125 64.796875 32.078125 64.796875 
z
" id="DejaVuSans-52"/>
     <path d="M 34.1875 63.1875 
L 20.796875 26.90625 
L 47.609375 26.90625 
z
M 28.609375 72.90625 
L 39.796875 72.90625 
L 67.578125 0 
L 57.328125 0 
L 50.6875 18.703125 
L 17.828125 18.703125 
L 11.1875 0 
L 0.78125 0 
z
" id="DejaVuSans-41"/>
     <path d="M 9.8125 72.90625 
L 23.09375 72.90625 
L 55.421875 11.921875 
L 55.421875 72.90625 
L 64.984375 72.90625 
L 64.984375 0 
L 51.703125 0 
L 19.390625 60.984375 
L 19.390625 0 
L 9.8125 0 
z
" id="DejaVuSans-4e"/>
     <path d="M 19.671875 64.796875 
L 19.671875 8.109375 
L 31.59375 8.109375 
Q 46.6875 8.109375 53.6875 14.9375 
Q 60.6875 21.78125 60.6875 36.53125 
Q 60.6875 51.171875 53.6875 57.984375 
Q 46.6875 64.796875 31.59375 64.796875 
z
M 9.8125 72.90625 
L 30.078125 72.90625 
Q 51.265625 72.90625 61.171875 64.09375 
Q 71.09375 55.28125 71.09375 36.53125 
Q 71.09375 17.671875 61.125 8.828125 
Q 51.171875 0 30.078125 0 
L 9.8125 0 
z
" id="DejaVuSans-44"/>
     <path d="M 39.40625 66.21875 
Q 28.65625 66.21875 22.328125 58.203125 
Q 16.015625 50.203125 16.015625 36.375 
Q 16.015625 22.609375 22.328125 14.59375 
Q 28.65625 6.59375 39.40625 6.59375 
Q 50.140625 6.59375 56.421875 14.59375 
Q 62.703125 22.609375 62.703125 36.375 
Q 62.703125 50.203125 56.421875 58.203125 
Q 50.140625 66.21875 39.40625 66.21875 
M 39.40625 74.21875 
Q 54.734375 74.21875 63.90625 63.9375 
Q 73.09375 53.65625 73.09375 36.375 
Q 73.09375 19.140625 63.90625 8.859375 
Q 54.734375 -1.421875 39.40625 -1.421875 
Q 24.03125 -1.421875 14.8125 8.828125 
Q 5.609375 19.09375 5.609375 36.375 
Q 5.609375 53.65625 14.8125 63.9375 
Q 24.03125 74.21875 39.40625 74.21875 
" id="DejaVuSans-4f"/>
     <path d="M 9.8125 72.90625 
L 24.515625 72.90625 
L 43.109375 23.296875 
L 61.8125 72.90625 
L 76.515625 72.90625 
L 76.515625 0 
L 66.890625 0 
L 66.890625 64.015625 
L 48.09375 14.015625 
L 38.1875 14.015625 
L 19.390625 64.015625 
L 19.390625 0 
L 9.8125 0 
z
" id="DejaVuSans-4d"/>
     <path d="M 53.515625 70.515625 
L 53.515625 60.890625 
Q 47.90625 63.578125 42.921875 64.890625 
Q 37.9375 66.21875 33.296875 66.21875 
Q 25.25 66.21875 20.875 63.09375 
Q 16.5 59.96875 16.5 54.203125 
Q 16.5 49.359375 19.40625 46.890625 
Q 22.3125 44.4375 30.421875 42.921875 
L 36.375 41.703125 
Q 47.40625 39.59375 52.65625 34.296875 
Q 57.90625 29 57.90625 20.125 
Q 57.90625 9.515625 50.796875 4.046875 
Q 43.703125 -1.421875 29.984375 -1.421875 
Q 24.8125 -1.421875 18.96875 -0.25 
Q 13.140625 0.921875 6.890625 3.21875 
L 6.890625 13.375 
Q 12.890625 10.015625 18.65625 8.296875 
Q 24.421875 6.59375 29.984375 6.59375 
Q 38.421875 6.59375 43.015625 9.90625 
Q 47.609375 13.234375 47.609375 19.390625 
Q 47.609375 24.75 44.3125 27.78125 
Q 41.015625 30.8125 33.5 32.328125 
L 27.484375 33.5 
Q 16.453125 35.6875 11.515625 40.375 
Q 6.59375 45.0625 6.59375 53.421875 
Q 6.59375 63.09375 13.40625 68.65625 
Q 20.21875 74.21875 32.171875 74.21875 
Q 37.3125 74.21875 42.625 73.28125 
Q 47.953125 72.359375 53.515625 70.515625 
" id="DejaVuSans-53"/>
     <path d="M 9.8125 72.90625 
L 55.90625 72.90625 
L 55.90625 64.59375 
L 19.671875 64.59375 
L 19.671875 43.015625 
L 54.390625 43.015625 
L 54.390625 34.71875 
L 19.671875 34.71875 
L 19.671875 8.296875 
L 56.78125 8.296875 
L 56.78125 0 
L 9.8125 0 
z
" id="DejaVuSans-45"/>
    </defs>
    <g transform="translate(369.543806 165.524205)scale(0.17 -0.17)">
     <use xlink:href="#DejaVuSans-52"/>
     <use x="69.419922" xlink:href="#DejaVuSans-41"/>
     <use x="137.828125" xlink:href="#DejaVuSans-4e"/>
     <use x="212.632812" xlink:href="#DejaVuSans-44"/>
     <use x="289.634766" xlink:href="#DejaVuSans-4f"/>
     <use x="368.345703" xlink:href="#DejaVuSans-4d"/>
     <use x="454.625" xlink:href="#DejaVuSans-53"/>
     <use x="518.101562" xlink:href="#DejaVuSans-45"/>
     <use x="581.285156" xlink:href="#DejaVuSans-41"/>
    </g>
   </g>
   <g id="text_17">
    <!-- NSGA-II-M -->
    <defs>
     <path d="M 59.515625 10.40625 
L 59.515625 29.984375 
L 43.40625 29.984375 
L 43.40625 38.09375 
L 69.28125 38.09375 
L 69.28125 6.78125 
Q 63.578125 2.734375 56.6875 0.65625 
Q 49.8125 -1.421875 42 -1.421875 
Q 24.90625 -1.421875 15.25 8.5625 
Q 5.609375 18.5625 5.609375 36.375 
Q 5.609375 54.25 15.25 64.234375 
Q 24.90625 74.21875 42 74.21875 
Q 49.125 74.21875 55.546875 72.453125 
Q 61.96875 70.703125 67.390625 67.28125 
L 67.390625 56.78125 
Q 61.921875 61.421875 55.765625 63.765625 
Q 49.609375 66.109375 42.828125 66.109375 
Q 29.4375 66.109375 22.71875 58.640625 
Q 16.015625 51.171875 16.015625 36.375 
Q 16.015625 21.625 22.71875 14.15625 
Q 29.4375 6.6875 42.828125 6.6875 
Q 48.046875 6.6875 52.140625 7.59375 
Q 56.25 8.5 59.515625 10.40625 
" id="DejaVuSans-47"/>
     <path d="M 9.8125 72.90625 
L 19.671875 72.90625 
L 19.671875 0 
L 9.8125 0 
z
" id="DejaVuSans-49"/>
    </defs>
    <g transform="translate(369.543806 101.527373)scale(0.17 -0.17)">
     <use xlink:href="#DejaVuSans-4e"/>
     <use x="74.804688" xlink:href="#DejaVuSans-53"/>
     <use x="138.28125" xlink:href="#DejaVuSans-47"/>
     <use x="215.771484" xlink:href="#DejaVuSans-41"/>
     <use x="284.148438" xlink:href="#DejaVuSans-2d"/>
     <use x="320.232422" xlink:href="#DejaVuSans-49"/>
     <use x="349.724609" xlink:href="#DejaVuSans-49"/>
     <use x="379.216797" xlink:href="#DejaVuSans-2d"/>
     <use x="415.300781" xlink:href="#DejaVuSans-4d"/>
    </g>
   </g>
   <g id="text_18">
    <!-- best 2016 -->
    <g transform="translate(369.543806 37.530541)scale(0.17 -0.17)">
     <use xlink:href="#DejaVuSans-62"/>
     <use x="63.476562" xlink:href="#DejaVuSans-65"/>
     <use x="125" xlink:href="#DejaVuSans-73"/>
     <use x="177.099609" xlink:href="#DejaVuSans-74"/>
     <use x="216.308594" xlink:href="#DejaVuSans-20"/>
     <use x="248.095703" xlink:href="#DejaVuSans-32"/>
     <use x="311.71875" xlink:href="#DejaVuSans-30"/>
     <use x="375.341797" xlink:href="#DejaVuSans-31"/>
     <use x="438.964844" xlink:href="#DejaVuSans-36"/>
    </g>
   </g>
   <g id="text_19">
    <!-- bbob-biobj f28, 3-D -->
    <defs>
     <path d="M 9.421875 54.6875 
L 18.40625 54.6875 
L 18.40625 -0.984375 
Q 18.40625 -11.421875 14.421875 -16.109375 
Q 10.453125 -20.796875 1.609375 -20.796875 
L -1.8125 -20.796875 
L -1.8125 -13.1875 
L 0.59375 -13.1875 
Q 5.71875 -13.1875 7.5625 -10.8125 
Q 9.421875 -8.453125 9.421875 -0.984375 
z
M 9.421875 75.984375 
L 18.40625 75.984375 
L 18.40625 64.59375 
L 9.421875 64.59375 
z
" id="DejaVuSans-6a"/>
     <path d="M 40.578125 39.3125 
Q 47.65625 37.796875 51.625 33 
Q 55.609375 28.21875 55.609375 21.1875 
Q 55.609375 10.40625 48.1875 4.484375 
Q 40.765625 -1.421875 27.09375 -1.421875 
Q 22.515625 -1.421875 17.65625 -0.515625 
Q 12.796875 0.390625 7.625 2.203125 
L 7.625 11.71875 
Q 11.71875 9.328125 16.59375 8.109375 
Q 21.484375 6.890625 26.8125 6.890625 
Q 36.078125 6.890625 40.9375 10.546875 
Q 45.796875 14.203125 45.796875 21.1875 
Q 45.796875 27.640625 41.28125 31.265625 
Q 36.765625 34.90625 28.71875 34.90625 
L 20.21875 34.90625 
L 20.21875 43.015625 
L 29.109375 43.015625 
Q 36.375 43.015625 40.234375 45.921875 
Q 44.09375 48.828125 44.09375 54.296875 
Q 44.09375 59.90625 40.109375 62.90625 
Q 36.140625 65.921875 28.71875 65.921875 
Q 24.65625 65.921875 20.015625 65.03125 
Q 15.375 64.15625 9.8125 62.3125 
L 9.8125 71.09375 
Q 15.4375 72.65625 20.34375 73.4375 
Q 25.25 74.21875 29.59375 74.21875 
Q 40.828125 74.21875 47.359375 69.109375 
Q 53.90625 64.015625 53.90625 55.328125 
Q 53.90625 49.265625 50.4375 45.09375 
Q 46.96875 40.921875 40.578125 39.3125 
" id="DejaVuSans-33"/>
    </defs>
    <g transform="translate(60.27144 35.283606)scale(0.102 -0.102)">
     <use xlink:href="#DejaVuSans-62"/>
     <use x="63.476562" xlink:href="#DejaVuSans-62"/>
     <use x="126.953125" xlink:href="#DejaVuSans-6f"/>
     <use x="188.134766" xlink:href="#DejaVuSans-62"/>
     <use x="251.611328" xlink:href="#DejaVuSans-2d"/>
     <use x="287.695312" xlink:href="#DejaVuSans-62"/>
     <use x="351.171875" xlink:href="#DejaVuSans-69"/>
     <use x="378.955078" xlink:href="#DejaVuSans-6f"/>
     <use x="440.136719" xlink:href="#DejaVuSans-62"/>
     <use x="503.613281" xlink:href="#DejaVuSans-6a"/>
     <use x="531.396484" xlink:href="#DejaVuSans-20"/>
     <use x="563.183594" xlink:href="#DejaVuSans-66"/>
     <use x="598.388672" xlink:href="#DejaVuSans-32"/>
     <use x="662.011719" xlink:href="#DejaVuSans-38"/>
     <use x="725.634766" xlink:href="#DejaVuSans-2c"/>
     <use x="757.421875" xlink:href="#DejaVuSans-20"/>
     <use x="789.208984" xlink:href="#DejaVuSans-33"/>
     <use x="852.832031" xlink:href="#DejaVuSans-2d"/>
     <use x="888.916016" xlink:href="#DejaVuSans-44"/>
    </g>
    <!-- 58 targets: 1..-1.0e-4 -->
    <defs>
     <path d="M 10.796875 72.90625 
L 49.515625 72.90625 
L 49.515625 64.59375 
L 19.828125 64.59375 
L 19.828125 46.734375 
Q 21.96875 47.46875 24.109375 47.828125 
Q 26.265625 48.1875 28.421875 48.1875 
Q 40.625 48.1875 47.75 41.5 
Q 54.890625 34.8125 54.890625 23.390625 
Q 54.890625 11.625 47.5625 5.09375 
Q 40.234375 -1.421875 26.90625 -1.421875 
Q 22.3125 -1.421875 17.546875 -0.640625 
Q 12.796875 0.140625 7.71875 1.703125 
L 7.71875 11.625 
Q 12.109375 9.234375 16.796875 8.0625 
Q 21.484375 6.890625 26.703125 6.890625 
Q 35.15625 6.890625 40.078125 11.328125 
Q 45.015625 15.765625 45.015625 23.390625 
Q 45.015625 31 40.078125 35.4375 
Q 35.15625 39.890625 26.703125 39.890625 
Q 22.75 39.890625 18.8125 39.015625 
Q 14.890625 38.140625 10.796875 36.28125 
z
" id="DejaVuSans-35"/>
     <path d="M 11.71875 12.40625 
L 22.015625 12.40625 
L 22.015625 0 
L 11.71875 0 
z
M 11.71875 51.703125 
L 22.015625 51.703125 
L 22.015625 39.3125 
L 11.71875 39.3125 
z
" id="DejaVuSans-3a"/>
    </defs>
    <g transform="translate(60.27144 46.705375)scale(0.102 -0.102)">
     <use xlink:href="#DejaVuSans-35"/>
     <use x="63.623047" xlink:href="#DejaVuSans-38"/>
     <use x="127.246094" xlink:href="#DejaVuSans-20"/>
     <use x="159.033203" xlink:href="#DejaVuSans-74"/>
     <use x="198.242188" xlink:href="#DejaVuSans-61"/>
     <use x="259.521484" xlink:href="#DejaVuSans-72"/>
     <use x="300.619141" xlink:href="#DejaVuSans-67"/>
     <use x="364.095703" xlink:href="#DejaVuSans-65"/>
     <use x="425.619141" xlink:href="#DejaVuSans-74"/>
     <use x="464.828125" xlink:href="#DejaVuSans-73"/>
     <use x="516.927734" xlink:href="#DejaVuSans-3a"/>
     <use x="550.619141" xlink:href="#DejaVuSans-20"/>
     <use x="582.40625" xlink:href="#DejaVuSans-31"/>
     <use x="646.029297" xlink:href="#DejaVuSans-2e"/>
     <use x="677.816406" xlink:href="#DejaVuSans-2e"/>
     <use x="709.603516" xlink:href="#DejaVuSans-2d"/>
     <use x="745.6875" xlink:href="#DejaVuSans-31"/>
     <use x="809.310547" xlink:href="#DejaVuSans-2e"/>
     <use x="841.097656" xlink:href="#DejaVuSans-30"/>
     <use x="904.720703" xlink:href="#DejaVuSans-65"/>
     <use x="966.244141" xlink:href="#DejaVuSans-2d"/>
     <use x="1002.328125" xlink:href="#DejaVuSans-34"/>
    </g>
    <!-- 10 instances -->
    <g transform="translate(60.27144 58.127144)scale(0.102 -0.102)">
     <use xlink:href="#DejaVuSans-31"/>
     <use x="63.623047" xlink:href="#DejaVuSans-30"/>
     <use x="127.246094" xlink:href="#DejaVuSans-20"/>
     <use x="159.033203" xlink:href="#DejaVuSans-69"/>
     <use x="186.816406" xlink:href="#DejaVuSans-6e"/>
     <use x="250.195312" xlink:href="#DejaVuSans-73"/>
     <use x="302.294922" xlink:href="#DejaVuSans-74"/>
     <use x="341.503906" xlink:href="#DejaVuSans-61"/>
     <use x="402.783203" xlink:href="#DejaVuSans-6e"/>
     <use x="466.162109" xlink:href="#DejaVuSans-63"/>
     <use x="521.142578" xlink:href="#DejaVuSans-65"/>
     <use x="582.666016" xlink:href="#DejaVuSans-73"/>
    </g>
   </g>
   <g id="text_20">
    <!-- v2.2.1.10, hv-hash=ff0e71e8cd978373 -->
    <defs>
     <path d="M 54.890625 33.015625 
L 54.890625 0 
L 45.90625 0 
L 45.90625 32.71875 
Q 45.90625 40.484375 42.875 44.328125 
Q 39.84375 48.1875 33.796875 48.1875 
Q 26.515625 48.1875 22.3125 43.546875 
Q 18.109375 38.921875 18.109375 30.90625 
L 18.109375 0 
L 9.078125 0 
L 9.078125 75.984375 
L 18.109375 75.984375 
L 18.109375 46.1875 
Q 21.34375 51.125 25.703125 53.5625 
Q 30.078125 56 35.796875 56 
Q 45.21875 56 50.046875 50.171875 
Q 54.890625 44.34375 54.890625 33.015625 
" id="DejaVuSans-68"/>
     <path d="M 10.59375 45.40625 
L 73.1875 45.40625 
L 73.1875 37.203125 
L 10.59375 37.203125 
z
M 10.59375 25.484375 
L 73.1875 25.484375 
L 73.1875 17.1875 
L 10.59375 17.1875 
z
" id="DejaVuSans-3d"/>
     <path d="M 8.203125 72.90625 
L 55.078125 72.90625 
L 55.078125 68.703125 
L 28.609375 0 
L 18.3125 0 
L 43.21875 64.59375 
L 8.203125 64.59375 
z
" id="DejaVuSans-37"/>
     <path d="M 10.984375 1.515625 
L 10.984375 10.5 
Q 14.703125 8.734375 18.5 7.8125 
Q 22.3125 6.890625 25.984375 6.890625 
Q 35.75 6.890625 40.890625 13.453125 
Q 46.046875 20.015625 46.78125 33.40625 
Q 43.953125 29.203125 39.59375 26.953125 
Q 35.25 24.703125 29.984375 24.703125 
Q 19.046875 24.703125 12.671875 31.3125 
Q 6.296875 37.9375 6.296875 49.421875 
Q 6.296875 60.640625 12.9375 67.421875 
Q 19.578125 74.21875 30.609375 74.21875 
Q 43.265625 74.21875 49.921875 64.515625 
Q 56.59375 54.828125 56.59375 36.375 
Q 56.59375 19.140625 48.40625 8.859375 
Q 40.234375 -1.421875 26.421875 -1.421875 
Q 22.703125 -1.421875 18.890625 -0.6875 
Q 15.09375 0.046875 10.984375 1.515625 
M 30.609375 32.421875 
Q 37.25 32.421875 41.125 36.953125 
Q 45.015625 41.5 45.015625 49.421875 
Q 45.015625 57.28125 41.125 61.84375 
Q 37.25 66.40625 30.609375 66.40625 
Q 23.96875 66.40625 20.09375 61.84375 
Q 16.21875 57.28125 16.21875 49.421875 
Q 16.21875 41.5 20.09375 36.953125 
Q 23.96875 32.421875 30.609375 32.421875 
" id="DejaVuSans-39"/>
    </defs>
    <g style="fill:#808080;" transform="translate(130.065125 289.387113)scale(0.1 -0.1)">
     <use xlink:href="#DejaVuSans-76"/>
     <use x="59.179688" xlink:href="#DejaVuSans-32"/>
     <use x="122.802734" xlink:href="#DejaVuSans-2e"/>
     <use x="154.589844" xlink:href="#DejaVuSans-32"/>
     <use x="218.212891" xlink:href="#DejaVuSans-2e"/>
     <use x="250" xlink:href="#DejaVuSans-31"/>
     <use x="313.623047" xlink:href="#DejaVuSans-2e"/>
     <use x="345.410156" xlink:href="#DejaVuSans-31"/>
     <use x="409.033203" xlink:href="#DejaVuSans-30"/>
     <use x="472.65625" xlink:href="#DejaVuSans-2c"/>
     <use x="504.443359" xlink:href="#DejaVuSans-20"/>
     <use x="536.230469" xlink:href="#DejaVuSans-68"/>
     <use x="599.609375" xlink:href="#DejaVuSans-76"/>
     <use x="658.757812" xlink:href="#DejaVuSans-2d"/>
     <use x="694.841797" xlink:href="#DejaVuSans-68"/>
     <use x="758.220703" xlink:href="#DejaVuSans-61"/>
     <use x="819.5" xlink:href="#DejaVuSans-73"/>
     <use x="871.599609" xlink:href="#DejaVuSans-68"/>
     <use x="934.978516" xlink:href="#DejaVuSans-3d"/>
     <use x="1018.767578" xlink:href="#DejaVuSans-66"/>
     <use x="1053.972656" xlink:href="#DejaVuSans-66"/>
     <use x="1089.177734" xlink:href="#DejaVuSans-30"/>
     <use x="1152.800781" xlink:href="#DejaVuSans-65"/>
     <use x="1214.324219" xlink:href="#DejaVuSans-37"/>
     <use x="1277.947266" xlink:href="#DejaVuSans-31"/>
     <use x="1341.570312" xlink:href="#DejaVuSans-65"/>
     <use x="1403.09375" xlink:href="#DejaVuSans-38"/>
     <use x="1466.716797" xlink:href="#DejaVuSans-63"/>
     <use x="1521.697266" xlink:href="#DejaVuSans-64"/>
     <use x="1585.173828" xlink:href="#DejaVuSans-39"/>
     <use x="1648.796875" xlink:href="#DejaVuSans-37"/>
     <use x="1712.419922" xlink:href="#DejaVuSans-38"/>
     <use x="1776.042969" xlink:href="#DejaVuSans-33"/>
     <use x="1839.666016" xlink:href="#DejaVuSans-37"/>
     <use x="1903.289062" xlink:href="#DejaVuSans-33"/>
    </g>
   </g>
   <g id="text_21">
    <!-- 28 Rosenbrock/Rosenbrock -->
    <defs>
     <path d="M 9.078125 75.984375 
L 18.109375 75.984375 
L 18.109375 31.109375 
L 44.921875 54.6875 
L 56.390625 54.6875 
L 27.390625 29.109375 
L 57.625 0 
L 45.90625 0 
L 18.109375 26.703125 
L 18.109375 0 
L 9.078125 0 
z
" id="DejaVuSans-6b"/>
    </defs>
    <g transform="translate(91.890125 18.84)scale(0.2 -0.2)">
     <use xlink:href="#DejaVuSans-32"/>
     <use x="63.623047" xlink:href="#DejaVuSans-38"/>
     <use x="127.246094" xlink:href="#DejaVuSans-20"/>
     <use x="159.033203" xlink:href="#DejaVuSans-52"/>
     <use x="228.453125" xlink:href="#DejaVuSans-6f"/>
     <use x="289.634766" xlink:href="#DejaVuSans-73"/>
     <use x="341.734375" xlink:href="#DejaVuSans-65"/>
     <use x="403.257812" xlink:href="#DejaVuSans-6e"/>
     <use x="466.636719" xlink:href="#DejaVuSans-62"/>
     <use x="530.113281" xlink:href="#DejaVuSans-72"/>
     <use x="571.195312" xlink:href="#DejaVuSans-6f"/>
     <use x="632.376953" xlink:href="#DejaVuSans-63"/>
     <use x="687.357422" xlink:href="#DejaVuSans-6b"/>
     <use x="745.267578" xlink:href="#DejaVuSans-2f"/>
     <use x="778.958984" xlink:href="#DejaVuSans-52"/>
     <use x="848.378906" xlink:href="#DejaVuSans-6f"/>
     <use x="909.560547" xlink:href="#DejaVuSans-73"/>
     <use x="961.660156" xlink:href="#DejaVuSans-65"/>
     <use x="1023.183594" xlink:href="#DejaVuSans-6e"/>
     <use x="1086.5625" xlink:href="#DejaVuSans-62"/>
     <use x="1150.039062" xlink:href="#DejaVuSans-72"/>
     <use x="1191.121094" xlink:href="#DejaVuSans-6f"/>
     <use x="1252.302734" xlink:href="#DejaVuSans-63"/>
     <use x="1307.283203" xlink:href="#DejaVuSans-6b"/>
    </g>
   </g>
  </g>
 </g>
 <defs>
  <clipPath id="p9fc52c41cc">
   <rect height="269.32" width="343.144" x="56.84" y="24.84"/>
  </clipPath>
 </defs>
</svg>
