<?xml version="1.0" encoding="utf-8" standalone="no"?>
<!DOCTYPE svg PUBLIC "-//W3C//DTD SVG 1.1//EN"
  "http://www.w3.org/Graphics/SVG/1.1/DTD/svg11.dtd">
<!-- Created with matplotlib (http://matplotlib.org/) -->
<svg height="345pt" version="1.1" viewBox="0 0 460 345" width="460pt" xmlns="http://www.w3.org/2000/svg" xmlns:xlink="http://www.w3.org/1999/xlink">
 <defs>
  <style type="text/css">
*{stroke-linecap:butt;stroke-linejoin:round;}
  </style>
 </defs>
 <g id="figure_1">
  <g id="patch_1">
   <path d="M 0 345.6 
L 460.8 345.6 
L 460.8 0 
L 0 0 
z
" style="fill:#ffffff;"/>
  </g>
  <g id="axes_1">
   <g id="patch_2">
    <path d="M 56.84 294.16 
L 399.984 294.16 
L 399.984 24.84 
L 56.84 24.84 
z
" style="fill:#ffffff;"/>
   </g>
   <g id="line2d_1">
    <path d="M 56.84 294.16 
L 56.84 289.562526 
L 90.249023 289.562526 
L 90.249023 280.367579 
L 118.679903 280.367579 
L 118.679903 271.172632 
L 137.385009 271.172632 
L 137.385009 266.575159 
L 142.519947 266.575159 
L 142.519947 252.782738 
L 146.743643 252.782738 
L 146.743643 243.587791 
L 153.169083 243.587791 
L 153.169083 238.990318 
L 161.290766 238.990318 
L 161.290766 229.79537 
L 164.276904 229.79537 
L 164.276904 216.00295 
L 167.203122 216.00295 
L 167.203122 206.808003 
L 172.7352 206.808003 
L 172.7352 197.613056 
L 181.349366 197.613056 
L 181.349366 188.418109 
L 189.921391 188.418109 
L 189.921391 183.820635 
L 202.408775 183.820635 
L 202.408775 170.028214 
L 210.423237 170.028214 
L 210.423237 165.430741 
L 234.692416 165.430741 
L 234.692416 151.63832 
L 235.801817 151.63832 
L 235.801817 142.443373 
L 236.235644 142.443373 
L 236.235644 137.8459 
L 236.77489 137.8459 
L 236.77489 124.053479 
L 237.350328 124.053479 
L 237.350328 119.456005 
L 238.541921 119.456005 
L 238.541921 105.663585 
L 240.807491 105.663585 
L 240.807491 96.468638 
L 242.03403 96.468638 
L 242.03403 87.273691 
L 243.380343 87.273691 
L 243.380343 82.676217 
L 247.028746 82.676217 
L 247.028746 73.48127 
L 258.14027 73.48127 
L 258.14027 59.688849 
L 333.569032 59.688849 
" style="fill:none;stroke:#f5deb3;stroke-linecap:square;stroke-width:6;"/>
   </g>
   <g id="line2d_2">
    <defs>
     <path d="M -0 7.778175 
L 7.778175 0 
L 0 -7.778175 
L -7.778175 -0 
z
" id="m3fd606bda3" style="stroke:#f5deb3;stroke-linejoin:miter;stroke-width:1.5;"/>
    </defs>
    <g>
     <use style="fill:#f5deb3;stroke:#f5deb3;stroke-linejoin:miter;stroke-width:1.5;" x="161.290766" xlink:href="#m3fd606bda3" y="238.990318"/>
     <use style="fill:#f5deb3;stroke:#f5deb3;stroke-linejoin:miter;stroke-width:1.5;" x="210.423237" xlink:href="#m3fd606bda3" y="170.028214"/>
     <use style="fill:#f5deb3;stroke:#f5deb3;stroke-linejoin:miter;stroke-width:1.5;" x="247.028746" xlink:href="#m3fd606bda3" y="82.676217"/>
     <use style="fill:#f5deb3;stroke:#f5deb3;stroke-linejoin:miter;stroke-width:1.5;" x="258.14027" xlink:href="#m3fd606bda3" y="59.688849"/>
     <use style="fill:#f5deb3;stroke:#f5deb3;stroke-linejoin:miter;stroke-width:1.5;" x="333.569032" xlink:href="#m3fd606bda3" y="59.688849"/>
    </g>
   </g>
   <g id="line2d_3">
    <path style="fill:none;stroke:#f5deb3;stroke-linecap:square;stroke-width:6;"/>
    <g/>
   </g>
   <g id="line2d_4">
    <path d="M 333.569032 59.688849 
L 364.009226 32.839604 
" style="fill:none;stroke:#f5deb3;stroke-linecap:square;stroke-width:6;"/>
    <g>
     <use style="fill:#f5deb3;stroke:#f5deb3;stroke-linejoin:miter;stroke-width:1.5;" x="333.569032" xlink:href="#m3fd606bda3" y="59.688849"/>
     <use style="fill:#f5deb3;stroke:#f5deb3;stroke-linejoin:miter;stroke-width:1.5;" x="364.009226" xlink:href="#m3fd606bda3" y="32.839604"/>
    </g>
   </g>
   <g id="matplotlib.axis_1">
    <g id="xtick_1">
     <g id="line2d_5">
      <path clip-path="url(#pffff0a313e)" d="M 56.84 294.16 
L 56.84 24.84 
" style="fill:none;stroke:#b0b0b0;stroke-linecap:square;stroke-width:0.8;"/>
     </g>
     <g id="line2d_6">
      <defs>
       <path d="M 0 0 
L 0 3.5 
" id="mcb730c2afd" style="stroke:#000000;stroke-width:0.8;"/>
      </defs>
      <g>
       <use style="stroke:#000000;stroke-width:0.8;" x="56.84" xlink:href="#mcb730c2afd" y="294.16"/>
      </g>
     </g>
     <g id="text_1">
      <!-- 0 -->
      <defs>
       <path d="M 31.78125 66.40625 
Q 24.171875 66.40625 20.328125 58.90625 
Q 16.5 51.421875 16.5 36.375 
Q 16.5 21.390625 20.328125 13.890625 
Q 24.171875 6.390625 31.78125 6.390625 
Q 39.453125 6.390625 43.28125 13.890625 
Q 47.125 21.390625 47.125 36.375 
Q 47.125 51.421875 43.28125 58.90625 
Q 39.453125 66.40625 31.78125 66.40625 
M 31.78125 74.21875 
Q 44.046875 74.21875 50.515625 64.515625 
Q 56.984375 54.828125 56.984375 36.375 
Q 56.984375 17.96875 50.515625 8.265625 
Q 44.046875 -1.421875 31.78125 -1.421875 
Q 19.53125 -1.421875 13.0625 8.265625 
Q 6.59375 17.96875 6.59375 36.375 
Q 6.59375 54.828125 13.0625 64.515625 
Q 19.53125 74.21875 31.78125 74.21875 
" id="DejaVuSans-30"/>
      </defs>
      <g transform="translate(50.4775 316.356875)scale(0.2 -0.2)">
       <use xlink:href="#DejaVuSans-30"/>
      </g>
     </g>
    </g>
    <g id="xtick_2">
     <g id="line2d_7">
      <path clip-path="url(#pffff0a313e)" d="M 135.905438 294.16 
L 135.905438 24.84 
" style="fill:none;stroke:#b0b0b0;stroke-linecap:square;stroke-width:0.8;"/>
     </g>
     <g id="line2d_8">
      <g>
       <use style="stroke:#000000;stroke-width:0.8;" x="135.905438" xlink:href="#mcb730c2afd" y="294.16"/>
      </g>
     </g>
     <g id="text_2">
      <!-- 2 -->
      <defs>
       <path d="M 19.1875 8.296875 
L 53.609375 8.296875 
L 53.609375 0 
L 7.328125 0 
L 7.328125 8.296875 
Q 12.9375 14.109375 22.625 23.890625 
Q 32.328125 33.6875 34.8125 36.53125 
Q 39.546875 41.84375 41.421875 45.53125 
Q 43.3125 49.21875 43.3125 52.78125 
Q 43.3125 58.59375 39.234375 62.25 
Q 35.15625 65.921875 28.609375 65.921875 
Q 23.96875 65.921875 18.8125 64.3125 
Q 13.671875 62.703125 7.8125 59.421875 
L 7.8125 69.390625 
Q 13.765625 71.78125 18.9375 73 
Q 24.125 74.21875 28.421875 74.21875 
Q 39.75 74.21875 46.484375 68.546875 
Q 53.21875 62.890625 53.21875 53.421875 
Q 53.21875 48.921875 51.53125 44.890625 
Q 49.859375 40.875 45.40625 35.40625 
Q 44.1875 33.984375 37.640625 27.21875 
Q 31.109375 20.453125 19.1875 8.296875 
" id="DejaVuSans-32"/>
      </defs>
      <g transform="translate(129.542938 316.356875)scale(0.2 -0.2)">
       <use xlink:href="#DejaVuSans-32"/>
      </g>
     </g>
    </g>
    <g id="xtick_3">
     <g id="line2d_9">
      <path clip-path="url(#pffff0a313e)" d="M 214.970876 294.16 
L 214.970876 24.84 
" style="fill:none;stroke:#b0b0b0;stroke-linecap:square;stroke-width:0.8;"/>
     </g>
     <g id="line2d_10">
      <g>
       <use style="stroke:#000000;stroke-width:0.8;" x="214.970876" xlink:href="#mcb730c2afd" y="294.16"/>
      </g>
     </g>
     <g id="text_3">
      <!-- 4 -->
      <defs>
       <path d="M 37.796875 64.3125 
L 12.890625 25.390625 
L 37.796875 25.390625 
z
M 35.203125 72.90625 
L 47.609375 72.90625 
L 47.609375 25.390625 
L 58.015625 25.390625 
L 58.015625 17.1875 
L 47.609375 17.1875 
L 47.609375 0 
L 37.796875 0 
L 37.796875 17.1875 
L 4.890625 17.1875 
L 4.890625 26.703125 
z
" id="DejaVuSans-34"/>
      </defs>
      <g transform="translate(208.608376 316.356875)scale(0.2 -0.2)">
       <use xlink:href="#DejaVuSans-34"/>
      </g>
     </g>
    </g>
    <g id="xtick_4">
     <g id="line2d_11">
      <path clip-path="url(#pffff0a313e)" d="M 294.036313 294.16 
L 294.036313 24.84 
" style="fill:none;stroke:#b0b0b0;stroke-linecap:square;stroke-width:0.8;"/>
     </g>
     <g id="line2d_12">
      <g>
       <use style="stroke:#000000;stroke-width:0.8;" x="294.036313" xlink:href="#mcb730c2afd" y="294.16"/>
      </g>
     </g>
     <g id="text_4">
      <!-- 6 -->
      <defs>
       <path d="M 33.015625 40.375 
Q 26.375 40.375 22.484375 35.828125 
Q 18.609375 31.296875 18.609375 23.390625 
Q 18.609375 15.53125 22.484375 10.953125 
Q 26.375 6.390625 33.015625 6.390625 
Q 39.65625 6.390625 43.53125 10.953125 
Q 47.40625 15.53125 47.40625 23.390625 
Q 47.40625 31.296875 43.53125 35.828125 
Q 39.65625 40.375 33.015625 40.375 
M 52.59375 71.296875 
L 52.59375 62.3125 
Q 48.875 64.0625 45.09375 64.984375 
Q 41.3125 65.921875 37.59375 65.921875 
Q 27.828125 65.921875 22.671875 59.328125 
Q 17.53125 52.734375 16.796875 39.40625 
Q 19.671875 43.65625 24.015625 45.921875 
Q 28.375 48.1875 33.59375 48.1875 
Q 44.578125 48.1875 50.953125 41.515625 
Q 57.328125 34.859375 57.328125 23.390625 
Q 57.328125 12.15625 50.6875 5.359375 
Q 44.046875 -1.421875 33.015625 -1.421875 
Q 20.359375 -1.421875 13.671875 8.265625 
Q 6.984375 17.96875 6.984375 36.375 
Q 6.984375 53.65625 15.1875 63.9375 
Q 23.390625 74.21875 37.203125 74.21875 
Q 40.921875 74.21875 44.703125 73.484375 
Q 48.484375 72.75 52.59375 71.296875 
" id="DejaVuSans-36"/>
      </defs>
      <g transform="translate(287.673813 316.356875)scale(0.2 -0.2)">
       <use xlink:href="#DejaVuSans-36"/>
      </g>
     </g>
    </g>
    <g id="xtick_5">
     <g id="line2d_13">
      <path clip-path="url(#pffff0a313e)" d="M 373.101751 294.16 
L 373.101751 24.84 
" style="fill:none;stroke:#b0b0b0;stroke-linecap:square;stroke-width:0.8;"/>
     </g>
     <g id="line2d_14">
      <g>
       <use style="stroke:#000000;stroke-width:0.8;" x="373.101751" xlink:href="#mcb730c2afd" y="294.16"/>
      </g>
     </g>
     <g id="text_5">
      <!-- 8 -->
      <defs>
       <path d="M 31.78125 34.625 
Q 24.75 34.625 20.71875 30.859375 
Q 16.703125 27.09375 16.703125 20.515625 
Q 16.703125 13.921875 20.71875 10.15625 
Q 24.75 6.390625 31.78125 6.390625 
Q 38.8125 6.390625 42.859375 10.171875 
Q 46.921875 13.96875 46.921875 20.515625 
Q 46.921875 27.09375 42.890625 30.859375 
Q 38.875 34.625 31.78125 34.625 
M 21.921875 38.8125 
Q 15.578125 40.375 12.03125 44.71875 
Q 8.5 49.078125 8.5 55.328125 
Q 8.5 64.0625 14.71875 69.140625 
Q 20.953125 74.21875 31.78125 74.21875 
Q 42.671875 74.21875 48.875 69.140625 
Q 55.078125 64.0625 55.078125 55.328125 
Q 55.078125 49.078125 51.53125 44.71875 
Q 48 40.375 41.703125 38.8125 
Q 48.828125 37.15625 52.796875 32.3125 
Q 56.78125 27.484375 56.78125 20.515625 
Q 56.78125 9.90625 50.3125 4.234375 
Q 43.84375 -1.421875 31.78125 -1.421875 
Q 19.734375 -1.421875 13.25 4.234375 
Q 6.78125 9.90625 6.78125 20.515625 
Q 6.78125 27.484375 10.78125 32.3125 
Q 14.796875 37.15625 21.921875 38.8125 
M 18.3125 54.390625 
Q 18.3125 48.734375 21.84375 45.5625 
Q 25.390625 42.390625 31.78125 42.390625 
Q 38.140625 42.390625 41.71875 45.5625 
Q 45.3125 48.734375 45.3125 54.390625 
Q 45.3125 60.0625 41.71875 63.234375 
Q 38.140625 66.40625 31.78125 66.40625 
Q 25.390625 66.40625 21.84375 63.234375 
Q 18.3125 60.0625 18.3125 54.390625 
" id="DejaVuSans-38"/>
      </defs>
      <g transform="translate(366.739251 316.356875)scale(0.2 -0.2)">
       <use xlink:href="#DejaVuSans-38"/>
      </g>
     </g>
    </g>
    <g id="xtick_6">
     <g id="line2d_15">
      <defs>
       <path d="M 0 0 
L 0 2 
" id="md3eff49efe" style="stroke:#000000;stroke-width:0.6;"/>
      </defs>
      <g>
       <use style="stroke:#000000;stroke-width:0.6;" x="68.740534" xlink:href="#md3eff49efe" y="294.16"/>
      </g>
     </g>
    </g>
    <g id="xtick_7">
     <g id="line2d_16">
      <g>
       <use style="stroke:#000000;stroke-width:0.6;" x="80.641068" xlink:href="#md3eff49efe" y="294.16"/>
      </g>
     </g>
    </g>
    <g id="xtick_8">
     <g id="line2d_17">
      <g>
       <use style="stroke:#000000;stroke-width:0.6;" x="87.602435" xlink:href="#md3eff49efe" y="294.16"/>
      </g>
     </g>
    </g>
    <g id="xtick_9">
     <g id="line2d_18">
      <g>
       <use style="stroke:#000000;stroke-width:0.6;" x="92.541603" xlink:href="#md3eff49efe" y="294.16"/>
      </g>
     </g>
    </g>
    <g id="xtick_10">
     <g id="line2d_19">
      <g>
       <use style="stroke:#000000;stroke-width:0.6;" x="147.805972" xlink:href="#md3eff49efe" y="294.16"/>
      </g>
     </g>
    </g>
    <g id="xtick_11">
     <g id="line2d_20">
      <g>
       <use style="stroke:#000000;stroke-width:0.6;" x="159.706506" xlink:href="#md3eff49efe" y="294.16"/>
      </g>
     </g>
    </g>
    <g id="xtick_12">
     <g id="line2d_21">
      <g>
       <use style="stroke:#000000;stroke-width:0.6;" x="166.667872" xlink:href="#md3eff49efe" y="294.16"/>
      </g>
     </g>
    </g>
    <g id="xtick_13">
     <g id="line2d_22">
      <g>
       <use style="stroke:#000000;stroke-width:0.6;" x="171.60704" xlink:href="#md3eff49efe" y="294.16"/>
      </g>
     </g>
    </g>
    <g id="xtick_14">
     <g id="line2d_23">
      <g>
       <use style="stroke:#000000;stroke-width:0.6;" x="226.87141" xlink:href="#md3eff49efe" y="294.16"/>
      </g>
     </g>
    </g>
    <g id="xtick_15">
     <g id="line2d_24">
      <g>
       <use style="stroke:#000000;stroke-width:0.6;" x="238.771944" xlink:href="#md3eff49efe" y="294.16"/>
      </g>
     </g>
    </g>
    <g id="xtick_16">
     <g id="line2d_25">
      <g>
       <use style="stroke:#000000;stroke-width:0.6;" x="245.73331" xlink:href="#md3eff49efe" y="294.16"/>
      </g>
     </g>
    </g>
    <g id="xtick_17">
     <g id="line2d_26">
      <g>
       <use style="stroke:#000000;stroke-width:0.6;" x="250.672478" xlink:href="#md3eff49efe" y="294.16"/>
      </g>
     </g>
    </g>
    <g id="xtick_18">
     <g id="line2d_27">
      <g>
       <use style="stroke:#000000;stroke-width:0.6;" x="305.936848" xlink:href="#md3eff49efe" y="294.16"/>
      </g>
     </g>
    </g>
    <g id="xtick_19">
     <g id="line2d_28">
      <g>
       <use style="stroke:#000000;stroke-width:0.6;" x="317.837382" xlink:href="#md3eff49efe" y="294.16"/>
      </g>
     </g>
    </g>
    <g id="xtick_20">
     <g id="line2d_29">
      <g>
       <use style="stroke:#000000;stroke-width:0.6;" x="324.798748" xlink:href="#md3eff49efe" y="294.16"/>
      </g>
     </g>
    </g>
    <g id="xtick_21">
     <g id="line2d_30">
      <g>
       <use style="stroke:#000000;stroke-width:0.6;" x="329.737916" xlink:href="#md3eff49efe" y="294.16"/>
      </g>
     </g>
    </g>
    <g id="xtick_22">
     <g id="line2d_31">
      <g>
       <use style="stroke:#000000;stroke-width:0.6;" x="385.002285" xlink:href="#md3eff49efe" y="294.16"/>
      </g>
     </g>
    </g>
    <g id="xtick_23">
     <g id="line2d_32">
      <g>
       <use style="stroke:#000000;stroke-width:0.6;" x="396.90282" xlink:href="#md3eff49efe" y="294.16"/>
      </g>
     </g>
    </g>
    <g id="text_6">
     <!-- log10(# f-evals / dimension) -->
     <defs>
      <path d="M 9.421875 75.984375 
L 18.40625 75.984375 
L 18.40625 0 
L 9.421875 0 
z
" id="DejaVuSans-6c"/>
      <path d="M 30.609375 48.390625 
Q 23.390625 48.390625 19.1875 42.75 
Q 14.984375 37.109375 14.984375 27.296875 
Q 14.984375 17.484375 19.15625 11.84375 
Q 23.34375 6.203125 30.609375 6.203125 
Q 37.796875 6.203125 41.984375 11.859375 
Q 46.1875 17.53125 46.1875 27.296875 
Q 46.1875 37.015625 41.984375 42.703125 
Q 37.796875 48.390625 30.609375 48.390625 
M 30.609375 56 
Q 42.328125 56 49.015625 48.375 
Q 55.71875 40.765625 55.71875 27.296875 
Q 55.71875 13.875 49.015625 6.21875 
Q 42.328125 -1.421875 30.609375 -1.421875 
Q 18.84375 -1.421875 12.171875 6.21875 
Q 5.515625 13.875 5.515625 27.296875 
Q 5.515625 40.765625 12.171875 48.375 
Q 18.84375 56 30.609375 56 
" id="DejaVuSans-6f"/>
      <path d="M 45.40625 27.984375 
Q 45.40625 37.75 41.375 43.109375 
Q 37.359375 48.484375 30.078125 48.484375 
Q 22.859375 48.484375 18.828125 43.109375 
Q 14.796875 37.75 14.796875 27.984375 
Q 14.796875 18.265625 18.828125 12.890625 
Q 22.859375 7.515625 30.078125 7.515625 
Q 37.359375 7.515625 41.375 12.890625 
Q 45.40625 18.265625 45.40625 27.984375 
M 54.390625 6.78125 
Q 54.390625 -7.171875 48.1875 -13.984375 
Q 42 -20.796875 29.203125 -20.796875 
Q 24.46875 -20.796875 20.265625 -20.09375 
Q 16.0625 -19.390625 12.109375 -17.921875 
L 12.109375 -9.1875 
Q 16.0625 -11.328125 19.921875 -12.34375 
Q 23.78125 -13.375 27.78125 -13.375 
Q 36.625 -13.375 41.015625 -8.765625 
Q 45.40625 -4.15625 45.40625 5.171875 
L 45.40625 9.625 
Q 42.625 4.78125 38.28125 2.390625 
Q 33.9375 0 27.875 0 
Q 17.828125 0 11.671875 7.65625 
Q 5.515625 15.328125 5.515625 27.984375 
Q 5.515625 40.671875 11.671875 48.328125 
Q 17.828125 56 27.875 56 
Q 33.9375 56 38.28125 53.609375 
Q 42.625 51.21875 45.40625 46.390625 
L 45.40625 54.6875 
L 54.390625 54.6875 
z
" id="DejaVuSans-67"/>
      <path d="M 12.40625 8.296875 
L 28.515625 8.296875 
L 28.515625 63.921875 
L 10.984375 60.40625 
L 10.984375 69.390625 
L 28.421875 72.90625 
L 38.28125 72.90625 
L 38.28125 8.296875 
L 54.390625 8.296875 
L 54.390625 0 
L 12.40625 0 
z
" id="DejaVuSans-31"/>
      <path d="M 31 75.875 
Q 24.46875 64.65625 21.28125 53.65625 
Q 18.109375 42.671875 18.109375 31.390625 
Q 18.109375 20.125 21.3125 9.0625 
Q 24.515625 -2 31 -13.1875 
L 23.1875 -13.1875 
Q 15.875 -1.703125 12.234375 9.375 
Q 8.59375 20.453125 8.59375 31.390625 
Q 8.59375 42.28125 12.203125 53.3125 
Q 15.828125 64.359375 23.1875 75.875 
z
" id="DejaVuSans-28"/>
      <path d="M 51.125 44 
L 36.921875 44 
L 32.8125 27.6875 
L 47.125 27.6875 
z
M 43.796875 71.78125 
L 38.71875 51.515625 
L 52.984375 51.515625 
L 58.109375 71.78125 
L 65.921875 71.78125 
L 60.890625 51.515625 
L 76.125 51.515625 
L 76.125 44 
L 58.984375 44 
L 54.984375 27.6875 
L 70.515625 27.6875 
L 70.515625 20.21875 
L 53.078125 20.21875 
L 48 0 
L 40.1875 0 
L 45.21875 20.21875 
L 30.90625 20.21875 
L 25.875 0 
L 18.015625 0 
L 23.09375 20.21875 
L 7.71875 20.21875 
L 7.71875 27.6875 
L 24.90625 27.6875 
L 29 44 
L 13.28125 44 
L 13.28125 51.515625 
L 30.90625 51.515625 
L 35.890625 71.78125 
z
" id="DejaVuSans-23"/>
      <path id="DejaVuSans-20"/>
      <path d="M 37.109375 75.984375 
L 37.109375 68.5 
L 28.515625 68.5 
Q 23.6875 68.5 21.796875 66.546875 
Q 19.921875 64.59375 19.921875 59.515625 
L 19.921875 54.6875 
L 34.71875 54.6875 
L 34.71875 47.703125 
L 19.921875 47.703125 
L 19.921875 0 
L 10.890625 0 
L 10.890625 47.703125 
L 2.296875 47.703125 
L 2.296875 54.6875 
L 10.890625 54.6875 
L 10.890625 58.5 
Q 10.890625 67.625 15.140625 71.796875 
Q 19.390625 75.984375 28.609375 75.984375 
z
" id="DejaVuSans-66"/>
      <path d="M 4.890625 31.390625 
L 31.203125 31.390625 
L 31.203125 23.390625 
L 4.890625 23.390625 
z
" id="DejaVuSans-2d"/>
      <path d="M 56.203125 29.59375 
L 56.203125 25.203125 
L 14.890625 25.203125 
Q 15.484375 15.921875 20.484375 11.0625 
Q 25.484375 6.203125 34.421875 6.203125 
Q 39.59375 6.203125 44.453125 7.46875 
Q 49.3125 8.734375 54.109375 11.28125 
L 54.109375 2.78125 
Q 49.265625 0.734375 44.1875 -0.34375 
Q 39.109375 -1.421875 33.890625 -1.421875 
Q 20.796875 -1.421875 13.15625 6.1875 
Q 5.515625 13.8125 5.515625 26.8125 
Q 5.515625 40.234375 12.765625 48.109375 
Q 20.015625 56 32.328125 56 
Q 43.359375 56 49.78125 48.890625 
Q 56.203125 41.796875 56.203125 29.59375 
M 47.21875 32.234375 
Q 47.125 39.59375 43.09375 43.984375 
Q 39.0625 48.390625 32.421875 48.390625 
Q 24.90625 48.390625 20.390625 44.140625 
Q 15.875 39.890625 15.1875 32.171875 
z
" id="DejaVuSans-65"/>
      <path d="M 2.984375 54.6875 
L 12.5 54.6875 
L 29.59375 8.796875 
L 46.6875 54.6875 
L 56.203125 54.6875 
L 35.6875 0 
L 23.484375 0 
z
" id="DejaVuSans-76"/>
      <path d="M 34.28125 27.484375 
Q 23.390625 27.484375 19.1875 25 
Q 14.984375 22.515625 14.984375 16.5 
Q 14.984375 11.71875 18.140625 8.90625 
Q 21.296875 6.109375 26.703125 6.109375 
Q 34.1875 6.109375 38.703125 11.40625 
Q 43.21875 16.703125 43.21875 25.484375 
L 43.21875 27.484375 
z
M 52.203125 31.203125 
L 52.203125 0 
L 43.21875 0 
L 43.21875 8.296875 
Q 40.140625 3.328125 35.546875 0.953125 
Q 30.953125 -1.421875 24.3125 -1.421875 
Q 15.921875 -1.421875 10.953125 3.296875 
Q 6 8.015625 6 15.921875 
Q 6 25.140625 12.171875 29.828125 
Q 18.359375 34.515625 30.609375 34.515625 
L 43.21875 34.515625 
L 43.21875 35.40625 
Q 43.21875 41.609375 39.140625 45 
Q 35.0625 48.390625 27.6875 48.390625 
Q 23 48.390625 18.546875 47.265625 
Q 14.109375 46.140625 10.015625 43.890625 
L 10.015625 52.203125 
Q 14.9375 54.109375 19.578125 55.046875 
Q 24.21875 56 28.609375 56 
Q 40.484375 56 46.34375 49.84375 
Q 52.203125 43.703125 52.203125 31.203125 
" id="DejaVuSans-61"/>
      <path d="M 44.28125 53.078125 
L 44.28125 44.578125 
Q 40.484375 46.53125 36.375 47.5 
Q 32.28125 48.484375 27.875 48.484375 
Q 21.1875 48.484375 17.84375 46.4375 
Q 14.5 44.390625 14.5 40.28125 
Q 14.5 37.15625 16.890625 35.375 
Q 19.28125 33.59375 26.515625 31.984375 
L 29.59375 31.296875 
Q 39.15625 29.25 43.1875 25.515625 
Q 47.21875 21.78125 47.21875 15.09375 
Q 47.21875 7.46875 41.1875 3.015625 
Q 35.15625 -1.421875 24.609375 -1.421875 
Q 20.21875 -1.421875 15.453125 -0.5625 
Q 10.6875 0.296875 5.421875 2 
L 5.421875 11.28125 
Q 10.40625 8.6875 15.234375 7.390625 
Q 20.0625 6.109375 24.8125 6.109375 
Q 31.15625 6.109375 34.5625 8.28125 
Q 37.984375 10.453125 37.984375 14.40625 
Q 37.984375 18.0625 35.515625 20.015625 
Q 33.0625 21.96875 24.703125 23.78125 
L 21.578125 24.515625 
Q 13.234375 26.265625 9.515625 29.90625 
Q 5.8125 33.546875 5.8125 39.890625 
Q 5.8125 47.609375 11.28125 51.796875 
Q 16.75 56 26.8125 56 
Q 31.78125 56 36.171875 55.265625 
Q 40.578125 54.546875 44.28125 53.078125 
" id="DejaVuSans-73"/>
      <path d="M 25.390625 72.90625 
L 33.6875 72.90625 
L 8.296875 -9.28125 
L 0 -9.28125 
z
" id="DejaVuSans-2f"/>
      <path d="M 45.40625 46.390625 
L 45.40625 75.984375 
L 54.390625 75.984375 
L 54.390625 0 
L 45.40625 0 
L 45.40625 8.203125 
Q 42.578125 3.328125 38.25 0.953125 
Q 33.9375 -1.421875 27.875 -1.421875 
Q 17.96875 -1.421875 11.734375 6.484375 
Q 5.515625 14.40625 5.515625 27.296875 
Q 5.515625 40.1875 11.734375 48.09375 
Q 17.96875 56 27.875 56 
Q 33.9375 56 38.25 53.625 
Q 42.578125 51.265625 45.40625 46.390625 
M 14.796875 27.296875 
Q 14.796875 17.390625 18.875 11.75 
Q 22.953125 6.109375 30.078125 6.109375 
Q 37.203125 6.109375 41.296875 11.75 
Q 45.40625 17.390625 45.40625 27.296875 
Q 45.40625 37.203125 41.296875 42.84375 
Q 37.203125 48.484375 30.078125 48.484375 
Q 22.953125 48.484375 18.875 42.84375 
Q 14.796875 37.203125 14.796875 27.296875 
" id="DejaVuSans-64"/>
      <path d="M 9.421875 54.6875 
L 18.40625 54.6875 
L 18.40625 0 
L 9.421875 0 
z
M 9.421875 75.984375 
L 18.40625 75.984375 
L 18.40625 64.59375 
L 9.421875 64.59375 
z
" id="DejaVuSans-69"/>
      <path d="M 52 44.1875 
Q 55.375 50.25 60.0625 53.125 
Q 64.75 56 71.09375 56 
Q 79.640625 56 84.28125 50.015625 
Q 88.921875 44.046875 88.921875 33.015625 
L 88.921875 0 
L 79.890625 0 
L 79.890625 32.71875 
Q 79.890625 40.578125 77.09375 44.375 
Q 74.3125 48.1875 68.609375 48.1875 
Q 61.625 48.1875 57.5625 43.546875 
Q 53.515625 38.921875 53.515625 30.90625 
L 53.515625 0 
L 44.484375 0 
L 44.484375 32.71875 
Q 44.484375 40.625 41.703125 44.40625 
Q 38.921875 48.1875 33.109375 48.1875 
Q 26.21875 48.1875 22.15625 43.53125 
Q 18.109375 38.875 18.109375 30.90625 
L 18.109375 0 
L 9.078125 0 
L 9.078125 54.6875 
L 18.109375 54.6875 
L 18.109375 46.1875 
Q 21.1875 51.21875 25.484375 53.609375 
Q 29.78125 56 35.6875 56 
Q 41.65625 56 45.828125 52.96875 
Q 50 49.953125 52 44.1875 
" id="DejaVuSans-6d"/>
      <path d="M 54.890625 33.015625 
L 54.890625 0 
L 45.90625 0 
L 45.90625 32.71875 
Q 45.90625 40.484375 42.875 44.328125 
Q 39.84375 48.1875 33.796875 48.1875 
Q 26.515625 48.1875 22.3125 43.546875 
Q 18.109375 38.921875 18.109375 30.90625 
L 18.109375 0 
L 9.078125 0 
L 9.078125 54.6875 
L 18.109375 54.6875 
L 18.109375 46.1875 
Q 21.34375 51.125 25.703125 53.5625 
Q 30.078125 56 35.796875 56 
Q 45.21875 56 50.046875 50.171875 
Q 54.890625 44.34375 54.890625 33.015625 
" id="DejaVuSans-6e"/>
      <path d="M 8.015625 75.875 
L 15.828125 75.875 
Q 23.140625 64.359375 26.78125 53.3125 
Q 30.421875 42.28125 30.421875 31.390625 
Q 30.421875 20.453125 26.78125 9.375 
Q 23.140625 -1.703125 15.828125 -13.1875 
L 8.015625 -13.1875 
Q 14.5 -2 17.703125 9.0625 
Q 20.90625 20.125 20.90625 31.390625 
Q 20.90625 42.671875 17.703125 53.65625 
Q 14.5 64.65625 8.015625 75.875 
" id="DejaVuSans-29"/>
     </defs>
     <g transform="translate(107.571219 337.433594)scale(0.17 -0.17)">
      <use xlink:href="#DejaVuSans-6c"/>
      <use x="27.783203" xlink:href="#DejaVuSans-6f"/>
      <use x="88.964844" xlink:href="#DejaVuSans-67"/>
      <use x="152.441406" xlink:href="#DejaVuSans-31"/>
      <use x="216.064453" xlink:href="#DejaVuSans-30"/>
      <use x="279.6875" xlink:href="#DejaVuSans-28"/>
      <use x="318.701172" xlink:href="#DejaVuSans-23"/>
      <use x="402.490234" xlink:href="#DejaVuSans-20"/>
      <use x="434.277344" xlink:href="#DejaVuSans-66"/>
      <use x="469.404297" xlink:href="#DejaVuSans-2d"/>
      <use x="505.488281" xlink:href="#DejaVuSans-65"/>
      <use x="567.011719" xlink:href="#DejaVuSans-76"/>
      <use x="626.191406" xlink:href="#DejaVuSans-61"/>
      <use x="687.470703" xlink:href="#DejaVuSans-6c"/>
      <use x="715.253906" xlink:href="#DejaVuSans-73"/>
      <use x="767.353516" xlink:href="#DejaVuSans-20"/>
      <use x="799.140625" xlink:href="#DejaVuSans-2f"/>
      <use x="832.832031" xlink:href="#DejaVuSans-20"/>
      <use x="864.619141" xlink:href="#DejaVuSans-64"/>
      <use x="928.095703" xlink:href="#DejaVuSans-69"/>
      <use x="955.878906" xlink:href="#DejaVuSans-6d"/>
      <use x="1053.291016" xlink:href="#DejaVuSans-65"/>
      <use x="1114.814453" xlink:href="#DejaVuSans-6e"/>
      <use x="1178.193359" xlink:href="#DejaVuSans-73"/>
      <use x="1230.292969" xlink:href="#DejaVuSans-69"/>
      <use x="1258.076172" xlink:href="#DejaVuSans-6f"/>
      <use x="1319.257812" xlink:href="#DejaVuSans-6e"/>
      <use x="1382.636719" xlink:href="#DejaVuSans-29"/>
     </g>
    </g>
   </g>
   <g id="matplotlib.axis_2">
    <g id="ytick_1">
     <g id="line2d_33">
      <path clip-path="url(#pffff0a313e)" d="M 56.84 294.16 
L 399.984 294.16 
" style="fill:none;stroke:#b0b0b0;stroke-linecap:square;stroke-width:0.8;"/>
     </g>
     <g id="line2d_34">
      <defs>
       <path d="M 0 0 
L -3.5 0 
" id="m532744555b" style="stroke:#000000;stroke-width:0.8;"/>
      </defs>
      <g>
       <use style="stroke:#000000;stroke-width:0.8;" x="56.84" xlink:href="#m532744555b" y="294.16"/>
      </g>
     </g>
     <g id="text_7">
      <!-- 0.0 -->
      <defs>
       <path d="M 10.6875 12.40625 
L 21 12.40625 
L 21 0 
L 10.6875 0 
z
" id="DejaVuSans-2e"/>
      </defs>
      <g transform="translate(24.395 300.23875)scale(0.16 -0.16)">
       <use xlink:href="#DejaVuSans-30"/>
       <use x="63.623047" xlink:href="#DejaVuSans-2e"/>
       <use x="95.410156" xlink:href="#DejaVuSans-30"/>
      </g>
     </g>
    </g>
    <g id="ytick_2">
     <g id="line2d_35">
      <path clip-path="url(#pffff0a313e)" d="M 56.84 240.829307 
L 399.984 240.829307 
" style="fill:none;stroke:#b0b0b0;stroke-linecap:square;stroke-width:0.8;"/>
     </g>
     <g id="line2d_36">
      <g>
       <use style="stroke:#000000;stroke-width:0.8;" x="56.84" xlink:href="#m532744555b" y="240.829307"/>
      </g>
     </g>
     <g id="text_8">
      <!-- 0.2 -->
      <g transform="translate(24.395 246.908057)scale(0.16 -0.16)">
       <use xlink:href="#DejaVuSans-30"/>
       <use x="63.623047" xlink:href="#DejaVuSans-2e"/>
       <use x="95.410156" xlink:href="#DejaVuSans-32"/>
      </g>
     </g>
    </g>
    <g id="ytick_3">
     <g id="line2d_37">
      <path clip-path="url(#pffff0a313e)" d="M 56.84 187.498614 
L 399.984 187.498614 
" style="fill:none;stroke:#b0b0b0;stroke-linecap:square;stroke-width:0.8;"/>
     </g>
     <g id="line2d_38">
      <g>
       <use style="stroke:#000000;stroke-width:0.8;" x="56.84" xlink:href="#m532744555b" y="187.498614"/>
      </g>
     </g>
     <g id="text_9">
      <!-- 0.4 -->
      <g transform="translate(24.395 193.577364)scale(0.16 -0.16)">
       <use xlink:href="#DejaVuSans-30"/>
       <use x="63.623047" xlink:href="#DejaVuSans-2e"/>
       <use x="95.410156" xlink:href="#DejaVuSans-34"/>
      </g>
     </g>
    </g>
    <g id="ytick_4">
     <g id="line2d_39">
      <path clip-path="url(#pffff0a313e)" d="M 56.84 134.167921 
L 399.984 134.167921 
" style="fill:none;stroke:#b0b0b0;stroke-linecap:square;stroke-width:0.8;"/>
     </g>
     <g id="line2d_40">
      <g>
       <use style="stroke:#000000;stroke-width:0.8;" x="56.84" xlink:href="#m532744555b" y="134.167921"/>
      </g>
     </g>
     <g id="text_10">
      <!-- 0.6 -->
      <g transform="translate(24.395 140.246671)scale(0.16 -0.16)">
       <use xlink:href="#DejaVuSans-30"/>
       <use x="63.623047" xlink:href="#DejaVuSans-2e"/>
       <use x="95.410156" xlink:href="#DejaVuSans-36"/>
      </g>
     </g>
    </g>
    <g id="ytick_5">
     <g id="line2d_41">
      <path clip-path="url(#pffff0a313e)" d="M 56.84 80.837228 
L 399.984 80.837228 
" style="fill:none;stroke:#b0b0b0;stroke-linecap:square;stroke-width:0.8;"/>
     </g>
     <g id="line2d_42">
      <g>
       <use style="stroke:#000000;stroke-width:0.8;" x="56.84" xlink:href="#m532744555b" y="80.837228"/>
      </g>
     </g>
     <g id="text_11">
      <!-- 0.8 -->
      <g transform="translate(24.395 86.915978)scale(0.16 -0.16)">
       <use xlink:href="#DejaVuSans-30"/>
       <use x="63.623047" xlink:href="#DejaVuSans-2e"/>
       <use x="95.410156" xlink:href="#DejaVuSans-38"/>
      </g>
     </g>
    </g>
    <g id="ytick_6">
     <g id="line2d_43">
      <path clip-path="url(#pffff0a313e)" d="M 56.84 27.506535 
L 399.984 27.506535 
" style="fill:none;stroke:#b0b0b0;stroke-linecap:square;stroke-width:0.8;"/>
     </g>
     <g id="line2d_44">
      <g>
       <use style="stroke:#000000;stroke-width:0.8;" x="56.84" xlink:href="#m532744555b" y="27.506535"/>
      </g>
     </g>
     <g id="text_12">
      <!-- 1.0 -->
      <g transform="translate(24.395 33.585285)scale(0.16 -0.16)">
       <use xlink:href="#DejaVuSans-31"/>
       <use x="63.623047" xlink:href="#DejaVuSans-2e"/>
       <use x="95.410156" xlink:href="#DejaVuSans-30"/>
      </g>
     </g>
    </g>
    <g id="text_13">
     <!-- Fraction of function,target pairs -->
     <defs>
      <path d="M 9.8125 72.90625 
L 51.703125 72.90625 
L 51.703125 64.59375 
L 19.671875 64.59375 
L 19.671875 43.109375 
L 48.578125 43.109375 
L 48.578125 34.8125 
L 19.671875 34.8125 
L 19.671875 0 
L 9.8125 0 
z
" id="DejaVuSans-46"/>
      <path d="M 41.109375 46.296875 
Q 39.59375 47.171875 37.8125 47.578125 
Q 36.03125 48 33.890625 48 
Q 26.265625 48 22.1875 43.046875 
Q 18.109375 38.09375 18.109375 28.8125 
L 18.109375 0 
L 9.078125 0 
L 9.078125 54.6875 
L 18.109375 54.6875 
L 18.109375 46.1875 
Q 20.953125 51.171875 25.484375 53.578125 
Q 30.03125 56 36.53125 56 
Q 37.453125 56 38.578125 55.875 
Q 39.703125 55.765625 41.0625 55.515625 
z
" id="DejaVuSans-72"/>
      <path d="M 48.78125 52.59375 
L 48.78125 44.1875 
Q 44.96875 46.296875 41.140625 47.34375 
Q 37.3125 48.390625 33.40625 48.390625 
Q 24.65625 48.390625 19.8125 42.84375 
Q 14.984375 37.3125 14.984375 27.296875 
Q 14.984375 17.28125 19.8125 11.734375 
Q 24.65625 6.203125 33.40625 6.203125 
Q 37.3125 6.203125 41.140625 7.25 
Q 44.96875 8.296875 48.78125 10.40625 
L 48.78125 2.09375 
Q 45.015625 0.34375 40.984375 -0.53125 
Q 36.96875 -1.421875 32.421875 -1.421875 
Q 20.0625 -1.421875 12.78125 6.34375 
Q 5.515625 14.109375 5.515625 27.296875 
Q 5.515625 40.671875 12.859375 48.328125 
Q 20.21875 56 33.015625 56 
Q 37.15625 56 41.109375 55.140625 
Q 45.0625 54.296875 48.78125 52.59375 
" id="DejaVuSans-63"/>
      <path d="M 18.3125 70.21875 
L 18.3125 54.6875 
L 36.8125 54.6875 
L 36.8125 47.703125 
L 18.3125 47.703125 
L 18.3125 18.015625 
Q 18.3125 11.328125 20.140625 9.421875 
Q 21.96875 7.515625 27.59375 7.515625 
L 36.8125 7.515625 
L 36.8125 0 
L 27.59375 0 
Q 17.1875 0 13.234375 3.875 
Q 9.28125 7.765625 9.28125 18.015625 
L 9.28125 47.703125 
L 2.6875 47.703125 
L 2.6875 54.6875 
L 9.28125 54.6875 
L 9.28125 70.21875 
z
" id="DejaVuSans-74"/>
      <path d="M 8.5 21.578125 
L 8.5 54.6875 
L 17.484375 54.6875 
L 17.484375 21.921875 
Q 17.484375 14.15625 20.5 10.265625 
Q 23.53125 6.390625 29.59375 6.390625 
Q 36.859375 6.390625 41.078125 11.03125 
Q 45.3125 15.671875 45.3125 23.6875 
L 45.3125 54.6875 
L 54.296875 54.6875 
L 54.296875 0 
L 45.3125 0 
L 45.3125 8.40625 
Q 42.046875 3.421875 37.71875 1 
Q 33.40625 -1.421875 27.6875 -1.421875 
Q 18.265625 -1.421875 13.375 4.4375 
Q 8.5 10.296875 8.5 21.578125 
M 31.109375 56 
z
" id="DejaVuSans-75"/>
      <path d="M 11.71875 12.40625 
L 22.015625 12.40625 
L 22.015625 4 
L 14.015625 -11.625 
L 7.71875 -11.625 
L 11.71875 4 
z
" id="DejaVuSans-2c"/>
      <path d="M 18.109375 8.203125 
L 18.109375 -20.796875 
L 9.078125 -20.796875 
L 9.078125 54.6875 
L 18.109375 54.6875 
L 18.109375 46.390625 
Q 20.953125 51.265625 25.265625 53.625 
Q 29.59375 56 35.59375 56 
Q 45.5625 56 51.78125 48.09375 
Q 58.015625 40.1875 58.015625 27.296875 
Q 58.015625 14.40625 51.78125 6.484375 
Q 45.5625 -1.421875 35.59375 -1.421875 
Q 29.59375 -1.421875 25.265625 0.953125 
Q 20.953125 3.328125 18.109375 8.203125 
M 48.6875 27.296875 
Q 48.6875 37.203125 44.609375 42.84375 
Q 40.53125 48.484375 33.40625 48.484375 
Q 26.265625 48.484375 22.1875 42.84375 
Q 18.109375 37.203125 18.109375 27.296875 
Q 18.109375 17.390625 22.1875 11.75 
Q 26.265625 6.109375 33.40625 6.109375 
Q 40.53125 6.109375 44.609375 11.75 
Q 48.6875 17.390625 48.6875 27.296875 
" id="DejaVuSans-70"/>
     </defs>
     <g transform="translate(16.859531 294.639375)rotate(-90)scale(0.17 -0.17)">
      <use xlink:href="#DejaVuSans-46"/>
      <use x="57.410156" xlink:href="#DejaVuSans-72"/>
      <use x="98.523438" xlink:href="#DejaVuSans-61"/>
      <use x="159.802734" xlink:href="#DejaVuSans-63"/>
      <use x="214.783203" xlink:href="#DejaVuSans-74"/>
      <use x="253.992188" xlink:href="#DejaVuSans-69"/>
      <use x="281.775391" xlink:href="#DejaVuSans-6f"/>
      <use x="342.957031" xlink:href="#DejaVuSans-6e"/>
      <use x="406.335938" xlink:href="#DejaVuSans-20"/>
      <use x="438.123047" xlink:href="#DejaVuSans-6f"/>
      <use x="499.304688" xlink:href="#DejaVuSans-66"/>
      <use x="534.509766" xlink:href="#DejaVuSans-20"/>
      <use x="566.296875" xlink:href="#DejaVuSans-66"/>
      <use x="601.501953" xlink:href="#DejaVuSans-75"/>
      <use x="664.880859" xlink:href="#DejaVuSans-6e"/>
      <use x="728.259766" xlink:href="#DejaVuSans-63"/>
      <use x="783.240234" xlink:href="#DejaVuSans-74"/>
      <use x="822.449219" xlink:href="#DejaVuSans-69"/>
      <use x="850.232422" xlink:href="#DejaVuSans-6f"/>
      <use x="911.414062" xlink:href="#DejaVuSans-6e"/>
      <use x="974.792969" xlink:href="#DejaVuSans-2c"/>
      <use x="1006.580078" xlink:href="#DejaVuSans-74"/>
      <use x="1045.789062" xlink:href="#DejaVuSans-61"/>
      <use x="1107.068359" xlink:href="#DejaVuSans-72"/>
      <use x="1148.166016" xlink:href="#DejaVuSans-67"/>
      <use x="1211.642578" xlink:href="#DejaVuSans-65"/>
      <use x="1273.166016" xlink:href="#DejaVuSans-74"/>
      <use x="1312.375" xlink:href="#DejaVuSans-20"/>
      <use x="1344.162109" xlink:href="#DejaVuSans-70"/>
      <use x="1407.638672" xlink:href="#DejaVuSans-61"/>
      <use x="1468.917969" xlink:href="#DejaVuSans-69"/>
      <use x="1496.701172" xlink:href="#DejaVuSans-72"/>
      <use x="1537.814453" xlink:href="#DejaVuSans-73"/>
     </g>
    </g>
   </g>
   <g id="line2d_45">
    <defs>
     <path d="M 0 1.5 
C 0.397805 1.5 0.77937 1.341951 1.06066 1.06066 
C 1.341951 0.77937 1.5 0.397805 1.5 0 
C 1.5 -0.397805 1.341951 -0.77937 1.06066 -1.06066 
C 0.77937 -1.341951 0.397805 -1.5 0 -1.5 
C -0.397805 -1.5 -0.77937 -1.341951 -1.06066 -1.06066 
C -1.341951 -0.77937 -1.5 -0.397805 -1.5 0 
C -1.5 0.397805 -1.341951 0.77937 -1.06066 1.06066 
C -0.77937 1.341951 -0.397805 1.5 0 1.5 
z
" id="m082216e248" style="stroke:#f5deb3;"/>
    </defs>
    <g>
     <use style="fill:#f5deb3;stroke:#f5deb3;" x="258.14027" xlink:href="#m082216e248" y="59.688849"/>
     <use style="fill:#f5deb3;stroke:#f5deb3;" x="258.14027" xlink:href="#m082216e248" y="59.688849"/>
    </g>
   </g>
   <g id="line2d_46">
    <defs>
     <path d="M 0 1.5 
C 0.397805 1.5 0.77937 1.341951 1.06066 1.06066 
C 1.341951 0.77937 1.5 0.397805 1.5 0 
C 1.5 -0.397805 1.341951 -0.77937 1.06066 -1.06066 
C 0.77937 -1.341951 0.397805 -1.5 0 -1.5 
C -0.397805 -1.5 -0.77937 -1.341951 -1.06066 -1.06066 
C -1.341951 -0.77937 -1.5 -0.397805 -1.5 0 
C -1.5 0.397805 -1.341951 0.77937 -1.06066 1.06066 
C -0.77937 1.341951 -0.397805 1.5 0 1.5 
z
" id="md80f4c32e5" style="stroke:#000080;"/>
    </defs>
    <g>
     <use style="fill:#000080;stroke:#000080;" x="314.10842" xlink:href="#md80f4c32e5" y="96.468638"/>
     <use style="fill:#000080;stroke:#000080;" x="314.10842" xlink:href="#md80f4c32e5" y="96.468638"/>
    </g>
   </g>
   <g id="line2d_47">
    <path d="M 37.9781 294.16 
L 37.9781 286.344295 
L 135.323387 286.344295 
L 135.323387 285.884548 
L 140.844606 285.884548 
L 140.844606 285.4248 
L 141.100226 285.4248 
L 141.184594 284.045558 
L 142.71351 284.045558 
L 142.71351 282.666316 
L 143.169347 282.666316 
L 143.169347 281.287074 
L 144.778427 281.287074 
L 144.778427 280.827327 
L 145.049342 280.827327 
L 145.049342 280.367579 
L 145.513393 280.367579 
L 145.513393 279.907832 
L 145.676132 279.907832 
L 145.676132 279.448085 
L 146.155293 279.448085 
L 146.155293 278.068843 
L 147.976808 278.068843 
L 147.976808 277.609095 
L 148.368935 277.609095 
L 148.479346 272.551874 
L 148.561691 272.551874 
L 148.670873 270.712885 
L 148.914024 270.712885 
L 148.914024 270.253138 
L 149.364119 270.253138 
L 149.364119 269.79339 
L 149.597713 269.79339 
L 149.597713 269.333643 
L 149.82817 269.333643 
L 149.82817 268.873896 
L 150.304765 268.873896 
L 150.304765 268.414148 
L 151.03134 268.414148 
L 151.03134 267.954401 
L 151.360165 267.954401 
L 151.360165 266.115411 
L 151.864493 266.115411 
L 151.864493 265.655664 
L 152.177884 265.655664 
L 152.177884 265.195917 
L 152.809403 265.195917 
L 152.83077 262.89718 
L 153.25263 262.89718 
L 153.25263 262.437433 
L 153.397866 262.437433 
L 153.397866 261.977685 
L 153.725291 261.977685 
L 153.725291 261.058191 
L 154.185288 261.058191 
L 154.185288 260.598443 
L 154.303287 260.598443 
L 154.303287 260.138696 
L 154.767338 260.138696 
L 154.843475 258.759454 
L 154.900357 258.759454 
L 154.900357 256.460717 
L 155.31183 256.460717 
L 155.31183 256.00097 
L 155.568634 256.00097 
L 155.568634 255.081475 
L 155.731717 255.081475 
L 155.821653 253.702233 
L 156.000125 253.702233 
L 156.017871 251.403496 
L 156.159179 251.403496 
L 156.159179 250.943749 
L 156.490197 250.943749 
L 156.490197 250.484001 
L 157.166889 250.484001 
L 157.166889 250.024254 
L 157.282616 250.024254 
L 157.315538 249.104759 
L 157.881684 249.104759 
L 157.881684 247.725517 
L 158.071571 247.725517 
L 158.071571 247.26577 
L 158.228223 247.26577 
L 158.228223 246.346275 
L 160.046494 246.346275 
L 160.074525 244.507286 
L 160.255618 244.507286 
L 160.352344 242.668296 
L 161.133493 242.668296 
L 161.186077 239.909812 
L 161.32986 239.909812 
L 161.32986 238.53057 
L 162.23002 238.53057 
L 162.23002 237.151328 
L 162.717112 237.151328 
L 162.824829 234.852591 
L 163.038257 234.852591 
L 163.085327 233.473349 
L 163.978308 233.473349 
L 164.045113 232.553855 
L 164.81651 232.553855 
L 164.81651 231.63436 
L 165.757079 231.63436 
L 165.82734 228.875876 
L 166.610547 228.875876 
L 166.677408 227.036886 
L 167.110417 227.036886 
L 167.110417 226.117392 
L 167.856215 226.117392 
L 167.856215 225.657644 
L 168.80836 225.657644 
L 168.80836 224.73815 
L 170.771516 224.73815 
L 170.809027 222.439413 
L 171.492198 222.439413 
L 171.492198 221.979665 
L 172.287292 221.979665 
L 172.287292 221.519918 
L 174.491116 221.519918 
L 174.491116 220.600423 
L 175.591985 220.600423 
L 175.608992 218.761434 
L 175.917843 218.761434 
L 175.917843 217.841939 
L 176.492472 217.841939 
L 176.492472 216.922445 
L 176.970152 216.922445 
L 176.970152 216.00295 
L 179.496678 216.00295 
L 179.496678 215.543202 
L 182.600552 215.543202 
L 182.600552 214.16396 
L 183.461013 214.16396 
L 183.461013 213.244466 
L 184.474207 213.244466 
L 184.474207 212.784718 
L 189.437026 212.784718 
L 189.437026 212.324971 
L 191.641701 212.324971 
L 191.641701 211.865224 
L 193.487549 211.865224 
L 193.487549 211.405476 
L 199.290654 211.405476 
L 199.290654 210.945729 
L 199.453918 210.945729 
L 199.453918 210.485982 
L 199.576408 210.485982 
L 199.611445 207.727497 
L 199.696636 207.727497 
L 199.696636 206.808003 
L 199.813261 206.808003 
L 199.813261 206.348255 
L 199.957938 206.348255 
L 200.040066 202.670277 
L 200.105487 202.670277 
L 200.135388 200.831287 
L 200.311023 200.831287 
L 200.360685 198.53255 
L 200.510142 198.53255 
L 200.510142 198.072803 
L 200.627987 198.072803 
L 200.627987 197.613056 
L 202.004359 197.613056 
L 202.004359 197.153308 
L 202.510773 197.153308 
L 202.56744 195.314319 
L 202.73516 195.314319 
L 202.78411 194.394824 
L 202.85148 194.394824 
L 202.85148 193.475329 
L 203.087502 193.475329 
L 203.087502 193.015582 
L 203.232109 193.015582 
L 203.232109 192.555835 
L 203.44844 192.555835 
L 203.44844 191.63634 
L 203.643271 191.63634 
L 203.643271 190.257098 
L 203.952647 190.257098 
L 203.952647 189.797351 
L 205.068104 189.797351 
L 205.068104 188.877856 
L 206.20822 188.877856 
L 206.298555 186.579119 
L 209.646655 186.579119 
L 209.646655 183.820635 
L 210.694807 183.820635 
L 210.694807 182.90114 
L 211.105387 182.90114 
L 211.105387 182.441393 
L 211.236063 182.441393 
L 211.316968 180.602404 
L 211.843372 180.602404 
L 211.843372 180.142656 
L 214.885391 180.142656 
L 214.885391 178.303667 
L 215.138878 178.303667 
L 215.138878 176.464677 
L 215.368557 176.464677 
L 215.368557 175.085435 
L 216.021961 175.085435 
L 216.021961 174.625688 
L 216.608281 174.625688 
L 216.609322 172.326951 
L 216.81975 172.326951 
L 216.81975 171.867204 
L 217.259091 171.867204 
L 217.259091 171.407456 
L 217.381868 171.407456 
L 217.42508 169.568467 
L 218.239822 169.568467 
L 218.239822 168.648972 
L 220.352821 168.648972 
L 220.352821 167.729478 
L 220.646447 167.729478 
L 220.646447 166.809983 
L 221.736936 166.809983 
L 221.736936 166.350236 
L 222.137042 166.350236 
L 222.137042 165.430741 
L 222.3275 165.430741 
L 222.3275 162.212509 
L 222.939489 162.212509 
L 222.939489 161.752762 
L 223.803883 161.752762 
L 223.803883 160.833267 
L 224.901818 160.833267 
L 224.935482 158.994278 
L 225.590651 158.994278 
L 225.590651 158.534531 
L 227.386955 158.534531 
L 227.386955 158.074783 
L 228.086433 158.074783 
L 228.086433 157.155288 
L 229.126033 157.155288 
L 229.126033 155.316299 
L 229.439579 155.316299 
L 229.439579 154.856552 
L 229.990687 154.856552 
L 229.990687 154.396804 
L 230.88605 154.396804 
L 230.88605 153.937057 
L 231.042065 153.937057 
L 231.042065 153.017562 
L 232.830008 153.017562 
L 232.830008 152.098068 
L 233.272617 152.098068 
L 233.272617 151.178573 
L 234.022489 151.178573 
L 234.022489 150.259078 
L 234.318583 150.259078 
L 234.318583 149.799331 
L 234.620229 149.799331 
L 234.620229 149.339583 
L 237.574688 149.339583 
L 237.66145 147.500594 
L 238.62322 147.500594 
L 238.62322 146.121352 
L 240.799483 146.121352 
L 240.799483 145.661605 
L 240.954398 145.661605 
L 240.954398 144.74211 
L 241.246104 144.74211 
L 241.246104 143.822615 
L 245.109669 143.822615 
L 245.109669 142.903121 
L 245.942068 142.903121 
L 245.942068 141.983626 
L 246.098995 141.983626 
L 246.098995 141.523878 
L 246.680457 141.523878 
L 246.680457 140.604384 
L 248.663205 140.604384 
L 248.663205 139.225142 
L 251.158285 139.225142 
L 251.158285 137.8459 
L 251.953557 137.8459 
L 251.953557 137.386152 
L 252.694867 137.386152 
L 252.694867 135.087416 
L 252.833815 135.087416 
L 252.833815 134.627668 
L 253.670894 134.627668 
L 253.670894 133.708173 
L 254.489968 133.708173 
L 254.489968 132.788679 
L 256.883527 132.788679 
L 256.960974 131.409437 
L 257.043602 131.409437 
L 257.060179 130.030195 
L 257.326555 130.030195 
L 257.326652 128.650953 
L 257.847831 128.650953 
L 257.847831 128.191205 
L 258.09497 128.191205 
L 258.09497 127.731458 
L 259.951753 127.731458 
L 259.951753 127.27171 
L 261.667687 127.27171 
L 261.667687 126.811963 
L 262.655724 126.811963 
L 262.715174 125.892468 
L 262.938405 125.892468 
L 262.938405 125.432721 
L 264.816716 125.432721 
L 264.816716 124.972974 
L 265.179944 124.972974 
L 265.179975 124.053479 
L 265.821457 124.053479 
L 265.821457 123.593732 
L 267.638815 123.593732 
L 267.733301 122.674237 
L 268.160748 122.674237 
L 268.160748 122.21449 
L 271.13698 122.21449 
L 271.13711 121.294995 
L 272.326002 121.294995 
L 272.326002 120.835248 
L 272.561465 120.835248 
L 272.561465 120.3755 
L 272.78822 120.3755 
L 272.83147 119.456005 
L 274.272826 119.456005 
L 274.363403 116.697521 
L 276.662834 116.697521 
L 276.662834 116.237774 
L 277.706917 116.237774 
L 277.706917 115.778027 
L 278.019276 115.778027 
L 278.019276 115.318279 
L 278.306437 115.318279 
L 278.306437 114.858532 
L 278.957527 114.858532 
L 279.060108 113.019543 
L 280.629916 113.019543 
L 280.737685 112.100048 
L 280.836623 112.100048 
L 280.836623 111.6403 
L 282.70748 111.6403 
L 282.743997 110.720806 
L 282.921986 110.720806 
L 282.921986 110.261058 
L 284.191499 110.261058 
L 284.191499 109.801311 
L 285.691815 109.801311 
L 285.691815 109.341564 
L 285.924686 109.341564 
L 285.924686 108.881816 
L 286.996745 108.881816 
L 286.996883 107.962322 
L 289.407423 107.962322 
L 289.407423 107.502574 
L 290.552183 107.502574 
L 290.590306 106.58308 
L 291.520991 106.58308 
L 291.520991 106.123332 
L 292.570937 106.123332 
L 292.570962 105.203837 
L 293.402465 105.203837 
L 293.402465 104.74409 
L 294.346404 104.74409 
L 294.437244 103.824595 
L 297.384129 103.824595 
L 297.384129 103.364848 
L 298.020809 103.364848 
L 298.020809 102.905101 
L 299.364885 102.905101 
L 299.364885 102.445353 
L 300.580086 102.445353 
L 300.580086 101.985606 
L 301.714995 101.985606 
L 301.714995 101.525859 
L 303.332471 101.525859 
L 303.386249 100.606364 
L 304.303877 100.606364 
L 304.303877 100.146617 
L 304.72881 100.146617 
L 304.72881 99.686869 
L 306.095981 99.686869 
L 306.095981 99.227122 
L 308.067583 99.227122 
L 308.067583 98.767375 
L 308.467564 98.767375 
L 308.475723 97.84788 
L 308.809899 97.84788 
L 308.809899 97.388132 
L 312.694114 97.388132 
L 312.694114 96.928385 
L 314.10842 96.928385 
L 314.10842 96.468638 
L 333.569032 96.468638 
L 333.569032 96.468638 
" style="fill:none;stroke:#000080;stroke-linecap:square;stroke-width:1.5;"/>
   </g>
   <g id="line2d_48">
    <defs>
     <path d="M 0 6 
C 1.591219 6 3.117479 5.367802 4.242641 4.242641 
C 5.367802 3.117479 6 1.591219 6 0 
C 6 -1.591219 5.367802 -3.117479 4.242641 -4.242641 
C 3.117479 -5.367802 1.591219 -6 0 -6 
C -1.591219 -6 -3.117479 -5.367802 -4.242641 -4.242641 
C -5.367802 -3.117479 -6 -1.591219 -6 0 
C -6 1.591219 -5.367802 3.117479 -4.242641 4.242641 
C -3.117479 5.367802 -1.591219 6 0 6 
z
" id="m9a2b3f4872" style="stroke:#000080;stroke-width:1.5;"/>
    </defs>
    <g>
     <use style="fill:none;stroke:#000080;stroke-width:1.5;" x="135.323387" xlink:href="#m9a2b3f4872" y="286.344295"/>
     <use style="fill:none;stroke:#000080;stroke-width:1.5;" x="193.487549" xlink:href="#m9a2b3f4872" y="211.865224"/>
     <use style="fill:none;stroke:#000080;stroke-width:1.5;" x="233.272617" xlink:href="#m9a2b3f4872" y="151.178573"/>
     <use style="fill:none;stroke:#000080;stroke-width:1.5;" x="306.095981" xlink:href="#m9a2b3f4872" y="99.227122"/>
     <use style="fill:none;stroke:#000080;stroke-width:1.5;" x="314.10842" xlink:href="#m9a2b3f4872" y="96.468638"/>
     <use style="fill:none;stroke:#000080;stroke-width:1.5;" x="333.569032" xlink:href="#m9a2b3f4872" y="96.468638"/>
    </g>
   </g>
   <g id="line2d_49">
    <path style="fill:none;stroke:#000080;stroke-linecap:square;stroke-width:1.5;"/>
    <g/>
   </g>
   <g id="line2d_50">
    <path clip-path="url(#pffff0a313e)" d="M 254.510403 132.788679 
" style="fill:none;stroke:#000080;stroke-linecap:square;stroke-width:1.5;"/>
    <defs>
     <path d="M -12 12 
L 12 -12 
M -12 -12 
L 12 12 
" id="m300ff0a89a" style="stroke:#000080;stroke-width:3;"/>
    </defs>
    <g clip-path="url(#pffff0a313e)">
     <use style="fill:#000080;stroke:#000080;stroke-width:3;" x="254.510403" xlink:href="#m300ff0a89a" y="132.788679"/>
    </g>
   </g>
   <g id="line2d_51">
    <defs>
     <path d="M 0 1.5 
C 0.397805 1.5 0.77937 1.341951 1.06066 1.06066 
C 1.341951 0.77937 1.5 0.397805 1.5 0 
C 1.5 -0.397805 1.341951 -0.77937 1.06066 -1.06066 
C 0.77937 -1.341951 0.397805 -1.5 0 -1.5 
C -0.397805 -1.5 -0.77937 -1.341951 -1.06066 -1.06066 
C -1.341951 -0.77937 -1.5 -0.397805 -1.5 0 
C -1.5 0.397805 -1.341951 0.77937 -1.06066 1.06066 
C -0.77937 1.341951 -0.397805 1.5 0 1.5 
z
" id="mbdd5658912" style="stroke:#ff00ff;"/>
    </defs>
    <g>
     <use style="fill:#ff00ff;stroke:#ff00ff;" x="346.925692" xlink:href="#mbdd5658912" y="137.8459"/>
     <use style="fill:#ff00ff;stroke:#ff00ff;" x="346.925692" xlink:href="#mbdd5658912" y="137.8459"/>
    </g>
   </g>
   <g id="line2d_52">
    <path d="M 37.9781 294.16 
L 37.9781 289.102779 
L 56.84 289.102779 
L 56.84 288.643032 
L 61.779168 288.643032 
L 61.779168 286.804042 
L 68.740534 286.804042 
L 68.740534 286.344295 
L 71.387123 286.344295 
L 71.387123 284.045558 
L 77.510818 284.045558 
L 77.510818 283.126064 
L 82.015309 283.126064 
L 82.015309 282.206569 
L 88.530706 282.206569 
L 88.530706 281.746821 
L 89.411353 281.746821 
L 89.411353 281.287074 
L 90.249023 281.287074 
L 90.249023 278.52859 
L 93.242469 278.52859 
L 93.242469 277.609095 
L 95.188191 277.609095 
L 95.188191 276.689601 
L 98.009084 276.689601 
L 98.009084 276.229853 
L 101.73583 276.229853 
L 101.73583 275.770106 
L 105.143003 275.770106 
L 105.143003 275.310358 
L 106.464335 275.310358 
L 106.464335 274.850611 
L 113.844474 274.850611 
L 113.844474 273.931116 
L 118.98926 273.931116 
L 118.98926 273.471369 
L 122.573338 273.471369 
L 122.573338 271.172632 
L 123.184393 271.172632 
L 123.184393 270.712885 
L 124.896992 270.712885 
L 124.896992 268.873896 
L 127.135154 268.873896 
L 127.135154 267.034906 
L 128.509394 267.034906 
L 128.509394 266.115411 
L 128.771519 266.115411 
L 128.771519 265.655664 
L 129.534704 265.655664 
L 129.534704 265.195917 
L 129.781742 265.195917 
L 129.781742 264.736169 
L 130.580437 264.736169 
L 130.580437 263.816675 
L 132.979988 263.816675 
L 132.979988 263.356927 
L 133.448562 263.356927 
L 133.448562 262.437433 
L 141.51798 262.437433 
L 141.51798 261.517938 
L 142.36351 261.517938 
L 142.36351 260.598443 
L 142.636346 260.598443 
L 142.636346 259.219201 
L 143.649884 259.219201 
L 143.649884 257.839959 
L 145.049342 257.839959 
L 145.049342 256.00097 
L 148.561691 256.00097 
L 148.561691 254.621728 
L 150.354172 254.621728 
L 150.354172 253.702233 
L 151.102335 253.702233 
L 151.102335 253.242485 
L 154.67169 253.242485 
L 154.67169 251.403496 
L 157.413927 251.403496 
L 157.413927 250.943749 
L 158.689778 250.943749 
L 158.689778 250.484001 
L 159.094829 250.484001 
L 159.094829 250.024254 
L 159.948025 250.024254 
L 159.976217 246.806023 
L 160.760821 246.806023 
L 160.760821 245.42678 
L 166.105545 245.42678 
L 166.105545 244.967033 
L 167.623231 244.967033 
L 167.623231 244.507286 
L 169.452887 244.507286 
L 169.541866 243.587791 
L 169.750365 243.587791 
L 169.750365 242.668296 
L 171.252882 242.668296 
L 171.252882 241.748802 
L 177.224741 241.748802 
L 177.291656 239.909812 
L 178.294392 239.909812 
L 178.294392 238.070823 
L 179.496678 238.070823 
L 179.528276 235.772086 
L 180.135262 235.772086 
L 180.135262 235.312339 
L 180.6414 235.312339 
L 180.6414 233.933097 
L 182.00198 233.933097 
L 182.00198 233.013602 
L 183.043524 233.013602 
L 183.043524 231.63436 
L 184.263294 231.63436 
L 184.263294 230.255118 
L 184.382676 230.255118 
L 184.382676 229.335623 
L 185.003545 229.335623 
L 185.003545 228.875876 
L 186.328034 228.875876 
L 186.328034 228.416128 
L 189.307392 228.416128 
L 189.307392 227.036886 
L 196.534594 227.036886 
L 196.534594 225.657644 
L 196.702925 225.657644 
L 196.702925 225.197897 
L 196.93356 225.197897 
L 196.93356 224.278402 
L 197.420766 224.278402 
L 197.420766 222.89916 
L 197.643587 222.89916 
L 197.643587 221.979665 
L 198.998614 221.979665 
L 199.082562 220.600423 
L 201.543961 220.600423 
L 201.596423 217.841939 
L 204.25548 217.841939 
L 204.25548 216.922445 
L 208.010368 216.922445 
L 208.010368 216.462697 
L 208.741389 216.462697 
L 208.741389 216.00295 
L 211.629182 216.00295 
L 211.629182 213.704213 
L 212.185999 213.704213 
L 212.185999 212.324971 
L 212.583196 212.324971 
L 212.583196 211.865224 
L 213.533088 211.865224 
L 213.533088 211.405476 
L 213.684258 211.405476 
L 213.684258 210.945729 
L 216.131426 210.945729 
L 216.131426 210.026234 
L 218.740532 210.026234 
L 218.740532 209.10674 
L 219.683646 209.10674 
L 219.683646 207.26775 
L 220.871536 207.26775 
L 220.871536 205.888508 
L 223.358526 205.888508 
L 223.358526 204.969013 
L 225.374091 204.969013 
L 225.374091 204.049519 
L 226.364972 204.049519 
L 226.364972 203.130024 
L 228.499189 203.130024 
L 228.499189 202.210529 
L 229.327351 202.210529 
L 229.327351 201.750782 
L 230.188542 201.750782 
L 230.188542 201.291034 
L 232.076555 201.291034 
L 232.076555 200.37154 
L 233.012866 200.37154 
L 233.012866 199.911792 
L 233.168831 199.911792 
L 233.168831 198.992298 
L 236.634003 198.992298 
L 236.634003 198.53255 
L 238.674665 198.53255 
L 238.674665 196.693561 
L 240.83238 196.693561 
L 240.83238 196.233814 
L 241.609633 196.233814 
L 241.609633 195.314319 
L 242.101691 195.314319 
L 242.101691 193.935077 
L 242.306585 193.935077 
L 242.306585 193.475329 
L 242.717935 193.475329 
L 242.717935 193.015582 
L 243.60185 193.015582 
L 243.60185 191.63634 
L 244.068239 191.63634 
L 244.068239 190.716845 
L 244.408304 190.716845 
L 244.408304 189.337603 
L 245.438445 189.337603 
L 245.438445 188.877856 
L 248.379163 188.877856 
L 248.379163 187.038867 
L 250.296324 187.038867 
L 250.296324 186.119372 
L 251.880235 186.119372 
L 251.880235 185.659624 
L 253.369457 185.659624 
L 253.369457 185.199877 
L 255.67623 185.199877 
L 255.67623 184.74013 
L 258.401151 184.74013 
L 258.401151 183.820635 
L 259.49248 183.820635 
L 259.49248 182.90114 
L 260.132885 182.90114 
L 260.132885 182.441393 
L 260.692807 182.441393 
L 260.692807 181.521898 
L 263.077481 181.521898 
L 263.077481 181.062151 
L 263.753376 181.062151 
L 263.753376 180.142656 
L 264.32533 180.142656 
L 264.32533 179.223161 
L 265.970919 179.223161 
L 265.970919 178.303667 
L 266.092391 178.303667 
L 266.092391 177.843919 
L 268.011934 177.843919 
L 268.011934 177.384172 
L 268.745905 177.384172 
L 268.745905 176.00493 
L 269.598689 176.00493 
L 269.598689 175.545183 
L 270.013022 175.545183 
L 270.013022 174.625688 
L 271.24701 174.625688 
L 271.266207 173.246446 
L 271.52367 173.246446 
L 271.52367 172.326951 
L 274.640592 172.326951 
L 274.640592 171.407456 
L 275.504821 171.407456 
L 275.504821 170.947709 
L 275.796054 170.947709 
L 275.796054 170.487962 
L 276.957149 170.487962 
L 276.957149 170.028214 
L 279.532171 170.028214 
L 279.532171 169.568467 
L 280.164634 169.568467 
L 280.164634 169.10872 
L 282.166758 169.10872 
L 282.166758 168.648972 
L 283.30773 168.648972 
L 283.30773 168.189225 
L 285.140602 168.189225 
L 285.140602 167.729478 
L 286.021219 167.729478 
L 286.021219 167.26973 
L 287.468311 167.26973 
L 287.468311 166.809983 
L 290.427851 166.809983 
L 290.427851 166.350236 
L 290.803977 166.350236 
L 290.803977 165.890488 
L 292.352165 165.890488 
L 292.352165 165.430741 
L 293.83624 165.430741 
L 293.83624 164.051499 
L 294.850438 164.051499 
L 294.946664 163.132004 
L 296.43352 163.132004 
L 296.43352 162.672257 
L 296.654982 162.672257 
L 296.654982 161.752762 
L 296.83711 161.752762 
L 296.83711 161.293015 
L 297.579718 161.293015 
L 297.672234 160.37352 
L 297.823215 160.37352 
L 297.823215 159.454025 
L 298.843574 159.454025 
L 298.843574 158.534531 
L 300.365447 158.534531 
L 300.365447 158.074783 
L 301.008012 158.074783 
L 301.008012 157.615036 
L 302.021487 157.615036 
L 302.021487 157.155288 
L 304.396635 157.155288 
L 304.396635 156.695541 
L 306.595906 156.695541 
L 306.595906 156.235794 
L 307.125751 156.235794 
L 307.125751 155.776046 
L 307.850878 155.776046 
L 307.850878 154.396804 
L 308.508185 154.396804 
L 308.508185 153.937057 
L 308.631028 153.937057 
L 308.673632 153.017562 
L 310.008841 153.017562 
L 310.008841 152.098068 
L 311.530293 152.098068 
L 311.530293 151.63832 
L 311.886908 151.63832 
L 311.886908 151.178573 
L 312.340465 151.178573 
L 312.340465 150.718826 
L 313.340385 150.718826 
L 313.340385 150.259078 
L 313.816204 150.259078 
L 313.816204 149.339583 
L 314.255462 149.339583 
L 314.255462 148.420089 
L 314.654491 148.420089 
L 314.654491 147.960341 
L 316.007623 147.960341 
L 316.007623 147.500594 
L 316.821794 147.500594 
L 316.821794 147.040847 
L 317.787581 147.040847 
L 317.787581 146.121352 
L 318.865244 146.121352 
L 318.865244 145.661605 
L 322.743668 145.661605 
L 322.743668 145.201857 
L 323.590193 145.201857 
L 323.590193 144.74211 
L 324.128408 144.74211 
L 324.128408 143.822615 
L 325.49078 143.822615 
L 325.49078 143.362868 
L 326.423749 143.362868 
L 326.423749 142.903121 
L 328.09389 142.903121 
L 328.09389 142.443373 
L 328.847401 142.443373 
L 328.847401 141.983626 
L 329.23763 141.983626 
L 329.23763 141.523878 
L 330.042949 141.523878 
L 330.042949 141.064131 
L 330.236797 141.064131 
L 330.236797 140.604384 
L 333.569032 140.604384 
L 333.569032 140.604384 
" style="fill:none;stroke:#ff00ff;stroke-linecap:square;stroke-width:1.5;"/>
   </g>
   <g id="line2d_53">
    <defs>
     <path d="M -0 8.485281 
L 5.091169 0 
L 0 -8.485281 
L -5.091169 -0 
z
" id="m6a70d39045" style="stroke:#ff00ff;stroke-linejoin:miter;stroke-width:1.5;"/>
    </defs>
    <g>
     <use style="fill:none;stroke:#ff00ff;stroke-linejoin:miter;stroke-width:1.5;" x="106.464335" xlink:href="#m6a70d39045" y="275.310358"/>
     <use style="fill:none;stroke:#ff00ff;stroke-linejoin:miter;stroke-width:1.5;" x="180.6414" xlink:href="#m6a70d39045" y="235.312339"/>
     <use style="fill:none;stroke:#ff00ff;stroke-linejoin:miter;stroke-width:1.5;" x="225.374091" xlink:href="#m6a70d39045" y="204.969013"/>
     <use style="fill:none;stroke:#ff00ff;stroke-linejoin:miter;stroke-width:1.5;" x="302.021487" xlink:href="#m6a70d39045" y="157.155288"/>
     <use style="fill:none;stroke:#ff00ff;stroke-linejoin:miter;stroke-width:1.5;" x="330.236797" xlink:href="#m6a70d39045" y="140.604384"/>
     <use style="fill:none;stroke:#ff00ff;stroke-linejoin:miter;stroke-width:1.5;" x="333.569032" xlink:href="#m6a70d39045" y="140.604384"/>
    </g>
   </g>
   <g id="line2d_54">
    <path style="fill:none;stroke:#ff00ff;stroke-linecap:square;stroke-width:1.5;"/>
    <g/>
   </g>
   <g id="line2d_55">
    <path clip-path="url(#pffff0a313e)" d="M 294.036313 164.051499 
" style="fill:none;stroke:#ff00ff;stroke-linecap:square;stroke-width:1.5;"/>
    <defs>
     <path d="M -12 12 
L 12 -12 
M -12 -12 
L 12 12 
" id="m60dffab6aa" style="stroke:#ff00ff;stroke-width:3;"/>
    </defs>
    <g clip-path="url(#pffff0a313e)">
     <use style="fill:#ff00ff;stroke:#ff00ff;stroke-width:3;" x="294.036313" xlink:href="#m60dffab6aa" y="164.051499"/>
    </g>
   </g>
   <g id="line2d_56">
    <defs>
     <path d="M 0 1.5 
C 0.397805 1.5 0.77937 1.341951 1.06066 1.06066 
C 1.341951 0.77937 1.5 0.397805 1.5 0 
C 1.5 -0.397805 1.341951 -0.77937 1.06066 -1.06066 
C 0.77937 -1.341951 0.397805 -1.5 0 -1.5 
C -0.397805 -1.5 -0.77937 -1.341951 -1.06066 -1.06066 
C -1.341951 -0.77937 -1.5 -0.397805 -1.5 0 
C -1.5 0.397805 -1.341951 0.77937 -1.06066 1.06066 
C -0.77937 1.341951 -0.397805 1.5 0 1.5 
z
" id="m12271a541c" style="stroke:#ffa500;"/>
    </defs>
    <g>
     <use style="fill:#ffa500;stroke:#ffa500;" x="229.949119" xlink:href="#m12271a541c" y="252.782738"/>
     <use style="fill:#ffa500;stroke:#ffa500;" x="229.949119" xlink:href="#m12271a541c" y="252.782738"/>
    </g>
   </g>
   <g id="line2d_57">
    <path d="M 37.9781 294.16 
L 37.9781 290.941769 
L 136.245426 290.941769 
L 136.245426 289.562526 
L 137.332424 289.562526 
L 137.332424 288.183284 
L 140.098971 288.183284 
L 140.098971 286.804042 
L 144.64135 286.804042 
L 144.64135 286.344295 
L 148.341221 286.344295 
L 148.341221 285.884548 
L 150.205523 285.884548 
L 150.205523 285.4248 
L 156.541884 285.4248 
L 156.541884 284.505306 
L 162.081156 284.505306 
L 162.081156 284.045558 
L 162.860585 284.045558 
L 162.860585 283.585811 
L 163.061808 283.585811 
L 163.061808 282.666316 
L 163.79888 282.666316 
L 163.79888 282.206569 
L 164.056222 282.206569 
L 164.056222 281.287074 
L 164.805882 281.287074 
L 164.805882 280.827327 
L 166.41807 280.827327 
L 166.41807 279.448085 
L 169.59825 279.448085 
L 169.59825 278.988337 
L 170.260796 278.988337 
L 170.260796 278.52859 
L 170.384147 278.52859 
L 170.384147 277.609095 
L 175.009348 277.609095 
L 175.009348 277.149348 
L 177.812807 277.149348 
L 177.812807 276.689601 
L 177.936949 276.689601 
L 177.936949 276.229853 
L 178.501509 276.229853 
L 178.501509 275.770106 
L 180.637173 275.770106 
L 180.637173 275.310358 
L 180.85562 275.310358 
L 180.85562 274.850611 
L 182.899603 274.850611 
L 182.899603 274.390864 
L 183.153416 274.390864 
L 183.182603 273.471369 
L 183.907074 273.471369 
L 183.907074 273.011622 
L 187.341552 273.011622 
L 187.37585 272.092127 
L 187.466977 272.092127 
L 187.466977 271.63238 
L 188.734049 271.63238 
L 188.797248 270.253138 
L 189.668429 270.253138 
L 189.668429 269.79339 
L 190.373292 269.79339 
L 190.392465 268.873896 
L 190.497532 268.873896 
L 190.497532 268.414148 
L 191.60603 268.414148 
L 191.60603 267.954401 
L 191.737201 267.954401 
L 191.737201 267.494653 
L 191.889343 267.494653 
L 191.889343 267.034906 
L 193.166551 267.034906 
L 193.255983 265.655664 
L 194.48977 265.655664 
L 194.504857 264.736169 
L 195.442055 264.736169 
L 195.442055 264.276422 
L 196.141565 264.276422 
L 196.141565 263.816675 
L 196.614799 263.816675 
L 196.687992 262.89718 
L 197.398483 262.89718 
L 197.398483 262.437433 
L 197.651436 262.437433 
L 197.651436 261.977685 
L 198.436715 261.977685 
L 198.436715 261.517938 
L 198.585984 261.517938 
L 198.585984 261.058191 
L 199.633831 261.058191 
L 199.633831 260.598443 
L 201.079876 260.598443 
L 201.079876 260.138696 
L 201.820694 260.138696 
L 201.820694 259.678948 
L 201.982423 259.678948 
L 202.078491 258.759454 
L 202.745661 258.759454 
L 202.745661 258.299706 
L 203.443961 258.299706 
L 203.443961 257.839959 
L 205.409071 257.839959 
L 205.409071 257.380212 
L 207.419169 257.380212 
L 207.419169 256.920464 
L 209.664594 256.920464 
L 209.664594 256.460717 
L 210.210097 256.460717 
L 210.210097 256.00097 
L 213.612556 256.00097 
L 213.649681 255.081475 
L 215.171716 255.081475 
L 215.171716 254.621728 
L 216.048855 254.621728 
L 216.048855 254.16198 
L 221.404178 254.16198 
L 221.404178 253.702233 
L 223.507106 253.702233 
L 223.507106 253.242485 
L 229.949119 253.242485 
L 229.949119 252.782738 
L 333.569032 252.782738 
L 333.569032 252.782738 
" style="fill:none;stroke:#ffa500;stroke-linecap:square;stroke-width:1.5;"/>
   </g>
   <g id="line2d_58">
    <defs>
     <path d="M 0 -6 
L -1.347084 -1.854102 
L -5.706339 -1.854102 
L -2.179628 0.708204 
L -3.526712 4.854102 
L -0 2.291796 
L 3.526712 4.854102 
L 2.179628 0.708204 
L 5.706339 -1.854102 
L 1.347084 -1.854102 
z
" id="mfbc887752f" style="stroke:#ffa500;stroke-linejoin:bevel;stroke-width:1.5;"/>
    </defs>
    <g>
     <use style="fill:none;stroke:#ffa500;stroke-linejoin:bevel;stroke-width:1.5;" x="156.541884" xlink:href="#mfbc887752f" y="284.505306"/>
     <use style="fill:none;stroke:#ffa500;stroke-linejoin:bevel;stroke-width:1.5;" x="215.171716" xlink:href="#mfbc887752f" y="254.621728"/>
     <use style="fill:none;stroke:#ffa500;stroke-linejoin:bevel;stroke-width:1.5;" x="229.949119" xlink:href="#mfbc887752f" y="252.782738"/>
     <use style="fill:none;stroke:#ffa500;stroke-linejoin:bevel;stroke-width:1.5;" x="229.949119" xlink:href="#mfbc887752f" y="252.782738"/>
     <use style="fill:none;stroke:#ffa500;stroke-linejoin:bevel;stroke-width:1.5;" x="333.569032" xlink:href="#mfbc887752f" y="252.782738"/>
    </g>
   </g>
   <g id="line2d_59">
    <path style="fill:none;stroke:#ffa500;stroke-linecap:square;stroke-width:1.5;"/>
    <g/>
   </g>
   <g id="line2d_60">
    <path clip-path="url(#pffff0a313e)" d="M 175.973406 277.149348 
" style="fill:none;stroke:#ffa500;stroke-linecap:square;stroke-width:1.5;"/>
    <defs>
     <path d="M -12 12 
L 12 -12 
M -12 -12 
L 12 12 
" id="mc89241b7bf" style="stroke:#ffa500;stroke-width:3;"/>
    </defs>
    <g clip-path="url(#pffff0a313e)">
     <use style="fill:#ffa500;stroke:#ffa500;stroke-width:3;" x="175.973406" xlink:href="#mc89241b7bf" y="277.149348"/>
    </g>
   </g>
   <g id="line2d_61">
    <defs>
     <path d="M 0 1.5 
C 0.397805 1.5 0.77937 1.341951 1.06066 1.06066 
C 1.341951 0.77937 1.5 0.397805 1.5 0 
C 1.5 -0.397805 1.341951 -0.77937 1.06066 -1.06066 
C 0.77937 -1.341951 0.397805 -1.5 0 -1.5 
C -0.397805 -1.5 -0.77937 -1.341951 -1.06066 -1.06066 
C -1.341951 -0.77937 -1.5 -0.397805 -1.5 0 
C -1.5 0.397805 -1.341951 0.77937 -1.06066 1.06066 
C -0.77937 1.341951 -0.397805 1.5 0 1.5 
z
" id="m678057eefc" style="stroke:#6495ed;"/>
    </defs>
    <g>
     <use style="fill:#6495ed;stroke:#6495ed;" x="263.281706" xlink:href="#m678057eefc" y="151.63832"/>
     <use style="fill:#6495ed;stroke:#6495ed;" x="263.281706" xlink:href="#m678057eefc" y="151.63832"/>
    </g>
   </g>
   <g id="line2d_62">
    <path d="M 37.9781 294.16 
L 37.9781 291.861263 
L 49.878634 291.861263 
L 49.878634 289.562526 
L 61.779168 289.562526 
L 61.779168 288.183284 
L 65.610284 288.183284 
L 65.610284 287.723537 
L 73.679702 287.723537 
L 73.679702 285.4248 
L 86.621091 285.4248 
L 86.621091 284.045558 
L 87.602435 284.045558 
L 87.602435 283.585811 
L 93.915843 283.585811 
L 93.915843 282.206569 
L 94.563801 282.206569 
L 94.563801 279.907832 
L 101.311887 279.907832 
L 101.311887 279.448085 
L 104.796146 279.448085 
L 104.796146 277.609095 
L 105.143003 277.609095 
L 105.143003 275.310358 
L 105.482991 275.310358 
L 105.482991 274.390864 
L 105.816377 274.390864 
L 105.816377 272.551874 
L 107.088725 272.551874 
L 107.088725 271.172632 
L 113.425701 271.172632 
L 113.425701 270.253138 
L 113.636365 270.253138 
L 113.636365 269.79339 
L 116.870985 269.79339 
L 116.870985 268.414148 
L 117.043537 268.414148 
L 117.043537 267.494653 
L 117.551028 267.494653 
L 117.551028 264.736169 
L 119.591737 264.736169 
L 119.591737 263.356927 
L 119.885229 263.356927 
L 119.885229 262.89718 
L 128.243205 262.89718 
L 128.243205 262.437433 
L 129.534704 262.437433 
L 129.534704 261.977685 
L 130.812976 261.977685 
L 130.812976 261.517938 
L 133.96887 261.517938 
L 133.96887 260.598443 
L 134.159991 260.598443 
L 134.159991 259.678948 
L 136.189227 259.678948 
L 136.189227 258.299706 
L 137.437433 258.299706 
L 137.437433 257.380212 
L 137.645543 257.380212 
L 137.645543 256.920464 
L 139.552436 256.920464 
L 139.552436 256.00097 
L 140.054085 256.00097 
L 140.054085 255.541222 
L 142.71351 255.541222 
L 142.71351 255.081475 
L 143.903169 255.081475 
L 143.903169 254.621728 
L 144.64135 254.621728 
L 144.64135 253.702233 
L 144.982013 253.702233 
L 144.982013 251.863243 
L 145.382082 251.863243 
L 145.415004 250.484001 
L 146.529221 250.484001 
L 146.529221 249.104759 
L 147.546488 249.104759 
L 147.546488 248.645012 
L 147.891602 248.645012 
L 147.976808 246.346275 
L 148.033377 246.346275 
L 148.061592 245.42678 
L 148.670873 245.42678 
L 148.670873 244.967033 
L 149.259271 244.967033 
L 149.259271 244.047538 
L 150.960051 244.047538 
L 150.960051 242.668296 
L 152.33246 242.668296 
L 152.33246 241.748802 
L 153.725291 241.748802 
L 153.725291 241.289054 
L 154.145774 241.289054 
L 154.145774 240.829307 
L 154.264044 240.829307 
L 154.264044 239.450065 
L 155.623167 239.450065 
L 155.623167 238.070823 
L 156.035598 238.070823 
L 156.070998 235.772086 
L 156.781056 235.772086 
L 156.848783 234.392844 
L 157.282616 234.392844 
L 157.282616 233.933097 
L 157.865765 233.933097 
L 157.865765 233.473349 
L 158.103016 233.473349 
L 158.103016 233.013602 
L 159.109649 233.013602 
L 159.13925 230.255118 
L 161.054313 230.255118 
L 161.054313 229.335623 
L 161.342872 229.335623 
L 161.39482 225.657644 
L 161.855412 225.657644 
L 161.855412 225.197897 
L 162.824829 225.197897 
L 162.824829 224.73815 
L 163.967148 224.73815 
L 163.967148 223.818655 
L 164.221999 223.818655 
L 164.221999 222.89916 
L 164.827131 222.89916 
L 164.827131 222.439413 
L 165.986866 222.439413 
L 165.986866 221.060171 
L 166.829262 221.060171 
L 166.829262 220.140676 
L 167.368739 220.140676 
L 167.414461 218.301687 
L 168.191141 218.301687 
L 168.191141 217.841939 
L 168.605076 217.841939 
L 168.613595 216.00295 
L 169.306283 216.00295 
L 169.306283 215.543202 
L 170.391827 215.543202 
L 170.391827 215.083455 
L 170.666046 215.083455 
L 170.666046 213.244466 
L 172.755284 213.244466 
L 172.755284 212.784718 
L 173.314794 212.784718 
L 173.314794 212.324971 
L 173.925532 212.324971 
L 173.962992 210.026234 
L 174.563533 210.026234 
L 174.563533 209.566487 
L 175.789363 209.566487 
L 175.789363 209.10674 
L 176.012193 209.10674 
L 176.012193 208.646992 
L 176.39532 208.646992 
L 176.39532 206.808003 
L 177.079724 206.808003 
L 177.079724 205.888508 
L 177.49085 205.888508 
L 177.49085 205.428761 
L 177.642519 205.428761 
L 177.642519 203.130024 
L 178.525431 203.130024 
L 178.525431 202.210529 
L 181.021785 202.210529 
L 181.021785 201.291034 
L 185.513868 201.291034 
L 185.513868 200.37154 
L 186.458044 200.37154 
L 186.458044 199.911792 
L 187.114032 199.911792 
L 187.114032 198.072803 
L 188.206313 198.072803 
L 188.206313 196.693561 
L 190.039154 196.693561 
L 190.039154 195.774066 
L 192.386963 195.774066 
L 192.386963 194.854572 
L 194.903587 194.854572 
L 194.903587 194.394824 
L 195.828562 194.394824 
L 195.910389 192.555835 
L 196.120989 192.555835 
L 196.120989 191.63634 
L 196.943375 191.63634 
L 196.943375 191.176593 
L 198.439713 191.176593 
L 198.439713 190.716845 
L 199.013117 190.716845 
L 199.013117 189.797351 
L 199.546921 189.797351 
L 199.631034 188.877856 
L 199.850581 188.877856 
L 199.882307 187.958361 
L 199.971653 187.958361 
L 199.971653 187.498614 
L 200.374082 187.498614 
L 200.440913 186.579119 
L 200.861277 186.579119 
L 200.861277 186.119372 
L 201.329962 186.119372 
L 201.329962 185.659624 
L 201.451136 185.659624 
L 201.513911 184.280382 
L 201.828078 184.280382 
L 201.909098 182.90114 
L 201.977544 182.90114 
L 201.977544 182.441393 
L 202.315738 182.441393 
L 202.322913 181.521898 
L 203.365385 181.521898 
L 203.394612 180.602404 
L 205.041594 180.602404 
L 205.041594 180.142656 
L 206.142309 180.142656 
L 206.142309 179.682909 
L 207.614407 179.682909 
L 207.614407 179.223161 
L 208.65893 179.223161 
L 208.67215 177.843919 
L 210.542902 177.843919 
L 210.542902 177.384172 
L 210.655117 177.384172 
L 210.723415 176.464677 
L 210.901324 176.464677 
L 210.901324 176.00493 
L 211.576261 176.00493 
L 211.5909 175.085435 
L 211.765606 175.085435 
L 211.765606 174.625688 
L 212.020978 174.625688 
L 212.020978 174.165941 
L 212.482936 174.165941 
L 212.482936 173.706193 
L 212.617361 173.706193 
L 212.617361 173.246446 
L 213.056075 173.246446 
L 213.056075 172.786699 
L 215.241149 172.786699 
L 215.241149 172.326951 
L 218.000201 172.326951 
L 218.000201 171.867204 
L 218.135429 171.867204 
L 218.155408 170.947709 
L 218.589622 170.947709 
L 218.600743 170.028214 
L 220.473284 170.028214 
L 220.473284 169.568467 
L 221.232568 169.568467 
L 221.237336 168.648972 
L 222.015215 168.648972 
L 222.015215 168.189225 
L 222.252768 168.189225 
L 222.252768 167.729478 
L 222.676274 167.729478 
L 222.676274 167.26973 
L 223.599795 167.26973 
L 223.599795 166.809983 
L 223.960883 166.809983 
L 223.960883 166.350236 
L 225.09013 166.350236 
L 225.09013 165.890488 
L 226.193479 165.890488 
L 226.193479 165.430741 
L 226.314207 165.430741 
L 226.314207 164.970994 
L 226.544105 164.970994 
L 226.544105 164.511246 
L 228.070963 164.511246 
L 228.084833 162.212509 
L 228.23931 162.212509 
L 228.246971 161.293015 
L 229.139327 161.293015 
L 229.139327 160.833267 
L 229.403815 160.833267 
L 229.403815 160.37352 
L 229.615583 160.37352 
L 229.615583 159.913773 
L 229.772894 159.913773 
L 229.781108 158.534531 
L 230.770152 158.534531 
L 230.770152 158.074783 
L 231.678082 158.074783 
L 231.678082 157.615036 
L 231.949937 157.615036 
L 231.952278 156.695541 
L 233.090129 156.695541 
L 233.090129 156.235794 
L 235.129184 156.235794 
L 235.129184 155.776046 
L 236.169508 155.776046 
L 236.169508 155.316299 
L 238.611093 155.316299 
L 238.611093 154.856552 
L 242.21832 154.856552 
L 242.21832 154.396804 
L 245.083338 154.396804 
L 245.083338 153.937057 
L 246.629383 153.937057 
L 246.629383 153.47731 
L 248.050802 153.47731 
L 248.050802 153.017562 
L 256.485813 153.017562 
L 256.485813 152.557815 
L 258.576929 152.557815 
L 258.576929 152.098068 
L 263.281706 152.098068 
L 263.281706 151.63832 
L 333.569032 151.63832 
L 333.569032 151.63832 
" style="fill:none;stroke:#6495ed;stroke-linecap:square;stroke-width:1.5;"/>
   </g>
   <g id="line2d_63">
    <defs>
     <path d="M -0 6 
L 6 -6 
L -6 -6 
z
" id="ma9fa395198" style="stroke:#6495ed;stroke-linejoin:miter;stroke-width:1.5;"/>
    </defs>
    <g>
     <use style="fill:none;stroke:#6495ed;stroke-linejoin:miter;stroke-width:1.5;" x="133.96887" xlink:href="#ma9fa395198" y="261.517938"/>
     <use style="fill:none;stroke:#6495ed;stroke-linejoin:miter;stroke-width:1.5;" x="178.525431" xlink:href="#ma9fa395198" y="203.130024"/>
     <use style="fill:none;stroke:#6495ed;stroke-linejoin:miter;stroke-width:1.5;" x="245.083338" xlink:href="#ma9fa395198" y="153.937057"/>
     <use style="fill:none;stroke:#6495ed;stroke-linejoin:miter;stroke-width:1.5;" x="263.281706" xlink:href="#ma9fa395198" y="151.63832"/>
     <use style="fill:none;stroke:#6495ed;stroke-linejoin:miter;stroke-width:1.5;" x="263.281706" xlink:href="#ma9fa395198" y="151.63832"/>
     <use style="fill:none;stroke:#6495ed;stroke-linejoin:miter;stroke-width:1.5;" x="333.569032" xlink:href="#ma9fa395198" y="151.63832"/>
    </g>
   </g>
   <g id="line2d_64">
    <path style="fill:none;stroke:#6495ed;stroke-linecap:square;stroke-width:1.5;"/>
    <g/>
   </g>
   <g id="line2d_65">
    <path clip-path="url(#pffff0a313e)" d="M 197.58382 191.176593 
" style="fill:none;stroke:#6495ed;stroke-linecap:square;stroke-width:1.5;"/>
    <defs>
     <path d="M -12 12 
L 12 -12 
M -12 -12 
L 12 12 
" id="mb89df93d98" style="stroke:#6495ed;stroke-width:3;"/>
    </defs>
    <g clip-path="url(#pffff0a313e)">
     <use style="fill:#6495ed;stroke:#6495ed;stroke-width:3;" x="197.58382" xlink:href="#mb89df93d98" y="191.176593"/>
    </g>
   </g>
   <g id="line2d_66">
    <path d="M 333.569032 252.782738 
L 364.009226 288.826931 
" style="fill:none;stroke:#ffa500;stroke-linecap:square;stroke-width:1.5;"/>
    <g>
     <use style="fill:none;stroke:#ffa500;stroke-linejoin:bevel;stroke-width:1.5;" x="333.569032" xlink:href="#mfbc887752f" y="252.782738"/>
     <use style="fill:none;stroke:#ffa500;stroke-linejoin:bevel;stroke-width:1.5;" x="364.009226" xlink:href="#mfbc887752f" y="288.826931"/>
    </g>
   </g>
   <g id="line2d_67">
    <path d="M 333.569032 151.63832 
L 364.009226 224.830099 
" style="fill:none;stroke:#6495ed;stroke-linecap:square;stroke-width:1.5;"/>
    <g>
     <use style="fill:none;stroke:#6495ed;stroke-linejoin:miter;stroke-width:1.5;" x="333.569032" xlink:href="#ma9fa395198" y="151.63832"/>
     <use style="fill:none;stroke:#6495ed;stroke-linejoin:miter;stroke-width:1.5;" x="364.009226" xlink:href="#ma9fa395198" y="224.830099"/>
    </g>
   </g>
   <g id="line2d_68">
    <path d="M 333.569032 140.604384 
L 364.009226 160.833267 
" style="fill:none;stroke:#ff00ff;stroke-linecap:square;stroke-width:1.5;"/>
    <g>
     <use style="fill:none;stroke:#ff00ff;stroke-linejoin:miter;stroke-width:1.5;" x="333.569032" xlink:href="#m6a70d39045" y="140.604384"/>
     <use style="fill:none;stroke:#ff00ff;stroke-linejoin:miter;stroke-width:1.5;" x="364.009226" xlink:href="#m6a70d39045" y="160.833267"/>
    </g>
   </g>
   <g id="line2d_69">
    <path d="M 333.569032 96.468638 
L 364.009226 96.836436 
" style="fill:none;stroke:#000080;stroke-linecap:square;stroke-width:1.5;"/>
    <g>
     <use style="fill:none;stroke:#000080;stroke-width:1.5;" x="333.569032" xlink:href="#m9a2b3f4872" y="96.468638"/>
     <use style="fill:none;stroke:#000080;stroke-width:1.5;" x="364.009226" xlink:href="#m9a2b3f4872" y="96.836436"/>
    </g>
   </g>
   <g id="line2d_70">
    <path d="M 333.569032 294.16 
L 333.569032 27.506535 
" style="fill:none;stroke:#000000;stroke-linecap:square;stroke-width:1.5;"/>
   </g>
   <g id="patch_3">
    <path d="M 56.84 294.16 
L 56.84 24.84 
" style="fill:none;stroke:#000000;stroke-linecap:square;stroke-linejoin:miter;stroke-width:0.8;"/>
   </g>
   <g id="patch_4">
    <path d="M 399.984 294.16 
L 399.984 24.84 
" style="fill:none;stroke:#000000;stroke-linecap:square;stroke-linejoin:miter;stroke-width:0.8;"/>
   </g>
   <g id="patch_5">
    <path d="M 56.84 294.16 
L 399.984 294.16 
" style="fill:none;stroke:#000000;stroke-linecap:square;stroke-linejoin:miter;stroke-width:0.8;"/>
   </g>
   <g id="patch_6">
    <path d="M 56.84 24.84 
L 399.984 24.84 
" style="fill:none;stroke:#000000;stroke-linecap:square;stroke-linejoin:miter;stroke-width:0.8;"/>
   </g>
   <g id="text_14">
    <!-- adaptiveH -->
    <defs>
     <path d="M 9.8125 72.90625 
L 19.671875 72.90625 
L 19.671875 43.015625 
L 55.515625 43.015625 
L 55.515625 72.90625 
L 65.375 72.90625 
L 65.375 0 
L 55.515625 0 
L 55.515625 34.71875 
L 19.671875 34.71875 
L 19.671875 0 
L 9.8125 0 
z
" id="DejaVuSans-48"/>
    </defs>
    <g transform="translate(369.543806 293.517868)scale(0.17 -0.17)">
     <use xlink:href="#DejaVuSans-61"/>
     <use x="61.279297" xlink:href="#DejaVuSans-64"/>
     <use x="124.755859" xlink:href="#DejaVuSans-61"/>
     <use x="186.035156" xlink:href="#DejaVuSans-70"/>
     <use x="249.511719" xlink:href="#DejaVuSans-74"/>
     <use x="288.720703" xlink:href="#DejaVuSans-69"/>
     <use x="316.503906" xlink:href="#DejaVuSans-76"/>
     <use x="375.683594" xlink:href="#DejaVuSans-65"/>
     <use x="437.207031" xlink:href="#DejaVuSans-48"/>
    </g>
   </g>
   <g id="text_15">
    <!-- final  bu -->
    <defs>
     <path d="M 48.6875 27.296875 
Q 48.6875 37.203125 44.609375 42.84375 
Q 40.53125 48.484375 33.40625 48.484375 
Q 26.265625 48.484375 22.1875 42.84375 
Q 18.109375 37.203125 18.109375 27.296875 
Q 18.109375 17.390625 22.1875 11.75 
Q 26.265625 6.109375 33.40625 6.109375 
Q 40.53125 6.109375 44.609375 11.75 
Q 48.6875 17.390625 48.6875 27.296875 
M 18.109375 46.390625 
Q 20.953125 51.265625 25.265625 53.625 
Q 29.59375 56 35.59375 56 
Q 45.5625 56 51.78125 48.09375 
Q 58.015625 40.1875 58.015625 27.296875 
Q 58.015625 14.40625 51.78125 6.484375 
Q 45.5625 -1.421875 35.59375 -1.421875 
Q 29.59375 -1.421875 25.265625 0.953125 
Q 20.953125 3.328125 18.109375 8.203125 
L 18.109375 0 
L 9.078125 0 
L 9.078125 75.984375 
L 18.109375 75.984375 
z
" id="DejaVuSans-62"/>
    </defs>
    <g transform="translate(369.543806 229.521037)scale(0.17 -0.17)">
     <use xlink:href="#DejaVuSans-66"/>
     <use x="35.205078" xlink:href="#DejaVuSans-69"/>
     <use x="62.988281" xlink:href="#DejaVuSans-6e"/>
     <use x="126.367188" xlink:href="#DejaVuSans-61"/>
     <use x="187.646484" xlink:href="#DejaVuSans-6c"/>
     <use x="215.429688" xlink:href="#DejaVuSans-20"/>
     <use x="247.216797" xlink:href="#DejaVuSans-20"/>
     <use x="279.003906" xlink:href="#DejaVuSans-62"/>
     <use x="342.480469" xlink:href="#DejaVuSans-75"/>
    </g>
   </g>
   <g id="text_16">
    <!-- RANDOMSEA -->
    <defs>
     <path d="M 44.390625 34.1875 
Q 47.5625 33.109375 50.5625 29.59375 
Q 53.5625 26.078125 56.59375 19.921875 
L 66.609375 0 
L 56 0 
L 46.6875 18.703125 
Q 43.0625 26.03125 39.671875 28.421875 
Q 36.28125 30.8125 30.421875 30.8125 
L 19.671875 30.8125 
L 19.671875 0 
L 9.8125 0 
L 9.8125 72.90625 
L 32.078125 72.90625 
Q 44.578125 72.90625 50.734375 67.671875 
Q 56.890625 62.453125 56.890625 51.90625 
Q 56.890625 45.015625 53.6875 40.46875 
Q 50.484375 35.9375 44.390625 34.1875 
M 19.671875 64.796875 
L 19.671875 38.921875 
L 32.078125 38.921875 
Q 39.203125 38.921875 42.84375 42.21875 
Q 46.484375 45.515625 46.484375 51.90625 
Q 46.484375 58.296875 42.84375 61.546875 
Q 39.203125 64.796875 32.078125 64.796875 
z
" id="DejaVuSans-52"/>
     <path d="M 34.1875 63.1875 
L 20.796875 26.90625 
L 47.609375 26.90625 
z
M 28.609375 72.90625 
L 39.796875 72.90625 
L 67.578125 0 
L 57.328125 0 
L 50.6875 18.703125 
L 17.828125 18.703125 
L 11.1875 0 
L 0.78125 0 
z
" id="DejaVuSans-41"/>
     <path d="M 9.8125 72.90625 
L 23.09375 72.90625 
L 55.421875 11.921875 
L 55.421875 72.90625 
L 64.984375 72.90625 
L 64.984375 0 
L 51.703125 0 
L 19.390625 60.984375 
L 19.390625 0 
L 9.8125 0 
z
" id="DejaVuSans-4e"/>
     <path d="M 19.671875 64.796875 
L 19.671875 8.109375 
L 31.59375 8.109375 
Q 46.6875 8.109375 53.6875 14.9375 
Q 60.6875 21.78125 60.6875 36.53125 
Q 60.6875 51.171875 53.6875 57.984375 
Q 46.6875 64.796875 31.59375 64.796875 
z
M 9.8125 72.90625 
L 30.078125 72.90625 
Q 51.265625 72.90625 61.171875 64.09375 
Q 71.09375 55.28125 71.09375 36.53125 
Q 71.09375 17.671875 61.125 8.828125 
Q 51.171875 0 30.078125 0 
L 9.8125 0 
z
" id="DejaVuSans-44"/>
     <path d="M 39.40625 66.21875 
Q 28.65625 66.21875 22.328125 58.203125 
Q 16.015625 50.203125 16.015625 36.375 
Q 16.015625 22.609375 22.328125 14.59375 
Q 28.65625 6.59375 39.40625 6.59375 
Q 50.140625 6.59375 56.421875 14.59375 
Q 62.703125 22.609375 62.703125 36.375 
Q 62.703125 50.203125 56.421875 58.203125 
Q 50.140625 66.21875 39.40625 66.21875 
M 39.40625 74.21875 
Q 54.734375 74.21875 63.90625 63.9375 
Q 73.09375 53.65625 73.09375 36.375 
Q 73.09375 19.140625 63.90625 8.859375 
Q 54.734375 -1.421875 39.40625 -1.421875 
Q 24.03125 -1.421875 14.8125 8.828125 
Q 5.609375 19.09375 5.609375 36.375 
Q 5.609375 53.65625 14.8125 63.9375 
Q 24.03125 74.21875 39.40625 74.21875 
" id="DejaVuSans-4f"/>
     <path d="M 9.8125 72.90625 
L 24.515625 72.90625 
L 43.109375 23.296875 
L 61.8125 72.90625 
L 76.515625 72.90625 
L 76.515625 0 
L 66.890625 0 
L 66.890625 64.015625 
L 48.09375 14.015625 
L 38.1875 14.015625 
L 19.390625 64.015625 
L 19.390625 0 
L 9.8125 0 
z
" id="DejaVuSans-4d"/>
     <path d="M 53.515625 70.515625 
L 53.515625 60.890625 
Q 47.90625 63.578125 42.921875 64.890625 
Q 37.9375 66.21875 33.296875 66.21875 
Q 25.25 66.21875 20.875 63.09375 
Q 16.5 59.96875 16.5 54.203125 
Q 16.5 49.359375 19.40625 46.890625 
Q 22.3125 44.4375 30.421875 42.921875 
L 36.375 41.703125 
Q 47.40625 39.59375 52.65625 34.296875 
Q 57.90625 29 57.90625 20.125 
Q 57.90625 9.515625 50.796875 4.046875 
Q 43.703125 -1.421875 29.984375 -1.421875 
Q 24.8125 -1.421875 18.96875 -0.25 
Q 13.140625 0.921875 6.890625 3.21875 
L 6.890625 13.375 
Q 12.890625 10.015625 18.65625 8.296875 
Q 24.421875 6.59375 29.984375 6.59375 
Q 38.421875 6.59375 43.015625 9.90625 
Q 47.609375 13.234375 47.609375 19.390625 
Q 47.609375 24.75 44.3125 27.78125 
Q 41.015625 30.8125 33.5 32.328125 
L 27.484375 33.5 
Q 16.453125 35.6875 11.515625 40.375 
Q 6.59375 45.0625 6.59375 53.421875 
Q 6.59375 63.09375 13.40625 68.65625 
Q 20.21875 74.21875 32.171875 74.21875 
Q 37.3125 74.21875 42.625 73.28125 
Q 47.953125 72.359375 53.515625 70.515625 
" id="DejaVuSans-53"/>
     <path d="M 9.8125 72.90625 
L 55.90625 72.90625 
L 55.90625 64.59375 
L 19.671875 64.59375 
L 19.671875 43.015625 
L 54.390625 43.015625 
L 54.390625 34.71875 
L 19.671875 34.71875 
L 19.671875 8.296875 
L 56.78125 8.296875 
L 56.78125 0 
L 9.8125 0 
z
" id="DejaVuSans-45"/>
    </defs>
    <g transform="translate(369.543806 165.524205)scale(0.17 -0.17)">
     <use xlink:href="#DejaVuSans-52"/>
     <use x="69.419922" xlink:href="#DejaVuSans-41"/>
     <use x="137.828125" xlink:href="#DejaVuSans-4e"/>
     <use x="212.632812" xlink:href="#DejaVuSans-44"/>
     <use x="289.634766" xlink:href="#DejaVuSans-4f"/>
     <use x="368.345703" xlink:href="#DejaVuSans-4d"/>
     <use x="454.625" xlink:href="#DejaVuSans-53"/>
     <use x="518.101562" xlink:href="#DejaVuSans-45"/>
     <use x="581.285156" xlink:href="#DejaVuSans-41"/>
    </g>
   </g>
   <g id="text_17">
    <!-- NSGA-II-M -->
    <defs>
     <path d="M 59.515625 10.40625 
L 59.515625 29.984375 
L 43.40625 29.984375 
L 43.40625 38.09375 
L 69.28125 38.09375 
L 69.28125 6.78125 
Q 63.578125 2.734375 56.6875 0.65625 
Q 49.8125 -1.421875 42 -1.421875 
Q 24.90625 -1.421875 15.25 8.5625 
Q 5.609375 18.5625 5.609375 36.375 
Q 5.609375 54.25 15.25 64.234375 
Q 24.90625 74.21875 42 74.21875 
Q 49.125 74.21875 55.546875 72.453125 
Q 61.96875 70.703125 67.390625 67.28125 
L 67.390625 56.78125 
Q 61.921875 61.421875 55.765625 63.765625 
Q 49.609375 66.109375 42.828125 66.109375 
Q 29.4375 66.109375 22.71875 58.640625 
Q 16.015625 51.171875 16.015625 36.375 
Q 16.015625 21.625 22.71875 14.15625 
Q 29.4375 6.6875 42.828125 6.6875 
Q 48.046875 6.6875 52.140625 7.59375 
Q 56.25 8.5 59.515625 10.40625 
" id="DejaVuSans-47"/>
     <path d="M 9.8125 72.90625 
L 19.671875 72.90625 
L 19.671875 0 
L 9.8125 0 
z
" id="DejaVuSans-49"/>
    </defs>
    <g transform="translate(369.543806 101.527373)scale(0.17 -0.17)">
     <use xlink:href="#DejaVuSans-4e"/>
     <use x="74.804688" xlink:href="#DejaVuSans-53"/>
     <use x="138.28125" xlink:href="#DejaVuSans-47"/>
     <use x="215.771484" xlink:href="#DejaVuSans-41"/>
     <use x="284.148438" xlink:href="#DejaVuSans-2d"/>
     <use x="320.232422" xlink:href="#DejaVuSans-49"/>
     <use x="349.724609" xlink:href="#DejaVuSans-49"/>
     <use x="379.216797" xlink:href="#DejaVuSans-2d"/>
     <use x="415.300781" xlink:href="#DejaVuSans-4d"/>
    </g>
   </g>
   <g id="text_18">
    <!-- best 2016 -->
    <g transform="translate(369.543806 37.530541)scale(0.17 -0.17)">
     <use xlink:href="#DejaVuSans-62"/>
     <use x="63.476562" xlink:href="#DejaVuSans-65"/>
     <use x="125" xlink:href="#DejaVuSans-73"/>
     <use x="177.099609" xlink:href="#DejaVuSans-74"/>
     <use x="216.308594" xlink:href="#DejaVuSans-20"/>
     <use x="248.095703" xlink:href="#DejaVuSans-32"/>
     <use x="311.71875" xlink:href="#DejaVuSans-30"/>
     <use x="375.341797" xlink:href="#DejaVuSans-31"/>
     <use x="438.964844" xlink:href="#DejaVuSans-36"/>
    </g>
   </g>
   <g id="text_19">
    <!-- bbob-biobj f55, 3-D -->
    <defs>
     <path d="M 9.421875 54.6875 
L 18.40625 54.6875 
L 18.40625 -0.984375 
Q 18.40625 -11.421875 14.421875 -16.109375 
Q 10.453125 -20.796875 1.609375 -20.796875 
L -1.8125 -20.796875 
L -1.8125 -13.1875 
L 0.59375 -13.1875 
Q 5.71875 -13.1875 7.5625 -10.8125 
Q 9.421875 -8.453125 9.421875 -0.984375 
z
M 9.421875 75.984375 
L 18.40625 75.984375 
L 18.40625 64.59375 
L 9.421875 64.59375 
z
" id="DejaVuSans-6a"/>
     <path d="M 10.796875 72.90625 
L 49.515625 72.90625 
L 49.515625 64.59375 
L 19.828125 64.59375 
L 19.828125 46.734375 
Q 21.96875 47.46875 24.109375 47.828125 
Q 26.265625 48.1875 28.421875 48.1875 
Q 40.625 48.1875 47.75 41.5 
Q 54.890625 34.8125 54.890625 23.390625 
Q 54.890625 11.625 47.5625 5.09375 
Q 40.234375 -1.421875 26.90625 -1.421875 
Q 22.3125 -1.421875 17.546875 -0.640625 
Q 12.796875 0.140625 7.71875 1.703125 
L 7.71875 11.625 
Q 12.109375 9.234375 16.796875 8.0625 
Q 21.484375 6.890625 26.703125 6.890625 
Q 35.15625 6.890625 40.078125 11.328125 
Q 45.015625 15.765625 45.015625 23.390625 
Q 45.015625 31 40.078125 35.4375 
Q 35.15625 39.890625 26.703125 39.890625 
Q 22.75 39.890625 18.8125 39.015625 
Q 14.890625 38.140625 10.796875 36.28125 
z
" id="DejaVuSans-35"/>
     <path d="M 40.578125 39.3125 
Q 47.65625 37.796875 51.625 33 
Q 55.609375 28.21875 55.609375 21.1875 
Q 55.609375 10.40625 48.1875 4.484375 
Q 40.765625 -1.421875 27.09375 -1.421875 
Q 22.515625 -1.421875 17.65625 -0.515625 
Q 12.796875 0.390625 7.625 2.203125 
L 7.625 11.71875 
Q 11.71875 9.328125 16.59375 8.109375 
Q 21.484375 6.890625 26.8125 6.890625 
Q 36.078125 6.890625 40.9375 10.546875 
Q 45.796875 14.203125 45.796875 21.1875 
Q 45.796875 27.640625 41.28125 31.265625 
Q 36.765625 34.90625 28.71875 34.90625 
L 20.21875 34.90625 
L 20.21875 43.015625 
L 29.109375 43.015625 
Q 36.375 43.015625 40.234375 45.921875 
Q 44.09375 48.828125 44.09375 54.296875 
Q 44.09375 59.90625 40.109375 62.90625 
Q 36.140625 65.921875 28.71875 65.921875 
Q 24.65625 65.921875 20.015625 65.03125 
Q 15.375 64.15625 9.8125 62.3125 
L 9.8125 71.09375 
Q 15.4375 72.65625 20.34375 73.4375 
Q 25.25 74.21875 29.59375 74.21875 
Q 40.828125 74.21875 47.359375 69.109375 
Q 53.90625 64.015625 53.90625 55.328125 
Q 53.90625 49.265625 50.4375 45.09375 
Q 46.96875 40.921875 40.578125 39.3125 
" id="DejaVuSans-33"/>
    </defs>
    <g transform="translate(60.27144 35.283606)scale(0.102 -0.102)">
     <use xlink:href="#DejaVuSans-62"/>
     <use x="63.476562" xlink:href="#DejaVuSans-62"/>
     <use x="126.953125" xlink:href="#DejaVuSans-6f"/>
     <use x="188.134766" xlink:href="#DejaVuSans-62"/>
     <use x="251.611328" xlink:href="#DejaVuSans-2d"/>
     <use x="287.695312" xlink:href="#DejaVuSans-62"/>
     <use x="351.171875" xlink:href="#DejaVuSans-69"/>
     <use x="378.955078" xlink:href="#DejaVuSans-6f"/>
     <use x="440.136719" xlink:href="#DejaVuSans-62"/>
     <use x="503.613281" xlink:href="#DejaVuSans-6a"/>
     <use x="531.396484" xlink:href="#DejaVuSans-20"/>
     <use x="563.183594" xlink:href="#DejaVuSans-66"/>
     <use x="598.388672" xlink:href="#DejaVuSans-35"/>
     <use x="662.011719" xlink:href="#DejaVuSans-35"/>
     <use x="725.634766" xlink:href="#DejaVuSans-2c"/>
     <use x="757.421875" xlink:href="#DejaVuSans-20"/>
     <use x="789.208984" xlink:href="#DejaVuSans-33"/>
     <use x="852.832031" xlink:href="#DejaVuSans-2d"/>
     <use x="888.916016" xlink:href="#DejaVuSans-44"/>
    </g>
    <!-- 58 targets: 1..-1.0e-4 -->
    <defs>
     <path d="M 11.71875 12.40625 
L 22.015625 12.40625 
L 22.015625 0 
L 11.71875 0 
z
M 11.71875 51.703125 
L 22.015625 51.703125 
L 22.015625 39.3125 
L 11.71875 39.3125 
z
" id="DejaVuSans-3a"/>
    </defs>
    <g transform="translate(60.27144 46.705375)scale(0.102 -0.102)">
     <use xlink:href="#DejaVuSans-35"/>
     <use x="63.623047" xlink:href="#DejaVuSans-38"/>
     <use x="127.246094" xlink:href="#DejaVuSans-20"/>
     <use x="159.033203" xlink:href="#DejaVuSans-74"/>
     <use x="198.242188" xlink:href="#DejaVuSans-61"/>
     <use x="259.521484" xlink:href="#DejaVuSans-72"/>
     <use x="300.619141" xlink:href="#DejaVuSans-67"/>
     <use x="364.095703" xlink:href="#DejaVuSans-65"/>
     <use x="425.619141" xlink:href="#DejaVuSans-74"/>
     <use x="464.828125" xlink:href="#DejaVuSans-73"/>
     <use x="516.927734" xlink:href="#DejaVuSans-3a"/>
     <use x="550.619141" xlink:href="#DejaVuSans-20"/>
     <use x="582.40625" xlink:href="#DejaVuSans-31"/>
     <use x="646.029297" xlink:href="#DejaVuSans-2e"/>
     <use x="677.816406" xlink:href="#DejaVuSans-2e"/>
     <use x="709.603516" xlink:href="#DejaVuSans-2d"/>
     <use x="745.6875" xlink:href="#DejaVuSans-31"/>
     <use x="809.310547" xlink:href="#DejaVuSans-2e"/>
     <use x="841.097656" xlink:href="#DejaVuSans-30"/>
     <use x="904.720703" xlink:href="#DejaVuSans-65"/>
     <use x="966.244141" xlink:href="#DejaVuSans-2d"/>
     <use x="1002.328125" xlink:href="#DejaVuSans-34"/>
    </g>
    <!-- 10 instances -->
    <g transform="translate(60.27144 58.127144)scale(0.102 -0.102)">
     <use xlink:href="#DejaVuSans-31"/>
     <use x="63.623047" xlink:href="#DejaVuSans-30"/>
     <use x="127.246094" xlink:href="#DejaVuSans-20"/>
     <use x="159.033203" xlink:href="#DejaVuSans-69"/>
     <use x="186.816406" xlink:href="#DejaVuSans-6e"/>
     <use x="250.195312" xlink:href="#DejaVuSans-73"/>
     <use x="302.294922" xlink:href="#DejaVuSans-74"/>
     <use x="341.503906" xlink:href="#DejaVuSans-61"/>
     <use x="402.783203" xlink:href="#DejaVuSans-6e"/>
     <use x="466.162109" xlink:href="#DejaVuSans-63"/>
     <use x="521.142578" xlink:href="#DejaVuSans-65"/>
     <use x="582.666016" xlink:href="#DejaVuSans-73"/>
    </g>
   </g>
   <g id="text_20">
    <!-- v2.2.1.10, hv-hash=ff0e71e8cd978373 -->
    <defs>
     <path d="M 54.890625 33.015625 
L 54.890625 0 
L 45.90625 0 
L 45.90625 32.71875 
Q 45.90625 40.484375 42.875 44.328125 
Q 39.84375 48.1875 33.796875 48.1875 
Q 26.515625 48.1875 22.3125 43.546875 
Q 18.109375 38.921875 18.109375 30.90625 
L 18.109375 0 
L 9.078125 0 
L 9.078125 75.984375 
L 18.109375 75.984375 
L 18.109375 46.1875 
Q 21.34375 51.125 25.703125 53.5625 
Q 30.078125 56 35.796875 56 
Q 45.21875 56 50.046875 50.171875 
Q 54.890625 44.34375 54.890625 33.015625 
" id="DejaVuSans-68"/>
     <path d="M 10.59375 45.40625 
L 73.1875 45.40625 
L 73.1875 37.203125 
L 10.59375 37.203125 
z
M 10.59375 25.484375 
L 73.1875 25.484375 
L 73.1875 17.1875 
L 10.59375 17.1875 
z
" id="DejaVuSans-3d"/>
     <path d="M 8.203125 72.90625 
L 55.078125 72.90625 
L 55.078125 68.703125 
L 28.609375 0 
L 18.3125 0 
L 43.21875 64.59375 
L 8.203125 64.59375 
z
" id="DejaVuSans-37"/>
     <path d="M 10.984375 1.515625 
L 10.984375 10.5 
Q 14.703125 8.734375 18.5 7.8125 
Q 22.3125 6.890625 25.984375 6.890625 
Q 35.75 6.890625 40.890625 13.453125 
Q 46.046875 20.015625 46.78125 33.40625 
Q 43.953125 29.203125 39.59375 26.953125 
Q 35.25 24.703125 29.984375 24.703125 
Q 19.046875 24.703125 12.671875 31.3125 
Q 6.296875 37.9375 6.296875 49.421875 
Q 6.296875 60.640625 12.9375 67.421875 
Q 19.578125 74.21875 30.609375 74.21875 
Q 43.265625 74.21875 49.921875 64.515625 
Q 56.59375 54.828125 56.59375 36.375 
Q 56.59375 19.140625 48.40625 8.859375 
Q 40.234375 -1.421875 26.421875 -1.421875 
Q 22.703125 -1.421875 18.890625 -0.6875 
Q 15.09375 0.046875 10.984375 1.515625 
M 30.609375 32.421875 
Q 37.25 32.421875 41.125 36.953125 
Q 45.015625 41.5 45.015625 49.421875 
Q 45.015625 57.28125 41.125 61.84375 
Q 37.25 66.40625 30.609375 66.40625 
Q 23.96875 66.40625 20.09375 61.84375 
Q 16.21875 57.28125 16.21875 49.421875 
Q 16.21875 41.5 20.09375 36.953125 
Q 23.96875 32.421875 30.609375 32.421875 
" id="DejaVuSans-39"/>
    </defs>
    <g style="fill:#808080;" transform="translate(130.065125 289.387113)scale(0.1 -0.1)">
     <use xlink:href="#DejaVuSans-76"/>
     <use x="59.179688" xlink:href="#DejaVuSans-32"/>
     <use x="122.802734" xlink:href="#DejaVuSans-2e"/>
     <use x="154.589844" xlink:href="#DejaVuSans-32"/>
     <use x="218.212891" xlink:href="#DejaVuSans-2e"/>
     <use x="250" xlink:href="#DejaVuSans-31"/>
     <use x="313.623047" xlink:href="#DejaVuSans-2e"/>
     <use x="345.410156" xlink:href="#DejaVuSans-31"/>
     <use x="409.033203" xlink:href="#DejaVuSans-30"/>
     <use x="472.65625" xlink:href="#DejaVuSans-2c"/>
     <use x="504.443359" xlink:href="#DejaVuSans-20"/>
     <use x="536.230469" xlink:href="#DejaVuSans-68"/>
     <use x="599.609375" xlink:href="#DejaVuSans-76"/>
     <use x="658.757812" xlink:href="#DejaVuSans-2d"/>
     <use x="694.841797" xlink:href="#DejaVuSans-68"/>
     <use x="758.220703" xlink:href="#DejaVuSans-61"/>
     <use x="819.5" xlink:href="#DejaVuSans-73"/>
     <use x="871.599609" xlink:href="#DejaVuSans-68"/>
     <use x="934.978516" xlink:href="#DejaVuSans-3d"/>
     <use x="1018.767578" xlink:href="#DejaVuSans-66"/>
     <use x="1053.972656" xlink:href="#DejaVuSans-66"/>
     <use x="1089.177734" xlink:href="#DejaVuSans-30"/>
     <use x="1152.800781" xlink:href="#DejaVuSans-65"/>
     <use x="1214.324219" xlink:href="#DejaVuSans-37"/>
     <use x="1277.947266" xlink:href="#DejaVuSans-31"/>
     <use x="1341.570312" xlink:href="#DejaVuSans-65"/>
     <use x="1403.09375" xlink:href="#DejaVuSans-38"/>
     <use x="1466.716797" xlink:href="#DejaVuSans-63"/>
     <use x="1521.697266" xlink:href="#DejaVuSans-64"/>
     <use x="1585.173828" xlink:href="#DejaVuSans-39"/>
     <use x="1648.796875" xlink:href="#DejaVuSans-37"/>
     <use x="1712.419922" xlink:href="#DejaVuSans-38"/>
     <use x="1776.042969" xlink:href="#DejaVuSans-33"/>
     <use x="1839.666016" xlink:href="#DejaVuSans-37"/>
     <use x="1903.289062" xlink:href="#DejaVuSans-33"/>
    </g>
   </g>
   <g id="text_21">
    <!-- 55 Gallagher 101/Gallagher 101 -->
    <g transform="translate(67.587 18.84)scale(0.2 -0.2)">
     <use xlink:href="#DejaVuSans-35"/>
     <use x="63.623047" xlink:href="#DejaVuSans-35"/>
     <use x="127.246094" xlink:href="#DejaVuSans-20"/>
     <use x="159.033203" xlink:href="#DejaVuSans-47"/>
     <use x="236.523438" xlink:href="#DejaVuSans-61"/>
     <use x="297.802734" xlink:href="#DejaVuSans-6c"/>
     <use x="325.585938" xlink:href="#DejaVuSans-6c"/>
     <use x="353.369141" xlink:href="#DejaVuSans-61"/>
     <use x="414.648438" xlink:href="#DejaVuSans-67"/>
     <use x="478.125" xlink:href="#DejaVuSans-68"/>
     <use x="541.503906" xlink:href="#DejaVuSans-65"/>
     <use x="603.027344" xlink:href="#DejaVuSans-72"/>
     <use x="644.140625" xlink:href="#DejaVuSans-20"/>
     <use x="675.927734" xlink:href="#DejaVuSans-31"/>
     <use x="739.550781" xlink:href="#DejaVuSans-30"/>
     <use x="803.173828" xlink:href="#DejaVuSans-31"/>
     <use x="866.796875" xlink:href="#DejaVuSans-2f"/>
     <use x="900.488281" xlink:href="#DejaVuSans-47"/>
     <use x="977.978516" xlink:href="#DejaVuSans-61"/>
     <use x="1039.257812" xlink:href="#DejaVuSans-6c"/>
     <use x="1067.041016" xlink:href="#DejaVuSans-6c"/>
     <use x="1094.824219" xlink:href="#DejaVuSans-61"/>
     <use x="1156.103516" xlink:href="#DejaVuSans-67"/>
     <use x="1219.580078" xlink:href="#DejaVuSans-68"/>
     <use x="1282.958984" xlink:href="#DejaVuSans-65"/>
     <use x="1344.482422" xlink:href="#DejaVuSans-72"/>
     <use x="1385.595703" xlink:href="#DejaVuSans-20"/>
     <use x="1417.382812" xlink:href="#DejaVuSans-31"/>
     <use x="1481.005859" xlink:href="#DejaVuSans-30"/>
     <use x="1544.628906" xlink:href="#DejaVuSans-31"/>
    </g>
   </g>
  </g>
 </g>
 <defs>
  <clipPath id="pffff0a313e">
   <rect height="269.32" width="343.144" x="56.84" y="24.84"/>
  </clipPath>
 </defs>
</svg>
