<?xml version="1.0" encoding="utf-8" standalone="no"?>
<!DOCTYPE svg PUBLIC "-//W3C//DTD SVG 1.1//EN"
  "http://www.w3.org/Graphics/SVG/1.1/DTD/svg11.dtd">
<!-- Created with matplotlib (http://matplotlib.org/) -->
<svg height="345pt" version="1.1" viewBox="0 0 460 345" width="460pt" xmlns="http://www.w3.org/2000/svg" xmlns:xlink="http://www.w3.org/1999/xlink">
 <defs>
  <style type="text/css">
*{stroke-linecap:butt;stroke-linejoin:round;}
  </style>
 </defs>
 <g id="figure_1">
  <g id="patch_1">
   <path d="M 0 345.6 
L 460.8 345.6 
L 460.8 0 
L 0 0 
z
" style="fill:#ffffff;"/>
  </g>
  <g id="axes_1">
   <g id="patch_2">
    <path d="M 56.84 294.16 
L 399.984 294.16 
L 399.984 24.84 
L 56.84 24.84 
z
" style="fill:#ffffff;"/>
   </g>
   <g id="line2d_1">
    <path d="M 56.84 294.16 
L 56.84 289.562526 
L 75.7019 289.562526 
L 75.7019 280.367579 
L 85.145559 280.367579 
L 85.145559 271.172632 
L 98.009084 271.172632 
L 98.009084 266.575159 
L 100.877209 266.575159 
L 100.877209 252.782738 
L 105.683799 252.782738 
L 105.683799 243.587791 
L 114.17229 243.587791 
L 114.17229 238.990318 
L 119.019891 238.990318 
L 119.019891 229.79537 
L 130.025276 229.79537 
L 130.025276 216.00295 
L 165.568975 216.00295 
L 165.568975 206.808003 
L 168.036829 206.808003 
L 168.036829 197.613056 
L 170.020821 197.613056 
L 170.020821 188.418109 
L 183.906375 188.418109 
L 183.906375 183.820635 
L 184.400342 183.820635 
L 184.400342 170.028214 
L 185.869761 170.028214 
L 185.869761 165.430741 
L 187.207709 165.430741 
L 187.207709 151.63832 
L 198.200624 151.63832 
L 198.200624 142.443373 
L 200.972865 142.443373 
L 200.972865 137.8459 
L 202.675063 137.8459 
L 202.675063 124.053479 
L 206.43082 124.053479 
L 206.43082 119.456005 
L 209.47616 119.456005 
L 209.47616 105.663585 
L 212.709662 105.663585 
L 212.709662 96.468638 
L 223.310708 96.468638 
L 223.310708 87.273691 
L 227.278763 87.273691 
L 227.278763 82.676217 
L 232.221619 82.676217 
L 232.221619 73.48127 
L 238.75932 73.48127 
L 238.75932 59.688849 
L 333.569032 59.688849 
" style="fill:none;stroke:#f5deb3;stroke-linecap:square;stroke-width:6;"/>
   </g>
   <g id="line2d_2">
    <defs>
     <path d="M -0 7.778175 
L 7.778175 0 
L 0 -7.778175 
L -7.778175 -0 
z
" id="m5b3639f830" style="stroke:#f5deb3;stroke-linejoin:miter;stroke-width:1.5;"/>
    </defs>
    <g>
     <use style="fill:#f5deb3;stroke:#f5deb3;stroke-linejoin:miter;stroke-width:1.5;" x="130.025276" xlink:href="#m5b3639f830" y="229.79537"/>
     <use style="fill:#f5deb3;stroke:#f5deb3;stroke-linejoin:miter;stroke-width:1.5;" x="202.675063" xlink:href="#m5b3639f830" y="124.053479"/>
     <use style="fill:#f5deb3;stroke:#f5deb3;stroke-linejoin:miter;stroke-width:1.5;" x="238.75932" xlink:href="#m5b3639f830" y="73.48127"/>
     <use style="fill:#f5deb3;stroke:#f5deb3;stroke-linejoin:miter;stroke-width:1.5;" x="238.75932" xlink:href="#m5b3639f830" y="59.688849"/>
     <use style="fill:#f5deb3;stroke:#f5deb3;stroke-linejoin:miter;stroke-width:1.5;" x="333.569032" xlink:href="#m5b3639f830" y="59.688849"/>
    </g>
   </g>
   <g id="line2d_3">
    <path style="fill:none;stroke:#f5deb3;stroke-linecap:square;stroke-width:6;"/>
    <g/>
   </g>
   <g id="line2d_4">
    <path d="M 333.569032 59.688849 
L 364.009226 32.839604 
" style="fill:none;stroke:#f5deb3;stroke-linecap:square;stroke-width:6;"/>
    <g>
     <use style="fill:#f5deb3;stroke:#f5deb3;stroke-linejoin:miter;stroke-width:1.5;" x="333.569032" xlink:href="#m5b3639f830" y="59.688849"/>
     <use style="fill:#f5deb3;stroke:#f5deb3;stroke-linejoin:miter;stroke-width:1.5;" x="364.009226" xlink:href="#m5b3639f830" y="32.839604"/>
    </g>
   </g>
   <g id="matplotlib.axis_1">
    <g id="xtick_1">
     <g id="line2d_5">
      <path clip-path="url(#pc210505808)" d="M 56.84 294.16 
L 56.84 24.84 
" style="fill:none;stroke:#b0b0b0;stroke-linecap:square;stroke-width:0.8;"/>
     </g>
     <g id="line2d_6">
      <defs>
       <path d="M 0 0 
L 0 3.5 
" id="m15e33dd200" style="stroke:#000000;stroke-width:0.8;"/>
      </defs>
      <g>
       <use style="stroke:#000000;stroke-width:0.8;" x="56.84" xlink:href="#m15e33dd200" y="294.16"/>
      </g>
     </g>
     <g id="text_1">
      <!-- 0 -->
      <defs>
       <path d="M 31.78125 66.40625 
Q 24.171875 66.40625 20.328125 58.90625 
Q 16.5 51.421875 16.5 36.375 
Q 16.5 21.390625 20.328125 13.890625 
Q 24.171875 6.390625 31.78125 6.390625 
Q 39.453125 6.390625 43.28125 13.890625 
Q 47.125 21.390625 47.125 36.375 
Q 47.125 51.421875 43.28125 58.90625 
Q 39.453125 66.40625 31.78125 66.40625 
M 31.78125 74.21875 
Q 44.046875 74.21875 50.515625 64.515625 
Q 56.984375 54.828125 56.984375 36.375 
Q 56.984375 17.96875 50.515625 8.265625 
Q 44.046875 -1.421875 31.78125 -1.421875 
Q 19.53125 -1.421875 13.0625 8.265625 
Q 6.59375 17.96875 6.59375 36.375 
Q 6.59375 54.828125 13.0625 64.515625 
Q 19.53125 74.21875 31.78125 74.21875 
" id="DejaVuSans-30"/>
      </defs>
      <g transform="translate(50.4775 316.356875)scale(0.2 -0.2)">
       <use xlink:href="#DejaVuSans-30"/>
      </g>
     </g>
    </g>
    <g id="xtick_2">
     <g id="line2d_7">
      <path clip-path="url(#pc210505808)" d="M 135.905438 294.16 
L 135.905438 24.84 
" style="fill:none;stroke:#b0b0b0;stroke-linecap:square;stroke-width:0.8;"/>
     </g>
     <g id="line2d_8">
      <g>
       <use style="stroke:#000000;stroke-width:0.8;" x="135.905438" xlink:href="#m15e33dd200" y="294.16"/>
      </g>
     </g>
     <g id="text_2">
      <!-- 2 -->
      <defs>
       <path d="M 19.1875 8.296875 
L 53.609375 8.296875 
L 53.609375 0 
L 7.328125 0 
L 7.328125 8.296875 
Q 12.9375 14.109375 22.625 23.890625 
Q 32.328125 33.6875 34.8125 36.53125 
Q 39.546875 41.84375 41.421875 45.53125 
Q 43.3125 49.21875 43.3125 52.78125 
Q 43.3125 58.59375 39.234375 62.25 
Q 35.15625 65.921875 28.609375 65.921875 
Q 23.96875 65.921875 18.8125 64.3125 
Q 13.671875 62.703125 7.8125 59.421875 
L 7.8125 69.390625 
Q 13.765625 71.78125 18.9375 73 
Q 24.125 74.21875 28.421875 74.21875 
Q 39.75 74.21875 46.484375 68.546875 
Q 53.21875 62.890625 53.21875 53.421875 
Q 53.21875 48.921875 51.53125 44.890625 
Q 49.859375 40.875 45.40625 35.40625 
Q 44.1875 33.984375 37.640625 27.21875 
Q 31.109375 20.453125 19.1875 8.296875 
" id="DejaVuSans-32"/>
      </defs>
      <g transform="translate(129.542938 316.356875)scale(0.2 -0.2)">
       <use xlink:href="#DejaVuSans-32"/>
      </g>
     </g>
    </g>
    <g id="xtick_3">
     <g id="line2d_9">
      <path clip-path="url(#pc210505808)" d="M 214.970876 294.16 
L 214.970876 24.84 
" style="fill:none;stroke:#b0b0b0;stroke-linecap:square;stroke-width:0.8;"/>
     </g>
     <g id="line2d_10">
      <g>
       <use style="stroke:#000000;stroke-width:0.8;" x="214.970876" xlink:href="#m15e33dd200" y="294.16"/>
      </g>
     </g>
     <g id="text_3">
      <!-- 4 -->
      <defs>
       <path d="M 37.796875 64.3125 
L 12.890625 25.390625 
L 37.796875 25.390625 
z
M 35.203125 72.90625 
L 47.609375 72.90625 
L 47.609375 25.390625 
L 58.015625 25.390625 
L 58.015625 17.1875 
L 47.609375 17.1875 
L 47.609375 0 
L 37.796875 0 
L 37.796875 17.1875 
L 4.890625 17.1875 
L 4.890625 26.703125 
z
" id="DejaVuSans-34"/>
      </defs>
      <g transform="translate(208.608376 316.356875)scale(0.2 -0.2)">
       <use xlink:href="#DejaVuSans-34"/>
      </g>
     </g>
    </g>
    <g id="xtick_4">
     <g id="line2d_11">
      <path clip-path="url(#pc210505808)" d="M 294.036313 294.16 
L 294.036313 24.84 
" style="fill:none;stroke:#b0b0b0;stroke-linecap:square;stroke-width:0.8;"/>
     </g>
     <g id="line2d_12">
      <g>
       <use style="stroke:#000000;stroke-width:0.8;" x="294.036313" xlink:href="#m15e33dd200" y="294.16"/>
      </g>
     </g>
     <g id="text_4">
      <!-- 6 -->
      <defs>
       <path d="M 33.015625 40.375 
Q 26.375 40.375 22.484375 35.828125 
Q 18.609375 31.296875 18.609375 23.390625 
Q 18.609375 15.53125 22.484375 10.953125 
Q 26.375 6.390625 33.015625 6.390625 
Q 39.65625 6.390625 43.53125 10.953125 
Q 47.40625 15.53125 47.40625 23.390625 
Q 47.40625 31.296875 43.53125 35.828125 
Q 39.65625 40.375 33.015625 40.375 
M 52.59375 71.296875 
L 52.59375 62.3125 
Q 48.875 64.0625 45.09375 64.984375 
Q 41.3125 65.921875 37.59375 65.921875 
Q 27.828125 65.921875 22.671875 59.328125 
Q 17.53125 52.734375 16.796875 39.40625 
Q 19.671875 43.65625 24.015625 45.921875 
Q 28.375 48.1875 33.59375 48.1875 
Q 44.578125 48.1875 50.953125 41.515625 
Q 57.328125 34.859375 57.328125 23.390625 
Q 57.328125 12.15625 50.6875 5.359375 
Q 44.046875 -1.421875 33.015625 -1.421875 
Q 20.359375 -1.421875 13.671875 8.265625 
Q 6.984375 17.96875 6.984375 36.375 
Q 6.984375 53.65625 15.1875 63.9375 
Q 23.390625 74.21875 37.203125 74.21875 
Q 40.921875 74.21875 44.703125 73.484375 
Q 48.484375 72.75 52.59375 71.296875 
" id="DejaVuSans-36"/>
      </defs>
      <g transform="translate(287.673813 316.356875)scale(0.2 -0.2)">
       <use xlink:href="#DejaVuSans-36"/>
      </g>
     </g>
    </g>
    <g id="xtick_5">
     <g id="line2d_13">
      <path clip-path="url(#pc210505808)" d="M 373.101751 294.16 
L 373.101751 24.84 
" style="fill:none;stroke:#b0b0b0;stroke-linecap:square;stroke-width:0.8;"/>
     </g>
     <g id="line2d_14">
      <g>
       <use style="stroke:#000000;stroke-width:0.8;" x="373.101751" xlink:href="#m15e33dd200" y="294.16"/>
      </g>
     </g>
     <g id="text_5">
      <!-- 8 -->
      <defs>
       <path d="M 31.78125 34.625 
Q 24.75 34.625 20.71875 30.859375 
Q 16.703125 27.09375 16.703125 20.515625 
Q 16.703125 13.921875 20.71875 10.15625 
Q 24.75 6.390625 31.78125 6.390625 
Q 38.8125 6.390625 42.859375 10.171875 
Q 46.921875 13.96875 46.921875 20.515625 
Q 46.921875 27.09375 42.890625 30.859375 
Q 38.875 34.625 31.78125 34.625 
M 21.921875 38.8125 
Q 15.578125 40.375 12.03125 44.71875 
Q 8.5 49.078125 8.5 55.328125 
Q 8.5 64.0625 14.71875 69.140625 
Q 20.953125 74.21875 31.78125 74.21875 
Q 42.671875 74.21875 48.875 69.140625 
Q 55.078125 64.0625 55.078125 55.328125 
Q 55.078125 49.078125 51.53125 44.71875 
Q 48 40.375 41.703125 38.8125 
Q 48.828125 37.15625 52.796875 32.3125 
Q 56.78125 27.484375 56.78125 20.515625 
Q 56.78125 9.90625 50.3125 4.234375 
Q 43.84375 -1.421875 31.78125 -1.421875 
Q 19.734375 -1.421875 13.25 4.234375 
Q 6.78125 9.90625 6.78125 20.515625 
Q 6.78125 27.484375 10.78125 32.3125 
Q 14.796875 37.15625 21.921875 38.8125 
M 18.3125 54.390625 
Q 18.3125 48.734375 21.84375 45.5625 
Q 25.390625 42.390625 31.78125 42.390625 
Q 38.140625 42.390625 41.71875 45.5625 
Q 45.3125 48.734375 45.3125 54.390625 
Q 45.3125 60.0625 41.71875 63.234375 
Q 38.140625 66.40625 31.78125 66.40625 
Q 25.390625 66.40625 21.84375 63.234375 
Q 18.3125 60.0625 18.3125 54.390625 
" id="DejaVuSans-38"/>
      </defs>
      <g transform="translate(366.739251 316.356875)scale(0.2 -0.2)">
       <use xlink:href="#DejaVuSans-38"/>
      </g>
     </g>
    </g>
    <g id="xtick_6">
     <g id="line2d_15">
      <defs>
       <path d="M 0 0 
L 0 2 
" id="me6af444767" style="stroke:#000000;stroke-width:0.6;"/>
      </defs>
      <g>
       <use style="stroke:#000000;stroke-width:0.6;" x="68.740534" xlink:href="#me6af444767" y="294.16"/>
      </g>
     </g>
    </g>
    <g id="xtick_7">
     <g id="line2d_16">
      <g>
       <use style="stroke:#000000;stroke-width:0.6;" x="80.641068" xlink:href="#me6af444767" y="294.16"/>
      </g>
     </g>
    </g>
    <g id="xtick_8">
     <g id="line2d_17">
      <g>
       <use style="stroke:#000000;stroke-width:0.6;" x="87.602435" xlink:href="#me6af444767" y="294.16"/>
      </g>
     </g>
    </g>
    <g id="xtick_9">
     <g id="line2d_18">
      <g>
       <use style="stroke:#000000;stroke-width:0.6;" x="92.541603" xlink:href="#me6af444767" y="294.16"/>
      </g>
     </g>
    </g>
    <g id="xtick_10">
     <g id="line2d_19">
      <g>
       <use style="stroke:#000000;stroke-width:0.6;" x="147.805972" xlink:href="#me6af444767" y="294.16"/>
      </g>
     </g>
    </g>
    <g id="xtick_11">
     <g id="line2d_20">
      <g>
       <use style="stroke:#000000;stroke-width:0.6;" x="159.706506" xlink:href="#me6af444767" y="294.16"/>
      </g>
     </g>
    </g>
    <g id="xtick_12">
     <g id="line2d_21">
      <g>
       <use style="stroke:#000000;stroke-width:0.6;" x="166.667872" xlink:href="#me6af444767" y="294.16"/>
      </g>
     </g>
    </g>
    <g id="xtick_13">
     <g id="line2d_22">
      <g>
       <use style="stroke:#000000;stroke-width:0.6;" x="171.60704" xlink:href="#me6af444767" y="294.16"/>
      </g>
     </g>
    </g>
    <g id="xtick_14">
     <g id="line2d_23">
      <g>
       <use style="stroke:#000000;stroke-width:0.6;" x="226.87141" xlink:href="#me6af444767" y="294.16"/>
      </g>
     </g>
    </g>
    <g id="xtick_15">
     <g id="line2d_24">
      <g>
       <use style="stroke:#000000;stroke-width:0.6;" x="238.771944" xlink:href="#me6af444767" y="294.16"/>
      </g>
     </g>
    </g>
    <g id="xtick_16">
     <g id="line2d_25">
      <g>
       <use style="stroke:#000000;stroke-width:0.6;" x="245.73331" xlink:href="#me6af444767" y="294.16"/>
      </g>
     </g>
    </g>
    <g id="xtick_17">
     <g id="line2d_26">
      <g>
       <use style="stroke:#000000;stroke-width:0.6;" x="250.672478" xlink:href="#me6af444767" y="294.16"/>
      </g>
     </g>
    </g>
    <g id="xtick_18">
     <g id="line2d_27">
      <g>
       <use style="stroke:#000000;stroke-width:0.6;" x="305.936848" xlink:href="#me6af444767" y="294.16"/>
      </g>
     </g>
    </g>
    <g id="xtick_19">
     <g id="line2d_28">
      <g>
       <use style="stroke:#000000;stroke-width:0.6;" x="317.837382" xlink:href="#me6af444767" y="294.16"/>
      </g>
     </g>
    </g>
    <g id="xtick_20">
     <g id="line2d_29">
      <g>
       <use style="stroke:#000000;stroke-width:0.6;" x="324.798748" xlink:href="#me6af444767" y="294.16"/>
      </g>
     </g>
    </g>
    <g id="xtick_21">
     <g id="line2d_30">
      <g>
       <use style="stroke:#000000;stroke-width:0.6;" x="329.737916" xlink:href="#me6af444767" y="294.16"/>
      </g>
     </g>
    </g>
    <g id="xtick_22">
     <g id="line2d_31">
      <g>
       <use style="stroke:#000000;stroke-width:0.6;" x="385.002285" xlink:href="#me6af444767" y="294.16"/>
      </g>
     </g>
    </g>
    <g id="xtick_23">
     <g id="line2d_32">
      <g>
       <use style="stroke:#000000;stroke-width:0.6;" x="396.90282" xlink:href="#me6af444767" y="294.16"/>
      </g>
     </g>
    </g>
    <g id="text_6">
     <!-- log10(# f-evals / dimension) -->
     <defs>
      <path d="M 9.421875 75.984375 
L 18.40625 75.984375 
L 18.40625 0 
L 9.421875 0 
z
" id="DejaVuSans-6c"/>
      <path d="M 30.609375 48.390625 
Q 23.390625 48.390625 19.1875 42.75 
Q 14.984375 37.109375 14.984375 27.296875 
Q 14.984375 17.484375 19.15625 11.84375 
Q 23.34375 6.203125 30.609375 6.203125 
Q 37.796875 6.203125 41.984375 11.859375 
Q 46.1875 17.53125 46.1875 27.296875 
Q 46.1875 37.015625 41.984375 42.703125 
Q 37.796875 48.390625 30.609375 48.390625 
M 30.609375 56 
Q 42.328125 56 49.015625 48.375 
Q 55.71875 40.765625 55.71875 27.296875 
Q 55.71875 13.875 49.015625 6.21875 
Q 42.328125 -1.421875 30.609375 -1.421875 
Q 18.84375 -1.421875 12.171875 6.21875 
Q 5.515625 13.875 5.515625 27.296875 
Q 5.515625 40.765625 12.171875 48.375 
Q 18.84375 56 30.609375 56 
" id="DejaVuSans-6f"/>
      <path d="M 45.40625 27.984375 
Q 45.40625 37.75 41.375 43.109375 
Q 37.359375 48.484375 30.078125 48.484375 
Q 22.859375 48.484375 18.828125 43.109375 
Q 14.796875 37.75 14.796875 27.984375 
Q 14.796875 18.265625 18.828125 12.890625 
Q 22.859375 7.515625 30.078125 7.515625 
Q 37.359375 7.515625 41.375 12.890625 
Q 45.40625 18.265625 45.40625 27.984375 
M 54.390625 6.78125 
Q 54.390625 -7.171875 48.1875 -13.984375 
Q 42 -20.796875 29.203125 -20.796875 
Q 24.46875 -20.796875 20.265625 -20.09375 
Q 16.0625 -19.390625 12.109375 -17.921875 
L 12.109375 -9.1875 
Q 16.0625 -11.328125 19.921875 -12.34375 
Q 23.78125 -13.375 27.78125 -13.375 
Q 36.625 -13.375 41.015625 -8.765625 
Q 45.40625 -4.15625 45.40625 5.171875 
L 45.40625 9.625 
Q 42.625 4.78125 38.28125 2.390625 
Q 33.9375 0 27.875 0 
Q 17.828125 0 11.671875 7.65625 
Q 5.515625 15.328125 5.515625 27.984375 
Q 5.515625 40.671875 11.671875 48.328125 
Q 17.828125 56 27.875 56 
Q 33.9375 56 38.28125 53.609375 
Q 42.625 51.21875 45.40625 46.390625 
L 45.40625 54.6875 
L 54.390625 54.6875 
z
" id="DejaVuSans-67"/>
      <path d="M 12.40625 8.296875 
L 28.515625 8.296875 
L 28.515625 63.921875 
L 10.984375 60.40625 
L 10.984375 69.390625 
L 28.421875 72.90625 
L 38.28125 72.90625 
L 38.28125 8.296875 
L 54.390625 8.296875 
L 54.390625 0 
L 12.40625 0 
z
" id="DejaVuSans-31"/>
      <path d="M 31 75.875 
Q 24.46875 64.65625 21.28125 53.65625 
Q 18.109375 42.671875 18.109375 31.390625 
Q 18.109375 20.125 21.3125 9.0625 
Q 24.515625 -2 31 -13.1875 
L 23.1875 -13.1875 
Q 15.875 -1.703125 12.234375 9.375 
Q 8.59375 20.453125 8.59375 31.390625 
Q 8.59375 42.28125 12.203125 53.3125 
Q 15.828125 64.359375 23.1875 75.875 
z
" id="DejaVuSans-28"/>
      <path d="M 51.125 44 
L 36.921875 44 
L 32.8125 27.6875 
L 47.125 27.6875 
z
M 43.796875 71.78125 
L 38.71875 51.515625 
L 52.984375 51.515625 
L 58.109375 71.78125 
L 65.921875 71.78125 
L 60.890625 51.515625 
L 76.125 51.515625 
L 76.125 44 
L 58.984375 44 
L 54.984375 27.6875 
L 70.515625 27.6875 
L 70.515625 20.21875 
L 53.078125 20.21875 
L 48 0 
L 40.1875 0 
L 45.21875 20.21875 
L 30.90625 20.21875 
L 25.875 0 
L 18.015625 0 
L 23.09375 20.21875 
L 7.71875 20.21875 
L 7.71875 27.6875 
L 24.90625 27.6875 
L 29 44 
L 13.28125 44 
L 13.28125 51.515625 
L 30.90625 51.515625 
L 35.890625 71.78125 
z
" id="DejaVuSans-23"/>
      <path id="DejaVuSans-20"/>
      <path d="M 37.109375 75.984375 
L 37.109375 68.5 
L 28.515625 68.5 
Q 23.6875 68.5 21.796875 66.546875 
Q 19.921875 64.59375 19.921875 59.515625 
L 19.921875 54.6875 
L 34.71875 54.6875 
L 34.71875 47.703125 
L 19.921875 47.703125 
L 19.921875 0 
L 10.890625 0 
L 10.890625 47.703125 
L 2.296875 47.703125 
L 2.296875 54.6875 
L 10.890625 54.6875 
L 10.890625 58.5 
Q 10.890625 67.625 15.140625 71.796875 
Q 19.390625 75.984375 28.609375 75.984375 
z
" id="DejaVuSans-66"/>
      <path d="M 4.890625 31.390625 
L 31.203125 31.390625 
L 31.203125 23.390625 
L 4.890625 23.390625 
z
" id="DejaVuSans-2d"/>
      <path d="M 56.203125 29.59375 
L 56.203125 25.203125 
L 14.890625 25.203125 
Q 15.484375 15.921875 20.484375 11.0625 
Q 25.484375 6.203125 34.421875 6.203125 
Q 39.59375 6.203125 44.453125 7.46875 
Q 49.3125 8.734375 54.109375 11.28125 
L 54.109375 2.78125 
Q 49.265625 0.734375 44.1875 -0.34375 
Q 39.109375 -1.421875 33.890625 -1.421875 
Q 20.796875 -1.421875 13.15625 6.1875 
Q 5.515625 13.8125 5.515625 26.8125 
Q 5.515625 40.234375 12.765625 48.109375 
Q 20.015625 56 32.328125 56 
Q 43.359375 56 49.78125 48.890625 
Q 56.203125 41.796875 56.203125 29.59375 
M 47.21875 32.234375 
Q 47.125 39.59375 43.09375 43.984375 
Q 39.0625 48.390625 32.421875 48.390625 
Q 24.90625 48.390625 20.390625 44.140625 
Q 15.875 39.890625 15.1875 32.171875 
z
" id="DejaVuSans-65"/>
      <path d="M 2.984375 54.6875 
L 12.5 54.6875 
L 29.59375 8.796875 
L 46.6875 54.6875 
L 56.203125 54.6875 
L 35.6875 0 
L 23.484375 0 
z
" id="DejaVuSans-76"/>
      <path d="M 34.28125 27.484375 
Q 23.390625 27.484375 19.1875 25 
Q 14.984375 22.515625 14.984375 16.5 
Q 14.984375 11.71875 18.140625 8.90625 
Q 21.296875 6.109375 26.703125 6.109375 
Q 34.1875 6.109375 38.703125 11.40625 
Q 43.21875 16.703125 43.21875 25.484375 
L 43.21875 27.484375 
z
M 52.203125 31.203125 
L 52.203125 0 
L 43.21875 0 
L 43.21875 8.296875 
Q 40.140625 3.328125 35.546875 0.953125 
Q 30.953125 -1.421875 24.3125 -1.421875 
Q 15.921875 -1.421875 10.953125 3.296875 
Q 6 8.015625 6 15.921875 
Q 6 25.140625 12.171875 29.828125 
Q 18.359375 34.515625 30.609375 34.515625 
L 43.21875 34.515625 
L 43.21875 35.40625 
Q 43.21875 41.609375 39.140625 45 
Q 35.0625 48.390625 27.6875 48.390625 
Q 23 48.390625 18.546875 47.265625 
Q 14.109375 46.140625 10.015625 43.890625 
L 10.015625 52.203125 
Q 14.9375 54.109375 19.578125 55.046875 
Q 24.21875 56 28.609375 56 
Q 40.484375 56 46.34375 49.84375 
Q 52.203125 43.703125 52.203125 31.203125 
" id="DejaVuSans-61"/>
      <path d="M 44.28125 53.078125 
L 44.28125 44.578125 
Q 40.484375 46.53125 36.375 47.5 
Q 32.28125 48.484375 27.875 48.484375 
Q 21.1875 48.484375 17.84375 46.4375 
Q 14.5 44.390625 14.5 40.28125 
Q 14.5 37.15625 16.890625 35.375 
Q 19.28125 33.59375 26.515625 31.984375 
L 29.59375 31.296875 
Q 39.15625 29.25 43.1875 25.515625 
Q 47.21875 21.78125 47.21875 15.09375 
Q 47.21875 7.46875 41.1875 3.015625 
Q 35.15625 -1.421875 24.609375 -1.421875 
Q 20.21875 -1.421875 15.453125 -0.5625 
Q 10.6875 0.296875 5.421875 2 
L 5.421875 11.28125 
Q 10.40625 8.6875 15.234375 7.390625 
Q 20.0625 6.109375 24.8125 6.109375 
Q 31.15625 6.109375 34.5625 8.28125 
Q 37.984375 10.453125 37.984375 14.40625 
Q 37.984375 18.0625 35.515625 20.015625 
Q 33.0625 21.96875 24.703125 23.78125 
L 21.578125 24.515625 
Q 13.234375 26.265625 9.515625 29.90625 
Q 5.8125 33.546875 5.8125 39.890625 
Q 5.8125 47.609375 11.28125 51.796875 
Q 16.75 56 26.8125 56 
Q 31.78125 56 36.171875 55.265625 
Q 40.578125 54.546875 44.28125 53.078125 
" id="DejaVuSans-73"/>
      <path d="M 25.390625 72.90625 
L 33.6875 72.90625 
L 8.296875 -9.28125 
L 0 -9.28125 
z
" id="DejaVuSans-2f"/>
      <path d="M 45.40625 46.390625 
L 45.40625 75.984375 
L 54.390625 75.984375 
L 54.390625 0 
L 45.40625 0 
L 45.40625 8.203125 
Q 42.578125 3.328125 38.25 0.953125 
Q 33.9375 -1.421875 27.875 -1.421875 
Q 17.96875 -1.421875 11.734375 6.484375 
Q 5.515625 14.40625 5.515625 27.296875 
Q 5.515625 40.1875 11.734375 48.09375 
Q 17.96875 56 27.875 56 
Q 33.9375 56 38.25 53.625 
Q 42.578125 51.265625 45.40625 46.390625 
M 14.796875 27.296875 
Q 14.796875 17.390625 18.875 11.75 
Q 22.953125 6.109375 30.078125 6.109375 
Q 37.203125 6.109375 41.296875 11.75 
Q 45.40625 17.390625 45.40625 27.296875 
Q 45.40625 37.203125 41.296875 42.84375 
Q 37.203125 48.484375 30.078125 48.484375 
Q 22.953125 48.484375 18.875 42.84375 
Q 14.796875 37.203125 14.796875 27.296875 
" id="DejaVuSans-64"/>
      <path d="M 9.421875 54.6875 
L 18.40625 54.6875 
L 18.40625 0 
L 9.421875 0 
z
M 9.421875 75.984375 
L 18.40625 75.984375 
L 18.40625 64.59375 
L 9.421875 64.59375 
z
" id="DejaVuSans-69"/>
      <path d="M 52 44.1875 
Q 55.375 50.25 60.0625 53.125 
Q 64.75 56 71.09375 56 
Q 79.640625 56 84.28125 50.015625 
Q 88.921875 44.046875 88.921875 33.015625 
L 88.921875 0 
L 79.890625 0 
L 79.890625 32.71875 
Q 79.890625 40.578125 77.09375 44.375 
Q 74.3125 48.1875 68.609375 48.1875 
Q 61.625 48.1875 57.5625 43.546875 
Q 53.515625 38.921875 53.515625 30.90625 
L 53.515625 0 
L 44.484375 0 
L 44.484375 32.71875 
Q 44.484375 40.625 41.703125 44.40625 
Q 38.921875 48.1875 33.109375 48.1875 
Q 26.21875 48.1875 22.15625 43.53125 
Q 18.109375 38.875 18.109375 30.90625 
L 18.109375 0 
L 9.078125 0 
L 9.078125 54.6875 
L 18.109375 54.6875 
L 18.109375 46.1875 
Q 21.1875 51.21875 25.484375 53.609375 
Q 29.78125 56 35.6875 56 
Q 41.65625 56 45.828125 52.96875 
Q 50 49.953125 52 44.1875 
" id="DejaVuSans-6d"/>
      <path d="M 54.890625 33.015625 
L 54.890625 0 
L 45.90625 0 
L 45.90625 32.71875 
Q 45.90625 40.484375 42.875 44.328125 
Q 39.84375 48.1875 33.796875 48.1875 
Q 26.515625 48.1875 22.3125 43.546875 
Q 18.109375 38.921875 18.109375 30.90625 
L 18.109375 0 
L 9.078125 0 
L 9.078125 54.6875 
L 18.109375 54.6875 
L 18.109375 46.1875 
Q 21.34375 51.125 25.703125 53.5625 
Q 30.078125 56 35.796875 56 
Q 45.21875 56 50.046875 50.171875 
Q 54.890625 44.34375 54.890625 33.015625 
" id="DejaVuSans-6e"/>
      <path d="M 8.015625 75.875 
L 15.828125 75.875 
Q 23.140625 64.359375 26.78125 53.3125 
Q 30.421875 42.28125 30.421875 31.390625 
Q 30.421875 20.453125 26.78125 9.375 
Q 23.140625 -1.703125 15.828125 -13.1875 
L 8.015625 -13.1875 
Q 14.5 -2 17.703125 9.0625 
Q 20.90625 20.125 20.90625 31.390625 
Q 20.90625 42.671875 17.703125 53.65625 
Q 14.5 64.65625 8.015625 75.875 
" id="DejaVuSans-29"/>
     </defs>
     <g transform="translate(107.571219 337.433594)scale(0.17 -0.17)">
      <use xlink:href="#DejaVuSans-6c"/>
      <use x="27.783203" xlink:href="#DejaVuSans-6f"/>
      <use x="88.964844" xlink:href="#DejaVuSans-67"/>
      <use x="152.441406" xlink:href="#DejaVuSans-31"/>
      <use x="216.064453" xlink:href="#DejaVuSans-30"/>
      <use x="279.6875" xlink:href="#DejaVuSans-28"/>
      <use x="318.701172" xlink:href="#DejaVuSans-23"/>
      <use x="402.490234" xlink:href="#DejaVuSans-20"/>
      <use x="434.277344" xlink:href="#DejaVuSans-66"/>
      <use x="469.404297" xlink:href="#DejaVuSans-2d"/>
      <use x="505.488281" xlink:href="#DejaVuSans-65"/>
      <use x="567.011719" xlink:href="#DejaVuSans-76"/>
      <use x="626.191406" xlink:href="#DejaVuSans-61"/>
      <use x="687.470703" xlink:href="#DejaVuSans-6c"/>
      <use x="715.253906" xlink:href="#DejaVuSans-73"/>
      <use x="767.353516" xlink:href="#DejaVuSans-20"/>
      <use x="799.140625" xlink:href="#DejaVuSans-2f"/>
      <use x="832.832031" xlink:href="#DejaVuSans-20"/>
      <use x="864.619141" xlink:href="#DejaVuSans-64"/>
      <use x="928.095703" xlink:href="#DejaVuSans-69"/>
      <use x="955.878906" xlink:href="#DejaVuSans-6d"/>
      <use x="1053.291016" xlink:href="#DejaVuSans-65"/>
      <use x="1114.814453" xlink:href="#DejaVuSans-6e"/>
      <use x="1178.193359" xlink:href="#DejaVuSans-73"/>
      <use x="1230.292969" xlink:href="#DejaVuSans-69"/>
      <use x="1258.076172" xlink:href="#DejaVuSans-6f"/>
      <use x="1319.257812" xlink:href="#DejaVuSans-6e"/>
      <use x="1382.636719" xlink:href="#DejaVuSans-29"/>
     </g>
    </g>
   </g>
   <g id="matplotlib.axis_2">
    <g id="ytick_1">
     <g id="line2d_33">
      <path clip-path="url(#pc210505808)" d="M 56.84 294.16 
L 399.984 294.16 
" style="fill:none;stroke:#b0b0b0;stroke-linecap:square;stroke-width:0.8;"/>
     </g>
     <g id="line2d_34">
      <defs>
       <path d="M 0 0 
L -3.5 0 
" id="m00c4ce6aee" style="stroke:#000000;stroke-width:0.8;"/>
      </defs>
      <g>
       <use style="stroke:#000000;stroke-width:0.8;" x="56.84" xlink:href="#m00c4ce6aee" y="294.16"/>
      </g>
     </g>
     <g id="text_7">
      <!-- 0.0 -->
      <defs>
       <path d="M 10.6875 12.40625 
L 21 12.40625 
L 21 0 
L 10.6875 0 
z
" id="DejaVuSans-2e"/>
      </defs>
      <g transform="translate(24.395 300.23875)scale(0.16 -0.16)">
       <use xlink:href="#DejaVuSans-30"/>
       <use x="63.623047" xlink:href="#DejaVuSans-2e"/>
       <use x="95.410156" xlink:href="#DejaVuSans-30"/>
      </g>
     </g>
    </g>
    <g id="ytick_2">
     <g id="line2d_35">
      <path clip-path="url(#pc210505808)" d="M 56.84 240.829307 
L 399.984 240.829307 
" style="fill:none;stroke:#b0b0b0;stroke-linecap:square;stroke-width:0.8;"/>
     </g>
     <g id="line2d_36">
      <g>
       <use style="stroke:#000000;stroke-width:0.8;" x="56.84" xlink:href="#m00c4ce6aee" y="240.829307"/>
      </g>
     </g>
     <g id="text_8">
      <!-- 0.2 -->
      <g transform="translate(24.395 246.908057)scale(0.16 -0.16)">
       <use xlink:href="#DejaVuSans-30"/>
       <use x="63.623047" xlink:href="#DejaVuSans-2e"/>
       <use x="95.410156" xlink:href="#DejaVuSans-32"/>
      </g>
     </g>
    </g>
    <g id="ytick_3">
     <g id="line2d_37">
      <path clip-path="url(#pc210505808)" d="M 56.84 187.498614 
L 399.984 187.498614 
" style="fill:none;stroke:#b0b0b0;stroke-linecap:square;stroke-width:0.8;"/>
     </g>
     <g id="line2d_38">
      <g>
       <use style="stroke:#000000;stroke-width:0.8;" x="56.84" xlink:href="#m00c4ce6aee" y="187.498614"/>
      </g>
     </g>
     <g id="text_9">
      <!-- 0.4 -->
      <g transform="translate(24.395 193.577364)scale(0.16 -0.16)">
       <use xlink:href="#DejaVuSans-30"/>
       <use x="63.623047" xlink:href="#DejaVuSans-2e"/>
       <use x="95.410156" xlink:href="#DejaVuSans-34"/>
      </g>
     </g>
    </g>
    <g id="ytick_4">
     <g id="line2d_39">
      <path clip-path="url(#pc210505808)" d="M 56.84 134.167921 
L 399.984 134.167921 
" style="fill:none;stroke:#b0b0b0;stroke-linecap:square;stroke-width:0.8;"/>
     </g>
     <g id="line2d_40">
      <g>
       <use style="stroke:#000000;stroke-width:0.8;" x="56.84" xlink:href="#m00c4ce6aee" y="134.167921"/>
      </g>
     </g>
     <g id="text_10">
      <!-- 0.6 -->
      <g transform="translate(24.395 140.246671)scale(0.16 -0.16)">
       <use xlink:href="#DejaVuSans-30"/>
       <use x="63.623047" xlink:href="#DejaVuSans-2e"/>
       <use x="95.410156" xlink:href="#DejaVuSans-36"/>
      </g>
     </g>
    </g>
    <g id="ytick_5">
     <g id="line2d_41">
      <path clip-path="url(#pc210505808)" d="M 56.84 80.837228 
L 399.984 80.837228 
" style="fill:none;stroke:#b0b0b0;stroke-linecap:square;stroke-width:0.8;"/>
     </g>
     <g id="line2d_42">
      <g>
       <use style="stroke:#000000;stroke-width:0.8;" x="56.84" xlink:href="#m00c4ce6aee" y="80.837228"/>
      </g>
     </g>
     <g id="text_11">
      <!-- 0.8 -->
      <g transform="translate(24.395 86.915978)scale(0.16 -0.16)">
       <use xlink:href="#DejaVuSans-30"/>
       <use x="63.623047" xlink:href="#DejaVuSans-2e"/>
       <use x="95.410156" xlink:href="#DejaVuSans-38"/>
      </g>
     </g>
    </g>
    <g id="ytick_6">
     <g id="line2d_43">
      <path clip-path="url(#pc210505808)" d="M 56.84 27.506535 
L 399.984 27.506535 
" style="fill:none;stroke:#b0b0b0;stroke-linecap:square;stroke-width:0.8;"/>
     </g>
     <g id="line2d_44">
      <g>
       <use style="stroke:#000000;stroke-width:0.8;" x="56.84" xlink:href="#m00c4ce6aee" y="27.506535"/>
      </g>
     </g>
     <g id="text_12">
      <!-- 1.0 -->
      <g transform="translate(24.395 33.585285)scale(0.16 -0.16)">
       <use xlink:href="#DejaVuSans-31"/>
       <use x="63.623047" xlink:href="#DejaVuSans-2e"/>
       <use x="95.410156" xlink:href="#DejaVuSans-30"/>
      </g>
     </g>
    </g>
    <g id="text_13">
     <!-- Fraction of function,target pairs -->
     <defs>
      <path d="M 9.8125 72.90625 
L 51.703125 72.90625 
L 51.703125 64.59375 
L 19.671875 64.59375 
L 19.671875 43.109375 
L 48.578125 43.109375 
L 48.578125 34.8125 
L 19.671875 34.8125 
L 19.671875 0 
L 9.8125 0 
z
" id="DejaVuSans-46"/>
      <path d="M 41.109375 46.296875 
Q 39.59375 47.171875 37.8125 47.578125 
Q 36.03125 48 33.890625 48 
Q 26.265625 48 22.1875 43.046875 
Q 18.109375 38.09375 18.109375 28.8125 
L 18.109375 0 
L 9.078125 0 
L 9.078125 54.6875 
L 18.109375 54.6875 
L 18.109375 46.1875 
Q 20.953125 51.171875 25.484375 53.578125 
Q 30.03125 56 36.53125 56 
Q 37.453125 56 38.578125 55.875 
Q 39.703125 55.765625 41.0625 55.515625 
z
" id="DejaVuSans-72"/>
      <path d="M 48.78125 52.59375 
L 48.78125 44.1875 
Q 44.96875 46.296875 41.140625 47.34375 
Q 37.3125 48.390625 33.40625 48.390625 
Q 24.65625 48.390625 19.8125 42.84375 
Q 14.984375 37.3125 14.984375 27.296875 
Q 14.984375 17.28125 19.8125 11.734375 
Q 24.65625 6.203125 33.40625 6.203125 
Q 37.3125 6.203125 41.140625 7.25 
Q 44.96875 8.296875 48.78125 10.40625 
L 48.78125 2.09375 
Q 45.015625 0.34375 40.984375 -0.53125 
Q 36.96875 -1.421875 32.421875 -1.421875 
Q 20.0625 -1.421875 12.78125 6.34375 
Q 5.515625 14.109375 5.515625 27.296875 
Q 5.515625 40.671875 12.859375 48.328125 
Q 20.21875 56 33.015625 56 
Q 37.15625 56 41.109375 55.140625 
Q 45.0625 54.296875 48.78125 52.59375 
" id="DejaVuSans-63"/>
      <path d="M 18.3125 70.21875 
L 18.3125 54.6875 
L 36.8125 54.6875 
L 36.8125 47.703125 
L 18.3125 47.703125 
L 18.3125 18.015625 
Q 18.3125 11.328125 20.140625 9.421875 
Q 21.96875 7.515625 27.59375 7.515625 
L 36.8125 7.515625 
L 36.8125 0 
L 27.59375 0 
Q 17.1875 0 13.234375 3.875 
Q 9.28125 7.765625 9.28125 18.015625 
L 9.28125 47.703125 
L 2.6875 47.703125 
L 2.6875 54.6875 
L 9.28125 54.6875 
L 9.28125 70.21875 
z
" id="DejaVuSans-74"/>
      <path d="M 8.5 21.578125 
L 8.5 54.6875 
L 17.484375 54.6875 
L 17.484375 21.921875 
Q 17.484375 14.15625 20.5 10.265625 
Q 23.53125 6.390625 29.59375 6.390625 
Q 36.859375 6.390625 41.078125 11.03125 
Q 45.3125 15.671875 45.3125 23.6875 
L 45.3125 54.6875 
L 54.296875 54.6875 
L 54.296875 0 
L 45.3125 0 
L 45.3125 8.40625 
Q 42.046875 3.421875 37.71875 1 
Q 33.40625 -1.421875 27.6875 -1.421875 
Q 18.265625 -1.421875 13.375 4.4375 
Q 8.5 10.296875 8.5 21.578125 
M 31.109375 56 
z
" id="DejaVuSans-75"/>
      <path d="M 11.71875 12.40625 
L 22.015625 12.40625 
L 22.015625 4 
L 14.015625 -11.625 
L 7.71875 -11.625 
L 11.71875 4 
z
" id="DejaVuSans-2c"/>
      <path d="M 18.109375 8.203125 
L 18.109375 -20.796875 
L 9.078125 -20.796875 
L 9.078125 54.6875 
L 18.109375 54.6875 
L 18.109375 46.390625 
Q 20.953125 51.265625 25.265625 53.625 
Q 29.59375 56 35.59375 56 
Q 45.5625 56 51.78125 48.09375 
Q 58.015625 40.1875 58.015625 27.296875 
Q 58.015625 14.40625 51.78125 6.484375 
Q 45.5625 -1.421875 35.59375 -1.421875 
Q 29.59375 -1.421875 25.265625 0.953125 
Q 20.953125 3.328125 18.109375 8.203125 
M 48.6875 27.296875 
Q 48.6875 37.203125 44.609375 42.84375 
Q 40.53125 48.484375 33.40625 48.484375 
Q 26.265625 48.484375 22.1875 42.84375 
Q 18.109375 37.203125 18.109375 27.296875 
Q 18.109375 17.390625 22.1875 11.75 
Q 26.265625 6.109375 33.40625 6.109375 
Q 40.53125 6.109375 44.609375 11.75 
Q 48.6875 17.390625 48.6875 27.296875 
" id="DejaVuSans-70"/>
     </defs>
     <g transform="translate(16.859531 294.639375)rotate(-90)scale(0.17 -0.17)">
      <use xlink:href="#DejaVuSans-46"/>
      <use x="57.410156" xlink:href="#DejaVuSans-72"/>
      <use x="98.523438" xlink:href="#DejaVuSans-61"/>
      <use x="159.802734" xlink:href="#DejaVuSans-63"/>
      <use x="214.783203" xlink:href="#DejaVuSans-74"/>
      <use x="253.992188" xlink:href="#DejaVuSans-69"/>
      <use x="281.775391" xlink:href="#DejaVuSans-6f"/>
      <use x="342.957031" xlink:href="#DejaVuSans-6e"/>
      <use x="406.335938" xlink:href="#DejaVuSans-20"/>
      <use x="438.123047" xlink:href="#DejaVuSans-6f"/>
      <use x="499.304688" xlink:href="#DejaVuSans-66"/>
      <use x="534.509766" xlink:href="#DejaVuSans-20"/>
      <use x="566.296875" xlink:href="#DejaVuSans-66"/>
      <use x="601.501953" xlink:href="#DejaVuSans-75"/>
      <use x="664.880859" xlink:href="#DejaVuSans-6e"/>
      <use x="728.259766" xlink:href="#DejaVuSans-63"/>
      <use x="783.240234" xlink:href="#DejaVuSans-74"/>
      <use x="822.449219" xlink:href="#DejaVuSans-69"/>
      <use x="850.232422" xlink:href="#DejaVuSans-6f"/>
      <use x="911.414062" xlink:href="#DejaVuSans-6e"/>
      <use x="974.792969" xlink:href="#DejaVuSans-2c"/>
      <use x="1006.580078" xlink:href="#DejaVuSans-74"/>
      <use x="1045.789062" xlink:href="#DejaVuSans-61"/>
      <use x="1107.068359" xlink:href="#DejaVuSans-72"/>
      <use x="1148.166016" xlink:href="#DejaVuSans-67"/>
      <use x="1211.642578" xlink:href="#DejaVuSans-65"/>
      <use x="1273.166016" xlink:href="#DejaVuSans-74"/>
      <use x="1312.375" xlink:href="#DejaVuSans-20"/>
      <use x="1344.162109" xlink:href="#DejaVuSans-70"/>
      <use x="1407.638672" xlink:href="#DejaVuSans-61"/>
      <use x="1468.917969" xlink:href="#DejaVuSans-69"/>
      <use x="1496.701172" xlink:href="#DejaVuSans-72"/>
      <use x="1537.814453" xlink:href="#DejaVuSans-73"/>
     </g>
    </g>
   </g>
   <g id="line2d_45">
    <defs>
     <path d="M 0 1.5 
C 0.397805 1.5 0.77937 1.341951 1.06066 1.06066 
C 1.341951 0.77937 1.5 0.397805 1.5 0 
C 1.5 -0.397805 1.341951 -0.77937 1.06066 -1.06066 
C 0.77937 -1.341951 0.397805 -1.5 0 -1.5 
C -0.397805 -1.5 -0.77937 -1.341951 -1.06066 -1.06066 
C -1.341951 -0.77937 -1.5 -0.397805 -1.5 0 
C -1.5 0.397805 -1.341951 0.77937 -1.06066 1.06066 
C -0.77937 1.341951 -0.397805 1.5 0 1.5 
z
" id="mc84a325793" style="stroke:#f5deb3;"/>
    </defs>
    <g>
     <use style="fill:#f5deb3;stroke:#f5deb3;" x="238.75932" xlink:href="#mc84a325793" y="59.688849"/>
     <use style="fill:#f5deb3;stroke:#f5deb3;" x="238.75932" xlink:href="#mc84a325793" y="59.688849"/>
    </g>
   </g>
   <g id="line2d_46">
    <defs>
     <path d="M 0 1.5 
C 0.397805 1.5 0.77937 1.341951 1.06066 1.06066 
C 1.341951 0.77937 1.5 0.397805 1.5 0 
C 1.5 -0.397805 1.341951 -0.77937 1.06066 -1.06066 
C 0.77937 -1.341951 0.397805 -1.5 0 -1.5 
C -0.397805 -1.5 -0.77937 -1.341951 -1.06066 -1.06066 
C -1.341951 -0.77937 -1.5 -0.397805 -1.5 0 
C -1.5 0.397805 -1.341951 0.77937 -1.06066 1.06066 
C -0.77937 1.341951 -0.397805 1.5 0 1.5 
z
" id="m03b518cf6e" style="stroke:#000080;"/>
    </defs>
    <g>
     <use style="fill:#000080;stroke:#000080;" x="317.857517" xlink:href="#m03b518cf6e" y="59.688849"/>
     <use style="fill:#000080;stroke:#000080;" x="317.857517" xlink:href="#m03b518cf6e" y="59.688849"/>
    </g>
   </g>
   <g id="line2d_47">
    <path d="M 29.207815 294.16 
L 29.207815 286.344295 
L 131.901769 286.344295 
L 131.901769 285.884548 
L 137.385009 285.884548 
L 137.385009 278.068843 
L 139.263093 278.068843 
L 139.263093 277.609095 
L 139.570937 277.609095 
L 139.570937 276.689601 
L 140.749916 276.689601 
L 140.749916 274.850611 
L 140.98141 274.850611 
L 140.98141 273.471369 
L 142.284754 273.471369 
L 142.379218 271.172632 
L 142.589881 271.172632 
L 142.589881 270.253138 
L 144.103142 270.253138 
L 144.166927 266.115411 
L 144.606909 266.115411 
L 144.710025 261.977685 
L 145.136476 261.977685 
L 145.136476 260.598443 
L 145.395258 260.598443 
L 145.395258 259.678948 
L 145.552591 259.678948 
L 145.5917 257.839959 
L 145.862997 257.839959 
L 145.862997 257.380212 
L 146.054188 257.380212 
L 146.054188 253.242485 
L 146.16789 253.242485 
L 146.205623 252.322991 
L 146.393058 252.322991 
L 146.393058 249.564507 
L 147.212077 249.564507 
L 147.247586 248.185265 
L 147.424041 248.185265 
L 147.424041 247.725517 
L 147.908677 247.725517 
L 147.908677 246.806023 
L 148.296786 246.806023 
L 148.330123 244.047538 
L 148.627284 244.047538 
L 148.627284 243.587791 
L 148.790177 243.587791 
L 148.790177 243.128044 
L 149.222422 243.128044 
L 149.222422 241.748802 
L 149.582238 241.748802 
L 149.582238 241.289054 
L 149.736358 241.289054 
L 149.82817 238.990318 
L 150.100697 238.990318 
L 150.145701 236.231833 
L 150.398516 236.231833 
L 150.501544 233.933097 
L 150.618539 233.933097 
L 150.618539 232.553855 
L 150.835777 232.553855 
L 150.835777 231.174612 
L 151.135366 231.174612 
L 151.135366 230.714865 
L 151.318239 230.714865 
L 151.318239 229.335623 
L 151.485334 229.335623 
L 151.526855 226.577139 
L 152.191188 226.577139 
L 152.244301 224.73815 
L 152.415793 224.73815 
L 152.520482 222.89916 
L 152.676327 222.89916 
L 152.676327 221.519918 
L 153.260963 221.519918 
L 153.260963 221.060171 
L 154.350261 221.060171 
L 154.350261 220.600423 
L 154.502043 220.600423 
L 154.502043 220.140676 
L 154.698525 220.140676 
L 154.732966 216.00295 
L 155.330302 216.00295 
L 155.341375 214.623708 
L 155.539479 214.623708 
L 155.539479 214.16396 
L 155.702837 214.16396 
L 155.778543 210.945729 
L 156.003676 210.945729 
L 156.003676 210.485982 
L 156.38288 210.485982 
L 156.38288 208.646992 
L 156.517783 208.646992 
L 156.517783 208.187245 
L 157.266131 208.187245 
L 157.295792 206.348255 
L 157.80194 206.348255 
L 157.83069 204.049519 
L 158.190756 204.049519 
L 158.190756 202.670277 
L 158.987746 202.670277 
L 158.987746 202.210529 
L 159.438305 202.210529 
L 159.438305 201.750782 
L 159.723666 201.750782 
L 159.723666 201.291034 
L 160.305431 201.291034 
L 160.305431 200.37154 
L 160.892178 200.37154 
L 160.892178 198.992298 
L 161.146654 198.992298 
L 161.193951 195.774066 
L 161.358473 195.774066 
L 161.358473 195.314319 
L 161.47503 195.314319 
L 161.47503 193.935077 
L 162.99342 193.935077 
L 162.99342 193.475329 
L 163.29556 193.475329 
L 163.29556 193.015582 
L 163.537622 193.015582 
L 163.537622 192.555835 
L 164.788864 192.555835 
L 164.788864 191.63634 
L 165.4588 191.63634 
L 165.4588 191.176593 
L 165.89532 191.176593 
L 165.89532 189.797351 
L 166.850037 189.797351 
L 166.850037 189.337603 
L 167.31371 189.337603 
L 167.31371 188.418109 
L 167.999799 188.418109 
L 167.999799 187.958361 
L 168.526508 187.958361 
L 168.526508 186.579119 
L 169.392768 186.579119 
L 169.392768 185.199877 
L 170.212758 185.199877 
L 170.212758 184.280382 
L 170.562966 184.280382 
L 170.562966 183.820635 
L 170.834488 183.820635 
L 170.834488 183.360888 
L 171.145929 183.360888 
L 171.145929 181.521898 
L 172.383284 181.521898 
L 172.383284 180.602404 
L 173.571914 180.602404 
L 173.571914 179.682909 
L 176.415876 179.682909 
L 176.415876 178.303667 
L 176.974339 178.303667 
L 176.974339 177.843919 
L 178.476594 177.843919 
L 178.476594 177.384172 
L 179.671092 177.384172 
L 179.671092 176.924425 
L 180.026963 176.924425 
L 180.026963 176.464677 
L 181.458529 176.464677 
L 181.458529 175.085435 
L 182.590745 175.085435 
L 182.590745 174.625688 
L 182.835745 174.625688 
L 182.835745 174.165941 
L 184.931928 174.165941 
L 184.931928 173.706193 
L 186.261744 173.706193 
L 186.261744 172.786699 
L 186.427294 172.786699 
L 186.427294 172.326951 
L 186.990082 172.326951 
L 186.990082 171.867204 
L 187.62642 171.867204 
L 187.62642 171.407456 
L 188.495497 171.407456 
L 188.495497 170.487962 
L 188.796196 170.487962 
L 188.796196 169.568467 
L 188.950065 169.568467 
L 188.950065 169.10872 
L 189.324223 169.10872 
L 189.371569 167.26973 
L 192.729836 167.26973 
L 192.729836 166.809983 
L 192.956597 166.809983 
L 192.956597 164.970994 
L 195.394153 164.970994 
L 195.394153 164.051499 
L 198.237974 164.051499 
L 198.237974 163.591751 
L 200.051532 163.591751 
L 200.051532 163.132004 
L 200.96355 163.132004 
L 200.96355 162.672257 
L 203.823431 162.672257 
L 203.823431 161.752762 
L 204.003889 161.752762 
L 204.003889 161.293015 
L 206.479313 161.293015 
L 206.479313 160.833267 
L 206.933294 160.833267 
L 207.028448 159.454025 
L 207.125248 159.454025 
L 207.125248 158.074783 
L 207.630738 158.074783 
L 207.630738 157.615036 
L 208.505828 157.615036 
L 208.505828 155.776046 
L 209.154434 155.776046 
L 209.154434 154.856552 
L 212.968196 154.856552 
L 212.968196 153.47731 
L 214.096373 153.47731 
L 214.096373 150.718826 
L 218.323447 150.718826 
L 218.323447 149.799331 
L 218.638316 149.799331 
L 218.638316 148.420089 
L 219.763485 148.420089 
L 219.763485 147.500594 
L 222.325561 147.500594 
L 222.325561 147.040847 
L 222.801061 147.040847 
L 222.801061 145.661605 
L 223.56153 145.661605 
L 223.56153 145.201857 
L 228.477156 145.201857 
L 228.477156 144.74211 
L 229.335037 144.74211 
L 229.335037 144.282363 
L 229.542459 144.282363 
L 229.612705 142.903121 
L 230.133921 142.903121 
L 230.133921 141.983626 
L 231.129015 141.983626 
L 231.129015 141.523878 
L 231.386594 141.523878 
L 231.386594 139.684889 
L 231.698659 139.684889 
L 231.698659 138.765394 
L 232.915343 138.765394 
L 232.915343 137.8459 
L 237.315166 137.8459 
L 237.315166 137.386152 
L 237.87611 137.386152 
L 237.87611 136.926405 
L 239.358263 136.926405 
L 239.358263 136.466658 
L 240.282203 136.466658 
L 240.282203 135.087416 
L 242.244917 135.087416 
L 242.244917 133.708173 
L 242.590763 133.708173 
L 242.590763 133.248426 
L 248.719935 133.248426 
L 248.719935 132.788679 
L 250.068316 132.788679 
L 250.068316 132.328931 
L 251.499476 132.328931 
L 251.499476 131.869184 
L 254.542455 131.869184 
L 254.633618 124.053479 
L 254.688228 124.053479 
L 254.765979 122.21449 
L 254.826911 122.21449 
L 254.889641 119.456005 
L 254.977281 119.456005 
L 254.977281 118.536511 
L 255.143358 118.536511 
L 255.143358 118.076763 
L 255.357609 118.076763 
L 255.357609 117.617016 
L 255.497038 117.617016 
L 255.591955 114.398785 
L 255.646721 114.398785 
L 255.646721 113.939037 
L 255.970907 113.939037 
L 255.970907 113.47929 
L 256.452352 113.47929 
L 256.537967 112.100048 
L 256.63875 112.100048 
L 256.63875 111.6403 
L 257.127967 111.6403 
L 257.128055 110.720806 
L 257.915297 110.720806 
L 257.915297 110.261058 
L 258.125353 110.261058 
L 258.225666 107.962322 
L 258.541763 107.962322 
L 258.541763 107.502574 
L 260.032026 107.502574 
L 260.032026 107.042827 
L 260.72836 107.042827 
L 260.72836 106.123332 
L 266.429263 106.123332 
L 266.529449 101.525859 
L 266.570017 101.525859 
L 266.593942 100.606364 
L 266.728843 100.606364 
L 266.728927 99.227122 
L 266.923633 99.227122 
L 266.943028 98.307627 
L 267.036414 98.307627 
L 267.036414 97.84788 
L 267.155296 97.84788 
L 267.155345 96.468638 
L 267.408004 96.468638 
L 267.408004 96.00889 
L 267.768361 96.00889 
L 267.768361 95.549143 
L 268.296222 95.549143 
L 268.296222 95.089396 
L 268.543377 95.089396 
L 268.543377 94.629648 
L 269.303326 94.629648 
L 269.303326 94.169901 
L 269.798708 94.169901 
L 269.79875 92.790659 
L 273.400815 92.790659 
L 273.426382 91.411417 
L 273.584008 91.411417 
L 273.584008 90.95167 
L 273.705607 90.95167 
L 273.757629 89.11268 
L 273.871207 89.11268 
L 273.871207 88.652933 
L 274.225792 88.652933 
L 274.225792 88.193185 
L 274.700292 88.193185 
L 274.700292 87.273691 
L 274.923998 87.273691 
L 274.923998 86.813943 
L 275.702567 86.813943 
L 275.702567 86.354196 
L 277.162826 86.354196 
L 277.162826 85.894449 
L 278.329385 85.894449 
L 278.402614 82.676217 
L 278.469769 82.676217 
L 278.576649 80.37748 
L 278.600578 80.37748 
L 278.625637 79.457986 
L 278.81582 79.457986 
L 278.81582 78.998238 
L 279.002131 78.998238 
L 279.002131 78.538491 
L 282.158503 78.538491 
L 282.268781 76.239754 
L 282.342262 76.239754 
L 282.342262 75.320259 
L 282.587646 75.320259 
L 282.587646 74.860512 
L 283.025942 74.860512 
L 283.025975 73.941017 
L 283.577285 73.941017 
L 283.577297 73.021523 
L 285.285636 73.021523 
L 285.332139 72.102028 
L 285.62547 72.102028 
L 285.62547 71.642281 
L 288.008851 71.642281 
L 288.061477 69.803291 
L 288.237696 69.803291 
L 288.23771 68.883797 
L 288.955513 68.883797 
L 288.955513 68.424049 
L 289.645801 68.424049 
L 289.645801 67.964302 
L 291.12161 67.964302 
L 291.12161 67.504554 
L 291.731529 67.504554 
L 291.731533 66.58506 
L 292.303145 66.58506 
L 292.303179 65.665565 
L 295.735393 65.665565 
L 295.735446 64.74607 
L 296.345011 64.74607 
L 296.345011 64.286323 
L 297.224396 64.286323 
L 297.255183 62.907081 
L 298.573449 62.907081 
L 298.642908 61.527839 
L 301.323988 61.527839 
L 301.323988 61.068091 
L 305.11368 61.068091 
L 305.11368 60.608344 
L 314.030437 60.608344 
L 314.030437 60.148597 
L 317.857517 60.148597 
L 317.857517 59.688849 
L 333.569032 59.688849 
L 333.569032 59.688849 
" style="fill:none;stroke:#000080;stroke-linecap:square;stroke-width:1.5;"/>
   </g>
   <g id="line2d_48">
    <defs>
     <path d="M 0 6 
C 1.591219 6 3.117479 5.367802 4.242641 4.242641 
C 5.367802 3.117479 6 1.591219 6 0 
C 6 -1.591219 5.367802 -3.117479 4.242641 -4.242641 
C 3.117479 -5.367802 1.591219 -6 0 -6 
C -1.591219 -6 -3.117479 -5.367802 -4.242641 -4.242641 
C -5.367802 -3.117479 -6 -1.591219 -6 0 
C -6 1.591219 -5.367802 3.117479 -4.242641 4.242641 
C -3.117479 5.367802 -1.591219 6 0 6 
z
" id="ma26b1fa68f" style="stroke:#000080;stroke-width:1.5;"/>
    </defs>
    <g>
     <use style="fill:none;stroke:#000080;stroke-width:1.5;" x="155.330302" xlink:href="#ma26b1fa68f" y="216.00295"/>
     <use style="fill:none;stroke:#000080;stroke-width:1.5;" x="219.763485" xlink:href="#ma26b1fa68f" y="148.420089"/>
     <use style="fill:none;stroke:#000080;stroke-width:1.5;" x="278.369439" xlink:href="#ma26b1fa68f" y="83.595712"/>
     <use style="fill:none;stroke:#000080;stroke-width:1.5;" x="317.857517" xlink:href="#ma26b1fa68f" y="59.688849"/>
     <use style="fill:none;stroke:#000080;stroke-width:1.5;" x="333.569032" xlink:href="#ma26b1fa68f" y="59.688849"/>
    </g>
   </g>
   <g id="line2d_49">
    <path style="fill:none;stroke:#000080;stroke-linecap:square;stroke-width:1.5;"/>
    <g/>
   </g>
   <g id="line2d_50">
    <path clip-path="url(#pc210505808)" d="M 254.507543 131.869184 
" style="fill:none;stroke:#000080;stroke-linecap:square;stroke-width:1.5;"/>
    <defs>
     <path d="M -12 12 
L 12 -12 
M -12 -12 
L 12 12 
" id="mf589efacb6" style="stroke:#000080;stroke-width:3;"/>
    </defs>
    <g clip-path="url(#pc210505808)">
     <use style="fill:#000080;stroke:#000080;stroke-width:3;" x="254.507543" xlink:href="#mf589efacb6" y="131.869184"/>
    </g>
   </g>
   <g id="line2d_51">
    <defs>
     <path d="M 0 1.5 
C 0.397805 1.5 0.77937 1.341951 1.06066 1.06066 
C 1.341951 0.77937 1.5 0.397805 1.5 0 
C 1.5 -0.397805 1.341951 -0.77937 1.06066 -1.06066 
C 0.77937 -1.341951 0.397805 -1.5 0 -1.5 
C -0.397805 -1.5 -0.77937 -1.341951 -1.06066 -1.06066 
C -1.341951 -0.77937 -1.5 -0.397805 -1.5 0 
C -1.5 0.397805 -1.341951 0.77937 -1.06066 1.06066 
C -0.77937 1.341951 -0.397805 1.5 0 1.5 
z
" id="m0058fea3a8" style="stroke:#ff00ff;"/>
    </defs>
    <g>
     <use style="fill:#ff00ff;stroke:#ff00ff;" x="359.036168" xlink:href="#m0058fea3a8" y="119.456005"/>
     <use style="fill:#ff00ff;stroke:#ff00ff;" x="359.036168" xlink:href="#m0058fea3a8" y="119.456005"/>
    </g>
   </g>
   <g id="line2d_52">
    <path d="M 41.10835 294.16 
L 41.10835 291.861263 
L 62.616839 291.861263 
L 62.616839 289.562526 
L 71.870784 289.562526 
L 71.870784 289.102779 
L 74.517373 289.102779 
L 74.517373 286.804042 
L 79.760422 286.804042 
L 79.760422 285.4248 
L 83.040619 285.4248 
L 83.040619 277.149348 
L 84.472185 277.149348 
L 84.472185 276.229853 
L 89.2388 276.229853 
L 89.2388 275.770106 
L 89.751341 275.770106 
L 89.751341 272.092127 
L 90.249023 272.092127 
L 90.249023 266.575159 
L 91.660956 266.575159 
L 91.660956 265.655664 
L 94.563801 265.655664 
L 94.563801 264.276422 
L 94.941153 264.276422 
L 94.941153 263.816675 
L 97.694051 263.816675 
L 97.694051 263.356927 
L 100.61102 263.356927 
L 100.61102 260.598443 
L 103.785923 260.598443 
L 103.785923 259.678948 
L 106.654048 259.678948 
L 106.654048 258.759454 
L 108.613241 258.759454 
L 108.613241 257.380212 
L 109.273663 257.380212 
L 109.273663 256.920464 
L 112.104369 256.920464 
L 112.104369 256.460717 
L 113.927017 256.460717 
L 113.927017 253.242485 
L 114.887762 253.242485 
L 114.887762 252.782738 
L 119.019891 252.782738 
L 119.019891 251.863243 
L 119.20254 251.863243 
L 119.20254 250.024254 
L 122.272122 250.024254 
L 122.272122 249.564507 
L 125.515948 249.564507 
L 125.515948 249.104759 
L 131.507065 249.104759 
L 131.507065 248.645012 
L 134.058324 248.645012 
L 134.058324 247.26577 
L 138.512738 247.26577 
L 138.512738 246.806023 
L 141.285291 246.806023 
L 141.285291 245.886528 
L 141.804475 245.886528 
L 141.804475 243.587791 
L 142.843897 243.587791 
L 142.843897 243.128044 
L 143.451906 243.128044 
L 143.451906 240.829307 
L 144.730575 240.829307 
L 144.730575 240.36956 
L 146.092172 240.36956 
L 146.092172 238.990318 
L 146.780134 238.990318 
L 146.780134 238.070823 
L 148.044669 238.070823 
L 148.12912 235.772086 
L 149.457938 235.772086 
L 149.457938 235.312339 
L 150.749211 235.312339 
L 150.749211 234.392844 
L 151.38806 234.392844 
L 151.38806 233.933097 
L 152.003987 233.933097 
L 152.003987 232.094107 
L 155.982361 232.094107 
L 155.982361 231.63436 
L 156.455652 231.63436 
L 156.455652 230.255118 
L 157.166889 230.255118 
L 157.166889 229.79537 
L 160.747361 229.79537 
L 160.747361 228.416128 
L 161.721072 228.416128 
L 161.721072 227.956381 
L 162.180542 227.956381 
L 162.180542 227.036886 
L 166.133119 227.036886 
L 166.133119 226.577139 
L 167.136425 226.577139 
L 167.136425 226.117392 
L 173.697777 226.117392 
L 173.697777 225.197897 
L 175.462176 225.197897 
L 175.462176 224.278402 
L 178.642644 224.278402 
L 178.642644 223.818655 
L 178.838117 223.818655 
L 178.838117 223.358907 
L 180.580428 223.358907 
L 180.580428 221.060171 
L 181.843502 221.060171 
L 181.843502 220.140676 
L 183.509721 220.140676 
L 183.509721 219.680929 
L 184.445106 219.680929 
L 184.445106 219.221181 
L 184.809024 219.221181 
L 184.809024 218.761434 
L 188.763044 218.761434 
L 188.763044 218.301687 
L 189.102567 218.301687 
L 189.102567 217.382192 
L 191.365104 217.382192 
L 191.365104 215.543202 
L 194.172535 215.543202 
L 194.172535 214.16396 
L 202.404492 214.16396 
L 202.404492 213.244466 
L 206.715859 213.244466 
L 206.715859 211.865224 
L 207.169658 211.865224 
L 207.169658 210.485982 
L 208.002125 210.485982 
L 208.002125 210.026234 
L 208.479788 210.026234 
L 208.479788 209.566487 
L 212.032527 209.566487 
L 212.032527 209.10674 
L 214.297172 209.10674 
L 214.297172 208.646992 
L 215.112448 208.646992 
L 215.112448 207.727497 
L 215.397164 207.727497 
L 215.397164 207.26775 
L 217.033621 207.26775 
L 217.033621 206.808003 
L 222.001008 206.808003 
L 222.001008 206.348255 
L 222.841925 206.348255 
L 222.841925 205.888508 
L 223.259931 205.888508 
L 223.259931 204.509266 
L 224.671585 204.509266 
L 224.671585 203.130024 
L 225.828613 203.130024 
L 225.828613 202.670277 
L 225.958021 202.670277 
L 225.958021 202.210529 
L 228.186382 202.210529 
L 228.186382 200.37154 
L 232.510345 200.37154 
L 232.510345 199.911792 
L 234.415998 199.911792 
L 234.526279 198.53255 
L 236.015885 198.53255 
L 236.015885 197.613056 
L 240.698187 197.613056 
L 240.698187 196.233814 
L 241.508336 196.233814 
L 241.508336 194.854572 
L 242.732028 194.854572 
L 242.732028 193.935077 
L 244.014451 193.935077 
L 244.014451 193.475329 
L 249.450322 193.475329 
L 249.450322 192.555835 
L 249.833889 192.555835 
L 249.833889 192.096087 
L 251.821137 192.096087 
L 251.821137 191.63634 
L 256.554673 191.63634 
L 256.554673 191.176593 
L 257.507014 191.176593 
L 257.507014 189.797351 
L 258.777806 189.797351 
L 258.777806 189.337603 
L 259.3282 189.337603 
L 259.3282 188.877856 
L 259.705773 188.877856 
L 259.705773 187.958361 
L 266.854233 187.958361 
L 266.854233 187.498614 
L 269.789661 187.498614 
L 269.789661 186.119372 
L 271.251896 186.119372 
L 271.260567 185.199877 
L 272.310762 185.199877 
L 272.310762 184.280382 
L 272.642474 184.280382 
L 272.642474 183.820635 
L 281.33744 183.820635 
L 281.33744 183.360888 
L 287.438738 183.360888 
L 287.438738 181.062151 
L 288.870376 181.062151 
L 288.870376 180.602404 
L 289.366085 180.602404 
L 289.366085 180.142656 
L 289.496236 180.142656 
L 289.496236 179.682909 
L 290.254046 179.682909 
L 290.254046 178.763414 
L 292.915577 178.763414 
L 292.915577 178.303667 
L 294.036791 178.303667 
L 294.146584 171.867204 
L 294.211422 171.867204 
L 294.211422 171.407456 
L 294.356452 171.407456 
L 294.356452 170.947709 
L 294.564404 170.947709 
L 294.579105 169.10872 
L 294.823407 169.10872 
L 294.823407 168.648972 
L 295.270039 168.648972 
L 295.296913 167.729478 
L 295.445417 167.729478 
L 295.445417 167.26973 
L 296.171781 167.26973 
L 296.171781 166.809983 
L 297.137303 166.809983 
L 297.242405 165.890488 
L 298.077451 165.890488 
L 298.077451 164.511246 
L 298.376635 164.511246 
L 298.376635 163.132004 
L 302.992007 163.132004 
L 302.992007 162.672257 
L 304.149657 162.672257 
L 304.149657 162.212509 
L 305.937945 162.212509 
L 306.024625 156.695541 
L 306.087228 156.695541 
L 306.097663 155.776046 
L 306.56479 155.776046 
L 306.655852 152.557815 
L 306.87795 152.557815 
L 306.87795 151.63832 
L 307.004085 151.63832 
L 307.004085 151.178573 
L 307.557259 151.178573 
L 307.557259 150.718826 
L 309.611238 150.718826 
L 309.611238 150.259078 
L 310.992131 150.259078 
L 310.992131 149.339583 
L 312.532704 149.339583 
L 312.532704 148.879836 
L 312.89843 148.879836 
L 312.934507 145.201857 
L 313.076055 145.201857 
L 313.081058 144.282363 
L 313.319383 144.282363 
L 313.32878 143.362868 
L 313.531312 143.362868 
L 313.639943 142.443373 
L 315.433002 142.443373 
L 315.433002 141.983626 
L 317.563981 141.983626 
L 317.563981 141.523878 
L 317.856602 141.523878 
L 317.865016 140.604384 
L 318.037564 140.604384 
L 318.037564 140.144636 
L 318.154224 140.144636 
L 318.161315 138.765394 
L 318.31438 138.765394 
L 318.349806 137.386152 
L 318.666697 137.386152 
L 318.666697 136.466658 
L 319.772687 136.466658 
L 319.772687 136.00691 
L 321.668676 136.00691 
L 321.778438 133.248426 
L 322.11737 133.248426 
L 322.11737 132.788679 
L 322.556407 132.788679 
L 322.556407 132.328931 
L 323.872144 132.328931 
L 323.872144 131.869184 
L 325.015381 131.869184 
L 325.015381 131.409437 
L 327.631189 131.409437 
L 327.719528 130.489942 
L 330.011009 130.489942 
L 330.011009 130.030195 
L 330.157581 130.030195 
L 330.157581 129.570447 
L 331.904839 129.570447 
L 331.904839 129.1107 
L 333.569032 129.1107 
L 333.569032 129.1107 
" style="fill:none;stroke:#ff00ff;stroke-linecap:square;stroke-width:1.5;"/>
   </g>
   <g id="line2d_53">
    <defs>
     <path d="M -0 8.485281 
L 5.091169 0 
L 0 -8.485281 
L -5.091169 -0 
z
" id="me7b05277e2" style="stroke:#ff00ff;stroke-linejoin:miter;stroke-width:1.5;"/>
    </defs>
    <g>
     <use style="fill:none;stroke:#ff00ff;stroke-linejoin:miter;stroke-width:1.5;" x="122.272122" xlink:href="#me7b05277e2" y="249.564507"/>
     <use style="fill:none;stroke:#ff00ff;stroke-linejoin:miter;stroke-width:1.5;" x="212.032527" xlink:href="#me7b05277e2" y="209.566487"/>
     <use style="fill:none;stroke:#ff00ff;stroke-linejoin:miter;stroke-width:1.5;" x="266.854233" xlink:href="#me7b05277e2" y="187.958361"/>
     <use style="fill:none;stroke:#ff00ff;stroke-linejoin:miter;stroke-width:1.5;" x="319.772687" xlink:href="#me7b05277e2" y="136.466658"/>
     <use style="fill:none;stroke:#ff00ff;stroke-linejoin:miter;stroke-width:1.5;" x="331.904839" xlink:href="#me7b05277e2" y="129.1107"/>
     <use style="fill:none;stroke:#ff00ff;stroke-linejoin:miter;stroke-width:1.5;" x="333.569032" xlink:href="#me7b05277e2" y="129.1107"/>
    </g>
   </g>
   <g id="line2d_54">
    <path style="fill:none;stroke:#ff00ff;stroke-linecap:square;stroke-width:1.5;"/>
    <g/>
   </g>
   <g id="line2d_55">
    <path clip-path="url(#pc210505808)" d="M 294.036313 178.303667 
" style="fill:none;stroke:#ff00ff;stroke-linecap:square;stroke-width:1.5;"/>
    <defs>
     <path d="M -12 12 
L 12 -12 
M -12 -12 
L 12 12 
" id="m7c65dc6970" style="stroke:#ff00ff;stroke-width:3;"/>
    </defs>
    <g clip-path="url(#pc210505808)">
     <use style="fill:#ff00ff;stroke:#ff00ff;stroke-width:3;" x="294.036313" xlink:href="#m7c65dc6970" y="178.303667"/>
    </g>
   </g>
   <g id="line2d_56">
    <defs>
     <path d="M 0 1.5 
C 0.397805 1.5 0.77937 1.341951 1.06066 1.06066 
C 1.341951 0.77937 1.5 0.397805 1.5 0 
C 1.5 -0.397805 1.341951 -0.77937 1.06066 -1.06066 
C 0.77937 -1.341951 0.397805 -1.5 0 -1.5 
C -0.397805 -1.5 -0.77937 -1.341951 -1.06066 -1.06066 
C -1.341951 -0.77937 -1.5 -0.397805 -1.5 0 
C -1.5 0.397805 -1.341951 0.77937 -1.06066 1.06066 
C -0.77937 1.341951 -0.397805 1.5 0 1.5 
z
" id="m8c46ef8eea" style="stroke:#ffa500;"/>
    </defs>
    <g>
     <use style="fill:#ffa500;stroke:#ffa500;" x="229.710627" xlink:href="#m8c46ef8eea" y="243.587791"/>
     <use style="fill:#ffa500;stroke:#ffa500;" x="229.710627" xlink:href="#m8c46ef8eea" y="243.587791"/>
    </g>
   </g>
   <g id="line2d_57">
    <path d="M 29.207815 294.16 
L 29.207815 284.505306 
L 167.030289 284.505306 
L 167.11971 281.746821 
L 167.186472 281.746821 
L 167.297167 278.068843 
L 167.341247 278.068843 
L 167.407154 275.770106 
L 178.972797 275.770106 
L 179.062001 273.011622 
L 179.084229 273.011622 
L 179.117518 270.712885 
L 179.217 270.712885 
L 179.217 270.253138 
L 185.918319 270.253138 
L 185.948132 269.333643 
L 186.066871 269.333643 
L 186.140668 265.655664 
L 186.206815 265.655664 
L 186.206815 265.195917 
L 191.02775 265.195917 
L 191.088578 261.977685 
L 194.783083 261.977685 
L 194.836416 261.058191 
L 194.920523 261.058191 
L 194.920523 260.598443 
L 197.910921 260.598443 
L 198.021861 259.678948 
L 198.058683 259.678948 
L 198.091754 258.759454 
L 200.616107 258.759454 
L 200.723521 256.00097 
L 202.944203 256.00097 
L 203.018757 254.621728 
L 204.925073 254.621728 
L 204.976776 253.242485 
L 205.043022 253.242485 
L 205.043022 252.782738 
L 206.725297 252.782738 
L 206.734176 251.863243 
L 208.404954 251.863243 
L 208.404954 251.403496 
L 209.833238 251.403496 
L 209.833238 250.943749 
L 209.955078 250.943749 
L 209.980812 250.024254 
L 212.509905 250.024254 
L 212.532084 249.104759 
L 213.679817 249.104759 
L 213.77138 248.185265 
L 214.826394 248.185265 
L 214.89827 246.806023 
L 217.801505 246.806023 
L 217.801505 246.346275 
L 219.536537 246.346275 
L 219.536537 245.886528 
L 221.023621 245.886528 
L 221.023621 245.42678 
L 224.42767 245.42678 
L 224.479849 244.507286 
L 227.787225 244.507286 
L 227.787225 244.047538 
L 229.710627 244.047538 
L 229.710627 243.587791 
L 333.569032 243.587791 
L 333.569032 243.587791 
" style="fill:none;stroke:#ffa500;stroke-linecap:square;stroke-width:1.5;"/>
   </g>
   <g id="line2d_58">
    <defs>
     <path d="M 0 -6 
L -1.347084 -1.854102 
L -5.706339 -1.854102 
L -2.179628 0.708204 
L -3.526712 4.854102 
L -0 2.291796 
L 3.526712 4.854102 
L 2.179628 0.708204 
L 5.706339 -1.854102 
L 1.347084 -1.854102 
z
" id="m3785403979" style="stroke:#ffa500;stroke-linejoin:bevel;stroke-width:1.5;"/>
    </defs>
    <g>
     <use style="fill:none;stroke:#ffa500;stroke-linejoin:bevel;stroke-width:1.5;" x="203.018757" xlink:href="#m3785403979" y="255.081475"/>
     <use style="fill:none;stroke:#ffa500;stroke-linejoin:bevel;stroke-width:1.5;" x="229.710627" xlink:href="#m3785403979" y="244.047538"/>
     <use style="fill:none;stroke:#ffa500;stroke-linejoin:bevel;stroke-width:1.5;" x="229.710627" xlink:href="#m3785403979" y="243.587791"/>
     <use style="fill:none;stroke:#ffa500;stroke-linejoin:bevel;stroke-width:1.5;" x="229.710627" xlink:href="#m3785403979" y="243.587791"/>
     <use style="fill:none;stroke:#ffa500;stroke-linejoin:bevel;stroke-width:1.5;" x="333.569032" xlink:href="#m3785403979" y="243.587791"/>
    </g>
   </g>
   <g id="line2d_59">
    <path style="fill:none;stroke:#ffa500;stroke-linecap:square;stroke-width:1.5;"/>
    <g/>
   </g>
   <g id="line2d_60">
    <path clip-path="url(#pc210505808)" d="M 167.247443 279.448085 
" style="fill:none;stroke:#ffa500;stroke-linecap:square;stroke-width:1.5;"/>
    <defs>
     <path d="M -12 12 
L 12 -12 
M -12 -12 
L 12 12 
" id="m5dfd4bfc83" style="stroke:#ffa500;stroke-width:3;"/>
    </defs>
    <g clip-path="url(#pc210505808)">
     <use style="fill:#ffa500;stroke:#ffa500;stroke-width:3;" x="167.247443" xlink:href="#m5dfd4bfc83" y="279.448085"/>
    </g>
   </g>
   <g id="line2d_61">
    <defs>
     <path d="M 0 1.5 
C 0.397805 1.5 0.77937 1.341951 1.06066 1.06066 
C 1.341951 0.77937 1.5 0.397805 1.5 0 
C 1.5 -0.397805 1.341951 -0.77937 1.06066 -1.06066 
C 0.77937 -1.341951 0.397805 -1.5 0 -1.5 
C -0.397805 -1.5 -0.77937 -1.341951 -1.06066 -1.06066 
C -1.341951 -0.77937 -1.5 -0.397805 -1.5 0 
C -1.5 0.397805 -1.341951 0.77937 -1.06066 1.06066 
C -0.77937 1.341951 -0.397805 1.5 0 1.5 
z
" id="m8f763ba1e2" style="stroke:#6495ed;"/>
    </defs>
    <g>
     <use style="fill:#6495ed;stroke:#6495ed;" x="233.306286" xlink:href="#m8f763ba1e2" y="119.456005"/>
     <use style="fill:#6495ed;stroke:#6495ed;" x="233.306286" xlink:href="#m8f763ba1e2" y="119.456005"/>
    </g>
   </g>
   <g id="line2d_62">
    <path d="M 29.207815 294.16 
L 29.207815 283.585811 
L 48.069716 283.585811 
L 48.069716 283.126064 
L 53.008884 283.126064 
L 53.008884 282.206569 
L 62.616839 282.206569 
L 62.616839 280.367579 
L 66.931616 280.367579 
L 66.931616 279.907832 
L 71.870784 279.907832 
L 71.870784 275.770106 
L 80.641068 275.770106 
L 80.641068 274.850611 
L 83.771318 274.850611 
L 83.771318 274.390864 
L 87.020384 274.390864 
L 87.020384 273.931116 
L 90.732685 273.931116 
L 90.732685 271.63238 
L 91.660956 271.63238 
L 91.660956 268.873896 
L 94.941153 268.873896 
L 94.941153 268.414148 
L 98.920918 268.414148 
L 98.920918 267.494653 
L 99.502969 267.494653 
L 99.502969 266.115411 
L 104.007459 266.115411 
L 104.007459 264.276422 
L 104.655417 264.276422 
L 104.655417 263.356927 
L 105.07419 263.356927 
L 105.07419 262.437433 
L 111.403503 262.437433 
L 111.403503 260.598443 
L 115.574608 260.598443 
L 115.574608 260.138696 
L 116.449642 260.138696 
L 116.449642 258.759454 
L 118.459988 258.759454 
L 118.459988 257.380212 
L 120.76442 257.380212 
L 120.76442 256.00097 
L 121.174197 256.00097 
L 121.174197 253.702233 
L 121.653359 253.702233 
L 121.653359 253.242485 
L 122.573338 253.242485 
L 122.573338 252.322991 
L 123.088074 252.322991 
L 123.088074 251.863243 
L 124.141708 251.863243 
L 124.141708 250.484001 
L 124.412089 250.484001 
L 124.412089 248.185265 
L 126.011834 248.185265 
L 126.011834 247.725517 
L 126.493798 247.725517 
L 126.493798 247.26577 
L 126.904696 247.26577 
L 126.904696 246.346275 
L 128.875258 246.346275 
L 128.875258 244.967033 
L 129.029702 244.967033 
L 129.029702 244.047538 
L 129.534704 244.047538 
L 129.534704 243.587791 
L 130.025276 243.587791 
L 130.025276 242.668296 
L 130.735812 242.668296 
L 130.735812 242.208549 
L 131.418108 242.208549 
L 131.418108 241.748802 
L 131.727464 241.748802 
L 131.727464 240.36956 
L 131.858358 240.36956 
L 131.858358 238.070823 
L 131.988262 238.070823 
L 131.988262 237.151328 
L 133.355865 237.151328 
L 133.355865 236.691581 
L 133.474955 236.691581 
L 133.474955 236.231833 
L 136.008143 236.231833 
L 136.008143 234.852591 
L 136.144135 234.852591 
L 136.144135 233.473349 
L 137.321888 233.473349 
L 137.353478 231.63436 
L 137.479257 231.63436 
L 137.479257 230.255118 
L 140.143739 230.255118 
L 140.143739 229.335623 
L 140.515259 229.335623 
L 140.515259 228.875876 
L 140.878909 228.875876 
L 140.878909 228.416128 
L 141.134023 228.416128 
L 141.134023 227.956381 
L 141.73126 227.956381 
L 141.73126 226.577139 
L 142.519947 226.577139 
L 142.519947 225.657644 
L 143.69357 225.657644 
L 143.780612 224.278402 
L 145.096315 224.278402 
L 145.096315 223.818655 
L 145.395258 223.818655 
L 145.395258 221.979665 
L 147.0693 221.979665 
L 147.0693 220.600423 
L 147.857401 220.600423 
L 147.857401 220.140676 
L 148.061592 220.140676 
L 148.061592 219.221181 
L 148.999654 219.221181 
L 148.999654 218.761434 
L 149.442337 218.761434 
L 149.442337 218.301687 
L 150.08567 218.301687 
L 150.08567 216.922445 
L 151.678244 216.922445 
L 151.678244 215.543202 
L 152.856376 215.543202 
L 152.856376 214.623708 
L 153.185825 214.623708 
L 153.185825 214.16396 
L 153.373056 214.16396 
L 153.373056 213.704213 
L 153.717181 213.704213 
L 153.717181 213.244466 
L 153.95883 213.244466 
L 153.95883 212.324971 
L 154.256185 212.324971 
L 154.256185 211.405476 
L 155.208024 211.405476 
L 155.208024 210.485982 
L 155.583193 210.485982 
L 155.583193 210.026234 
L 155.756946 210.026234 
L 155.756946 209.566487 
L 156.194325 209.566487 
L 156.194325 209.10674 
L 156.835259 209.10674 
L 156.835259 207.727497 
L 156.996849 207.727497 
L 156.996849 206.348255 
L 157.579905 206.348255 
L 157.579905 205.428761 
L 157.725036 205.428761 
L 157.725036 204.969013 
L 159.970582 204.969013 
L 159.970582 204.049519 
L 160.188975 204.049519 
L 160.255618 202.210529 
L 160.454008 202.210529 
L 160.454008 201.750782 
L 160.884165 201.750782 
L 160.884165 199.911792 
L 161.256812 199.911792 
L 161.256812 198.992298 
L 161.963638 198.992298 
L 161.963638 198.53255 
L 162.098591 198.53255 
L 162.098591 197.153308 
L 163.04297 197.153308 
L 163.04297 196.693561 
L 163.660795 196.693561 
L 163.701657 194.854572 
L 163.816908 194.854572 
L 163.816908 193.935077 
L 164.336005 193.935077 
L 164.388369 192.096087 
L 165.4588 192.096087 
L 165.4588 189.797351 
L 166.570306 189.797351 
L 166.570306 188.877856 
L 166.690749 188.877856 
L 166.719302 187.958361 
L 167.786651 187.958361 
L 167.786651 186.579119 
L 168.745937 186.579119 
L 168.786454 184.74013 
L 168.967604 184.74013 
L 168.967604 183.820635 
L 169.407411 183.820635 
L 169.407411 183.360888 
L 169.654449 183.360888 
L 169.654449 182.90114 
L 170.982014 182.90114 
L 170.982014 182.441393 
L 173.015584 182.441393 
L 173.015584 181.521898 
L 173.367818 181.521898 
L 173.367818 180.602404 
L 177.774889 180.602404 
L 177.774889 178.763414 
L 181.576611 178.763414 
L 181.576611 177.384172 
L 182.033968 177.384172 
L 182.131903 174.625688 
L 182.155139 174.625688 
L 182.155139 173.246446 
L 183.879094 173.246446 
L 183.935705 170.487962 
L 184.977298 170.487962 
L 184.977298 169.10872 
L 188.701306 169.10872 
L 188.701306 168.648972 
L 189.007802 168.648972 
L 189.080864 167.26973 
L 189.161338 167.26973 
L 189.161338 166.809983 
L 189.435507 166.809983 
L 189.435507 166.350236 
L 189.634918 166.350236 
L 189.634918 165.890488 
L 190.094323 165.890488 
L 190.094323 165.430741 
L 190.25008 165.430741 
L 190.348336 163.591751 
L 190.668085 163.591751 
L 190.687872 162.672257 
L 190.869139 162.672257 
L 190.908232 161.752762 
L 191.015281 161.752762 
L 191.015281 161.293015 
L 191.197255 161.293015 
L 191.299797 160.37352 
L 191.317509 160.37352 
L 191.39902 158.074783 
L 191.787623 158.074783 
L 191.802191 156.235794 
L 192.399327 156.235794 
L 192.508935 155.316299 
L 192.526712 155.316299 
L 192.526712 154.856552 
L 193.012206 154.856552 
L 193.018374 153.937057 
L 193.224329 153.937057 
L 193.257199 151.63832 
L 193.460326 151.63832 
L 193.499945 150.718826 
L 193.916955 150.718826 
L 194.008006 149.799331 
L 194.035925 149.799331 
L 194.035925 149.339583 
L 195.302626 149.339583 
L 195.302626 148.879836 
L 198.438813 148.879836 
L 198.46308 145.661605 
L 198.905502 145.661605 
L 198.906378 144.74211 
L 201.026325 144.74211 
L 201.026325 144.282363 
L 201.454155 144.282363 
L 201.454155 143.822615 
L 201.794084 143.822615 
L 201.794084 143.362868 
L 201.947999 143.362868 
L 202.032834 141.983626 
L 202.263992 141.983626 
L 202.291322 141.064131 
L 202.538894 141.064131 
L 202.608172 140.144636 
L 203.057975 140.144636 
L 203.071028 139.225142 
L 203.209871 139.225142 
L 203.209871 138.765394 
L 203.43724 138.765394 
L 203.43724 138.305647 
L 205.71065 138.305647 
L 205.71065 137.8459 
L 206.511941 137.8459 
L 206.511941 137.386152 
L 209.190053 137.386152 
L 209.190053 136.926405 
L 209.381795 136.926405 
L 209.381795 136.466658 
L 209.604307 136.466658 
L 209.604307 136.00691 
L 211.531429 136.00691 
L 211.539398 135.087416 
L 212.785877 135.087416 
L 212.785877 134.627668 
L 212.952368 134.627668 
L 212.952368 134.167921 
L 213.113435 134.167921 
L 213.220993 132.788679 
L 213.233156 132.788679 
L 213.233156 132.328931 
L 213.58739 132.328931 
L 213.58739 131.869184 
L 213.839367 131.869184 
L 213.839367 131.409437 
L 215.566484 131.409437 
L 215.586373 130.489942 
L 216.933758 130.489942 
L 216.991242 129.570447 
L 217.161341 129.570447 
L 217.161341 129.1107 
L 217.327076 129.1107 
L 217.327076 128.650953 
L 217.48144 128.650953 
L 217.48144 128.191205 
L 217.626488 128.191205 
L 217.626488 127.731458 
L 218.859856 127.731458 
L 218.859856 127.27171 
L 219.943576 127.27171 
L 219.959504 126.352216 
L 220.239929 126.352216 
L 220.239929 125.892468 
L 220.565745 125.892468 
L 220.634024 124.053479 
L 221.402447 124.053479 
L 221.402447 123.593732 
L 223.050592 123.593732 
L 223.050592 123.133984 
L 225.266726 123.133984 
L 225.270496 122.21449 
L 225.896892 122.21449 
L 225.896892 121.754742 
L 226.785523 121.754742 
L 226.785523 121.294995 
L 228.745856 121.294995 
L 228.745856 120.835248 
L 230.99748 120.835248 
L 230.99748 120.3755 
L 231.750554 120.3755 
L 231.750554 119.915753 
L 233.306286 119.915753 
L 233.306286 119.456005 
L 333.569032 119.456005 
L 333.569032 119.456005 
" style="fill:none;stroke:#6495ed;stroke-linecap:square;stroke-width:1.5;"/>
   </g>
   <g id="line2d_63">
    <defs>
     <path d="M -0 6 
L 6 -6 
L -6 -6 
z
" id="m5a90f1984d" style="stroke:#6495ed;stroke-linejoin:miter;stroke-width:1.5;"/>
    </defs>
    <g>
     <use style="fill:none;stroke:#6495ed;stroke-linejoin:miter;stroke-width:1.5;" x="104.007459" xlink:href="#m5a90f1984d" y="266.115411"/>
     <use style="fill:none;stroke:#6495ed;stroke-linejoin:miter;stroke-width:1.5;" x="166.690749" xlink:href="#m5a90f1984d" y="188.418109"/>
     <use style="fill:none;stroke:#6495ed;stroke-linejoin:miter;stroke-width:1.5;" x="223.050592" xlink:href="#m5a90f1984d" y="123.593732"/>
     <use style="fill:none;stroke:#6495ed;stroke-linejoin:miter;stroke-width:1.5;" x="233.306286" xlink:href="#m5a90f1984d" y="119.456005"/>
     <use style="fill:none;stroke:#6495ed;stroke-linejoin:miter;stroke-width:1.5;" x="233.306286" xlink:href="#m5a90f1984d" y="119.456005"/>
     <use style="fill:none;stroke:#6495ed;stroke-linejoin:miter;stroke-width:1.5;" x="333.569032" xlink:href="#m5a90f1984d" y="119.456005"/>
    </g>
   </g>
   <g id="line2d_64">
    <path style="fill:none;stroke:#6495ed;stroke-linecap:square;stroke-width:1.5;"/>
    <g/>
   </g>
   <g id="line2d_65">
    <path clip-path="url(#pc210505808)" d="M 188.819837 168.648972 
" style="fill:none;stroke:#6495ed;stroke-linecap:square;stroke-width:1.5;"/>
    <defs>
     <path d="M -12 12 
L 12 -12 
M -12 -12 
L 12 12 
" id="m57f520279a" style="stroke:#6495ed;stroke-width:3;"/>
    </defs>
    <g clip-path="url(#pc210505808)">
     <use style="fill:#6495ed;stroke:#6495ed;stroke-width:3;" x="188.819837" xlink:href="#m57f520279a" y="168.648972"/>
    </g>
   </g>
   <g id="line2d_66">
    <path d="M 333.569032 243.587791 
L 364.009226 288.826931 
" style="fill:none;stroke:#ffa500;stroke-linecap:square;stroke-width:1.5;"/>
    <g>
     <use style="fill:none;stroke:#ffa500;stroke-linejoin:bevel;stroke-width:1.5;" x="333.569032" xlink:href="#m3785403979" y="243.587791"/>
     <use style="fill:none;stroke:#ffa500;stroke-linejoin:bevel;stroke-width:1.5;" x="364.009226" xlink:href="#m3785403979" y="288.826931"/>
    </g>
   </g>
   <g id="line2d_67">
    <path d="M 333.569032 129.1107 
L 364.009226 224.830099 
" style="fill:none;stroke:#ff00ff;stroke-linecap:square;stroke-width:1.5;"/>
    <g>
     <use style="fill:none;stroke:#ff00ff;stroke-linejoin:miter;stroke-width:1.5;" x="333.569032" xlink:href="#me7b05277e2" y="129.1107"/>
     <use style="fill:none;stroke:#ff00ff;stroke-linejoin:miter;stroke-width:1.5;" x="364.009226" xlink:href="#me7b05277e2" y="224.830099"/>
    </g>
   </g>
   <g id="line2d_68">
    <path d="M 333.569032 119.456005 
L 364.009226 160.833267 
" style="fill:none;stroke:#6495ed;stroke-linecap:square;stroke-width:1.5;"/>
    <g>
     <use style="fill:none;stroke:#6495ed;stroke-linejoin:miter;stroke-width:1.5;" x="333.569032" xlink:href="#m5a90f1984d" y="119.456005"/>
     <use style="fill:none;stroke:#6495ed;stroke-linejoin:miter;stroke-width:1.5;" x="364.009226" xlink:href="#m5a90f1984d" y="160.833267"/>
    </g>
   </g>
   <g id="line2d_69">
    <path d="M 333.569032 59.688849 
L 364.009226 96.836436 
" style="fill:none;stroke:#000080;stroke-linecap:square;stroke-width:1.5;"/>
    <g>
     <use style="fill:none;stroke:#000080;stroke-width:1.5;" x="333.569032" xlink:href="#ma26b1fa68f" y="59.688849"/>
     <use style="fill:none;stroke:#000080;stroke-width:1.5;" x="364.009226" xlink:href="#ma26b1fa68f" y="96.836436"/>
    </g>
   </g>
   <g id="line2d_70">
    <path d="M 333.569032 294.16 
L 333.569032 27.506535 
" style="fill:none;stroke:#000000;stroke-linecap:square;stroke-width:1.5;"/>
   </g>
   <g id="patch_3">
    <path d="M 56.84 294.16 
L 56.84 24.84 
" style="fill:none;stroke:#000000;stroke-linecap:square;stroke-linejoin:miter;stroke-width:0.8;"/>
   </g>
   <g id="patch_4">
    <path d="M 399.984 294.16 
L 399.984 24.84 
" style="fill:none;stroke:#000000;stroke-linecap:square;stroke-linejoin:miter;stroke-width:0.8;"/>
   </g>
   <g id="patch_5">
    <path d="M 56.84 294.16 
L 399.984 294.16 
" style="fill:none;stroke:#000000;stroke-linecap:square;stroke-linejoin:miter;stroke-width:0.8;"/>
   </g>
   <g id="patch_6">
    <path d="M 56.84 24.84 
L 399.984 24.84 
" style="fill:none;stroke:#000000;stroke-linecap:square;stroke-linejoin:miter;stroke-width:0.8;"/>
   </g>
   <g id="text_14">
    <!-- adaptiveH -->
    <defs>
     <path d="M 9.8125 72.90625 
L 19.671875 72.90625 
L 19.671875 43.015625 
L 55.515625 43.015625 
L 55.515625 72.90625 
L 65.375 72.90625 
L 65.375 0 
L 55.515625 0 
L 55.515625 34.71875 
L 19.671875 34.71875 
L 19.671875 0 
L 9.8125 0 
z
" id="DejaVuSans-48"/>
    </defs>
    <g transform="translate(369.543806 293.517868)scale(0.17 -0.17)">
     <use xlink:href="#DejaVuSans-61"/>
     <use x="61.279297" xlink:href="#DejaVuSans-64"/>
     <use x="124.755859" xlink:href="#DejaVuSans-61"/>
     <use x="186.035156" xlink:href="#DejaVuSans-70"/>
     <use x="249.511719" xlink:href="#DejaVuSans-74"/>
     <use x="288.720703" xlink:href="#DejaVuSans-69"/>
     <use x="316.503906" xlink:href="#DejaVuSans-76"/>
     <use x="375.683594" xlink:href="#DejaVuSans-65"/>
     <use x="437.207031" xlink:href="#DejaVuSans-48"/>
    </g>
   </g>
   <g id="text_15">
    <!-- RANDOMSEA -->
    <defs>
     <path d="M 44.390625 34.1875 
Q 47.5625 33.109375 50.5625 29.59375 
Q 53.5625 26.078125 56.59375 19.921875 
L 66.609375 0 
L 56 0 
L 46.6875 18.703125 
Q 43.0625 26.03125 39.671875 28.421875 
Q 36.28125 30.8125 30.421875 30.8125 
L 19.671875 30.8125 
L 19.671875 0 
L 9.8125 0 
L 9.8125 72.90625 
L 32.078125 72.90625 
Q 44.578125 72.90625 50.734375 67.671875 
Q 56.890625 62.453125 56.890625 51.90625 
Q 56.890625 45.015625 53.6875 40.46875 
Q 50.484375 35.9375 44.390625 34.1875 
M 19.671875 64.796875 
L 19.671875 38.921875 
L 32.078125 38.921875 
Q 39.203125 38.921875 42.84375 42.21875 
Q 46.484375 45.515625 46.484375 51.90625 
Q 46.484375 58.296875 42.84375 61.546875 
Q 39.203125 64.796875 32.078125 64.796875 
z
" id="DejaVuSans-52"/>
     <path d="M 34.1875 63.1875 
L 20.796875 26.90625 
L 47.609375 26.90625 
z
M 28.609375 72.90625 
L 39.796875 72.90625 
L 67.578125 0 
L 57.328125 0 
L 50.6875 18.703125 
L 17.828125 18.703125 
L 11.1875 0 
L 0.78125 0 
z
" id="DejaVuSans-41"/>
     <path d="M 9.8125 72.90625 
L 23.09375 72.90625 
L 55.421875 11.921875 
L 55.421875 72.90625 
L 64.984375 72.90625 
L 64.984375 0 
L 51.703125 0 
L 19.390625 60.984375 
L 19.390625 0 
L 9.8125 0 
z
" id="DejaVuSans-4e"/>
     <path d="M 19.671875 64.796875 
L 19.671875 8.109375 
L 31.59375 8.109375 
Q 46.6875 8.109375 53.6875 14.9375 
Q 60.6875 21.78125 60.6875 36.53125 
Q 60.6875 51.171875 53.6875 57.984375 
Q 46.6875 64.796875 31.59375 64.796875 
z
M 9.8125 72.90625 
L 30.078125 72.90625 
Q 51.265625 72.90625 61.171875 64.09375 
Q 71.09375 55.28125 71.09375 36.53125 
Q 71.09375 17.671875 61.125 8.828125 
Q 51.171875 0 30.078125 0 
L 9.8125 0 
z
" id="DejaVuSans-44"/>
     <path d="M 39.40625 66.21875 
Q 28.65625 66.21875 22.328125 58.203125 
Q 16.015625 50.203125 16.015625 36.375 
Q 16.015625 22.609375 22.328125 14.59375 
Q 28.65625 6.59375 39.40625 6.59375 
Q 50.140625 6.59375 56.421875 14.59375 
Q 62.703125 22.609375 62.703125 36.375 
Q 62.703125 50.203125 56.421875 58.203125 
Q 50.140625 66.21875 39.40625 66.21875 
M 39.40625 74.21875 
Q 54.734375 74.21875 63.90625 63.9375 
Q 73.09375 53.65625 73.09375 36.375 
Q 73.09375 19.140625 63.90625 8.859375 
Q 54.734375 -1.421875 39.40625 -1.421875 
Q 24.03125 -1.421875 14.8125 8.828125 
Q 5.609375 19.09375 5.609375 36.375 
Q 5.609375 53.65625 14.8125 63.9375 
Q 24.03125 74.21875 39.40625 74.21875 
" id="DejaVuSans-4f"/>
     <path d="M 9.8125 72.90625 
L 24.515625 72.90625 
L 43.109375 23.296875 
L 61.8125 72.90625 
L 76.515625 72.90625 
L 76.515625 0 
L 66.890625 0 
L 66.890625 64.015625 
L 48.09375 14.015625 
L 38.1875 14.015625 
L 19.390625 64.015625 
L 19.390625 0 
L 9.8125 0 
z
" id="DejaVuSans-4d"/>
     <path d="M 53.515625 70.515625 
L 53.515625 60.890625 
Q 47.90625 63.578125 42.921875 64.890625 
Q 37.9375 66.21875 33.296875 66.21875 
Q 25.25 66.21875 20.875 63.09375 
Q 16.5 59.96875 16.5 54.203125 
Q 16.5 49.359375 19.40625 46.890625 
Q 22.3125 44.4375 30.421875 42.921875 
L 36.375 41.703125 
Q 47.40625 39.59375 52.65625 34.296875 
Q 57.90625 29 57.90625 20.125 
Q 57.90625 9.515625 50.796875 4.046875 
Q 43.703125 -1.421875 29.984375 -1.421875 
Q 24.8125 -1.421875 18.96875 -0.25 
Q 13.140625 0.921875 6.890625 3.21875 
L 6.890625 13.375 
Q 12.890625 10.015625 18.65625 8.296875 
Q 24.421875 6.59375 29.984375 6.59375 
Q 38.421875 6.59375 43.015625 9.90625 
Q 47.609375 13.234375 47.609375 19.390625 
Q 47.609375 24.75 44.3125 27.78125 
Q 41.015625 30.8125 33.5 32.328125 
L 27.484375 33.5 
Q 16.453125 35.6875 11.515625 40.375 
Q 6.59375 45.0625 6.59375 53.421875 
Q 6.59375 63.09375 13.40625 68.65625 
Q 20.21875 74.21875 32.171875 74.21875 
Q 37.3125 74.21875 42.625 73.28125 
Q 47.953125 72.359375 53.515625 70.515625 
" id="DejaVuSans-53"/>
     <path d="M 9.8125 72.90625 
L 55.90625 72.90625 
L 55.90625 64.59375 
L 19.671875 64.59375 
L 19.671875 43.015625 
L 54.390625 43.015625 
L 54.390625 34.71875 
L 19.671875 34.71875 
L 19.671875 8.296875 
L 56.78125 8.296875 
L 56.78125 0 
L 9.8125 0 
z
" id="DejaVuSans-45"/>
    </defs>
    <g transform="translate(369.543806 229.521037)scale(0.17 -0.17)">
     <use xlink:href="#DejaVuSans-52"/>
     <use x="69.419922" xlink:href="#DejaVuSans-41"/>
     <use x="137.828125" xlink:href="#DejaVuSans-4e"/>
     <use x="212.632812" xlink:href="#DejaVuSans-44"/>
     <use x="289.634766" xlink:href="#DejaVuSans-4f"/>
     <use x="368.345703" xlink:href="#DejaVuSans-4d"/>
     <use x="454.625" xlink:href="#DejaVuSans-53"/>
     <use x="518.101562" xlink:href="#DejaVuSans-45"/>
     <use x="581.285156" xlink:href="#DejaVuSans-41"/>
    </g>
   </g>
   <g id="text_16">
    <!-- final  bu -->
    <defs>
     <path d="M 48.6875 27.296875 
Q 48.6875 37.203125 44.609375 42.84375 
Q 40.53125 48.484375 33.40625 48.484375 
Q 26.265625 48.484375 22.1875 42.84375 
Q 18.109375 37.203125 18.109375 27.296875 
Q 18.109375 17.390625 22.1875 11.75 
Q 26.265625 6.109375 33.40625 6.109375 
Q 40.53125 6.109375 44.609375 11.75 
Q 48.6875 17.390625 48.6875 27.296875 
M 18.109375 46.390625 
Q 20.953125 51.265625 25.265625 53.625 
Q 29.59375 56 35.59375 56 
Q 45.5625 56 51.78125 48.09375 
Q 58.015625 40.1875 58.015625 27.296875 
Q 58.015625 14.40625 51.78125 6.484375 
Q 45.5625 -1.421875 35.59375 -1.421875 
Q 29.59375 -1.421875 25.265625 0.953125 
Q 20.953125 3.328125 18.109375 8.203125 
L 18.109375 0 
L 9.078125 0 
L 9.078125 75.984375 
L 18.109375 75.984375 
z
" id="DejaVuSans-62"/>
    </defs>
    <g transform="translate(369.543806 165.524205)scale(0.17 -0.17)">
     <use xlink:href="#DejaVuSans-66"/>
     <use x="35.205078" xlink:href="#DejaVuSans-69"/>
     <use x="62.988281" xlink:href="#DejaVuSans-6e"/>
     <use x="126.367188" xlink:href="#DejaVuSans-61"/>
     <use x="187.646484" xlink:href="#DejaVuSans-6c"/>
     <use x="215.429688" xlink:href="#DejaVuSans-20"/>
     <use x="247.216797" xlink:href="#DejaVuSans-20"/>
     <use x="279.003906" xlink:href="#DejaVuSans-62"/>
     <use x="342.480469" xlink:href="#DejaVuSans-75"/>
    </g>
   </g>
   <g id="text_17">
    <!-- NSGA-II-M -->
    <defs>
     <path d="M 59.515625 10.40625 
L 59.515625 29.984375 
L 43.40625 29.984375 
L 43.40625 38.09375 
L 69.28125 38.09375 
L 69.28125 6.78125 
Q 63.578125 2.734375 56.6875 0.65625 
Q 49.8125 -1.421875 42 -1.421875 
Q 24.90625 -1.421875 15.25 8.5625 
Q 5.609375 18.5625 5.609375 36.375 
Q 5.609375 54.25 15.25 64.234375 
Q 24.90625 74.21875 42 74.21875 
Q 49.125 74.21875 55.546875 72.453125 
Q 61.96875 70.703125 67.390625 67.28125 
L 67.390625 56.78125 
Q 61.921875 61.421875 55.765625 63.765625 
Q 49.609375 66.109375 42.828125 66.109375 
Q 29.4375 66.109375 22.71875 58.640625 
Q 16.015625 51.171875 16.015625 36.375 
Q 16.015625 21.625 22.71875 14.15625 
Q 29.4375 6.6875 42.828125 6.6875 
Q 48.046875 6.6875 52.140625 7.59375 
Q 56.25 8.5 59.515625 10.40625 
" id="DejaVuSans-47"/>
     <path d="M 9.8125 72.90625 
L 19.671875 72.90625 
L 19.671875 0 
L 9.8125 0 
z
" id="DejaVuSans-49"/>
    </defs>
    <g transform="translate(369.543806 101.527373)scale(0.17 -0.17)">
     <use xlink:href="#DejaVuSans-4e"/>
     <use x="74.804688" xlink:href="#DejaVuSans-53"/>
     <use x="138.28125" xlink:href="#DejaVuSans-47"/>
     <use x="215.771484" xlink:href="#DejaVuSans-41"/>
     <use x="284.148438" xlink:href="#DejaVuSans-2d"/>
     <use x="320.232422" xlink:href="#DejaVuSans-49"/>
     <use x="349.724609" xlink:href="#DejaVuSans-49"/>
     <use x="379.216797" xlink:href="#DejaVuSans-2d"/>
     <use x="415.300781" xlink:href="#DejaVuSans-4d"/>
    </g>
   </g>
   <g id="text_18">
    <!-- best 2016 -->
    <g transform="translate(369.543806 37.530541)scale(0.17 -0.17)">
     <use xlink:href="#DejaVuSans-62"/>
     <use x="63.476562" xlink:href="#DejaVuSans-65"/>
     <use x="125" xlink:href="#DejaVuSans-73"/>
     <use x="177.099609" xlink:href="#DejaVuSans-74"/>
     <use x="216.308594" xlink:href="#DejaVuSans-20"/>
     <use x="248.095703" xlink:href="#DejaVuSans-32"/>
     <use x="311.71875" xlink:href="#DejaVuSans-30"/>
     <use x="375.341797" xlink:href="#DejaVuSans-31"/>
     <use x="438.964844" xlink:href="#DejaVuSans-36"/>
    </g>
   </g>
   <g id="text_19">
    <!-- bbob-biobj f21, 5-D -->
    <defs>
     <path d="M 9.421875 54.6875 
L 18.40625 54.6875 
L 18.40625 -0.984375 
Q 18.40625 -11.421875 14.421875 -16.109375 
Q 10.453125 -20.796875 1.609375 -20.796875 
L -1.8125 -20.796875 
L -1.8125 -13.1875 
L 0.59375 -13.1875 
Q 5.71875 -13.1875 7.5625 -10.8125 
Q 9.421875 -8.453125 9.421875 -0.984375 
z
M 9.421875 75.984375 
L 18.40625 75.984375 
L 18.40625 64.59375 
L 9.421875 64.59375 
z
" id="DejaVuSans-6a"/>
     <path d="M 10.796875 72.90625 
L 49.515625 72.90625 
L 49.515625 64.59375 
L 19.828125 64.59375 
L 19.828125 46.734375 
Q 21.96875 47.46875 24.109375 47.828125 
Q 26.265625 48.1875 28.421875 48.1875 
Q 40.625 48.1875 47.75 41.5 
Q 54.890625 34.8125 54.890625 23.390625 
Q 54.890625 11.625 47.5625 5.09375 
Q 40.234375 -1.421875 26.90625 -1.421875 
Q 22.3125 -1.421875 17.546875 -0.640625 
Q 12.796875 0.140625 7.71875 1.703125 
L 7.71875 11.625 
Q 12.109375 9.234375 16.796875 8.0625 
Q 21.484375 6.890625 26.703125 6.890625 
Q 35.15625 6.890625 40.078125 11.328125 
Q 45.015625 15.765625 45.015625 23.390625 
Q 45.015625 31 40.078125 35.4375 
Q 35.15625 39.890625 26.703125 39.890625 
Q 22.75 39.890625 18.8125 39.015625 
Q 14.890625 38.140625 10.796875 36.28125 
z
" id="DejaVuSans-35"/>
    </defs>
    <g transform="translate(60.27144 35.283606)scale(0.102 -0.102)">
     <use xlink:href="#DejaVuSans-62"/>
     <use x="63.476562" xlink:href="#DejaVuSans-62"/>
     <use x="126.953125" xlink:href="#DejaVuSans-6f"/>
     <use x="188.134766" xlink:href="#DejaVuSans-62"/>
     <use x="251.611328" xlink:href="#DejaVuSans-2d"/>
     <use x="287.695312" xlink:href="#DejaVuSans-62"/>
     <use x="351.171875" xlink:href="#DejaVuSans-69"/>
     <use x="378.955078" xlink:href="#DejaVuSans-6f"/>
     <use x="440.136719" xlink:href="#DejaVuSans-62"/>
     <use x="503.613281" xlink:href="#DejaVuSans-6a"/>
     <use x="531.396484" xlink:href="#DejaVuSans-20"/>
     <use x="563.183594" xlink:href="#DejaVuSans-66"/>
     <use x="598.388672" xlink:href="#DejaVuSans-32"/>
     <use x="662.011719" xlink:href="#DejaVuSans-31"/>
     <use x="725.634766" xlink:href="#DejaVuSans-2c"/>
     <use x="757.421875" xlink:href="#DejaVuSans-20"/>
     <use x="789.208984" xlink:href="#DejaVuSans-35"/>
     <use x="852.832031" xlink:href="#DejaVuSans-2d"/>
     <use x="888.916016" xlink:href="#DejaVuSans-44"/>
    </g>
    <!-- 58 targets: 1..-1.0e-4 -->
    <defs>
     <path d="M 11.71875 12.40625 
L 22.015625 12.40625 
L 22.015625 0 
L 11.71875 0 
z
M 11.71875 51.703125 
L 22.015625 51.703125 
L 22.015625 39.3125 
L 11.71875 39.3125 
z
" id="DejaVuSans-3a"/>
    </defs>
    <g transform="translate(60.27144 46.705375)scale(0.102 -0.102)">
     <use xlink:href="#DejaVuSans-35"/>
     <use x="63.623047" xlink:href="#DejaVuSans-38"/>
     <use x="127.246094" xlink:href="#DejaVuSans-20"/>
     <use x="159.033203" xlink:href="#DejaVuSans-74"/>
     <use x="198.242188" xlink:href="#DejaVuSans-61"/>
     <use x="259.521484" xlink:href="#DejaVuSans-72"/>
     <use x="300.619141" xlink:href="#DejaVuSans-67"/>
     <use x="364.095703" xlink:href="#DejaVuSans-65"/>
     <use x="425.619141" xlink:href="#DejaVuSans-74"/>
     <use x="464.828125" xlink:href="#DejaVuSans-73"/>
     <use x="516.927734" xlink:href="#DejaVuSans-3a"/>
     <use x="550.619141" xlink:href="#DejaVuSans-20"/>
     <use x="582.40625" xlink:href="#DejaVuSans-31"/>
     <use x="646.029297" xlink:href="#DejaVuSans-2e"/>
     <use x="677.816406" xlink:href="#DejaVuSans-2e"/>
     <use x="709.603516" xlink:href="#DejaVuSans-2d"/>
     <use x="745.6875" xlink:href="#DejaVuSans-31"/>
     <use x="809.310547" xlink:href="#DejaVuSans-2e"/>
     <use x="841.097656" xlink:href="#DejaVuSans-30"/>
     <use x="904.720703" xlink:href="#DejaVuSans-65"/>
     <use x="966.244141" xlink:href="#DejaVuSans-2d"/>
     <use x="1002.328125" xlink:href="#DejaVuSans-34"/>
    </g>
    <!-- 10 instances -->
    <g transform="translate(60.27144 58.127144)scale(0.102 -0.102)">
     <use xlink:href="#DejaVuSans-31"/>
     <use x="63.623047" xlink:href="#DejaVuSans-30"/>
     <use x="127.246094" xlink:href="#DejaVuSans-20"/>
     <use x="159.033203" xlink:href="#DejaVuSans-69"/>
     <use x="186.816406" xlink:href="#DejaVuSans-6e"/>
     <use x="250.195312" xlink:href="#DejaVuSans-73"/>
     <use x="302.294922" xlink:href="#DejaVuSans-74"/>
     <use x="341.503906" xlink:href="#DejaVuSans-61"/>
     <use x="402.783203" xlink:href="#DejaVuSans-6e"/>
     <use x="466.162109" xlink:href="#DejaVuSans-63"/>
     <use x="521.142578" xlink:href="#DejaVuSans-65"/>
     <use x="582.666016" xlink:href="#DejaVuSans-73"/>
    </g>
   </g>
   <g id="text_20">
    <!-- v2.2.1.10, hv-hash=ff0e71e8cd978373 -->
    <defs>
     <path d="M 54.890625 33.015625 
L 54.890625 0 
L 45.90625 0 
L 45.90625 32.71875 
Q 45.90625 40.484375 42.875 44.328125 
Q 39.84375 48.1875 33.796875 48.1875 
Q 26.515625 48.1875 22.3125 43.546875 
Q 18.109375 38.921875 18.109375 30.90625 
L 18.109375 0 
L 9.078125 0 
L 9.078125 75.984375 
L 18.109375 75.984375 
L 18.109375 46.1875 
Q 21.34375 51.125 25.703125 53.5625 
Q 30.078125 56 35.796875 56 
Q 45.21875 56 50.046875 50.171875 
Q 54.890625 44.34375 54.890625 33.015625 
" id="DejaVuSans-68"/>
     <path d="M 10.59375 45.40625 
L 73.1875 45.40625 
L 73.1875 37.203125 
L 10.59375 37.203125 
z
M 10.59375 25.484375 
L 73.1875 25.484375 
L 73.1875 17.1875 
L 10.59375 17.1875 
z
" id="DejaVuSans-3d"/>
     <path d="M 8.203125 72.90625 
L 55.078125 72.90625 
L 55.078125 68.703125 
L 28.609375 0 
L 18.3125 0 
L 43.21875 64.59375 
L 8.203125 64.59375 
z
" id="DejaVuSans-37"/>
     <path d="M 10.984375 1.515625 
L 10.984375 10.5 
Q 14.703125 8.734375 18.5 7.8125 
Q 22.3125 6.890625 25.984375 6.890625 
Q 35.75 6.890625 40.890625 13.453125 
Q 46.046875 20.015625 46.78125 33.40625 
Q 43.953125 29.203125 39.59375 26.953125 
Q 35.25 24.703125 29.984375 24.703125 
Q 19.046875 24.703125 12.671875 31.3125 
Q 6.296875 37.9375 6.296875 49.421875 
Q 6.296875 60.640625 12.9375 67.421875 
Q 19.578125 74.21875 30.609375 74.21875 
Q 43.265625 74.21875 49.921875 64.515625 
Q 56.59375 54.828125 56.59375 36.375 
Q 56.59375 19.140625 48.40625 8.859375 
Q 40.234375 -1.421875 26.421875 -1.421875 
Q 22.703125 -1.421875 18.890625 -0.6875 
Q 15.09375 0.046875 10.984375 1.515625 
M 30.609375 32.421875 
Q 37.25 32.421875 41.125 36.953125 
Q 45.015625 41.5 45.015625 49.421875 
Q 45.015625 57.28125 41.125 61.84375 
Q 37.25 66.40625 30.609375 66.40625 
Q 23.96875 66.40625 20.09375 61.84375 
Q 16.21875 57.28125 16.21875 49.421875 
Q 16.21875 41.5 20.09375 36.953125 
Q 23.96875 32.421875 30.609375 32.421875 
" id="DejaVuSans-39"/>
     <path d="M 40.578125 39.3125 
Q 47.65625 37.796875 51.625 33 
Q 55.609375 28.21875 55.609375 21.1875 
Q 55.609375 10.40625 48.1875 4.484375 
Q 40.765625 -1.421875 27.09375 -1.421875 
Q 22.515625 -1.421875 17.65625 -0.515625 
Q 12.796875 0.390625 7.625 2.203125 
L 7.625 11.71875 
Q 11.71875 9.328125 16.59375 8.109375 
Q 21.484375 6.890625 26.8125 6.890625 
Q 36.078125 6.890625 40.9375 10.546875 
Q 45.796875 14.203125 45.796875 21.1875 
Q 45.796875 27.640625 41.28125 31.265625 
Q 36.765625 34.90625 28.71875 34.90625 
L 20.21875 34.90625 
L 20.21875 43.015625 
L 29.109375 43.015625 
Q 36.375 43.015625 40.234375 45.921875 
Q 44.09375 48.828125 44.09375 54.296875 
Q 44.09375 59.90625 40.109375 62.90625 
Q 36.140625 65.921875 28.71875 65.921875 
Q 24.65625 65.921875 20.015625 65.03125 
Q 15.375 64.15625 9.8125 62.3125 
L 9.8125 71.09375 
Q 15.4375 72.65625 20.34375 73.4375 
Q 25.25 74.21875 29.59375 74.21875 
Q 40.828125 74.21875 47.359375 69.109375 
Q 53.90625 64.015625 53.90625 55.328125 
Q 53.90625 49.265625 50.4375 45.09375 
Q 46.96875 40.921875 40.578125 39.3125 
" id="DejaVuSans-33"/>
    </defs>
    <g style="fill:#808080;" transform="translate(130.065125 289.387113)scale(0.1 -0.1)">
     <use xlink:href="#DejaVuSans-76"/>
     <use x="59.179688" xlink:href="#DejaVuSans-32"/>
     <use x="122.802734" xlink:href="#DejaVuSans-2e"/>
     <use x="154.589844" xlink:href="#DejaVuSans-32"/>
     <use x="218.212891" xlink:href="#DejaVuSans-2e"/>
     <use x="250" xlink:href="#DejaVuSans-31"/>
     <use x="313.623047" xlink:href="#DejaVuSans-2e"/>
     <use x="345.410156" xlink:href="#DejaVuSans-31"/>
     <use x="409.033203" xlink:href="#DejaVuSans-30"/>
     <use x="472.65625" xlink:href="#DejaVuSans-2c"/>
     <use x="504.443359" xlink:href="#DejaVuSans-20"/>
     <use x="536.230469" xlink:href="#DejaVuSans-68"/>
     <use x="599.609375" xlink:href="#DejaVuSans-76"/>
     <use x="658.757812" xlink:href="#DejaVuSans-2d"/>
     <use x="694.841797" xlink:href="#DejaVuSans-68"/>
     <use x="758.220703" xlink:href="#DejaVuSans-61"/>
     <use x="819.5" xlink:href="#DejaVuSans-73"/>
     <use x="871.599609" xlink:href="#DejaVuSans-68"/>
     <use x="934.978516" xlink:href="#DejaVuSans-3d"/>
     <use x="1018.767578" xlink:href="#DejaVuSans-66"/>
     <use x="1053.972656" xlink:href="#DejaVuSans-66"/>
     <use x="1089.177734" xlink:href="#DejaVuSans-30"/>
     <use x="1152.800781" xlink:href="#DejaVuSans-65"/>
     <use x="1214.324219" xlink:href="#DejaVuSans-37"/>
     <use x="1277.947266" xlink:href="#DejaVuSans-31"/>
     <use x="1341.570312" xlink:href="#DejaVuSans-65"/>
     <use x="1403.09375" xlink:href="#DejaVuSans-38"/>
     <use x="1466.716797" xlink:href="#DejaVuSans-63"/>
     <use x="1521.697266" xlink:href="#DejaVuSans-64"/>
     <use x="1585.173828" xlink:href="#DejaVuSans-39"/>
     <use x="1648.796875" xlink:href="#DejaVuSans-37"/>
     <use x="1712.419922" xlink:href="#DejaVuSans-38"/>
     <use x="1776.042969" xlink:href="#DejaVuSans-33"/>
     <use x="1839.666016" xlink:href="#DejaVuSans-37"/>
     <use x="1903.289062" xlink:href="#DejaVuSans-33"/>
    </g>
   </g>
   <g id="text_21">
    <!-- 21 Attractive sector/Rosenbrock -->
    <defs>
     <path d="M 9.078125 75.984375 
L 18.109375 75.984375 
L 18.109375 31.109375 
L 44.921875 54.6875 
L 56.390625 54.6875 
L 27.390625 29.109375 
L 57.625 0 
L 45.90625 0 
L 18.109375 26.703125 
L 18.109375 0 
L 9.078125 0 
z
" id="DejaVuSans-6b"/>
    </defs>
    <g transform="translate(67.138563 18.84)scale(0.2 -0.2)">
     <use xlink:href="#DejaVuSans-32"/>
     <use x="63.623047" xlink:href="#DejaVuSans-31"/>
     <use x="127.246094" xlink:href="#DejaVuSans-20"/>
     <use x="159.033203" xlink:href="#DejaVuSans-41"/>
     <use x="227.425781" xlink:href="#DejaVuSans-74"/>
     <use x="266.634766" xlink:href="#DejaVuSans-74"/>
     <use x="305.84375" xlink:href="#DejaVuSans-72"/>
     <use x="346.957031" xlink:href="#DejaVuSans-61"/>
     <use x="408.236328" xlink:href="#DejaVuSans-63"/>
     <use x="463.216797" xlink:href="#DejaVuSans-74"/>
     <use x="502.425781" xlink:href="#DejaVuSans-69"/>
     <use x="530.208984" xlink:href="#DejaVuSans-76"/>
     <use x="589.388672" xlink:href="#DejaVuSans-65"/>
     <use x="650.912109" xlink:href="#DejaVuSans-20"/>
     <use x="682.699219" xlink:href="#DejaVuSans-73"/>
     <use x="734.798828" xlink:href="#DejaVuSans-65"/>
     <use x="796.322266" xlink:href="#DejaVuSans-63"/>
     <use x="851.302734" xlink:href="#DejaVuSans-74"/>
     <use x="890.511719" xlink:href="#DejaVuSans-6f"/>
     <use x="951.693359" xlink:href="#DejaVuSans-72"/>
     <use x="992.806641" xlink:href="#DejaVuSans-2f"/>
     <use x="1026.498047" xlink:href="#DejaVuSans-52"/>
     <use x="1095.917969" xlink:href="#DejaVuSans-6f"/>
     <use x="1157.099609" xlink:href="#DejaVuSans-73"/>
     <use x="1209.199219" xlink:href="#DejaVuSans-65"/>
     <use x="1270.722656" xlink:href="#DejaVuSans-6e"/>
     <use x="1334.101562" xlink:href="#DejaVuSans-62"/>
     <use x="1397.578125" xlink:href="#DejaVuSans-72"/>
     <use x="1438.660156" xlink:href="#DejaVuSans-6f"/>
     <use x="1499.841797" xlink:href="#DejaVuSans-63"/>
     <use x="1554.822266" xlink:href="#DejaVuSans-6b"/>
    </g>
   </g>
  </g>
 </g>
 <defs>
  <clipPath id="pc210505808">
   <rect height="269.32" width="343.144" x="56.84" y="24.84"/>
  </clipPath>
 </defs>
</svg>
