<?xml version="1.0" encoding="utf-8" standalone="no"?>
<!DOCTYPE svg PUBLIC "-//W3C//DTD SVG 1.1//EN"
  "http://www.w3.org/Graphics/SVG/1.1/DTD/svg11.dtd">
<!-- Created with matplotlib (http://matplotlib.org/) -->
<svg height="345pt" version="1.1" viewBox="0 0 460 345" width="460pt" xmlns="http://www.w3.org/2000/svg" xmlns:xlink="http://www.w3.org/1999/xlink">
 <defs>
  <style type="text/css">
*{stroke-linecap:butt;stroke-linejoin:round;}
  </style>
 </defs>
 <g id="figure_1">
  <g id="patch_1">
   <path d="M 0 345.6 
L 460.8 345.6 
L 460.8 0 
L 0 0 
z
" style="fill:#ffffff;"/>
  </g>
  <g id="axes_1">
   <g id="patch_2">
    <path d="M 56.84 294.16 
L 395.169 294.16 
L 395.169 24.84 
L 56.84 24.84 
z
" style="fill:#ffffff;"/>
   </g>
   <g id="line2d_1">
    <path d="M 24.725689 294.16 
L 24.725689 289.562526 
L 56.84 289.562526 
L 56.84 280.367579 
L 65.822437 280.367579 
L 65.822437 271.172632 
L 79.214588 271.172632 
L 79.214588 266.575159 
L 85.851048 266.575159 
L 85.851048 252.782738 
L 89.289529 252.782738 
L 89.289529 243.587791 
L 95.733143 243.587791 
L 95.733143 238.990318 
L 104.998422 238.990318 
L 104.998422 229.79537 
L 119.908271 229.79537 
L 119.908271 216.00295 
L 127.108506 216.00295 
L 127.108506 206.808003 
L 133.658286 206.808003 
L 133.658286 197.613056 
L 141.426731 197.613056 
L 141.426731 188.418109 
L 147.058642 188.418109 
L 147.058642 183.820635 
L 152.173848 183.820635 
L 152.173848 170.028214 
L 155.175063 170.028214 
L 155.175063 165.430741 
L 159.567832 165.430741 
L 159.567832 151.63832 
L 165.744511 151.63832 
L 165.744511 142.443373 
L 172.560979 142.443373 
L 172.560979 137.8459 
L 176.414363 137.8459 
L 176.414363 124.053479 
L 181.213472 124.053479 
L 181.213472 119.456005 
L 188.081155 119.456005 
L 188.081155 105.663585 
L 197.101696 105.663585 
L 197.101696 96.468638 
L 206.583973 96.468638 
L 206.583973 87.273691 
L 219.393359 87.273691 
L 219.393359 82.676217 
L 229.011142 82.676217 
L 229.011142 73.48127 
L 233.449408 73.48127 
L 233.449408 59.688849 
L 329.685968 59.688849 
" style="fill:none;stroke:#f5deb3;stroke-linecap:square;stroke-width:6;"/>
   </g>
   <g id="line2d_2">
    <defs>
     <path d="M -0 7.778175 
L 7.778175 0 
L 0 -7.778175 
L -7.778175 -0 
z
" id="m0cb226b437" style="stroke:#f5deb3;stroke-linejoin:miter;stroke-width:1.5;"/>
    </defs>
    <g>
     <use style="fill:#f5deb3;stroke:#f5deb3;stroke-linejoin:miter;stroke-width:1.5;" x="85.851048" xlink:href="#m0cb226b437" y="252.782738"/>
     <use style="fill:#f5deb3;stroke:#f5deb3;stroke-linejoin:miter;stroke-width:1.5;" x="141.426731" xlink:href="#m0cb226b437" y="197.613056"/>
     <use style="fill:#f5deb3;stroke:#f5deb3;stroke-linejoin:miter;stroke-width:1.5;" x="176.414363" xlink:href="#m0cb226b437" y="137.8459"/>
     <use style="fill:#f5deb3;stroke:#f5deb3;stroke-linejoin:miter;stroke-width:1.5;" x="233.449408" xlink:href="#m0cb226b437" y="73.48127"/>
     <use style="fill:#f5deb3;stroke:#f5deb3;stroke-linejoin:miter;stroke-width:1.5;" x="233.449408" xlink:href="#m0cb226b437" y="59.688849"/>
     <use style="fill:#f5deb3;stroke:#f5deb3;stroke-linejoin:miter;stroke-width:1.5;" x="329.685968" xlink:href="#m0cb226b437" y="59.688849"/>
    </g>
   </g>
   <g id="line2d_3">
    <path style="fill:none;stroke:#f5deb3;stroke-linecap:square;stroke-width:6;"/>
    <g/>
   </g>
   <g id="line2d_4">
    <path d="M 329.685968 59.688849 
L 359.699024 32.839604 
" style="fill:none;stroke:#f5deb3;stroke-linecap:square;stroke-width:6;"/>
    <g>
     <use style="fill:#f5deb3;stroke:#f5deb3;stroke-linejoin:miter;stroke-width:1.5;" x="329.685968" xlink:href="#m0cb226b437" y="59.688849"/>
     <use style="fill:#f5deb3;stroke:#f5deb3;stroke-linejoin:miter;stroke-width:1.5;" x="359.699024" xlink:href="#m0cb226b437" y="32.839604"/>
    </g>
   </g>
   <g id="matplotlib.axis_1">
    <g id="xtick_1">
     <g id="line2d_5">
      <path clip-path="url(#p1621e436e3)" d="M 56.84 294.16 
L 56.84 24.84 
" style="fill:none;stroke:#b0b0b0;stroke-linecap:square;stroke-width:0.8;"/>
     </g>
     <g id="line2d_6">
      <defs>
       <path d="M 0 0 
L 0 3.5 
" id="m6de7402ba4" style="stroke:#000000;stroke-width:0.8;"/>
      </defs>
      <g>
       <use style="stroke:#000000;stroke-width:0.8;" x="56.84" xlink:href="#m6de7402ba4" y="294.16"/>
      </g>
     </g>
     <g id="text_1">
      <!-- 0 -->
      <defs>
       <path d="M 31.78125 66.40625 
Q 24.171875 66.40625 20.328125 58.90625 
Q 16.5 51.421875 16.5 36.375 
Q 16.5 21.390625 20.328125 13.890625 
Q 24.171875 6.390625 31.78125 6.390625 
Q 39.453125 6.390625 43.28125 13.890625 
Q 47.125 21.390625 47.125 36.375 
Q 47.125 51.421875 43.28125 58.90625 
Q 39.453125 66.40625 31.78125 66.40625 
M 31.78125 74.21875 
Q 44.046875 74.21875 50.515625 64.515625 
Q 56.984375 54.828125 56.984375 36.375 
Q 56.984375 17.96875 50.515625 8.265625 
Q 44.046875 -1.421875 31.78125 -1.421875 
Q 19.53125 -1.421875 13.0625 8.265625 
Q 6.59375 17.96875 6.59375 36.375 
Q 6.59375 54.828125 13.0625 64.515625 
Q 19.53125 74.21875 31.78125 74.21875 
" id="DejaVuSans-30"/>
      </defs>
      <g transform="translate(50.4775 316.356875)scale(0.2 -0.2)">
       <use xlink:href="#DejaVuSans-30"/>
      </g>
     </g>
    </g>
    <g id="xtick_2">
     <g id="line2d_7">
      <path clip-path="url(#p1621e436e3)" d="M 134.795991 294.16 
L 134.795991 24.84 
" style="fill:none;stroke:#b0b0b0;stroke-linecap:square;stroke-width:0.8;"/>
     </g>
     <g id="line2d_8">
      <g>
       <use style="stroke:#000000;stroke-width:0.8;" x="134.795991" xlink:href="#m6de7402ba4" y="294.16"/>
      </g>
     </g>
     <g id="text_2">
      <!-- 2 -->
      <defs>
       <path d="M 19.1875 8.296875 
L 53.609375 8.296875 
L 53.609375 0 
L 7.328125 0 
L 7.328125 8.296875 
Q 12.9375 14.109375 22.625 23.890625 
Q 32.328125 33.6875 34.8125 36.53125 
Q 39.546875 41.84375 41.421875 45.53125 
Q 43.3125 49.21875 43.3125 52.78125 
Q 43.3125 58.59375 39.234375 62.25 
Q 35.15625 65.921875 28.609375 65.921875 
Q 23.96875 65.921875 18.8125 64.3125 
Q 13.671875 62.703125 7.8125 59.421875 
L 7.8125 69.390625 
Q 13.765625 71.78125 18.9375 73 
Q 24.125 74.21875 28.421875 74.21875 
Q 39.75 74.21875 46.484375 68.546875 
Q 53.21875 62.890625 53.21875 53.421875 
Q 53.21875 48.921875 51.53125 44.890625 
Q 49.859375 40.875 45.40625 35.40625 
Q 44.1875 33.984375 37.640625 27.21875 
Q 31.109375 20.453125 19.1875 8.296875 
" id="DejaVuSans-32"/>
      </defs>
      <g transform="translate(128.433491 316.356875)scale(0.2 -0.2)">
       <use xlink:href="#DejaVuSans-32"/>
      </g>
     </g>
    </g>
    <g id="xtick_3">
     <g id="line2d_9">
      <path clip-path="url(#p1621e436e3)" d="M 212.751982 294.16 
L 212.751982 24.84 
" style="fill:none;stroke:#b0b0b0;stroke-linecap:square;stroke-width:0.8;"/>
     </g>
     <g id="line2d_10">
      <g>
       <use style="stroke:#000000;stroke-width:0.8;" x="212.751982" xlink:href="#m6de7402ba4" y="294.16"/>
      </g>
     </g>
     <g id="text_3">
      <!-- 4 -->
      <defs>
       <path d="M 37.796875 64.3125 
L 12.890625 25.390625 
L 37.796875 25.390625 
z
M 35.203125 72.90625 
L 47.609375 72.90625 
L 47.609375 25.390625 
L 58.015625 25.390625 
L 58.015625 17.1875 
L 47.609375 17.1875 
L 47.609375 0 
L 37.796875 0 
L 37.796875 17.1875 
L 4.890625 17.1875 
L 4.890625 26.703125 
z
" id="DejaVuSans-34"/>
      </defs>
      <g transform="translate(206.389482 316.356875)scale(0.2 -0.2)">
       <use xlink:href="#DejaVuSans-34"/>
      </g>
     </g>
    </g>
    <g id="xtick_4">
     <g id="line2d_11">
      <path clip-path="url(#p1621e436e3)" d="M 290.707972 294.16 
L 290.707972 24.84 
" style="fill:none;stroke:#b0b0b0;stroke-linecap:square;stroke-width:0.8;"/>
     </g>
     <g id="line2d_12">
      <g>
       <use style="stroke:#000000;stroke-width:0.8;" x="290.707972" xlink:href="#m6de7402ba4" y="294.16"/>
      </g>
     </g>
     <g id="text_4">
      <!-- 6 -->
      <defs>
       <path d="M 33.015625 40.375 
Q 26.375 40.375 22.484375 35.828125 
Q 18.609375 31.296875 18.609375 23.390625 
Q 18.609375 15.53125 22.484375 10.953125 
Q 26.375 6.390625 33.015625 6.390625 
Q 39.65625 6.390625 43.53125 10.953125 
Q 47.40625 15.53125 47.40625 23.390625 
Q 47.40625 31.296875 43.53125 35.828125 
Q 39.65625 40.375 33.015625 40.375 
M 52.59375 71.296875 
L 52.59375 62.3125 
Q 48.875 64.0625 45.09375 64.984375 
Q 41.3125 65.921875 37.59375 65.921875 
Q 27.828125 65.921875 22.671875 59.328125 
Q 17.53125 52.734375 16.796875 39.40625 
Q 19.671875 43.65625 24.015625 45.921875 
Q 28.375 48.1875 33.59375 48.1875 
Q 44.578125 48.1875 50.953125 41.515625 
Q 57.328125 34.859375 57.328125 23.390625 
Q 57.328125 12.15625 50.6875 5.359375 
Q 44.046875 -1.421875 33.015625 -1.421875 
Q 20.359375 -1.421875 13.671875 8.265625 
Q 6.984375 17.96875 6.984375 36.375 
Q 6.984375 53.65625 15.1875 63.9375 
Q 23.390625 74.21875 37.203125 74.21875 
Q 40.921875 74.21875 44.703125 73.484375 
Q 48.484375 72.75 52.59375 71.296875 
" id="DejaVuSans-36"/>
      </defs>
      <g transform="translate(284.345472 316.356875)scale(0.2 -0.2)">
       <use xlink:href="#DejaVuSans-36"/>
      </g>
     </g>
    </g>
    <g id="xtick_5">
     <g id="line2d_13">
      <path clip-path="url(#p1621e436e3)" d="M 368.663963 294.16 
L 368.663963 24.84 
" style="fill:none;stroke:#b0b0b0;stroke-linecap:square;stroke-width:0.8;"/>
     </g>
     <g id="line2d_14">
      <g>
       <use style="stroke:#000000;stroke-width:0.8;" x="368.663963" xlink:href="#m6de7402ba4" y="294.16"/>
      </g>
     </g>
     <g id="text_5">
      <!-- 8 -->
      <defs>
       <path d="M 31.78125 34.625 
Q 24.75 34.625 20.71875 30.859375 
Q 16.703125 27.09375 16.703125 20.515625 
Q 16.703125 13.921875 20.71875 10.15625 
Q 24.75 6.390625 31.78125 6.390625 
Q 38.8125 6.390625 42.859375 10.171875 
Q 46.921875 13.96875 46.921875 20.515625 
Q 46.921875 27.09375 42.890625 30.859375 
Q 38.875 34.625 31.78125 34.625 
M 21.921875 38.8125 
Q 15.578125 40.375 12.03125 44.71875 
Q 8.5 49.078125 8.5 55.328125 
Q 8.5 64.0625 14.71875 69.140625 
Q 20.953125 74.21875 31.78125 74.21875 
Q 42.671875 74.21875 48.875 69.140625 
Q 55.078125 64.0625 55.078125 55.328125 
Q 55.078125 49.078125 51.53125 44.71875 
Q 48 40.375 41.703125 38.8125 
Q 48.828125 37.15625 52.796875 32.3125 
Q 56.78125 27.484375 56.78125 20.515625 
Q 56.78125 9.90625 50.3125 4.234375 
Q 43.84375 -1.421875 31.78125 -1.421875 
Q 19.734375 -1.421875 13.25 4.234375 
Q 6.78125 9.90625 6.78125 20.515625 
Q 6.78125 27.484375 10.78125 32.3125 
Q 14.796875 37.15625 21.921875 38.8125 
M 18.3125 54.390625 
Q 18.3125 48.734375 21.84375 45.5625 
Q 25.390625 42.390625 31.78125 42.390625 
Q 38.140625 42.390625 41.71875 45.5625 
Q 45.3125 48.734375 45.3125 54.390625 
Q 45.3125 60.0625 41.71875 63.234375 
Q 38.140625 66.40625 31.78125 66.40625 
Q 25.390625 66.40625 21.84375 63.234375 
Q 18.3125 60.0625 18.3125 54.390625 
" id="DejaVuSans-38"/>
      </defs>
      <g transform="translate(362.301463 316.356875)scale(0.2 -0.2)">
       <use xlink:href="#DejaVuSans-38"/>
      </g>
     </g>
    </g>
    <g id="xtick_6">
     <g id="line2d_15">
      <defs>
       <path d="M 0 0 
L 0 2 
" id="m24a4419fb6" style="stroke:#000000;stroke-width:0.6;"/>
      </defs>
      <g>
       <use style="stroke:#000000;stroke-width:0.6;" x="68.573546" xlink:href="#m24a4419fb6" y="294.16"/>
      </g>
     </g>
    </g>
    <g id="xtick_7">
     <g id="line2d_16">
      <g>
       <use style="stroke:#000000;stroke-width:0.6;" x="80.307092" xlink:href="#m24a4419fb6" y="294.16"/>
      </g>
     </g>
    </g>
    <g id="xtick_8">
     <g id="line2d_17">
      <g>
       <use style="stroke:#000000;stroke-width:0.6;" x="87.170776" xlink:href="#m24a4419fb6" y="294.16"/>
      </g>
     </g>
    </g>
    <g id="xtick_9">
     <g id="line2d_18">
      <g>
       <use style="stroke:#000000;stroke-width:0.6;" x="92.040637" xlink:href="#m24a4419fb6" y="294.16"/>
      </g>
     </g>
    </g>
    <g id="xtick_10">
     <g id="line2d_19">
      <g>
       <use style="stroke:#000000;stroke-width:0.6;" x="146.529537" xlink:href="#m24a4419fb6" y="294.16"/>
      </g>
     </g>
    </g>
    <g id="xtick_11">
     <g id="line2d_20">
      <g>
       <use style="stroke:#000000;stroke-width:0.6;" x="158.263082" xlink:href="#m24a4419fb6" y="294.16"/>
      </g>
     </g>
    </g>
    <g id="xtick_12">
     <g id="line2d_21">
      <g>
       <use style="stroke:#000000;stroke-width:0.6;" x="165.126767" xlink:href="#m24a4419fb6" y="294.16"/>
      </g>
     </g>
    </g>
    <g id="xtick_13">
     <g id="line2d_22">
      <g>
       <use style="stroke:#000000;stroke-width:0.6;" x="169.996628" xlink:href="#m24a4419fb6" y="294.16"/>
      </g>
     </g>
    </g>
    <g id="xtick_14">
     <g id="line2d_23">
      <g>
       <use style="stroke:#000000;stroke-width:0.6;" x="224.485527" xlink:href="#m24a4419fb6" y="294.16"/>
      </g>
     </g>
    </g>
    <g id="xtick_15">
     <g id="line2d_24">
      <g>
       <use style="stroke:#000000;stroke-width:0.6;" x="236.219073" xlink:href="#m24a4419fb6" y="294.16"/>
      </g>
     </g>
    </g>
    <g id="xtick_16">
     <g id="line2d_25">
      <g>
       <use style="stroke:#000000;stroke-width:0.6;" x="243.082757" xlink:href="#m24a4419fb6" y="294.16"/>
      </g>
     </g>
    </g>
    <g id="xtick_17">
     <g id="line2d_26">
      <g>
       <use style="stroke:#000000;stroke-width:0.6;" x="247.952619" xlink:href="#m24a4419fb6" y="294.16"/>
      </g>
     </g>
    </g>
    <g id="xtick_18">
     <g id="line2d_27">
      <g>
       <use style="stroke:#000000;stroke-width:0.6;" x="302.441518" xlink:href="#m24a4419fb6" y="294.16"/>
      </g>
     </g>
    </g>
    <g id="xtick_19">
     <g id="line2d_28">
      <g>
       <use style="stroke:#000000;stroke-width:0.6;" x="314.175064" xlink:href="#m24a4419fb6" y="294.16"/>
      </g>
     </g>
    </g>
    <g id="xtick_20">
     <g id="line2d_29">
      <g>
       <use style="stroke:#000000;stroke-width:0.6;" x="321.038748" xlink:href="#m24a4419fb6" y="294.16"/>
      </g>
     </g>
    </g>
    <g id="xtick_21">
     <g id="line2d_30">
      <g>
       <use style="stroke:#000000;stroke-width:0.6;" x="325.90861" xlink:href="#m24a4419fb6" y="294.16"/>
      </g>
     </g>
    </g>
    <g id="xtick_22">
     <g id="line2d_31">
      <g>
       <use style="stroke:#000000;stroke-width:0.6;" x="380.397509" xlink:href="#m24a4419fb6" y="294.16"/>
      </g>
     </g>
    </g>
    <g id="xtick_23">
     <g id="line2d_32">
      <g>
       <use style="stroke:#000000;stroke-width:0.6;" x="392.131055" xlink:href="#m24a4419fb6" y="294.16"/>
      </g>
     </g>
    </g>
    <g id="text_6">
     <!-- log10(# f-evals / dimension) -->
     <defs>
      <path d="M 9.421875 75.984375 
L 18.40625 75.984375 
L 18.40625 0 
L 9.421875 0 
z
" id="DejaVuSans-6c"/>
      <path d="M 30.609375 48.390625 
Q 23.390625 48.390625 19.1875 42.75 
Q 14.984375 37.109375 14.984375 27.296875 
Q 14.984375 17.484375 19.15625 11.84375 
Q 23.34375 6.203125 30.609375 6.203125 
Q 37.796875 6.203125 41.984375 11.859375 
Q 46.1875 17.53125 46.1875 27.296875 
Q 46.1875 37.015625 41.984375 42.703125 
Q 37.796875 48.390625 30.609375 48.390625 
M 30.609375 56 
Q 42.328125 56 49.015625 48.375 
Q 55.71875 40.765625 55.71875 27.296875 
Q 55.71875 13.875 49.015625 6.21875 
Q 42.328125 -1.421875 30.609375 -1.421875 
Q 18.84375 -1.421875 12.171875 6.21875 
Q 5.515625 13.875 5.515625 27.296875 
Q 5.515625 40.765625 12.171875 48.375 
Q 18.84375 56 30.609375 56 
" id="DejaVuSans-6f"/>
      <path d="M 45.40625 27.984375 
Q 45.40625 37.75 41.375 43.109375 
Q 37.359375 48.484375 30.078125 48.484375 
Q 22.859375 48.484375 18.828125 43.109375 
Q 14.796875 37.75 14.796875 27.984375 
Q 14.796875 18.265625 18.828125 12.890625 
Q 22.859375 7.515625 30.078125 7.515625 
Q 37.359375 7.515625 41.375 12.890625 
Q 45.40625 18.265625 45.40625 27.984375 
M 54.390625 6.78125 
Q 54.390625 -7.171875 48.1875 -13.984375 
Q 42 -20.796875 29.203125 -20.796875 
Q 24.46875 -20.796875 20.265625 -20.09375 
Q 16.0625 -19.390625 12.109375 -17.921875 
L 12.109375 -9.1875 
Q 16.0625 -11.328125 19.921875 -12.34375 
Q 23.78125 -13.375 27.78125 -13.375 
Q 36.625 -13.375 41.015625 -8.765625 
Q 45.40625 -4.15625 45.40625 5.171875 
L 45.40625 9.625 
Q 42.625 4.78125 38.28125 2.390625 
Q 33.9375 0 27.875 0 
Q 17.828125 0 11.671875 7.65625 
Q 5.515625 15.328125 5.515625 27.984375 
Q 5.515625 40.671875 11.671875 48.328125 
Q 17.828125 56 27.875 56 
Q 33.9375 56 38.28125 53.609375 
Q 42.625 51.21875 45.40625 46.390625 
L 45.40625 54.6875 
L 54.390625 54.6875 
z
" id="DejaVuSans-67"/>
      <path d="M 12.40625 8.296875 
L 28.515625 8.296875 
L 28.515625 63.921875 
L 10.984375 60.40625 
L 10.984375 69.390625 
L 28.421875 72.90625 
L 38.28125 72.90625 
L 38.28125 8.296875 
L 54.390625 8.296875 
L 54.390625 0 
L 12.40625 0 
z
" id="DejaVuSans-31"/>
      <path d="M 31 75.875 
Q 24.46875 64.65625 21.28125 53.65625 
Q 18.109375 42.671875 18.109375 31.390625 
Q 18.109375 20.125 21.3125 9.0625 
Q 24.515625 -2 31 -13.1875 
L 23.1875 -13.1875 
Q 15.875 -1.703125 12.234375 9.375 
Q 8.59375 20.453125 8.59375 31.390625 
Q 8.59375 42.28125 12.203125 53.3125 
Q 15.828125 64.359375 23.1875 75.875 
z
" id="DejaVuSans-28"/>
      <path d="M 51.125 44 
L 36.921875 44 
L 32.8125 27.6875 
L 47.125 27.6875 
z
M 43.796875 71.78125 
L 38.71875 51.515625 
L 52.984375 51.515625 
L 58.109375 71.78125 
L 65.921875 71.78125 
L 60.890625 51.515625 
L 76.125 51.515625 
L 76.125 44 
L 58.984375 44 
L 54.984375 27.6875 
L 70.515625 27.6875 
L 70.515625 20.21875 
L 53.078125 20.21875 
L 48 0 
L 40.1875 0 
L 45.21875 20.21875 
L 30.90625 20.21875 
L 25.875 0 
L 18.015625 0 
L 23.09375 20.21875 
L 7.71875 20.21875 
L 7.71875 27.6875 
L 24.90625 27.6875 
L 29 44 
L 13.28125 44 
L 13.28125 51.515625 
L 30.90625 51.515625 
L 35.890625 71.78125 
z
" id="DejaVuSans-23"/>
      <path id="DejaVuSans-20"/>
      <path d="M 37.109375 75.984375 
L 37.109375 68.5 
L 28.515625 68.5 
Q 23.6875 68.5 21.796875 66.546875 
Q 19.921875 64.59375 19.921875 59.515625 
L 19.921875 54.6875 
L 34.71875 54.6875 
L 34.71875 47.703125 
L 19.921875 47.703125 
L 19.921875 0 
L 10.890625 0 
L 10.890625 47.703125 
L 2.296875 47.703125 
L 2.296875 54.6875 
L 10.890625 54.6875 
L 10.890625 58.5 
Q 10.890625 67.625 15.140625 71.796875 
Q 19.390625 75.984375 28.609375 75.984375 
z
" id="DejaVuSans-66"/>
      <path d="M 4.890625 31.390625 
L 31.203125 31.390625 
L 31.203125 23.390625 
L 4.890625 23.390625 
z
" id="DejaVuSans-2d"/>
      <path d="M 56.203125 29.59375 
L 56.203125 25.203125 
L 14.890625 25.203125 
Q 15.484375 15.921875 20.484375 11.0625 
Q 25.484375 6.203125 34.421875 6.203125 
Q 39.59375 6.203125 44.453125 7.46875 
Q 49.3125 8.734375 54.109375 11.28125 
L 54.109375 2.78125 
Q 49.265625 0.734375 44.1875 -0.34375 
Q 39.109375 -1.421875 33.890625 -1.421875 
Q 20.796875 -1.421875 13.15625 6.1875 
Q 5.515625 13.8125 5.515625 26.8125 
Q 5.515625 40.234375 12.765625 48.109375 
Q 20.015625 56 32.328125 56 
Q 43.359375 56 49.78125 48.890625 
Q 56.203125 41.796875 56.203125 29.59375 
M 47.21875 32.234375 
Q 47.125 39.59375 43.09375 43.984375 
Q 39.0625 48.390625 32.421875 48.390625 
Q 24.90625 48.390625 20.390625 44.140625 
Q 15.875 39.890625 15.1875 32.171875 
z
" id="DejaVuSans-65"/>
      <path d="M 2.984375 54.6875 
L 12.5 54.6875 
L 29.59375 8.796875 
L 46.6875 54.6875 
L 56.203125 54.6875 
L 35.6875 0 
L 23.484375 0 
z
" id="DejaVuSans-76"/>
      <path d="M 34.28125 27.484375 
Q 23.390625 27.484375 19.1875 25 
Q 14.984375 22.515625 14.984375 16.5 
Q 14.984375 11.71875 18.140625 8.90625 
Q 21.296875 6.109375 26.703125 6.109375 
Q 34.1875 6.109375 38.703125 11.40625 
Q 43.21875 16.703125 43.21875 25.484375 
L 43.21875 27.484375 
z
M 52.203125 31.203125 
L 52.203125 0 
L 43.21875 0 
L 43.21875 8.296875 
Q 40.140625 3.328125 35.546875 0.953125 
Q 30.953125 -1.421875 24.3125 -1.421875 
Q 15.921875 -1.421875 10.953125 3.296875 
Q 6 8.015625 6 15.921875 
Q 6 25.140625 12.171875 29.828125 
Q 18.359375 34.515625 30.609375 34.515625 
L 43.21875 34.515625 
L 43.21875 35.40625 
Q 43.21875 41.609375 39.140625 45 
Q 35.0625 48.390625 27.6875 48.390625 
Q 23 48.390625 18.546875 47.265625 
Q 14.109375 46.140625 10.015625 43.890625 
L 10.015625 52.203125 
Q 14.9375 54.109375 19.578125 55.046875 
Q 24.21875 56 28.609375 56 
Q 40.484375 56 46.34375 49.84375 
Q 52.203125 43.703125 52.203125 31.203125 
" id="DejaVuSans-61"/>
      <path d="M 44.28125 53.078125 
L 44.28125 44.578125 
Q 40.484375 46.53125 36.375 47.5 
Q 32.28125 48.484375 27.875 48.484375 
Q 21.1875 48.484375 17.84375 46.4375 
Q 14.5 44.390625 14.5 40.28125 
Q 14.5 37.15625 16.890625 35.375 
Q 19.28125 33.59375 26.515625 31.984375 
L 29.59375 31.296875 
Q 39.15625 29.25 43.1875 25.515625 
Q 47.21875 21.78125 47.21875 15.09375 
Q 47.21875 7.46875 41.1875 3.015625 
Q 35.15625 -1.421875 24.609375 -1.421875 
Q 20.21875 -1.421875 15.453125 -0.5625 
Q 10.6875 0.296875 5.421875 2 
L 5.421875 11.28125 
Q 10.40625 8.6875 15.234375 7.390625 
Q 20.0625 6.109375 24.8125 6.109375 
Q 31.15625 6.109375 34.5625 8.28125 
Q 37.984375 10.453125 37.984375 14.40625 
Q 37.984375 18.0625 35.515625 20.015625 
Q 33.0625 21.96875 24.703125 23.78125 
L 21.578125 24.515625 
Q 13.234375 26.265625 9.515625 29.90625 
Q 5.8125 33.546875 5.8125 39.890625 
Q 5.8125 47.609375 11.28125 51.796875 
Q 16.75 56 26.8125 56 
Q 31.78125 56 36.171875 55.265625 
Q 40.578125 54.546875 44.28125 53.078125 
" id="DejaVuSans-73"/>
      <path d="M 25.390625 72.90625 
L 33.6875 72.90625 
L 8.296875 -9.28125 
L 0 -9.28125 
z
" id="DejaVuSans-2f"/>
      <path d="M 45.40625 46.390625 
L 45.40625 75.984375 
L 54.390625 75.984375 
L 54.390625 0 
L 45.40625 0 
L 45.40625 8.203125 
Q 42.578125 3.328125 38.25 0.953125 
Q 33.9375 -1.421875 27.875 -1.421875 
Q 17.96875 -1.421875 11.734375 6.484375 
Q 5.515625 14.40625 5.515625 27.296875 
Q 5.515625 40.1875 11.734375 48.09375 
Q 17.96875 56 27.875 56 
Q 33.9375 56 38.25 53.625 
Q 42.578125 51.265625 45.40625 46.390625 
M 14.796875 27.296875 
Q 14.796875 17.390625 18.875 11.75 
Q 22.953125 6.109375 30.078125 6.109375 
Q 37.203125 6.109375 41.296875 11.75 
Q 45.40625 17.390625 45.40625 27.296875 
Q 45.40625 37.203125 41.296875 42.84375 
Q 37.203125 48.484375 30.078125 48.484375 
Q 22.953125 48.484375 18.875 42.84375 
Q 14.796875 37.203125 14.796875 27.296875 
" id="DejaVuSans-64"/>
      <path d="M 9.421875 54.6875 
L 18.40625 54.6875 
L 18.40625 0 
L 9.421875 0 
z
M 9.421875 75.984375 
L 18.40625 75.984375 
L 18.40625 64.59375 
L 9.421875 64.59375 
z
" id="DejaVuSans-69"/>
      <path d="M 52 44.1875 
Q 55.375 50.25 60.0625 53.125 
Q 64.75 56 71.09375 56 
Q 79.640625 56 84.28125 50.015625 
Q 88.921875 44.046875 88.921875 33.015625 
L 88.921875 0 
L 79.890625 0 
L 79.890625 32.71875 
Q 79.890625 40.578125 77.09375 44.375 
Q 74.3125 48.1875 68.609375 48.1875 
Q 61.625 48.1875 57.5625 43.546875 
Q 53.515625 38.921875 53.515625 30.90625 
L 53.515625 0 
L 44.484375 0 
L 44.484375 32.71875 
Q 44.484375 40.625 41.703125 44.40625 
Q 38.921875 48.1875 33.109375 48.1875 
Q 26.21875 48.1875 22.15625 43.53125 
Q 18.109375 38.875 18.109375 30.90625 
L 18.109375 0 
L 9.078125 0 
L 9.078125 54.6875 
L 18.109375 54.6875 
L 18.109375 46.1875 
Q 21.1875 51.21875 25.484375 53.609375 
Q 29.78125 56 35.6875 56 
Q 41.65625 56 45.828125 52.96875 
Q 50 49.953125 52 44.1875 
" id="DejaVuSans-6d"/>
      <path d="M 54.890625 33.015625 
L 54.890625 0 
L 45.90625 0 
L 45.90625 32.71875 
Q 45.90625 40.484375 42.875 44.328125 
Q 39.84375 48.1875 33.796875 48.1875 
Q 26.515625 48.1875 22.3125 43.546875 
Q 18.109375 38.921875 18.109375 30.90625 
L 18.109375 0 
L 9.078125 0 
L 9.078125 54.6875 
L 18.109375 54.6875 
L 18.109375 46.1875 
Q 21.34375 51.125 25.703125 53.5625 
Q 30.078125 56 35.796875 56 
Q 45.21875 56 50.046875 50.171875 
Q 54.890625 44.34375 54.890625 33.015625 
" id="DejaVuSans-6e"/>
      <path d="M 8.015625 75.875 
L 15.828125 75.875 
Q 23.140625 64.359375 26.78125 53.3125 
Q 30.421875 42.28125 30.421875 31.390625 
Q 30.421875 20.453125 26.78125 9.375 
Q 23.140625 -1.703125 15.828125 -13.1875 
L 8.015625 -13.1875 
Q 14.5 -2 17.703125 9.0625 
Q 20.90625 20.125 20.90625 31.390625 
Q 20.90625 42.671875 17.703125 53.65625 
Q 14.5 64.65625 8.015625 75.875 
" id="DejaVuSans-29"/>
     </defs>
     <g transform="translate(105.163719 337.433594)scale(0.17 -0.17)">
      <use xlink:href="#DejaVuSans-6c"/>
      <use x="27.783203" xlink:href="#DejaVuSans-6f"/>
      <use x="88.964844" xlink:href="#DejaVuSans-67"/>
      <use x="152.441406" xlink:href="#DejaVuSans-31"/>
      <use x="216.064453" xlink:href="#DejaVuSans-30"/>
      <use x="279.6875" xlink:href="#DejaVuSans-28"/>
      <use x="318.701172" xlink:href="#DejaVuSans-23"/>
      <use x="402.490234" xlink:href="#DejaVuSans-20"/>
      <use x="434.277344" xlink:href="#DejaVuSans-66"/>
      <use x="469.404297" xlink:href="#DejaVuSans-2d"/>
      <use x="505.488281" xlink:href="#DejaVuSans-65"/>
      <use x="567.011719" xlink:href="#DejaVuSans-76"/>
      <use x="626.191406" xlink:href="#DejaVuSans-61"/>
      <use x="687.470703" xlink:href="#DejaVuSans-6c"/>
      <use x="715.253906" xlink:href="#DejaVuSans-73"/>
      <use x="767.353516" xlink:href="#DejaVuSans-20"/>
      <use x="799.140625" xlink:href="#DejaVuSans-2f"/>
      <use x="832.832031" xlink:href="#DejaVuSans-20"/>
      <use x="864.619141" xlink:href="#DejaVuSans-64"/>
      <use x="928.095703" xlink:href="#DejaVuSans-69"/>
      <use x="955.878906" xlink:href="#DejaVuSans-6d"/>
      <use x="1053.291016" xlink:href="#DejaVuSans-65"/>
      <use x="1114.814453" xlink:href="#DejaVuSans-6e"/>
      <use x="1178.193359" xlink:href="#DejaVuSans-73"/>
      <use x="1230.292969" xlink:href="#DejaVuSans-69"/>
      <use x="1258.076172" xlink:href="#DejaVuSans-6f"/>
      <use x="1319.257812" xlink:href="#DejaVuSans-6e"/>
      <use x="1382.636719" xlink:href="#DejaVuSans-29"/>
     </g>
    </g>
   </g>
   <g id="matplotlib.axis_2">
    <g id="ytick_1">
     <g id="line2d_33">
      <path clip-path="url(#p1621e436e3)" d="M 56.84 294.16 
L 395.169 294.16 
" style="fill:none;stroke:#b0b0b0;stroke-linecap:square;stroke-width:0.8;"/>
     </g>
     <g id="line2d_34">
      <defs>
       <path d="M 0 0 
L -3.5 0 
" id="md8a0e85e92" style="stroke:#000000;stroke-width:0.8;"/>
      </defs>
      <g>
       <use style="stroke:#000000;stroke-width:0.8;" x="56.84" xlink:href="#md8a0e85e92" y="294.16"/>
      </g>
     </g>
     <g id="text_7">
      <!-- 0.0 -->
      <defs>
       <path d="M 10.6875 12.40625 
L 21 12.40625 
L 21 0 
L 10.6875 0 
z
" id="DejaVuSans-2e"/>
      </defs>
      <g transform="translate(24.395 300.23875)scale(0.16 -0.16)">
       <use xlink:href="#DejaVuSans-30"/>
       <use x="63.623047" xlink:href="#DejaVuSans-2e"/>
       <use x="95.410156" xlink:href="#DejaVuSans-30"/>
      </g>
     </g>
    </g>
    <g id="ytick_2">
     <g id="line2d_35">
      <path clip-path="url(#p1621e436e3)" d="M 56.84 240.829307 
L 395.169 240.829307 
" style="fill:none;stroke:#b0b0b0;stroke-linecap:square;stroke-width:0.8;"/>
     </g>
     <g id="line2d_36">
      <g>
       <use style="stroke:#000000;stroke-width:0.8;" x="56.84" xlink:href="#md8a0e85e92" y="240.829307"/>
      </g>
     </g>
     <g id="text_8">
      <!-- 0.2 -->
      <g transform="translate(24.395 246.908057)scale(0.16 -0.16)">
       <use xlink:href="#DejaVuSans-30"/>
       <use x="63.623047" xlink:href="#DejaVuSans-2e"/>
       <use x="95.410156" xlink:href="#DejaVuSans-32"/>
      </g>
     </g>
    </g>
    <g id="ytick_3">
     <g id="line2d_37">
      <path clip-path="url(#p1621e436e3)" d="M 56.84 187.498614 
L 395.169 187.498614 
" style="fill:none;stroke:#b0b0b0;stroke-linecap:square;stroke-width:0.8;"/>
     </g>
     <g id="line2d_38">
      <g>
       <use style="stroke:#000000;stroke-width:0.8;" x="56.84" xlink:href="#md8a0e85e92" y="187.498614"/>
      </g>
     </g>
     <g id="text_9">
      <!-- 0.4 -->
      <g transform="translate(24.395 193.577364)scale(0.16 -0.16)">
       <use xlink:href="#DejaVuSans-30"/>
       <use x="63.623047" xlink:href="#DejaVuSans-2e"/>
       <use x="95.410156" xlink:href="#DejaVuSans-34"/>
      </g>
     </g>
    </g>
    <g id="ytick_4">
     <g id="line2d_39">
      <path clip-path="url(#p1621e436e3)" d="M 56.84 134.167921 
L 395.169 134.167921 
" style="fill:none;stroke:#b0b0b0;stroke-linecap:square;stroke-width:0.8;"/>
     </g>
     <g id="line2d_40">
      <g>
       <use style="stroke:#000000;stroke-width:0.8;" x="56.84" xlink:href="#md8a0e85e92" y="134.167921"/>
      </g>
     </g>
     <g id="text_10">
      <!-- 0.6 -->
      <g transform="translate(24.395 140.246671)scale(0.16 -0.16)">
       <use xlink:href="#DejaVuSans-30"/>
       <use x="63.623047" xlink:href="#DejaVuSans-2e"/>
       <use x="95.410156" xlink:href="#DejaVuSans-36"/>
      </g>
     </g>
    </g>
    <g id="ytick_5">
     <g id="line2d_41">
      <path clip-path="url(#p1621e436e3)" d="M 56.84 80.837228 
L 395.169 80.837228 
" style="fill:none;stroke:#b0b0b0;stroke-linecap:square;stroke-width:0.8;"/>
     </g>
     <g id="line2d_42">
      <g>
       <use style="stroke:#000000;stroke-width:0.8;" x="56.84" xlink:href="#md8a0e85e92" y="80.837228"/>
      </g>
     </g>
     <g id="text_11">
      <!-- 0.8 -->
      <g transform="translate(24.395 86.915978)scale(0.16 -0.16)">
       <use xlink:href="#DejaVuSans-30"/>
       <use x="63.623047" xlink:href="#DejaVuSans-2e"/>
       <use x="95.410156" xlink:href="#DejaVuSans-38"/>
      </g>
     </g>
    </g>
    <g id="ytick_6">
     <g id="line2d_43">
      <path clip-path="url(#p1621e436e3)" d="M 56.84 27.506535 
L 395.169 27.506535 
" style="fill:none;stroke:#b0b0b0;stroke-linecap:square;stroke-width:0.8;"/>
     </g>
     <g id="line2d_44">
      <g>
       <use style="stroke:#000000;stroke-width:0.8;" x="56.84" xlink:href="#md8a0e85e92" y="27.506535"/>
      </g>
     </g>
     <g id="text_12">
      <!-- 1.0 -->
      <g transform="translate(24.395 33.585285)scale(0.16 -0.16)">
       <use xlink:href="#DejaVuSans-31"/>
       <use x="63.623047" xlink:href="#DejaVuSans-2e"/>
       <use x="95.410156" xlink:href="#DejaVuSans-30"/>
      </g>
     </g>
    </g>
    <g id="text_13">
     <!-- Fraction of function,target pairs -->
     <defs>
      <path d="M 9.8125 72.90625 
L 51.703125 72.90625 
L 51.703125 64.59375 
L 19.671875 64.59375 
L 19.671875 43.109375 
L 48.578125 43.109375 
L 48.578125 34.8125 
L 19.671875 34.8125 
L 19.671875 0 
L 9.8125 0 
z
" id="DejaVuSans-46"/>
      <path d="M 41.109375 46.296875 
Q 39.59375 47.171875 37.8125 47.578125 
Q 36.03125 48 33.890625 48 
Q 26.265625 48 22.1875 43.046875 
Q 18.109375 38.09375 18.109375 28.8125 
L 18.109375 0 
L 9.078125 0 
L 9.078125 54.6875 
L 18.109375 54.6875 
L 18.109375 46.1875 
Q 20.953125 51.171875 25.484375 53.578125 
Q 30.03125 56 36.53125 56 
Q 37.453125 56 38.578125 55.875 
Q 39.703125 55.765625 41.0625 55.515625 
z
" id="DejaVuSans-72"/>
      <path d="M 48.78125 52.59375 
L 48.78125 44.1875 
Q 44.96875 46.296875 41.140625 47.34375 
Q 37.3125 48.390625 33.40625 48.390625 
Q 24.65625 48.390625 19.8125 42.84375 
Q 14.984375 37.3125 14.984375 27.296875 
Q 14.984375 17.28125 19.8125 11.734375 
Q 24.65625 6.203125 33.40625 6.203125 
Q 37.3125 6.203125 41.140625 7.25 
Q 44.96875 8.296875 48.78125 10.40625 
L 48.78125 2.09375 
Q 45.015625 0.34375 40.984375 -0.53125 
Q 36.96875 -1.421875 32.421875 -1.421875 
Q 20.0625 -1.421875 12.78125 6.34375 
Q 5.515625 14.109375 5.515625 27.296875 
Q 5.515625 40.671875 12.859375 48.328125 
Q 20.21875 56 33.015625 56 
Q 37.15625 56 41.109375 55.140625 
Q 45.0625 54.296875 48.78125 52.59375 
" id="DejaVuSans-63"/>
      <path d="M 18.3125 70.21875 
L 18.3125 54.6875 
L 36.8125 54.6875 
L 36.8125 47.703125 
L 18.3125 47.703125 
L 18.3125 18.015625 
Q 18.3125 11.328125 20.140625 9.421875 
Q 21.96875 7.515625 27.59375 7.515625 
L 36.8125 7.515625 
L 36.8125 0 
L 27.59375 0 
Q 17.1875 0 13.234375 3.875 
Q 9.28125 7.765625 9.28125 18.015625 
L 9.28125 47.703125 
L 2.6875 47.703125 
L 2.6875 54.6875 
L 9.28125 54.6875 
L 9.28125 70.21875 
z
" id="DejaVuSans-74"/>
      <path d="M 8.5 21.578125 
L 8.5 54.6875 
L 17.484375 54.6875 
L 17.484375 21.921875 
Q 17.484375 14.15625 20.5 10.265625 
Q 23.53125 6.390625 29.59375 6.390625 
Q 36.859375 6.390625 41.078125 11.03125 
Q 45.3125 15.671875 45.3125 23.6875 
L 45.3125 54.6875 
L 54.296875 54.6875 
L 54.296875 0 
L 45.3125 0 
L 45.3125 8.40625 
Q 42.046875 3.421875 37.71875 1 
Q 33.40625 -1.421875 27.6875 -1.421875 
Q 18.265625 -1.421875 13.375 4.4375 
Q 8.5 10.296875 8.5 21.578125 
M 31.109375 56 
z
" id="DejaVuSans-75"/>
      <path d="M 11.71875 12.40625 
L 22.015625 12.40625 
L 22.015625 4 
L 14.015625 -11.625 
L 7.71875 -11.625 
L 11.71875 4 
z
" id="DejaVuSans-2c"/>
      <path d="M 18.109375 8.203125 
L 18.109375 -20.796875 
L 9.078125 -20.796875 
L 9.078125 54.6875 
L 18.109375 54.6875 
L 18.109375 46.390625 
Q 20.953125 51.265625 25.265625 53.625 
Q 29.59375 56 35.59375 56 
Q 45.5625 56 51.78125 48.09375 
Q 58.015625 40.1875 58.015625 27.296875 
Q 58.015625 14.40625 51.78125 6.484375 
Q 45.5625 -1.421875 35.59375 -1.421875 
Q 29.59375 -1.421875 25.265625 0.953125 
Q 20.953125 3.328125 18.109375 8.203125 
M 48.6875 27.296875 
Q 48.6875 37.203125 44.609375 42.84375 
Q 40.53125 48.484375 33.40625 48.484375 
Q 26.265625 48.484375 22.1875 42.84375 
Q 18.109375 37.203125 18.109375 27.296875 
Q 18.109375 17.390625 22.1875 11.75 
Q 26.265625 6.109375 33.40625 6.109375 
Q 40.53125 6.109375 44.609375 11.75 
Q 48.6875 17.390625 48.6875 27.296875 
" id="DejaVuSans-70"/>
     </defs>
     <g transform="translate(16.859531 294.639375)rotate(-90)scale(0.17 -0.17)">
      <use xlink:href="#DejaVuSans-46"/>
      <use x="57.410156" xlink:href="#DejaVuSans-72"/>
      <use x="98.523438" xlink:href="#DejaVuSans-61"/>
      <use x="159.802734" xlink:href="#DejaVuSans-63"/>
      <use x="214.783203" xlink:href="#DejaVuSans-74"/>
      <use x="253.992188" xlink:href="#DejaVuSans-69"/>
      <use x="281.775391" xlink:href="#DejaVuSans-6f"/>
      <use x="342.957031" xlink:href="#DejaVuSans-6e"/>
      <use x="406.335938" xlink:href="#DejaVuSans-20"/>
      <use x="438.123047" xlink:href="#DejaVuSans-6f"/>
      <use x="499.304688" xlink:href="#DejaVuSans-66"/>
      <use x="534.509766" xlink:href="#DejaVuSans-20"/>
      <use x="566.296875" xlink:href="#DejaVuSans-66"/>
      <use x="601.501953" xlink:href="#DejaVuSans-75"/>
      <use x="664.880859" xlink:href="#DejaVuSans-6e"/>
      <use x="728.259766" xlink:href="#DejaVuSans-63"/>
      <use x="783.240234" xlink:href="#DejaVuSans-74"/>
      <use x="822.449219" xlink:href="#DejaVuSans-69"/>
      <use x="850.232422" xlink:href="#DejaVuSans-6f"/>
      <use x="911.414062" xlink:href="#DejaVuSans-6e"/>
      <use x="974.792969" xlink:href="#DejaVuSans-2c"/>
      <use x="1006.580078" xlink:href="#DejaVuSans-74"/>
      <use x="1045.789062" xlink:href="#DejaVuSans-61"/>
      <use x="1107.068359" xlink:href="#DejaVuSans-72"/>
      <use x="1148.166016" xlink:href="#DejaVuSans-67"/>
      <use x="1211.642578" xlink:href="#DejaVuSans-65"/>
      <use x="1273.166016" xlink:href="#DejaVuSans-74"/>
      <use x="1312.375" xlink:href="#DejaVuSans-20"/>
      <use x="1344.162109" xlink:href="#DejaVuSans-70"/>
      <use x="1407.638672" xlink:href="#DejaVuSans-61"/>
      <use x="1468.917969" xlink:href="#DejaVuSans-69"/>
      <use x="1496.701172" xlink:href="#DejaVuSans-72"/>
      <use x="1537.814453" xlink:href="#DejaVuSans-73"/>
     </g>
    </g>
   </g>
   <g id="line2d_45">
    <defs>
     <path d="M 0 1.5 
C 0.397805 1.5 0.77937 1.341951 1.06066 1.06066 
C 1.341951 0.77937 1.5 0.397805 1.5 0 
C 1.5 -0.397805 1.341951 -0.77937 1.06066 -1.06066 
C 0.77937 -1.341951 0.397805 -1.5 0 -1.5 
C -0.397805 -1.5 -0.77937 -1.341951 -1.06066 -1.06066 
C -1.341951 -0.77937 -1.5 -0.397805 -1.5 0 
C -1.5 0.397805 -1.341951 0.77937 -1.06066 1.06066 
C -0.77937 1.341951 -0.397805 1.5 0 1.5 
z
" id="m755f34385a" style="stroke:#f5deb3;"/>
    </defs>
    <g>
     <use style="fill:#f5deb3;stroke:#f5deb3;" x="233.449408" xlink:href="#m755f34385a" y="59.688849"/>
     <use style="fill:#f5deb3;stroke:#f5deb3;" x="233.449408" xlink:href="#m755f34385a" y="59.688849"/>
    </g>
   </g>
   <g id="line2d_46">
    <defs>
     <path d="M 0 1.5 
C 0.397805 1.5 0.77937 1.341951 1.06066 1.06066 
C 1.341951 0.77937 1.5 0.397805 1.5 0 
C 1.5 -0.397805 1.341951 -0.77937 1.06066 -1.06066 
C 0.77937 -1.341951 0.397805 -1.5 0 -1.5 
C -0.397805 -1.5 -0.77937 -1.341951 -1.06066 -1.06066 
C -1.341951 -0.77937 -1.5 -0.397805 -1.5 0 
C -1.5 0.397805 -1.341951 0.77937 -1.06066 1.06066 
C -0.77937 1.341951 -0.397805 1.5 0 1.5 
z
" id="m922a2f2864" style="stroke:#000080;"/>
    </defs>
    <g>
     <use style="fill:#000080;stroke:#000080;" x="308.692408" xlink:href="#m922a2f2864" y="128.650953"/>
     <use style="fill:#000080;stroke:#000080;" x="308.692408" xlink:href="#m922a2f2864" y="128.650953"/>
    </g>
   </g>
   <g id="line2d_47">
    <path d="M 6.128459 294.16 
L 6.128459 290.022274 
L 116.976242 290.022274 
L 116.976242 289.562526 
L 121.391388 289.562526 
L 121.391388 288.643032 
L 121.577207 288.643032 
L 121.687727 286.344295 
L 122.300733 286.344295 
L 122.300733 284.965053 
L 123.096267 284.965053 
L 123.180528 283.126064 
L 123.64479 283.126064 
L 123.64479 282.206569 
L 124.365236 282.206569 
L 124.365236 281.287074 
L 124.767932 281.287074 
L 124.874733 278.988337 
L 125.265626 278.988337 
L 125.265626 278.068843 
L 126.414697 278.068843 
L 126.497813 275.310358 
L 126.621727 275.310358 
L 126.649141 274.390864 
L 128.142594 274.390864 
L 128.167654 273.471369 
L 128.255072 273.471369 
L 128.35443 272.551874 
L 128.890708 272.551874 
L 128.97448 270.253138 
L 129.10529 270.253138 
L 129.140791 267.494653 
L 129.223338 267.494653 
L 129.223338 267.034906 
L 129.710339 267.034906 
L 129.710339 266.575159 
L 130.250279 266.575159 
L 130.250279 266.115411 
L 130.415538 266.115411 
L 130.415538 265.655664 
L 130.633404 265.655664 
L 130.633404 264.276422 
L 131.092531 264.276422 
L 131.092531 263.816675 
L 131.270666 263.816675 
L 131.270666 263.356927 
L 131.405633 263.356927 
L 131.405633 262.437433 
L 131.560039 262.437433 
L 131.611197 260.598443 
L 132.134264 260.598443 
L 132.163953 258.759454 
L 132.545251 258.759454 
L 132.545251 257.839959 
L 133.152937 257.839959 
L 133.199506 254.16198 
L 133.41209 254.16198 
L 133.44879 253.242485 
L 133.540194 253.242485 
L 133.540194 252.782738 
L 133.667336 252.782738 
L 133.667336 251.863243 
L 134.315247 251.863243 
L 134.34135 249.104759 
L 134.436719 249.104759 
L 134.436719 248.645012 
L 134.557325 248.645012 
L 134.557325 247.725517 
L 135.097984 247.725517 
L 135.097984 247.26577 
L 135.263458 247.26577 
L 135.263458 246.346275 
L 135.50056 246.346275 
L 135.508676 244.507286 
L 136.478504 244.507286 
L 136.478504 244.047538 
L 136.767228 244.047538 
L 136.85739 242.208549 
L 137.183936 242.208549 
L 137.183936 241.748802 
L 137.366706 241.748802 
L 137.460972 239.909812 
L 138.043771 239.909812 
L 138.106531 236.231833 
L 138.155185 236.231833 
L 138.155185 235.772086 
L 138.355273 235.772086 
L 138.355273 234.852591 
L 138.842052 234.852591 
L 138.92847 232.094107 
L 140.112724 232.094107 
L 140.112724 231.174612 
L 141.161506 231.174612 
L 141.161506 230.714865 
L 141.329197 230.714865 
L 141.426731 228.416128 
L 142.28014 228.416128 
L 142.28014 227.496634 
L 142.415586 227.496634 
L 142.415586 226.577139 
L 142.640723 226.577139 
L 142.640723 226.117392 
L 143.324298 226.117392 
L 143.324298 225.657644 
L 143.877712 225.657644 
L 143.877712 225.197897 
L 147.205665 225.197897 
L 147.205665 224.278402 
L 147.757712 224.278402 
L 147.757712 223.358907 
L 148.14294 223.358907 
L 148.14294 221.979665 
L 148.440398 221.979665 
L 148.519597 221.060171 
L 148.939519 221.060171 
L 148.939519 220.600423 
L 149.899138 220.600423 
L 149.899138 220.140676 
L 151.932605 220.140676 
L 151.932605 219.680929 
L 154.794991 219.680929 
L 154.794991 218.761434 
L 155.790964 218.761434 
L 155.790964 218.301687 
L 159.080936 218.301687 
L 159.080936 217.841939 
L 159.774226 217.841939 
L 159.774226 216.922445 
L 162.809836 216.922445 
L 162.809836 216.462697 
L 167.163169 216.462697 
L 167.163169 215.543202 
L 171.12909 215.543202 
L 171.12909 214.16396 
L 176.703712 214.16396 
L 176.703712 213.244466 
L 177.338754 213.244466 
L 177.338754 212.784718 
L 178.994617 212.784718 
L 178.994617 212.324971 
L 179.110492 212.324971 
L 179.110492 210.945729 
L 179.237229 210.945729 
L 179.237229 210.026234 
L 179.429815 210.026234 
L 179.429815 209.566487 
L 179.842873 209.566487 
L 179.842873 209.10674 
L 180.36922 209.10674 
L 180.36922 208.646992 
L 180.568123 208.646992 
L 180.645004 205.888508 
L 182.068503 205.888508 
L 182.068503 204.969013 
L 182.432205 204.969013 
L 182.454014 203.130024 
L 182.57925 203.130024 
L 182.57925 202.210529 
L 184.742721 202.210529 
L 184.742721 201.750782 
L 185.573422 201.750782 
L 185.573422 201.291034 
L 186.238061 201.291034 
L 186.238061 200.37154 
L 186.931363 200.37154 
L 186.931363 198.992298 
L 187.331983 198.992298 
L 187.331983 198.53255 
L 187.76191 198.53255 
L 187.76191 197.613056 
L 195.994167 197.613056 
L 195.994167 197.153308 
L 200.569706 197.153308 
L 200.569706 196.233814 
L 200.982002 196.233814 
L 200.982002 195.774066 
L 202.907811 195.774066 
L 202.907811 194.394824 
L 206.798642 194.394824 
L 206.798642 193.475329 
L 208.76876 193.475329 
L 208.76876 193.015582 
L 214.155413 193.015582 
L 214.155413 191.176593 
L 214.295066 191.176593 
L 214.295066 190.716845 
L 215.094367 190.716845 
L 215.094367 190.257098 
L 215.588551 190.257098 
L 215.588551 189.797351 
L 216.224343 189.797351 
L 216.224343 189.337603 
L 218.426405 189.337603 
L 218.426405 187.958361 
L 220.76067 187.958361 
L 220.76067 187.038867 
L 224.994194 187.038867 
L 224.994194 186.579119 
L 227.653299 186.579119 
L 227.653299 186.119372 
L 228.466384 186.119372 
L 228.466384 185.199877 
L 230.639331 185.199877 
L 230.639331 182.90114 
L 235.370195 182.90114 
L 235.370195 181.062151 
L 236.052083 181.062151 
L 236.052083 180.602404 
L 241.800672 180.602404 
L 241.800672 179.682909 
L 242.35654 179.682909 
L 242.35654 178.763414 
L 242.73184 178.763414 
L 242.73184 178.303667 
L 245.287809 178.303667 
L 245.287809 177.843919 
L 246.609657 177.843919 
L 246.609657 175.545183 
L 247.507354 175.545183 
L 247.507354 174.625688 
L 249.786899 174.625688 
L 249.786899 173.706193 
L 251.745831 173.706193 
L 251.845277 169.568467 
L 251.938785 169.568467 
L 252.010897 166.809983 
L 252.112882 166.809983 
L 252.170689 165.890488 
L 252.535229 165.890488 
L 252.535229 165.430741 
L 253.018051 165.430741 
L 253.018051 164.970994 
L 253.459752 164.970994 
L 253.459752 164.511246 
L 253.622834 164.511246 
L 253.622834 164.051499 
L 254.459531 164.051499 
L 254.460093 163.132004 
L 254.902529 163.132004 
L 254.902606 162.212509 
L 255.38753 162.212509 
L 255.38753 161.752762 
L 257.191785 161.752762 
L 257.191785 161.293015 
L 260.547411 161.293015 
L 260.547411 160.833267 
L 261.09649 160.833267 
L 261.096563 159.913773 
L 261.552066 159.913773 
L 261.552436 158.994278 
L 262.520157 158.994278 
L 262.520157 158.534531 
L 262.878347 158.534531 
L 262.878399 157.615036 
L 263.47215 157.615036 
L 263.48193 155.776046 
L 263.584757 155.776046 
L 263.588542 154.856552 
L 264.366957 154.856552 
L 264.436347 153.47731 
L 264.608207 153.47731 
L 264.608207 153.017562 
L 265.124232 153.017562 
L 265.124232 152.557815 
L 267.740376 152.557815 
L 267.740376 152.098068 
L 269.077423 152.098068 
L 269.077423 151.63832 
L 269.93951 151.63832 
L 269.939545 150.718826 
L 270.333111 150.718826 
L 270.333111 150.259078 
L 270.456412 150.259078 
L 270.456412 149.799331 
L 270.606917 149.799331 
L 270.606917 149.339583 
L 270.767958 149.339583 
L 270.767958 148.879836 
L 270.923819 148.879836 
L 270.923819 148.420089 
L 271.28711 148.420089 
L 271.28711 147.960341 
L 272.350516 147.960341 
L 272.350516 147.500594 
L 273.802163 147.500594 
L 273.802163 147.040847 
L 274.334333 147.040847 
L 274.334333 146.581099 
L 274.732374 146.581099 
L 274.732374 146.121352 
L 274.907493 146.121352 
L 274.907612 145.201857 
L 275.233919 145.201857 
L 275.260155 143.822615 
L 276.736867 143.822615 
L 276.736867 143.362868 
L 278.210432 143.362868 
L 278.287794 141.983626 
L 278.7432 141.983626 
L 278.7432 141.523878 
L 278.982467 141.523878 
L 278.982467 141.064131 
L 279.240417 141.064131 
L 279.240417 140.604384 
L 279.385862 140.604384 
L 279.385862 140.144636 
L 281.426691 140.144636 
L 281.426691 139.684889 
L 282.124197 139.684889 
L 282.124197 139.225142 
L 283.102858 139.225142 
L 283.102858 138.765394 
L 283.562309 138.765394 
L 283.562309 138.305647 
L 284.505533 138.305647 
L 284.505533 137.8459 
L 284.965145 137.8459 
L 284.965212 136.926405 
L 286.457517 136.926405 
L 286.457621 136.00691 
L 286.786703 136.00691 
L 286.786827 135.087416 
L 290.330821 135.087416 
L 290.330821 134.627668 
L 290.59325 134.627668 
L 290.59325 134.167921 
L 292.013197 134.167921 
L 292.013197 133.708173 
L 292.217132 133.708173 
L 292.217132 133.248426 
L 293.698716 133.248426 
L 293.698716 132.788679 
L 295.061072 132.788679 
L 295.06118 131.869184 
L 296.135576 131.869184 
L 296.135576 131.409437 
L 297.321368 131.409437 
L 297.321368 130.949689 
L 305.480583 130.949689 
L 305.480583 130.489942 
L 306.173509 130.489942 
L 306.173509 130.030195 
L 306.839117 130.030195 
L 306.839117 129.570447 
L 308.692362 129.570447 
L 308.692408 128.650953 
L 329.685968 128.650953 
L 329.685968 128.650953 
" style="fill:none;stroke:#000080;stroke-linecap:square;stroke-width:1.5;"/>
   </g>
   <g id="line2d_48">
    <defs>
     <path d="M 0 6 
C 1.591219 6 3.117479 5.367802 4.242641 4.242641 
C 5.367802 3.117479 6 1.591219 6 0 
C 6 -1.591219 5.367802 -3.117479 4.242641 -4.242641 
C 3.117479 -5.367802 1.591219 -6 0 -6 
C -1.591219 -6 -3.117479 -5.367802 -4.242641 -4.242641 
C -5.367802 -3.117479 -6 -1.591219 -6 0 
C -6 1.591219 -5.367802 3.117479 -4.242641 4.242641 
C -3.117479 5.367802 -1.591219 6 0 6 
z
" id="m86bd3371a3" style="stroke:#000080;stroke-width:1.5;"/>
    </defs>
    <g>
     <use style="fill:none;stroke:#000080;stroke-width:1.5;" x="136.85739" xlink:href="#m86bd3371a3" y="243.128044"/>
     <use style="fill:none;stroke:#000080;stroke-width:1.5;" x="195.994167" xlink:href="#m86bd3371a3" y="197.613056"/>
     <use style="fill:none;stroke:#000080;stroke-width:1.5;" x="284.505533" xlink:href="#m86bd3371a3" y="137.8459"/>
     <use style="fill:none;stroke:#000080;stroke-width:1.5;" x="308.692408" xlink:href="#m86bd3371a3" y="128.650953"/>
     <use style="fill:none;stroke:#000080;stroke-width:1.5;" x="329.685968" xlink:href="#m86bd3371a3" y="128.650953"/>
    </g>
   </g>
   <g id="line2d_49">
    <path style="fill:none;stroke:#000080;stroke-linecap:square;stroke-width:1.5;"/>
    <g/>
   </g>
   <g id="line2d_50">
    <path clip-path="url(#p1621e436e3)" d="M 251.730561 173.706193 
" style="fill:none;stroke:#000080;stroke-linecap:square;stroke-width:1.5;"/>
    <defs>
     <path d="M -12 12 
L 12 -12 
M -12 -12 
L 12 12 
" id="m3b9a088224" style="stroke:#000080;stroke-width:3;"/>
    </defs>
    <g clip-path="url(#p1621e436e3)">
     <use style="fill:#000080;stroke:#000080;stroke-width:3;" x="251.730561" xlink:href="#m3b9a088224" y="173.706193"/>
    </g>
   </g>
   <g id="line2d_51">
    <defs>
     <path d="M 0 1.5 
C 0.397805 1.5 0.77937 1.341951 1.06066 1.06066 
C 1.341951 0.77937 1.5 0.397805 1.5 0 
C 1.5 -0.397805 1.341951 -0.77937 1.06066 -1.06066 
C 0.77937 -1.341951 0.397805 -1.5 0 -1.5 
C -0.397805 -1.5 -0.77937 -1.341951 -1.06066 -1.06066 
C -1.341951 -0.77937 -1.5 -0.397805 -1.5 0 
C -1.5 0.397805 -1.341951 0.77937 -1.06066 1.06066 
C -0.77937 1.341951 -0.397805 1.5 0 1.5 
z
" id="m648cb00d85" style="stroke:#ff00ff;"/>
    </defs>
    <g>
     <use style="fill:#ff00ff;stroke:#ff00ff;" x="357.063644" xlink:href="#m648cb00d85" y="216.00295"/>
     <use style="fill:#ff00ff;stroke:#ff00ff;" x="357.063644" xlink:href="#m648cb00d85" y="216.00295"/>
    </g>
   </g>
   <g id="line2d_52">
    <path d="M 33.372908 294.16 
L 33.372908 293.700253 
L 48.19278 293.700253 
L 48.19278 293.240505 
L 49.547738 293.240505 
L 49.547738 292.780758 
L 55.971711 292.780758 
L 55.971711 291.861263 
L 59.926326 291.861263 
L 59.926326 290.941769 
L 65.822437 290.941769 
L 65.822437 290.482021 
L 70.939426 290.482021 
L 70.939426 290.022274 
L 76.792187 290.022274 
L 76.792187 289.562526 
L 78.523556 289.562526 
L 78.523556 288.643032 
L 86.153341 288.643032 
L 86.153341 287.26379 
L 87.588771 287.26379 
L 87.588771 286.804042 
L 98.403247 286.804042 
L 98.403247 285.4248 
L 102.905894 285.4248 
L 102.905894 284.505306 
L 107.03593 284.505306 
L 107.03593 284.045558 
L 119.242714 284.045558 
L 119.242714 282.666316 
L 119.641037 282.666316 
L 119.641037 281.746821 
L 123.888361 281.746821 
L 123.888361 281.287074 
L 125.428325 281.287074 
L 125.428325 279.907832 
L 139.851043 279.907832 
L 139.851043 279.448085 
L 141.085792 279.448085 
L 141.085792 278.988337 
L 141.380903 278.988337 
L 141.380903 278.52859 
L 142.480217 278.52859 
L 142.480217 278.068843 
L 143.783406 278.068843 
L 143.783406 276.689601 
L 150.126501 276.689601 
L 150.126501 275.770106 
L 163.828376 275.770106 
L 163.828376 274.850611 
L 166.019724 274.850611 
L 166.019724 274.390864 
L 167.245519 274.390864 
L 167.346041 273.471369 
L 167.612435 273.471369 
L 167.612435 273.011622 
L 176.538463 273.011622 
L 176.575085 272.092127 
L 194.899947 272.092127 
L 194.899947 271.172632 
L 196.795563 271.172632 
L 196.795563 270.712885 
L 198.124933 270.712885 
L 198.124933 269.79339 
L 200.522707 269.79339 
L 200.522707 268.873896 
L 204.575111 268.873896 
L 204.575111 268.414148 
L 214.581676 268.414148 
L 214.581676 267.494653 
L 217.993739 267.494653 
L 217.993739 266.575159 
L 219.098309 266.575159 
L 219.098309 265.655664 
L 222.540835 265.655664 
L 222.540835 265.195917 
L 223.112737 265.195917 
L 223.112737 264.736169 
L 240.722128 264.736169 
L 240.722128 264.276422 
L 241.453129 264.276422 
L 241.453129 262.89718 
L 242.318728 262.89718 
L 242.318728 262.437433 
L 242.541342 262.437433 
L 242.541342 261.977685 
L 247.106856 261.977685 
L 247.106856 260.138696 
L 251.492007 260.138696 
L 251.492007 258.299706 
L 257.299797 258.299706 
L 257.299797 257.380212 
L 263.692613 257.380212 
L 263.692613 256.00097 
L 265.458869 256.00097 
L 265.458869 255.081475 
L 265.575294 255.081475 
L 265.575294 254.621728 
L 270.482268 254.621728 
L 270.482268 253.242485 
L 274.986857 253.242485 
L 274.986857 252.782738 
L 278.726132 252.782738 
L 278.726132 252.322991 
L 279.743295 252.322991 
L 279.743295 251.403496 
L 283.784758 251.403496 
L 283.784758 250.943749 
L 288.08385 250.943749 
L 288.08385 250.484001 
L 290.71615 250.484001 
L 290.78997 249.564507 
L 291.007129 249.564507 
L 291.017315 248.645012 
L 291.56916 248.645012 
L 291.652006 247.725517 
L 291.949543 247.725517 
L 291.949543 246.346275 
L 295.185165 246.346275 
L 295.185165 245.886528 
L 295.930597 245.886528 
L 295.930597 244.967033 
L 296.343956 244.967033 
L 296.343956 244.507286 
L 299.331405 244.507286 
L 299.331405 244.047538 
L 299.740114 244.047538 
L 299.740114 243.587791 
L 302.535557 243.587791 
L 302.591757 242.668296 
L 302.920115 242.668296 
L 302.920115 242.208549 
L 304.258165 242.208549 
L 304.258165 241.748802 
L 305.165065 241.748802 
L 305.165065 241.289054 
L 305.49299 241.289054 
L 305.49299 240.829307 
L 307.173754 240.829307 
L 307.173754 239.909812 
L 307.296517 239.909812 
L 307.296517 239.450065 
L 310.071698 239.450065 
L 310.071698 238.990318 
L 310.537697 238.990318 
L 310.537697 238.070823 
L 311.168685 238.070823 
L 311.230726 236.691581 
L 311.399359 236.691581 
L 311.399359 235.312339 
L 314.195601 235.312339 
L 314.195601 234.852591 
L 314.753165 234.852591 
L 314.753165 234.392844 
L 315.591552 234.392844 
L 315.591552 233.933097 
L 316.706009 233.933097 
L 316.706009 233.013602 
L 317.968853 233.013602 
L 317.968853 232.553855 
L 318.208128 232.553855 
L 318.208128 232.094107 
L 319.133808 232.094107 
L 319.239731 231.174612 
L 320.006549 231.174612 
L 320.006549 230.255118 
L 321.252104 230.255118 
L 321.252104 229.335623 
L 322.11819 229.335623 
L 322.11819 228.416128 
L 323.691262 228.416128 
L 323.691262 227.956381 
L 323.83124 227.956381 
L 323.83124 227.496634 
L 325.140421 227.496634 
L 325.140421 227.036886 
L 326.724575 227.036886 
L 326.724575 226.577139 
L 327.22134 226.577139 
L 327.22134 226.117392 
L 328.044968 226.117392 
L 328.044968 225.657644 
L 328.629653 225.657644 
L 328.629653 225.197897 
L 329.685968 225.197897 
L 329.685968 225.197897 
" style="fill:none;stroke:#ff00ff;stroke-linecap:square;stroke-width:1.5;"/>
   </g>
   <g id="line2d_53">
    <defs>
     <path d="M -0 8.485281 
L 5.091169 0 
L 0 -8.485281 
L -5.091169 -0 
z
" id="mdca99b2bee" style="stroke:#ff00ff;stroke-linejoin:miter;stroke-width:1.5;"/>
    </defs>
    <g>
     <use style="fill:none;stroke:#ff00ff;stroke-linejoin:miter;stroke-width:1.5;" x="125.428325" xlink:href="#mdca99b2bee" y="281.287074"/>
     <use style="fill:none;stroke:#ff00ff;stroke-linejoin:miter;stroke-width:1.5;" x="196.795563" xlink:href="#mdca99b2bee" y="270.712885"/>
     <use style="fill:none;stroke:#ff00ff;stroke-linejoin:miter;stroke-width:1.5;" x="247.106856" xlink:href="#mdca99b2bee" y="261.977685"/>
     <use style="fill:none;stroke:#ff00ff;stroke-linejoin:miter;stroke-width:1.5;" x="322.11819" xlink:href="#mdca99b2bee" y="229.335623"/>
     <use style="fill:none;stroke:#ff00ff;stroke-linejoin:miter;stroke-width:1.5;" x="328.629653" xlink:href="#mdca99b2bee" y="225.197897"/>
     <use style="fill:none;stroke:#ff00ff;stroke-linejoin:miter;stroke-width:1.5;" x="329.685968" xlink:href="#mdca99b2bee" y="225.197897"/>
    </g>
   </g>
   <g id="line2d_54">
    <path style="fill:none;stroke:#ff00ff;stroke-linecap:square;stroke-width:1.5;"/>
    <g/>
   </g>
   <g id="line2d_55">
    <path clip-path="url(#p1621e436e3)" d="M 290.707972 250.484001 
" style="fill:none;stroke:#ff00ff;stroke-linecap:square;stroke-width:1.5;"/>
    <defs>
     <path d="M -12 12 
L 12 -12 
M -12 -12 
L 12 12 
" id="m424a2dcdb1" style="stroke:#ff00ff;stroke-width:3;"/>
    </defs>
    <g clip-path="url(#p1621e436e3)">
     <use style="fill:#ff00ff;stroke:#ff00ff;stroke-width:3;" x="290.707972" xlink:href="#m424a2dcdb1" y="250.484001"/>
    </g>
   </g>
   <g id="line2d_56">
    <defs>
     <path d="M 0 1.5 
C 0.397805 1.5 0.77937 1.341951 1.06066 1.06066 
C 1.341951 0.77937 1.5 0.397805 1.5 0 
C 1.5 -0.397805 1.341951 -0.77937 1.06066 -1.06066 
C 0.77937 -1.341951 0.397805 -1.5 0 -1.5 
C -0.397805 -1.5 -0.77937 -1.341951 -1.06066 -1.06066 
C -1.341951 -0.77937 -1.5 -0.397805 -1.5 0 
C -1.5 0.397805 -1.341951 0.77937 -1.06066 1.06066 
C -0.77937 1.341951 -0.397805 1.5 0 1.5 
z
" id="m61f57af6ca" style="stroke:#ffa500;"/>
    </defs>
    <g>
     <use style="fill:#ffa500;stroke:#ffa500;" x="184.275875" xlink:href="#m61f57af6ca" y="284.965053"/>
     <use style="fill:#ffa500;stroke:#ffa500;" x="184.275875" xlink:href="#m61f57af6ca" y="284.965053"/>
    </g>
   </g>
   <g id="line2d_57">
    <path d="M 6.128459 294.16 
L 6.128459 289.562526 
L 142.105173 289.562526 
L 142.105173 289.102779 
L 142.149084 289.102779 
L 142.149084 288.183284 
L 153.978291 288.183284 
L 153.978291 287.723537 
L 160.815609 287.723537 
L 160.815609 287.26379 
L 160.837433 287.26379 
L 160.837433 286.804042 
L 165.792048 286.804042 
L 165.792048 286.344295 
L 172.559161 286.344295 
L 172.559161 285.884548 
L 181.192188 285.884548 
L 181.192188 285.4248 
L 184.275875 285.4248 
L 184.275875 284.965053 
L 329.685968 284.965053 
" style="fill:none;stroke:#ffa500;stroke-linecap:square;stroke-width:1.5;"/>
   </g>
   <g id="line2d_58">
    <defs>
     <path d="M 0 -6 
L -1.347084 -1.854102 
L -5.706339 -1.854102 
L -2.179628 0.708204 
L -3.526712 4.854102 
L -0 2.291796 
L 3.526712 4.854102 
L 2.179628 0.708204 
L 5.706339 -1.854102 
L 1.347084 -1.854102 
z
" id="mee9d43efa0" style="stroke:#ffa500;stroke-linejoin:bevel;stroke-width:1.5;"/>
    </defs>
    <g>
     <use style="fill:none;stroke:#ffa500;stroke-linejoin:bevel;stroke-width:1.5;" x="165.792048" xlink:href="#mee9d43efa0" y="286.344295"/>
     <use style="fill:none;stroke:#ffa500;stroke-linejoin:bevel;stroke-width:1.5;" x="184.275875" xlink:href="#mee9d43efa0" y="285.4248"/>
     <use style="fill:none;stroke:#ffa500;stroke-linejoin:bevel;stroke-width:1.5;" x="184.275875" xlink:href="#mee9d43efa0" y="284.965053"/>
     <use style="fill:none;stroke:#ffa500;stroke-linejoin:bevel;stroke-width:1.5;" x="184.275875" xlink:href="#mee9d43efa0" y="284.965053"/>
     <use style="fill:none;stroke:#ffa500;stroke-linejoin:bevel;stroke-width:1.5;" x="329.685968" xlink:href="#mee9d43efa0" y="284.965053"/>
    </g>
   </g>
   <g id="line2d_59">
    <path style="fill:none;stroke:#ffa500;stroke-linecap:square;stroke-width:1.5;"/>
    <g/>
   </g>
   <g id="line2d_60">
    <path clip-path="url(#p1621e436e3)" d="M 142.209277 288.183284 
" style="fill:none;stroke:#ffa500;stroke-linecap:square;stroke-width:1.5;"/>
    <defs>
     <path d="M -12 12 
L 12 -12 
M -12 -12 
L 12 12 
" id="m9ea5cb677e" style="stroke:#ffa500;stroke-width:3;"/>
    </defs>
    <g clip-path="url(#p1621e436e3)">
     <use style="fill:#ffa500;stroke:#ffa500;stroke-width:3;" x="142.209277" xlink:href="#m9ea5cb677e" y="288.183284"/>
    </g>
   </g>
   <g id="line2d_61">
    <defs>
     <path d="M 0 1.5 
C 0.397805 1.5 0.77937 1.341951 1.06066 1.06066 
C 1.341951 0.77937 1.5 0.397805 1.5 0 
C 1.5 -0.397805 1.341951 -0.77937 1.06066 -1.06066 
C 0.77937 -1.341951 0.397805 -1.5 0 -1.5 
C -0.397805 -1.5 -0.77937 -1.341951 -1.06066 -1.06066 
C -1.341951 -0.77937 -1.5 -0.397805 -1.5 0 
C -1.5 0.397805 -1.341951 0.77937 -1.06066 1.06066 
C -0.77937 1.341951 -0.397805 1.5 0 1.5 
z
" id="mfc5e34b277" style="stroke:#6495ed;"/>
    </defs>
    <g>
     <use style="fill:#6495ed;stroke:#6495ed;" x="219.64746" xlink:href="#mfc5e34b277" y="165.430741"/>
     <use style="fill:#6495ed;stroke:#6495ed;" x="219.64746" xlink:href="#mfc5e34b277" y="165.430741"/>
    </g>
   </g>
   <g id="line2d_62">
    <path d="M 6.128459 294.16 
L 6.128459 289.102779 
L 46.719858 289.102779 
L 46.719858 288.643032 
L 95.038567 288.643032 
L 95.038567 287.723537 
L 97.120786 287.723537 
L 97.120786 287.26379 
L 97.276805 287.26379 
L 97.276805 286.804042 
L 99.39099 286.804042 
L 99.39099 286.344295 
L 101.453208 286.344295 
L 101.513773 282.206569 
L 102.282014 282.206569 
L 102.282014 281.746821 
L 104.346303 281.746821 
L 104.346303 281.287074 
L 107.761829 281.287074 
L 107.761829 280.367579 
L 109.545364 280.367579 
L 109.545364 279.907832 
L 112.69427 279.907832 
L 112.69427 279.448085 
L 113.546936 279.448085 
L 113.546936 278.988337 
L 113.694779 278.988337 
L 113.694779 278.068843 
L 114.330374 278.068843 
L 114.330374 277.149348 
L 114.527704 277.149348 
L 114.527704 275.770106 
L 115.718016 275.770106 
L 115.718016 274.850611 
L 116.434108 274.850611 
L 116.434108 274.390864 
L 117.6187 274.390864 
L 117.6187 273.931116 
L 118.349845 273.931116 
L 118.349845 273.471369 
L 120.430408 273.471369 
L 120.430408 273.011622 
L 120.743897 273.011622 
L 120.743897 271.63238 
L 121.146733 271.63238 
L 121.146733 271.172632 
L 121.79753 271.172632 
L 121.79753 270.712885 
L 123.028555 270.712885 
L 123.096267 268.873896 
L 123.163709 268.873896 
L 123.163709 267.954401 
L 124.112576 267.954401 
L 124.112576 267.494653 
L 125.131336 267.494653 
L 125.131336 267.034906 
L 127.068471 267.034906 
L 127.068471 266.575159 
L 127.928074 266.575159 
L 127.928074 266.115411 
L 129.034065 266.115411 
L 129.034065 265.655664 
L 129.282054 265.655664 
L 129.282054 264.276422 
L 129.433771 264.276422 
L 129.433771 263.816675 
L 129.698905 263.816675 
L 129.698905 262.437433 
L 130.869862 262.437433 
L 130.869862 261.977685 
L 131.539533 261.977685 
L 131.539533 261.058191 
L 131.743487 261.058191 
L 131.743487 260.138696 
L 131.924967 260.138696 
L 131.924967 259.678948 
L 132.937053 259.678948 
L 132.937053 258.759454 
L 134.09614 258.759454 
L 134.09614 258.299706 
L 134.548739 258.299706 
L 134.548739 257.380212 
L 134.787525 257.380212 
L 134.787525 255.081475 
L 135.014636 255.081475 
L 135.014636 254.621728 
L 136.812369 254.621728 
L 136.812369 254.16198 
L 137.747771 254.16198 
L 137.747771 253.702233 
L 138.182924 253.702233 
L 138.182924 252.782738 
L 138.368985 252.782738 
L 138.368985 251.863243 
L 139.145878 251.863243 
L 139.145878 250.943749 
L 139.623479 250.943749 
L 139.623479 248.645012 
L 140.192907 248.645012 
L 140.192907 248.185265 
L 140.431204 248.185265 
L 140.431204 247.26577 
L 141.665317 247.26577 
L 141.665317 245.886528 
L 142.160044 245.886528 
L 142.160044 244.967033 
L 142.582047 244.967033 
L 142.582047 244.507286 
L 143.763485 244.507286 
L 143.763485 244.047538 
L 143.887609 244.047538 
L 143.922201 243.128044 
L 144.220692 243.128044 
L 144.220692 241.748802 
L 146.109637 241.748802 
L 146.109637 241.289054 
L 146.367953 241.289054 
L 146.367953 240.829307 
L 146.559135 240.829307 
L 146.559135 239.450065 
L 147.307018 239.450065 
L 147.307018 238.990318 
L 147.591595 238.990318 
L 147.591595 238.070823 
L 148.497007 238.070823 
L 148.51207 237.151328 
L 149.212585 237.151328 
L 149.212585 236.231833 
L 150.552256 236.231833 
L 150.552256 234.392844 
L 150.957794 234.392844 
L 150.957794 233.473349 
L 151.852451 233.473349 
L 151.914142 231.63436 
L 152.47139 231.63436 
L 152.47139 230.714865 
L 153.271467 230.714865 
L 153.271467 228.875876 
L 155.444626 228.875876 
L 155.484568 225.197897 
L 155.6434 225.197897 
L 155.6434 224.278402 
L 155.854511 224.278402 
L 155.854511 223.358907 
L 156.488949 223.358907 
L 156.542908 222.439413 
L 157.134427 222.439413 
L 157.134427 221.519918 
L 158.454551 221.519918 
L 158.506775 220.600423 
L 159.694693 220.600423 
L 159.694693 220.140676 
L 160.64919 220.140676 
L 160.64919 219.680929 
L 161.760521 219.680929 
L 161.760521 218.761434 
L 163.355766 218.761434 
L 163.355766 218.301687 
L 167.327471 218.301687 
L 167.395462 215.543202 
L 167.825459 215.543202 
L 167.855502 213.704213 
L 169.56588 213.704213 
L 169.56588 213.244466 
L 169.983927 213.244466 
L 169.983927 212.324971 
L 170.104201 212.324971 
L 170.104201 211.865224 
L 170.379492 211.865224 
L 170.379492 210.945729 
L 170.885906 210.945729 
L 170.885906 210.485982 
L 171.198216 210.485982 
L 171.198216 210.026234 
L 171.68393 210.026234 
L 171.68393 209.566487 
L 171.859222 209.566487 
L 171.859222 209.10674 
L 172.098258 209.10674 
L 172.116937 208.187245 
L 172.90926 208.187245 
L 172.90926 207.26775 
L 173.872726 207.26775 
L 173.880298 205.888508 
L 176.693743 205.888508 
L 176.693743 205.428761 
L 177.055965 205.428761 
L 177.078957 204.509266 
L 177.558791 204.509266 
L 177.558791 204.049519 
L 178.542826 204.049519 
L 178.542826 203.589771 
L 178.776213 203.589771 
L 178.776213 203.130024 
L 179.043666 203.130024 
L 179.043666 202.670277 
L 179.330139 202.670277 
L 179.330139 202.210529 
L 179.843464 202.210529 
L 179.875368 201.291034 
L 180.071374 201.291034 
L 180.087703 199.452045 
L 180.582848 199.452045 
L 180.582848 198.53255 
L 181.213472 198.53255 
L 181.21838 197.613056 
L 183.348386 197.613056 
L 183.348386 197.153308 
L 183.682095 197.153308 
L 183.70094 195.774066 
L 184.374805 195.774066 
L 184.374805 195.314319 
L 184.933795 195.314319 
L 184.933795 194.854572 
L 185.47661 194.854572 
L 185.48424 193.475329 
L 186.556469 193.475329 
L 186.556469 193.015582 
L 189.135606 193.015582 
L 189.15097 192.096087 
L 189.437566 192.096087 
L 189.473429 191.176593 
L 189.568249 191.176593 
L 189.584887 189.337603 
L 191.735345 189.337603 
L 191.735345 188.877856 
L 192.265369 188.877856 
L 192.26764 187.958361 
L 192.743182 187.958361 
L 192.852949 186.579119 
L 193.112551 186.579119 
L 193.112551 186.119372 
L 193.263906 186.119372 
L 193.263906 185.659624 
L 194.475773 185.659624 
L 194.475773 185.199877 
L 195.116272 185.199877 
L 195.116272 184.74013 
L 195.314226 184.74013 
L 195.320863 183.360888 
L 195.550625 183.360888 
L 195.628774 181.521898 
L 196.065991 181.521898 
L 196.094771 180.602404 
L 197.464735 180.602404 
L 197.464735 180.142656 
L 197.740214 180.142656 
L 197.740214 179.682909 
L 197.897473 179.682909 
L 197.991051 178.763414 
L 200.057592 178.763414 
L 200.066548 177.843919 
L 200.221982 177.843919 
L 200.221982 177.384172 
L 201.847415 177.384172 
L 201.924128 176.00493 
L 202.97113 176.00493 
L 202.97113 175.545183 
L 203.263921 175.545183 
L 203.263921 175.085435 
L 203.511459 175.085435 
L 203.584787 173.706193 
L 204.547236 173.706193 
L 204.547236 173.246446 
L 205.097255 173.246446 
L 205.097255 172.786699 
L 205.217223 172.786699 
L 205.217223 172.326951 
L 206.461194 172.326951 
L 206.494055 170.947709 
L 206.593475 170.947709 
L 206.593475 170.487962 
L 207.877154 170.487962 
L 207.877154 170.028214 
L 208.933736 170.028214 
L 208.933736 169.568467 
L 209.059789 169.568467 
L 209.059789 169.10872 
L 210.178379 169.10872 
L 210.178379 168.648972 
L 212.099171 168.648972 
L 212.124223 167.729478 
L 213.927098 167.729478 
L 213.927098 167.26973 
L 216.324565 167.26973 
L 216.324565 166.809983 
L 217.941432 166.809983 
L 217.941432 166.350236 
L 218.448545 166.350236 
L 218.448545 165.890488 
L 219.64746 165.890488 
L 219.64746 165.430741 
L 329.685968 165.430741 
L 329.685968 165.430741 
" style="fill:none;stroke:#6495ed;stroke-linecap:square;stroke-width:1.5;"/>
   </g>
   <g id="line2d_63">
    <defs>
     <path d="M -0 6 
L 6 -6 
L -6 -6 
z
" id="m30fe47e5ce" style="stroke:#6495ed;stroke-linejoin:miter;stroke-width:1.5;"/>
    </defs>
    <g>
     <use style="fill:none;stroke:#6495ed;stroke-linejoin:miter;stroke-width:1.5;" x="142.582047" xlink:href="#m30fe47e5ce" y="244.507286"/>
     <use style="fill:none;stroke:#6495ed;stroke-linejoin:miter;stroke-width:1.5;" x="195.628774" xlink:href="#m30fe47e5ce" y="181.521898"/>
     <use style="fill:none;stroke:#6495ed;stroke-linejoin:miter;stroke-width:1.5;" x="219.64746" xlink:href="#m30fe47e5ce" y="165.890488"/>
     <use style="fill:none;stroke:#6495ed;stroke-linejoin:miter;stroke-width:1.5;" x="219.64746" xlink:href="#m30fe47e5ce" y="165.430741"/>
     <use style="fill:none;stroke:#6495ed;stroke-linejoin:miter;stroke-width:1.5;" x="329.685968" xlink:href="#m30fe47e5ce" y="165.430741"/>
    </g>
   </g>
   <g id="line2d_64">
    <path style="fill:none;stroke:#6495ed;stroke-linecap:square;stroke-width:1.5;"/>
    <g/>
   </g>
   <g id="line2d_65">
    <path clip-path="url(#p1621e436e3)" d="M 163.516325 218.301687 
" style="fill:none;stroke:#6495ed;stroke-linecap:square;stroke-width:1.5;"/>
    <defs>
     <path d="M -12 12 
L 12 -12 
M -12 -12 
L 12 12 
" id="m4b4cc00384" style="stroke:#6495ed;stroke-width:3;"/>
    </defs>
    <g clip-path="url(#p1621e436e3)">
     <use style="fill:#6495ed;stroke:#6495ed;stroke-width:3;" x="163.516325" xlink:href="#m4b4cc00384" y="218.301687"/>
    </g>
   </g>
   <g id="line2d_66">
    <path d="M 329.685968 284.965053 
L 359.699024 288.826931 
" style="fill:none;stroke:#ffa500;stroke-linecap:square;stroke-width:1.5;"/>
    <g>
     <use style="fill:none;stroke:#ffa500;stroke-linejoin:bevel;stroke-width:1.5;" x="329.685968" xlink:href="#mee9d43efa0" y="284.965053"/>
     <use style="fill:none;stroke:#ffa500;stroke-linejoin:bevel;stroke-width:1.5;" x="359.699024" xlink:href="#mee9d43efa0" y="288.826931"/>
    </g>
   </g>
   <g id="line2d_67">
    <path d="M 329.685968 225.197897 
L 359.699024 224.830099 
" style="fill:none;stroke:#ff00ff;stroke-linecap:square;stroke-width:1.5;"/>
    <g>
     <use style="fill:none;stroke:#ff00ff;stroke-linejoin:miter;stroke-width:1.5;" x="329.685968" xlink:href="#mdca99b2bee" y="225.197897"/>
     <use style="fill:none;stroke:#ff00ff;stroke-linejoin:miter;stroke-width:1.5;" x="359.699024" xlink:href="#mdca99b2bee" y="224.830099"/>
    </g>
   </g>
   <g id="line2d_68">
    <path d="M 329.685968 165.430741 
L 359.699024 160.833267 
" style="fill:none;stroke:#6495ed;stroke-linecap:square;stroke-width:1.5;"/>
    <g>
     <use style="fill:none;stroke:#6495ed;stroke-linejoin:miter;stroke-width:1.5;" x="329.685968" xlink:href="#m30fe47e5ce" y="165.430741"/>
     <use style="fill:none;stroke:#6495ed;stroke-linejoin:miter;stroke-width:1.5;" x="359.699024" xlink:href="#m30fe47e5ce" y="160.833267"/>
    </g>
   </g>
   <g id="line2d_69">
    <path d="M 329.685968 128.650953 
L 359.699024 96.836436 
" style="fill:none;stroke:#000080;stroke-linecap:square;stroke-width:1.5;"/>
    <g>
     <use style="fill:none;stroke:#000080;stroke-width:1.5;" x="329.685968" xlink:href="#m86bd3371a3" y="128.650953"/>
     <use style="fill:none;stroke:#000080;stroke-width:1.5;" x="359.699024" xlink:href="#m86bd3371a3" y="96.836436"/>
    </g>
   </g>
   <g id="line2d_70">
    <path d="M 329.685968 294.16 
L 329.685968 27.506535 
" style="fill:none;stroke:#000000;stroke-linecap:square;stroke-width:1.5;"/>
   </g>
   <g id="patch_3">
    <path d="M 56.84 294.16 
L 56.84 24.84 
" style="fill:none;stroke:#000000;stroke-linecap:square;stroke-linejoin:miter;stroke-width:0.8;"/>
   </g>
   <g id="patch_4">
    <path d="M 395.169 294.16 
L 395.169 24.84 
" style="fill:none;stroke:#000000;stroke-linecap:square;stroke-linejoin:miter;stroke-width:0.8;"/>
   </g>
   <g id="patch_5">
    <path d="M 56.84 294.16 
L 395.169 294.16 
" style="fill:none;stroke:#000000;stroke-linecap:square;stroke-linejoin:miter;stroke-width:0.8;"/>
   </g>
   <g id="patch_6">
    <path d="M 56.84 24.84 
L 395.169 24.84 
" style="fill:none;stroke:#000000;stroke-linecap:square;stroke-linejoin:miter;stroke-width:0.8;"/>
   </g>
   <g id="text_14">
    <!-- adaptiveH -->
    <defs>
     <path d="M 9.8125 72.90625 
L 19.671875 72.90625 
L 19.671875 43.015625 
L 55.515625 43.015625 
L 55.515625 72.90625 
L 65.375 72.90625 
L 65.375 0 
L 55.515625 0 
L 55.515625 34.71875 
L 19.671875 34.71875 
L 19.671875 0 
L 9.8125 0 
z
" id="DejaVuSans-48"/>
    </defs>
    <g transform="translate(365.155944 293.517868)scale(0.17 -0.17)">
     <use xlink:href="#DejaVuSans-61"/>
     <use x="61.279297" xlink:href="#DejaVuSans-64"/>
     <use x="124.755859" xlink:href="#DejaVuSans-61"/>
     <use x="186.035156" xlink:href="#DejaVuSans-70"/>
     <use x="249.511719" xlink:href="#DejaVuSans-74"/>
     <use x="288.720703" xlink:href="#DejaVuSans-69"/>
     <use x="316.503906" xlink:href="#DejaVuSans-76"/>
     <use x="375.683594" xlink:href="#DejaVuSans-65"/>
     <use x="437.207031" xlink:href="#DejaVuSans-48"/>
    </g>
   </g>
   <g id="text_15">
    <!-- RANDOMSEA -->
    <defs>
     <path d="M 44.390625 34.1875 
Q 47.5625 33.109375 50.5625 29.59375 
Q 53.5625 26.078125 56.59375 19.921875 
L 66.609375 0 
L 56 0 
L 46.6875 18.703125 
Q 43.0625 26.03125 39.671875 28.421875 
Q 36.28125 30.8125 30.421875 30.8125 
L 19.671875 30.8125 
L 19.671875 0 
L 9.8125 0 
L 9.8125 72.90625 
L 32.078125 72.90625 
Q 44.578125 72.90625 50.734375 67.671875 
Q 56.890625 62.453125 56.890625 51.90625 
Q 56.890625 45.015625 53.6875 40.46875 
Q 50.484375 35.9375 44.390625 34.1875 
M 19.671875 64.796875 
L 19.671875 38.921875 
L 32.078125 38.921875 
Q 39.203125 38.921875 42.84375 42.21875 
Q 46.484375 45.515625 46.484375 51.90625 
Q 46.484375 58.296875 42.84375 61.546875 
Q 39.203125 64.796875 32.078125 64.796875 
z
" id="DejaVuSans-52"/>
     <path d="M 34.1875 63.1875 
L 20.796875 26.90625 
L 47.609375 26.90625 
z
M 28.609375 72.90625 
L 39.796875 72.90625 
L 67.578125 0 
L 57.328125 0 
L 50.6875 18.703125 
L 17.828125 18.703125 
L 11.1875 0 
L 0.78125 0 
z
" id="DejaVuSans-41"/>
     <path d="M 9.8125 72.90625 
L 23.09375 72.90625 
L 55.421875 11.921875 
L 55.421875 72.90625 
L 64.984375 72.90625 
L 64.984375 0 
L 51.703125 0 
L 19.390625 60.984375 
L 19.390625 0 
L 9.8125 0 
z
" id="DejaVuSans-4e"/>
     <path d="M 19.671875 64.796875 
L 19.671875 8.109375 
L 31.59375 8.109375 
Q 46.6875 8.109375 53.6875 14.9375 
Q 60.6875 21.78125 60.6875 36.53125 
Q 60.6875 51.171875 53.6875 57.984375 
Q 46.6875 64.796875 31.59375 64.796875 
z
M 9.8125 72.90625 
L 30.078125 72.90625 
Q 51.265625 72.90625 61.171875 64.09375 
Q 71.09375 55.28125 71.09375 36.53125 
Q 71.09375 17.671875 61.125 8.828125 
Q 51.171875 0 30.078125 0 
L 9.8125 0 
z
" id="DejaVuSans-44"/>
     <path d="M 39.40625 66.21875 
Q 28.65625 66.21875 22.328125 58.203125 
Q 16.015625 50.203125 16.015625 36.375 
Q 16.015625 22.609375 22.328125 14.59375 
Q 28.65625 6.59375 39.40625 6.59375 
Q 50.140625 6.59375 56.421875 14.59375 
Q 62.703125 22.609375 62.703125 36.375 
Q 62.703125 50.203125 56.421875 58.203125 
Q 50.140625 66.21875 39.40625 66.21875 
M 39.40625 74.21875 
Q 54.734375 74.21875 63.90625 63.9375 
Q 73.09375 53.65625 73.09375 36.375 
Q 73.09375 19.140625 63.90625 8.859375 
Q 54.734375 -1.421875 39.40625 -1.421875 
Q 24.03125 -1.421875 14.8125 8.828125 
Q 5.609375 19.09375 5.609375 36.375 
Q 5.609375 53.65625 14.8125 63.9375 
Q 24.03125 74.21875 39.40625 74.21875 
" id="DejaVuSans-4f"/>
     <path d="M 9.8125 72.90625 
L 24.515625 72.90625 
L 43.109375 23.296875 
L 61.8125 72.90625 
L 76.515625 72.90625 
L 76.515625 0 
L 66.890625 0 
L 66.890625 64.015625 
L 48.09375 14.015625 
L 38.1875 14.015625 
L 19.390625 64.015625 
L 19.390625 0 
L 9.8125 0 
z
" id="DejaVuSans-4d"/>
     <path d="M 53.515625 70.515625 
L 53.515625 60.890625 
Q 47.90625 63.578125 42.921875 64.890625 
Q 37.9375 66.21875 33.296875 66.21875 
Q 25.25 66.21875 20.875 63.09375 
Q 16.5 59.96875 16.5 54.203125 
Q 16.5 49.359375 19.40625 46.890625 
Q 22.3125 44.4375 30.421875 42.921875 
L 36.375 41.703125 
Q 47.40625 39.59375 52.65625 34.296875 
Q 57.90625 29 57.90625 20.125 
Q 57.90625 9.515625 50.796875 4.046875 
Q 43.703125 -1.421875 29.984375 -1.421875 
Q 24.8125 -1.421875 18.96875 -0.25 
Q 13.140625 0.921875 6.890625 3.21875 
L 6.890625 13.375 
Q 12.890625 10.015625 18.65625 8.296875 
Q 24.421875 6.59375 29.984375 6.59375 
Q 38.421875 6.59375 43.015625 9.90625 
Q 47.609375 13.234375 47.609375 19.390625 
Q 47.609375 24.75 44.3125 27.78125 
Q 41.015625 30.8125 33.5 32.328125 
L 27.484375 33.5 
Q 16.453125 35.6875 11.515625 40.375 
Q 6.59375 45.0625 6.59375 53.421875 
Q 6.59375 63.09375 13.40625 68.65625 
Q 20.21875 74.21875 32.171875 74.21875 
Q 37.3125 74.21875 42.625 73.28125 
Q 47.953125 72.359375 53.515625 70.515625 
" id="DejaVuSans-53"/>
     <path d="M 9.8125 72.90625 
L 55.90625 72.90625 
L 55.90625 64.59375 
L 19.671875 64.59375 
L 19.671875 43.015625 
L 54.390625 43.015625 
L 54.390625 34.71875 
L 19.671875 34.71875 
L 19.671875 8.296875 
L 56.78125 8.296875 
L 56.78125 0 
L 9.8125 0 
z
" id="DejaVuSans-45"/>
    </defs>
    <g transform="translate(365.155944 229.521037)scale(0.17 -0.17)">
     <use xlink:href="#DejaVuSans-52"/>
     <use x="69.419922" xlink:href="#DejaVuSans-41"/>
     <use x="137.828125" xlink:href="#DejaVuSans-4e"/>
     <use x="212.632812" xlink:href="#DejaVuSans-44"/>
     <use x="289.634766" xlink:href="#DejaVuSans-4f"/>
     <use x="368.345703" xlink:href="#DejaVuSans-4d"/>
     <use x="454.625" xlink:href="#DejaVuSans-53"/>
     <use x="518.101562" xlink:href="#DejaVuSans-45"/>
     <use x="581.285156" xlink:href="#DejaVuSans-41"/>
    </g>
   </g>
   <g id="text_16">
    <!-- final  bu -->
    <defs>
     <path d="M 48.6875 27.296875 
Q 48.6875 37.203125 44.609375 42.84375 
Q 40.53125 48.484375 33.40625 48.484375 
Q 26.265625 48.484375 22.1875 42.84375 
Q 18.109375 37.203125 18.109375 27.296875 
Q 18.109375 17.390625 22.1875 11.75 
Q 26.265625 6.109375 33.40625 6.109375 
Q 40.53125 6.109375 44.609375 11.75 
Q 48.6875 17.390625 48.6875 27.296875 
M 18.109375 46.390625 
Q 20.953125 51.265625 25.265625 53.625 
Q 29.59375 56 35.59375 56 
Q 45.5625 56 51.78125 48.09375 
Q 58.015625 40.1875 58.015625 27.296875 
Q 58.015625 14.40625 51.78125 6.484375 
Q 45.5625 -1.421875 35.59375 -1.421875 
Q 29.59375 -1.421875 25.265625 0.953125 
Q 20.953125 3.328125 18.109375 8.203125 
L 18.109375 0 
L 9.078125 0 
L 9.078125 75.984375 
L 18.109375 75.984375 
z
" id="DejaVuSans-62"/>
    </defs>
    <g transform="translate(365.155944 165.524205)scale(0.17 -0.17)">
     <use xlink:href="#DejaVuSans-66"/>
     <use x="35.205078" xlink:href="#DejaVuSans-69"/>
     <use x="62.988281" xlink:href="#DejaVuSans-6e"/>
     <use x="126.367188" xlink:href="#DejaVuSans-61"/>
     <use x="187.646484" xlink:href="#DejaVuSans-6c"/>
     <use x="215.429688" xlink:href="#DejaVuSans-20"/>
     <use x="247.216797" xlink:href="#DejaVuSans-20"/>
     <use x="279.003906" xlink:href="#DejaVuSans-62"/>
     <use x="342.480469" xlink:href="#DejaVuSans-75"/>
    </g>
   </g>
   <g id="text_17">
    <!-- NSGA-II-M -->
    <defs>
     <path d="M 59.515625 10.40625 
L 59.515625 29.984375 
L 43.40625 29.984375 
L 43.40625 38.09375 
L 69.28125 38.09375 
L 69.28125 6.78125 
Q 63.578125 2.734375 56.6875 0.65625 
Q 49.8125 -1.421875 42 -1.421875 
Q 24.90625 -1.421875 15.25 8.5625 
Q 5.609375 18.5625 5.609375 36.375 
Q 5.609375 54.25 15.25 64.234375 
Q 24.90625 74.21875 42 74.21875 
Q 49.125 74.21875 55.546875 72.453125 
Q 61.96875 70.703125 67.390625 67.28125 
L 67.390625 56.78125 
Q 61.921875 61.421875 55.765625 63.765625 
Q 49.609375 66.109375 42.828125 66.109375 
Q 29.4375 66.109375 22.71875 58.640625 
Q 16.015625 51.171875 16.015625 36.375 
Q 16.015625 21.625 22.71875 14.15625 
Q 29.4375 6.6875 42.828125 6.6875 
Q 48.046875 6.6875 52.140625 7.59375 
Q 56.25 8.5 59.515625 10.40625 
" id="DejaVuSans-47"/>
     <path d="M 9.8125 72.90625 
L 19.671875 72.90625 
L 19.671875 0 
L 9.8125 0 
z
" id="DejaVuSans-49"/>
    </defs>
    <g transform="translate(365.155944 101.527373)scale(0.17 -0.17)">
     <use xlink:href="#DejaVuSans-4e"/>
     <use x="74.804688" xlink:href="#DejaVuSans-53"/>
     <use x="138.28125" xlink:href="#DejaVuSans-47"/>
     <use x="215.771484" xlink:href="#DejaVuSans-41"/>
     <use x="284.148438" xlink:href="#DejaVuSans-2d"/>
     <use x="320.232422" xlink:href="#DejaVuSans-49"/>
     <use x="349.724609" xlink:href="#DejaVuSans-49"/>
     <use x="379.216797" xlink:href="#DejaVuSans-2d"/>
     <use x="415.300781" xlink:href="#DejaVuSans-4d"/>
    </g>
   </g>
   <g id="text_18">
    <!-- best 2016 -->
    <g transform="translate(365.155944 37.530541)scale(0.17 -0.17)">
     <use xlink:href="#DejaVuSans-62"/>
     <use x="63.476562" xlink:href="#DejaVuSans-65"/>
     <use x="125" xlink:href="#DejaVuSans-73"/>
     <use x="177.099609" xlink:href="#DejaVuSans-74"/>
     <use x="216.308594" xlink:href="#DejaVuSans-20"/>
     <use x="248.095703" xlink:href="#DejaVuSans-32"/>
     <use x="311.71875" xlink:href="#DejaVuSans-30"/>
     <use x="375.341797" xlink:href="#DejaVuSans-31"/>
     <use x="438.964844" xlink:href="#DejaVuSans-36"/>
    </g>
   </g>
   <g id="text_19">
    <!-- bbob-biobj f20, 20-D -->
    <defs>
     <path d="M 9.421875 54.6875 
L 18.40625 54.6875 
L 18.40625 -0.984375 
Q 18.40625 -11.421875 14.421875 -16.109375 
Q 10.453125 -20.796875 1.609375 -20.796875 
L -1.8125 -20.796875 
L -1.8125 -13.1875 
L 0.59375 -13.1875 
Q 5.71875 -13.1875 7.5625 -10.8125 
Q 9.421875 -8.453125 9.421875 -0.984375 
z
M 9.421875 75.984375 
L 18.40625 75.984375 
L 18.40625 64.59375 
L 9.421875 64.59375 
z
" id="DejaVuSans-6a"/>
    </defs>
    <g transform="translate(60.22329 35.283606)scale(0.102 -0.102)">
     <use xlink:href="#DejaVuSans-62"/>
     <use x="63.476562" xlink:href="#DejaVuSans-62"/>
     <use x="126.953125" xlink:href="#DejaVuSans-6f"/>
     <use x="188.134766" xlink:href="#DejaVuSans-62"/>
     <use x="251.611328" xlink:href="#DejaVuSans-2d"/>
     <use x="287.695312" xlink:href="#DejaVuSans-62"/>
     <use x="351.171875" xlink:href="#DejaVuSans-69"/>
     <use x="378.955078" xlink:href="#DejaVuSans-6f"/>
     <use x="440.136719" xlink:href="#DejaVuSans-62"/>
     <use x="503.613281" xlink:href="#DejaVuSans-6a"/>
     <use x="531.396484" xlink:href="#DejaVuSans-20"/>
     <use x="563.183594" xlink:href="#DejaVuSans-66"/>
     <use x="598.388672" xlink:href="#DejaVuSans-32"/>
     <use x="662.011719" xlink:href="#DejaVuSans-30"/>
     <use x="725.634766" xlink:href="#DejaVuSans-2c"/>
     <use x="757.421875" xlink:href="#DejaVuSans-20"/>
     <use x="789.208984" xlink:href="#DejaVuSans-32"/>
     <use x="852.832031" xlink:href="#DejaVuSans-30"/>
     <use x="916.455078" xlink:href="#DejaVuSans-2d"/>
     <use x="952.539062" xlink:href="#DejaVuSans-44"/>
    </g>
    <!-- 58 targets: 1..-1.0e-4 -->
    <defs>
     <path d="M 10.796875 72.90625 
L 49.515625 72.90625 
L 49.515625 64.59375 
L 19.828125 64.59375 
L 19.828125 46.734375 
Q 21.96875 47.46875 24.109375 47.828125 
Q 26.265625 48.1875 28.421875 48.1875 
Q 40.625 48.1875 47.75 41.5 
Q 54.890625 34.8125 54.890625 23.390625 
Q 54.890625 11.625 47.5625 5.09375 
Q 40.234375 -1.421875 26.90625 -1.421875 
Q 22.3125 -1.421875 17.546875 -0.640625 
Q 12.796875 0.140625 7.71875 1.703125 
L 7.71875 11.625 
Q 12.109375 9.234375 16.796875 8.0625 
Q 21.484375 6.890625 26.703125 6.890625 
Q 35.15625 6.890625 40.078125 11.328125 
Q 45.015625 15.765625 45.015625 23.390625 
Q 45.015625 31 40.078125 35.4375 
Q 35.15625 39.890625 26.703125 39.890625 
Q 22.75 39.890625 18.8125 39.015625 
Q 14.890625 38.140625 10.796875 36.28125 
z
" id="DejaVuSans-35"/>
     <path d="M 11.71875 12.40625 
L 22.015625 12.40625 
L 22.015625 0 
L 11.71875 0 
z
M 11.71875 51.703125 
L 22.015625 51.703125 
L 22.015625 39.3125 
L 11.71875 39.3125 
z
" id="DejaVuSans-3a"/>
    </defs>
    <g transform="translate(60.22329 46.705375)scale(0.102 -0.102)">
     <use xlink:href="#DejaVuSans-35"/>
     <use x="63.623047" xlink:href="#DejaVuSans-38"/>
     <use x="127.246094" xlink:href="#DejaVuSans-20"/>
     <use x="159.033203" xlink:href="#DejaVuSans-74"/>
     <use x="198.242188" xlink:href="#DejaVuSans-61"/>
     <use x="259.521484" xlink:href="#DejaVuSans-72"/>
     <use x="300.619141" xlink:href="#DejaVuSans-67"/>
     <use x="364.095703" xlink:href="#DejaVuSans-65"/>
     <use x="425.619141" xlink:href="#DejaVuSans-74"/>
     <use x="464.828125" xlink:href="#DejaVuSans-73"/>
     <use x="516.927734" xlink:href="#DejaVuSans-3a"/>
     <use x="550.619141" xlink:href="#DejaVuSans-20"/>
     <use x="582.40625" xlink:href="#DejaVuSans-31"/>
     <use x="646.029297" xlink:href="#DejaVuSans-2e"/>
     <use x="677.816406" xlink:href="#DejaVuSans-2e"/>
     <use x="709.603516" xlink:href="#DejaVuSans-2d"/>
     <use x="745.6875" xlink:href="#DejaVuSans-31"/>
     <use x="809.310547" xlink:href="#DejaVuSans-2e"/>
     <use x="841.097656" xlink:href="#DejaVuSans-30"/>
     <use x="904.720703" xlink:href="#DejaVuSans-65"/>
     <use x="966.244141" xlink:href="#DejaVuSans-2d"/>
     <use x="1002.328125" xlink:href="#DejaVuSans-34"/>
    </g>
    <!-- 10 instances -->
    <g transform="translate(60.22329 58.127144)scale(0.102 -0.102)">
     <use xlink:href="#DejaVuSans-31"/>
     <use x="63.623047" xlink:href="#DejaVuSans-30"/>
     <use x="127.246094" xlink:href="#DejaVuSans-20"/>
     <use x="159.033203" xlink:href="#DejaVuSans-69"/>
     <use x="186.816406" xlink:href="#DejaVuSans-6e"/>
     <use x="250.195312" xlink:href="#DejaVuSans-73"/>
     <use x="302.294922" xlink:href="#DejaVuSans-74"/>
     <use x="341.503906" xlink:href="#DejaVuSans-61"/>
     <use x="402.783203" xlink:href="#DejaVuSans-6e"/>
     <use x="466.162109" xlink:href="#DejaVuSans-63"/>
     <use x="521.142578" xlink:href="#DejaVuSans-65"/>
     <use x="582.666016" xlink:href="#DejaVuSans-73"/>
    </g>
   </g>
   <g id="text_20">
    <!-- v2.2.1.10, hv-hash=ff0e71e8cd978373 -->
    <defs>
     <path d="M 54.890625 33.015625 
L 54.890625 0 
L 45.90625 0 
L 45.90625 32.71875 
Q 45.90625 40.484375 42.875 44.328125 
Q 39.84375 48.1875 33.796875 48.1875 
Q 26.515625 48.1875 22.3125 43.546875 
Q 18.109375 38.921875 18.109375 30.90625 
L 18.109375 0 
L 9.078125 0 
L 9.078125 75.984375 
L 18.109375 75.984375 
L 18.109375 46.1875 
Q 21.34375 51.125 25.703125 53.5625 
Q 30.078125 56 35.796875 56 
Q 45.21875 56 50.046875 50.171875 
Q 54.890625 44.34375 54.890625 33.015625 
" id="DejaVuSans-68"/>
     <path d="M 10.59375 45.40625 
L 73.1875 45.40625 
L 73.1875 37.203125 
L 10.59375 37.203125 
z
M 10.59375 25.484375 
L 73.1875 25.484375 
L 73.1875 17.1875 
L 10.59375 17.1875 
z
" id="DejaVuSans-3d"/>
     <path d="M 8.203125 72.90625 
L 55.078125 72.90625 
L 55.078125 68.703125 
L 28.609375 0 
L 18.3125 0 
L 43.21875 64.59375 
L 8.203125 64.59375 
z
" id="DejaVuSans-37"/>
     <path d="M 10.984375 1.515625 
L 10.984375 10.5 
Q 14.703125 8.734375 18.5 7.8125 
Q 22.3125 6.890625 25.984375 6.890625 
Q 35.75 6.890625 40.890625 13.453125 
Q 46.046875 20.015625 46.78125 33.40625 
Q 43.953125 29.203125 39.59375 26.953125 
Q 35.25 24.703125 29.984375 24.703125 
Q 19.046875 24.703125 12.671875 31.3125 
Q 6.296875 37.9375 6.296875 49.421875 
Q 6.296875 60.640625 12.9375 67.421875 
Q 19.578125 74.21875 30.609375 74.21875 
Q 43.265625 74.21875 49.921875 64.515625 
Q 56.59375 54.828125 56.59375 36.375 
Q 56.59375 19.140625 48.40625 8.859375 
Q 40.234375 -1.421875 26.421875 -1.421875 
Q 22.703125 -1.421875 18.890625 -0.6875 
Q 15.09375 0.046875 10.984375 1.515625 
M 30.609375 32.421875 
Q 37.25 32.421875 41.125 36.953125 
Q 45.015625 41.5 45.015625 49.421875 
Q 45.015625 57.28125 41.125 61.84375 
Q 37.25 66.40625 30.609375 66.40625 
Q 23.96875 66.40625 20.09375 61.84375 
Q 16.21875 57.28125 16.21875 49.421875 
Q 16.21875 41.5 20.09375 36.953125 
Q 23.96875 32.421875 30.609375 32.421875 
" id="DejaVuSans-39"/>
     <path d="M 40.578125 39.3125 
Q 47.65625 37.796875 51.625 33 
Q 55.609375 28.21875 55.609375 21.1875 
Q 55.609375 10.40625 48.1875 4.484375 
Q 40.765625 -1.421875 27.09375 -1.421875 
Q 22.515625 -1.421875 17.65625 -0.515625 
Q 12.796875 0.390625 7.625 2.203125 
L 7.625 11.71875 
Q 11.71875 9.328125 16.59375 8.109375 
Q 21.484375 6.890625 26.8125 6.890625 
Q 36.078125 6.890625 40.9375 10.546875 
Q 45.796875 14.203125 45.796875 21.1875 
Q 45.796875 27.640625 41.28125 31.265625 
Q 36.765625 34.90625 28.71875 34.90625 
L 20.21875 34.90625 
L 20.21875 43.015625 
L 29.109375 43.015625 
Q 36.375 43.015625 40.234375 45.921875 
Q 44.09375 48.828125 44.09375 54.296875 
Q 44.09375 59.90625 40.109375 62.90625 
Q 36.140625 65.921875 28.71875 65.921875 
Q 24.65625 65.921875 20.015625 65.03125 
Q 15.375 64.15625 9.8125 62.3125 
L 9.8125 71.09375 
Q 15.4375 72.65625 20.34375 73.4375 
Q 25.25 74.21875 29.59375 74.21875 
Q 40.828125 74.21875 47.359375 69.109375 
Q 53.90625 64.015625 53.90625 55.328125 
Q 53.90625 49.265625 50.4375 45.09375 
Q 46.96875 40.921875 40.578125 39.3125 
" id="DejaVuSans-33"/>
    </defs>
    <g style="fill:#808080;" transform="translate(127.657625 289.387113)scale(0.1 -0.1)">
     <use xlink:href="#DejaVuSans-76"/>
     <use x="59.179688" xlink:href="#DejaVuSans-32"/>
     <use x="122.802734" xlink:href="#DejaVuSans-2e"/>
     <use x="154.589844" xlink:href="#DejaVuSans-32"/>
     <use x="218.212891" xlink:href="#DejaVuSans-2e"/>
     <use x="250" xlink:href="#DejaVuSans-31"/>
     <use x="313.623047" xlink:href="#DejaVuSans-2e"/>
     <use x="345.410156" xlink:href="#DejaVuSans-31"/>
     <use x="409.033203" xlink:href="#DejaVuSans-30"/>
     <use x="472.65625" xlink:href="#DejaVuSans-2c"/>
     <use x="504.443359" xlink:href="#DejaVuSans-20"/>
     <use x="536.230469" xlink:href="#DejaVuSans-68"/>
     <use x="599.609375" xlink:href="#DejaVuSans-76"/>
     <use x="658.757812" xlink:href="#DejaVuSans-2d"/>
     <use x="694.841797" xlink:href="#DejaVuSans-68"/>
     <use x="758.220703" xlink:href="#DejaVuSans-61"/>
     <use x="819.5" xlink:href="#DejaVuSans-73"/>
     <use x="871.599609" xlink:href="#DejaVuSans-68"/>
     <use x="934.978516" xlink:href="#DejaVuSans-3d"/>
     <use x="1018.767578" xlink:href="#DejaVuSans-66"/>
     <use x="1053.972656" xlink:href="#DejaVuSans-66"/>
     <use x="1089.177734" xlink:href="#DejaVuSans-30"/>
     <use x="1152.800781" xlink:href="#DejaVuSans-65"/>
     <use x="1214.324219" xlink:href="#DejaVuSans-37"/>
     <use x="1277.947266" xlink:href="#DejaVuSans-31"/>
     <use x="1341.570312" xlink:href="#DejaVuSans-65"/>
     <use x="1403.09375" xlink:href="#DejaVuSans-38"/>
     <use x="1466.716797" xlink:href="#DejaVuSans-63"/>
     <use x="1521.697266" xlink:href="#DejaVuSans-64"/>
     <use x="1585.173828" xlink:href="#DejaVuSans-39"/>
     <use x="1648.796875" xlink:href="#DejaVuSans-37"/>
     <use x="1712.419922" xlink:href="#DejaVuSans-38"/>
     <use x="1776.042969" xlink:href="#DejaVuSans-33"/>
     <use x="1839.666016" xlink:href="#DejaVuSans-37"/>
     <use x="1903.289062" xlink:href="#DejaVuSans-33"/>
    </g>
   </g>
   <g id="text_21">
    <!-- 20 Attractive sector/Attractive sector -->
    <g transform="translate(39.9795 18.84)scale(0.2 -0.2)">
     <use xlink:href="#DejaVuSans-32"/>
     <use x="63.623047" xlink:href="#DejaVuSans-30"/>
     <use x="127.246094" xlink:href="#DejaVuSans-20"/>
     <use x="159.033203" xlink:href="#DejaVuSans-41"/>
     <use x="227.425781" xlink:href="#DejaVuSans-74"/>
     <use x="266.634766" xlink:href="#DejaVuSans-74"/>
     <use x="305.84375" xlink:href="#DejaVuSans-72"/>
     <use x="346.957031" xlink:href="#DejaVuSans-61"/>
     <use x="408.236328" xlink:href="#DejaVuSans-63"/>
     <use x="463.216797" xlink:href="#DejaVuSans-74"/>
     <use x="502.425781" xlink:href="#DejaVuSans-69"/>
     <use x="530.208984" xlink:href="#DejaVuSans-76"/>
     <use x="589.388672" xlink:href="#DejaVuSans-65"/>
     <use x="650.912109" xlink:href="#DejaVuSans-20"/>
     <use x="682.699219" xlink:href="#DejaVuSans-73"/>
     <use x="734.798828" xlink:href="#DejaVuSans-65"/>
     <use x="796.322266" xlink:href="#DejaVuSans-63"/>
     <use x="851.302734" xlink:href="#DejaVuSans-74"/>
     <use x="890.511719" xlink:href="#DejaVuSans-6f"/>
     <use x="951.693359" xlink:href="#DejaVuSans-72"/>
     <use x="992.806641" xlink:href="#DejaVuSans-2f"/>
     <use x="1026.498047" xlink:href="#DejaVuSans-41"/>
     <use x="1094.890625" xlink:href="#DejaVuSans-74"/>
     <use x="1134.099609" xlink:href="#DejaVuSans-74"/>
     <use x="1173.308594" xlink:href="#DejaVuSans-72"/>
     <use x="1214.421875" xlink:href="#DejaVuSans-61"/>
     <use x="1275.701172" xlink:href="#DejaVuSans-63"/>
     <use x="1330.681641" xlink:href="#DejaVuSans-74"/>
     <use x="1369.890625" xlink:href="#DejaVuSans-69"/>
     <use x="1397.673828" xlink:href="#DejaVuSans-76"/>
     <use x="1456.853516" xlink:href="#DejaVuSans-65"/>
     <use x="1518.376953" xlink:href="#DejaVuSans-20"/>
     <use x="1550.164062" xlink:href="#DejaVuSans-73"/>
     <use x="1602.263672" xlink:href="#DejaVuSans-65"/>
     <use x="1663.787109" xlink:href="#DejaVuSans-63"/>
     <use x="1718.767578" xlink:href="#DejaVuSans-74"/>
     <use x="1757.976562" xlink:href="#DejaVuSans-6f"/>
     <use x="1819.158203" xlink:href="#DejaVuSans-72"/>
    </g>
   </g>
  </g>
 </g>
 <defs>
  <clipPath id="p1621e436e3">
   <rect height="269.32" width="338.329" x="56.84" y="24.84"/>
  </clipPath>
 </defs>
</svg>
