<?xml version="1.0" encoding="utf-8" standalone="no"?>
<!DOCTYPE svg PUBLIC "-//W3C//DTD SVG 1.1//EN"
  "http://www.w3.org/Graphics/SVG/1.1/DTD/svg11.dtd">
<!-- Created with matplotlib (http://matplotlib.org/) -->
<svg height="345pt" version="1.1" viewBox="0 0 460 345" width="460pt" xmlns="http://www.w3.org/2000/svg" xmlns:xlink="http://www.w3.org/1999/xlink">
 <defs>
  <style type="text/css">
*{stroke-linecap:butt;stroke-linejoin:round;}
  </style>
 </defs>
 <g id="figure_1">
  <g id="patch_1">
   <path d="M 0 345.6 
L 460.8 345.6 
L 460.8 0 
L 0 0 
z
" style="fill:#ffffff;"/>
  </g>
  <g id="axes_1">
   <g id="patch_2">
    <path d="M 56.84 294.16 
L 399.984 294.16 
L 399.984 24.84 
L 56.84 24.84 
z
" style="fill:#ffffff;"/>
   </g>
   <g id="line2d_1">
    <path d="M 68.740534 294.16 
L 68.740534 289.562526 
L 92.541603 289.562526 
L 92.541603 280.367579 
L 100.43124 280.367579 
L 100.43124 271.172632 
L 111.640318 271.172632 
L 111.640318 266.575159 
L 141.641349 266.575159 
L 141.641349 252.782738 
L 154.748251 252.782738 
L 154.748251 243.587791 
L 162.23002 243.587791 
L 162.23002 238.990318 
L 173.488771 238.990318 
L 173.488771 229.79537 
L 178.376574 229.79537 
L 178.376574 216.00295 
L 182.739511 216.00295 
L 182.739511 206.808003 
L 192.525019 206.808003 
L 192.525019 197.613056 
L 205.176778 197.613056 
L 205.176778 188.418109 
L 209.507972 188.418109 
L 209.507972 183.820635 
L 212.324096 183.820635 
L 212.324096 170.028214 
L 214.93937 170.028214 
L 214.93937 165.430741 
L 215.835777 165.430741 
L 215.835777 151.63832 
L 216.570784 151.63832 
L 216.570784 142.443373 
L 217.913151 142.443373 
L 217.913151 137.8459 
L 219.736624 137.8459 
L 219.736624 124.053479 
L 223.047446 124.053479 
L 223.047446 119.456005 
L 226.198837 119.456005 
L 226.198837 105.663585 
L 230.557237 105.663585 
L 230.557237 96.468638 
L 236.18016 96.468638 
L 236.18016 87.273691 
L 244.071497 87.273691 
L 244.071497 82.676217 
L 248.908649 82.676217 
L 248.908649 73.48127 
L 252.904125 73.48127 
L 252.904125 59.688849 
L 333.569032 59.688849 
" style="fill:none;stroke:#f5deb3;stroke-linecap:square;stroke-width:6;"/>
   </g>
   <g id="line2d_2">
    <defs>
     <path d="M -0 7.778175 
L 7.778175 0 
L 0 -7.778175 
L -7.778175 -0 
z
" id="m8ea15eda0b" style="stroke:#f5deb3;stroke-linejoin:miter;stroke-width:1.5;"/>
    </defs>
    <g>
     <use style="fill:#f5deb3;stroke:#f5deb3;stroke-linejoin:miter;stroke-width:1.5;" x="154.748251" xlink:href="#m8ea15eda0b" y="252.782738"/>
     <use style="fill:#f5deb3;stroke:#f5deb3;stroke-linejoin:miter;stroke-width:1.5;" x="219.736624" xlink:href="#m8ea15eda0b" y="137.8459"/>
     <use style="fill:#f5deb3;stroke:#f5deb3;stroke-linejoin:miter;stroke-width:1.5;" x="252.904125" xlink:href="#m8ea15eda0b" y="73.48127"/>
     <use style="fill:#f5deb3;stroke:#f5deb3;stroke-linejoin:miter;stroke-width:1.5;" x="252.904125" xlink:href="#m8ea15eda0b" y="59.688849"/>
     <use style="fill:#f5deb3;stroke:#f5deb3;stroke-linejoin:miter;stroke-width:1.5;" x="333.569032" xlink:href="#m8ea15eda0b" y="59.688849"/>
    </g>
   </g>
   <g id="line2d_3">
    <path style="fill:none;stroke:#f5deb3;stroke-linecap:square;stroke-width:6;"/>
    <g/>
   </g>
   <g id="line2d_4">
    <path d="M 333.569032 59.688849 
L 364.009226 32.839604 
" style="fill:none;stroke:#f5deb3;stroke-linecap:square;stroke-width:6;"/>
    <g>
     <use style="fill:#f5deb3;stroke:#f5deb3;stroke-linejoin:miter;stroke-width:1.5;" x="333.569032" xlink:href="#m8ea15eda0b" y="59.688849"/>
     <use style="fill:#f5deb3;stroke:#f5deb3;stroke-linejoin:miter;stroke-width:1.5;" x="364.009226" xlink:href="#m8ea15eda0b" y="32.839604"/>
    </g>
   </g>
   <g id="matplotlib.axis_1">
    <g id="xtick_1">
     <g id="line2d_5">
      <path clip-path="url(#p8980583e62)" d="M 56.84 294.16 
L 56.84 24.84 
" style="fill:none;stroke:#b0b0b0;stroke-linecap:square;stroke-width:0.8;"/>
     </g>
     <g id="line2d_6">
      <defs>
       <path d="M 0 0 
L 0 3.5 
" id="m606ecf4c00" style="stroke:#000000;stroke-width:0.8;"/>
      </defs>
      <g>
       <use style="stroke:#000000;stroke-width:0.8;" x="56.84" xlink:href="#m606ecf4c00" y="294.16"/>
      </g>
     </g>
     <g id="text_1">
      <!-- 0 -->
      <defs>
       <path d="M 31.78125 66.40625 
Q 24.171875 66.40625 20.328125 58.90625 
Q 16.5 51.421875 16.5 36.375 
Q 16.5 21.390625 20.328125 13.890625 
Q 24.171875 6.390625 31.78125 6.390625 
Q 39.453125 6.390625 43.28125 13.890625 
Q 47.125 21.390625 47.125 36.375 
Q 47.125 51.421875 43.28125 58.90625 
Q 39.453125 66.40625 31.78125 66.40625 
M 31.78125 74.21875 
Q 44.046875 74.21875 50.515625 64.515625 
Q 56.984375 54.828125 56.984375 36.375 
Q 56.984375 17.96875 50.515625 8.265625 
Q 44.046875 -1.421875 31.78125 -1.421875 
Q 19.53125 -1.421875 13.0625 8.265625 
Q 6.59375 17.96875 6.59375 36.375 
Q 6.59375 54.828125 13.0625 64.515625 
Q 19.53125 74.21875 31.78125 74.21875 
" id="DejaVuSans-30"/>
      </defs>
      <g transform="translate(50.4775 316.356875)scale(0.2 -0.2)">
       <use xlink:href="#DejaVuSans-30"/>
      </g>
     </g>
    </g>
    <g id="xtick_2">
     <g id="line2d_7">
      <path clip-path="url(#p8980583e62)" d="M 135.905438 294.16 
L 135.905438 24.84 
" style="fill:none;stroke:#b0b0b0;stroke-linecap:square;stroke-width:0.8;"/>
     </g>
     <g id="line2d_8">
      <g>
       <use style="stroke:#000000;stroke-width:0.8;" x="135.905438" xlink:href="#m606ecf4c00" y="294.16"/>
      </g>
     </g>
     <g id="text_2">
      <!-- 2 -->
      <defs>
       <path d="M 19.1875 8.296875 
L 53.609375 8.296875 
L 53.609375 0 
L 7.328125 0 
L 7.328125 8.296875 
Q 12.9375 14.109375 22.625 23.890625 
Q 32.328125 33.6875 34.8125 36.53125 
Q 39.546875 41.84375 41.421875 45.53125 
Q 43.3125 49.21875 43.3125 52.78125 
Q 43.3125 58.59375 39.234375 62.25 
Q 35.15625 65.921875 28.609375 65.921875 
Q 23.96875 65.921875 18.8125 64.3125 
Q 13.671875 62.703125 7.8125 59.421875 
L 7.8125 69.390625 
Q 13.765625 71.78125 18.9375 73 
Q 24.125 74.21875 28.421875 74.21875 
Q 39.75 74.21875 46.484375 68.546875 
Q 53.21875 62.890625 53.21875 53.421875 
Q 53.21875 48.921875 51.53125 44.890625 
Q 49.859375 40.875 45.40625 35.40625 
Q 44.1875 33.984375 37.640625 27.21875 
Q 31.109375 20.453125 19.1875 8.296875 
" id="DejaVuSans-32"/>
      </defs>
      <g transform="translate(129.542938 316.356875)scale(0.2 -0.2)">
       <use xlink:href="#DejaVuSans-32"/>
      </g>
     </g>
    </g>
    <g id="xtick_3">
     <g id="line2d_9">
      <path clip-path="url(#p8980583e62)" d="M 214.970876 294.16 
L 214.970876 24.84 
" style="fill:none;stroke:#b0b0b0;stroke-linecap:square;stroke-width:0.8;"/>
     </g>
     <g id="line2d_10">
      <g>
       <use style="stroke:#000000;stroke-width:0.8;" x="214.970876" xlink:href="#m606ecf4c00" y="294.16"/>
      </g>
     </g>
     <g id="text_3">
      <!-- 4 -->
      <defs>
       <path d="M 37.796875 64.3125 
L 12.890625 25.390625 
L 37.796875 25.390625 
z
M 35.203125 72.90625 
L 47.609375 72.90625 
L 47.609375 25.390625 
L 58.015625 25.390625 
L 58.015625 17.1875 
L 47.609375 17.1875 
L 47.609375 0 
L 37.796875 0 
L 37.796875 17.1875 
L 4.890625 17.1875 
L 4.890625 26.703125 
z
" id="DejaVuSans-34"/>
      </defs>
      <g transform="translate(208.608376 316.356875)scale(0.2 -0.2)">
       <use xlink:href="#DejaVuSans-34"/>
      </g>
     </g>
    </g>
    <g id="xtick_4">
     <g id="line2d_11">
      <path clip-path="url(#p8980583e62)" d="M 294.036313 294.16 
L 294.036313 24.84 
" style="fill:none;stroke:#b0b0b0;stroke-linecap:square;stroke-width:0.8;"/>
     </g>
     <g id="line2d_12">
      <g>
       <use style="stroke:#000000;stroke-width:0.8;" x="294.036313" xlink:href="#m606ecf4c00" y="294.16"/>
      </g>
     </g>
     <g id="text_4">
      <!-- 6 -->
      <defs>
       <path d="M 33.015625 40.375 
Q 26.375 40.375 22.484375 35.828125 
Q 18.609375 31.296875 18.609375 23.390625 
Q 18.609375 15.53125 22.484375 10.953125 
Q 26.375 6.390625 33.015625 6.390625 
Q 39.65625 6.390625 43.53125 10.953125 
Q 47.40625 15.53125 47.40625 23.390625 
Q 47.40625 31.296875 43.53125 35.828125 
Q 39.65625 40.375 33.015625 40.375 
M 52.59375 71.296875 
L 52.59375 62.3125 
Q 48.875 64.0625 45.09375 64.984375 
Q 41.3125 65.921875 37.59375 65.921875 
Q 27.828125 65.921875 22.671875 59.328125 
Q 17.53125 52.734375 16.796875 39.40625 
Q 19.671875 43.65625 24.015625 45.921875 
Q 28.375 48.1875 33.59375 48.1875 
Q 44.578125 48.1875 50.953125 41.515625 
Q 57.328125 34.859375 57.328125 23.390625 
Q 57.328125 12.15625 50.6875 5.359375 
Q 44.046875 -1.421875 33.015625 -1.421875 
Q 20.359375 -1.421875 13.671875 8.265625 
Q 6.984375 17.96875 6.984375 36.375 
Q 6.984375 53.65625 15.1875 63.9375 
Q 23.390625 74.21875 37.203125 74.21875 
Q 40.921875 74.21875 44.703125 73.484375 
Q 48.484375 72.75 52.59375 71.296875 
" id="DejaVuSans-36"/>
      </defs>
      <g transform="translate(287.673813 316.356875)scale(0.2 -0.2)">
       <use xlink:href="#DejaVuSans-36"/>
      </g>
     </g>
    </g>
    <g id="xtick_5">
     <g id="line2d_13">
      <path clip-path="url(#p8980583e62)" d="M 373.101751 294.16 
L 373.101751 24.84 
" style="fill:none;stroke:#b0b0b0;stroke-linecap:square;stroke-width:0.8;"/>
     </g>
     <g id="line2d_14">
      <g>
       <use style="stroke:#000000;stroke-width:0.8;" x="373.101751" xlink:href="#m606ecf4c00" y="294.16"/>
      </g>
     </g>
     <g id="text_5">
      <!-- 8 -->
      <defs>
       <path d="M 31.78125 34.625 
Q 24.75 34.625 20.71875 30.859375 
Q 16.703125 27.09375 16.703125 20.515625 
Q 16.703125 13.921875 20.71875 10.15625 
Q 24.75 6.390625 31.78125 6.390625 
Q 38.8125 6.390625 42.859375 10.171875 
Q 46.921875 13.96875 46.921875 20.515625 
Q 46.921875 27.09375 42.890625 30.859375 
Q 38.875 34.625 31.78125 34.625 
M 21.921875 38.8125 
Q 15.578125 40.375 12.03125 44.71875 
Q 8.5 49.078125 8.5 55.328125 
Q 8.5 64.0625 14.71875 69.140625 
Q 20.953125 74.21875 31.78125 74.21875 
Q 42.671875 74.21875 48.875 69.140625 
Q 55.078125 64.0625 55.078125 55.328125 
Q 55.078125 49.078125 51.53125 44.71875 
Q 48 40.375 41.703125 38.8125 
Q 48.828125 37.15625 52.796875 32.3125 
Q 56.78125 27.484375 56.78125 20.515625 
Q 56.78125 9.90625 50.3125 4.234375 
Q 43.84375 -1.421875 31.78125 -1.421875 
Q 19.734375 -1.421875 13.25 4.234375 
Q 6.78125 9.90625 6.78125 20.515625 
Q 6.78125 27.484375 10.78125 32.3125 
Q 14.796875 37.15625 21.921875 38.8125 
M 18.3125 54.390625 
Q 18.3125 48.734375 21.84375 45.5625 
Q 25.390625 42.390625 31.78125 42.390625 
Q 38.140625 42.390625 41.71875 45.5625 
Q 45.3125 48.734375 45.3125 54.390625 
Q 45.3125 60.0625 41.71875 63.234375 
Q 38.140625 66.40625 31.78125 66.40625 
Q 25.390625 66.40625 21.84375 63.234375 
Q 18.3125 60.0625 18.3125 54.390625 
" id="DejaVuSans-38"/>
      </defs>
      <g transform="translate(366.739251 316.356875)scale(0.2 -0.2)">
       <use xlink:href="#DejaVuSans-38"/>
      </g>
     </g>
    </g>
    <g id="xtick_6">
     <g id="line2d_15">
      <defs>
       <path d="M 0 0 
L 0 2 
" id="m7255f3656e" style="stroke:#000000;stroke-width:0.6;"/>
      </defs>
      <g>
       <use style="stroke:#000000;stroke-width:0.6;" x="68.740534" xlink:href="#m7255f3656e" y="294.16"/>
      </g>
     </g>
    </g>
    <g id="xtick_7">
     <g id="line2d_16">
      <g>
       <use style="stroke:#000000;stroke-width:0.6;" x="80.641068" xlink:href="#m7255f3656e" y="294.16"/>
      </g>
     </g>
    </g>
    <g id="xtick_8">
     <g id="line2d_17">
      <g>
       <use style="stroke:#000000;stroke-width:0.6;" x="87.602435" xlink:href="#m7255f3656e" y="294.16"/>
      </g>
     </g>
    </g>
    <g id="xtick_9">
     <g id="line2d_18">
      <g>
       <use style="stroke:#000000;stroke-width:0.6;" x="92.541603" xlink:href="#m7255f3656e" y="294.16"/>
      </g>
     </g>
    </g>
    <g id="xtick_10">
     <g id="line2d_19">
      <g>
       <use style="stroke:#000000;stroke-width:0.6;" x="147.805972" xlink:href="#m7255f3656e" y="294.16"/>
      </g>
     </g>
    </g>
    <g id="xtick_11">
     <g id="line2d_20">
      <g>
       <use style="stroke:#000000;stroke-width:0.6;" x="159.706506" xlink:href="#m7255f3656e" y="294.16"/>
      </g>
     </g>
    </g>
    <g id="xtick_12">
     <g id="line2d_21">
      <g>
       <use style="stroke:#000000;stroke-width:0.6;" x="166.667872" xlink:href="#m7255f3656e" y="294.16"/>
      </g>
     </g>
    </g>
    <g id="xtick_13">
     <g id="line2d_22">
      <g>
       <use style="stroke:#000000;stroke-width:0.6;" x="171.60704" xlink:href="#m7255f3656e" y="294.16"/>
      </g>
     </g>
    </g>
    <g id="xtick_14">
     <g id="line2d_23">
      <g>
       <use style="stroke:#000000;stroke-width:0.6;" x="226.87141" xlink:href="#m7255f3656e" y="294.16"/>
      </g>
     </g>
    </g>
    <g id="xtick_15">
     <g id="line2d_24">
      <g>
       <use style="stroke:#000000;stroke-width:0.6;" x="238.771944" xlink:href="#m7255f3656e" y="294.16"/>
      </g>
     </g>
    </g>
    <g id="xtick_16">
     <g id="line2d_25">
      <g>
       <use style="stroke:#000000;stroke-width:0.6;" x="245.73331" xlink:href="#m7255f3656e" y="294.16"/>
      </g>
     </g>
    </g>
    <g id="xtick_17">
     <g id="line2d_26">
      <g>
       <use style="stroke:#000000;stroke-width:0.6;" x="250.672478" xlink:href="#m7255f3656e" y="294.16"/>
      </g>
     </g>
    </g>
    <g id="xtick_18">
     <g id="line2d_27">
      <g>
       <use style="stroke:#000000;stroke-width:0.6;" x="305.936848" xlink:href="#m7255f3656e" y="294.16"/>
      </g>
     </g>
    </g>
    <g id="xtick_19">
     <g id="line2d_28">
      <g>
       <use style="stroke:#000000;stroke-width:0.6;" x="317.837382" xlink:href="#m7255f3656e" y="294.16"/>
      </g>
     </g>
    </g>
    <g id="xtick_20">
     <g id="line2d_29">
      <g>
       <use style="stroke:#000000;stroke-width:0.6;" x="324.798748" xlink:href="#m7255f3656e" y="294.16"/>
      </g>
     </g>
    </g>
    <g id="xtick_21">
     <g id="line2d_30">
      <g>
       <use style="stroke:#000000;stroke-width:0.6;" x="329.737916" xlink:href="#m7255f3656e" y="294.16"/>
      </g>
     </g>
    </g>
    <g id="xtick_22">
     <g id="line2d_31">
      <g>
       <use style="stroke:#000000;stroke-width:0.6;" x="385.002285" xlink:href="#m7255f3656e" y="294.16"/>
      </g>
     </g>
    </g>
    <g id="xtick_23">
     <g id="line2d_32">
      <g>
       <use style="stroke:#000000;stroke-width:0.6;" x="396.90282" xlink:href="#m7255f3656e" y="294.16"/>
      </g>
     </g>
    </g>
    <g id="text_6">
     <!-- log10(# f-evals / dimension) -->
     <defs>
      <path d="M 9.421875 75.984375 
L 18.40625 75.984375 
L 18.40625 0 
L 9.421875 0 
z
" id="DejaVuSans-6c"/>
      <path d="M 30.609375 48.390625 
Q 23.390625 48.390625 19.1875 42.75 
Q 14.984375 37.109375 14.984375 27.296875 
Q 14.984375 17.484375 19.15625 11.84375 
Q 23.34375 6.203125 30.609375 6.203125 
Q 37.796875 6.203125 41.984375 11.859375 
Q 46.1875 17.53125 46.1875 27.296875 
Q 46.1875 37.015625 41.984375 42.703125 
Q 37.796875 48.390625 30.609375 48.390625 
M 30.609375 56 
Q 42.328125 56 49.015625 48.375 
Q 55.71875 40.765625 55.71875 27.296875 
Q 55.71875 13.875 49.015625 6.21875 
Q 42.328125 -1.421875 30.609375 -1.421875 
Q 18.84375 -1.421875 12.171875 6.21875 
Q 5.515625 13.875 5.515625 27.296875 
Q 5.515625 40.765625 12.171875 48.375 
Q 18.84375 56 30.609375 56 
" id="DejaVuSans-6f"/>
      <path d="M 45.40625 27.984375 
Q 45.40625 37.75 41.375 43.109375 
Q 37.359375 48.484375 30.078125 48.484375 
Q 22.859375 48.484375 18.828125 43.109375 
Q 14.796875 37.75 14.796875 27.984375 
Q 14.796875 18.265625 18.828125 12.890625 
Q 22.859375 7.515625 30.078125 7.515625 
Q 37.359375 7.515625 41.375 12.890625 
Q 45.40625 18.265625 45.40625 27.984375 
M 54.390625 6.78125 
Q 54.390625 -7.171875 48.1875 -13.984375 
Q 42 -20.796875 29.203125 -20.796875 
Q 24.46875 -20.796875 20.265625 -20.09375 
Q 16.0625 -19.390625 12.109375 -17.921875 
L 12.109375 -9.1875 
Q 16.0625 -11.328125 19.921875 -12.34375 
Q 23.78125 -13.375 27.78125 -13.375 
Q 36.625 -13.375 41.015625 -8.765625 
Q 45.40625 -4.15625 45.40625 5.171875 
L 45.40625 9.625 
Q 42.625 4.78125 38.28125 2.390625 
Q 33.9375 0 27.875 0 
Q 17.828125 0 11.671875 7.65625 
Q 5.515625 15.328125 5.515625 27.984375 
Q 5.515625 40.671875 11.671875 48.328125 
Q 17.828125 56 27.875 56 
Q 33.9375 56 38.28125 53.609375 
Q 42.625 51.21875 45.40625 46.390625 
L 45.40625 54.6875 
L 54.390625 54.6875 
z
" id="DejaVuSans-67"/>
      <path d="M 12.40625 8.296875 
L 28.515625 8.296875 
L 28.515625 63.921875 
L 10.984375 60.40625 
L 10.984375 69.390625 
L 28.421875 72.90625 
L 38.28125 72.90625 
L 38.28125 8.296875 
L 54.390625 8.296875 
L 54.390625 0 
L 12.40625 0 
z
" id="DejaVuSans-31"/>
      <path d="M 31 75.875 
Q 24.46875 64.65625 21.28125 53.65625 
Q 18.109375 42.671875 18.109375 31.390625 
Q 18.109375 20.125 21.3125 9.0625 
Q 24.515625 -2 31 -13.1875 
L 23.1875 -13.1875 
Q 15.875 -1.703125 12.234375 9.375 
Q 8.59375 20.453125 8.59375 31.390625 
Q 8.59375 42.28125 12.203125 53.3125 
Q 15.828125 64.359375 23.1875 75.875 
z
" id="DejaVuSans-28"/>
      <path d="M 51.125 44 
L 36.921875 44 
L 32.8125 27.6875 
L 47.125 27.6875 
z
M 43.796875 71.78125 
L 38.71875 51.515625 
L 52.984375 51.515625 
L 58.109375 71.78125 
L 65.921875 71.78125 
L 60.890625 51.515625 
L 76.125 51.515625 
L 76.125 44 
L 58.984375 44 
L 54.984375 27.6875 
L 70.515625 27.6875 
L 70.515625 20.21875 
L 53.078125 20.21875 
L 48 0 
L 40.1875 0 
L 45.21875 20.21875 
L 30.90625 20.21875 
L 25.875 0 
L 18.015625 0 
L 23.09375 20.21875 
L 7.71875 20.21875 
L 7.71875 27.6875 
L 24.90625 27.6875 
L 29 44 
L 13.28125 44 
L 13.28125 51.515625 
L 30.90625 51.515625 
L 35.890625 71.78125 
z
" id="DejaVuSans-23"/>
      <path id="DejaVuSans-20"/>
      <path d="M 37.109375 75.984375 
L 37.109375 68.5 
L 28.515625 68.5 
Q 23.6875 68.5 21.796875 66.546875 
Q 19.921875 64.59375 19.921875 59.515625 
L 19.921875 54.6875 
L 34.71875 54.6875 
L 34.71875 47.703125 
L 19.921875 47.703125 
L 19.921875 0 
L 10.890625 0 
L 10.890625 47.703125 
L 2.296875 47.703125 
L 2.296875 54.6875 
L 10.890625 54.6875 
L 10.890625 58.5 
Q 10.890625 67.625 15.140625 71.796875 
Q 19.390625 75.984375 28.609375 75.984375 
z
" id="DejaVuSans-66"/>
      <path d="M 4.890625 31.390625 
L 31.203125 31.390625 
L 31.203125 23.390625 
L 4.890625 23.390625 
z
" id="DejaVuSans-2d"/>
      <path d="M 56.203125 29.59375 
L 56.203125 25.203125 
L 14.890625 25.203125 
Q 15.484375 15.921875 20.484375 11.0625 
Q 25.484375 6.203125 34.421875 6.203125 
Q 39.59375 6.203125 44.453125 7.46875 
Q 49.3125 8.734375 54.109375 11.28125 
L 54.109375 2.78125 
Q 49.265625 0.734375 44.1875 -0.34375 
Q 39.109375 -1.421875 33.890625 -1.421875 
Q 20.796875 -1.421875 13.15625 6.1875 
Q 5.515625 13.8125 5.515625 26.8125 
Q 5.515625 40.234375 12.765625 48.109375 
Q 20.015625 56 32.328125 56 
Q 43.359375 56 49.78125 48.890625 
Q 56.203125 41.796875 56.203125 29.59375 
M 47.21875 32.234375 
Q 47.125 39.59375 43.09375 43.984375 
Q 39.0625 48.390625 32.421875 48.390625 
Q 24.90625 48.390625 20.390625 44.140625 
Q 15.875 39.890625 15.1875 32.171875 
z
" id="DejaVuSans-65"/>
      <path d="M 2.984375 54.6875 
L 12.5 54.6875 
L 29.59375 8.796875 
L 46.6875 54.6875 
L 56.203125 54.6875 
L 35.6875 0 
L 23.484375 0 
z
" id="DejaVuSans-76"/>
      <path d="M 34.28125 27.484375 
Q 23.390625 27.484375 19.1875 25 
Q 14.984375 22.515625 14.984375 16.5 
Q 14.984375 11.71875 18.140625 8.90625 
Q 21.296875 6.109375 26.703125 6.109375 
Q 34.1875 6.109375 38.703125 11.40625 
Q 43.21875 16.703125 43.21875 25.484375 
L 43.21875 27.484375 
z
M 52.203125 31.203125 
L 52.203125 0 
L 43.21875 0 
L 43.21875 8.296875 
Q 40.140625 3.328125 35.546875 0.953125 
Q 30.953125 -1.421875 24.3125 -1.421875 
Q 15.921875 -1.421875 10.953125 3.296875 
Q 6 8.015625 6 15.921875 
Q 6 25.140625 12.171875 29.828125 
Q 18.359375 34.515625 30.609375 34.515625 
L 43.21875 34.515625 
L 43.21875 35.40625 
Q 43.21875 41.609375 39.140625 45 
Q 35.0625 48.390625 27.6875 48.390625 
Q 23 48.390625 18.546875 47.265625 
Q 14.109375 46.140625 10.015625 43.890625 
L 10.015625 52.203125 
Q 14.9375 54.109375 19.578125 55.046875 
Q 24.21875 56 28.609375 56 
Q 40.484375 56 46.34375 49.84375 
Q 52.203125 43.703125 52.203125 31.203125 
" id="DejaVuSans-61"/>
      <path d="M 44.28125 53.078125 
L 44.28125 44.578125 
Q 40.484375 46.53125 36.375 47.5 
Q 32.28125 48.484375 27.875 48.484375 
Q 21.1875 48.484375 17.84375 46.4375 
Q 14.5 44.390625 14.5 40.28125 
Q 14.5 37.15625 16.890625 35.375 
Q 19.28125 33.59375 26.515625 31.984375 
L 29.59375 31.296875 
Q 39.15625 29.25 43.1875 25.515625 
Q 47.21875 21.78125 47.21875 15.09375 
Q 47.21875 7.46875 41.1875 3.015625 
Q 35.15625 -1.421875 24.609375 -1.421875 
Q 20.21875 -1.421875 15.453125 -0.5625 
Q 10.6875 0.296875 5.421875 2 
L 5.421875 11.28125 
Q 10.40625 8.6875 15.234375 7.390625 
Q 20.0625 6.109375 24.8125 6.109375 
Q 31.15625 6.109375 34.5625 8.28125 
Q 37.984375 10.453125 37.984375 14.40625 
Q 37.984375 18.0625 35.515625 20.015625 
Q 33.0625 21.96875 24.703125 23.78125 
L 21.578125 24.515625 
Q 13.234375 26.265625 9.515625 29.90625 
Q 5.8125 33.546875 5.8125 39.890625 
Q 5.8125 47.609375 11.28125 51.796875 
Q 16.75 56 26.8125 56 
Q 31.78125 56 36.171875 55.265625 
Q 40.578125 54.546875 44.28125 53.078125 
" id="DejaVuSans-73"/>
      <path d="M 25.390625 72.90625 
L 33.6875 72.90625 
L 8.296875 -9.28125 
L 0 -9.28125 
z
" id="DejaVuSans-2f"/>
      <path d="M 45.40625 46.390625 
L 45.40625 75.984375 
L 54.390625 75.984375 
L 54.390625 0 
L 45.40625 0 
L 45.40625 8.203125 
Q 42.578125 3.328125 38.25 0.953125 
Q 33.9375 -1.421875 27.875 -1.421875 
Q 17.96875 -1.421875 11.734375 6.484375 
Q 5.515625 14.40625 5.515625 27.296875 
Q 5.515625 40.1875 11.734375 48.09375 
Q 17.96875 56 27.875 56 
Q 33.9375 56 38.25 53.625 
Q 42.578125 51.265625 45.40625 46.390625 
M 14.796875 27.296875 
Q 14.796875 17.390625 18.875 11.75 
Q 22.953125 6.109375 30.078125 6.109375 
Q 37.203125 6.109375 41.296875 11.75 
Q 45.40625 17.390625 45.40625 27.296875 
Q 45.40625 37.203125 41.296875 42.84375 
Q 37.203125 48.484375 30.078125 48.484375 
Q 22.953125 48.484375 18.875 42.84375 
Q 14.796875 37.203125 14.796875 27.296875 
" id="DejaVuSans-64"/>
      <path d="M 9.421875 54.6875 
L 18.40625 54.6875 
L 18.40625 0 
L 9.421875 0 
z
M 9.421875 75.984375 
L 18.40625 75.984375 
L 18.40625 64.59375 
L 9.421875 64.59375 
z
" id="DejaVuSans-69"/>
      <path d="M 52 44.1875 
Q 55.375 50.25 60.0625 53.125 
Q 64.75 56 71.09375 56 
Q 79.640625 56 84.28125 50.015625 
Q 88.921875 44.046875 88.921875 33.015625 
L 88.921875 0 
L 79.890625 0 
L 79.890625 32.71875 
Q 79.890625 40.578125 77.09375 44.375 
Q 74.3125 48.1875 68.609375 48.1875 
Q 61.625 48.1875 57.5625 43.546875 
Q 53.515625 38.921875 53.515625 30.90625 
L 53.515625 0 
L 44.484375 0 
L 44.484375 32.71875 
Q 44.484375 40.625 41.703125 44.40625 
Q 38.921875 48.1875 33.109375 48.1875 
Q 26.21875 48.1875 22.15625 43.53125 
Q 18.109375 38.875 18.109375 30.90625 
L 18.109375 0 
L 9.078125 0 
L 9.078125 54.6875 
L 18.109375 54.6875 
L 18.109375 46.1875 
Q 21.1875 51.21875 25.484375 53.609375 
Q 29.78125 56 35.6875 56 
Q 41.65625 56 45.828125 52.96875 
Q 50 49.953125 52 44.1875 
" id="DejaVuSans-6d"/>
      <path d="M 54.890625 33.015625 
L 54.890625 0 
L 45.90625 0 
L 45.90625 32.71875 
Q 45.90625 40.484375 42.875 44.328125 
Q 39.84375 48.1875 33.796875 48.1875 
Q 26.515625 48.1875 22.3125 43.546875 
Q 18.109375 38.921875 18.109375 30.90625 
L 18.109375 0 
L 9.078125 0 
L 9.078125 54.6875 
L 18.109375 54.6875 
L 18.109375 46.1875 
Q 21.34375 51.125 25.703125 53.5625 
Q 30.078125 56 35.796875 56 
Q 45.21875 56 50.046875 50.171875 
Q 54.890625 44.34375 54.890625 33.015625 
" id="DejaVuSans-6e"/>
      <path d="M 8.015625 75.875 
L 15.828125 75.875 
Q 23.140625 64.359375 26.78125 53.3125 
Q 30.421875 42.28125 30.421875 31.390625 
Q 30.421875 20.453125 26.78125 9.375 
Q 23.140625 -1.703125 15.828125 -13.1875 
L 8.015625 -13.1875 
Q 14.5 -2 17.703125 9.0625 
Q 20.90625 20.125 20.90625 31.390625 
Q 20.90625 42.671875 17.703125 53.65625 
Q 14.5 64.65625 8.015625 75.875 
" id="DejaVuSans-29"/>
     </defs>
     <g transform="translate(107.571219 337.433594)scale(0.17 -0.17)">
      <use xlink:href="#DejaVuSans-6c"/>
      <use x="27.783203" xlink:href="#DejaVuSans-6f"/>
      <use x="88.964844" xlink:href="#DejaVuSans-67"/>
      <use x="152.441406" xlink:href="#DejaVuSans-31"/>
      <use x="216.064453" xlink:href="#DejaVuSans-30"/>
      <use x="279.6875" xlink:href="#DejaVuSans-28"/>
      <use x="318.701172" xlink:href="#DejaVuSans-23"/>
      <use x="402.490234" xlink:href="#DejaVuSans-20"/>
      <use x="434.277344" xlink:href="#DejaVuSans-66"/>
      <use x="469.404297" xlink:href="#DejaVuSans-2d"/>
      <use x="505.488281" xlink:href="#DejaVuSans-65"/>
      <use x="567.011719" xlink:href="#DejaVuSans-76"/>
      <use x="626.191406" xlink:href="#DejaVuSans-61"/>
      <use x="687.470703" xlink:href="#DejaVuSans-6c"/>
      <use x="715.253906" xlink:href="#DejaVuSans-73"/>
      <use x="767.353516" xlink:href="#DejaVuSans-20"/>
      <use x="799.140625" xlink:href="#DejaVuSans-2f"/>
      <use x="832.832031" xlink:href="#DejaVuSans-20"/>
      <use x="864.619141" xlink:href="#DejaVuSans-64"/>
      <use x="928.095703" xlink:href="#DejaVuSans-69"/>
      <use x="955.878906" xlink:href="#DejaVuSans-6d"/>
      <use x="1053.291016" xlink:href="#DejaVuSans-65"/>
      <use x="1114.814453" xlink:href="#DejaVuSans-6e"/>
      <use x="1178.193359" xlink:href="#DejaVuSans-73"/>
      <use x="1230.292969" xlink:href="#DejaVuSans-69"/>
      <use x="1258.076172" xlink:href="#DejaVuSans-6f"/>
      <use x="1319.257812" xlink:href="#DejaVuSans-6e"/>
      <use x="1382.636719" xlink:href="#DejaVuSans-29"/>
     </g>
    </g>
   </g>
   <g id="matplotlib.axis_2">
    <g id="ytick_1">
     <g id="line2d_33">
      <path clip-path="url(#p8980583e62)" d="M 56.84 294.16 
L 399.984 294.16 
" style="fill:none;stroke:#b0b0b0;stroke-linecap:square;stroke-width:0.8;"/>
     </g>
     <g id="line2d_34">
      <defs>
       <path d="M 0 0 
L -3.5 0 
" id="mb68db0ab81" style="stroke:#000000;stroke-width:0.8;"/>
      </defs>
      <g>
       <use style="stroke:#000000;stroke-width:0.8;" x="56.84" xlink:href="#mb68db0ab81" y="294.16"/>
      </g>
     </g>
     <g id="text_7">
      <!-- 0.0 -->
      <defs>
       <path d="M 10.6875 12.40625 
L 21 12.40625 
L 21 0 
L 10.6875 0 
z
" id="DejaVuSans-2e"/>
      </defs>
      <g transform="translate(24.395 300.23875)scale(0.16 -0.16)">
       <use xlink:href="#DejaVuSans-30"/>
       <use x="63.623047" xlink:href="#DejaVuSans-2e"/>
       <use x="95.410156" xlink:href="#DejaVuSans-30"/>
      </g>
     </g>
    </g>
    <g id="ytick_2">
     <g id="line2d_35">
      <path clip-path="url(#p8980583e62)" d="M 56.84 240.829307 
L 399.984 240.829307 
" style="fill:none;stroke:#b0b0b0;stroke-linecap:square;stroke-width:0.8;"/>
     </g>
     <g id="line2d_36">
      <g>
       <use style="stroke:#000000;stroke-width:0.8;" x="56.84" xlink:href="#mb68db0ab81" y="240.829307"/>
      </g>
     </g>
     <g id="text_8">
      <!-- 0.2 -->
      <g transform="translate(24.395 246.908057)scale(0.16 -0.16)">
       <use xlink:href="#DejaVuSans-30"/>
       <use x="63.623047" xlink:href="#DejaVuSans-2e"/>
       <use x="95.410156" xlink:href="#DejaVuSans-32"/>
      </g>
     </g>
    </g>
    <g id="ytick_3">
     <g id="line2d_37">
      <path clip-path="url(#p8980583e62)" d="M 56.84 187.498614 
L 399.984 187.498614 
" style="fill:none;stroke:#b0b0b0;stroke-linecap:square;stroke-width:0.8;"/>
     </g>
     <g id="line2d_38">
      <g>
       <use style="stroke:#000000;stroke-width:0.8;" x="56.84" xlink:href="#mb68db0ab81" y="187.498614"/>
      </g>
     </g>
     <g id="text_9">
      <!-- 0.4 -->
      <g transform="translate(24.395 193.577364)scale(0.16 -0.16)">
       <use xlink:href="#DejaVuSans-30"/>
       <use x="63.623047" xlink:href="#DejaVuSans-2e"/>
       <use x="95.410156" xlink:href="#DejaVuSans-34"/>
      </g>
     </g>
    </g>
    <g id="ytick_4">
     <g id="line2d_39">
      <path clip-path="url(#p8980583e62)" d="M 56.84 134.167921 
L 399.984 134.167921 
" style="fill:none;stroke:#b0b0b0;stroke-linecap:square;stroke-width:0.8;"/>
     </g>
     <g id="line2d_40">
      <g>
       <use style="stroke:#000000;stroke-width:0.8;" x="56.84" xlink:href="#mb68db0ab81" y="134.167921"/>
      </g>
     </g>
     <g id="text_10">
      <!-- 0.6 -->
      <g transform="translate(24.395 140.246671)scale(0.16 -0.16)">
       <use xlink:href="#DejaVuSans-30"/>
       <use x="63.623047" xlink:href="#DejaVuSans-2e"/>
       <use x="95.410156" xlink:href="#DejaVuSans-36"/>
      </g>
     </g>
    </g>
    <g id="ytick_5">
     <g id="line2d_41">
      <path clip-path="url(#p8980583e62)" d="M 56.84 80.837228 
L 399.984 80.837228 
" style="fill:none;stroke:#b0b0b0;stroke-linecap:square;stroke-width:0.8;"/>
     </g>
     <g id="line2d_42">
      <g>
       <use style="stroke:#000000;stroke-width:0.8;" x="56.84" xlink:href="#mb68db0ab81" y="80.837228"/>
      </g>
     </g>
     <g id="text_11">
      <!-- 0.8 -->
      <g transform="translate(24.395 86.915978)scale(0.16 -0.16)">
       <use xlink:href="#DejaVuSans-30"/>
       <use x="63.623047" xlink:href="#DejaVuSans-2e"/>
       <use x="95.410156" xlink:href="#DejaVuSans-38"/>
      </g>
     </g>
    </g>
    <g id="ytick_6">
     <g id="line2d_43">
      <path clip-path="url(#p8980583e62)" d="M 56.84 27.506535 
L 399.984 27.506535 
" style="fill:none;stroke:#b0b0b0;stroke-linecap:square;stroke-width:0.8;"/>
     </g>
     <g id="line2d_44">
      <g>
       <use style="stroke:#000000;stroke-width:0.8;" x="56.84" xlink:href="#mb68db0ab81" y="27.506535"/>
      </g>
     </g>
     <g id="text_12">
      <!-- 1.0 -->
      <g transform="translate(24.395 33.585285)scale(0.16 -0.16)">
       <use xlink:href="#DejaVuSans-31"/>
       <use x="63.623047" xlink:href="#DejaVuSans-2e"/>
       <use x="95.410156" xlink:href="#DejaVuSans-30"/>
      </g>
     </g>
    </g>
    <g id="text_13">
     <!-- Fraction of function,target pairs -->
     <defs>
      <path d="M 9.8125 72.90625 
L 51.703125 72.90625 
L 51.703125 64.59375 
L 19.671875 64.59375 
L 19.671875 43.109375 
L 48.578125 43.109375 
L 48.578125 34.8125 
L 19.671875 34.8125 
L 19.671875 0 
L 9.8125 0 
z
" id="DejaVuSans-46"/>
      <path d="M 41.109375 46.296875 
Q 39.59375 47.171875 37.8125 47.578125 
Q 36.03125 48 33.890625 48 
Q 26.265625 48 22.1875 43.046875 
Q 18.109375 38.09375 18.109375 28.8125 
L 18.109375 0 
L 9.078125 0 
L 9.078125 54.6875 
L 18.109375 54.6875 
L 18.109375 46.1875 
Q 20.953125 51.171875 25.484375 53.578125 
Q 30.03125 56 36.53125 56 
Q 37.453125 56 38.578125 55.875 
Q 39.703125 55.765625 41.0625 55.515625 
z
" id="DejaVuSans-72"/>
      <path d="M 48.78125 52.59375 
L 48.78125 44.1875 
Q 44.96875 46.296875 41.140625 47.34375 
Q 37.3125 48.390625 33.40625 48.390625 
Q 24.65625 48.390625 19.8125 42.84375 
Q 14.984375 37.3125 14.984375 27.296875 
Q 14.984375 17.28125 19.8125 11.734375 
Q 24.65625 6.203125 33.40625 6.203125 
Q 37.3125 6.203125 41.140625 7.25 
Q 44.96875 8.296875 48.78125 10.40625 
L 48.78125 2.09375 
Q 45.015625 0.34375 40.984375 -0.53125 
Q 36.96875 -1.421875 32.421875 -1.421875 
Q 20.0625 -1.421875 12.78125 6.34375 
Q 5.515625 14.109375 5.515625 27.296875 
Q 5.515625 40.671875 12.859375 48.328125 
Q 20.21875 56 33.015625 56 
Q 37.15625 56 41.109375 55.140625 
Q 45.0625 54.296875 48.78125 52.59375 
" id="DejaVuSans-63"/>
      <path d="M 18.3125 70.21875 
L 18.3125 54.6875 
L 36.8125 54.6875 
L 36.8125 47.703125 
L 18.3125 47.703125 
L 18.3125 18.015625 
Q 18.3125 11.328125 20.140625 9.421875 
Q 21.96875 7.515625 27.59375 7.515625 
L 36.8125 7.515625 
L 36.8125 0 
L 27.59375 0 
Q 17.1875 0 13.234375 3.875 
Q 9.28125 7.765625 9.28125 18.015625 
L 9.28125 47.703125 
L 2.6875 47.703125 
L 2.6875 54.6875 
L 9.28125 54.6875 
L 9.28125 70.21875 
z
" id="DejaVuSans-74"/>
      <path d="M 8.5 21.578125 
L 8.5 54.6875 
L 17.484375 54.6875 
L 17.484375 21.921875 
Q 17.484375 14.15625 20.5 10.265625 
Q 23.53125 6.390625 29.59375 6.390625 
Q 36.859375 6.390625 41.078125 11.03125 
Q 45.3125 15.671875 45.3125 23.6875 
L 45.3125 54.6875 
L 54.296875 54.6875 
L 54.296875 0 
L 45.3125 0 
L 45.3125 8.40625 
Q 42.046875 3.421875 37.71875 1 
Q 33.40625 -1.421875 27.6875 -1.421875 
Q 18.265625 -1.421875 13.375 4.4375 
Q 8.5 10.296875 8.5 21.578125 
M 31.109375 56 
z
" id="DejaVuSans-75"/>
      <path d="M 11.71875 12.40625 
L 22.015625 12.40625 
L 22.015625 4 
L 14.015625 -11.625 
L 7.71875 -11.625 
L 11.71875 4 
z
" id="DejaVuSans-2c"/>
      <path d="M 18.109375 8.203125 
L 18.109375 -20.796875 
L 9.078125 -20.796875 
L 9.078125 54.6875 
L 18.109375 54.6875 
L 18.109375 46.390625 
Q 20.953125 51.265625 25.265625 53.625 
Q 29.59375 56 35.59375 56 
Q 45.5625 56 51.78125 48.09375 
Q 58.015625 40.1875 58.015625 27.296875 
Q 58.015625 14.40625 51.78125 6.484375 
Q 45.5625 -1.421875 35.59375 -1.421875 
Q 29.59375 -1.421875 25.265625 0.953125 
Q 20.953125 3.328125 18.109375 8.203125 
M 48.6875 27.296875 
Q 48.6875 37.203125 44.609375 42.84375 
Q 40.53125 48.484375 33.40625 48.484375 
Q 26.265625 48.484375 22.1875 42.84375 
Q 18.109375 37.203125 18.109375 27.296875 
Q 18.109375 17.390625 22.1875 11.75 
Q 26.265625 6.109375 33.40625 6.109375 
Q 40.53125 6.109375 44.609375 11.75 
Q 48.6875 17.390625 48.6875 27.296875 
" id="DejaVuSans-70"/>
     </defs>
     <g transform="translate(16.859531 294.639375)rotate(-90)scale(0.17 -0.17)">
      <use xlink:href="#DejaVuSans-46"/>
      <use x="57.410156" xlink:href="#DejaVuSans-72"/>
      <use x="98.523438" xlink:href="#DejaVuSans-61"/>
      <use x="159.802734" xlink:href="#DejaVuSans-63"/>
      <use x="214.783203" xlink:href="#DejaVuSans-74"/>
      <use x="253.992188" xlink:href="#DejaVuSans-69"/>
      <use x="281.775391" xlink:href="#DejaVuSans-6f"/>
      <use x="342.957031" xlink:href="#DejaVuSans-6e"/>
      <use x="406.335938" xlink:href="#DejaVuSans-20"/>
      <use x="438.123047" xlink:href="#DejaVuSans-6f"/>
      <use x="499.304688" xlink:href="#DejaVuSans-66"/>
      <use x="534.509766" xlink:href="#DejaVuSans-20"/>
      <use x="566.296875" xlink:href="#DejaVuSans-66"/>
      <use x="601.501953" xlink:href="#DejaVuSans-75"/>
      <use x="664.880859" xlink:href="#DejaVuSans-6e"/>
      <use x="728.259766" xlink:href="#DejaVuSans-63"/>
      <use x="783.240234" xlink:href="#DejaVuSans-74"/>
      <use x="822.449219" xlink:href="#DejaVuSans-69"/>
      <use x="850.232422" xlink:href="#DejaVuSans-6f"/>
      <use x="911.414062" xlink:href="#DejaVuSans-6e"/>
      <use x="974.792969" xlink:href="#DejaVuSans-2c"/>
      <use x="1006.580078" xlink:href="#DejaVuSans-74"/>
      <use x="1045.789062" xlink:href="#DejaVuSans-61"/>
      <use x="1107.068359" xlink:href="#DejaVuSans-72"/>
      <use x="1148.166016" xlink:href="#DejaVuSans-67"/>
      <use x="1211.642578" xlink:href="#DejaVuSans-65"/>
      <use x="1273.166016" xlink:href="#DejaVuSans-74"/>
      <use x="1312.375" xlink:href="#DejaVuSans-20"/>
      <use x="1344.162109" xlink:href="#DejaVuSans-70"/>
      <use x="1407.638672" xlink:href="#DejaVuSans-61"/>
      <use x="1468.917969" xlink:href="#DejaVuSans-69"/>
      <use x="1496.701172" xlink:href="#DejaVuSans-72"/>
      <use x="1537.814453" xlink:href="#DejaVuSans-73"/>
     </g>
    </g>
   </g>
   <g id="line2d_45">
    <defs>
     <path d="M 0 1.5 
C 0.397805 1.5 0.77937 1.341951 1.06066 1.06066 
C 1.341951 0.77937 1.5 0.397805 1.5 0 
C 1.5 -0.397805 1.341951 -0.77937 1.06066 -1.06066 
C 0.77937 -1.341951 0.397805 -1.5 0 -1.5 
C -0.397805 -1.5 -0.77937 -1.341951 -1.06066 -1.06066 
C -1.341951 -0.77937 -1.5 -0.397805 -1.5 0 
C -1.5 0.397805 -1.341951 0.77937 -1.06066 1.06066 
C -0.77937 1.341951 -0.397805 1.5 0 1.5 
z
" id="me723b024cd" style="stroke:#f5deb3;"/>
    </defs>
    <g>
     <use style="fill:#f5deb3;stroke:#f5deb3;" x="252.904125" xlink:href="#me723b024cd" y="59.688849"/>
     <use style="fill:#f5deb3;stroke:#f5deb3;" x="252.904125" xlink:href="#me723b024cd" y="59.688849"/>
    </g>
   </g>
   <g id="line2d_46">
    <defs>
     <path d="M 0 1.5 
C 0.397805 1.5 0.77937 1.341951 1.06066 1.06066 
C 1.341951 0.77937 1.5 0.397805 1.5 0 
C 1.5 -0.397805 1.341951 -0.77937 1.06066 -1.06066 
C 0.77937 -1.341951 0.397805 -1.5 0 -1.5 
C -0.397805 -1.5 -0.77937 -1.341951 -1.06066 -1.06066 
C -1.341951 -0.77937 -1.5 -0.397805 -1.5 0 
C -1.5 0.397805 -1.341951 0.77937 -1.06066 1.06066 
C -0.77937 1.341951 -0.397805 1.5 0 1.5 
z
" id="me71a96ce3e" style="stroke:#000080;"/>
    </defs>
    <g>
     <use style="fill:#000080;stroke:#000080;" x="328.272501" xlink:href="#me71a96ce3e" y="119.456005"/>
     <use style="fill:#000080;stroke:#000080;" x="328.272501" xlink:href="#me71a96ce3e" y="119.456005"/>
    </g>
   </g>
   <g id="line2d_47">
    <path d="M 37.9781 294.16 
L 37.9781 291.861263 
L 134.903884 291.861263 
L 134.903884 290.941769 
L 137.953053 290.941769 
L 137.953053 290.022274 
L 141.142462 290.022274 
L 141.142462 288.643032 
L 141.310374 288.643032 
L 141.310374 288.183284 
L 143.094209 288.183284 
L 143.094209 286.804042 
L 145.01571 286.804042 
L 145.049342 283.585811 
L 145.740798 283.585811 
L 145.740798 282.206569 
L 146.092172 282.206569 
L 146.092172 280.827327 
L 147.719912 280.827327 
L 147.805972 279.448085 
L 148.173991 279.448085 
L 148.173991 278.988337 
L 148.368935 278.988337 
L 148.368935 278.068843 
L 148.589052 278.068843 
L 148.589052 277.149348 
L 148.752307 277.149348 
L 148.752307 275.310358 
L 149.180213 275.310358 
L 149.180213 274.850611 
L 149.311775 274.850611 
L 149.311775 273.011622 
L 149.468331 273.011622 
L 149.468331 272.551874 
L 149.726126 272.551874 
L 149.726126 271.63238 
L 149.904307 271.63238 
L 149.904307 270.253138 
L 150.768486 270.253138 
L 150.768486 269.79339 
L 152.044274 269.79339 
L 152.044274 268.873896 
L 152.222191 268.873896 
L 152.222191 266.115411 
L 152.442025 266.115411 
L 152.442025 265.195917 
L 152.809403 265.195917 
L 152.809403 264.276422 
L 153.148133 264.276422 
L 153.148133 261.977685 
L 153.562359 261.977685 
L 153.562359 261.517938 
L 153.8666 261.517938 
L 153.926806 260.598443 
L 154.264044 260.598443 
L 154.264044 260.138696 
L 154.786404 260.138696 
L 154.786404 259.678948 
L 155.348753 259.678948 
L 155.385596 258.299706 
L 155.586831 258.299706 
L 155.69561 256.460717 
L 155.767748 256.460717 
L 155.767748 255.541222 
L 155.911121 255.541222 
L 155.928959 254.621728 
L 156.661887 254.621728 
L 156.764082 253.242485 
L 156.983442 253.242485 
L 156.983442 252.782738 
L 157.100407 252.782738 
L 157.117052 250.024254 
L 158.243809 250.024254 
L 158.243809 248.645012 
L 159.079996 248.645012 
L 159.079996 248.185265 
L 159.22775 248.185265 
L 159.22775 246.806023 
L 159.76364 246.806023 
L 159.848987 244.507286 
L 160.060515 244.507286 
L 160.074525 241.748802 
L 160.908194 241.748802 
L 160.908194 239.909812 
L 161.549728 239.909812 
L 161.549728 238.53057 
L 161.754121 238.53057 
L 161.754121 237.611075 
L 163.399719 237.611075 
L 163.50325 236.231833 
L 163.514715 236.231833 
L 163.583345 231.174612 
L 165.038183 231.174612 
L 165.038183 230.255118 
L 165.976939 230.255118 
L 165.976939 229.335623 
L 166.154754 229.335623 
L 166.154754 226.577139 
L 166.55303 226.577139 
L 166.55303 226.117392 
L 167.450952 226.117392 
L 167.450952 225.657644 
L 169.240722 225.657644 
L 169.240722 223.818655 
L 170.913624 223.818655 
L 170.913624 223.358907 
L 172.252878 223.358907 
L 172.266652 220.140676 
L 173.571914 220.140676 
L 173.571914 219.221181 
L 175.99004 219.221181 
L 175.99004 218.761434 
L 176.481704 218.761434 
L 176.481704 217.841939 
L 176.991077 217.841939 
L 176.991077 217.382192 
L 179.880905 217.382192 
L 179.880905 216.462697 
L 180.462955 216.462697 
L 180.462955 215.543202 
L 181.050699 215.543202 
L 181.050699 214.623708 
L 182.728286 214.623708 
L 182.791798 213.244466 
L 184.632384 213.244466 
L 184.632384 212.784718 
L 188.419895 212.784718 
L 188.438693 210.945729 
L 190.4594 210.945729 
L 190.4594 210.485982 
L 192.044501 210.485982 
L 192.048851 209.10674 
L 192.252086 209.10674 
L 192.252086 208.646992 
L 193.170626 208.646992 
L 193.170626 208.187245 
L 194.433076 208.187245 
L 194.433076 206.348255 
L 198.277059 206.348255 
L 198.277059 205.888508 
L 198.947756 205.888508 
L 198.947756 204.509266 
L 199.216318 204.509266 
L 199.216318 203.130024 
L 200.12588 203.130024 
L 200.12588 202.210529 
L 200.75682 202.210529 
L 200.75682 201.750782 
L 201.302072 201.750782 
L 201.39318 199.452045 
L 201.548965 199.452045 
L 201.548965 198.992298 
L 201.949466 198.992298 
L 201.949466 198.53255 
L 202.48237 198.53255 
L 202.48237 198.072803 
L 203.213957 198.072803 
L 203.213957 197.613056 
L 203.685286 197.613056 
L 203.710667 196.693561 
L 204.159067 196.693561 
L 204.159067 196.233814 
L 204.271496 196.233814 
L 204.271496 195.774066 
L 204.947456 195.774066 
L 204.972063 194.854572 
L 205.141306 194.854572 
L 205.205103 193.935077 
L 205.74046 193.935077 
L 205.74046 193.015582 
L 206.00297 193.015582 
L 206.00297 191.176593 
L 206.320355 191.176593 
L 206.320355 190.716845 
L 206.471241 190.716845 
L 206.471241 189.337603 
L 206.957223 189.337603 
L 206.957223 187.958361 
L 208.346972 187.958361 
L 208.346972 187.498614 
L 208.809531 187.498614 
L 208.809531 187.038867 
L 208.940943 187.038867 
L 208.940943 186.579119 
L 210.221421 186.579119 
L 210.224439 184.280382 
L 210.373192 184.280382 
L 210.373192 183.360888 
L 210.944068 183.360888 
L 210.944068 182.90114 
L 211.553231 182.90114 
L 211.553231 181.981646 
L 211.674315 181.981646 
L 211.674315 181.521898 
L 212.308064 181.521898 
L 212.308064 181.062151 
L 212.488889 181.062151 
L 212.488889 179.682909 
L 216.214135 179.682909 
L 216.214135 179.223161 
L 217.520555 179.223161 
L 217.615502 177.843919 
L 218.05002 177.843919 
L 218.05002 177.384172 
L 219.268985 177.384172 
L 219.268985 176.00493 
L 219.445405 176.00493 
L 219.445405 175.545183 
L 219.692776 175.545183 
L 219.692776 174.165941 
L 220.038755 174.165941 
L 220.038755 173.246446 
L 221.19079 173.246446 
L 221.19079 172.326951 
L 224.218286 172.326951 
L 224.296257 168.189225 
L 224.572616 168.189225 
L 224.572616 167.729478 
L 224.958209 167.729478 
L 224.958209 167.26973 
L 225.217265 167.26973 
L 225.217265 166.350236 
L 228.641482 166.350236 
L 228.641482 165.890488 
L 230.237534 165.890488 
L 230.237534 164.970994 
L 231.49916 164.970994 
L 231.49916 164.051499 
L 231.820018 164.051499 
L 231.820018 163.591751 
L 232.109488 163.591751 
L 232.109488 163.132004 
L 232.788702 163.132004 
L 232.788702 161.752762 
L 233.757066 161.752762 
L 233.757066 160.37352 
L 234.3171 160.37352 
L 234.3171 158.534531 
L 235.689871 158.534531 
L 235.689871 158.074783 
L 236.248741 158.074783 
L 236.248741 156.235794 
L 236.641294 156.235794 
L 236.641294 155.316299 
L 237.024754 155.316299 
L 237.024754 153.017562 
L 239.724641 153.017562 
L 239.731001 152.098068 
L 240.252828 152.098068 
L 240.252828 151.63832 
L 240.40935 151.63832 
L 240.40935 150.718826 
L 242.231893 150.718826 
L 242.231893 149.799331 
L 243.17765 149.799331 
L 243.17765 149.339583 
L 244.655652 149.339583 
L 244.655652 148.879836 
L 245.357717 148.879836 
L 245.357717 148.420089 
L 247.923574 148.420089 
L 247.923574 147.500594 
L 248.163687 147.500594 
L 248.215602 145.661605 
L 248.669879 145.661605 
L 248.669879 145.201857 
L 249.356073 145.201857 
L 249.356073 143.822615 
L 250.160588 143.822615 
L 250.160588 142.903121 
L 255.668959 142.903121 
L 255.698184 141.983626 
L 257.250109 141.983626 
L 257.251425 141.064131 
L 258.50269 141.064131 
L 258.569343 140.144636 
L 258.778297 140.144636 
L 258.778297 139.684889 
L 259.460008 139.684889 
L 259.460008 139.225142 
L 259.665451 139.225142 
L 259.703076 138.305647 
L 261.663011 138.305647 
L 261.663011 137.8459 
L 262.437309 137.8459 
L 262.437309 137.386152 
L 263.55063 137.386152 
L 263.55063 136.926405 
L 264.193698 136.926405 
L 264.193698 136.466658 
L 268.677085 136.466658 
L 268.677286 135.547163 
L 271.444743 135.547163 
L 271.444743 135.087416 
L 271.820068 135.087416 
L 271.820068 134.627668 
L 274.915975 134.627668 
L 274.915975 134.167921 
L 275.648316 134.167921 
L 275.648316 133.708173 
L 279.399927 133.708173 
L 279.482081 132.328931 
L 280.046086 132.328931 
L 280.046086 131.869184 
L 281.012264 131.869184 
L 281.012264 131.409437 
L 283.085255 131.409437 
L 283.085406 130.489942 
L 286.062044 130.489942 
L 286.062044 130.030195 
L 286.448443 130.030195 
L 286.448443 129.570447 
L 291.615494 129.570447 
L 291.615527 128.650953 
L 293.026871 128.650953 
L 293.026962 127.731458 
L 293.487426 127.731458 
L 293.487426 127.27171 
L 294.521108 127.27171 
L 294.521108 126.811963 
L 294.758077 126.811963 
L 294.758077 126.352216 
L 295.26994 126.352216 
L 295.26994 125.892468 
L 296.330773 125.892468 
L 296.330773 125.432721 
L 297.771479 125.432721 
L 297.771479 124.972974 
L 298.916418 124.972974 
L 298.916452 124.053479 
L 300.635917 124.053479 
L 300.635917 123.593732 
L 301.324481 123.593732 
L 301.324481 123.133984 
L 303.436205 123.133984 
L 303.436205 122.674237 
L 309.274729 122.674237 
L 309.274729 122.21449 
L 309.554676 122.21449 
L 309.554676 121.754742 
L 313.146815 121.754742 
L 313.146815 121.294995 
L 316.169452 121.294995 
L 316.169452 120.835248 
L 317.53344 120.835248 
L 317.53344 120.3755 
L 317.707023 120.3755 
L 317.707023 119.915753 
L 328.272501 119.915753 
L 328.272501 119.456005 
L 333.569032 119.456005 
L 333.569032 119.456005 
" style="fill:none;stroke:#000080;stroke-linecap:square;stroke-width:1.5;"/>
   </g>
   <g id="line2d_48">
    <defs>
     <path d="M 0 6 
C 1.591219 6 3.117479 5.367802 4.242641 4.242641 
C 5.367802 3.117479 6 1.591219 6 0 
C 6 -1.591219 5.367802 -3.117479 4.242641 -4.242641 
C 3.117479 -5.367802 1.591219 -6 0 -6 
C -1.591219 -6 -3.117479 -5.367802 -4.242641 -4.242641 
C -5.367802 -3.117479 -6 -1.591219 -6 0 
C -6 1.591219 -5.367802 3.117479 -4.242641 4.242641 
C -3.117479 5.367802 -1.591219 6 0 6 
z
" id="m256fd98866" style="stroke:#000080;stroke-width:1.5;"/>
    </defs>
    <g>
     <use style="fill:none;stroke:#000080;stroke-width:1.5;" x="167.450952" xlink:href="#m256fd98866" y="225.657644"/>
     <use style="fill:none;stroke:#000080;stroke-width:1.5;" x="212.488889" xlink:href="#m256fd98866" y="181.062151"/>
     <use style="fill:none;stroke:#000080;stroke-width:1.5;" x="275.648316" xlink:href="#m256fd98866" y="133.708173"/>
     <use style="fill:none;stroke:#000080;stroke-width:1.5;" x="328.272501" xlink:href="#m256fd98866" y="119.456005"/>
     <use style="fill:none;stroke:#000080;stroke-width:1.5;" x="333.569032" xlink:href="#m256fd98866" y="119.456005"/>
    </g>
   </g>
   <g id="line2d_49">
    <path style="fill:none;stroke:#000080;stroke-linecap:square;stroke-width:1.5;"/>
    <g/>
   </g>
   <g id="line2d_50">
    <path clip-path="url(#p8980583e62)" d="M 254.510575 142.903121 
" style="fill:none;stroke:#000080;stroke-linecap:square;stroke-width:1.5;"/>
    <defs>
     <path d="M -12 12 
L 12 -12 
M -12 -12 
L 12 12 
" id="m92844dd17a" style="stroke:#000080;stroke-width:3;"/>
    </defs>
    <g clip-path="url(#p8980583e62)">
     <use style="fill:#000080;stroke:#000080;stroke-width:3;" x="254.510575" xlink:href="#m92844dd17a" y="142.903121"/>
    </g>
   </g>
   <g id="line2d_51">
    <defs>
     <path d="M 0 1.5 
C 0.397805 1.5 0.77937 1.341951 1.06066 1.06066 
C 1.341951 0.77937 1.5 0.397805 1.5 0 
C 1.5 -0.397805 1.341951 -0.77937 1.06066 -1.06066 
C 0.77937 -1.341951 0.397805 -1.5 0 -1.5 
C -0.397805 -1.5 -0.77937 -1.341951 -1.06066 -1.06066 
C -1.341951 -0.77937 -1.5 -0.397805 -1.5 0 
C -1.5 0.397805 -1.341951 0.77937 -1.06066 1.06066 
C -0.77937 1.341951 -0.397805 1.5 0 1.5 
z
" id="m31f283b589" style="stroke:#ff00ff;"/>
    </defs>
    <g>
     <use style="fill:#ff00ff;stroke:#ff00ff;" x="324.798382" xlink:href="#m31f283b589" y="174.625688"/>
     <use style="fill:#ff00ff;stroke:#ff00ff;" x="324.798382" xlink:href="#m31f283b589" y="174.625688"/>
    </g>
   </g>
   <g id="line2d_52">
    <path d="M 37.9781 294.16 
L 37.9781 290.941769 
L 56.84 290.941769 
L 56.84 286.344295 
L 65.610284 286.344295 
L 65.610284 285.4248 
L 73.679702 285.4248 
L 73.679702 284.965053 
L 77.510818 284.965053 
L 77.510818 284.045558 
L 80.641068 284.045558 
L 80.641068 283.126064 
L 84.472185 283.126064 
L 84.472185 282.206569 
L 88.530706 282.206569 
L 88.530706 281.746821 
L 92.541603 281.746821 
L 92.541603 281.287074 
L 96.372719 281.287074 
L 96.372719 280.827327 
L 99.019308 280.827327 
L 99.019308 278.988337 
L 103.334085 278.988337 
L 103.334085 278.52859 
L 103.711438 278.52859 
L 103.711438 278.068843 
L 104.442137 278.068843 
L 104.442137 277.609095 
L 105.143003 277.609095 
L 105.143003 276.689601 
L 115.611972 276.689601 
L 115.611972 275.770106 
L 115.981208 275.770106 
L 115.981208 274.850611 
L 117.551028 274.850611 
L 117.551028 272.092127 
L 118.205158 272.092127 
L 118.205158 271.63238 
L 119.293141 271.63238 
L 119.293141 271.172632 
L 122.820376 271.172632 
L 122.820376 269.79339 
L 125.536899 269.79339 
L 125.536899 268.873896 
L 126.254507 268.873896 
L 126.254507 267.954401 
L 126.943321 267.954401 
L 126.943321 266.575159 
L 134.223228 266.575159 
L 134.223228 265.655664 
L 134.535966 265.655664 
L 134.535966 265.195917 
L 135.264082 265.195917 
L 135.264082 264.276422 
L 137.593751 264.276422 
L 137.593751 263.356927 
L 138.104766 263.356927 
L 138.104766 261.517938 
L 138.698561 261.517938 
L 138.698561 260.598443 
L 142.284754 260.598443 
L 142.284754 260.138696 
L 144.152773 260.138696 
L 144.152773 259.219201 
L 145.447863 259.219201 
L 145.447863 256.920464 
L 147.948453 256.920464 
L 147.948453 256.460717 
L 149.416304 256.460717 
L 149.416304 256.00097 
L 154.322875 256.00097 
L 154.322875 254.621728 
L 154.556204 254.621728 
L 154.556204 254.16198 
L 154.767338 254.16198 
L 154.767338 253.702233 
L 156.123961 253.702233 
L 156.123961 252.782738 
L 157.033667 252.782738 
L 157.033667 251.403496 
L 158.071571 251.403496 
L 158.071571 250.943749 
L 160.186193 250.943749 
L 160.186193 250.024254 
L 161.472448 250.024254 
L 161.472448 248.645012 
L 167.258505 248.645012 
L 167.258505 247.26577 
L 167.713215 247.26577 
L 167.713215 246.806023 
L 167.927271 246.806023 
L 168.033306 245.42678 
L 168.774646 245.42678 
L 168.774646 244.507286 
L 168.975944 244.507286 
L 168.975944 244.047538 
L 170.391827 244.047538 
L 170.391827 243.128044 
L 172.60745 243.128044 
L 172.60745 240.829307 
L 173.152117 240.829307 
L 173.152117 240.36956 
L 176.975385 240.36956 
L 176.975385 239.909812 
L 177.136841 239.909812 
L 177.136841 238.990318 
L 182.581687 238.990318 
L 182.581687 238.53057 
L 185.082047 238.53057 
L 185.082047 237.151328 
L 185.866644 237.151328 
L 185.866644 236.691581 
L 188.108096 236.691581 
L 188.108096 235.312339 
L 189.802814 235.312339 
L 189.802814 234.852591 
L 189.914004 234.852591 
L 189.914004 233.933097 
L 193.933723 233.933097 
L 193.933723 232.553855 
L 200.277386 232.553855 
L 200.277386 232.094107 
L 202.30138 232.094107 
L 202.30138 231.174612 
L 202.581578 231.174612 
L 202.581578 230.714865 
L 203.774504 230.714865 
L 203.774504 229.335623 
L 205.225306 229.335623 
L 205.225306 228.875876 
L 209.705083 228.875876 
L 209.705083 228.416128 
L 210.254594 228.416128 
L 210.254594 227.956381 
L 212.243787 227.956381 
L 212.243787 227.496634 
L 216.682515 227.496634 
L 216.682515 226.117392 
L 217.064145 226.117392 
L 217.064145 225.657644 
L 219.592506 225.657644 
L 219.592506 224.278402 
L 219.991402 224.278402 
L 219.991402 222.439413 
L 220.260549 222.439413 
L 220.260549 221.060171 
L 221.86994 221.060171 
L 221.86994 220.600423 
L 221.989376 220.600423 
L 221.989376 220.140676 
L 223.330062 220.140676 
L 223.330062 219.221181 
L 224.117803 219.221181 
L 224.117803 218.761434 
L 224.742217 218.761434 
L 224.742217 217.841939 
L 228.795146 217.841939 
L 228.795146 217.382192 
L 232.417169 217.382192 
L 232.417169 216.462697 
L 233.684101 216.462697 
L 233.684101 214.623708 
L 234.953878 214.623708 
L 234.953878 214.16396 
L 237.250567 214.16396 
L 237.250567 213.704213 
L 238.156856 213.704213 
L 238.156856 211.405476 
L 241.089311 211.405476 
L 241.089311 210.945729 
L 243.607465 210.945729 
L 243.607465 210.026234 
L 246.665648 210.026234 
L 246.665648 209.566487 
L 248.28299 209.566487 
L 248.28299 208.646992 
L 252.030136 208.646992 
L 252.030136 208.187245 
L 253.550808 208.187245 
L 253.550808 207.26775 
L 254.110834 207.26775 
L 254.110834 205.888508 
L 255.740038 205.888508 
L 255.740038 204.049519 
L 257.352608 204.049519 
L 257.352608 203.589771 
L 260.020576 203.589771 
L 260.020576 202.670277 
L 260.35174 202.670277 
L 260.35174 201.750782 
L 262.195104 201.750782 
L 262.195104 201.291034 
L 263.002294 201.291034 
L 263.002294 199.911792 
L 263.472909 199.911792 
L 263.472909 198.992298 
L 268.450118 198.992298 
L 268.450118 198.072803 
L 270.035432 198.072803 
L 270.035432 196.693561 
L 271.959001 196.693561 
L 271.959001 195.314319 
L 275.568079 195.314319 
L 275.590499 193.475329 
L 276.926883 193.475329 
L 276.926883 193.015582 
L 279.716857 193.015582 
L 279.716857 192.096087 
L 281.243008 192.096087 
L 281.243008 191.63634 
L 283.882978 191.63634 
L 283.882978 190.716845 
L 285.876455 190.716845 
L 285.876455 189.337603 
L 287.361874 189.337603 
L 287.361874 188.877856 
L 287.634856 188.877856 
L 287.634856 187.958361 
L 288.012267 187.958361 
L 288.012267 187.498614 
L 290.222629 187.498614 
L 290.222629 187.038867 
L 292.30295 187.038867 
L 292.30295 186.579119 
L 293.130576 186.579119 
L 293.171846 183.820635 
L 294.034116 183.820635 
L 294.034116 183.360888 
L 295.637342 183.360888 
L 295.637342 182.90114 
L 296.254216 182.90114 
L 296.254216 182.441393 
L 296.627578 182.441393 
L 296.627578 181.981646 
L 297.523567 181.981646 
L 297.523567 181.521898 
L 299.03385 181.521898 
L 299.03385 181.062151 
L 303.032757 181.062151 
L 303.032757 179.682909 
L 303.187688 179.682909 
L 303.187688 179.223161 
L 305.092032 179.223161 
L 305.092032 178.303667 
L 305.489951 178.303667 
L 305.489951 177.843919 
L 306.83546 177.843919 
L 306.83546 177.384172 
L 309.593085 177.384172 
L 309.593085 176.924425 
L 311.017714 176.924425 
L 311.017714 176.464677 
L 312.339647 176.464677 
L 312.339647 176.00493 
L 316.446666 176.00493 
L 316.446666 175.545183 
L 321.335543 175.545183 
L 321.335543 175.085435 
L 324.798382 175.085435 
L 324.798382 174.625688 
L 333.569032 174.625688 
L 333.569032 174.625688 
" style="fill:none;stroke:#ff00ff;stroke-linecap:square;stroke-width:1.5;"/>
   </g>
   <g id="line2d_53">
    <defs>
     <path d="M -0 8.485281 
L 5.091169 0 
L 0 -8.485281 
L -5.091169 -0 
z
" id="m5e99a9a9f4" style="stroke:#ff00ff;stroke-linejoin:miter;stroke-width:1.5;"/>
    </defs>
    <g>
     <use style="fill:none;stroke:#ff00ff;stroke-linejoin:miter;stroke-width:1.5;" x="77.510818" xlink:href="#m5e99a9a9f4" y="284.045558"/>
     <use style="fill:none;stroke:#ff00ff;stroke-linejoin:miter;stroke-width:1.5;" x="138.698561" xlink:href="#m5e99a9a9f4" y="260.598443"/>
     <use style="fill:none;stroke:#ff00ff;stroke-linejoin:miter;stroke-width:1.5;" x="220.260549" xlink:href="#m5e99a9a9f4" y="221.060171"/>
     <use style="fill:none;stroke:#ff00ff;stroke-linejoin:miter;stroke-width:1.5;" x="281.243008" xlink:href="#m5e99a9a9f4" y="192.096087"/>
     <use style="fill:none;stroke:#ff00ff;stroke-linejoin:miter;stroke-width:1.5;" x="324.798382" xlink:href="#m5e99a9a9f4" y="174.625688"/>
     <use style="fill:none;stroke:#ff00ff;stroke-linejoin:miter;stroke-width:1.5;" x="333.569032" xlink:href="#m5e99a9a9f4" y="174.625688"/>
    </g>
   </g>
   <g id="line2d_54">
    <path style="fill:none;stroke:#ff00ff;stroke-linecap:square;stroke-width:1.5;"/>
    <g/>
   </g>
   <g id="line2d_55">
    <path clip-path="url(#p8980583e62)" d="M 294.036313 183.360888 
" style="fill:none;stroke:#ff00ff;stroke-linecap:square;stroke-width:1.5;"/>
    <defs>
     <path d="M -12 12 
L 12 -12 
M -12 -12 
L 12 12 
" id="m869f49e3a8" style="stroke:#ff00ff;stroke-width:3;"/>
    </defs>
    <g clip-path="url(#p8980583e62)">
     <use style="fill:#ff00ff;stroke:#ff00ff;stroke-width:3;" x="294.036313" xlink:href="#m869f49e3a8" y="183.360888"/>
    </g>
   </g>
   <g id="line2d_56">
    <defs>
     <path d="M 0 1.5 
C 0.397805 1.5 0.77937 1.341951 1.06066 1.06066 
C 1.341951 0.77937 1.5 0.397805 1.5 0 
C 1.5 -0.397805 1.341951 -0.77937 1.06066 -1.06066 
C 0.77937 -1.341951 0.397805 -1.5 0 -1.5 
C -0.397805 -1.5 -0.77937 -1.341951 -1.06066 -1.06066 
C -1.341951 -0.77937 -1.5 -0.397805 -1.5 0 
C -1.5 0.397805 -1.341951 0.77937 -1.06066 1.06066 
C -0.77937 1.341951 -0.397805 1.5 0 1.5 
z
" id="mefac815f31" style="stroke:#ffa500;"/>
    </defs>
    <g>
     <use style="fill:#ffa500;stroke:#ffa500;" x="241.007737" xlink:href="#mefac815f31" y="243.587791"/>
     <use style="fill:#ffa500;stroke:#ffa500;" x="241.007737" xlink:href="#mefac815f31" y="243.587791"/>
    </g>
   </g>
   <g id="line2d_57">
    <path d="M 37.9781 294.16 
L 37.9781 293.700253 
L 123.184393 293.700253 
L 123.184393 293.240505 
L 134.843109 293.240505 
L 134.843109 292.321011 
L 136.743108 292.321011 
L 136.743108 291.401516 
L 137.799986 291.401516 
L 137.799986 290.941769 
L 140.27735 290.941769 
L 140.27735 290.022274 
L 141.641349 290.022274 
L 141.641349 289.102779 
L 141.763839 289.102779 
L 141.763839 286.804042 
L 142.24524 286.804042 
L 142.284754 285.4248 
L 145.415004 285.4248 
L 145.415004 284.965053 
L 153.8666 284.965053 
L 153.966827 282.666316 
L 163.468809 282.666316 
L 163.468809 281.746821 
L 169.885334 281.746821 
L 169.885334 280.827327 
L 170.537099 280.827327 
L 170.537099 279.907832 
L 171.128284 279.907832 
L 171.128284 278.988337 
L 178.08965 278.988337 
L 178.094553 278.068843 
L 178.226415 278.068843 
L 178.226415 277.609095 
L 178.386217 277.609095 
L 178.386217 277.149348 
L 178.748683 277.149348 
L 178.748683 276.689601 
L 179.451437 276.689601 
L 179.451437 276.229853 
L 185.098356 276.229853 
L 185.098356 275.770106 
L 185.328292 275.770106 
L 185.328292 275.310358 
L 185.520232 275.310358 
L 185.520232 274.850611 
L 187.965227 274.850611 
L 187.965227 274.390864 
L 188.894225 274.390864 
L 188.894225 273.931116 
L 189.171628 273.931116 
L 189.171628 273.471369 
L 193.035631 273.471369 
L 193.035631 272.551874 
L 193.205227 272.551874 
L 193.205227 272.092127 
L 193.495548 272.092127 
L 193.495548 271.63238 
L 195.499077 271.63238 
L 195.499077 271.172632 
L 195.626687 271.172632 
L 195.626687 270.712885 
L 195.866913 270.712885 
L 195.922543 269.333643 
L 196.420325 269.333643 
L 196.420325 268.873896 
L 200.371403 268.873896 
L 200.426233 267.954401 
L 200.691209 267.954401 
L 200.691209 267.494653 
L 202.628619 267.494653 
L 202.628619 267.034906 
L 202.777126 267.034906 
L 202.777126 266.575159 
L 204.042653 266.575159 
L 204.119273 265.655664 
L 204.209483 265.655664 
L 204.278965 263.816675 
L 204.330094 263.816675 
L 204.330094 263.356927 
L 205.93239 263.356927 
L 205.93239 262.89718 
L 206.079026 262.89718 
L 206.079026 262.437433 
L 207.099923 262.437433 
L 207.176688 261.517938 
L 207.218988 261.517938 
L 207.218988 261.058191 
L 209.648996 261.058191 
L 209.739268 260.138696 
L 209.794288 260.138696 
L 209.800477 259.219201 
L 211.121866 259.219201 
L 211.121866 258.759454 
L 211.878356 258.759454 
L 211.976067 257.839959 
L 212.044747 257.839959 
L 212.068483 256.920464 
L 213.244424 256.920464 
L 213.244424 256.460717 
L 213.93653 256.460717 
L 214.02323 255.081475 
L 215.693155 255.081475 
L 215.780726 253.242485 
L 216.799698 253.242485 
L 216.799698 252.782738 
L 217.344529 252.782738 
L 217.369929 251.863243 
L 219.681036 251.863243 
L 219.681036 251.403496 
L 220.242035 251.403496 
L 220.263913 250.024254 
L 221.466623 250.024254 
L 221.516728 248.645012 
L 222.608184 248.645012 
L 222.608184 248.185265 
L 224.810753 248.185265 
L 224.810753 247.725517 
L 225.721491 247.725517 
L 225.777393 246.806023 
L 226.688159 246.806023 
L 226.688159 246.346275 
L 228.397384 246.346275 
L 228.397384 245.886528 
L 229.206394 245.886528 
L 229.206394 245.42678 
L 230.693138 245.42678 
L 230.693138 244.967033 
L 233.87945 244.967033 
L 233.87945 244.507286 
L 234.448273 244.507286 
L 234.448273 244.047538 
L 241.007737 244.047538 
L 241.007737 243.587791 
L 333.569032 243.587791 
L 333.569032 243.587791 
" style="fill:none;stroke:#ffa500;stroke-linecap:square;stroke-width:1.5;"/>
   </g>
   <g id="line2d_58">
    <defs>
     <path d="M 0 -6 
L -1.347084 -1.854102 
L -5.706339 -1.854102 
L -2.179628 0.708204 
L -3.526712 4.854102 
L -0 2.291796 
L 3.526712 4.854102 
L 2.179628 0.708204 
L 5.706339 -1.854102 
L 1.347084 -1.854102 
z
" id="m1d2143c400" style="stroke:#ffa500;stroke-linejoin:bevel;stroke-width:1.5;"/>
    </defs>
    <g>
     <use style="fill:none;stroke:#ffa500;stroke-linejoin:bevel;stroke-width:1.5;" x="153.966827" xlink:href="#m1d2143c400" y="282.666316"/>
     <use style="fill:none;stroke:#ffa500;stroke-linejoin:bevel;stroke-width:1.5;" x="213.244424" xlink:href="#m1d2143c400" y="256.460717"/>
     <use style="fill:none;stroke:#ffa500;stroke-linejoin:bevel;stroke-width:1.5;" x="241.007737" xlink:href="#m1d2143c400" y="244.047538"/>
     <use style="fill:none;stroke:#ffa500;stroke-linejoin:bevel;stroke-width:1.5;" x="241.007737" xlink:href="#m1d2143c400" y="243.587791"/>
     <use style="fill:none;stroke:#ffa500;stroke-linejoin:bevel;stroke-width:1.5;" x="333.569032" xlink:href="#m1d2143c400" y="243.587791"/>
    </g>
   </g>
   <g id="line2d_59">
    <path style="fill:none;stroke:#ffa500;stroke-linecap:square;stroke-width:1.5;"/>
    <g/>
   </g>
   <g id="line2d_60">
    <path clip-path="url(#p8980583e62)" d="M 175.973406 278.988337 
" style="fill:none;stroke:#ffa500;stroke-linecap:square;stroke-width:1.5;"/>
    <defs>
     <path d="M -12 12 
L 12 -12 
M -12 -12 
L 12 12 
" id="m590248b19d" style="stroke:#ffa500;stroke-width:3;"/>
    </defs>
    <g clip-path="url(#p8980583e62)">
     <use style="fill:#ffa500;stroke:#ffa500;stroke-width:3;" x="175.973406" xlink:href="#m590248b19d" y="278.988337"/>
    </g>
   </g>
   <g id="line2d_61">
    <defs>
     <path d="M 0 1.5 
C 0.397805 1.5 0.77937 1.341951 1.06066 1.06066 
C 1.341951 0.77937 1.5 0.397805 1.5 0 
C 1.5 -0.397805 1.341951 -0.77937 1.06066 -1.06066 
C 0.77937 -1.341951 0.397805 -1.5 0 -1.5 
C -0.397805 -1.5 -0.77937 -1.341951 -1.06066 -1.06066 
C -1.341951 -0.77937 -1.5 -0.397805 -1.5 0 
C -1.5 0.397805 -1.341951 0.77937 -1.06066 1.06066 
C -0.77937 1.341951 -0.397805 1.5 0 1.5 
z
" id="m1f7ab5c004" style="stroke:#6495ed;"/>
    </defs>
    <g>
     <use style="fill:#6495ed;stroke:#6495ed;" x="262.277832" xlink:href="#m1f7ab5c004" y="147.040847"/>
     <use style="fill:#6495ed;stroke:#6495ed;" x="262.277832" xlink:href="#m1f7ab5c004" y="147.040847"/>
    </g>
   </g>
   <g id="line2d_62">
    <path d="M 37.9781 294.16 
L 37.9781 293.240505 
L 56.84 293.240505 
L 56.84 292.321011 
L 61.779168 292.321011 
L 61.779168 291.861263 
L 65.610284 291.861263 
L 65.610284 291.401516 
L 68.740534 291.401516 
L 68.740534 287.723537 
L 73.679702 287.723537 
L 73.679702 285.4248 
L 83.287657 285.4248 
L 83.287657 284.965053 
L 84.472185 284.965053 
L 84.472185 284.505306 
L 86.621091 284.505306 
L 86.621091 283.126064 
L 90.249023 283.126064 
L 90.249023 280.367579 
L 91.810903 280.367579 
L 91.810903 279.907832 
L 98.009084 279.907832 
L 98.009084 278.52859 
L 99.973377 278.52859 
L 99.973377 277.609095 
L 103.711438 277.609095 
L 103.711438 276.229853 
L 105.816377 276.229853 
L 105.816377 273.931116 
L 110.672804 273.931116 
L 110.672804 273.471369 
L 112.104369 273.471369 
L 112.104369 273.011622 
L 116.870985 273.011622 
L 116.870985 272.092127 
L 117.383526 272.092127 
L 117.383526 270.253138 
L 121.147181 270.253138 
L 121.147181 269.79339 
L 124.456741 269.79339 
L 124.456741 267.494653 
L 125.326236 267.494653 
L 125.326236 267.034906 
L 128.15355 267.034906 
L 128.15355 266.575159 
L 128.944072 266.575159 
L 128.944072 266.115411 
L 130.265403 266.115411 
L 130.265403 265.195917 
L 132.498265 265.195917 
L 132.498265 264.276422 
L 132.979988 264.276422 
L 132.979988 263.816675 
L 134.411553 263.816675 
L 134.411553 262.437433 
L 135.558581 262.437433 
L 135.558581 261.977685 
L 135.67498 261.977685 
L 135.67498 261.058191 
L 136.301442 261.058191 
L 136.301442 260.598443 
L 137.279678 260.598443 
L 137.279678 259.219201 
L 138.104766 259.219201 
L 138.104766 258.759454 
L 139.130806 258.759454 
L 139.130806 258.299706 
L 139.319477 258.299706 
L 139.319477 257.380212 
L 140.672053 257.380212 
L 140.672053 256.920464 
L 142.558834 256.920464 
L 142.558834 256.460717 
L 142.71351 256.460717 
L 142.71351 256.00097 
L 142.866804 256.00097 
L 142.866804 254.621728 
L 142.980883 254.621728 
L 142.980883 253.242485 
L 144.081827 253.242485 
L 144.081827 252.782738 
L 146.529221 252.782738 
L 146.529221 252.322991 
L 146.713175 252.322991 
L 146.804418 250.943749 
L 146.985462 250.943749 
L 146.985462 250.024254 
L 147.371295 250.024254 
L 147.371295 248.645012 
L 147.488289 248.645012 
L 147.488289 248.185265 
L 147.69113 248.185265 
L 147.69113 247.725517 
L 147.863106 247.725517 
L 147.863106 246.346275 
L 148.506838 246.346275 
L 148.506838 245.886528 
L 149.520201 245.886528 
L 149.520201 244.967033 
L 150.230387 244.967033 
L 150.280008 243.128044 
L 150.47707 243.128044 
L 150.47707 241.748802 
L 151.773893 241.748802 
L 151.773893 239.909812 
L 151.954619 239.909812 
L 151.954619 239.450065 
L 152.463855 239.450065 
L 152.485656 238.070823 
L 152.65908 238.070823 
L 152.65908 237.151328 
L 153.315025 237.151328 
L 153.315025 236.691581 
L 153.886692 236.691581 
L 153.886692 236.231833 
L 155.013559 236.231833 
L 155.013559 235.312339 
L 155.219176 235.312339 
L 155.219176 234.852591 
L 156.644795 234.852591 
L 156.696019 232.553855 
L 157.737877 232.553855 
L 157.737877 231.63436 
L 157.97689 231.63436 
L 157.97689 231.174612 
L 158.134404 231.174612 
L 158.134404 230.714865 
L 159.476048 230.714865 
L 159.476048 230.255118 
L 159.692193 230.255118 
L 159.692193 228.875876 
L 159.834792 228.875876 
L 159.834792 227.036886 
L 160.310957 227.036886 
L 160.310957 226.577139 
L 160.639295 226.577139 
L 160.639295 225.657644 
L 160.934854 225.657644 
L 160.934854 223.818655 
L 162.66902 223.818655 
L 162.66902 222.89916 
L 164.602698 222.89916 
L 164.602698 221.979665 
L 165.225936 221.979665 
L 165.225936 221.060171 
L 165.957068 221.060171 
L 165.957068 219.680929 
L 166.125245 219.680929 
L 166.125245 219.221181 
L 167.532774 219.221181 
L 167.532774 218.761434 
L 168.605076 218.761434 
L 168.68159 216.462697 
L 168.934202 216.462697 
L 168.934202 215.543202 
L 169.371595 215.543202 
L 169.371595 214.623708 
L 170.33029 214.623708 
L 170.33029 213.704213 
L 171.120926 213.704213 
L 171.120926 212.784718 
L 174.222943 212.784718 
L 174.222943 211.865224 
L 174.479017 211.865224 
L 174.479017 210.026234 
L 176.117033 210.026234 
L 176.117033 209.10674 
L 178.899041 209.10674 
L 178.899041 208.187245 
L 179.654088 208.187245 
L 179.654088 206.808003 
L 180.325741 206.808003 
L 180.325741 206.348255 
L 181.178165 206.348255 
L 181.178165 205.888508 
L 182.765675 205.888508 
L 182.825328 204.509266 
L 185.643852 204.509266 
L 185.643852 203.589771 
L 186.388626 203.589771 
L 186.388626 202.210529 
L 186.521182 202.210529 
L 186.521182 201.750782 
L 187.209439 201.750782 
L 187.209439 199.911792 
L 190.148828 199.911792 
L 190.148828 199.452045 
L 191.710603 199.452045 
L 191.710603 198.992298 
L 193.070504 198.992298 
L 193.070504 198.072803 
L 196.788951 198.072803 
L 196.788951 197.613056 
L 198.937566 197.613056 
L 198.940478 196.693561 
L 199.985357 196.693561 
L 200.022305 195.774066 
L 200.106847 195.774066 
L 200.106847 195.314319 
L 200.344594 195.314319 
L 200.344594 194.854572 
L 200.508814 194.854572 
L 200.523424 193.935077 
L 200.63854 193.935077 
L 200.643814 193.015582 
L 200.789531 193.015582 
L 200.789531 192.555835 
L 201.241063 192.555835 
L 201.241063 192.096087 
L 201.527691 192.096087 
L 201.527691 191.63634 
L 202.018968 191.63634 
L 202.025051 190.716845 
L 202.198127 190.716845 
L 202.198127 190.257098 
L 202.56744 190.257098 
L 202.56744 189.337603 
L 203.144579 189.337603 
L 203.144579 188.877856 
L 203.636627 188.877856 
L 203.636627 188.418109 
L 204.507858 188.418109 
L 204.512068 187.498614 
L 204.792855 187.498614 
L 204.809412 186.579119 
L 205.045675 186.579119 
L 205.045675 186.119372 
L 206.148051 186.119372 
L 206.174819 185.199877 
L 206.765401 185.199877 
L 206.805963 183.360888 
L 207.967394 183.360888 
L 207.967394 182.90114 
L 209.098772 182.90114 
L 209.098772 182.441393 
L 210.040862 182.441393 
L 210.040862 181.981646 
L 210.396365 181.981646 
L 210.396365 181.521898 
L 211.415102 181.521898 
L 211.415102 181.062151 
L 212.117208 181.062151 
L 212.167143 179.682909 
L 212.753348 179.682909 
L 212.780026 178.763414 
L 213.615653 178.763414 
L 213.615653 178.303667 
L 214.679407 178.303667 
L 214.68639 177.384172 
L 217.46373 177.384172 
L 217.46373 176.924425 
L 218.039015 176.924425 
L 218.05002 176.00493 
L 218.248808 176.00493 
L 218.275266 175.085435 
L 219.297477 175.085435 
L 219.297477 174.625688 
L 222.928692 174.625688 
L 222.928692 174.165941 
L 223.117024 174.165941 
L 223.117024 173.706193 
L 223.886478 173.706193 
L 223.944942 172.786699 
L 224.179168 172.786699 
L 224.179168 172.326951 
L 224.608238 172.326951 
L 224.629771 170.947709 
L 226.025367 170.947709 
L 226.025367 170.487962 
L 226.307702 170.487962 
L 226.307702 170.028214 
L 226.604081 170.028214 
L 226.606987 169.10872 
L 227.498222 169.10872 
L 227.498222 168.648972 
L 229.168138 168.648972 
L 229.168138 168.189225 
L 229.826457 168.189225 
L 229.826457 167.729478 
L 230.545459 167.729478 
L 230.556775 166.809983 
L 231.776636 166.809983 
L 231.776636 166.350236 
L 231.893645 166.350236 
L 231.893645 165.890488 
L 232.896013 165.890488 
L 232.896013 165.430741 
L 234.968169 165.430741 
L 234.968169 164.970994 
L 235.849038 164.970994 
L 235.849038 164.511246 
L 236.596205 164.511246 
L 236.596205 164.051499 
L 236.811336 164.051499 
L 236.811336 163.591751 
L 237.759618 163.591751 
L 237.821577 162.672257 
L 239.191281 162.672257 
L 239.263175 161.752762 
L 239.808893 161.752762 
L 239.820741 160.37352 
L 240.782311 160.37352 
L 240.782311 159.913773 
L 241.229125 159.913773 
L 241.231729 158.994278 
L 243.288316 158.994278 
L 243.288316 158.534531 
L 244.445356 158.534531 
L 244.44659 157.615036 
L 244.682849 157.615036 
L 244.682849 157.155288 
L 245.579439 157.155288 
L 245.579439 156.695541 
L 245.925947 156.695541 
L 245.925947 156.235794 
L 246.917825 156.235794 
L 246.926636 155.316299 
L 247.703372 155.316299 
L 247.703372 154.856552 
L 247.856022 154.856552 
L 247.856022 154.396804 
L 247.968265 154.396804 
L 247.968265 153.937057 
L 248.38938 153.937057 
L 248.419505 153.017562 
L 248.506156 153.017562 
L 248.50859 152.098068 
L 249.260186 152.098068 
L 249.360398 151.178573 
L 250.117787 151.178573 
L 250.152479 150.259078 
L 250.409944 150.259078 
L 250.409944 149.799331 
L 250.930847 149.799331 
L 250.930847 149.339583 
L 256.185786 149.339583 
L 256.185786 148.879836 
L 258.779144 148.879836 
L 258.779144 148.420089 
L 260.180893 148.420089 
L 260.180893 147.960341 
L 261.451755 147.960341 
L 261.451755 147.500594 
L 262.277832 147.500594 
L 262.277832 147.040847 
L 333.569032 147.040847 
L 333.569032 147.040847 
" style="fill:none;stroke:#6495ed;stroke-linecap:square;stroke-width:1.5;"/>
   </g>
   <g id="line2d_63">
    <defs>
     <path d="M -0 6 
L 6 -6 
L -6 -6 
z
" id="me1427af26a" style="stroke:#6495ed;stroke-linejoin:miter;stroke-width:1.5;"/>
    </defs>
    <g>
     <use style="fill:none;stroke:#6495ed;stroke-linejoin:miter;stroke-width:1.5;" x="121.147181" xlink:href="#me1427af26a" y="270.253138"/>
     <use style="fill:none;stroke:#6495ed;stroke-linejoin:miter;stroke-width:1.5;" x="160.934854" xlink:href="#me1427af26a" y="225.657644"/>
     <use style="fill:none;stroke:#6495ed;stroke-linejoin:miter;stroke-width:1.5;" x="232.896013" xlink:href="#me1427af26a" y="165.430741"/>
     <use style="fill:none;stroke:#6495ed;stroke-linejoin:miter;stroke-width:1.5;" x="262.277832" xlink:href="#me1427af26a" y="147.500594"/>
     <use style="fill:none;stroke:#6495ed;stroke-linejoin:miter;stroke-width:1.5;" x="262.277832" xlink:href="#me1427af26a" y="147.040847"/>
     <use style="fill:none;stroke:#6495ed;stroke-linejoin:miter;stroke-width:1.5;" x="333.569032" xlink:href="#me1427af26a" y="147.040847"/>
    </g>
   </g>
   <g id="line2d_64">
    <path style="fill:none;stroke:#6495ed;stroke-linecap:square;stroke-width:1.5;"/>
    <g/>
   </g>
   <g id="line2d_65">
    <path clip-path="url(#p8980583e62)" d="M 197.577517 197.613056 
" style="fill:none;stroke:#6495ed;stroke-linecap:square;stroke-width:1.5;"/>
    <defs>
     <path d="M -12 12 
L 12 -12 
M -12 -12 
L 12 12 
" id="mbfe08efc3c" style="stroke:#6495ed;stroke-width:3;"/>
    </defs>
    <g clip-path="url(#p8980583e62)">
     <use style="fill:#6495ed;stroke:#6495ed;stroke-width:3;" x="197.577517" xlink:href="#mbfe08efc3c" y="197.613056"/>
    </g>
   </g>
   <g id="line2d_66">
    <path d="M 333.569032 243.587791 
L 364.009226 288.826931 
" style="fill:none;stroke:#ffa500;stroke-linecap:square;stroke-width:1.5;"/>
    <g>
     <use style="fill:none;stroke:#ffa500;stroke-linejoin:bevel;stroke-width:1.5;" x="333.569032" xlink:href="#m1d2143c400" y="243.587791"/>
     <use style="fill:none;stroke:#ffa500;stroke-linejoin:bevel;stroke-width:1.5;" x="364.009226" xlink:href="#m1d2143c400" y="288.826931"/>
    </g>
   </g>
   <g id="line2d_67">
    <path d="M 333.569032 174.625688 
L 364.009226 224.830099 
" style="fill:none;stroke:#ff00ff;stroke-linecap:square;stroke-width:1.5;"/>
    <g>
     <use style="fill:none;stroke:#ff00ff;stroke-linejoin:miter;stroke-width:1.5;" x="333.569032" xlink:href="#m5e99a9a9f4" y="174.625688"/>
     <use style="fill:none;stroke:#ff00ff;stroke-linejoin:miter;stroke-width:1.5;" x="364.009226" xlink:href="#m5e99a9a9f4" y="224.830099"/>
    </g>
   </g>
   <g id="line2d_68">
    <path d="M 333.569032 147.040847 
L 364.009226 160.833267 
" style="fill:none;stroke:#6495ed;stroke-linecap:square;stroke-width:1.5;"/>
    <g>
     <use style="fill:none;stroke:#6495ed;stroke-linejoin:miter;stroke-width:1.5;" x="333.569032" xlink:href="#me1427af26a" y="147.040847"/>
     <use style="fill:none;stroke:#6495ed;stroke-linejoin:miter;stroke-width:1.5;" x="364.009226" xlink:href="#me1427af26a" y="160.833267"/>
    </g>
   </g>
   <g id="line2d_69">
    <path d="M 333.569032 119.456005 
L 364.009226 96.836436 
" style="fill:none;stroke:#000080;stroke-linecap:square;stroke-width:1.5;"/>
    <g>
     <use style="fill:none;stroke:#000080;stroke-width:1.5;" x="333.569032" xlink:href="#m256fd98866" y="119.456005"/>
     <use style="fill:none;stroke:#000080;stroke-width:1.5;" x="364.009226" xlink:href="#m256fd98866" y="96.836436"/>
    </g>
   </g>
   <g id="line2d_70">
    <path d="M 333.569032 294.16 
L 333.569032 27.506535 
" style="fill:none;stroke:#000000;stroke-linecap:square;stroke-width:1.5;"/>
   </g>
   <g id="patch_3">
    <path d="M 56.84 294.16 
L 56.84 24.84 
" style="fill:none;stroke:#000000;stroke-linecap:square;stroke-linejoin:miter;stroke-width:0.8;"/>
   </g>
   <g id="patch_4">
    <path d="M 399.984 294.16 
L 399.984 24.84 
" style="fill:none;stroke:#000000;stroke-linecap:square;stroke-linejoin:miter;stroke-width:0.8;"/>
   </g>
   <g id="patch_5">
    <path d="M 56.84 294.16 
L 399.984 294.16 
" style="fill:none;stroke:#000000;stroke-linecap:square;stroke-linejoin:miter;stroke-width:0.8;"/>
   </g>
   <g id="patch_6">
    <path d="M 56.84 24.84 
L 399.984 24.84 
" style="fill:none;stroke:#000000;stroke-linecap:square;stroke-linejoin:miter;stroke-width:0.8;"/>
   </g>
   <g id="text_14">
    <!-- adaptiveH -->
    <defs>
     <path d="M 9.8125 72.90625 
L 19.671875 72.90625 
L 19.671875 43.015625 
L 55.515625 43.015625 
L 55.515625 72.90625 
L 65.375 72.90625 
L 65.375 0 
L 55.515625 0 
L 55.515625 34.71875 
L 19.671875 34.71875 
L 19.671875 0 
L 9.8125 0 
z
" id="DejaVuSans-48"/>
    </defs>
    <g transform="translate(369.543806 293.517868)scale(0.17 -0.17)">
     <use xlink:href="#DejaVuSans-61"/>
     <use x="61.279297" xlink:href="#DejaVuSans-64"/>
     <use x="124.755859" xlink:href="#DejaVuSans-61"/>
     <use x="186.035156" xlink:href="#DejaVuSans-70"/>
     <use x="249.511719" xlink:href="#DejaVuSans-74"/>
     <use x="288.720703" xlink:href="#DejaVuSans-69"/>
     <use x="316.503906" xlink:href="#DejaVuSans-76"/>
     <use x="375.683594" xlink:href="#DejaVuSans-65"/>
     <use x="437.207031" xlink:href="#DejaVuSans-48"/>
    </g>
   </g>
   <g id="text_15">
    <!-- RANDOMSEA -->
    <defs>
     <path d="M 44.390625 34.1875 
Q 47.5625 33.109375 50.5625 29.59375 
Q 53.5625 26.078125 56.59375 19.921875 
L 66.609375 0 
L 56 0 
L 46.6875 18.703125 
Q 43.0625 26.03125 39.671875 28.421875 
Q 36.28125 30.8125 30.421875 30.8125 
L 19.671875 30.8125 
L 19.671875 0 
L 9.8125 0 
L 9.8125 72.90625 
L 32.078125 72.90625 
Q 44.578125 72.90625 50.734375 67.671875 
Q 56.890625 62.453125 56.890625 51.90625 
Q 56.890625 45.015625 53.6875 40.46875 
Q 50.484375 35.9375 44.390625 34.1875 
M 19.671875 64.796875 
L 19.671875 38.921875 
L 32.078125 38.921875 
Q 39.203125 38.921875 42.84375 42.21875 
Q 46.484375 45.515625 46.484375 51.90625 
Q 46.484375 58.296875 42.84375 61.546875 
Q 39.203125 64.796875 32.078125 64.796875 
z
" id="DejaVuSans-52"/>
     <path d="M 34.1875 63.1875 
L 20.796875 26.90625 
L 47.609375 26.90625 
z
M 28.609375 72.90625 
L 39.796875 72.90625 
L 67.578125 0 
L 57.328125 0 
L 50.6875 18.703125 
L 17.828125 18.703125 
L 11.1875 0 
L 0.78125 0 
z
" id="DejaVuSans-41"/>
     <path d="M 9.8125 72.90625 
L 23.09375 72.90625 
L 55.421875 11.921875 
L 55.421875 72.90625 
L 64.984375 72.90625 
L 64.984375 0 
L 51.703125 0 
L 19.390625 60.984375 
L 19.390625 0 
L 9.8125 0 
z
" id="DejaVuSans-4e"/>
     <path d="M 19.671875 64.796875 
L 19.671875 8.109375 
L 31.59375 8.109375 
Q 46.6875 8.109375 53.6875 14.9375 
Q 60.6875 21.78125 60.6875 36.53125 
Q 60.6875 51.171875 53.6875 57.984375 
Q 46.6875 64.796875 31.59375 64.796875 
z
M 9.8125 72.90625 
L 30.078125 72.90625 
Q 51.265625 72.90625 61.171875 64.09375 
Q 71.09375 55.28125 71.09375 36.53125 
Q 71.09375 17.671875 61.125 8.828125 
Q 51.171875 0 30.078125 0 
L 9.8125 0 
z
" id="DejaVuSans-44"/>
     <path d="M 39.40625 66.21875 
Q 28.65625 66.21875 22.328125 58.203125 
Q 16.015625 50.203125 16.015625 36.375 
Q 16.015625 22.609375 22.328125 14.59375 
Q 28.65625 6.59375 39.40625 6.59375 
Q 50.140625 6.59375 56.421875 14.59375 
Q 62.703125 22.609375 62.703125 36.375 
Q 62.703125 50.203125 56.421875 58.203125 
Q 50.140625 66.21875 39.40625 66.21875 
M 39.40625 74.21875 
Q 54.734375 74.21875 63.90625 63.9375 
Q 73.09375 53.65625 73.09375 36.375 
Q 73.09375 19.140625 63.90625 8.859375 
Q 54.734375 -1.421875 39.40625 -1.421875 
Q 24.03125 -1.421875 14.8125 8.828125 
Q 5.609375 19.09375 5.609375 36.375 
Q 5.609375 53.65625 14.8125 63.9375 
Q 24.03125 74.21875 39.40625 74.21875 
" id="DejaVuSans-4f"/>
     <path d="M 9.8125 72.90625 
L 24.515625 72.90625 
L 43.109375 23.296875 
L 61.8125 72.90625 
L 76.515625 72.90625 
L 76.515625 0 
L 66.890625 0 
L 66.890625 64.015625 
L 48.09375 14.015625 
L 38.1875 14.015625 
L 19.390625 64.015625 
L 19.390625 0 
L 9.8125 0 
z
" id="DejaVuSans-4d"/>
     <path d="M 53.515625 70.515625 
L 53.515625 60.890625 
Q 47.90625 63.578125 42.921875 64.890625 
Q 37.9375 66.21875 33.296875 66.21875 
Q 25.25 66.21875 20.875 63.09375 
Q 16.5 59.96875 16.5 54.203125 
Q 16.5 49.359375 19.40625 46.890625 
Q 22.3125 44.4375 30.421875 42.921875 
L 36.375 41.703125 
Q 47.40625 39.59375 52.65625 34.296875 
Q 57.90625 29 57.90625 20.125 
Q 57.90625 9.515625 50.796875 4.046875 
Q 43.703125 -1.421875 29.984375 -1.421875 
Q 24.8125 -1.421875 18.96875 -0.25 
Q 13.140625 0.921875 6.890625 3.21875 
L 6.890625 13.375 
Q 12.890625 10.015625 18.65625 8.296875 
Q 24.421875 6.59375 29.984375 6.59375 
Q 38.421875 6.59375 43.015625 9.90625 
Q 47.609375 13.234375 47.609375 19.390625 
Q 47.609375 24.75 44.3125 27.78125 
Q 41.015625 30.8125 33.5 32.328125 
L 27.484375 33.5 
Q 16.453125 35.6875 11.515625 40.375 
Q 6.59375 45.0625 6.59375 53.421875 
Q 6.59375 63.09375 13.40625 68.65625 
Q 20.21875 74.21875 32.171875 74.21875 
Q 37.3125 74.21875 42.625 73.28125 
Q 47.953125 72.359375 53.515625 70.515625 
" id="DejaVuSans-53"/>
     <path d="M 9.8125 72.90625 
L 55.90625 72.90625 
L 55.90625 64.59375 
L 19.671875 64.59375 
L 19.671875 43.015625 
L 54.390625 43.015625 
L 54.390625 34.71875 
L 19.671875 34.71875 
L 19.671875 8.296875 
L 56.78125 8.296875 
L 56.78125 0 
L 9.8125 0 
z
" id="DejaVuSans-45"/>
    </defs>
    <g transform="translate(369.543806 229.521037)scale(0.17 -0.17)">
     <use xlink:href="#DejaVuSans-52"/>
     <use x="69.419922" xlink:href="#DejaVuSans-41"/>
     <use x="137.828125" xlink:href="#DejaVuSans-4e"/>
     <use x="212.632812" xlink:href="#DejaVuSans-44"/>
     <use x="289.634766" xlink:href="#DejaVuSans-4f"/>
     <use x="368.345703" xlink:href="#DejaVuSans-4d"/>
     <use x="454.625" xlink:href="#DejaVuSans-53"/>
     <use x="518.101562" xlink:href="#DejaVuSans-45"/>
     <use x="581.285156" xlink:href="#DejaVuSans-41"/>
    </g>
   </g>
   <g id="text_16">
    <!-- final  bu -->
    <defs>
     <path d="M 48.6875 27.296875 
Q 48.6875 37.203125 44.609375 42.84375 
Q 40.53125 48.484375 33.40625 48.484375 
Q 26.265625 48.484375 22.1875 42.84375 
Q 18.109375 37.203125 18.109375 27.296875 
Q 18.109375 17.390625 22.1875 11.75 
Q 26.265625 6.109375 33.40625 6.109375 
Q 40.53125 6.109375 44.609375 11.75 
Q 48.6875 17.390625 48.6875 27.296875 
M 18.109375 46.390625 
Q 20.953125 51.265625 25.265625 53.625 
Q 29.59375 56 35.59375 56 
Q 45.5625 56 51.78125 48.09375 
Q 58.015625 40.1875 58.015625 27.296875 
Q 58.015625 14.40625 51.78125 6.484375 
Q 45.5625 -1.421875 35.59375 -1.421875 
Q 29.59375 -1.421875 25.265625 0.953125 
Q 20.953125 3.328125 18.109375 8.203125 
L 18.109375 0 
L 9.078125 0 
L 9.078125 75.984375 
L 18.109375 75.984375 
z
" id="DejaVuSans-62"/>
    </defs>
    <g transform="translate(369.543806 165.524205)scale(0.17 -0.17)">
     <use xlink:href="#DejaVuSans-66"/>
     <use x="35.205078" xlink:href="#DejaVuSans-69"/>
     <use x="62.988281" xlink:href="#DejaVuSans-6e"/>
     <use x="126.367188" xlink:href="#DejaVuSans-61"/>
     <use x="187.646484" xlink:href="#DejaVuSans-6c"/>
     <use x="215.429688" xlink:href="#DejaVuSans-20"/>
     <use x="247.216797" xlink:href="#DejaVuSans-20"/>
     <use x="279.003906" xlink:href="#DejaVuSans-62"/>
     <use x="342.480469" xlink:href="#DejaVuSans-75"/>
    </g>
   </g>
   <g id="text_17">
    <!-- NSGA-II-M -->
    <defs>
     <path d="M 59.515625 10.40625 
L 59.515625 29.984375 
L 43.40625 29.984375 
L 43.40625 38.09375 
L 69.28125 38.09375 
L 69.28125 6.78125 
Q 63.578125 2.734375 56.6875 0.65625 
Q 49.8125 -1.421875 42 -1.421875 
Q 24.90625 -1.421875 15.25 8.5625 
Q 5.609375 18.5625 5.609375 36.375 
Q 5.609375 54.25 15.25 64.234375 
Q 24.90625 74.21875 42 74.21875 
Q 49.125 74.21875 55.546875 72.453125 
Q 61.96875 70.703125 67.390625 67.28125 
L 67.390625 56.78125 
Q 61.921875 61.421875 55.765625 63.765625 
Q 49.609375 66.109375 42.828125 66.109375 
Q 29.4375 66.109375 22.71875 58.640625 
Q 16.015625 51.171875 16.015625 36.375 
Q 16.015625 21.625 22.71875 14.15625 
Q 29.4375 6.6875 42.828125 6.6875 
Q 48.046875 6.6875 52.140625 7.59375 
Q 56.25 8.5 59.515625 10.40625 
" id="DejaVuSans-47"/>
     <path d="M 9.8125 72.90625 
L 19.671875 72.90625 
L 19.671875 0 
L 9.8125 0 
z
" id="DejaVuSans-49"/>
    </defs>
    <g transform="translate(369.543806 101.527373)scale(0.17 -0.17)">
     <use xlink:href="#DejaVuSans-4e"/>
     <use x="74.804688" xlink:href="#DejaVuSans-53"/>
     <use x="138.28125" xlink:href="#DejaVuSans-47"/>
     <use x="215.771484" xlink:href="#DejaVuSans-41"/>
     <use x="284.148438" xlink:href="#DejaVuSans-2d"/>
     <use x="320.232422" xlink:href="#DejaVuSans-49"/>
     <use x="349.724609" xlink:href="#DejaVuSans-49"/>
     <use x="379.216797" xlink:href="#DejaVuSans-2d"/>
     <use x="415.300781" xlink:href="#DejaVuSans-4d"/>
    </g>
   </g>
   <g id="text_18">
    <!-- best 2016 -->
    <g transform="translate(369.543806 37.530541)scale(0.17 -0.17)">
     <use xlink:href="#DejaVuSans-62"/>
     <use x="63.476562" xlink:href="#DejaVuSans-65"/>
     <use x="125" xlink:href="#DejaVuSans-73"/>
     <use x="177.099609" xlink:href="#DejaVuSans-74"/>
     <use x="216.308594" xlink:href="#DejaVuSans-20"/>
     <use x="248.095703" xlink:href="#DejaVuSans-32"/>
     <use x="311.71875" xlink:href="#DejaVuSans-30"/>
     <use x="375.341797" xlink:href="#DejaVuSans-31"/>
     <use x="438.964844" xlink:href="#DejaVuSans-36"/>
    </g>
   </g>
   <g id="text_19">
    <!-- bbob-biobj f40, 3-D -->
    <defs>
     <path d="M 9.421875 54.6875 
L 18.40625 54.6875 
L 18.40625 -0.984375 
Q 18.40625 -11.421875 14.421875 -16.109375 
Q 10.453125 -20.796875 1.609375 -20.796875 
L -1.8125 -20.796875 
L -1.8125 -13.1875 
L 0.59375 -13.1875 
Q 5.71875 -13.1875 7.5625 -10.8125 
Q 9.421875 -8.453125 9.421875 -0.984375 
z
M 9.421875 75.984375 
L 18.40625 75.984375 
L 18.40625 64.59375 
L 9.421875 64.59375 
z
" id="DejaVuSans-6a"/>
     <path d="M 40.578125 39.3125 
Q 47.65625 37.796875 51.625 33 
Q 55.609375 28.21875 55.609375 21.1875 
Q 55.609375 10.40625 48.1875 4.484375 
Q 40.765625 -1.421875 27.09375 -1.421875 
Q 22.515625 -1.421875 17.65625 -0.515625 
Q 12.796875 0.390625 7.625 2.203125 
L 7.625 11.71875 
Q 11.71875 9.328125 16.59375 8.109375 
Q 21.484375 6.890625 26.8125 6.890625 
Q 36.078125 6.890625 40.9375 10.546875 
Q 45.796875 14.203125 45.796875 21.1875 
Q 45.796875 27.640625 41.28125 31.265625 
Q 36.765625 34.90625 28.71875 34.90625 
L 20.21875 34.90625 
L 20.21875 43.015625 
L 29.109375 43.015625 
Q 36.375 43.015625 40.234375 45.921875 
Q 44.09375 48.828125 44.09375 54.296875 
Q 44.09375 59.90625 40.109375 62.90625 
Q 36.140625 65.921875 28.71875 65.921875 
Q 24.65625 65.921875 20.015625 65.03125 
Q 15.375 64.15625 9.8125 62.3125 
L 9.8125 71.09375 
Q 15.4375 72.65625 20.34375 73.4375 
Q 25.25 74.21875 29.59375 74.21875 
Q 40.828125 74.21875 47.359375 69.109375 
Q 53.90625 64.015625 53.90625 55.328125 
Q 53.90625 49.265625 50.4375 45.09375 
Q 46.96875 40.921875 40.578125 39.3125 
" id="DejaVuSans-33"/>
    </defs>
    <g transform="translate(60.27144 35.283606)scale(0.102 -0.102)">
     <use xlink:href="#DejaVuSans-62"/>
     <use x="63.476562" xlink:href="#DejaVuSans-62"/>
     <use x="126.953125" xlink:href="#DejaVuSans-6f"/>
     <use x="188.134766" xlink:href="#DejaVuSans-62"/>
     <use x="251.611328" xlink:href="#DejaVuSans-2d"/>
     <use x="287.695312" xlink:href="#DejaVuSans-62"/>
     <use x="351.171875" xlink:href="#DejaVuSans-69"/>
     <use x="378.955078" xlink:href="#DejaVuSans-6f"/>
     <use x="440.136719" xlink:href="#DejaVuSans-62"/>
     <use x="503.613281" xlink:href="#DejaVuSans-6a"/>
     <use x="531.396484" xlink:href="#DejaVuSans-20"/>
     <use x="563.183594" xlink:href="#DejaVuSans-66"/>
     <use x="598.388672" xlink:href="#DejaVuSans-34"/>
     <use x="662.011719" xlink:href="#DejaVuSans-30"/>
     <use x="725.634766" xlink:href="#DejaVuSans-2c"/>
     <use x="757.421875" xlink:href="#DejaVuSans-20"/>
     <use x="789.208984" xlink:href="#DejaVuSans-33"/>
     <use x="852.832031" xlink:href="#DejaVuSans-2d"/>
     <use x="888.916016" xlink:href="#DejaVuSans-44"/>
    </g>
    <!-- 58 targets: 1..-1.0e-4 -->
    <defs>
     <path d="M 10.796875 72.90625 
L 49.515625 72.90625 
L 49.515625 64.59375 
L 19.828125 64.59375 
L 19.828125 46.734375 
Q 21.96875 47.46875 24.109375 47.828125 
Q 26.265625 48.1875 28.421875 48.1875 
Q 40.625 48.1875 47.75 41.5 
Q 54.890625 34.8125 54.890625 23.390625 
Q 54.890625 11.625 47.5625 5.09375 
Q 40.234375 -1.421875 26.90625 -1.421875 
Q 22.3125 -1.421875 17.546875 -0.640625 
Q 12.796875 0.140625 7.71875 1.703125 
L 7.71875 11.625 
Q 12.109375 9.234375 16.796875 8.0625 
Q 21.484375 6.890625 26.703125 6.890625 
Q 35.15625 6.890625 40.078125 11.328125 
Q 45.015625 15.765625 45.015625 23.390625 
Q 45.015625 31 40.078125 35.4375 
Q 35.15625 39.890625 26.703125 39.890625 
Q 22.75 39.890625 18.8125 39.015625 
Q 14.890625 38.140625 10.796875 36.28125 
z
" id="DejaVuSans-35"/>
     <path d="M 11.71875 12.40625 
L 22.015625 12.40625 
L 22.015625 0 
L 11.71875 0 
z
M 11.71875 51.703125 
L 22.015625 51.703125 
L 22.015625 39.3125 
L 11.71875 39.3125 
z
" id="DejaVuSans-3a"/>
    </defs>
    <g transform="translate(60.27144 46.705375)scale(0.102 -0.102)">
     <use xlink:href="#DejaVuSans-35"/>
     <use x="63.623047" xlink:href="#DejaVuSans-38"/>
     <use x="127.246094" xlink:href="#DejaVuSans-20"/>
     <use x="159.033203" xlink:href="#DejaVuSans-74"/>
     <use x="198.242188" xlink:href="#DejaVuSans-61"/>
     <use x="259.521484" xlink:href="#DejaVuSans-72"/>
     <use x="300.619141" xlink:href="#DejaVuSans-67"/>
     <use x="364.095703" xlink:href="#DejaVuSans-65"/>
     <use x="425.619141" xlink:href="#DejaVuSans-74"/>
     <use x="464.828125" xlink:href="#DejaVuSans-73"/>
     <use x="516.927734" xlink:href="#DejaVuSans-3a"/>
     <use x="550.619141" xlink:href="#DejaVuSans-20"/>
     <use x="582.40625" xlink:href="#DejaVuSans-31"/>
     <use x="646.029297" xlink:href="#DejaVuSans-2e"/>
     <use x="677.816406" xlink:href="#DejaVuSans-2e"/>
     <use x="709.603516" xlink:href="#DejaVuSans-2d"/>
     <use x="745.6875" xlink:href="#DejaVuSans-31"/>
     <use x="809.310547" xlink:href="#DejaVuSans-2e"/>
     <use x="841.097656" xlink:href="#DejaVuSans-30"/>
     <use x="904.720703" xlink:href="#DejaVuSans-65"/>
     <use x="966.244141" xlink:href="#DejaVuSans-2d"/>
     <use x="1002.328125" xlink:href="#DejaVuSans-34"/>
    </g>
    <!-- 10 instances -->
    <g transform="translate(60.27144 58.127144)scale(0.102 -0.102)">
     <use xlink:href="#DejaVuSans-31"/>
     <use x="63.623047" xlink:href="#DejaVuSans-30"/>
     <use x="127.246094" xlink:href="#DejaVuSans-20"/>
     <use x="159.033203" xlink:href="#DejaVuSans-69"/>
     <use x="186.816406" xlink:href="#DejaVuSans-6e"/>
     <use x="250.195312" xlink:href="#DejaVuSans-73"/>
     <use x="302.294922" xlink:href="#DejaVuSans-74"/>
     <use x="341.503906" xlink:href="#DejaVuSans-61"/>
     <use x="402.783203" xlink:href="#DejaVuSans-6e"/>
     <use x="466.162109" xlink:href="#DejaVuSans-63"/>
     <use x="521.142578" xlink:href="#DejaVuSans-65"/>
     <use x="582.666016" xlink:href="#DejaVuSans-73"/>
    </g>
   </g>
   <g id="text_20">
    <!-- v2.2.1.10, hv-hash=ff0e71e8cd978373 -->
    <defs>
     <path d="M 54.890625 33.015625 
L 54.890625 0 
L 45.90625 0 
L 45.90625 32.71875 
Q 45.90625 40.484375 42.875 44.328125 
Q 39.84375 48.1875 33.796875 48.1875 
Q 26.515625 48.1875 22.3125 43.546875 
Q 18.109375 38.921875 18.109375 30.90625 
L 18.109375 0 
L 9.078125 0 
L 9.078125 75.984375 
L 18.109375 75.984375 
L 18.109375 46.1875 
Q 21.34375 51.125 25.703125 53.5625 
Q 30.078125 56 35.796875 56 
Q 45.21875 56 50.046875 50.171875 
Q 54.890625 44.34375 54.890625 33.015625 
" id="DejaVuSans-68"/>
     <path d="M 10.59375 45.40625 
L 73.1875 45.40625 
L 73.1875 37.203125 
L 10.59375 37.203125 
z
M 10.59375 25.484375 
L 73.1875 25.484375 
L 73.1875 17.1875 
L 10.59375 17.1875 
z
" id="DejaVuSans-3d"/>
     <path d="M 8.203125 72.90625 
L 55.078125 72.90625 
L 55.078125 68.703125 
L 28.609375 0 
L 18.3125 0 
L 43.21875 64.59375 
L 8.203125 64.59375 
z
" id="DejaVuSans-37"/>
     <path d="M 10.984375 1.515625 
L 10.984375 10.5 
Q 14.703125 8.734375 18.5 7.8125 
Q 22.3125 6.890625 25.984375 6.890625 
Q 35.75 6.890625 40.890625 13.453125 
Q 46.046875 20.015625 46.78125 33.40625 
Q 43.953125 29.203125 39.59375 26.953125 
Q 35.25 24.703125 29.984375 24.703125 
Q 19.046875 24.703125 12.671875 31.3125 
Q 6.296875 37.9375 6.296875 49.421875 
Q 6.296875 60.640625 12.9375 67.421875 
Q 19.578125 74.21875 30.609375 74.21875 
Q 43.265625 74.21875 49.921875 64.515625 
Q 56.59375 54.828125 56.59375 36.375 
Q 56.59375 19.140625 48.40625 8.859375 
Q 40.234375 -1.421875 26.421875 -1.421875 
Q 22.703125 -1.421875 18.890625 -0.6875 
Q 15.09375 0.046875 10.984375 1.515625 
M 30.609375 32.421875 
Q 37.25 32.421875 41.125 36.953125 
Q 45.015625 41.5 45.015625 49.421875 
Q 45.015625 57.28125 41.125 61.84375 
Q 37.25 66.40625 30.609375 66.40625 
Q 23.96875 66.40625 20.09375 61.84375 
Q 16.21875 57.28125 16.21875 49.421875 
Q 16.21875 41.5 20.09375 36.953125 
Q 23.96875 32.421875 30.609375 32.421875 
" id="DejaVuSans-39"/>
    </defs>
    <g style="fill:#808080;" transform="translate(130.065125 289.387113)scale(0.1 -0.1)">
     <use xlink:href="#DejaVuSans-76"/>
     <use x="59.179688" xlink:href="#DejaVuSans-32"/>
     <use x="122.802734" xlink:href="#DejaVuSans-2e"/>
     <use x="154.589844" xlink:href="#DejaVuSans-32"/>
     <use x="218.212891" xlink:href="#DejaVuSans-2e"/>
     <use x="250" xlink:href="#DejaVuSans-31"/>
     <use x="313.623047" xlink:href="#DejaVuSans-2e"/>
     <use x="345.410156" xlink:href="#DejaVuSans-31"/>
     <use x="409.033203" xlink:href="#DejaVuSans-30"/>
     <use x="472.65625" xlink:href="#DejaVuSans-2c"/>
     <use x="504.443359" xlink:href="#DejaVuSans-20"/>
     <use x="536.230469" xlink:href="#DejaVuSans-68"/>
     <use x="599.609375" xlink:href="#DejaVuSans-76"/>
     <use x="658.757812" xlink:href="#DejaVuSans-2d"/>
     <use x="694.841797" xlink:href="#DejaVuSans-68"/>
     <use x="758.220703" xlink:href="#DejaVuSans-61"/>
     <use x="819.5" xlink:href="#DejaVuSans-73"/>
     <use x="871.599609" xlink:href="#DejaVuSans-68"/>
     <use x="934.978516" xlink:href="#DejaVuSans-3d"/>
     <use x="1018.767578" xlink:href="#DejaVuSans-66"/>
     <use x="1053.972656" xlink:href="#DejaVuSans-66"/>
     <use x="1089.177734" xlink:href="#DejaVuSans-30"/>
     <use x="1152.800781" xlink:href="#DejaVuSans-65"/>
     <use x="1214.324219" xlink:href="#DejaVuSans-37"/>
     <use x="1277.947266" xlink:href="#DejaVuSans-31"/>
     <use x="1341.570312" xlink:href="#DejaVuSans-65"/>
     <use x="1403.09375" xlink:href="#DejaVuSans-38"/>
     <use x="1466.716797" xlink:href="#DejaVuSans-63"/>
     <use x="1521.697266" xlink:href="#DejaVuSans-64"/>
     <use x="1585.173828" xlink:href="#DejaVuSans-39"/>
     <use x="1648.796875" xlink:href="#DejaVuSans-37"/>
     <use x="1712.419922" xlink:href="#DejaVuSans-38"/>
     <use x="1776.042969" xlink:href="#DejaVuSans-33"/>
     <use x="1839.666016" xlink:href="#DejaVuSans-37"/>
     <use x="1903.289062" xlink:href="#DejaVuSans-33"/>
    </g>
   </g>
   <g id="text_21">
    <!-- 40 Sharp ridge/Gallagher 101 -->
    <g transform="translate(80.172938 18.84)scale(0.2 -0.2)">
     <use xlink:href="#DejaVuSans-34"/>
     <use x="63.623047" xlink:href="#DejaVuSans-30"/>
     <use x="127.246094" xlink:href="#DejaVuSans-20"/>
     <use x="159.033203" xlink:href="#DejaVuSans-53"/>
     <use x="222.509766" xlink:href="#DejaVuSans-68"/>
     <use x="285.888672" xlink:href="#DejaVuSans-61"/>
     <use x="347.167969" xlink:href="#DejaVuSans-72"/>
     <use x="388.28125" xlink:href="#DejaVuSans-70"/>
     <use x="451.757812" xlink:href="#DejaVuSans-20"/>
     <use x="483.544922" xlink:href="#DejaVuSans-72"/>
     <use x="524.658203" xlink:href="#DejaVuSans-69"/>
     <use x="552.441406" xlink:href="#DejaVuSans-64"/>
     <use x="615.917969" xlink:href="#DejaVuSans-67"/>
     <use x="679.394531" xlink:href="#DejaVuSans-65"/>
     <use x="740.917969" xlink:href="#DejaVuSans-2f"/>
     <use x="774.609375" xlink:href="#DejaVuSans-47"/>
     <use x="852.099609" xlink:href="#DejaVuSans-61"/>
     <use x="913.378906" xlink:href="#DejaVuSans-6c"/>
     <use x="941.162109" xlink:href="#DejaVuSans-6c"/>
     <use x="968.945312" xlink:href="#DejaVuSans-61"/>
     <use x="1030.224609" xlink:href="#DejaVuSans-67"/>
     <use x="1093.701172" xlink:href="#DejaVuSans-68"/>
     <use x="1157.080078" xlink:href="#DejaVuSans-65"/>
     <use x="1218.603516" xlink:href="#DejaVuSans-72"/>
     <use x="1259.716797" xlink:href="#DejaVuSans-20"/>
     <use x="1291.503906" xlink:href="#DejaVuSans-31"/>
     <use x="1355.126953" xlink:href="#DejaVuSans-30"/>
     <use x="1418.75" xlink:href="#DejaVuSans-31"/>
    </g>
   </g>
  </g>
 </g>
 <defs>
  <clipPath id="p8980583e62">
   <rect height="269.32" width="343.144" x="56.84" y="24.84"/>
  </clipPath>
 </defs>
</svg>
