<?xml version="1.0" encoding="utf-8" standalone="no"?>
<!DOCTYPE svg PUBLIC "-//W3C//DTD SVG 1.1//EN"
  "http://www.w3.org/Graphics/SVG/1.1/DTD/svg11.dtd">
<!-- Created with matplotlib (http://matplotlib.org/) -->
<svg height="345pt" version="1.1" viewBox="0 0 460 345" width="460pt" xmlns="http://www.w3.org/2000/svg" xmlns:xlink="http://www.w3.org/1999/xlink">
 <defs>
  <style type="text/css">
*{stroke-linecap:butt;stroke-linejoin:round;}
  </style>
 </defs>
 <g id="figure_1">
  <g id="patch_1">
   <path d="M 0 345.6 
L 460.8 345.6 
L 460.8 0 
L 0 0 
z
" style="fill:#ffffff;"/>
  </g>
  <g id="axes_1">
   <g id="patch_2">
    <path d="M 56.84 294.16 
L 395.354625 294.16 
L 395.354625 24.84 
L 56.84 24.84 
z
" style="fill:#ffffff;"/>
   </g>
   <g id="line2d_1">
    <path d="M 29.580603 294.16 
L 29.580603 289.562526 
L 53.06057 289.562526 
L 53.06057 280.367579 
L 66.79547 280.367579 
L 66.79547 271.172632 
L 82.687145 271.172632 
L 82.687145 266.575159 
L 87.742785 266.575159 
L 87.742785 252.782738 
L 98.642735 252.782738 
L 98.642735 243.587791 
L 106.167112 243.587791 
L 106.167112 238.990318 
L 113.755403 238.990318 
L 113.755403 229.79537 
L 123.030893 229.79537 
L 123.030893 216.00295 
L 131.845326 216.00295 
L 131.845326 206.808003 
L 138.427425 206.808003 
L 138.427425 197.613056 
L 144.981385 197.613056 
L 144.981385 188.418109 
L 151.306697 188.418109 
L 151.306697 183.820635 
L 157.538872 183.820635 
L 157.538872 170.028214 
L 165.872169 170.028214 
L 165.872169 165.430741 
L 171.711451 165.430741 
L 171.711451 151.63832 
L 181.8642 151.63832 
L 181.8642 142.443373 
L 188.723915 142.443373 
L 188.723915 137.8459 
L 196.241258 137.8459 
L 196.241258 124.053479 
L 203.600845 124.053479 
L 203.600845 119.456005 
L 209.962917 119.456005 
L 209.962917 105.663585 
L 217.064631 105.663585 
L 217.064631 96.468638 
L 224.816657 96.468638 
L 224.816657 87.273691 
L 233.044869 87.273691 
L 233.044869 82.676217 
L 238.200326 82.676217 
L 238.200326 73.48127 
L 243.776439 73.48127 
L 243.776439 59.688849 
L 329.835665 59.688849 
" style="fill:none;stroke:#f5deb3;stroke-linecap:square;stroke-width:6;"/>
   </g>
   <g id="line2d_2">
    <defs>
     <path d="M -0 7.778175 
L 7.778175 0 
L 0 -7.778175 
L -7.778175 -0 
z
" id="m01e63e2ba0" style="stroke:#f5deb3;stroke-linejoin:miter;stroke-width:1.5;"/>
    </defs>
    <g>
     <use style="fill:#f5deb3;stroke:#f5deb3;stroke-linejoin:miter;stroke-width:1.5;" x="87.742785" xlink:href="#m01e63e2ba0" y="252.782738"/>
     <use style="fill:#f5deb3;stroke:#f5deb3;stroke-linejoin:miter;stroke-width:1.5;" x="157.538872" xlink:href="#m01e63e2ba0" y="183.820635"/>
     <use style="fill:#f5deb3;stroke:#f5deb3;stroke-linejoin:miter;stroke-width:1.5;" x="209.962917" xlink:href="#m01e63e2ba0" y="105.663585"/>
     <use style="fill:#f5deb3;stroke:#f5deb3;stroke-linejoin:miter;stroke-width:1.5;" x="243.776439" xlink:href="#m01e63e2ba0" y="73.48127"/>
     <use style="fill:#f5deb3;stroke:#f5deb3;stroke-linejoin:miter;stroke-width:1.5;" x="243.776439" xlink:href="#m01e63e2ba0" y="59.688849"/>
     <use style="fill:#f5deb3;stroke:#f5deb3;stroke-linejoin:miter;stroke-width:1.5;" x="329.835665" xlink:href="#m01e63e2ba0" y="59.688849"/>
    </g>
   </g>
   <g id="line2d_3">
    <path style="fill:none;stroke:#f5deb3;stroke-linecap:square;stroke-width:6;"/>
    <g/>
   </g>
   <g id="line2d_4">
    <path d="M 329.835665 59.688849 
L 359.865189 32.839604 
" style="fill:none;stroke:#f5deb3;stroke-linecap:square;stroke-width:6;"/>
    <g>
     <use style="fill:#f5deb3;stroke:#f5deb3;stroke-linejoin:miter;stroke-width:1.5;" x="329.835665" xlink:href="#m01e63e2ba0" y="59.688849"/>
     <use style="fill:#f5deb3;stroke:#f5deb3;stroke-linejoin:miter;stroke-width:1.5;" x="359.865189" xlink:href="#m01e63e2ba0" y="32.839604"/>
    </g>
   </g>
   <g id="matplotlib.axis_1">
    <g id="xtick_1">
     <g id="line2d_5">
      <path clip-path="url(#pf430243342)" d="M 56.84 294.16 
L 56.84 24.84 
" style="fill:none;stroke:#b0b0b0;stroke-linecap:square;stroke-width:0.8;"/>
     </g>
     <g id="line2d_6">
      <defs>
       <path d="M 0 0 
L 0 3.5 
" id="mb63e37c038" style="stroke:#000000;stroke-width:0.8;"/>
      </defs>
      <g>
       <use style="stroke:#000000;stroke-width:0.8;" x="56.84" xlink:href="#mb63e37c038" y="294.16"/>
      </g>
     </g>
     <g id="text_1">
      <!-- 0 -->
      <defs>
       <path d="M 31.78125 66.40625 
Q 24.171875 66.40625 20.328125 58.90625 
Q 16.5 51.421875 16.5 36.375 
Q 16.5 21.390625 20.328125 13.890625 
Q 24.171875 6.390625 31.78125 6.390625 
Q 39.453125 6.390625 43.28125 13.890625 
Q 47.125 21.390625 47.125 36.375 
Q 47.125 51.421875 43.28125 58.90625 
Q 39.453125 66.40625 31.78125 66.40625 
M 31.78125 74.21875 
Q 44.046875 74.21875 50.515625 64.515625 
Q 56.984375 54.828125 56.984375 36.375 
Q 56.984375 17.96875 50.515625 8.265625 
Q 44.046875 -1.421875 31.78125 -1.421875 
Q 19.53125 -1.421875 13.0625 8.265625 
Q 6.59375 17.96875 6.59375 36.375 
Q 6.59375 54.828125 13.0625 64.515625 
Q 19.53125 74.21875 31.78125 74.21875 
" id="DejaVuSans-30"/>
      </defs>
      <g transform="translate(50.4775 316.356875)scale(0.2 -0.2)">
       <use xlink:href="#DejaVuSans-30"/>
      </g>
     </g>
    </g>
    <g id="xtick_2">
     <g id="line2d_7">
      <path clip-path="url(#pf430243342)" d="M 134.838762 294.16 
L 134.838762 24.84 
" style="fill:none;stroke:#b0b0b0;stroke-linecap:square;stroke-width:0.8;"/>
     </g>
     <g id="line2d_8">
      <g>
       <use style="stroke:#000000;stroke-width:0.8;" x="134.838762" xlink:href="#mb63e37c038" y="294.16"/>
      </g>
     </g>
     <g id="text_2">
      <!-- 2 -->
      <defs>
       <path d="M 19.1875 8.296875 
L 53.609375 8.296875 
L 53.609375 0 
L 7.328125 0 
L 7.328125 8.296875 
Q 12.9375 14.109375 22.625 23.890625 
Q 32.328125 33.6875 34.8125 36.53125 
Q 39.546875 41.84375 41.421875 45.53125 
Q 43.3125 49.21875 43.3125 52.78125 
Q 43.3125 58.59375 39.234375 62.25 
Q 35.15625 65.921875 28.609375 65.921875 
Q 23.96875 65.921875 18.8125 64.3125 
Q 13.671875 62.703125 7.8125 59.421875 
L 7.8125 69.390625 
Q 13.765625 71.78125 18.9375 73 
Q 24.125 74.21875 28.421875 74.21875 
Q 39.75 74.21875 46.484375 68.546875 
Q 53.21875 62.890625 53.21875 53.421875 
Q 53.21875 48.921875 51.53125 44.890625 
Q 49.859375 40.875 45.40625 35.40625 
Q 44.1875 33.984375 37.640625 27.21875 
Q 31.109375 20.453125 19.1875 8.296875 
" id="DejaVuSans-32"/>
      </defs>
      <g transform="translate(128.476262 316.356875)scale(0.2 -0.2)">
       <use xlink:href="#DejaVuSans-32"/>
      </g>
     </g>
    </g>
    <g id="xtick_3">
     <g id="line2d_9">
      <path clip-path="url(#pf430243342)" d="M 212.837523 294.16 
L 212.837523 24.84 
" style="fill:none;stroke:#b0b0b0;stroke-linecap:square;stroke-width:0.8;"/>
     </g>
     <g id="line2d_10">
      <g>
       <use style="stroke:#000000;stroke-width:0.8;" x="212.837523" xlink:href="#mb63e37c038" y="294.16"/>
      </g>
     </g>
     <g id="text_3">
      <!-- 4 -->
      <defs>
       <path d="M 37.796875 64.3125 
L 12.890625 25.390625 
L 37.796875 25.390625 
z
M 35.203125 72.90625 
L 47.609375 72.90625 
L 47.609375 25.390625 
L 58.015625 25.390625 
L 58.015625 17.1875 
L 47.609375 17.1875 
L 47.609375 0 
L 37.796875 0 
L 37.796875 17.1875 
L 4.890625 17.1875 
L 4.890625 26.703125 
z
" id="DejaVuSans-34"/>
      </defs>
      <g transform="translate(206.475023 316.356875)scale(0.2 -0.2)">
       <use xlink:href="#DejaVuSans-34"/>
      </g>
     </g>
    </g>
    <g id="xtick_4">
     <g id="line2d_11">
      <path clip-path="url(#pf430243342)" d="M 290.836285 294.16 
L 290.836285 24.84 
" style="fill:none;stroke:#b0b0b0;stroke-linecap:square;stroke-width:0.8;"/>
     </g>
     <g id="line2d_12">
      <g>
       <use style="stroke:#000000;stroke-width:0.8;" x="290.836285" xlink:href="#mb63e37c038" y="294.16"/>
      </g>
     </g>
     <g id="text_4">
      <!-- 6 -->
      <defs>
       <path d="M 33.015625 40.375 
Q 26.375 40.375 22.484375 35.828125 
Q 18.609375 31.296875 18.609375 23.390625 
Q 18.609375 15.53125 22.484375 10.953125 
Q 26.375 6.390625 33.015625 6.390625 
Q 39.65625 6.390625 43.53125 10.953125 
Q 47.40625 15.53125 47.40625 23.390625 
Q 47.40625 31.296875 43.53125 35.828125 
Q 39.65625 40.375 33.015625 40.375 
M 52.59375 71.296875 
L 52.59375 62.3125 
Q 48.875 64.0625 45.09375 64.984375 
Q 41.3125 65.921875 37.59375 65.921875 
Q 27.828125 65.921875 22.671875 59.328125 
Q 17.53125 52.734375 16.796875 39.40625 
Q 19.671875 43.65625 24.015625 45.921875 
Q 28.375 48.1875 33.59375 48.1875 
Q 44.578125 48.1875 50.953125 41.515625 
Q 57.328125 34.859375 57.328125 23.390625 
Q 57.328125 12.15625 50.6875 5.359375 
Q 44.046875 -1.421875 33.015625 -1.421875 
Q 20.359375 -1.421875 13.671875 8.265625 
Q 6.984375 17.96875 6.984375 36.375 
Q 6.984375 53.65625 15.1875 63.9375 
Q 23.390625 74.21875 37.203125 74.21875 
Q 40.921875 74.21875 44.703125 73.484375 
Q 48.484375 72.75 52.59375 71.296875 
" id="DejaVuSans-36"/>
      </defs>
      <g transform="translate(284.473785 316.356875)scale(0.2 -0.2)">
       <use xlink:href="#DejaVuSans-36"/>
      </g>
     </g>
    </g>
    <g id="xtick_5">
     <g id="line2d_13">
      <path clip-path="url(#pf430243342)" d="M 368.835046 294.16 
L 368.835046 24.84 
" style="fill:none;stroke:#b0b0b0;stroke-linecap:square;stroke-width:0.8;"/>
     </g>
     <g id="line2d_14">
      <g>
       <use style="stroke:#000000;stroke-width:0.8;" x="368.835046" xlink:href="#mb63e37c038" y="294.16"/>
      </g>
     </g>
     <g id="text_5">
      <!-- 8 -->
      <defs>
       <path d="M 31.78125 34.625 
Q 24.75 34.625 20.71875 30.859375 
Q 16.703125 27.09375 16.703125 20.515625 
Q 16.703125 13.921875 20.71875 10.15625 
Q 24.75 6.390625 31.78125 6.390625 
Q 38.8125 6.390625 42.859375 10.171875 
Q 46.921875 13.96875 46.921875 20.515625 
Q 46.921875 27.09375 42.890625 30.859375 
Q 38.875 34.625 31.78125 34.625 
M 21.921875 38.8125 
Q 15.578125 40.375 12.03125 44.71875 
Q 8.5 49.078125 8.5 55.328125 
Q 8.5 64.0625 14.71875 69.140625 
Q 20.953125 74.21875 31.78125 74.21875 
Q 42.671875 74.21875 48.875 69.140625 
Q 55.078125 64.0625 55.078125 55.328125 
Q 55.078125 49.078125 51.53125 44.71875 
Q 48 40.375 41.703125 38.8125 
Q 48.828125 37.15625 52.796875 32.3125 
Q 56.78125 27.484375 56.78125 20.515625 
Q 56.78125 9.90625 50.3125 4.234375 
Q 43.84375 -1.421875 31.78125 -1.421875 
Q 19.734375 -1.421875 13.25 4.234375 
Q 6.78125 9.90625 6.78125 20.515625 
Q 6.78125 27.484375 10.78125 32.3125 
Q 14.796875 37.15625 21.921875 38.8125 
M 18.3125 54.390625 
Q 18.3125 48.734375 21.84375 45.5625 
Q 25.390625 42.390625 31.78125 42.390625 
Q 38.140625 42.390625 41.71875 45.5625 
Q 45.3125 48.734375 45.3125 54.390625 
Q 45.3125 60.0625 41.71875 63.234375 
Q 38.140625 66.40625 31.78125 66.40625 
Q 25.390625 66.40625 21.84375 63.234375 
Q 18.3125 60.0625 18.3125 54.390625 
" id="DejaVuSans-38"/>
      </defs>
      <g transform="translate(362.472546 316.356875)scale(0.2 -0.2)">
       <use xlink:href="#DejaVuSans-38"/>
      </g>
     </g>
    </g>
    <g id="xtick_6">
     <g id="line2d_15">
      <defs>
       <path d="M 0 0 
L 0 2 
" id="m65668a90f4" style="stroke:#000000;stroke-width:0.6;"/>
      </defs>
      <g>
       <use style="stroke:#000000;stroke-width:0.6;" x="68.579983" xlink:href="#m65668a90f4" y="294.16"/>
      </g>
     </g>
    </g>
    <g id="xtick_7">
     <g id="line2d_16">
      <g>
       <use style="stroke:#000000;stroke-width:0.6;" x="80.319967" xlink:href="#m65668a90f4" y="294.16"/>
      </g>
     </g>
    </g>
    <g id="xtick_8">
     <g id="line2d_17">
      <g>
       <use style="stroke:#000000;stroke-width:0.6;" x="87.187417" xlink:href="#m65668a90f4" y="294.16"/>
      </g>
     </g>
    </g>
    <g id="xtick_9">
     <g id="line2d_18">
      <g>
       <use style="stroke:#000000;stroke-width:0.6;" x="92.05995" xlink:href="#m65668a90f4" y="294.16"/>
      </g>
     </g>
    </g>
    <g id="xtick_10">
     <g id="line2d_19">
      <g>
       <use style="stroke:#000000;stroke-width:0.6;" x="146.578745" xlink:href="#m65668a90f4" y="294.16"/>
      </g>
     </g>
    </g>
    <g id="xtick_11">
     <g id="line2d_20">
      <g>
       <use style="stroke:#000000;stroke-width:0.6;" x="158.318728" xlink:href="#m65668a90f4" y="294.16"/>
      </g>
     </g>
    </g>
    <g id="xtick_12">
     <g id="line2d_21">
      <g>
       <use style="stroke:#000000;stroke-width:0.6;" x="165.186178" xlink:href="#m65668a90f4" y="294.16"/>
      </g>
     </g>
    </g>
    <g id="xtick_13">
     <g id="line2d_22">
      <g>
       <use style="stroke:#000000;stroke-width:0.6;" x="170.058712" xlink:href="#m65668a90f4" y="294.16"/>
      </g>
     </g>
    </g>
    <g id="xtick_14">
     <g id="line2d_23">
      <g>
       <use style="stroke:#000000;stroke-width:0.6;" x="224.577506" xlink:href="#m65668a90f4" y="294.16"/>
      </g>
     </g>
    </g>
    <g id="xtick_15">
     <g id="line2d_24">
      <g>
       <use style="stroke:#000000;stroke-width:0.6;" x="236.31749" xlink:href="#m65668a90f4" y="294.16"/>
      </g>
     </g>
    </g>
    <g id="xtick_16">
     <g id="line2d_25">
      <g>
       <use style="stroke:#000000;stroke-width:0.6;" x="243.18494" xlink:href="#m65668a90f4" y="294.16"/>
      </g>
     </g>
    </g>
    <g id="xtick_17">
     <g id="line2d_26">
      <g>
       <use style="stroke:#000000;stroke-width:0.6;" x="248.057473" xlink:href="#m65668a90f4" y="294.16"/>
      </g>
     </g>
    </g>
    <g id="xtick_18">
     <g id="line2d_27">
      <g>
       <use style="stroke:#000000;stroke-width:0.6;" x="302.576268" xlink:href="#m65668a90f4" y="294.16"/>
      </g>
     </g>
    </g>
    <g id="xtick_19">
     <g id="line2d_28">
      <g>
       <use style="stroke:#000000;stroke-width:0.6;" x="314.316251" xlink:href="#m65668a90f4" y="294.16"/>
      </g>
     </g>
    </g>
    <g id="xtick_20">
     <g id="line2d_29">
      <g>
       <use style="stroke:#000000;stroke-width:0.6;" x="321.183701" xlink:href="#m65668a90f4" y="294.16"/>
      </g>
     </g>
    </g>
    <g id="xtick_21">
     <g id="line2d_30">
      <g>
       <use style="stroke:#000000;stroke-width:0.6;" x="326.056235" xlink:href="#m65668a90f4" y="294.16"/>
      </g>
     </g>
    </g>
    <g id="xtick_22">
     <g id="line2d_31">
      <g>
       <use style="stroke:#000000;stroke-width:0.6;" x="380.57503" xlink:href="#m65668a90f4" y="294.16"/>
      </g>
     </g>
    </g>
    <g id="xtick_23">
     <g id="line2d_32">
      <g>
       <use style="stroke:#000000;stroke-width:0.6;" x="392.315013" xlink:href="#m65668a90f4" y="294.16"/>
      </g>
     </g>
    </g>
    <g id="text_6">
     <!-- log10(# f-evals / dimension) -->
     <defs>
      <path d="M 9.421875 75.984375 
L 18.40625 75.984375 
L 18.40625 0 
L 9.421875 0 
z
" id="DejaVuSans-6c"/>
      <path d="M 30.609375 48.390625 
Q 23.390625 48.390625 19.1875 42.75 
Q 14.984375 37.109375 14.984375 27.296875 
Q 14.984375 17.484375 19.15625 11.84375 
Q 23.34375 6.203125 30.609375 6.203125 
Q 37.796875 6.203125 41.984375 11.859375 
Q 46.1875 17.53125 46.1875 27.296875 
Q 46.1875 37.015625 41.984375 42.703125 
Q 37.796875 48.390625 30.609375 48.390625 
M 30.609375 56 
Q 42.328125 56 49.015625 48.375 
Q 55.71875 40.765625 55.71875 27.296875 
Q 55.71875 13.875 49.015625 6.21875 
Q 42.328125 -1.421875 30.609375 -1.421875 
Q 18.84375 -1.421875 12.171875 6.21875 
Q 5.515625 13.875 5.515625 27.296875 
Q 5.515625 40.765625 12.171875 48.375 
Q 18.84375 56 30.609375 56 
" id="DejaVuSans-6f"/>
      <path d="M 45.40625 27.984375 
Q 45.40625 37.75 41.375 43.109375 
Q 37.359375 48.484375 30.078125 48.484375 
Q 22.859375 48.484375 18.828125 43.109375 
Q 14.796875 37.75 14.796875 27.984375 
Q 14.796875 18.265625 18.828125 12.890625 
Q 22.859375 7.515625 30.078125 7.515625 
Q 37.359375 7.515625 41.375 12.890625 
Q 45.40625 18.265625 45.40625 27.984375 
M 54.390625 6.78125 
Q 54.390625 -7.171875 48.1875 -13.984375 
Q 42 -20.796875 29.203125 -20.796875 
Q 24.46875 -20.796875 20.265625 -20.09375 
Q 16.0625 -19.390625 12.109375 -17.921875 
L 12.109375 -9.1875 
Q 16.0625 -11.328125 19.921875 -12.34375 
Q 23.78125 -13.375 27.78125 -13.375 
Q 36.625 -13.375 41.015625 -8.765625 
Q 45.40625 -4.15625 45.40625 5.171875 
L 45.40625 9.625 
Q 42.625 4.78125 38.28125 2.390625 
Q 33.9375 0 27.875 0 
Q 17.828125 0 11.671875 7.65625 
Q 5.515625 15.328125 5.515625 27.984375 
Q 5.515625 40.671875 11.671875 48.328125 
Q 17.828125 56 27.875 56 
Q 33.9375 56 38.28125 53.609375 
Q 42.625 51.21875 45.40625 46.390625 
L 45.40625 54.6875 
L 54.390625 54.6875 
z
" id="DejaVuSans-67"/>
      <path d="M 12.40625 8.296875 
L 28.515625 8.296875 
L 28.515625 63.921875 
L 10.984375 60.40625 
L 10.984375 69.390625 
L 28.421875 72.90625 
L 38.28125 72.90625 
L 38.28125 8.296875 
L 54.390625 8.296875 
L 54.390625 0 
L 12.40625 0 
z
" id="DejaVuSans-31"/>
      <path d="M 31 75.875 
Q 24.46875 64.65625 21.28125 53.65625 
Q 18.109375 42.671875 18.109375 31.390625 
Q 18.109375 20.125 21.3125 9.0625 
Q 24.515625 -2 31 -13.1875 
L 23.1875 -13.1875 
Q 15.875 -1.703125 12.234375 9.375 
Q 8.59375 20.453125 8.59375 31.390625 
Q 8.59375 42.28125 12.203125 53.3125 
Q 15.828125 64.359375 23.1875 75.875 
z
" id="DejaVuSans-28"/>
      <path d="M 51.125 44 
L 36.921875 44 
L 32.8125 27.6875 
L 47.125 27.6875 
z
M 43.796875 71.78125 
L 38.71875 51.515625 
L 52.984375 51.515625 
L 58.109375 71.78125 
L 65.921875 71.78125 
L 60.890625 51.515625 
L 76.125 51.515625 
L 76.125 44 
L 58.984375 44 
L 54.984375 27.6875 
L 70.515625 27.6875 
L 70.515625 20.21875 
L 53.078125 20.21875 
L 48 0 
L 40.1875 0 
L 45.21875 20.21875 
L 30.90625 20.21875 
L 25.875 0 
L 18.015625 0 
L 23.09375 20.21875 
L 7.71875 20.21875 
L 7.71875 27.6875 
L 24.90625 27.6875 
L 29 44 
L 13.28125 44 
L 13.28125 51.515625 
L 30.90625 51.515625 
L 35.890625 71.78125 
z
" id="DejaVuSans-23"/>
      <path id="DejaVuSans-20"/>
      <path d="M 37.109375 75.984375 
L 37.109375 68.5 
L 28.515625 68.5 
Q 23.6875 68.5 21.796875 66.546875 
Q 19.921875 64.59375 19.921875 59.515625 
L 19.921875 54.6875 
L 34.71875 54.6875 
L 34.71875 47.703125 
L 19.921875 47.703125 
L 19.921875 0 
L 10.890625 0 
L 10.890625 47.703125 
L 2.296875 47.703125 
L 2.296875 54.6875 
L 10.890625 54.6875 
L 10.890625 58.5 
Q 10.890625 67.625 15.140625 71.796875 
Q 19.390625 75.984375 28.609375 75.984375 
z
" id="DejaVuSans-66"/>
      <path d="M 4.890625 31.390625 
L 31.203125 31.390625 
L 31.203125 23.390625 
L 4.890625 23.390625 
z
" id="DejaVuSans-2d"/>
      <path d="M 56.203125 29.59375 
L 56.203125 25.203125 
L 14.890625 25.203125 
Q 15.484375 15.921875 20.484375 11.0625 
Q 25.484375 6.203125 34.421875 6.203125 
Q 39.59375 6.203125 44.453125 7.46875 
Q 49.3125 8.734375 54.109375 11.28125 
L 54.109375 2.78125 
Q 49.265625 0.734375 44.1875 -0.34375 
Q 39.109375 -1.421875 33.890625 -1.421875 
Q 20.796875 -1.421875 13.15625 6.1875 
Q 5.515625 13.8125 5.515625 26.8125 
Q 5.515625 40.234375 12.765625 48.109375 
Q 20.015625 56 32.328125 56 
Q 43.359375 56 49.78125 48.890625 
Q 56.203125 41.796875 56.203125 29.59375 
M 47.21875 32.234375 
Q 47.125 39.59375 43.09375 43.984375 
Q 39.0625 48.390625 32.421875 48.390625 
Q 24.90625 48.390625 20.390625 44.140625 
Q 15.875 39.890625 15.1875 32.171875 
z
" id="DejaVuSans-65"/>
      <path d="M 2.984375 54.6875 
L 12.5 54.6875 
L 29.59375 8.796875 
L 46.6875 54.6875 
L 56.203125 54.6875 
L 35.6875 0 
L 23.484375 0 
z
" id="DejaVuSans-76"/>
      <path d="M 34.28125 27.484375 
Q 23.390625 27.484375 19.1875 25 
Q 14.984375 22.515625 14.984375 16.5 
Q 14.984375 11.71875 18.140625 8.90625 
Q 21.296875 6.109375 26.703125 6.109375 
Q 34.1875 6.109375 38.703125 11.40625 
Q 43.21875 16.703125 43.21875 25.484375 
L 43.21875 27.484375 
z
M 52.203125 31.203125 
L 52.203125 0 
L 43.21875 0 
L 43.21875 8.296875 
Q 40.140625 3.328125 35.546875 0.953125 
Q 30.953125 -1.421875 24.3125 -1.421875 
Q 15.921875 -1.421875 10.953125 3.296875 
Q 6 8.015625 6 15.921875 
Q 6 25.140625 12.171875 29.828125 
Q 18.359375 34.515625 30.609375 34.515625 
L 43.21875 34.515625 
L 43.21875 35.40625 
Q 43.21875 41.609375 39.140625 45 
Q 35.0625 48.390625 27.6875 48.390625 
Q 23 48.390625 18.546875 47.265625 
Q 14.109375 46.140625 10.015625 43.890625 
L 10.015625 52.203125 
Q 14.9375 54.109375 19.578125 55.046875 
Q 24.21875 56 28.609375 56 
Q 40.484375 56 46.34375 49.84375 
Q 52.203125 43.703125 52.203125 31.203125 
" id="DejaVuSans-61"/>
      <path d="M 44.28125 53.078125 
L 44.28125 44.578125 
Q 40.484375 46.53125 36.375 47.5 
Q 32.28125 48.484375 27.875 48.484375 
Q 21.1875 48.484375 17.84375 46.4375 
Q 14.5 44.390625 14.5 40.28125 
Q 14.5 37.15625 16.890625 35.375 
Q 19.28125 33.59375 26.515625 31.984375 
L 29.59375 31.296875 
Q 39.15625 29.25 43.1875 25.515625 
Q 47.21875 21.78125 47.21875 15.09375 
Q 47.21875 7.46875 41.1875 3.015625 
Q 35.15625 -1.421875 24.609375 -1.421875 
Q 20.21875 -1.421875 15.453125 -0.5625 
Q 10.6875 0.296875 5.421875 2 
L 5.421875 11.28125 
Q 10.40625 8.6875 15.234375 7.390625 
Q 20.0625 6.109375 24.8125 6.109375 
Q 31.15625 6.109375 34.5625 8.28125 
Q 37.984375 10.453125 37.984375 14.40625 
Q 37.984375 18.0625 35.515625 20.015625 
Q 33.0625 21.96875 24.703125 23.78125 
L 21.578125 24.515625 
Q 13.234375 26.265625 9.515625 29.90625 
Q 5.8125 33.546875 5.8125 39.890625 
Q 5.8125 47.609375 11.28125 51.796875 
Q 16.75 56 26.8125 56 
Q 31.78125 56 36.171875 55.265625 
Q 40.578125 54.546875 44.28125 53.078125 
" id="DejaVuSans-73"/>
      <path d="M 25.390625 72.90625 
L 33.6875 72.90625 
L 8.296875 -9.28125 
L 0 -9.28125 
z
" id="DejaVuSans-2f"/>
      <path d="M 45.40625 46.390625 
L 45.40625 75.984375 
L 54.390625 75.984375 
L 54.390625 0 
L 45.40625 0 
L 45.40625 8.203125 
Q 42.578125 3.328125 38.25 0.953125 
Q 33.9375 -1.421875 27.875 -1.421875 
Q 17.96875 -1.421875 11.734375 6.484375 
Q 5.515625 14.40625 5.515625 27.296875 
Q 5.515625 40.1875 11.734375 48.09375 
Q 17.96875 56 27.875 56 
Q 33.9375 56 38.25 53.625 
Q 42.578125 51.265625 45.40625 46.390625 
M 14.796875 27.296875 
Q 14.796875 17.390625 18.875 11.75 
Q 22.953125 6.109375 30.078125 6.109375 
Q 37.203125 6.109375 41.296875 11.75 
Q 45.40625 17.390625 45.40625 27.296875 
Q 45.40625 37.203125 41.296875 42.84375 
Q 37.203125 48.484375 30.078125 48.484375 
Q 22.953125 48.484375 18.875 42.84375 
Q 14.796875 37.203125 14.796875 27.296875 
" id="DejaVuSans-64"/>
      <path d="M 9.421875 54.6875 
L 18.40625 54.6875 
L 18.40625 0 
L 9.421875 0 
z
M 9.421875 75.984375 
L 18.40625 75.984375 
L 18.40625 64.59375 
L 9.421875 64.59375 
z
" id="DejaVuSans-69"/>
      <path d="M 52 44.1875 
Q 55.375 50.25 60.0625 53.125 
Q 64.75 56 71.09375 56 
Q 79.640625 56 84.28125 50.015625 
Q 88.921875 44.046875 88.921875 33.015625 
L 88.921875 0 
L 79.890625 0 
L 79.890625 32.71875 
Q 79.890625 40.578125 77.09375 44.375 
Q 74.3125 48.1875 68.609375 48.1875 
Q 61.625 48.1875 57.5625 43.546875 
Q 53.515625 38.921875 53.515625 30.90625 
L 53.515625 0 
L 44.484375 0 
L 44.484375 32.71875 
Q 44.484375 40.625 41.703125 44.40625 
Q 38.921875 48.1875 33.109375 48.1875 
Q 26.21875 48.1875 22.15625 43.53125 
Q 18.109375 38.875 18.109375 30.90625 
L 18.109375 0 
L 9.078125 0 
L 9.078125 54.6875 
L 18.109375 54.6875 
L 18.109375 46.1875 
Q 21.1875 51.21875 25.484375 53.609375 
Q 29.78125 56 35.6875 56 
Q 41.65625 56 45.828125 52.96875 
Q 50 49.953125 52 44.1875 
" id="DejaVuSans-6d"/>
      <path d="M 54.890625 33.015625 
L 54.890625 0 
L 45.90625 0 
L 45.90625 32.71875 
Q 45.90625 40.484375 42.875 44.328125 
Q 39.84375 48.1875 33.796875 48.1875 
Q 26.515625 48.1875 22.3125 43.546875 
Q 18.109375 38.921875 18.109375 30.90625 
L 18.109375 0 
L 9.078125 0 
L 9.078125 54.6875 
L 18.109375 54.6875 
L 18.109375 46.1875 
Q 21.34375 51.125 25.703125 53.5625 
Q 30.078125 56 35.796875 56 
Q 45.21875 56 50.046875 50.171875 
Q 54.890625 44.34375 54.890625 33.015625 
" id="DejaVuSans-6e"/>
      <path d="M 8.015625 75.875 
L 15.828125 75.875 
Q 23.140625 64.359375 26.78125 53.3125 
Q 30.421875 42.28125 30.421875 31.390625 
Q 30.421875 20.453125 26.78125 9.375 
Q 23.140625 -1.703125 15.828125 -13.1875 
L 8.015625 -13.1875 
Q 14.5 -2 17.703125 9.0625 
Q 20.90625 20.125 20.90625 31.390625 
Q 20.90625 42.671875 17.703125 53.65625 
Q 14.5 64.65625 8.015625 75.875 
" id="DejaVuSans-29"/>
     </defs>
     <g transform="translate(105.256531 337.433594)scale(0.17 -0.17)">
      <use xlink:href="#DejaVuSans-6c"/>
      <use x="27.783203" xlink:href="#DejaVuSans-6f"/>
      <use x="88.964844" xlink:href="#DejaVuSans-67"/>
      <use x="152.441406" xlink:href="#DejaVuSans-31"/>
      <use x="216.064453" xlink:href="#DejaVuSans-30"/>
      <use x="279.6875" xlink:href="#DejaVuSans-28"/>
      <use x="318.701172" xlink:href="#DejaVuSans-23"/>
      <use x="402.490234" xlink:href="#DejaVuSans-20"/>
      <use x="434.277344" xlink:href="#DejaVuSans-66"/>
      <use x="469.404297" xlink:href="#DejaVuSans-2d"/>
      <use x="505.488281" xlink:href="#DejaVuSans-65"/>
      <use x="567.011719" xlink:href="#DejaVuSans-76"/>
      <use x="626.191406" xlink:href="#DejaVuSans-61"/>
      <use x="687.470703" xlink:href="#DejaVuSans-6c"/>
      <use x="715.253906" xlink:href="#DejaVuSans-73"/>
      <use x="767.353516" xlink:href="#DejaVuSans-20"/>
      <use x="799.140625" xlink:href="#DejaVuSans-2f"/>
      <use x="832.832031" xlink:href="#DejaVuSans-20"/>
      <use x="864.619141" xlink:href="#DejaVuSans-64"/>
      <use x="928.095703" xlink:href="#DejaVuSans-69"/>
      <use x="955.878906" xlink:href="#DejaVuSans-6d"/>
      <use x="1053.291016" xlink:href="#DejaVuSans-65"/>
      <use x="1114.814453" xlink:href="#DejaVuSans-6e"/>
      <use x="1178.193359" xlink:href="#DejaVuSans-73"/>
      <use x="1230.292969" xlink:href="#DejaVuSans-69"/>
      <use x="1258.076172" xlink:href="#DejaVuSans-6f"/>
      <use x="1319.257812" xlink:href="#DejaVuSans-6e"/>
      <use x="1382.636719" xlink:href="#DejaVuSans-29"/>
     </g>
    </g>
   </g>
   <g id="matplotlib.axis_2">
    <g id="ytick_1">
     <g id="line2d_33">
      <path clip-path="url(#pf430243342)" d="M 56.84 294.16 
L 395.354625 294.16 
" style="fill:none;stroke:#b0b0b0;stroke-linecap:square;stroke-width:0.8;"/>
     </g>
     <g id="line2d_34">
      <defs>
       <path d="M 0 0 
L -3.5 0 
" id="mc3410d796b" style="stroke:#000000;stroke-width:0.8;"/>
      </defs>
      <g>
       <use style="stroke:#000000;stroke-width:0.8;" x="56.84" xlink:href="#mc3410d796b" y="294.16"/>
      </g>
     </g>
     <g id="text_7">
      <!-- 0.0 -->
      <defs>
       <path d="M 10.6875 12.40625 
L 21 12.40625 
L 21 0 
L 10.6875 0 
z
" id="DejaVuSans-2e"/>
      </defs>
      <g transform="translate(24.395 300.23875)scale(0.16 -0.16)">
       <use xlink:href="#DejaVuSans-30"/>
       <use x="63.623047" xlink:href="#DejaVuSans-2e"/>
       <use x="95.410156" xlink:href="#DejaVuSans-30"/>
      </g>
     </g>
    </g>
    <g id="ytick_2">
     <g id="line2d_35">
      <path clip-path="url(#pf430243342)" d="M 56.84 240.829307 
L 395.354625 240.829307 
" style="fill:none;stroke:#b0b0b0;stroke-linecap:square;stroke-width:0.8;"/>
     </g>
     <g id="line2d_36">
      <g>
       <use style="stroke:#000000;stroke-width:0.8;" x="56.84" xlink:href="#mc3410d796b" y="240.829307"/>
      </g>
     </g>
     <g id="text_8">
      <!-- 0.2 -->
      <g transform="translate(24.395 246.908057)scale(0.16 -0.16)">
       <use xlink:href="#DejaVuSans-30"/>
       <use x="63.623047" xlink:href="#DejaVuSans-2e"/>
       <use x="95.410156" xlink:href="#DejaVuSans-32"/>
      </g>
     </g>
    </g>
    <g id="ytick_3">
     <g id="line2d_37">
      <path clip-path="url(#pf430243342)" d="M 56.84 187.498614 
L 395.354625 187.498614 
" style="fill:none;stroke:#b0b0b0;stroke-linecap:square;stroke-width:0.8;"/>
     </g>
     <g id="line2d_38">
      <g>
       <use style="stroke:#000000;stroke-width:0.8;" x="56.84" xlink:href="#mc3410d796b" y="187.498614"/>
      </g>
     </g>
     <g id="text_9">
      <!-- 0.4 -->
      <g transform="translate(24.395 193.577364)scale(0.16 -0.16)">
       <use xlink:href="#DejaVuSans-30"/>
       <use x="63.623047" xlink:href="#DejaVuSans-2e"/>
       <use x="95.410156" xlink:href="#DejaVuSans-34"/>
      </g>
     </g>
    </g>
    <g id="ytick_4">
     <g id="line2d_39">
      <path clip-path="url(#pf430243342)" d="M 56.84 134.167921 
L 395.354625 134.167921 
" style="fill:none;stroke:#b0b0b0;stroke-linecap:square;stroke-width:0.8;"/>
     </g>
     <g id="line2d_40">
      <g>
       <use style="stroke:#000000;stroke-width:0.8;" x="56.84" xlink:href="#mc3410d796b" y="134.167921"/>
      </g>
     </g>
     <g id="text_10">
      <!-- 0.6 -->
      <g transform="translate(24.395 140.246671)scale(0.16 -0.16)">
       <use xlink:href="#DejaVuSans-30"/>
       <use x="63.623047" xlink:href="#DejaVuSans-2e"/>
       <use x="95.410156" xlink:href="#DejaVuSans-36"/>
      </g>
     </g>
    </g>
    <g id="ytick_5">
     <g id="line2d_41">
      <path clip-path="url(#pf430243342)" d="M 56.84 80.837228 
L 395.354625 80.837228 
" style="fill:none;stroke:#b0b0b0;stroke-linecap:square;stroke-width:0.8;"/>
     </g>
     <g id="line2d_42">
      <g>
       <use style="stroke:#000000;stroke-width:0.8;" x="56.84" xlink:href="#mc3410d796b" y="80.837228"/>
      </g>
     </g>
     <g id="text_11">
      <!-- 0.8 -->
      <g transform="translate(24.395 86.915978)scale(0.16 -0.16)">
       <use xlink:href="#DejaVuSans-30"/>
       <use x="63.623047" xlink:href="#DejaVuSans-2e"/>
       <use x="95.410156" xlink:href="#DejaVuSans-38"/>
      </g>
     </g>
    </g>
    <g id="ytick_6">
     <g id="line2d_43">
      <path clip-path="url(#pf430243342)" d="M 56.84 27.506535 
L 395.354625 27.506535 
" style="fill:none;stroke:#b0b0b0;stroke-linecap:square;stroke-width:0.8;"/>
     </g>
     <g id="line2d_44">
      <g>
       <use style="stroke:#000000;stroke-width:0.8;" x="56.84" xlink:href="#mc3410d796b" y="27.506535"/>
      </g>
     </g>
     <g id="text_12">
      <!-- 1.0 -->
      <g transform="translate(24.395 33.585285)scale(0.16 -0.16)">
       <use xlink:href="#DejaVuSans-31"/>
       <use x="63.623047" xlink:href="#DejaVuSans-2e"/>
       <use x="95.410156" xlink:href="#DejaVuSans-30"/>
      </g>
     </g>
    </g>
    <g id="text_13">
     <!-- Fraction of function,target pairs -->
     <defs>
      <path d="M 9.8125 72.90625 
L 51.703125 72.90625 
L 51.703125 64.59375 
L 19.671875 64.59375 
L 19.671875 43.109375 
L 48.578125 43.109375 
L 48.578125 34.8125 
L 19.671875 34.8125 
L 19.671875 0 
L 9.8125 0 
z
" id="DejaVuSans-46"/>
      <path d="M 41.109375 46.296875 
Q 39.59375 47.171875 37.8125 47.578125 
Q 36.03125 48 33.890625 48 
Q 26.265625 48 22.1875 43.046875 
Q 18.109375 38.09375 18.109375 28.8125 
L 18.109375 0 
L 9.078125 0 
L 9.078125 54.6875 
L 18.109375 54.6875 
L 18.109375 46.1875 
Q 20.953125 51.171875 25.484375 53.578125 
Q 30.03125 56 36.53125 56 
Q 37.453125 56 38.578125 55.875 
Q 39.703125 55.765625 41.0625 55.515625 
z
" id="DejaVuSans-72"/>
      <path d="M 48.78125 52.59375 
L 48.78125 44.1875 
Q 44.96875 46.296875 41.140625 47.34375 
Q 37.3125 48.390625 33.40625 48.390625 
Q 24.65625 48.390625 19.8125 42.84375 
Q 14.984375 37.3125 14.984375 27.296875 
Q 14.984375 17.28125 19.8125 11.734375 
Q 24.65625 6.203125 33.40625 6.203125 
Q 37.3125 6.203125 41.140625 7.25 
Q 44.96875 8.296875 48.78125 10.40625 
L 48.78125 2.09375 
Q 45.015625 0.34375 40.984375 -0.53125 
Q 36.96875 -1.421875 32.421875 -1.421875 
Q 20.0625 -1.421875 12.78125 6.34375 
Q 5.515625 14.109375 5.515625 27.296875 
Q 5.515625 40.671875 12.859375 48.328125 
Q 20.21875 56 33.015625 56 
Q 37.15625 56 41.109375 55.140625 
Q 45.0625 54.296875 48.78125 52.59375 
" id="DejaVuSans-63"/>
      <path d="M 18.3125 70.21875 
L 18.3125 54.6875 
L 36.8125 54.6875 
L 36.8125 47.703125 
L 18.3125 47.703125 
L 18.3125 18.015625 
Q 18.3125 11.328125 20.140625 9.421875 
Q 21.96875 7.515625 27.59375 7.515625 
L 36.8125 7.515625 
L 36.8125 0 
L 27.59375 0 
Q 17.1875 0 13.234375 3.875 
Q 9.28125 7.765625 9.28125 18.015625 
L 9.28125 47.703125 
L 2.6875 47.703125 
L 2.6875 54.6875 
L 9.28125 54.6875 
L 9.28125 70.21875 
z
" id="DejaVuSans-74"/>
      <path d="M 8.5 21.578125 
L 8.5 54.6875 
L 17.484375 54.6875 
L 17.484375 21.921875 
Q 17.484375 14.15625 20.5 10.265625 
Q 23.53125 6.390625 29.59375 6.390625 
Q 36.859375 6.390625 41.078125 11.03125 
Q 45.3125 15.671875 45.3125 23.6875 
L 45.3125 54.6875 
L 54.296875 54.6875 
L 54.296875 0 
L 45.3125 0 
L 45.3125 8.40625 
Q 42.046875 3.421875 37.71875 1 
Q 33.40625 -1.421875 27.6875 -1.421875 
Q 18.265625 -1.421875 13.375 4.4375 
Q 8.5 10.296875 8.5 21.578125 
M 31.109375 56 
z
" id="DejaVuSans-75"/>
      <path d="M 11.71875 12.40625 
L 22.015625 12.40625 
L 22.015625 4 
L 14.015625 -11.625 
L 7.71875 -11.625 
L 11.71875 4 
z
" id="DejaVuSans-2c"/>
      <path d="M 18.109375 8.203125 
L 18.109375 -20.796875 
L 9.078125 -20.796875 
L 9.078125 54.6875 
L 18.109375 54.6875 
L 18.109375 46.390625 
Q 20.953125 51.265625 25.265625 53.625 
Q 29.59375 56 35.59375 56 
Q 45.5625 56 51.78125 48.09375 
Q 58.015625 40.1875 58.015625 27.296875 
Q 58.015625 14.40625 51.78125 6.484375 
Q 45.5625 -1.421875 35.59375 -1.421875 
Q 29.59375 -1.421875 25.265625 0.953125 
Q 20.953125 3.328125 18.109375 8.203125 
M 48.6875 27.296875 
Q 48.6875 37.203125 44.609375 42.84375 
Q 40.53125 48.484375 33.40625 48.484375 
Q 26.265625 48.484375 22.1875 42.84375 
Q 18.109375 37.203125 18.109375 27.296875 
Q 18.109375 17.390625 22.1875 11.75 
Q 26.265625 6.109375 33.40625 6.109375 
Q 40.53125 6.109375 44.609375 11.75 
Q 48.6875 17.390625 48.6875 27.296875 
" id="DejaVuSans-70"/>
     </defs>
     <g transform="translate(16.859531 294.639375)rotate(-90)scale(0.17 -0.17)">
      <use xlink:href="#DejaVuSans-46"/>
      <use x="57.410156" xlink:href="#DejaVuSans-72"/>
      <use x="98.523438" xlink:href="#DejaVuSans-61"/>
      <use x="159.802734" xlink:href="#DejaVuSans-63"/>
      <use x="214.783203" xlink:href="#DejaVuSans-74"/>
      <use x="253.992188" xlink:href="#DejaVuSans-69"/>
      <use x="281.775391" xlink:href="#DejaVuSans-6f"/>
      <use x="342.957031" xlink:href="#DejaVuSans-6e"/>
      <use x="406.335938" xlink:href="#DejaVuSans-20"/>
      <use x="438.123047" xlink:href="#DejaVuSans-6f"/>
      <use x="499.304688" xlink:href="#DejaVuSans-66"/>
      <use x="534.509766" xlink:href="#DejaVuSans-20"/>
      <use x="566.296875" xlink:href="#DejaVuSans-66"/>
      <use x="601.501953" xlink:href="#DejaVuSans-75"/>
      <use x="664.880859" xlink:href="#DejaVuSans-6e"/>
      <use x="728.259766" xlink:href="#DejaVuSans-63"/>
      <use x="783.240234" xlink:href="#DejaVuSans-74"/>
      <use x="822.449219" xlink:href="#DejaVuSans-69"/>
      <use x="850.232422" xlink:href="#DejaVuSans-6f"/>
      <use x="911.414062" xlink:href="#DejaVuSans-6e"/>
      <use x="974.792969" xlink:href="#DejaVuSans-2c"/>
      <use x="1006.580078" xlink:href="#DejaVuSans-74"/>
      <use x="1045.789062" xlink:href="#DejaVuSans-61"/>
      <use x="1107.068359" xlink:href="#DejaVuSans-72"/>
      <use x="1148.166016" xlink:href="#DejaVuSans-67"/>
      <use x="1211.642578" xlink:href="#DejaVuSans-65"/>
      <use x="1273.166016" xlink:href="#DejaVuSans-74"/>
      <use x="1312.375" xlink:href="#DejaVuSans-20"/>
      <use x="1344.162109" xlink:href="#DejaVuSans-70"/>
      <use x="1407.638672" xlink:href="#DejaVuSans-61"/>
      <use x="1468.917969" xlink:href="#DejaVuSans-69"/>
      <use x="1496.701172" xlink:href="#DejaVuSans-72"/>
      <use x="1537.814453" xlink:href="#DejaVuSans-73"/>
     </g>
    </g>
   </g>
   <g id="line2d_45">
    <defs>
     <path d="M 0 1.5 
C 0.397805 1.5 0.77937 1.341951 1.06066 1.06066 
C 1.341951 0.77937 1.5 0.397805 1.5 0 
C 1.5 -0.397805 1.341951 -0.77937 1.06066 -1.06066 
C 0.77937 -1.341951 0.397805 -1.5 0 -1.5 
C -0.397805 -1.5 -0.77937 -1.341951 -1.06066 -1.06066 
C -1.341951 -0.77937 -1.5 -0.397805 -1.5 0 
C -1.5 0.397805 -1.341951 0.77937 -1.06066 1.06066 
C -0.77937 1.341951 -0.397805 1.5 0 1.5 
z
" id="m21284219da" style="stroke:#f5deb3;"/>
    </defs>
    <g>
     <use style="fill:#f5deb3;stroke:#f5deb3;" x="243.776439" xlink:href="#m21284219da" y="59.688849"/>
     <use style="fill:#f5deb3;stroke:#f5deb3;" x="243.776439" xlink:href="#m21284219da" y="59.688849"/>
    </g>
   </g>
   <g id="line2d_46">
    <defs>
     <path d="M 0 1.5 
C 0.397805 1.5 0.77937 1.341951 1.06066 1.06066 
C 1.341951 0.77937 1.5 0.397805 1.5 0 
C 1.5 -0.397805 1.341951 -0.77937 1.06066 -1.06066 
C 0.77937 -1.341951 0.397805 -1.5 0 -1.5 
C -0.397805 -1.5 -0.77937 -1.341951 -1.06066 -1.06066 
C -1.341951 -0.77937 -1.5 -0.397805 -1.5 0 
C -1.5 0.397805 -1.341951 0.77937 -1.06066 1.06066 
C -0.77937 1.341951 -0.397805 1.5 0 1.5 
z
" id="m67f672f456" style="stroke:#000080;"/>
    </defs>
    <g>
     <use style="fill:#000080;stroke:#000080;" x="312.368551" xlink:href="#m67f672f456" y="128.650953"/>
     <use style="fill:#000080;stroke:#000080;" x="312.368551" xlink:href="#m67f672f456" y="128.650953"/>
    </g>
   </g>
   <g id="line2d_47">
    <path d="M 29.580603 294.16 
L 29.580603 279.448085 
L 130.455906 279.448085 
L 130.455906 278.068843 
L 134.872602 278.068843 
L 134.872602 276.229853 
L 138.913694 276.229853 
L 138.913694 275.310358 
L 140.610097 275.310358 
L 140.706195 273.471369 
L 140.777913 273.471369 
L 140.777913 272.551874 
L 141.387062 272.551874 
L 141.387062 271.63238 
L 141.796303 271.63238 
L 141.796303 271.172632 
L 142.586265 271.172632 
L 142.586265 270.712885 
L 142.756918 270.712885 
L 142.841605 267.494653 
L 143.341018 267.494653 
L 143.443235 265.655664 
L 143.524566 265.655664 
L 143.524566 264.276422 
L 143.925466 264.276422 
L 143.925466 263.356927 
L 144.490416 263.356927 
L 144.490416 262.89718 
L 144.831828 262.89718 
L 144.831828 262.437433 
L 144.981385 262.437433 
L 144.999987 261.058191 
L 145.349599 261.058191 
L 145.422291 259.219201 
L 145.548757 259.219201 
L 145.548757 257.839959 
L 145.709979 257.839959 
L 145.709979 257.380212 
L 146.680065 257.380212 
L 146.680065 256.460717 
L 146.930743 256.460717 
L 146.930743 256.00097 
L 147.177766 256.00097 
L 147.243035 255.081475 
L 147.469515 255.081475 
L 147.533671 254.16198 
L 147.67714 254.16198 
L 147.740516 251.863243 
L 148.146779 251.863243 
L 148.146779 251.403496 
L 148.346313 251.403496 
L 148.422435 247.725517 
L 148.618767 247.725517 
L 148.618767 245.886528 
L 148.842512 245.886528 
L 148.945923 243.587791 
L 149.034061 243.587791 
L 149.034061 243.128044 
L 149.410782 243.128044 
L 149.410782 242.668296 
L 149.79332 242.668296 
L 149.79332 240.829307 
L 150.26306 240.829307 
L 150.26306 239.909812 
L 150.385253 239.909812 
L 150.466228 237.611075 
L 151.113421 237.611075 
L 151.113421 237.151328 
L 151.306697 237.151328 
L 151.383394 236.231833 
L 151.749277 236.231833 
L 151.749277 235.312339 
L 152.398198 235.312339 
L 152.398198 234.852591 
L 152.684065 234.852591 
L 152.684065 234.392844 
L 152.895343 234.392844 
L 152.895343 233.933097 
L 153.4349 233.933097 
L 153.4349 232.553855 
L 153.715045 232.553855 
L 153.715045 231.174612 
L 155.754358 231.174612 
L 155.754358 229.79537 
L 155.901512 229.79537 
L 155.901512 229.335623 
L 156.325929 229.335623 
L 156.401966 227.496634 
L 156.860388 227.496634 
L 156.860388 226.577139 
L 158.071341 226.577139 
L 158.071341 226.117392 
L 159.031805 226.117392 
L 159.031805 223.818655 
L 160.63428 223.818655 
L 160.641665 221.519918 
L 161.314755 221.519918 
L 161.314755 221.060171 
L 161.624119 221.060171 
L 161.624119 220.600423 
L 162.326953 220.600423 
L 162.326953 220.140676 
L 163.351406 220.140676 
L 163.389114 217.841939 
L 163.92057 217.841939 
L 163.92057 217.382192 
L 164.353033 217.382192 
L 164.353033 216.462697 
L 164.687736 216.462697 
L 164.687736 215.543202 
L 165.157926 215.543202 
L 165.157926 215.083455 
L 166.856831 215.083455 
L 166.856831 213.704213 
L 167.734035 213.704213 
L 167.734035 213.244466 
L 168.618822 213.244466 
L 168.706187 210.945729 
L 169.586414 210.945729 
L 169.586414 210.485982 
L 170.472804 210.485982 
L 170.472804 210.026234 
L 171.005631 210.026234 
L 171.005631 209.10674 
L 171.271802 209.10674 
L 171.271802 207.727497 
L 172.015948 207.727497 
L 172.015948 206.808003 
L 172.400096 206.808003 
L 172.458996 205.428761 
L 173.008554 205.428761 
L 173.008554 204.969013 
L 173.294287 204.969013 
L 173.294287 204.049519 
L 175.144784 204.049519 
L 175.144784 203.589771 
L 175.359794 203.589771 
L 175.359794 203.130024 
L 175.547628 203.130024 
L 175.547628 202.210529 
L 176.758788 202.210529 
L 176.758788 201.291034 
L 177.289216 201.291034 
L 177.289216 200.37154 
L 177.902419 200.37154 
L 177.902419 198.53255 
L 179.229398 198.53255 
L 179.229398 197.613056 
L 179.867702 197.613056 
L 179.867702 196.693561 
L 180.894235 196.693561 
L 180.894235 195.314319 
L 182.918902 195.314319 
L 182.918902 194.394824 
L 183.221361 194.394824 
L 183.221361 193.475329 
L 183.596753 193.475329 
L 183.596753 193.015582 
L 184.921964 193.015582 
L 184.921964 192.096087 
L 185.788529 192.096087 
L 185.788529 190.716845 
L 186.0689 190.716845 
L 186.0689 190.257098 
L 187.443069 190.257098 
L 187.443069 189.337603 
L 188.726728 189.337603 
L 188.726728 188.877856 
L 189.475031 188.877856 
L 189.475031 187.958361 
L 190.012723 187.958361 
L 190.012723 187.498614 
L 190.291979 187.498614 
L 190.291979 187.038867 
L 191.016132 187.038867 
L 191.117799 185.199877 
L 191.698793 185.199877 
L 191.698793 182.90114 
L 193.315979 182.90114 
L 193.315979 181.981646 
L 193.690432 181.981646 
L 193.690432 180.142656 
L 194.993432 180.142656 
L 194.993432 179.682909 
L 195.527949 179.682909 
L 195.527949 179.223161 
L 197.553586 179.223161 
L 197.645206 177.384172 
L 199.324314 177.384172 
L 199.324314 176.924425 
L 199.452465 176.924425 
L 199.452465 176.00493 
L 200.669421 176.00493 
L 200.669421 175.545183 
L 202.205456 175.545183 
L 202.205456 174.165941 
L 203.347668 174.165941 
L 203.347668 173.706193 
L 204.941884 173.706193 
L 204.941884 173.246446 
L 205.960755 173.246446 
L 205.960755 172.786699 
L 208.974045 172.786699 
L 208.974045 171.407456 
L 209.304005 171.407456 
L 209.304005 169.568467 
L 209.474664 169.568467 
L 209.474664 168.189225 
L 210.055788 168.189225 
L 210.082912 165.890488 
L 210.921898 165.890488 
L 210.921898 164.970994 
L 211.902663 164.970994 
L 211.902663 164.511246 
L 213.488453 164.511246 
L 213.488453 164.051499 
L 215.436982 164.051499 
L 215.436982 162.672257 
L 217.863656 162.672257 
L 217.863656 161.752762 
L 219.928865 161.752762 
L 219.928865 161.293015 
L 223.548058 161.293015 
L 223.548058 160.37352 
L 225.375624 160.37352 
L 225.375624 159.913773 
L 230.288987 159.913773 
L 230.288987 159.454025 
L 233.937447 159.454025 
L 233.937447 158.994278 
L 234.15129 158.994278 
L 234.15129 158.534531 
L 234.91536 158.534531 
L 234.91536 157.615036 
L 237.816058 157.615036 
L 237.816058 156.695541 
L 240.49537 156.695541 
L 240.49537 155.776046 
L 241.986242 155.776046 
L 241.986242 154.856552 
L 244.457261 154.856552 
L 244.457261 153.47731 
L 246.32937 153.47731 
L 246.32937 153.017562 
L 252.163635 153.017562 
L 252.163635 152.557815 
L 252.312073 152.557815 
L 252.378903 151.63832 
L 253.137712 151.63832 
L 253.137712 151.178573 
L 253.289271 151.178573 
L 253.371988 150.259078 
L 256.494398 150.259078 
L 256.494398 149.799331 
L 256.947444 149.799331 
L 256.947519 148.879836 
L 257.149847 148.879836 
L 257.149847 148.420089 
L 257.810919 148.420089 
L 257.810919 147.960341 
L 259.36026 147.960341 
L 259.360303 147.040847 
L 260.28817 147.040847 
L 260.28817 146.581099 
L 261.048206 146.581099 
L 261.048265 145.201857 
L 261.220823 145.201857 
L 261.220823 144.74211 
L 266.066863 144.74211 
L 266.066863 144.282363 
L 266.442478 144.282363 
L 266.442478 143.822615 
L 267.754437 143.822615 
L 267.754437 143.362868 
L 268.325671 143.362868 
L 268.325863 142.443373 
L 270.791071 142.443373 
L 270.791071 141.983626 
L 270.945047 141.983626 
L 270.945047 141.523878 
L 272.408664 141.523878 
L 272.408664 141.064131 
L 272.680431 141.064131 
L 272.680431 140.604384 
L 273.754308 140.604384 
L 273.754308 140.144636 
L 275.654455 140.144636 
L 275.745436 138.765394 
L 276.748916 138.765394 
L 276.748916 138.305647 
L 280.474392 138.305647 
L 280.474392 137.8459 
L 280.996206 137.8459 
L 280.996206 137.386152 
L 281.160121 137.386152 
L 281.160229 136.00691 
L 283.05815 136.00691 
L 283.05815 135.547163 
L 283.921751 135.547163 
L 283.921813 134.627668 
L 285.013878 134.627668 
L 285.013878 134.167921 
L 285.791907 134.167921 
L 285.791907 133.708173 
L 287.128963 133.708173 
L 287.128963 133.248426 
L 289.832803 133.248426 
L 289.832803 132.788679 
L 291.901442 132.788679 
L 291.901461 131.869184 
L 293.421946 131.869184 
L 293.421951 130.949689 
L 294.81716 130.949689 
L 294.81716 130.489942 
L 300.243423 130.489942 
L 300.243423 130.030195 
L 303.920185 130.030195 
L 303.920215 129.1107 
L 312.368551 129.1107 
L 312.368551 128.650953 
L 329.835665 128.650953 
L 329.835665 128.650953 
" style="fill:none;stroke:#000080;stroke-linecap:square;stroke-width:1.5;"/>
   </g>
   <g id="line2d_48">
    <defs>
     <path d="M 0 6 
C 1.591219 6 3.117479 5.367802 4.242641 4.242641 
C 5.367802 3.117479 6 1.591219 6 0 
C 6 -1.591219 5.367802 -3.117479 4.242641 -4.242641 
C 3.117479 -5.367802 1.591219 -6 0 -6 
C -1.591219 -6 -3.117479 -5.367802 -4.242641 -4.242641 
C -5.367802 -3.117479 -6 -1.591219 -6 0 
C -6 1.591219 -5.367802 3.117479 -4.242641 4.242641 
C -3.117479 5.367802 -1.591219 6 0 6 
z
" id="mc8b6c76399" style="stroke:#000080;stroke-width:1.5;"/>
    </defs>
    <g>
     <use style="fill:none;stroke:#000080;stroke-width:1.5;" x="138.913694" xlink:href="#mc8b6c76399" y="275.310358"/>
     <use style="fill:none;stroke:#000080;stroke-width:1.5;" x="173.294287" xlink:href="#mc8b6c76399" y="204.969013"/>
     <use style="fill:none;stroke:#000080;stroke-width:1.5;" x="237.816058" xlink:href="#mc8b6c76399" y="157.615036"/>
     <use style="fill:none;stroke:#000080;stroke-width:1.5;" x="312.368551" xlink:href="#mc8b6c76399" y="128.650953"/>
     <use style="fill:none;stroke:#000080;stroke-width:1.5;" x="312.368551" xlink:href="#mc8b6c76399" y="128.650953"/>
     <use style="fill:none;stroke:#000080;stroke-width:1.5;" x="329.835665" xlink:href="#mc8b6c76399" y="128.650953"/>
    </g>
   </g>
   <g id="line2d_49">
    <path style="fill:none;stroke:#000080;stroke-linecap:square;stroke-width:1.5;"/>
    <g/>
   </g>
   <g id="line2d_50">
    <path clip-path="url(#pf430243342)" d="M 251.840765 153.017562 
" style="fill:none;stroke:#000080;stroke-linecap:square;stroke-width:1.5;"/>
    <defs>
     <path d="M -12 12 
L 12 -12 
M -12 -12 
L 12 12 
" id="ma0375f4cc9" style="stroke:#000080;stroke-width:3;"/>
    </defs>
    <g clip-path="url(#pf430243342)">
     <use style="fill:#000080;stroke:#000080;stroke-width:3;" x="251.840765" xlink:href="#ma0375f4cc9" y="153.017562"/>
    </g>
   </g>
   <g id="line2d_51">
    <defs>
     <path d="M 0 1.5 
C 0.397805 1.5 0.77937 1.341951 1.06066 1.06066 
C 1.341951 0.77937 1.5 0.397805 1.5 0 
C 1.5 -0.397805 1.341951 -0.77937 1.06066 -1.06066 
C 0.77937 -1.341951 0.397805 -1.5 0 -1.5 
C -0.397805 -1.5 -0.77937 -1.341951 -1.06066 -1.06066 
C -1.341951 -0.77937 -1.5 -0.397805 -1.5 0 
C -1.5 0.397805 -1.341951 0.77937 -1.06066 1.06066 
C -0.77937 1.341951 -0.397805 1.5 0 1.5 
z
" id="m2b54964df0" style="stroke:#ff00ff;"/>
    </defs>
    <g>
     <use style="fill:#ff00ff;stroke:#ff00ff;" x="354.879249" xlink:href="#m2b54964df0" y="165.430741"/>
     <use style="fill:#ff00ff;stroke:#ff00ff;" x="354.879249" xlink:href="#m2b54964df0" y="165.430741"/>
    </g>
   </g>
   <g id="line2d_52">
    <path d="M 29.580603 294.16 
L 29.580603 290.941769 
L 41.320586 290.941769 
L 41.320586 289.562526 
L 48.188036 289.562526 
L 48.188036 289.102779 
L 53.06057 289.102779 
L 53.06057 287.26379 
L 56.84 287.26379 
L 56.84 280.367579 
L 62.538903 280.367579 
L 62.538903 279.907832 
L 68.579983 279.907832 
L 68.579983 278.988337 
L 74.278886 278.988337 
L 74.278886 278.068843 
L 75.447433 278.068843 
L 75.447433 277.149348 
L 81.146336 277.149348 
L 81.146336 275.310358 
L 84.763687 275.310358 
L 84.763687 273.931116 
L 89.307332 273.931116 
L 89.307332 273.471369 
L 92.88632 273.471369 
L 92.88632 273.011622 
L 94.427128 273.011622 
L 94.427128 272.551874 
L 96.174782 272.551874 
L 96.174782 270.712885 
L 97.758853 270.712885 
L 97.758853 270.253138 
L 98.353202 270.253138 
L 98.353202 269.333643 
L 100.796389 269.333643 
L 100.796389 267.954401 
L 101.294579 267.954401 
L 101.294579 266.575159 
L 102.01542 266.575159 
L 102.01542 265.655664 
L 105.605606 265.655664 
L 105.605606 265.195917 
L 106.350219 265.195917 
L 106.350219 264.736169 
L 106.887953 264.736169 
L 106.887953 263.816675 
L 107.06347 263.816675 
L 107.06347 262.89718 
L 108.080008 262.89718 
L 108.080008 262.437433 
L 110.947344 262.437433 
L 110.947344 261.977685 
L 113.156853 261.977685 
L 113.156853 260.138696 
L 118.539491 260.138696 
L 118.539491 258.759454 
L 118.715922 258.759454 
L 118.715922 258.299706 
L 118.890534 258.299706 
L 118.890534 257.380212 
L 119.487879 257.380212 
L 119.487879 256.920464 
L 121.760006 256.920464 
L 121.760006 256.00097 
L 124.589437 256.00097 
L 124.589437 254.16198 
L 125.902132 254.16198 
L 125.902132 252.782738 
L 128.455503 252.782738 
L 128.455503 252.322991 
L 129.3218 252.322991 
L 129.3218 251.863243 
L 131.269734 251.863243 
L 131.269734 250.484001 
L 132.006251 250.484001 
L 132.006251 250.024254 
L 132.518941 250.024254 
L 132.518941 249.104759 
L 132.940955 249.104759 
L 132.940955 248.645012 
L 135.729531 248.645012 
L 135.729531 248.185265 
L 136.727962 248.185265 
L 136.727962 246.806023 
L 138.454809 246.806023 
L 138.454809 246.346275 
L 141.014801 246.346275 
L 141.014801 245.886528 
L 146.66322 245.886528 
L 146.66322 245.42678 
L 148.208425 245.42678 
L 148.208425 243.587791 
L 150.996388 243.587791 
L 151.009431 242.668296 
L 152.529819 242.668296 
L 152.529819 241.748802 
L 154.121338 241.748802 
L 154.121338 241.289054 
L 159.241607 241.289054 
L 159.281657 238.990318 
L 161.776708 238.990318 
L 161.776708 237.611075 
L 162.814483 237.611075 
L 162.814483 237.151328 
L 169.073662 237.151328 
L 169.073662 236.691581 
L 171.479431 236.691581 
L 171.479431 236.231833 
L 173.061833 236.231833 
L 173.061833 235.772086 
L 184.95714 235.772086 
L 184.95714 235.312339 
L 187.841893 235.312339 
L 187.841893 234.852591 
L 189.444053 234.852591 
L 189.444053 234.392844 
L 190.392974 234.392844 
L 190.392974 233.013602 
L 196.662828 233.013602 
L 196.662828 231.63436 
L 197.418587 231.63436 
L 197.418587 230.255118 
L 199.01151 230.255118 
L 199.01151 229.335623 
L 199.434537 229.335623 
L 199.434537 228.416128 
L 199.559634 228.416128 
L 199.559634 227.956381 
L 202.732141 227.956381 
L 202.732141 227.496634 
L 203.049645 227.496634 
L 203.049645 226.577139 
L 209.759392 226.577139 
L 209.759392 225.197897 
L 211.970184 225.197897 
L 211.970184 223.818655 
L 214.18238 223.818655 
L 214.18238 222.89916 
L 217.13653 222.89916 
L 217.13653 222.439413 
L 219.029316 222.439413 
L 219.029316 221.519918 
L 222.553814 221.519918 
L 222.553814 221.060171 
L 223.390015 221.060171 
L 223.390015 220.600423 
L 227.332707 220.600423 
L 227.332707 219.221181 
L 227.898358 219.221181 
L 227.898358 218.761434 
L 229.575166 218.761434 
L 229.575166 217.841939 
L 231.295819 217.841939 
L 231.295819 216.922445 
L 233.055755 216.922445 
L 233.055755 214.16396 
L 240.357567 214.16396 
L 240.357567 212.784718 
L 241.872604 212.784718 
L 241.872604 211.865224 
L 244.467104 211.865224 
L 244.467104 211.405476 
L 245.61846 211.405476 
L 245.717684 209.10674 
L 247.162524 209.10674 
L 247.162524 208.187245 
L 248.787146 208.187245 
L 248.787146 207.26775 
L 252.2891 207.26775 
L 252.2891 206.808003 
L 258.370792 206.808003 
L 258.370792 205.888508 
L 263.411076 205.888508 
L 263.411076 204.969013 
L 265.271851 204.969013 
L 265.294333 202.670277 
L 267.920198 202.670277 
L 267.920198 200.831287 
L 268.423266 200.831287 
L 268.423266 199.911792 
L 268.926896 199.911792 
L 268.926896 198.992298 
L 273.693741 198.992298 
L 273.693741 198.072803 
L 282.391071 198.072803 
L 282.391071 197.153308 
L 282.535921 197.153308 
L 282.535921 196.693561 
L 283.061474 196.693561 
L 283.061474 196.233814 
L 285.402958 196.233814 
L 285.402958 195.314319 
L 288.796285 195.314319 
L 288.796285 194.394824 
L 290.976925 194.394824 
L 291.018668 193.015582 
L 291.526537 193.015582 
L 291.526537 192.555835 
L 291.970687 192.555835 
L 291.970687 191.63634 
L 294.222913 191.63634 
L 294.222913 190.716845 
L 294.83455 190.716845 
L 294.83455 190.257098 
L 296.928201 190.257098 
L 296.928201 189.797351 
L 298.558719 189.797351 
L 298.558719 188.877856 
L 298.874665 188.877856 
L 298.874665 188.418109 
L 301.424884 188.418109 
L 301.424884 187.498614 
L 302.646734 187.498614 
L 302.646734 187.038867 
L 302.826245 187.038867 
L 302.92491 186.119372 
L 303.424447 186.119372 
L 303.424447 185.659624 
L 304.07817 185.659624 
L 304.07817 185.199877 
L 304.693108 185.199877 
L 304.693108 184.74013 
L 305.404339 184.74013 
L 305.404339 183.820635 
L 306.873851 183.820635 
L 306.873851 183.360888 
L 307.101777 183.360888 
L 307.101777 181.062151 
L 308.68489 181.062151 
L 308.68489 180.602404 
L 309.610779 180.602404 
L 309.610779 180.142656 
L 309.830356 180.142656 
L 309.830356 179.682909 
L 310.013863 179.682909 
L 310.013863 179.223161 
L 310.876864 179.223161 
L 310.876864 178.763414 
L 311.726568 178.763414 
L 311.726568 178.303667 
L 312.590847 178.303667 
L 312.681121 177.384172 
L 314.351521 177.384172 
L 314.418969 176.464677 
L 314.74565 176.464677 
L 314.74565 176.00493 
L 315.228476 176.00493 
L 315.228476 175.545183 
L 316.056582 175.545183 
L 316.056582 175.085435 
L 318.82935 175.085435 
L 318.82935 174.625688 
L 320.808537 174.625688 
L 320.808537 174.165941 
L 322.363559 174.165941 
L 322.363559 173.246446 
L 324.321856 173.246446 
L 324.426866 172.326951 
L 325.775643 172.326951 
L 325.775643 171.867204 
L 327.305914 171.867204 
L 327.305914 171.407456 
L 328.147429 171.407456 
L 328.147429 170.947709 
L 329.835665 170.947709 
L 329.835665 170.947709 
" style="fill:none;stroke:#ff00ff;stroke-linecap:square;stroke-width:1.5;"/>
   </g>
   <g id="line2d_53">
    <defs>
     <path d="M -0 8.485281 
L 5.091169 0 
L 0 -8.485281 
L -5.091169 -0 
z
" id="m6f1bc8a5a6" style="stroke:#ff00ff;stroke-linejoin:miter;stroke-width:1.5;"/>
    </defs>
    <g>
     <use style="fill:none;stroke:#ff00ff;stroke-linejoin:miter;stroke-width:1.5;" x="113.156853" xlink:href="#m6f1bc8a5a6" y="260.138696"/>
     <use style="fill:none;stroke:#ff00ff;stroke-linejoin:miter;stroke-width:1.5;" x="199.01151" xlink:href="#m6f1bc8a5a6" y="230.255118"/>
     <use style="fill:none;stroke:#ff00ff;stroke-linejoin:miter;stroke-width:1.5;" x="273.693741" xlink:href="#m6f1bc8a5a6" y="198.992298"/>
     <use style="fill:none;stroke:#ff00ff;stroke-linejoin:miter;stroke-width:1.5;" x="327.305914" xlink:href="#m6f1bc8a5a6" y="171.407456"/>
     <use style="fill:none;stroke:#ff00ff;stroke-linejoin:miter;stroke-width:1.5;" x="328.147429" xlink:href="#m6f1bc8a5a6" y="170.947709"/>
     <use style="fill:none;stroke:#ff00ff;stroke-linejoin:miter;stroke-width:1.5;" x="329.835665" xlink:href="#m6f1bc8a5a6" y="170.947709"/>
    </g>
   </g>
   <g id="line2d_54">
    <path style="fill:none;stroke:#ff00ff;stroke-linecap:square;stroke-width:1.5;"/>
    <g/>
   </g>
   <g id="line2d_55">
    <path clip-path="url(#pf430243342)" d="M 290.836285 194.394824 
" style="fill:none;stroke:#ff00ff;stroke-linecap:square;stroke-width:1.5;"/>
    <defs>
     <path d="M -12 12 
L 12 -12 
M -12 -12 
L 12 12 
" id="m3ba2aa9dba" style="stroke:#ff00ff;stroke-width:3;"/>
    </defs>
    <g clip-path="url(#pf430243342)">
     <use style="fill:#ff00ff;stroke:#ff00ff;stroke-width:3;" x="290.836285" xlink:href="#m3ba2aa9dba" y="194.394824"/>
    </g>
   </g>
   <g id="line2d_56">
    <defs>
     <path d="M 0 1.5 
C 0.397805 1.5 0.77937 1.341951 1.06066 1.06066 
C 1.341951 0.77937 1.5 0.397805 1.5 0 
C 1.5 -0.397805 1.341951 -0.77937 1.06066 -1.06066 
C 0.77937 -1.341951 0.397805 -1.5 0 -1.5 
C -0.397805 -1.5 -0.77937 -1.341951 -1.06066 -1.06066 
C -1.341951 -0.77937 -1.5 -0.397805 -1.5 0 
C -1.5 0.397805 -1.341951 0.77937 -1.06066 1.06066 
C -0.77937 1.341951 -0.397805 1.5 0 1.5 
z
" id="mc894249631" style="stroke:#ffa500;"/>
    </defs>
    <g>
     <use style="fill:#ffa500;stroke:#ffa500;" x="223.394738" xlink:href="#mc894249631" y="252.782738"/>
     <use style="fill:#ffa500;stroke:#ffa500;" x="223.394738" xlink:href="#mc894249631" y="252.782738"/>
    </g>
   </g>
   <g id="line2d_57">
    <path d="M 29.580603 294.16 
L 29.580603 278.52859 
L 165.741547 278.52859 
L 165.741547 277.609095 
L 165.763387 277.609095 
L 165.763387 275.770106 
L 165.980256 275.770106 
L 165.980256 274.390864 
L 177.38015 274.390864 
L 177.38015 273.931116 
L 177.456926 273.931116 
L 177.456926 273.471369 
L 177.478798 273.471369 
L 177.478798 273.011622 
L 177.489724 273.011622 
L 177.489724 272.551874 
L 177.566005 272.551874 
L 177.566005 272.092127 
L 177.598592 272.092127 
L 177.598592 271.172632 
L 177.609441 271.172632 
L 177.609441 270.712885 
L 177.663579 270.712885 
L 177.663579 269.79339 
L 177.717545 269.79339 
L 177.717545 269.333643 
L 184.454282 269.333643 
L 184.454282 268.873896 
L 184.46152 268.873896 
L 184.46152 268.414148 
L 184.475987 268.414148 
L 184.475987 267.954401 
L 189.277423 267.954401 
L 189.277423 267.494653 
L 192.922085 267.494653 
L 192.922085 267.034906 
L 192.944027 267.034906 
L 192.944027 266.575159 
L 192.974698 266.575159 
L 192.974698 266.115411 
L 193.075087 266.115411 
L 193.075087 265.655664 
L 193.083788 265.655664 
L 193.083788 265.195917 
L 193.105522 265.195917 
L 193.105522 264.736169 
L 196.007725 264.736169 
L 196.007725 264.276422 
L 196.08441 264.276422 
L 196.08441 263.816675 
L 196.095337 263.816675 
L 196.095337 263.356927 
L 196.102617 263.356927 
L 196.102617 262.89718 
L 196.142604 262.89718 
L 196.142604 262.437433 
L 196.186119 262.437433 
L 196.186119 261.977685 
L 196.19698 261.977685 
L 196.19698 261.517938 
L 198.726364 261.517938 
L 198.726364 261.058191 
L 201.019449 261.058191 
L 201.019449 260.598443 
L 202.951556 260.598443 
L 202.951556 260.138696 
L 202.956414 260.138696 
L 202.956414 259.678948 
L 202.992799 259.678948 
L 202.992799 259.219201 
L 202.995222 259.219201 
L 202.995222 258.759454 
L 202.997644 258.759454 
L 202.997644 258.299706 
L 203.002488 258.299706 
L 203.002488 257.839959 
L 204.72945 257.839959 
L 204.72945 257.380212 
L 204.755673 257.380212 
L 204.755673 256.920464 
L 207.876686 256.920464 
L 207.876686 256.460717 
L 210.447244 256.460717 
L 210.447244 256.00097 
L 210.456603 256.00097 
L 210.456603 255.541222 
L 212.731845 255.541222 
L 212.731845 255.081475 
L 212.761814 255.081475 
L 212.761814 254.621728 
L 220.953815 254.621728 
L 220.953815 254.16198 
L 222.221325 254.16198 
L 222.221325 253.702233 
L 223.383837 253.702233 
L 223.383837 253.242485 
L 223.394738 253.242485 
L 223.394738 252.782738 
L 329.835665 252.782738 
" style="fill:none;stroke:#ffa500;stroke-linecap:square;stroke-width:1.5;"/>
   </g>
   <g id="line2d_58">
    <defs>
     <path d="M 0 -6 
L -1.347084 -1.854102 
L -5.706339 -1.854102 
L -2.179628 0.708204 
L -3.526712 4.854102 
L -0 2.291796 
L 3.526712 4.854102 
L 2.179628 0.708204 
L 5.706339 -1.854102 
L 1.347084 -1.854102 
z
" id="m0b307a2996" style="stroke:#ffa500;stroke-linejoin:bevel;stroke-width:1.5;"/>
    </defs>
    <g>
     <use style="fill:none;stroke:#ffa500;stroke-linejoin:bevel;stroke-width:1.5;" x="204.755673" xlink:href="#m0b307a2996" y="257.380212"/>
     <use style="fill:none;stroke:#ffa500;stroke-linejoin:bevel;stroke-width:1.5;" x="223.394738" xlink:href="#m0b307a2996" y="253.242485"/>
     <use style="fill:none;stroke:#ffa500;stroke-linejoin:bevel;stroke-width:1.5;" x="223.394738" xlink:href="#m0b307a2996" y="252.782738"/>
     <use style="fill:none;stroke:#ffa500;stroke-linejoin:bevel;stroke-width:1.5;" x="329.835665" xlink:href="#m0b307a2996" y="252.782738"/>
    </g>
   </g>
   <g id="line2d_59">
    <path style="fill:none;stroke:#ffa500;stroke-linecap:square;stroke-width:1.5;"/>
    <g/>
   </g>
   <g id="line2d_60">
    <path clip-path="url(#pf430243342)" d="M 165.75793 277.609095 
" style="fill:none;stroke:#ffa500;stroke-linecap:square;stroke-width:1.5;"/>
    <defs>
     <path d="M -12 12 
L 12 -12 
M -12 -12 
L 12 12 
" id="mb0a8bdd65c" style="stroke:#ffa500;stroke-width:3;"/>
    </defs>
    <g clip-path="url(#pf430243342)">
     <use style="fill:#ffa500;stroke:#ffa500;stroke-width:3;" x="165.75793" xlink:href="#mb0a8bdd65c" y="277.609095"/>
    </g>
   </g>
   <g id="line2d_61">
    <defs>
     <path d="M 0 1.5 
C 0.397805 1.5 0.77937 1.341951 1.06066 1.06066 
C 1.341951 0.77937 1.5 0.397805 1.5 0 
C 1.5 -0.397805 1.341951 -0.77937 1.06066 -1.06066 
C 0.77937 -1.341951 0.397805 -1.5 0 -1.5 
C -0.397805 -1.5 -0.77937 -1.341951 -1.06066 -1.06066 
C -1.341951 -0.77937 -1.5 -0.397805 -1.5 0 
C -1.5 0.397805 -1.341951 0.77937 -1.06066 1.06066 
C -0.77937 1.341951 -0.397805 1.5 0 1.5 
z
" id="m285da96970" style="stroke:#6495ed;"/>
    </defs>
    <g>
     <use style="fill:#6495ed;stroke:#6495ed;" x="234.882117" xlink:href="#m285da96970" y="142.443373"/>
     <use style="fill:#6495ed;stroke:#6495ed;" x="234.882117" xlink:href="#m285da96970" y="142.443373"/>
    </g>
   </g>
   <g id="line2d_62">
    <path d="M 29.580603 294.16 
L 29.580603 278.988337 
L 53.06057 278.988337 
L 53.06057 278.068843 
L 56.84 278.068843 
L 56.84 277.149348 
L 64.800553 277.149348 
L 64.800553 275.310358 
L 71.668003 275.310358 
L 71.668003 273.471369 
L 73.023704 273.471369 
L 73.023704 273.011622 
L 79.451201 273.011622 
L 79.451201 272.092127 
L 81.934256 272.092127 
L 81.934256 271.63238 
L 84.763687 271.63238 
L 84.763687 270.712885 
L 91.191185 270.712885 
L 91.191185 269.333643 
L 92.88632 269.333643 
L 92.88632 268.873896 
L 93.284861 268.873896 
L 93.284861 268.414148 
L 95.839381 268.414148 
L 95.839381 267.954401 
L 98.353202 267.954401 
L 98.353202 267.494653 
L 99.75377 267.494653 
L 99.75377 267.034906 
L 101.294579 267.034906 
L 101.294579 266.115411 
L 115.539917 266.115411 
L 115.539917 264.736169 
L 115.958141 264.736169 
L 115.958141 264.276422 
L 116.163443 264.276422 
L 116.163443 263.816675 
L 118.627937 263.816675 
L 118.627937 262.89718 
L 120.064871 262.89718 
L 120.064871 262.437433 
L 120.622853 262.437433 
L 120.622853 261.977685 
L 123.697799 261.977685 
L 123.697799 261.517938 
L 124.713067 261.517938 
L 124.713067 261.058191 
L 126.466758 261.058191 
L 126.466758 260.598443 
L 129.180459 260.598443 
L 129.180459 259.678948 
L 131.143806 259.678948 
L 131.143806 258.759454 
L 132.401998 258.759454 
L 132.401998 258.299706 
L 132.67362 258.299706 
L 132.750433 256.920464 
L 133.934301 256.920464 
L 133.934301 255.541222 
L 135.14092 255.541222 
L 135.14092 253.242485 
L 135.568069 253.242485 
L 135.568069 252.782738 
L 135.857601 252.782738 
L 135.857601 251.863243 
L 136.267266 251.863243 
L 136.267266 250.943749 
L 137.555774 250.943749 
L 137.555774 250.484001 
L 137.813488 250.484001 
L 137.813488 249.104759 
L 138.039321 249.104759 
L 138.039321 248.645012 
L 139.230287 248.645012 
L 139.230287 248.185265 
L 139.412269 248.185265 
L 139.412269 247.26577 
L 140.269395 247.26577 
L 140.269395 246.806023 
L 140.41625 246.806023 
L 140.489203 244.967033 
L 142.457137 244.967033 
L 142.457137 244.507286 
L 142.73568 244.507286 
L 142.73568 244.047538 
L 142.94687 244.047538 
L 142.94687 243.587791 
L 143.113947 243.587791 
L 143.113947 241.289054 
L 143.665963 241.289054 
L 143.665963 240.829307 
L 144.278337 240.829307 
L 144.278337 239.909812 
L 144.394346 239.909812 
L 144.394346 238.070823 
L 145.294875 238.070823 
L 145.331378 235.772086 
L 146.442702 235.772086 
L 146.459768 233.473349 
L 146.680065 233.473349 
L 146.730498 231.63436 
L 147.437345 231.63436 
L 147.437345 231.174612 
L 148.100396 231.174612 
L 148.100396 230.255118 
L 148.254512 230.255118 
L 148.254512 227.496634 
L 148.663753 227.496634 
L 148.663753 227.036886 
L 149.324587 227.036886 
L 149.324587 226.117392 
L 151.035489 226.117392 
L 151.035489 225.657644 
L 151.190996 225.657644 
L 151.190996 224.278402 
L 151.686755 224.278402 
L 151.736791 222.439413 
L 152.743018 222.439413 
L 152.743018 221.979665 
L 153.468763 221.979665 
L 153.468763 221.519918 
L 154.967846 221.519918 
L 154.967846 220.600423 
L 155.081002 220.600423 
L 155.081002 220.140676 
L 155.416001 220.140676 
L 155.416001 219.680929 
L 156.143961 219.680929 
L 156.182433 216.462697 
L 156.430392 216.462697 
L 156.430392 216.00295 
L 157.080474 216.00295 
L 157.080474 215.543202 
L 157.458875 215.543202 
L 157.458875 214.623708 
L 157.574306 214.623708 
L 157.574306 212.324971 
L 158.216799 212.324971 
L 158.216799 211.865224 
L 158.72042 211.865224 
L 158.72042 211.405476 
L 159.241607 211.405476 
L 159.241607 210.485982 
L 159.369435 210.485982 
L 159.369435 209.566487 
L 160.078665 209.566487 
L 160.078665 209.10674 
L 161.783611 209.10674 
L 161.783611 207.727497 
L 162.152271 207.727497 
L 162.21967 204.969013 
L 163.065887 204.969013 
L 163.167957 202.210529 
L 163.526663 202.210529 
L 163.526663 201.750782 
L 166.369022 201.750782 
L 166.369022 201.291034 
L 166.515802 201.291034 
L 166.515802 200.37154 
L 167.922416 200.37154 
L 168.022991 198.53255 
L 168.065912 198.53255 
L 168.065912 198.072803 
L 168.641856 198.072803 
L 168.641856 197.153308 
L 168.952054 197.153308 
L 168.952054 196.233814 
L 169.629899 196.233814 
L 169.629899 194.854572 
L 170.298364 194.854572 
L 170.298364 194.394824 
L 171.428738 194.394824 
L 171.428738 193.475329 
L 172.37057 193.475329 
L 172.37057 192.555835 
L 172.674434 192.555835 
L 172.674434 192.096087 
L 173.589036 192.096087 
L 173.589036 191.63634 
L 174.023434 191.63634 
L 174.023434 191.176593 
L 174.325626 191.176593 
L 174.41426 188.418109 
L 174.469829 188.418109 
L 174.469829 187.038867 
L 174.87611 187.038867 
L 174.961916 185.199877 
L 175.36908 185.199877 
L 175.36908 184.74013 
L 175.553751 184.74013 
L 175.553751 184.280382 
L 176.337357 184.280382 
L 176.404446 182.441393 
L 176.835588 182.441393 
L 176.835588 181.981646 
L 177.571441 181.981646 
L 177.571441 181.521898 
L 178.706441 181.521898 
L 178.706441 181.062151 
L 179.165214 181.062151 
L 179.165214 179.682909 
L 179.786833 179.682909 
L 179.786833 178.303667 
L 180.058818 178.303667 
L 180.058818 177.384172 
L 180.402544 177.384172 
L 180.402544 176.924425 
L 180.92993 176.924425 
L 180.92993 176.00493 
L 181.688244 176.00493 
L 181.688244 175.545183 
L 181.996547 175.545183 
L 181.996547 175.085435 
L 183.125709 175.085435 
L 183.125709 172.326951 
L 184.292429 172.326951 
L 184.363544 170.487962 
L 184.515708 170.487962 
L 184.515708 170.028214 
L 184.702227 170.028214 
L 184.702227 169.568467 
L 185.647426 169.568467 
L 185.647426 168.189225 
L 185.971545 168.189225 
L 185.971545 166.350236 
L 186.137864 166.350236 
L 186.137864 164.970994 
L 186.705069 164.970994 
L 186.705069 164.511246 
L 190.799754 164.511246 
L 190.799754 164.051499 
L 193.605238 164.051499 
L 193.605238 163.591751 
L 193.919683 163.591751 
L 193.988888 162.672257 
L 194.688585 162.672257 
L 194.688585 162.212509 
L 195.903095 162.212509 
L 195.989416 161.293015 
L 196.909261 161.293015 
L 196.989752 159.454025 
L 197.474058 159.454025 
L 197.549409 158.074783 
L 197.62609 158.074783 
L 197.62609 157.615036 
L 202.616094 157.615036 
L 202.616094 157.155288 
L 202.874261 157.155288 
L 202.874261 156.695541 
L 203.045419 156.695541 
L 203.045419 156.235794 
L 203.300145 156.235794 
L 203.382631 155.316299 
L 203.779892 155.316299 
L 203.781627 154.396804 
L 204.112005 154.396804 
L 204.118241 153.47731 
L 204.454965 153.47731 
L 204.454965 153.017562 
L 204.784035 153.017562 
L 204.804731 151.63832 
L 208.464318 151.63832 
L 208.464318 151.178573 
L 208.79566 151.178573 
L 208.878884 149.799331 
L 209.884462 149.799331 
L 209.884462 149.339583 
L 212.544013 149.339583 
L 212.544013 148.879836 
L 213.570724 148.879836 
L 213.570724 148.420089 
L 216.462051 148.420089 
L 216.470254 147.500594 
L 216.977311 147.500594 
L 216.981555 146.581099 
L 219.655218 146.581099 
L 219.655218 146.121352 
L 221.930763 146.121352 
L 221.930763 145.661605 
L 223.647836 145.661605 
L 223.647836 145.201857 
L 225.363016 145.201857 
L 225.363016 144.74211 
L 225.791858 144.74211 
L 225.791858 144.282363 
L 227.43689 144.282363 
L 227.43689 143.822615 
L 228.666281 143.822615 
L 228.666281 143.362868 
L 232.748985 143.362868 
L 232.748985 142.903121 
L 234.882117 142.903121 
L 234.882117 142.443373 
L 329.835665 142.443373 
L 329.835665 142.443373 
" style="fill:none;stroke:#6495ed;stroke-linecap:square;stroke-width:1.5;"/>
   </g>
   <g id="line2d_63">
    <defs>
     <path d="M -0 6 
L 6 -6 
L -6 -6 
z
" id="m0e186240fb" style="stroke:#6495ed;stroke-linejoin:miter;stroke-width:1.5;"/>
    </defs>
    <g>
     <use style="fill:none;stroke:#6495ed;stroke-linejoin:miter;stroke-width:1.5;" x="64.800553" xlink:href="#m0e186240fb" y="275.310358"/>
     <use style="fill:none;stroke:#6495ed;stroke-linejoin:miter;stroke-width:1.5;" x="145.331378" xlink:href="#m0e186240fb" y="235.772086"/>
     <use style="fill:none;stroke:#6495ed;stroke-linejoin:miter;stroke-width:1.5;" x="193.919683" xlink:href="#m0e186240fb" y="163.132004"/>
     <use style="fill:none;stroke:#6495ed;stroke-linejoin:miter;stroke-width:1.5;" x="234.882117" xlink:href="#m0e186240fb" y="142.903121"/>
     <use style="fill:none;stroke:#6495ed;stroke-linejoin:miter;stroke-width:1.5;" x="234.882117" xlink:href="#m0e186240fb" y="142.443373"/>
     <use style="fill:none;stroke:#6495ed;stroke-linejoin:miter;stroke-width:1.5;" x="329.835665" xlink:href="#m0e186240fb" y="142.443373"/>
    </g>
   </g>
   <g id="line2d_64">
    <path style="fill:none;stroke:#6495ed;stroke-linecap:square;stroke-width:1.5;"/>
    <g/>
   </g>
   <g id="line2d_65">
    <path clip-path="url(#pf430243342)" d="M 187.0253 164.511246 
" style="fill:none;stroke:#6495ed;stroke-linecap:square;stroke-width:1.5;"/>
    <defs>
     <path d="M -12 12 
L 12 -12 
M -12 -12 
L 12 12 
" id="m97cb1bfa9a" style="stroke:#6495ed;stroke-width:3;"/>
    </defs>
    <g clip-path="url(#pf430243342)">
     <use style="fill:#6495ed;stroke:#6495ed;stroke-width:3;" x="187.0253" xlink:href="#m97cb1bfa9a" y="164.511246"/>
    </g>
   </g>
   <g id="line2d_66">
    <path d="M 329.835665 252.782738 
L 359.865189 288.826931 
" style="fill:none;stroke:#ffa500;stroke-linecap:square;stroke-width:1.5;"/>
    <g>
     <use style="fill:none;stroke:#ffa500;stroke-linejoin:bevel;stroke-width:1.5;" x="329.835665" xlink:href="#m0b307a2996" y="252.782738"/>
     <use style="fill:none;stroke:#ffa500;stroke-linejoin:bevel;stroke-width:1.5;" x="359.865189" xlink:href="#m0b307a2996" y="288.826931"/>
    </g>
   </g>
   <g id="line2d_67">
    <path d="M 329.835665 170.947709 
L 359.865189 224.830099 
" style="fill:none;stroke:#ff00ff;stroke-linecap:square;stroke-width:1.5;"/>
    <g>
     <use style="fill:none;stroke:#ff00ff;stroke-linejoin:miter;stroke-width:1.5;" x="329.835665" xlink:href="#m6f1bc8a5a6" y="170.947709"/>
     <use style="fill:none;stroke:#ff00ff;stroke-linejoin:miter;stroke-width:1.5;" x="359.865189" xlink:href="#m6f1bc8a5a6" y="224.830099"/>
    </g>
   </g>
   <g id="line2d_68">
    <path d="M 329.835665 142.443373 
L 359.865189 160.833267 
" style="fill:none;stroke:#6495ed;stroke-linecap:square;stroke-width:1.5;"/>
    <g>
     <use style="fill:none;stroke:#6495ed;stroke-linejoin:miter;stroke-width:1.5;" x="329.835665" xlink:href="#m0e186240fb" y="142.443373"/>
     <use style="fill:none;stroke:#6495ed;stroke-linejoin:miter;stroke-width:1.5;" x="359.865189" xlink:href="#m0e186240fb" y="160.833267"/>
    </g>
   </g>
   <g id="line2d_69">
    <path d="M 329.835665 128.650953 
L 359.865189 96.836436 
" style="fill:none;stroke:#000080;stroke-linecap:square;stroke-width:1.5;"/>
    <g>
     <use style="fill:none;stroke:#000080;stroke-width:1.5;" x="329.835665" xlink:href="#mc8b6c76399" y="128.650953"/>
     <use style="fill:none;stroke:#000080;stroke-width:1.5;" x="359.865189" xlink:href="#mc8b6c76399" y="96.836436"/>
    </g>
   </g>
   <g id="line2d_70">
    <path d="M 329.835665 294.16 
L 329.835665 27.506535 
" style="fill:none;stroke:#000000;stroke-linecap:square;stroke-width:1.5;"/>
   </g>
   <g id="patch_3">
    <path d="M 56.84 294.16 
L 56.84 24.84 
" style="fill:none;stroke:#000000;stroke-linecap:square;stroke-linejoin:miter;stroke-width:0.8;"/>
   </g>
   <g id="patch_4">
    <path d="M 395.354625 294.16 
L 395.354625 24.84 
" style="fill:none;stroke:#000000;stroke-linecap:square;stroke-linejoin:miter;stroke-width:0.8;"/>
   </g>
   <g id="patch_5">
    <path d="M 56.84 294.16 
L 395.354625 294.16 
" style="fill:none;stroke:#000000;stroke-linecap:square;stroke-linejoin:miter;stroke-width:0.8;"/>
   </g>
   <g id="patch_6">
    <path d="M 56.84 24.84 
L 395.354625 24.84 
" style="fill:none;stroke:#000000;stroke-linecap:square;stroke-linejoin:miter;stroke-width:0.8;"/>
   </g>
   <g id="text_14">
    <!-- adaptiveH -->
    <defs>
     <path d="M 9.8125 72.90625 
L 19.671875 72.90625 
L 19.671875 43.015625 
L 55.515625 43.015625 
L 55.515625 72.90625 
L 65.375 72.90625 
L 65.375 0 
L 55.515625 0 
L 55.515625 34.71875 
L 19.671875 34.71875 
L 19.671875 0 
L 9.8125 0 
z
" id="DejaVuSans-48"/>
    </defs>
    <g transform="translate(365.325102 293.517868)scale(0.17 -0.17)">
     <use xlink:href="#DejaVuSans-61"/>
     <use x="61.279297" xlink:href="#DejaVuSans-64"/>
     <use x="124.755859" xlink:href="#DejaVuSans-61"/>
     <use x="186.035156" xlink:href="#DejaVuSans-70"/>
     <use x="249.511719" xlink:href="#DejaVuSans-74"/>
     <use x="288.720703" xlink:href="#DejaVuSans-69"/>
     <use x="316.503906" xlink:href="#DejaVuSans-76"/>
     <use x="375.683594" xlink:href="#DejaVuSans-65"/>
     <use x="437.207031" xlink:href="#DejaVuSans-48"/>
    </g>
   </g>
   <g id="text_15">
    <!-- RANDOMSEA -->
    <defs>
     <path d="M 44.390625 34.1875 
Q 47.5625 33.109375 50.5625 29.59375 
Q 53.5625 26.078125 56.59375 19.921875 
L 66.609375 0 
L 56 0 
L 46.6875 18.703125 
Q 43.0625 26.03125 39.671875 28.421875 
Q 36.28125 30.8125 30.421875 30.8125 
L 19.671875 30.8125 
L 19.671875 0 
L 9.8125 0 
L 9.8125 72.90625 
L 32.078125 72.90625 
Q 44.578125 72.90625 50.734375 67.671875 
Q 56.890625 62.453125 56.890625 51.90625 
Q 56.890625 45.015625 53.6875 40.46875 
Q 50.484375 35.9375 44.390625 34.1875 
M 19.671875 64.796875 
L 19.671875 38.921875 
L 32.078125 38.921875 
Q 39.203125 38.921875 42.84375 42.21875 
Q 46.484375 45.515625 46.484375 51.90625 
Q 46.484375 58.296875 42.84375 61.546875 
Q 39.203125 64.796875 32.078125 64.796875 
z
" id="DejaVuSans-52"/>
     <path d="M 34.1875 63.1875 
L 20.796875 26.90625 
L 47.609375 26.90625 
z
M 28.609375 72.90625 
L 39.796875 72.90625 
L 67.578125 0 
L 57.328125 0 
L 50.6875 18.703125 
L 17.828125 18.703125 
L 11.1875 0 
L 0.78125 0 
z
" id="DejaVuSans-41"/>
     <path d="M 9.8125 72.90625 
L 23.09375 72.90625 
L 55.421875 11.921875 
L 55.421875 72.90625 
L 64.984375 72.90625 
L 64.984375 0 
L 51.703125 0 
L 19.390625 60.984375 
L 19.390625 0 
L 9.8125 0 
z
" id="DejaVuSans-4e"/>
     <path d="M 19.671875 64.796875 
L 19.671875 8.109375 
L 31.59375 8.109375 
Q 46.6875 8.109375 53.6875 14.9375 
Q 60.6875 21.78125 60.6875 36.53125 
Q 60.6875 51.171875 53.6875 57.984375 
Q 46.6875 64.796875 31.59375 64.796875 
z
M 9.8125 72.90625 
L 30.078125 72.90625 
Q 51.265625 72.90625 61.171875 64.09375 
Q 71.09375 55.28125 71.09375 36.53125 
Q 71.09375 17.671875 61.125 8.828125 
Q 51.171875 0 30.078125 0 
L 9.8125 0 
z
" id="DejaVuSans-44"/>
     <path d="M 39.40625 66.21875 
Q 28.65625 66.21875 22.328125 58.203125 
Q 16.015625 50.203125 16.015625 36.375 
Q 16.015625 22.609375 22.328125 14.59375 
Q 28.65625 6.59375 39.40625 6.59375 
Q 50.140625 6.59375 56.421875 14.59375 
Q 62.703125 22.609375 62.703125 36.375 
Q 62.703125 50.203125 56.421875 58.203125 
Q 50.140625 66.21875 39.40625 66.21875 
M 39.40625 74.21875 
Q 54.734375 74.21875 63.90625 63.9375 
Q 73.09375 53.65625 73.09375 36.375 
Q 73.09375 19.140625 63.90625 8.859375 
Q 54.734375 -1.421875 39.40625 -1.421875 
Q 24.03125 -1.421875 14.8125 8.828125 
Q 5.609375 19.09375 5.609375 36.375 
Q 5.609375 53.65625 14.8125 63.9375 
Q 24.03125 74.21875 39.40625 74.21875 
" id="DejaVuSans-4f"/>
     <path d="M 9.8125 72.90625 
L 24.515625 72.90625 
L 43.109375 23.296875 
L 61.8125 72.90625 
L 76.515625 72.90625 
L 76.515625 0 
L 66.890625 0 
L 66.890625 64.015625 
L 48.09375 14.015625 
L 38.1875 14.015625 
L 19.390625 64.015625 
L 19.390625 0 
L 9.8125 0 
z
" id="DejaVuSans-4d"/>
     <path d="M 53.515625 70.515625 
L 53.515625 60.890625 
Q 47.90625 63.578125 42.921875 64.890625 
Q 37.9375 66.21875 33.296875 66.21875 
Q 25.25 66.21875 20.875 63.09375 
Q 16.5 59.96875 16.5 54.203125 
Q 16.5 49.359375 19.40625 46.890625 
Q 22.3125 44.4375 30.421875 42.921875 
L 36.375 41.703125 
Q 47.40625 39.59375 52.65625 34.296875 
Q 57.90625 29 57.90625 20.125 
Q 57.90625 9.515625 50.796875 4.046875 
Q 43.703125 -1.421875 29.984375 -1.421875 
Q 24.8125 -1.421875 18.96875 -0.25 
Q 13.140625 0.921875 6.890625 3.21875 
L 6.890625 13.375 
Q 12.890625 10.015625 18.65625 8.296875 
Q 24.421875 6.59375 29.984375 6.59375 
Q 38.421875 6.59375 43.015625 9.90625 
Q 47.609375 13.234375 47.609375 19.390625 
Q 47.609375 24.75 44.3125 27.78125 
Q 41.015625 30.8125 33.5 32.328125 
L 27.484375 33.5 
Q 16.453125 35.6875 11.515625 40.375 
Q 6.59375 45.0625 6.59375 53.421875 
Q 6.59375 63.09375 13.40625 68.65625 
Q 20.21875 74.21875 32.171875 74.21875 
Q 37.3125 74.21875 42.625 73.28125 
Q 47.953125 72.359375 53.515625 70.515625 
" id="DejaVuSans-53"/>
     <path d="M 9.8125 72.90625 
L 55.90625 72.90625 
L 55.90625 64.59375 
L 19.671875 64.59375 
L 19.671875 43.015625 
L 54.390625 43.015625 
L 54.390625 34.71875 
L 19.671875 34.71875 
L 19.671875 8.296875 
L 56.78125 8.296875 
L 56.78125 0 
L 9.8125 0 
z
" id="DejaVuSans-45"/>
    </defs>
    <g transform="translate(365.325102 229.521037)scale(0.17 -0.17)">
     <use xlink:href="#DejaVuSans-52"/>
     <use x="69.419922" xlink:href="#DejaVuSans-41"/>
     <use x="137.828125" xlink:href="#DejaVuSans-4e"/>
     <use x="212.632812" xlink:href="#DejaVuSans-44"/>
     <use x="289.634766" xlink:href="#DejaVuSans-4f"/>
     <use x="368.345703" xlink:href="#DejaVuSans-4d"/>
     <use x="454.625" xlink:href="#DejaVuSans-53"/>
     <use x="518.101562" xlink:href="#DejaVuSans-45"/>
     <use x="581.285156" xlink:href="#DejaVuSans-41"/>
    </g>
   </g>
   <g id="text_16">
    <!-- final  bu -->
    <defs>
     <path d="M 48.6875 27.296875 
Q 48.6875 37.203125 44.609375 42.84375 
Q 40.53125 48.484375 33.40625 48.484375 
Q 26.265625 48.484375 22.1875 42.84375 
Q 18.109375 37.203125 18.109375 27.296875 
Q 18.109375 17.390625 22.1875 11.75 
Q 26.265625 6.109375 33.40625 6.109375 
Q 40.53125 6.109375 44.609375 11.75 
Q 48.6875 17.390625 48.6875 27.296875 
M 18.109375 46.390625 
Q 20.953125 51.265625 25.265625 53.625 
Q 29.59375 56 35.59375 56 
Q 45.5625 56 51.78125 48.09375 
Q 58.015625 40.1875 58.015625 27.296875 
Q 58.015625 14.40625 51.78125 6.484375 
Q 45.5625 -1.421875 35.59375 -1.421875 
Q 29.59375 -1.421875 25.265625 0.953125 
Q 20.953125 3.328125 18.109375 8.203125 
L 18.109375 0 
L 9.078125 0 
L 9.078125 75.984375 
L 18.109375 75.984375 
z
" id="DejaVuSans-62"/>
    </defs>
    <g transform="translate(365.325102 165.524205)scale(0.17 -0.17)">
     <use xlink:href="#DejaVuSans-66"/>
     <use x="35.205078" xlink:href="#DejaVuSans-69"/>
     <use x="62.988281" xlink:href="#DejaVuSans-6e"/>
     <use x="126.367188" xlink:href="#DejaVuSans-61"/>
     <use x="187.646484" xlink:href="#DejaVuSans-6c"/>
     <use x="215.429688" xlink:href="#DejaVuSans-20"/>
     <use x="247.216797" xlink:href="#DejaVuSans-20"/>
     <use x="279.003906" xlink:href="#DejaVuSans-62"/>
     <use x="342.480469" xlink:href="#DejaVuSans-75"/>
    </g>
   </g>
   <g id="text_17">
    <!-- NSGA-II-M -->
    <defs>
     <path d="M 59.515625 10.40625 
L 59.515625 29.984375 
L 43.40625 29.984375 
L 43.40625 38.09375 
L 69.28125 38.09375 
L 69.28125 6.78125 
Q 63.578125 2.734375 56.6875 0.65625 
Q 49.8125 -1.421875 42 -1.421875 
Q 24.90625 -1.421875 15.25 8.5625 
Q 5.609375 18.5625 5.609375 36.375 
Q 5.609375 54.25 15.25 64.234375 
Q 24.90625 74.21875 42 74.21875 
Q 49.125 74.21875 55.546875 72.453125 
Q 61.96875 70.703125 67.390625 67.28125 
L 67.390625 56.78125 
Q 61.921875 61.421875 55.765625 63.765625 
Q 49.609375 66.109375 42.828125 66.109375 
Q 29.4375 66.109375 22.71875 58.640625 
Q 16.015625 51.171875 16.015625 36.375 
Q 16.015625 21.625 22.71875 14.15625 
Q 29.4375 6.6875 42.828125 6.6875 
Q 48.046875 6.6875 52.140625 7.59375 
Q 56.25 8.5 59.515625 10.40625 
" id="DejaVuSans-47"/>
     <path d="M 9.8125 72.90625 
L 19.671875 72.90625 
L 19.671875 0 
L 9.8125 0 
z
" id="DejaVuSans-49"/>
    </defs>
    <g transform="translate(365.325102 101.527373)scale(0.17 -0.17)">
     <use xlink:href="#DejaVuSans-4e"/>
     <use x="74.804688" xlink:href="#DejaVuSans-53"/>
     <use x="138.28125" xlink:href="#DejaVuSans-47"/>
     <use x="215.771484" xlink:href="#DejaVuSans-41"/>
     <use x="284.148438" xlink:href="#DejaVuSans-2d"/>
     <use x="320.232422" xlink:href="#DejaVuSans-49"/>
     <use x="349.724609" xlink:href="#DejaVuSans-49"/>
     <use x="379.216797" xlink:href="#DejaVuSans-2d"/>
     <use x="415.300781" xlink:href="#DejaVuSans-4d"/>
    </g>
   </g>
   <g id="text_18">
    <!-- best 2016 -->
    <g transform="translate(365.325102 37.530541)scale(0.17 -0.17)">
     <use xlink:href="#DejaVuSans-62"/>
     <use x="63.476562" xlink:href="#DejaVuSans-65"/>
     <use x="125" xlink:href="#DejaVuSans-73"/>
     <use x="177.099609" xlink:href="#DejaVuSans-74"/>
     <use x="216.308594" xlink:href="#DejaVuSans-20"/>
     <use x="248.095703" xlink:href="#DejaVuSans-32"/>
     <use x="311.71875" xlink:href="#DejaVuSans-30"/>
     <use x="375.341797" xlink:href="#DejaVuSans-31"/>
     <use x="438.964844" xlink:href="#DejaVuSans-36"/>
    </g>
   </g>
   <g id="text_19">
    <!-- bbob-biobj f23, 5-D -->
    <defs>
     <path d="M 9.421875 54.6875 
L 18.40625 54.6875 
L 18.40625 -0.984375 
Q 18.40625 -11.421875 14.421875 -16.109375 
Q 10.453125 -20.796875 1.609375 -20.796875 
L -1.8125 -20.796875 
L -1.8125 -13.1875 
L 0.59375 -13.1875 
Q 5.71875 -13.1875 7.5625 -10.8125 
Q 9.421875 -8.453125 9.421875 -0.984375 
z
M 9.421875 75.984375 
L 18.40625 75.984375 
L 18.40625 64.59375 
L 9.421875 64.59375 
z
" id="DejaVuSans-6a"/>
     <path d="M 40.578125 39.3125 
Q 47.65625 37.796875 51.625 33 
Q 55.609375 28.21875 55.609375 21.1875 
Q 55.609375 10.40625 48.1875 4.484375 
Q 40.765625 -1.421875 27.09375 -1.421875 
Q 22.515625 -1.421875 17.65625 -0.515625 
Q 12.796875 0.390625 7.625 2.203125 
L 7.625 11.71875 
Q 11.71875 9.328125 16.59375 8.109375 
Q 21.484375 6.890625 26.8125 6.890625 
Q 36.078125 6.890625 40.9375 10.546875 
Q 45.796875 14.203125 45.796875 21.1875 
Q 45.796875 27.640625 41.28125 31.265625 
Q 36.765625 34.90625 28.71875 34.90625 
L 20.21875 34.90625 
L 20.21875 43.015625 
L 29.109375 43.015625 
Q 36.375 43.015625 40.234375 45.921875 
Q 44.09375 48.828125 44.09375 54.296875 
Q 44.09375 59.90625 40.109375 62.90625 
Q 36.140625 65.921875 28.71875 65.921875 
Q 24.65625 65.921875 20.015625 65.03125 
Q 15.375 64.15625 9.8125 62.3125 
L 9.8125 71.09375 
Q 15.4375 72.65625 20.34375 73.4375 
Q 25.25 74.21875 29.59375 74.21875 
Q 40.828125 74.21875 47.359375 69.109375 
Q 53.90625 64.015625 53.90625 55.328125 
Q 53.90625 49.265625 50.4375 45.09375 
Q 46.96875 40.921875 40.578125 39.3125 
" id="DejaVuSans-33"/>
     <path d="M 10.796875 72.90625 
L 49.515625 72.90625 
L 49.515625 64.59375 
L 19.828125 64.59375 
L 19.828125 46.734375 
Q 21.96875 47.46875 24.109375 47.828125 
Q 26.265625 48.1875 28.421875 48.1875 
Q 40.625 48.1875 47.75 41.5 
Q 54.890625 34.8125 54.890625 23.390625 
Q 54.890625 11.625 47.5625 5.09375 
Q 40.234375 -1.421875 26.90625 -1.421875 
Q 22.3125 -1.421875 17.546875 -0.640625 
Q 12.796875 0.140625 7.71875 1.703125 
L 7.71875 11.625 
Q 12.109375 9.234375 16.796875 8.0625 
Q 21.484375 6.890625 26.703125 6.890625 
Q 35.15625 6.890625 40.078125 11.328125 
Q 45.015625 15.765625 45.015625 23.390625 
Q 45.015625 31 40.078125 35.4375 
Q 35.15625 39.890625 26.703125 39.890625 
Q 22.75 39.890625 18.8125 39.015625 
Q 14.890625 38.140625 10.796875 36.28125 
z
" id="DejaVuSans-35"/>
    </defs>
    <g transform="translate(60.225146 35.283606)scale(0.102 -0.102)">
     <use xlink:href="#DejaVuSans-62"/>
     <use x="63.476562" xlink:href="#DejaVuSans-62"/>
     <use x="126.953125" xlink:href="#DejaVuSans-6f"/>
     <use x="188.134766" xlink:href="#DejaVuSans-62"/>
     <use x="251.611328" xlink:href="#DejaVuSans-2d"/>
     <use x="287.695312" xlink:href="#DejaVuSans-62"/>
     <use x="351.171875" xlink:href="#DejaVuSans-69"/>
     <use x="378.955078" xlink:href="#DejaVuSans-6f"/>
     <use x="440.136719" xlink:href="#DejaVuSans-62"/>
     <use x="503.613281" xlink:href="#DejaVuSans-6a"/>
     <use x="531.396484" xlink:href="#DejaVuSans-20"/>
     <use x="563.183594" xlink:href="#DejaVuSans-66"/>
     <use x="598.388672" xlink:href="#DejaVuSans-32"/>
     <use x="662.011719" xlink:href="#DejaVuSans-33"/>
     <use x="725.634766" xlink:href="#DejaVuSans-2c"/>
     <use x="757.421875" xlink:href="#DejaVuSans-20"/>
     <use x="789.208984" xlink:href="#DejaVuSans-35"/>
     <use x="852.832031" xlink:href="#DejaVuSans-2d"/>
     <use x="888.916016" xlink:href="#DejaVuSans-44"/>
    </g>
    <!-- 58 targets: 1..-1.0e-4 -->
    <defs>
     <path d="M 11.71875 12.40625 
L 22.015625 12.40625 
L 22.015625 0 
L 11.71875 0 
z
M 11.71875 51.703125 
L 22.015625 51.703125 
L 22.015625 39.3125 
L 11.71875 39.3125 
z
" id="DejaVuSans-3a"/>
    </defs>
    <g transform="translate(60.225146 46.705375)scale(0.102 -0.102)">
     <use xlink:href="#DejaVuSans-35"/>
     <use x="63.623047" xlink:href="#DejaVuSans-38"/>
     <use x="127.246094" xlink:href="#DejaVuSans-20"/>
     <use x="159.033203" xlink:href="#DejaVuSans-74"/>
     <use x="198.242188" xlink:href="#DejaVuSans-61"/>
     <use x="259.521484" xlink:href="#DejaVuSans-72"/>
     <use x="300.619141" xlink:href="#DejaVuSans-67"/>
     <use x="364.095703" xlink:href="#DejaVuSans-65"/>
     <use x="425.619141" xlink:href="#DejaVuSans-74"/>
     <use x="464.828125" xlink:href="#DejaVuSans-73"/>
     <use x="516.927734" xlink:href="#DejaVuSans-3a"/>
     <use x="550.619141" xlink:href="#DejaVuSans-20"/>
     <use x="582.40625" xlink:href="#DejaVuSans-31"/>
     <use x="646.029297" xlink:href="#DejaVuSans-2e"/>
     <use x="677.816406" xlink:href="#DejaVuSans-2e"/>
     <use x="709.603516" xlink:href="#DejaVuSans-2d"/>
     <use x="745.6875" xlink:href="#DejaVuSans-31"/>
     <use x="809.310547" xlink:href="#DejaVuSans-2e"/>
     <use x="841.097656" xlink:href="#DejaVuSans-30"/>
     <use x="904.720703" xlink:href="#DejaVuSans-65"/>
     <use x="966.244141" xlink:href="#DejaVuSans-2d"/>
     <use x="1002.328125" xlink:href="#DejaVuSans-34"/>
    </g>
    <!-- 10 instances -->
    <g transform="translate(60.225146 58.127144)scale(0.102 -0.102)">
     <use xlink:href="#DejaVuSans-31"/>
     <use x="63.623047" xlink:href="#DejaVuSans-30"/>
     <use x="127.246094" xlink:href="#DejaVuSans-20"/>
     <use x="159.033203" xlink:href="#DejaVuSans-69"/>
     <use x="186.816406" xlink:href="#DejaVuSans-6e"/>
     <use x="250.195312" xlink:href="#DejaVuSans-73"/>
     <use x="302.294922" xlink:href="#DejaVuSans-74"/>
     <use x="341.503906" xlink:href="#DejaVuSans-61"/>
     <use x="402.783203" xlink:href="#DejaVuSans-6e"/>
     <use x="466.162109" xlink:href="#DejaVuSans-63"/>
     <use x="521.142578" xlink:href="#DejaVuSans-65"/>
     <use x="582.666016" xlink:href="#DejaVuSans-73"/>
    </g>
   </g>
   <g id="text_20">
    <!-- v2.2.1.10, hv-hash=ff0e71e8cd978373 -->
    <defs>
     <path d="M 54.890625 33.015625 
L 54.890625 0 
L 45.90625 0 
L 45.90625 32.71875 
Q 45.90625 40.484375 42.875 44.328125 
Q 39.84375 48.1875 33.796875 48.1875 
Q 26.515625 48.1875 22.3125 43.546875 
Q 18.109375 38.921875 18.109375 30.90625 
L 18.109375 0 
L 9.078125 0 
L 9.078125 75.984375 
L 18.109375 75.984375 
L 18.109375 46.1875 
Q 21.34375 51.125 25.703125 53.5625 
Q 30.078125 56 35.796875 56 
Q 45.21875 56 50.046875 50.171875 
Q 54.890625 44.34375 54.890625 33.015625 
" id="DejaVuSans-68"/>
     <path d="M 10.59375 45.40625 
L 73.1875 45.40625 
L 73.1875 37.203125 
L 10.59375 37.203125 
z
M 10.59375 25.484375 
L 73.1875 25.484375 
L 73.1875 17.1875 
L 10.59375 17.1875 
z
" id="DejaVuSans-3d"/>
     <path d="M 8.203125 72.90625 
L 55.078125 72.90625 
L 55.078125 68.703125 
L 28.609375 0 
L 18.3125 0 
L 43.21875 64.59375 
L 8.203125 64.59375 
z
" id="DejaVuSans-37"/>
     <path d="M 10.984375 1.515625 
L 10.984375 10.5 
Q 14.703125 8.734375 18.5 7.8125 
Q 22.3125 6.890625 25.984375 6.890625 
Q 35.75 6.890625 40.890625 13.453125 
Q 46.046875 20.015625 46.78125 33.40625 
Q 43.953125 29.203125 39.59375 26.953125 
Q 35.25 24.703125 29.984375 24.703125 
Q 19.046875 24.703125 12.671875 31.3125 
Q 6.296875 37.9375 6.296875 49.421875 
Q 6.296875 60.640625 12.9375 67.421875 
Q 19.578125 74.21875 30.609375 74.21875 
Q 43.265625 74.21875 49.921875 64.515625 
Q 56.59375 54.828125 56.59375 36.375 
Q 56.59375 19.140625 48.40625 8.859375 
Q 40.234375 -1.421875 26.421875 -1.421875 
Q 22.703125 -1.421875 18.890625 -0.6875 
Q 15.09375 0.046875 10.984375 1.515625 
M 30.609375 32.421875 
Q 37.25 32.421875 41.125 36.953125 
Q 45.015625 41.5 45.015625 49.421875 
Q 45.015625 57.28125 41.125 61.84375 
Q 37.25 66.40625 30.609375 66.40625 
Q 23.96875 66.40625 20.09375 61.84375 
Q 16.21875 57.28125 16.21875 49.421875 
Q 16.21875 41.5 20.09375 36.953125 
Q 23.96875 32.421875 30.609375 32.421875 
" id="DejaVuSans-39"/>
    </defs>
    <g style="fill:#808080;" transform="translate(127.750437 289.387113)scale(0.1 -0.1)">
     <use xlink:href="#DejaVuSans-76"/>
     <use x="59.179688" xlink:href="#DejaVuSans-32"/>
     <use x="122.802734" xlink:href="#DejaVuSans-2e"/>
     <use x="154.589844" xlink:href="#DejaVuSans-32"/>
     <use x="218.212891" xlink:href="#DejaVuSans-2e"/>
     <use x="250" xlink:href="#DejaVuSans-31"/>
     <use x="313.623047" xlink:href="#DejaVuSans-2e"/>
     <use x="345.410156" xlink:href="#DejaVuSans-31"/>
     <use x="409.033203" xlink:href="#DejaVuSans-30"/>
     <use x="472.65625" xlink:href="#DejaVuSans-2c"/>
     <use x="504.443359" xlink:href="#DejaVuSans-20"/>
     <use x="536.230469" xlink:href="#DejaVuSans-68"/>
     <use x="599.609375" xlink:href="#DejaVuSans-76"/>
     <use x="658.757812" xlink:href="#DejaVuSans-2d"/>
     <use x="694.841797" xlink:href="#DejaVuSans-68"/>
     <use x="758.220703" xlink:href="#DejaVuSans-61"/>
     <use x="819.5" xlink:href="#DejaVuSans-73"/>
     <use x="871.599609" xlink:href="#DejaVuSans-68"/>
     <use x="934.978516" xlink:href="#DejaVuSans-3d"/>
     <use x="1018.767578" xlink:href="#DejaVuSans-66"/>
     <use x="1053.972656" xlink:href="#DejaVuSans-66"/>
     <use x="1089.177734" xlink:href="#DejaVuSans-30"/>
     <use x="1152.800781" xlink:href="#DejaVuSans-65"/>
     <use x="1214.324219" xlink:href="#DejaVuSans-37"/>
     <use x="1277.947266" xlink:href="#DejaVuSans-31"/>
     <use x="1341.570312" xlink:href="#DejaVuSans-65"/>
     <use x="1403.09375" xlink:href="#DejaVuSans-38"/>
     <use x="1466.716797" xlink:href="#DejaVuSans-63"/>
     <use x="1521.697266" xlink:href="#DejaVuSans-64"/>
     <use x="1585.173828" xlink:href="#DejaVuSans-39"/>
     <use x="1648.796875" xlink:href="#DejaVuSans-37"/>
     <use x="1712.419922" xlink:href="#DejaVuSans-38"/>
     <use x="1776.042969" xlink:href="#DejaVuSans-33"/>
     <use x="1839.666016" xlink:href="#DejaVuSans-37"/>
     <use x="1903.289062" xlink:href="#DejaVuSans-33"/>
    </g>
   </g>
   <g id="text_21">
    <!-- 23 Attractive sector/Different Powers -->
    <defs>
     <path d="M 19.671875 64.796875 
L 19.671875 37.40625 
L 32.078125 37.40625 
Q 38.96875 37.40625 42.71875 40.96875 
Q 46.484375 44.53125 46.484375 51.125 
Q 46.484375 57.671875 42.71875 61.234375 
Q 38.96875 64.796875 32.078125 64.796875 
z
M 9.8125 72.90625 
L 32.078125 72.90625 
Q 44.34375 72.90625 50.609375 67.359375 
Q 56.890625 61.8125 56.890625 51.125 
Q 56.890625 40.328125 50.609375 34.8125 
Q 44.34375 29.296875 32.078125 29.296875 
L 19.671875 29.296875 
L 19.671875 0 
L 9.8125 0 
z
" id="DejaVuSans-50"/>
     <path d="M 4.203125 54.6875 
L 13.1875 54.6875 
L 24.421875 12.015625 
L 35.59375 54.6875 
L 46.1875 54.6875 
L 57.421875 12.015625 
L 68.609375 54.6875 
L 77.59375 54.6875 
L 63.28125 0 
L 52.6875 0 
L 40.921875 44.828125 
L 29.109375 0 
L 18.5 0 
z
" id="DejaVuSans-77"/>
    </defs>
    <g transform="translate(40.284812 18.84)scale(0.2 -0.2)">
     <use xlink:href="#DejaVuSans-32"/>
     <use x="63.623047" xlink:href="#DejaVuSans-33"/>
     <use x="127.246094" xlink:href="#DejaVuSans-20"/>
     <use x="159.033203" xlink:href="#DejaVuSans-41"/>
     <use x="227.425781" xlink:href="#DejaVuSans-74"/>
     <use x="266.634766" xlink:href="#DejaVuSans-74"/>
     <use x="305.84375" xlink:href="#DejaVuSans-72"/>
     <use x="346.957031" xlink:href="#DejaVuSans-61"/>
     <use x="408.236328" xlink:href="#DejaVuSans-63"/>
     <use x="463.216797" xlink:href="#DejaVuSans-74"/>
     <use x="502.425781" xlink:href="#DejaVuSans-69"/>
     <use x="530.208984" xlink:href="#DejaVuSans-76"/>
     <use x="589.388672" xlink:href="#DejaVuSans-65"/>
     <use x="650.912109" xlink:href="#DejaVuSans-20"/>
     <use x="682.699219" xlink:href="#DejaVuSans-73"/>
     <use x="734.798828" xlink:href="#DejaVuSans-65"/>
     <use x="796.322266" xlink:href="#DejaVuSans-63"/>
     <use x="851.302734" xlink:href="#DejaVuSans-74"/>
     <use x="890.511719" xlink:href="#DejaVuSans-6f"/>
     <use x="951.693359" xlink:href="#DejaVuSans-72"/>
     <use x="992.806641" xlink:href="#DejaVuSans-2f"/>
     <use x="1026.498047" xlink:href="#DejaVuSans-44"/>
     <use x="1103.5" xlink:href="#DejaVuSans-69"/>
     <use x="1131.283203" xlink:href="#DejaVuSans-66"/>
     <use x="1166.488281" xlink:href="#DejaVuSans-66"/>
     <use x="1201.693359" xlink:href="#DejaVuSans-65"/>
     <use x="1263.216797" xlink:href="#DejaVuSans-72"/>
     <use x="1304.298828" xlink:href="#DejaVuSans-65"/>
     <use x="1365.822266" xlink:href="#DejaVuSans-6e"/>
     <use x="1429.201172" xlink:href="#DejaVuSans-74"/>
     <use x="1468.410156" xlink:href="#DejaVuSans-20"/>
     <use x="1500.197266" xlink:href="#DejaVuSans-50"/>
     <use x="1560.453125" xlink:href="#DejaVuSans-6f"/>
     <use x="1621.634766" xlink:href="#DejaVuSans-77"/>
     <use x="1703.421875" xlink:href="#DejaVuSans-65"/>
     <use x="1764.945312" xlink:href="#DejaVuSans-72"/>
     <use x="1806.058594" xlink:href="#DejaVuSans-73"/>
    </g>
   </g>
  </g>
 </g>
 <defs>
  <clipPath id="pf430243342">
   <rect height="269.32" width="338.514625" x="56.84" y="24.84"/>
  </clipPath>
 </defs>
</svg>
