<?xml version="1.0" encoding="utf-8" standalone="no"?>
<!DOCTYPE svg PUBLIC "-//W3C//DTD SVG 1.1//EN"
  "http://www.w3.org/Graphics/SVG/1.1/DTD/svg11.dtd">
<!-- Created with matplotlib (http://matplotlib.org/) -->
<svg height="345pt" version="1.1" viewBox="0 0 460 345" width="460pt" xmlns="http://www.w3.org/2000/svg" xmlns:xlink="http://www.w3.org/1999/xlink">
 <defs>
  <style type="text/css">
*{stroke-linecap:butt;stroke-linejoin:round;}
  </style>
 </defs>
 <g id="figure_1">
  <g id="patch_1">
   <path d="M 0 345.6 
L 460.8 345.6 
L 460.8 0 
L 0 0 
z
" style="fill:#ffffff;"/>
  </g>
  <g id="axes_1">
   <g id="patch_2">
    <path d="M 56.84 294.16 
L 399.984 294.16 
L 399.984 24.84 
L 56.84 24.84 
z
" style="fill:#ffffff;"/>
   </g>
   <g id="line2d_1">
    <path d="M 107.926396 294.16 
L 107.926396 289.562526 
L 118.459988 289.562526 
L 118.459988 280.367579 
L 127.192288 280.367579 
L 127.192288 271.172632 
L 134.585479 271.172632 
L 134.585479 266.575159 
L 142.11818 266.575159 
L 142.11818 252.782738 
L 154.926838 252.782738 
L 154.926838 243.587791 
L 157.384469 243.587791 
L 157.384469 238.990318 
L 160.080126 238.990318 
L 160.080126 229.79537 
L 170.626707 229.79537 
L 170.626707 216.00295 
L 179.12306 216.00295 
L 179.12306 206.808003 
L 191.651942 206.808003 
L 191.651942 197.613056 
L 197.835629 197.613056 
L 197.835629 188.418109 
L 202.769673 188.418109 
L 202.769673 183.820635 
L 206.845327 183.820635 
L 206.845327 170.028214 
L 210.188485 170.028214 
L 210.188485 165.430741 
L 213.352425 165.430741 
L 213.352425 151.63832 
L 214.537959 151.63832 
L 214.537959 142.443373 
L 215.206863 142.443373 
L 215.206863 137.8459 
L 215.535943 137.8459 
L 215.535943 124.053479 
L 216.166159 124.053479 
L 216.166159 119.456005 
L 217.101998 119.456005 
L 217.101998 105.663585 
L 218.994844 105.663585 
L 218.994844 96.468638 
L 221.042918 96.468638 
L 221.042918 87.273691 
L 224.190678 87.273691 
L 224.190678 82.676217 
L 242.309938 82.676217 
L 242.309938 73.48127 
L 247.079159 73.48127 
L 247.079159 59.688849 
L 333.569032 59.688849 
" style="fill:none;stroke:#f5deb3;stroke-linecap:square;stroke-width:6;"/>
   </g>
   <g id="line2d_2">
    <defs>
     <path d="M -0 7.778175 
L 7.778175 0 
L 0 -7.778175 
L -7.778175 -0 
z
" id="m00e3e5b013" style="stroke:#f5deb3;stroke-linejoin:miter;stroke-width:1.5;"/>
    </defs>
    <g>
     <use style="fill:#f5deb3;stroke:#f5deb3;stroke-linejoin:miter;stroke-width:1.5;" x="179.12306" xlink:href="#m00e3e5b013" y="206.808003"/>
     <use style="fill:#f5deb3;stroke:#f5deb3;stroke-linejoin:miter;stroke-width:1.5;" x="218.994844" xlink:href="#m00e3e5b013" y="96.468638"/>
     <use style="fill:#f5deb3;stroke:#f5deb3;stroke-linejoin:miter;stroke-width:1.5;" x="247.079159" xlink:href="#m00e3e5b013" y="59.688849"/>
     <use style="fill:#f5deb3;stroke:#f5deb3;stroke-linejoin:miter;stroke-width:1.5;" x="247.079159" xlink:href="#m00e3e5b013" y="59.688849"/>
     <use style="fill:#f5deb3;stroke:#f5deb3;stroke-linejoin:miter;stroke-width:1.5;" x="333.569032" xlink:href="#m00e3e5b013" y="59.688849"/>
    </g>
   </g>
   <g id="line2d_3">
    <path style="fill:none;stroke:#f5deb3;stroke-linecap:square;stroke-width:6;"/>
    <g/>
   </g>
   <g id="line2d_4">
    <path d="M 333.569032 59.688849 
L 364.009226 32.839604 
" style="fill:none;stroke:#f5deb3;stroke-linecap:square;stroke-width:6;"/>
    <g>
     <use style="fill:#f5deb3;stroke:#f5deb3;stroke-linejoin:miter;stroke-width:1.5;" x="333.569032" xlink:href="#m00e3e5b013" y="59.688849"/>
     <use style="fill:#f5deb3;stroke:#f5deb3;stroke-linejoin:miter;stroke-width:1.5;" x="364.009226" xlink:href="#m00e3e5b013" y="32.839604"/>
    </g>
   </g>
   <g id="matplotlib.axis_1">
    <g id="xtick_1">
     <g id="line2d_5">
      <path clip-path="url(#p6edddbb845)" d="M 56.84 294.16 
L 56.84 24.84 
" style="fill:none;stroke:#b0b0b0;stroke-linecap:square;stroke-width:0.8;"/>
     </g>
     <g id="line2d_6">
      <defs>
       <path d="M 0 0 
L 0 3.5 
" id="m9df75128df" style="stroke:#000000;stroke-width:0.8;"/>
      </defs>
      <g>
       <use style="stroke:#000000;stroke-width:0.8;" x="56.84" xlink:href="#m9df75128df" y="294.16"/>
      </g>
     </g>
     <g id="text_1">
      <!-- 0 -->
      <defs>
       <path d="M 31.78125 66.40625 
Q 24.171875 66.40625 20.328125 58.90625 
Q 16.5 51.421875 16.5 36.375 
Q 16.5 21.390625 20.328125 13.890625 
Q 24.171875 6.390625 31.78125 6.390625 
Q 39.453125 6.390625 43.28125 13.890625 
Q 47.125 21.390625 47.125 36.375 
Q 47.125 51.421875 43.28125 58.90625 
Q 39.453125 66.40625 31.78125 66.40625 
M 31.78125 74.21875 
Q 44.046875 74.21875 50.515625 64.515625 
Q 56.984375 54.828125 56.984375 36.375 
Q 56.984375 17.96875 50.515625 8.265625 
Q 44.046875 -1.421875 31.78125 -1.421875 
Q 19.53125 -1.421875 13.0625 8.265625 
Q 6.59375 17.96875 6.59375 36.375 
Q 6.59375 54.828125 13.0625 64.515625 
Q 19.53125 74.21875 31.78125 74.21875 
" id="DejaVuSans-30"/>
      </defs>
      <g transform="translate(50.4775 316.356875)scale(0.2 -0.2)">
       <use xlink:href="#DejaVuSans-30"/>
      </g>
     </g>
    </g>
    <g id="xtick_2">
     <g id="line2d_7">
      <path clip-path="url(#p6edddbb845)" d="M 135.905438 294.16 
L 135.905438 24.84 
" style="fill:none;stroke:#b0b0b0;stroke-linecap:square;stroke-width:0.8;"/>
     </g>
     <g id="line2d_8">
      <g>
       <use style="stroke:#000000;stroke-width:0.8;" x="135.905438" xlink:href="#m9df75128df" y="294.16"/>
      </g>
     </g>
     <g id="text_2">
      <!-- 2 -->
      <defs>
       <path d="M 19.1875 8.296875 
L 53.609375 8.296875 
L 53.609375 0 
L 7.328125 0 
L 7.328125 8.296875 
Q 12.9375 14.109375 22.625 23.890625 
Q 32.328125 33.6875 34.8125 36.53125 
Q 39.546875 41.84375 41.421875 45.53125 
Q 43.3125 49.21875 43.3125 52.78125 
Q 43.3125 58.59375 39.234375 62.25 
Q 35.15625 65.921875 28.609375 65.921875 
Q 23.96875 65.921875 18.8125 64.3125 
Q 13.671875 62.703125 7.8125 59.421875 
L 7.8125 69.390625 
Q 13.765625 71.78125 18.9375 73 
Q 24.125 74.21875 28.421875 74.21875 
Q 39.75 74.21875 46.484375 68.546875 
Q 53.21875 62.890625 53.21875 53.421875 
Q 53.21875 48.921875 51.53125 44.890625 
Q 49.859375 40.875 45.40625 35.40625 
Q 44.1875 33.984375 37.640625 27.21875 
Q 31.109375 20.453125 19.1875 8.296875 
" id="DejaVuSans-32"/>
      </defs>
      <g transform="translate(129.542938 316.356875)scale(0.2 -0.2)">
       <use xlink:href="#DejaVuSans-32"/>
      </g>
     </g>
    </g>
    <g id="xtick_3">
     <g id="line2d_9">
      <path clip-path="url(#p6edddbb845)" d="M 214.970876 294.16 
L 214.970876 24.84 
" style="fill:none;stroke:#b0b0b0;stroke-linecap:square;stroke-width:0.8;"/>
     </g>
     <g id="line2d_10">
      <g>
       <use style="stroke:#000000;stroke-width:0.8;" x="214.970876" xlink:href="#m9df75128df" y="294.16"/>
      </g>
     </g>
     <g id="text_3">
      <!-- 4 -->
      <defs>
       <path d="M 37.796875 64.3125 
L 12.890625 25.390625 
L 37.796875 25.390625 
z
M 35.203125 72.90625 
L 47.609375 72.90625 
L 47.609375 25.390625 
L 58.015625 25.390625 
L 58.015625 17.1875 
L 47.609375 17.1875 
L 47.609375 0 
L 37.796875 0 
L 37.796875 17.1875 
L 4.890625 17.1875 
L 4.890625 26.703125 
z
" id="DejaVuSans-34"/>
      </defs>
      <g transform="translate(208.608376 316.356875)scale(0.2 -0.2)">
       <use xlink:href="#DejaVuSans-34"/>
      </g>
     </g>
    </g>
    <g id="xtick_4">
     <g id="line2d_11">
      <path clip-path="url(#p6edddbb845)" d="M 294.036313 294.16 
L 294.036313 24.84 
" style="fill:none;stroke:#b0b0b0;stroke-linecap:square;stroke-width:0.8;"/>
     </g>
     <g id="line2d_12">
      <g>
       <use style="stroke:#000000;stroke-width:0.8;" x="294.036313" xlink:href="#m9df75128df" y="294.16"/>
      </g>
     </g>
     <g id="text_4">
      <!-- 6 -->
      <defs>
       <path d="M 33.015625 40.375 
Q 26.375 40.375 22.484375 35.828125 
Q 18.609375 31.296875 18.609375 23.390625 
Q 18.609375 15.53125 22.484375 10.953125 
Q 26.375 6.390625 33.015625 6.390625 
Q 39.65625 6.390625 43.53125 10.953125 
Q 47.40625 15.53125 47.40625 23.390625 
Q 47.40625 31.296875 43.53125 35.828125 
Q 39.65625 40.375 33.015625 40.375 
M 52.59375 71.296875 
L 52.59375 62.3125 
Q 48.875 64.0625 45.09375 64.984375 
Q 41.3125 65.921875 37.59375 65.921875 
Q 27.828125 65.921875 22.671875 59.328125 
Q 17.53125 52.734375 16.796875 39.40625 
Q 19.671875 43.65625 24.015625 45.921875 
Q 28.375 48.1875 33.59375 48.1875 
Q 44.578125 48.1875 50.953125 41.515625 
Q 57.328125 34.859375 57.328125 23.390625 
Q 57.328125 12.15625 50.6875 5.359375 
Q 44.046875 -1.421875 33.015625 -1.421875 
Q 20.359375 -1.421875 13.671875 8.265625 
Q 6.984375 17.96875 6.984375 36.375 
Q 6.984375 53.65625 15.1875 63.9375 
Q 23.390625 74.21875 37.203125 74.21875 
Q 40.921875 74.21875 44.703125 73.484375 
Q 48.484375 72.75 52.59375 71.296875 
" id="DejaVuSans-36"/>
      </defs>
      <g transform="translate(287.673813 316.356875)scale(0.2 -0.2)">
       <use xlink:href="#DejaVuSans-36"/>
      </g>
     </g>
    </g>
    <g id="xtick_5">
     <g id="line2d_13">
      <path clip-path="url(#p6edddbb845)" d="M 373.101751 294.16 
L 373.101751 24.84 
" style="fill:none;stroke:#b0b0b0;stroke-linecap:square;stroke-width:0.8;"/>
     </g>
     <g id="line2d_14">
      <g>
       <use style="stroke:#000000;stroke-width:0.8;" x="373.101751" xlink:href="#m9df75128df" y="294.16"/>
      </g>
     </g>
     <g id="text_5">
      <!-- 8 -->
      <defs>
       <path d="M 31.78125 34.625 
Q 24.75 34.625 20.71875 30.859375 
Q 16.703125 27.09375 16.703125 20.515625 
Q 16.703125 13.921875 20.71875 10.15625 
Q 24.75 6.390625 31.78125 6.390625 
Q 38.8125 6.390625 42.859375 10.171875 
Q 46.921875 13.96875 46.921875 20.515625 
Q 46.921875 27.09375 42.890625 30.859375 
Q 38.875 34.625 31.78125 34.625 
M 21.921875 38.8125 
Q 15.578125 40.375 12.03125 44.71875 
Q 8.5 49.078125 8.5 55.328125 
Q 8.5 64.0625 14.71875 69.140625 
Q 20.953125 74.21875 31.78125 74.21875 
Q 42.671875 74.21875 48.875 69.140625 
Q 55.078125 64.0625 55.078125 55.328125 
Q 55.078125 49.078125 51.53125 44.71875 
Q 48 40.375 41.703125 38.8125 
Q 48.828125 37.15625 52.796875 32.3125 
Q 56.78125 27.484375 56.78125 20.515625 
Q 56.78125 9.90625 50.3125 4.234375 
Q 43.84375 -1.421875 31.78125 -1.421875 
Q 19.734375 -1.421875 13.25 4.234375 
Q 6.78125 9.90625 6.78125 20.515625 
Q 6.78125 27.484375 10.78125 32.3125 
Q 14.796875 37.15625 21.921875 38.8125 
M 18.3125 54.390625 
Q 18.3125 48.734375 21.84375 45.5625 
Q 25.390625 42.390625 31.78125 42.390625 
Q 38.140625 42.390625 41.71875 45.5625 
Q 45.3125 48.734375 45.3125 54.390625 
Q 45.3125 60.0625 41.71875 63.234375 
Q 38.140625 66.40625 31.78125 66.40625 
Q 25.390625 66.40625 21.84375 63.234375 
Q 18.3125 60.0625 18.3125 54.390625 
" id="DejaVuSans-38"/>
      </defs>
      <g transform="translate(366.739251 316.356875)scale(0.2 -0.2)">
       <use xlink:href="#DejaVuSans-38"/>
      </g>
     </g>
    </g>
    <g id="xtick_6">
     <g id="line2d_15">
      <defs>
       <path d="M 0 0 
L 0 2 
" id="m7ff4d01fcd" style="stroke:#000000;stroke-width:0.6;"/>
      </defs>
      <g>
       <use style="stroke:#000000;stroke-width:0.6;" x="68.740534" xlink:href="#m7ff4d01fcd" y="294.16"/>
      </g>
     </g>
    </g>
    <g id="xtick_7">
     <g id="line2d_16">
      <g>
       <use style="stroke:#000000;stroke-width:0.6;" x="80.641068" xlink:href="#m7ff4d01fcd" y="294.16"/>
      </g>
     </g>
    </g>
    <g id="xtick_8">
     <g id="line2d_17">
      <g>
       <use style="stroke:#000000;stroke-width:0.6;" x="87.602435" xlink:href="#m7ff4d01fcd" y="294.16"/>
      </g>
     </g>
    </g>
    <g id="xtick_9">
     <g id="line2d_18">
      <g>
       <use style="stroke:#000000;stroke-width:0.6;" x="92.541603" xlink:href="#m7ff4d01fcd" y="294.16"/>
      </g>
     </g>
    </g>
    <g id="xtick_10">
     <g id="line2d_19">
      <g>
       <use style="stroke:#000000;stroke-width:0.6;" x="147.805972" xlink:href="#m7ff4d01fcd" y="294.16"/>
      </g>
     </g>
    </g>
    <g id="xtick_11">
     <g id="line2d_20">
      <g>
       <use style="stroke:#000000;stroke-width:0.6;" x="159.706506" xlink:href="#m7ff4d01fcd" y="294.16"/>
      </g>
     </g>
    </g>
    <g id="xtick_12">
     <g id="line2d_21">
      <g>
       <use style="stroke:#000000;stroke-width:0.6;" x="166.667872" xlink:href="#m7ff4d01fcd" y="294.16"/>
      </g>
     </g>
    </g>
    <g id="xtick_13">
     <g id="line2d_22">
      <g>
       <use style="stroke:#000000;stroke-width:0.6;" x="171.60704" xlink:href="#m7ff4d01fcd" y="294.16"/>
      </g>
     </g>
    </g>
    <g id="xtick_14">
     <g id="line2d_23">
      <g>
       <use style="stroke:#000000;stroke-width:0.6;" x="226.87141" xlink:href="#m7ff4d01fcd" y="294.16"/>
      </g>
     </g>
    </g>
    <g id="xtick_15">
     <g id="line2d_24">
      <g>
       <use style="stroke:#000000;stroke-width:0.6;" x="238.771944" xlink:href="#m7ff4d01fcd" y="294.16"/>
      </g>
     </g>
    </g>
    <g id="xtick_16">
     <g id="line2d_25">
      <g>
       <use style="stroke:#000000;stroke-width:0.6;" x="245.73331" xlink:href="#m7ff4d01fcd" y="294.16"/>
      </g>
     </g>
    </g>
    <g id="xtick_17">
     <g id="line2d_26">
      <g>
       <use style="stroke:#000000;stroke-width:0.6;" x="250.672478" xlink:href="#m7ff4d01fcd" y="294.16"/>
      </g>
     </g>
    </g>
    <g id="xtick_18">
     <g id="line2d_27">
      <g>
       <use style="stroke:#000000;stroke-width:0.6;" x="305.936848" xlink:href="#m7ff4d01fcd" y="294.16"/>
      </g>
     </g>
    </g>
    <g id="xtick_19">
     <g id="line2d_28">
      <g>
       <use style="stroke:#000000;stroke-width:0.6;" x="317.837382" xlink:href="#m7ff4d01fcd" y="294.16"/>
      </g>
     </g>
    </g>
    <g id="xtick_20">
     <g id="line2d_29">
      <g>
       <use style="stroke:#000000;stroke-width:0.6;" x="324.798748" xlink:href="#m7ff4d01fcd" y="294.16"/>
      </g>
     </g>
    </g>
    <g id="xtick_21">
     <g id="line2d_30">
      <g>
       <use style="stroke:#000000;stroke-width:0.6;" x="329.737916" xlink:href="#m7ff4d01fcd" y="294.16"/>
      </g>
     </g>
    </g>
    <g id="xtick_22">
     <g id="line2d_31">
      <g>
       <use style="stroke:#000000;stroke-width:0.6;" x="385.002285" xlink:href="#m7ff4d01fcd" y="294.16"/>
      </g>
     </g>
    </g>
    <g id="xtick_23">
     <g id="line2d_32">
      <g>
       <use style="stroke:#000000;stroke-width:0.6;" x="396.90282" xlink:href="#m7ff4d01fcd" y="294.16"/>
      </g>
     </g>
    </g>
    <g id="text_6">
     <!-- log10(# f-evals / dimension) -->
     <defs>
      <path d="M 9.421875 75.984375 
L 18.40625 75.984375 
L 18.40625 0 
L 9.421875 0 
z
" id="DejaVuSans-6c"/>
      <path d="M 30.609375 48.390625 
Q 23.390625 48.390625 19.1875 42.75 
Q 14.984375 37.109375 14.984375 27.296875 
Q 14.984375 17.484375 19.15625 11.84375 
Q 23.34375 6.203125 30.609375 6.203125 
Q 37.796875 6.203125 41.984375 11.859375 
Q 46.1875 17.53125 46.1875 27.296875 
Q 46.1875 37.015625 41.984375 42.703125 
Q 37.796875 48.390625 30.609375 48.390625 
M 30.609375 56 
Q 42.328125 56 49.015625 48.375 
Q 55.71875 40.765625 55.71875 27.296875 
Q 55.71875 13.875 49.015625 6.21875 
Q 42.328125 -1.421875 30.609375 -1.421875 
Q 18.84375 -1.421875 12.171875 6.21875 
Q 5.515625 13.875 5.515625 27.296875 
Q 5.515625 40.765625 12.171875 48.375 
Q 18.84375 56 30.609375 56 
" id="DejaVuSans-6f"/>
      <path d="M 45.40625 27.984375 
Q 45.40625 37.75 41.375 43.109375 
Q 37.359375 48.484375 30.078125 48.484375 
Q 22.859375 48.484375 18.828125 43.109375 
Q 14.796875 37.75 14.796875 27.984375 
Q 14.796875 18.265625 18.828125 12.890625 
Q 22.859375 7.515625 30.078125 7.515625 
Q 37.359375 7.515625 41.375 12.890625 
Q 45.40625 18.265625 45.40625 27.984375 
M 54.390625 6.78125 
Q 54.390625 -7.171875 48.1875 -13.984375 
Q 42 -20.796875 29.203125 -20.796875 
Q 24.46875 -20.796875 20.265625 -20.09375 
Q 16.0625 -19.390625 12.109375 -17.921875 
L 12.109375 -9.1875 
Q 16.0625 -11.328125 19.921875 -12.34375 
Q 23.78125 -13.375 27.78125 -13.375 
Q 36.625 -13.375 41.015625 -8.765625 
Q 45.40625 -4.15625 45.40625 5.171875 
L 45.40625 9.625 
Q 42.625 4.78125 38.28125 2.390625 
Q 33.9375 0 27.875 0 
Q 17.828125 0 11.671875 7.65625 
Q 5.515625 15.328125 5.515625 27.984375 
Q 5.515625 40.671875 11.671875 48.328125 
Q 17.828125 56 27.875 56 
Q 33.9375 56 38.28125 53.609375 
Q 42.625 51.21875 45.40625 46.390625 
L 45.40625 54.6875 
L 54.390625 54.6875 
z
" id="DejaVuSans-67"/>
      <path d="M 12.40625 8.296875 
L 28.515625 8.296875 
L 28.515625 63.921875 
L 10.984375 60.40625 
L 10.984375 69.390625 
L 28.421875 72.90625 
L 38.28125 72.90625 
L 38.28125 8.296875 
L 54.390625 8.296875 
L 54.390625 0 
L 12.40625 0 
z
" id="DejaVuSans-31"/>
      <path d="M 31 75.875 
Q 24.46875 64.65625 21.28125 53.65625 
Q 18.109375 42.671875 18.109375 31.390625 
Q 18.109375 20.125 21.3125 9.0625 
Q 24.515625 -2 31 -13.1875 
L 23.1875 -13.1875 
Q 15.875 -1.703125 12.234375 9.375 
Q 8.59375 20.453125 8.59375 31.390625 
Q 8.59375 42.28125 12.203125 53.3125 
Q 15.828125 64.359375 23.1875 75.875 
z
" id="DejaVuSans-28"/>
      <path d="M 51.125 44 
L 36.921875 44 
L 32.8125 27.6875 
L 47.125 27.6875 
z
M 43.796875 71.78125 
L 38.71875 51.515625 
L 52.984375 51.515625 
L 58.109375 71.78125 
L 65.921875 71.78125 
L 60.890625 51.515625 
L 76.125 51.515625 
L 76.125 44 
L 58.984375 44 
L 54.984375 27.6875 
L 70.515625 27.6875 
L 70.515625 20.21875 
L 53.078125 20.21875 
L 48 0 
L 40.1875 0 
L 45.21875 20.21875 
L 30.90625 20.21875 
L 25.875 0 
L 18.015625 0 
L 23.09375 20.21875 
L 7.71875 20.21875 
L 7.71875 27.6875 
L 24.90625 27.6875 
L 29 44 
L 13.28125 44 
L 13.28125 51.515625 
L 30.90625 51.515625 
L 35.890625 71.78125 
z
" id="DejaVuSans-23"/>
      <path id="DejaVuSans-20"/>
      <path d="M 37.109375 75.984375 
L 37.109375 68.5 
L 28.515625 68.5 
Q 23.6875 68.5 21.796875 66.546875 
Q 19.921875 64.59375 19.921875 59.515625 
L 19.921875 54.6875 
L 34.71875 54.6875 
L 34.71875 47.703125 
L 19.921875 47.703125 
L 19.921875 0 
L 10.890625 0 
L 10.890625 47.703125 
L 2.296875 47.703125 
L 2.296875 54.6875 
L 10.890625 54.6875 
L 10.890625 58.5 
Q 10.890625 67.625 15.140625 71.796875 
Q 19.390625 75.984375 28.609375 75.984375 
z
" id="DejaVuSans-66"/>
      <path d="M 4.890625 31.390625 
L 31.203125 31.390625 
L 31.203125 23.390625 
L 4.890625 23.390625 
z
" id="DejaVuSans-2d"/>
      <path d="M 56.203125 29.59375 
L 56.203125 25.203125 
L 14.890625 25.203125 
Q 15.484375 15.921875 20.484375 11.0625 
Q 25.484375 6.203125 34.421875 6.203125 
Q 39.59375 6.203125 44.453125 7.46875 
Q 49.3125 8.734375 54.109375 11.28125 
L 54.109375 2.78125 
Q 49.265625 0.734375 44.1875 -0.34375 
Q 39.109375 -1.421875 33.890625 -1.421875 
Q 20.796875 -1.421875 13.15625 6.1875 
Q 5.515625 13.8125 5.515625 26.8125 
Q 5.515625 40.234375 12.765625 48.109375 
Q 20.015625 56 32.328125 56 
Q 43.359375 56 49.78125 48.890625 
Q 56.203125 41.796875 56.203125 29.59375 
M 47.21875 32.234375 
Q 47.125 39.59375 43.09375 43.984375 
Q 39.0625 48.390625 32.421875 48.390625 
Q 24.90625 48.390625 20.390625 44.140625 
Q 15.875 39.890625 15.1875 32.171875 
z
" id="DejaVuSans-65"/>
      <path d="M 2.984375 54.6875 
L 12.5 54.6875 
L 29.59375 8.796875 
L 46.6875 54.6875 
L 56.203125 54.6875 
L 35.6875 0 
L 23.484375 0 
z
" id="DejaVuSans-76"/>
      <path d="M 34.28125 27.484375 
Q 23.390625 27.484375 19.1875 25 
Q 14.984375 22.515625 14.984375 16.5 
Q 14.984375 11.71875 18.140625 8.90625 
Q 21.296875 6.109375 26.703125 6.109375 
Q 34.1875 6.109375 38.703125 11.40625 
Q 43.21875 16.703125 43.21875 25.484375 
L 43.21875 27.484375 
z
M 52.203125 31.203125 
L 52.203125 0 
L 43.21875 0 
L 43.21875 8.296875 
Q 40.140625 3.328125 35.546875 0.953125 
Q 30.953125 -1.421875 24.3125 -1.421875 
Q 15.921875 -1.421875 10.953125 3.296875 
Q 6 8.015625 6 15.921875 
Q 6 25.140625 12.171875 29.828125 
Q 18.359375 34.515625 30.609375 34.515625 
L 43.21875 34.515625 
L 43.21875 35.40625 
Q 43.21875 41.609375 39.140625 45 
Q 35.0625 48.390625 27.6875 48.390625 
Q 23 48.390625 18.546875 47.265625 
Q 14.109375 46.140625 10.015625 43.890625 
L 10.015625 52.203125 
Q 14.9375 54.109375 19.578125 55.046875 
Q 24.21875 56 28.609375 56 
Q 40.484375 56 46.34375 49.84375 
Q 52.203125 43.703125 52.203125 31.203125 
" id="DejaVuSans-61"/>
      <path d="M 44.28125 53.078125 
L 44.28125 44.578125 
Q 40.484375 46.53125 36.375 47.5 
Q 32.28125 48.484375 27.875 48.484375 
Q 21.1875 48.484375 17.84375 46.4375 
Q 14.5 44.390625 14.5 40.28125 
Q 14.5 37.15625 16.890625 35.375 
Q 19.28125 33.59375 26.515625 31.984375 
L 29.59375 31.296875 
Q 39.15625 29.25 43.1875 25.515625 
Q 47.21875 21.78125 47.21875 15.09375 
Q 47.21875 7.46875 41.1875 3.015625 
Q 35.15625 -1.421875 24.609375 -1.421875 
Q 20.21875 -1.421875 15.453125 -0.5625 
Q 10.6875 0.296875 5.421875 2 
L 5.421875 11.28125 
Q 10.40625 8.6875 15.234375 7.390625 
Q 20.0625 6.109375 24.8125 6.109375 
Q 31.15625 6.109375 34.5625 8.28125 
Q 37.984375 10.453125 37.984375 14.40625 
Q 37.984375 18.0625 35.515625 20.015625 
Q 33.0625 21.96875 24.703125 23.78125 
L 21.578125 24.515625 
Q 13.234375 26.265625 9.515625 29.90625 
Q 5.8125 33.546875 5.8125 39.890625 
Q 5.8125 47.609375 11.28125 51.796875 
Q 16.75 56 26.8125 56 
Q 31.78125 56 36.171875 55.265625 
Q 40.578125 54.546875 44.28125 53.078125 
" id="DejaVuSans-73"/>
      <path d="M 25.390625 72.90625 
L 33.6875 72.90625 
L 8.296875 -9.28125 
L 0 -9.28125 
z
" id="DejaVuSans-2f"/>
      <path d="M 45.40625 46.390625 
L 45.40625 75.984375 
L 54.390625 75.984375 
L 54.390625 0 
L 45.40625 0 
L 45.40625 8.203125 
Q 42.578125 3.328125 38.25 0.953125 
Q 33.9375 -1.421875 27.875 -1.421875 
Q 17.96875 -1.421875 11.734375 6.484375 
Q 5.515625 14.40625 5.515625 27.296875 
Q 5.515625 40.1875 11.734375 48.09375 
Q 17.96875 56 27.875 56 
Q 33.9375 56 38.25 53.625 
Q 42.578125 51.265625 45.40625 46.390625 
M 14.796875 27.296875 
Q 14.796875 17.390625 18.875 11.75 
Q 22.953125 6.109375 30.078125 6.109375 
Q 37.203125 6.109375 41.296875 11.75 
Q 45.40625 17.390625 45.40625 27.296875 
Q 45.40625 37.203125 41.296875 42.84375 
Q 37.203125 48.484375 30.078125 48.484375 
Q 22.953125 48.484375 18.875 42.84375 
Q 14.796875 37.203125 14.796875 27.296875 
" id="DejaVuSans-64"/>
      <path d="M 9.421875 54.6875 
L 18.40625 54.6875 
L 18.40625 0 
L 9.421875 0 
z
M 9.421875 75.984375 
L 18.40625 75.984375 
L 18.40625 64.59375 
L 9.421875 64.59375 
z
" id="DejaVuSans-69"/>
      <path d="M 52 44.1875 
Q 55.375 50.25 60.0625 53.125 
Q 64.75 56 71.09375 56 
Q 79.640625 56 84.28125 50.015625 
Q 88.921875 44.046875 88.921875 33.015625 
L 88.921875 0 
L 79.890625 0 
L 79.890625 32.71875 
Q 79.890625 40.578125 77.09375 44.375 
Q 74.3125 48.1875 68.609375 48.1875 
Q 61.625 48.1875 57.5625 43.546875 
Q 53.515625 38.921875 53.515625 30.90625 
L 53.515625 0 
L 44.484375 0 
L 44.484375 32.71875 
Q 44.484375 40.625 41.703125 44.40625 
Q 38.921875 48.1875 33.109375 48.1875 
Q 26.21875 48.1875 22.15625 43.53125 
Q 18.109375 38.875 18.109375 30.90625 
L 18.109375 0 
L 9.078125 0 
L 9.078125 54.6875 
L 18.109375 54.6875 
L 18.109375 46.1875 
Q 21.1875 51.21875 25.484375 53.609375 
Q 29.78125 56 35.6875 56 
Q 41.65625 56 45.828125 52.96875 
Q 50 49.953125 52 44.1875 
" id="DejaVuSans-6d"/>
      <path d="M 54.890625 33.015625 
L 54.890625 0 
L 45.90625 0 
L 45.90625 32.71875 
Q 45.90625 40.484375 42.875 44.328125 
Q 39.84375 48.1875 33.796875 48.1875 
Q 26.515625 48.1875 22.3125 43.546875 
Q 18.109375 38.921875 18.109375 30.90625 
L 18.109375 0 
L 9.078125 0 
L 9.078125 54.6875 
L 18.109375 54.6875 
L 18.109375 46.1875 
Q 21.34375 51.125 25.703125 53.5625 
Q 30.078125 56 35.796875 56 
Q 45.21875 56 50.046875 50.171875 
Q 54.890625 44.34375 54.890625 33.015625 
" id="DejaVuSans-6e"/>
      <path d="M 8.015625 75.875 
L 15.828125 75.875 
Q 23.140625 64.359375 26.78125 53.3125 
Q 30.421875 42.28125 30.421875 31.390625 
Q 30.421875 20.453125 26.78125 9.375 
Q 23.140625 -1.703125 15.828125 -13.1875 
L 8.015625 -13.1875 
Q 14.5 -2 17.703125 9.0625 
Q 20.90625 20.125 20.90625 31.390625 
Q 20.90625 42.671875 17.703125 53.65625 
Q 14.5 64.65625 8.015625 75.875 
" id="DejaVuSans-29"/>
     </defs>
     <g transform="translate(107.571219 337.433594)scale(0.17 -0.17)">
      <use xlink:href="#DejaVuSans-6c"/>
      <use x="27.783203" xlink:href="#DejaVuSans-6f"/>
      <use x="88.964844" xlink:href="#DejaVuSans-67"/>
      <use x="152.441406" xlink:href="#DejaVuSans-31"/>
      <use x="216.064453" xlink:href="#DejaVuSans-30"/>
      <use x="279.6875" xlink:href="#DejaVuSans-28"/>
      <use x="318.701172" xlink:href="#DejaVuSans-23"/>
      <use x="402.490234" xlink:href="#DejaVuSans-20"/>
      <use x="434.277344" xlink:href="#DejaVuSans-66"/>
      <use x="469.404297" xlink:href="#DejaVuSans-2d"/>
      <use x="505.488281" xlink:href="#DejaVuSans-65"/>
      <use x="567.011719" xlink:href="#DejaVuSans-76"/>
      <use x="626.191406" xlink:href="#DejaVuSans-61"/>
      <use x="687.470703" xlink:href="#DejaVuSans-6c"/>
      <use x="715.253906" xlink:href="#DejaVuSans-73"/>
      <use x="767.353516" xlink:href="#DejaVuSans-20"/>
      <use x="799.140625" xlink:href="#DejaVuSans-2f"/>
      <use x="832.832031" xlink:href="#DejaVuSans-20"/>
      <use x="864.619141" xlink:href="#DejaVuSans-64"/>
      <use x="928.095703" xlink:href="#DejaVuSans-69"/>
      <use x="955.878906" xlink:href="#DejaVuSans-6d"/>
      <use x="1053.291016" xlink:href="#DejaVuSans-65"/>
      <use x="1114.814453" xlink:href="#DejaVuSans-6e"/>
      <use x="1178.193359" xlink:href="#DejaVuSans-73"/>
      <use x="1230.292969" xlink:href="#DejaVuSans-69"/>
      <use x="1258.076172" xlink:href="#DejaVuSans-6f"/>
      <use x="1319.257812" xlink:href="#DejaVuSans-6e"/>
      <use x="1382.636719" xlink:href="#DejaVuSans-29"/>
     </g>
    </g>
   </g>
   <g id="matplotlib.axis_2">
    <g id="ytick_1">
     <g id="line2d_33">
      <path clip-path="url(#p6edddbb845)" d="M 56.84 294.16 
L 399.984 294.16 
" style="fill:none;stroke:#b0b0b0;stroke-linecap:square;stroke-width:0.8;"/>
     </g>
     <g id="line2d_34">
      <defs>
       <path d="M 0 0 
L -3.5 0 
" id="mca07457973" style="stroke:#000000;stroke-width:0.8;"/>
      </defs>
      <g>
       <use style="stroke:#000000;stroke-width:0.8;" x="56.84" xlink:href="#mca07457973" y="294.16"/>
      </g>
     </g>
     <g id="text_7">
      <!-- 0.0 -->
      <defs>
       <path d="M 10.6875 12.40625 
L 21 12.40625 
L 21 0 
L 10.6875 0 
z
" id="DejaVuSans-2e"/>
      </defs>
      <g transform="translate(24.395 300.23875)scale(0.16 -0.16)">
       <use xlink:href="#DejaVuSans-30"/>
       <use x="63.623047" xlink:href="#DejaVuSans-2e"/>
       <use x="95.410156" xlink:href="#DejaVuSans-30"/>
      </g>
     </g>
    </g>
    <g id="ytick_2">
     <g id="line2d_35">
      <path clip-path="url(#p6edddbb845)" d="M 56.84 240.829307 
L 399.984 240.829307 
" style="fill:none;stroke:#b0b0b0;stroke-linecap:square;stroke-width:0.8;"/>
     </g>
     <g id="line2d_36">
      <g>
       <use style="stroke:#000000;stroke-width:0.8;" x="56.84" xlink:href="#mca07457973" y="240.829307"/>
      </g>
     </g>
     <g id="text_8">
      <!-- 0.2 -->
      <g transform="translate(24.395 246.908057)scale(0.16 -0.16)">
       <use xlink:href="#DejaVuSans-30"/>
       <use x="63.623047" xlink:href="#DejaVuSans-2e"/>
       <use x="95.410156" xlink:href="#DejaVuSans-32"/>
      </g>
     </g>
    </g>
    <g id="ytick_3">
     <g id="line2d_37">
      <path clip-path="url(#p6edddbb845)" d="M 56.84 187.498614 
L 399.984 187.498614 
" style="fill:none;stroke:#b0b0b0;stroke-linecap:square;stroke-width:0.8;"/>
     </g>
     <g id="line2d_38">
      <g>
       <use style="stroke:#000000;stroke-width:0.8;" x="56.84" xlink:href="#mca07457973" y="187.498614"/>
      </g>
     </g>
     <g id="text_9">
      <!-- 0.4 -->
      <g transform="translate(24.395 193.577364)scale(0.16 -0.16)">
       <use xlink:href="#DejaVuSans-30"/>
       <use x="63.623047" xlink:href="#DejaVuSans-2e"/>
       <use x="95.410156" xlink:href="#DejaVuSans-34"/>
      </g>
     </g>
    </g>
    <g id="ytick_4">
     <g id="line2d_39">
      <path clip-path="url(#p6edddbb845)" d="M 56.84 134.167921 
L 399.984 134.167921 
" style="fill:none;stroke:#b0b0b0;stroke-linecap:square;stroke-width:0.8;"/>
     </g>
     <g id="line2d_40">
      <g>
       <use style="stroke:#000000;stroke-width:0.8;" x="56.84" xlink:href="#mca07457973" y="134.167921"/>
      </g>
     </g>
     <g id="text_10">
      <!-- 0.6 -->
      <g transform="translate(24.395 140.246671)scale(0.16 -0.16)">
       <use xlink:href="#DejaVuSans-30"/>
       <use x="63.623047" xlink:href="#DejaVuSans-2e"/>
       <use x="95.410156" xlink:href="#DejaVuSans-36"/>
      </g>
     </g>
    </g>
    <g id="ytick_5">
     <g id="line2d_41">
      <path clip-path="url(#p6edddbb845)" d="M 56.84 80.837228 
L 399.984 80.837228 
" style="fill:none;stroke:#b0b0b0;stroke-linecap:square;stroke-width:0.8;"/>
     </g>
     <g id="line2d_42">
      <g>
       <use style="stroke:#000000;stroke-width:0.8;" x="56.84" xlink:href="#mca07457973" y="80.837228"/>
      </g>
     </g>
     <g id="text_11">
      <!-- 0.8 -->
      <g transform="translate(24.395 86.915978)scale(0.16 -0.16)">
       <use xlink:href="#DejaVuSans-30"/>
       <use x="63.623047" xlink:href="#DejaVuSans-2e"/>
       <use x="95.410156" xlink:href="#DejaVuSans-38"/>
      </g>
     </g>
    </g>
    <g id="ytick_6">
     <g id="line2d_43">
      <path clip-path="url(#p6edddbb845)" d="M 56.84 27.506535 
L 399.984 27.506535 
" style="fill:none;stroke:#b0b0b0;stroke-linecap:square;stroke-width:0.8;"/>
     </g>
     <g id="line2d_44">
      <g>
       <use style="stroke:#000000;stroke-width:0.8;" x="56.84" xlink:href="#mca07457973" y="27.506535"/>
      </g>
     </g>
     <g id="text_12">
      <!-- 1.0 -->
      <g transform="translate(24.395 33.585285)scale(0.16 -0.16)">
       <use xlink:href="#DejaVuSans-31"/>
       <use x="63.623047" xlink:href="#DejaVuSans-2e"/>
       <use x="95.410156" xlink:href="#DejaVuSans-30"/>
      </g>
     </g>
    </g>
    <g id="text_13">
     <!-- Fraction of function,target pairs -->
     <defs>
      <path d="M 9.8125 72.90625 
L 51.703125 72.90625 
L 51.703125 64.59375 
L 19.671875 64.59375 
L 19.671875 43.109375 
L 48.578125 43.109375 
L 48.578125 34.8125 
L 19.671875 34.8125 
L 19.671875 0 
L 9.8125 0 
z
" id="DejaVuSans-46"/>
      <path d="M 41.109375 46.296875 
Q 39.59375 47.171875 37.8125 47.578125 
Q 36.03125 48 33.890625 48 
Q 26.265625 48 22.1875 43.046875 
Q 18.109375 38.09375 18.109375 28.8125 
L 18.109375 0 
L 9.078125 0 
L 9.078125 54.6875 
L 18.109375 54.6875 
L 18.109375 46.1875 
Q 20.953125 51.171875 25.484375 53.578125 
Q 30.03125 56 36.53125 56 
Q 37.453125 56 38.578125 55.875 
Q 39.703125 55.765625 41.0625 55.515625 
z
" id="DejaVuSans-72"/>
      <path d="M 48.78125 52.59375 
L 48.78125 44.1875 
Q 44.96875 46.296875 41.140625 47.34375 
Q 37.3125 48.390625 33.40625 48.390625 
Q 24.65625 48.390625 19.8125 42.84375 
Q 14.984375 37.3125 14.984375 27.296875 
Q 14.984375 17.28125 19.8125 11.734375 
Q 24.65625 6.203125 33.40625 6.203125 
Q 37.3125 6.203125 41.140625 7.25 
Q 44.96875 8.296875 48.78125 10.40625 
L 48.78125 2.09375 
Q 45.015625 0.34375 40.984375 -0.53125 
Q 36.96875 -1.421875 32.421875 -1.421875 
Q 20.0625 -1.421875 12.78125 6.34375 
Q 5.515625 14.109375 5.515625 27.296875 
Q 5.515625 40.671875 12.859375 48.328125 
Q 20.21875 56 33.015625 56 
Q 37.15625 56 41.109375 55.140625 
Q 45.0625 54.296875 48.78125 52.59375 
" id="DejaVuSans-63"/>
      <path d="M 18.3125 70.21875 
L 18.3125 54.6875 
L 36.8125 54.6875 
L 36.8125 47.703125 
L 18.3125 47.703125 
L 18.3125 18.015625 
Q 18.3125 11.328125 20.140625 9.421875 
Q 21.96875 7.515625 27.59375 7.515625 
L 36.8125 7.515625 
L 36.8125 0 
L 27.59375 0 
Q 17.1875 0 13.234375 3.875 
Q 9.28125 7.765625 9.28125 18.015625 
L 9.28125 47.703125 
L 2.6875 47.703125 
L 2.6875 54.6875 
L 9.28125 54.6875 
L 9.28125 70.21875 
z
" id="DejaVuSans-74"/>
      <path d="M 8.5 21.578125 
L 8.5 54.6875 
L 17.484375 54.6875 
L 17.484375 21.921875 
Q 17.484375 14.15625 20.5 10.265625 
Q 23.53125 6.390625 29.59375 6.390625 
Q 36.859375 6.390625 41.078125 11.03125 
Q 45.3125 15.671875 45.3125 23.6875 
L 45.3125 54.6875 
L 54.296875 54.6875 
L 54.296875 0 
L 45.3125 0 
L 45.3125 8.40625 
Q 42.046875 3.421875 37.71875 1 
Q 33.40625 -1.421875 27.6875 -1.421875 
Q 18.265625 -1.421875 13.375 4.4375 
Q 8.5 10.296875 8.5 21.578125 
M 31.109375 56 
z
" id="DejaVuSans-75"/>
      <path d="M 11.71875 12.40625 
L 22.015625 12.40625 
L 22.015625 4 
L 14.015625 -11.625 
L 7.71875 -11.625 
L 11.71875 4 
z
" id="DejaVuSans-2c"/>
      <path d="M 18.109375 8.203125 
L 18.109375 -20.796875 
L 9.078125 -20.796875 
L 9.078125 54.6875 
L 18.109375 54.6875 
L 18.109375 46.390625 
Q 20.953125 51.265625 25.265625 53.625 
Q 29.59375 56 35.59375 56 
Q 45.5625 56 51.78125 48.09375 
Q 58.015625 40.1875 58.015625 27.296875 
Q 58.015625 14.40625 51.78125 6.484375 
Q 45.5625 -1.421875 35.59375 -1.421875 
Q 29.59375 -1.421875 25.265625 0.953125 
Q 20.953125 3.328125 18.109375 8.203125 
M 48.6875 27.296875 
Q 48.6875 37.203125 44.609375 42.84375 
Q 40.53125 48.484375 33.40625 48.484375 
Q 26.265625 48.484375 22.1875 42.84375 
Q 18.109375 37.203125 18.109375 27.296875 
Q 18.109375 17.390625 22.1875 11.75 
Q 26.265625 6.109375 33.40625 6.109375 
Q 40.53125 6.109375 44.609375 11.75 
Q 48.6875 17.390625 48.6875 27.296875 
" id="DejaVuSans-70"/>
     </defs>
     <g transform="translate(16.859531 294.639375)rotate(-90)scale(0.17 -0.17)">
      <use xlink:href="#DejaVuSans-46"/>
      <use x="57.410156" xlink:href="#DejaVuSans-72"/>
      <use x="98.523438" xlink:href="#DejaVuSans-61"/>
      <use x="159.802734" xlink:href="#DejaVuSans-63"/>
      <use x="214.783203" xlink:href="#DejaVuSans-74"/>
      <use x="253.992188" xlink:href="#DejaVuSans-69"/>
      <use x="281.775391" xlink:href="#DejaVuSans-6f"/>
      <use x="342.957031" xlink:href="#DejaVuSans-6e"/>
      <use x="406.335938" xlink:href="#DejaVuSans-20"/>
      <use x="438.123047" xlink:href="#DejaVuSans-6f"/>
      <use x="499.304688" xlink:href="#DejaVuSans-66"/>
      <use x="534.509766" xlink:href="#DejaVuSans-20"/>
      <use x="566.296875" xlink:href="#DejaVuSans-66"/>
      <use x="601.501953" xlink:href="#DejaVuSans-75"/>
      <use x="664.880859" xlink:href="#DejaVuSans-6e"/>
      <use x="728.259766" xlink:href="#DejaVuSans-63"/>
      <use x="783.240234" xlink:href="#DejaVuSans-74"/>
      <use x="822.449219" xlink:href="#DejaVuSans-69"/>
      <use x="850.232422" xlink:href="#DejaVuSans-6f"/>
      <use x="911.414062" xlink:href="#DejaVuSans-6e"/>
      <use x="974.792969" xlink:href="#DejaVuSans-2c"/>
      <use x="1006.580078" xlink:href="#DejaVuSans-74"/>
      <use x="1045.789062" xlink:href="#DejaVuSans-61"/>
      <use x="1107.068359" xlink:href="#DejaVuSans-72"/>
      <use x="1148.166016" xlink:href="#DejaVuSans-67"/>
      <use x="1211.642578" xlink:href="#DejaVuSans-65"/>
      <use x="1273.166016" xlink:href="#DejaVuSans-74"/>
      <use x="1312.375" xlink:href="#DejaVuSans-20"/>
      <use x="1344.162109" xlink:href="#DejaVuSans-70"/>
      <use x="1407.638672" xlink:href="#DejaVuSans-61"/>
      <use x="1468.917969" xlink:href="#DejaVuSans-69"/>
      <use x="1496.701172" xlink:href="#DejaVuSans-72"/>
      <use x="1537.814453" xlink:href="#DejaVuSans-73"/>
     </g>
    </g>
   </g>
   <g id="line2d_45">
    <defs>
     <path d="M 0 1.5 
C 0.397805 1.5 0.77937 1.341951 1.06066 1.06066 
C 1.341951 0.77937 1.5 0.397805 1.5 0 
C 1.5 -0.397805 1.341951 -0.77937 1.06066 -1.06066 
C 0.77937 -1.341951 0.397805 -1.5 0 -1.5 
C -0.397805 -1.5 -0.77937 -1.341951 -1.06066 -1.06066 
C -1.341951 -0.77937 -1.5 -0.397805 -1.5 0 
C -1.5 0.397805 -1.341951 0.77937 -1.06066 1.06066 
C -0.77937 1.341951 -0.397805 1.5 0 1.5 
z
" id="m159b23777d" style="stroke:#f5deb3;"/>
    </defs>
    <g>
     <use style="fill:#f5deb3;stroke:#f5deb3;" x="247.079159" xlink:href="#m159b23777d" y="59.688849"/>
     <use style="fill:#f5deb3;stroke:#f5deb3;" x="247.079159" xlink:href="#m159b23777d" y="59.688849"/>
    </g>
   </g>
   <g id="line2d_46">
    <defs>
     <path d="M 0 1.5 
C 0.397805 1.5 0.77937 1.341951 1.06066 1.06066 
C 1.341951 0.77937 1.5 0.397805 1.5 0 
C 1.5 -0.397805 1.341951 -0.77937 1.06066 -1.06066 
C 0.77937 -1.341951 0.397805 -1.5 0 -1.5 
C -0.397805 -1.5 -0.77937 -1.341951 -1.06066 -1.06066 
C -1.341951 -0.77937 -1.5 -0.397805 -1.5 0 
C -1.5 0.397805 -1.341951 0.77937 -1.06066 1.06066 
C -0.77937 1.341951 -0.397805 1.5 0 1.5 
z
" id="m1139580853" style="stroke:#000080;"/>
    </defs>
    <g>
     <use style="fill:#000080;stroke:#000080;" x="310.323339" xlink:href="#m1139580853" y="105.663585"/>
     <use style="fill:#000080;stroke:#000080;" x="310.323339" xlink:href="#m1139580853" y="105.663585"/>
    </g>
   </g>
   <g id="line2d_47">
    <path d="M 29.207815 294.16 
L 29.207815 287.723537 
L 130.874458 287.723537 
L 130.874458 287.26379 
L 135.871066 287.26379 
L 135.871066 286.804042 
L 137.067058 286.804042 
L 137.067058 284.965053 
L 137.258534 284.965053 
L 137.258534 283.126064 
L 139.149767 283.126064 
L 139.149767 281.746821 
L 139.291308 281.746821 
L 139.291308 281.287074 
L 139.900589 281.287074 
L 139.900589 279.907832 
L 140.090003 279.907832 
L 140.090003 279.448085 
L 141.633152 279.448085 
L 141.633152 278.068843 
L 141.780105 278.068843 
L 141.780105 277.609095 
L 142.189767 277.609095 
L 142.284754 274.850611 
L 142.613129 274.850611 
L 142.613129 273.931116 
L 142.797991 273.931116 
L 142.843897 273.011622 
L 143.540178 273.011622 
L 143.627999 270.253138 
L 144.377849 270.253138 
L 144.377849 269.333643 
L 145.01571 269.333643 
L 145.01571 268.873896 
L 145.316047 268.873896 
L 145.316047 268.414148 
L 145.513393 268.414148 
L 145.513393 267.954401 
L 145.84376 267.954401 
L 145.84376 267.034906 
L 146.073191 267.034906 
L 146.073191 266.575159 
L 146.448892 266.575159 
L 146.448892 266.115411 
L 146.780134 266.115411 
L 146.780134 265.655664 
L 147.212077 265.655664 
L 147.229841 264.736169 
L 147.459115 264.736169 
L 147.546488 263.356927 
L 147.840275 263.356927 
L 147.840275 262.89718 
L 148.346768 262.89718 
L 148.380008 261.058191 
L 148.545254 261.058191 
L 148.594519 257.380212 
L 148.806382 257.380212 
L 148.806382 256.00097 
L 149.174929 256.00097 
L 149.174929 255.081475 
L 149.504656 255.081475 
L 149.597713 252.782738 
L 149.690267 252.782738 
L 149.690267 252.322991 
L 150.472171 252.322991 
L 150.472171 251.863243 
L 150.589365 251.863243 
L 150.691257 250.484001 
L 150.97909 250.484001 
L 151.036083 245.886528 
L 151.205932 245.886528 
L 151.304241 244.507286 
L 151.609596 244.507286 
L 151.609596 244.047538 
L 153.385465 244.047538 
L 153.385465 243.128044 
L 153.631794 243.128044 
L 153.705009 240.829307 
L 153.765784 240.829307 
L 153.765784 240.36956 
L 155.252589 240.36956 
L 155.330302 238.990318 
L 156.246909 238.990318 
L 156.246909 237.611075 
L 156.507443 237.611075 
L 156.507443 236.231833 
L 157.501997 236.231833 
L 157.501997 234.392844 
L 157.792346 234.392844 
L 157.792346 233.933097 
L 158.265607 233.933097 
L 158.284269 231.63436 
L 160.844041 231.63436 
L 160.844041 230.255118 
L 161.138759 230.255118 
L 161.138759 228.875876 
L 162.239899 228.875876 
L 162.239899 228.416128 
L 163.23276 228.416128 
L 163.23276 227.496634 
L 163.530754 227.496634 
L 163.530754 227.036886 
L 165.538442 227.036886 
L 165.538442 226.577139 
L 167.175363 226.577139 
L 167.175363 225.657644 
L 168.293829 225.657644 
L 168.293829 225.197897 
L 173.145577 225.197897 
L 173.145577 224.278402 
L 174.53219 224.278402 
L 174.53219 222.89916 
L 177.037022 222.89916 
L 177.037022 221.979665 
L 178.355341 221.979665 
L 178.355341 220.140676 
L 185.689272 220.140676 
L 185.689272 219.221181 
L 189.029598 219.221181 
L 189.029598 218.761434 
L 190.733017 218.761434 
L 190.733017 216.922445 
L 195.182363 216.922445 
L 195.182363 214.623708 
L 196.664737 214.623708 
L 196.664737 213.244466 
L 197.030812 213.244466 
L 197.030812 212.324971 
L 197.245225 212.324971 
L 197.245225 210.945729 
L 198.46308 210.945729 
L 198.46308 210.026234 
L 198.798383 210.026234 
L 198.798383 209.566487 
L 199.161791 209.566487 
L 199.161791 208.187245 
L 199.442328 208.187245 
L 199.442328 207.26775 
L 199.583421 207.26775 
L 199.63467 204.509266 
L 199.764209 204.509266 
L 199.764209 203.589771 
L 199.959584 203.589771 
L 199.959584 202.670277 
L 200.156831 202.670277 
L 200.156831 202.210529 
L 200.269573 202.210529 
L 200.269573 201.291034 
L 200.484879 201.291034 
L 200.532715 198.992298 
L 200.631945 198.992298 
L 200.631945 198.53255 
L 201.031739 198.53255 
L 201.031739 198.072803 
L 202.530392 198.072803 
L 202.530392 197.153308 
L 202.64341 197.153308 
L 202.738194 196.233814 
L 203.27582 196.233814 
L 203.27582 195.314319 
L 204.267226 195.314319 
L 204.267226 194.394824 
L 204.634759 194.394824 
L 204.634759 193.935077 
L 210.78414 193.935077 
L 210.78414 193.475329 
L 211.271453 193.475329 
L 211.271453 193.015582 
L 211.851885 193.015582 
L 211.906154 190.257098 
L 214.570326 190.257098 
L 214.570326 189.337603 
L 215.077676 189.337603 
L 215.077676 188.877856 
L 215.533617 188.877856 
L 215.533617 188.418109 
L 216.102947 188.418109 
L 216.102947 187.958361 
L 216.259747 187.958361 
L 216.293479 186.579119 
L 220.229316 186.579119 
L 220.229316 186.119372 
L 220.607338 186.119372 
L 220.607338 185.659624 
L 220.90373 185.659624 
L 220.90373 184.74013 
L 221.931784 184.74013 
L 221.931784 183.360888 
L 225.312285 183.360888 
L 225.312285 182.441393 
L 225.552564 182.441393 
L 225.604212 181.062151 
L 226.046877 181.062151 
L 226.046877 180.602404 
L 228.467772 180.602404 
L 228.467772 180.142656 
L 228.898491 180.142656 
L 228.940244 178.303667 
L 229.299303 178.303667 
L 229.353174 177.384172 
L 229.61768 177.384172 
L 229.61768 176.00493 
L 229.768737 176.00493 
L 229.768737 175.545183 
L 233.612524 175.545183 
L 233.612524 175.085435 
L 234.116227 175.085435 
L 234.116227 174.165941 
L 236.46906 174.165941 
L 236.568997 168.189225 
L 236.78045 168.189225 
L 236.876104 166.350236 
L 237.333285 166.350236 
L 237.333285 165.430741 
L 238.48324 165.430741 
L 238.48324 164.511246 
L 238.888382 164.511246 
L 238.936574 162.212509 
L 239.312407 162.212509 
L 239.312407 161.752762 
L 242.111164 161.752762 
L 242.111164 160.833267 
L 246.461076 160.833267 
L 246.461076 159.454025 
L 247.367751 159.454025 
L 247.436763 158.534531 
L 248.004988 158.534531 
L 248.004988 158.074783 
L 249.433583 158.074783 
L 249.529596 155.776046 
L 249.577653 155.776046 
L 249.597679 153.47731 
L 249.720024 153.47731 
L 249.806238 152.098068 
L 250.34335 152.098068 
L 250.34335 151.63832 
L 250.603622 151.63832 
L 250.603622 151.178573 
L 250.742897 151.178573 
L 250.849262 144.282363 
L 250.864634 144.282363 
L 250.933299 141.523878 
L 251.007668 141.523878 
L 251.007668 140.604384 
L 252.992532 140.604384 
L 252.992532 140.144636 
L 253.867062 140.144636 
L 253.867062 139.684889 
L 256.249738 139.684889 
L 256.249925 138.765394 
L 256.51697 138.765394 
L 256.51697 138.305647 
L 256.739638 138.305647 
L 256.739638 137.8459 
L 257.387283 137.8459 
L 257.387283 137.386152 
L 259.077071 137.386152 
L 259.077071 136.926405 
L 259.656424 136.926405 
L 259.682373 135.087416 
L 261.305468 135.087416 
L 261.305468 134.627668 
L 262.656678 134.627668 
L 262.656678 134.167921 
L 263.065015 134.167921 
L 263.065015 133.708173 
L 263.206907 133.708173 
L 263.206907 133.248426 
L 263.462948 133.248426 
L 263.462948 132.788679 
L 264.452115 132.788679 
L 264.452115 132.328931 
L 264.649169 132.328931 
L 264.747375 126.811963 
L 265.667457 126.811963 
L 265.667457 126.352216 
L 266.769061 126.352216 
L 266.769061 125.892468 
L 267.236124 125.892468 
L 267.26252 124.972974 
L 267.56055 124.972974 
L 267.56055 124.513226 
L 268.195637 124.513226 
L 268.195684 123.593732 
L 269.221708 123.593732 
L 269.236127 122.674237 
L 269.490126 122.674237 
L 269.490212 121.754742 
L 272.090593 121.754742 
L 272.090593 121.294995 
L 272.222979 121.294995 
L 272.280283 118.536511 
L 272.879392 118.536511 
L 272.879392 118.076763 
L 275.305698 118.076763 
L 275.305698 117.617016 
L 276.005362 117.617016 
L 276.005362 117.157269 
L 277.455984 117.157269 
L 277.498449 115.778027 
L 277.94247 115.778027 
L 277.94247 115.318279 
L 279.78095 115.318279 
L 279.78095 114.858532 
L 279.994698 114.858532 
L 279.994698 114.398785 
L 281.482148 114.398785 
L 281.494721 113.019543 
L 283.501591 113.019543 
L 283.501591 112.559795 
L 284.734192 112.559795 
L 284.734192 112.100048 
L 287.458449 112.100048 
L 287.458479 110.720806 
L 289.801202 110.720806 
L 289.801202 110.261058 
L 291.876177 110.261058 
L 291.876177 109.801311 
L 292.161512 109.801311 
L 292.161512 109.341564 
L 293.714721 109.341564 
L 293.720969 107.962322 
L 294.644593 107.962322 
L 294.644593 107.502574 
L 303.955317 107.502574 
L 303.955317 107.042827 
L 305.781999 107.042827 
L 305.781999 106.58308 
L 306.627314 106.58308 
L 306.627314 106.123332 
L 310.323339 106.123332 
L 310.323339 105.663585 
L 333.569032 105.663585 
L 333.569032 105.663585 
" style="fill:none;stroke:#000080;stroke-linecap:square;stroke-width:1.5;"/>
   </g>
   <g id="line2d_48">
    <defs>
     <path d="M 0 6 
C 1.591219 6 3.117479 5.367802 4.242641 4.242641 
C 5.367802 3.117479 6 1.591219 6 0 
C 6 -1.591219 5.367802 -3.117479 4.242641 -4.242641 
C 3.117479 -5.367802 1.591219 -6 0 -6 
C -1.591219 -6 -3.117479 -5.367802 -4.242641 -4.242641 
C -5.367802 -3.117479 -6 -1.591219 -6 0 
C -6 1.591219 -5.367802 3.117479 -4.242641 4.242641 
C -3.117479 5.367802 -1.591219 6 0 6 
z
" id="m0aaf60c541" style="stroke:#000080;stroke-width:1.5;"/>
    </defs>
    <g>
     <use style="fill:none;stroke:#000080;stroke-width:1.5;" x="174.53219" xlink:href="#m0aaf60c541" y="222.89916"/>
     <use style="fill:none;stroke:#000080;stroke-width:1.5;" x="236.568997" xlink:href="#m0aaf60c541" y="168.189225"/>
     <use style="fill:none;stroke:#000080;stroke-width:1.5;" x="294.644593" xlink:href="#m0aaf60c541" y="107.962322"/>
     <use style="fill:none;stroke:#000080;stroke-width:1.5;" x="310.323339" xlink:href="#m0aaf60c541" y="105.663585"/>
     <use style="fill:none;stroke:#000080;stroke-width:1.5;" x="333.569032" xlink:href="#m0aaf60c541" y="105.663585"/>
    </g>
   </g>
   <g id="line2d_49">
    <path style="fill:none;stroke:#000080;stroke-linecap:square;stroke-width:1.5;"/>
    <g/>
   </g>
   <g id="line2d_50">
    <path clip-path="url(#p6edddbb845)" d="M 254.507817 139.684889 
" style="fill:none;stroke:#000080;stroke-linecap:square;stroke-width:1.5;"/>
    <defs>
     <path d="M -12 12 
L 12 -12 
M -12 -12 
L 12 12 
" id="me89502999d" style="stroke:#000080;stroke-width:3;"/>
    </defs>
    <g clip-path="url(#p6edddbb845)">
     <use style="fill:#000080;stroke:#000080;stroke-width:3;" x="254.507817" xlink:href="#me89502999d" y="139.684889"/>
    </g>
   </g>
   <g id="line2d_51">
    <defs>
     <path d="M 0 1.5 
C 0.397805 1.5 0.77937 1.341951 1.06066 1.06066 
C 1.341951 0.77937 1.5 0.397805 1.5 0 
C 1.5 -0.397805 1.341951 -0.77937 1.06066 -1.06066 
C 0.77937 -1.341951 0.397805 -1.5 0 -1.5 
C -0.397805 -1.5 -0.77937 -1.341951 -1.06066 -1.06066 
C -1.341951 -0.77937 -1.5 -0.397805 -1.5 0 
C -1.5 0.397805 -1.341951 0.77937 -1.06066 1.06066 
C -0.77937 1.341951 -0.397805 1.5 0 1.5 
z
" id="m11e7543570" style="stroke:#ff00ff;"/>
    </defs>
    <g>
     <use style="fill:#ff00ff;stroke:#ff00ff;" x="323.870675" xlink:href="#m11e7543570" y="183.820635"/>
     <use style="fill:#ff00ff;stroke:#ff00ff;" x="323.870675" xlink:href="#m11e7543570" y="183.820635"/>
    </g>
   </g>
   <g id="line2d_52">
    <path d="M 29.207815 294.16 
L 29.207815 293.700253 
L 41.10835 293.700253 
L 41.10835 292.321011 
L 59.97025 292.321011 
L 59.97025 290.941769 
L 62.616839 290.941769 
L 62.616839 289.102779 
L 68.740534 289.102779 
L 68.740534 288.183284 
L 78.83215 288.183284 
L 78.83215 286.344295 
L 79.760422 286.344295 
L 79.760422 284.045558 
L 90.249023 284.045558 
L 90.249023 283.585811 
L 92.106925 283.585811 
L 92.106925 282.206569 
L 93.783265 282.206569 
L 93.783265 280.367579 
L 95.671853 280.367579 
L 95.671853 279.907832 
L 97.694051 279.907832 
L 97.694051 279.448085 
L 100.340639 279.448085 
L 100.340639 278.988337 
L 105.07419 278.988337 
L 105.07419 275.310358 
L 122.498528 275.310358 
L 122.498528 274.850611 
L 124.744185 274.850611 
L 124.744185 273.931116 
L 127.135154 273.931116 
L 127.135154 273.011622 
L 129.534704 273.011622 
L 129.584397 269.79339 
L 130.735812 269.79339 
L 130.735812 269.333643 
L 136.042242 269.333643 
L 136.042242 268.414148 
L 137.067058 268.414148 
L 137.067058 267.494653 
L 138.06444 267.494653 
L 138.06444 266.115411 
L 138.659607 266.115411 
L 138.659607 265.655664 
L 142.165938 265.655664 
L 142.165938 264.276422 
L 142.355651 264.276422 
L 142.355651 263.356927 
L 143.562175 263.356927 
L 143.562175 261.977685 
L 145.552591 261.977685 
L 145.552591 260.598443 
L 147.033419 260.598443 
L 147.033419 260.138696 
L 148.112263 260.138696 
L 148.112263 259.678948 
L 153.790034 259.678948 
L 153.790034 259.219201 
L 157.295792 259.219201 
L 157.295792 258.759454 
L 157.792346 258.759454 
L 157.792346 257.380212 
L 159.174705 257.380212 
L 159.174705 256.920464 
L 165.023493 256.920464 
L 165.023493 256.460717 
L 165.391122 256.460717 
L 165.391122 256.00097 
L 168.184157 256.00097 
L 168.283414 254.621728 
L 168.407977 254.621728 
L 168.407977 253.242485 
L 168.952581 253.242485 
L 168.952581 252.322991 
L 170.337994 252.322991 
L 170.337994 250.943749 
L 176.612609 250.943749 
L 176.644646 250.024254 
L 177.374679 250.024254 
L 177.374679 249.564507 
L 182.385782 249.564507 
L 182.385782 248.185265 
L 185.734573 248.185265 
L 185.734573 247.725517 
L 188.373081 247.725517 
L 188.373081 246.346275 
L 189.221448 246.346275 
L 189.221448 245.886528 
L 189.996068 245.886528 
L 189.996068 244.967033 
L 190.557418 244.967033 
L 190.557418 244.047538 
L 190.703404 244.047538 
L 190.7471 242.208549 
L 191.312061 242.208549 
L 191.312061 241.748802 
L 198.071551 241.748802 
L 198.071551 240.829307 
L 200.804427 240.829307 
L 200.804427 240.36956 
L 201.949466 240.36956 
L 201.949466 239.450065 
L 203.527084 239.450065 
L 203.527084 238.070823 
L 208.080271 238.070823 
L 208.080271 237.611075 
L 209.306979 237.611075 
L 209.306979 237.151328 
L 209.771062 237.151328 
L 209.771062 234.852591 
L 210.409359 234.852591 
L 210.409359 233.473349 
L 212.424887 233.473349 
L 212.424887 230.714865 
L 213.139433 230.714865 
L 213.229736 228.875876 
L 214.372003 228.875876 
L 214.372003 227.956381 
L 218.224298 227.956381 
L 218.224298 227.036886 
L 221.24925 227.036886 
L 221.24925 225.657644 
L 224.474323 225.657644 
L 224.474323 224.73815 
L 225.179034 224.73815 
L 225.179034 224.278402 
L 225.807254 224.278402 
L 225.807254 223.358907 
L 226.783452 223.358907 
L 226.783452 222.89916 
L 227.707772 222.89916 
L 227.707772 222.439413 
L 228.971264 222.439413 
L 228.971264 221.519918 
L 231.339675 221.519918 
L 231.339675 221.060171 
L 231.835626 221.060171 
L 231.835626 220.140676 
L 238.835779 220.140676 
L 238.835779 219.221181 
L 248.464895 219.221181 
L 248.464895 215.543202 
L 249.389746 215.543202 
L 249.389746 214.623708 
L 249.617453 214.623708 
L 249.617453 214.16396 
L 255.327361 214.16396 
L 255.327361 212.324971 
L 255.955137 212.324971 
L 255.955137 210.945729 
L 258.212225 210.945729 
L 258.212225 210.485982 
L 259.888768 210.485982 
L 259.888768 209.566487 
L 263.980212 209.566487 
L 263.980212 208.187245 
L 264.824423 208.187245 
L 264.824423 206.808003 
L 265.224303 206.808003 
L 265.224303 205.428761 
L 268.975402 205.428761 
L 268.975402 204.509266 
L 269.868138 204.509266 
L 269.868138 204.049519 
L 274.293383 204.049519 
L 274.293383 203.589771 
L 275.352628 203.589771 
L 275.352628 202.210529 
L 275.803054 202.210529 
L 275.867128 200.831287 
L 277.985149 200.831287 
L 277.985149 199.911792 
L 278.983558 199.911792 
L 278.983558 199.452045 
L 280.522807 199.452045 
L 280.522807 198.53255 
L 280.85671 198.53255 
L 280.85671 196.233814 
L 284.978035 196.233814 
L 284.978035 195.774066 
L 286.773746 195.774066 
L 286.773746 195.314319 
L 287.512239 195.314319 
L 287.522569 193.935077 
L 287.657148 193.935077 
L 287.657148 193.475329 
L 290.498454 193.475329 
L 290.498454 192.096087 
L 293.502546 192.096087 
L 293.502546 191.63634 
L 293.673759 191.63634 
L 293.673759 191.176593 
L 293.832964 191.176593 
L 293.832964 190.257098 
L 294.625101 190.257098 
L 294.625101 189.797351 
L 295.265846 189.797351 
L 295.265846 189.337603 
L 300.306625 189.337603 
L 300.306625 188.877856 
L 300.853291 188.877856 
L 300.853291 188.418109 
L 301.998299 188.418109 
L 301.998299 187.958361 
L 304.258885 187.958361 
L 304.258885 187.498614 
L 310.375305 187.498614 
L 310.375305 187.038867 
L 311.797986 187.038867 
L 311.797986 186.119372 
L 315.128397 186.119372 
L 315.128397 185.659624 
L 315.252035 185.659624 
L 315.252035 185.199877 
L 321.016857 185.199877 
L 321.016857 184.74013 
L 323.119136 184.74013 
L 323.119136 184.280382 
L 323.870675 184.280382 
L 323.870675 183.820635 
L 333.569032 183.820635 
L 333.569032 183.820635 
" style="fill:none;stroke:#ff00ff;stroke-linecap:square;stroke-width:1.5;"/>
   </g>
   <g id="line2d_53">
    <defs>
     <path d="M -0 8.485281 
L 5.091169 0 
L 0 -8.485281 
L -5.091169 -0 
z
" id="md8e491f44e" style="stroke:#ff00ff;stroke-linejoin:miter;stroke-width:1.5;"/>
    </defs>
    <g>
     <use style="fill:none;stroke:#ff00ff;stroke-linejoin:miter;stroke-width:1.5;" x="127.135154" xlink:href="#md8e491f44e" y="273.011622"/>
     <use style="fill:none;stroke:#ff00ff;stroke-linejoin:miter;stroke-width:1.5;" x="191.312061" xlink:href="#md8e491f44e" y="241.748802"/>
     <use style="fill:none;stroke:#ff00ff;stroke-linejoin:miter;stroke-width:1.5;" x="265.224303" xlink:href="#md8e491f44e" y="206.808003"/>
     <use style="fill:none;stroke:#ff00ff;stroke-linejoin:miter;stroke-width:1.5;" x="323.870675" xlink:href="#md8e491f44e" y="183.820635"/>
     <use style="fill:none;stroke:#ff00ff;stroke-linejoin:miter;stroke-width:1.5;" x="323.870675" xlink:href="#md8e491f44e" y="183.820635"/>
     <use style="fill:none;stroke:#ff00ff;stroke-linejoin:miter;stroke-width:1.5;" x="333.569032" xlink:href="#md8e491f44e" y="183.820635"/>
    </g>
   </g>
   <g id="line2d_54">
    <path style="fill:none;stroke:#ff00ff;stroke-linecap:square;stroke-width:1.5;"/>
    <g/>
   </g>
   <g id="line2d_55">
    <path clip-path="url(#p6edddbb845)" d="M 294.036313 190.257098 
" style="fill:none;stroke:#ff00ff;stroke-linecap:square;stroke-width:1.5;"/>
    <defs>
     <path d="M -12 12 
L 12 -12 
M -12 -12 
L 12 12 
" id="m8cfda58497" style="stroke:#ff00ff;stroke-width:3;"/>
    </defs>
    <g clip-path="url(#p6edddbb845)">
     <use style="fill:#ff00ff;stroke:#ff00ff;stroke-width:3;" x="294.036313" xlink:href="#m8cfda58497" y="190.257098"/>
    </g>
   </g>
   <g id="line2d_56">
    <defs>
     <path d="M 0 1.5 
C 0.397805 1.5 0.77937 1.341951 1.06066 1.06066 
C 1.341951 0.77937 1.5 0.397805 1.5 0 
C 1.5 -0.397805 1.341951 -0.77937 1.06066 -1.06066 
C 0.77937 -1.341951 0.397805 -1.5 0 -1.5 
C -0.397805 -1.5 -0.77937 -1.341951 -1.06066 -1.06066 
C -1.341951 -0.77937 -1.5 -0.397805 -1.5 0 
C -1.5 0.397805 -1.341951 0.77937 -1.06066 1.06066 
C -0.77937 1.341951 -0.397805 1.5 0 1.5 
z
" id="m6d5b3aabcd" style="stroke:#ffa500;"/>
    </defs>
    <g>
     <use style="fill:#ffa500;stroke:#ffa500;" x="218.314971" xlink:href="#m6d5b3aabcd" y="266.575159"/>
     <use style="fill:#ffa500;stroke:#ffa500;" x="218.314971" xlink:href="#m6d5b3aabcd" y="266.575159"/>
    </g>
   </g>
   <g id="line2d_57">
    <path d="M 29.207815 294.16 
L 29.207815 285.4248 
L 158.451318 285.4248 
L 158.451318 284.965053 
L 160.363364 284.965053 
L 160.363364 284.505306 
L 163.169729 284.505306 
L 163.169729 283.585811 
L 163.358132 283.585811 
L 163.358132 282.666316 
L 166.518427 282.666316 
L 166.518427 281.287074 
L 167.208668 281.287074 
L 167.208668 280.367579 
L 167.252975 280.367579 
L 167.252975 279.907832 
L 167.472809 279.907832 
L 167.472809 279.448085 
L 176.008872 279.448085 
L 176.008872 278.988337 
L 176.180727 278.988337 
L 176.180727 278.52859 
L 178.764722 278.52859 
L 178.764722 278.068843 
L 179.084229 278.068843 
L 179.084229 277.149348 
L 179.106429 277.149348 
L 179.106429 276.689601 
L 179.150743 276.689601 
L 179.150743 276.229853 
L 179.194943 276.229853 
L 179.194943 275.770106 
L 179.228018 275.770106 
L 179.228018 275.310358 
L 179.239029 275.310358 
L 179.239029 274.850611 
L 184.139628 274.850611 
L 184.139628 274.390864 
L 184.197449 274.390864 
L 184.197449 273.931116 
L 186.02244 273.931116 
L 186.02244 273.471369 
L 189.568705 273.471369 
L 189.568705 273.011622 
L 190.972264 273.011622 
L 190.972264 272.551874 
L 194.823098 272.551874 
L 194.823098 272.092127 
L 194.836416 272.092127 
L 194.836416 271.63238 
L 194.845289 271.63238 
L 194.845289 271.172632 
L 198.003421 271.172632 
L 198.003421 270.712885 
L 200.695153 270.712885 
L 200.695153 270.253138 
L 200.698307 270.253138 
L 200.698307 269.79339 
L 200.739261 269.79339 
L 200.739261 269.333643 
L 202.213534 269.333643 
L 202.213534 268.873896 
L 202.242386 268.873896 
L 202.242386 268.414148 
L 202.288447 268.414148 
L 202.288447 267.954401 
L 209.346096 267.954401 
L 209.346096 267.494653 
L 209.486088 267.494653 
L 209.486088 267.034906 
L 218.314971 267.034906 
L 218.314971 266.575159 
L 333.569032 266.575159 
" style="fill:none;stroke:#ffa500;stroke-linecap:square;stroke-width:1.5;"/>
   </g>
   <g id="line2d_58">
    <defs>
     <path d="M 0 -6 
L -1.347084 -1.854102 
L -5.706339 -1.854102 
L -2.179628 0.708204 
L -3.526712 4.854102 
L -0 2.291796 
L 3.526712 4.854102 
L 2.179628 0.708204 
L 5.706339 -1.854102 
L 1.347084 -1.854102 
z
" id="m2a4621f60b" style="stroke:#ffa500;stroke-linejoin:bevel;stroke-width:1.5;"/>
    </defs>
    <g>
     <use style="fill:none;stroke:#ffa500;stroke-linejoin:bevel;stroke-width:1.5;" x="163.358132" xlink:href="#m2a4621f60b" y="282.666316"/>
     <use style="fill:none;stroke:#ffa500;stroke-linejoin:bevel;stroke-width:1.5;" x="218.314971" xlink:href="#m2a4621f60b" y="267.034906"/>
     <use style="fill:none;stroke:#ffa500;stroke-linejoin:bevel;stroke-width:1.5;" x="218.314971" xlink:href="#m2a4621f60b" y="266.575159"/>
     <use style="fill:none;stroke:#ffa500;stroke-linejoin:bevel;stroke-width:1.5;" x="218.314971" xlink:href="#m2a4621f60b" y="266.575159"/>
     <use style="fill:none;stroke:#ffa500;stroke-linejoin:bevel;stroke-width:1.5;" x="333.569032" xlink:href="#m2a4621f60b" y="266.575159"/>
    </g>
   </g>
   <g id="line2d_59">
    <path style="fill:none;stroke:#ffa500;stroke-linecap:square;stroke-width:1.5;"/>
    <g/>
   </g>
   <g id="line2d_60">
    <path clip-path="url(#p6edddbb845)" d="M 167.247443 280.367579 
" style="fill:none;stroke:#ffa500;stroke-linecap:square;stroke-width:1.5;"/>
    <defs>
     <path d="M -12 12 
L 12 -12 
M -12 -12 
L 12 12 
" id="mf414865793" style="stroke:#ffa500;stroke-width:3;"/>
    </defs>
    <g clip-path="url(#p6edddbb845)">
     <use style="fill:#ffa500;stroke:#ffa500;stroke-width:3;" x="167.247443" xlink:href="#mf414865793" y="280.367579"/>
    </g>
   </g>
   <g id="line2d_61">
    <defs>
     <path d="M 0 1.5 
C 0.397805 1.5 0.77937 1.341951 1.06066 1.06066 
C 1.341951 0.77937 1.5 0.397805 1.5 0 
C 1.5 -0.397805 1.341951 -0.77937 1.06066 -1.06066 
C 0.77937 -1.341951 0.397805 -1.5 0 -1.5 
C -0.397805 -1.5 -0.77937 -1.341951 -1.06066 -1.06066 
C -1.341951 -0.77937 -1.5 -0.397805 -1.5 0 
C -1.5 0.397805 -1.341951 0.77937 -1.06066 1.06066 
C -0.77937 1.341951 -0.397805 1.5 0 1.5 
z
" id="mf7193f8227" style="stroke:#6495ed;"/>
    </defs>
    <g>
     <use style="fill:#6495ed;stroke:#6495ed;" x="256.032773" xlink:href="#mf7193f8227" y="105.663585"/>
     <use style="fill:#6495ed;stroke:#6495ed;" x="256.032773" xlink:href="#mf7193f8227" y="105.663585"/>
    </g>
   </g>
   <g id="line2d_62">
    <path d="M 29.207815 294.16 
L 29.207815 289.562526 
L 41.10835 289.562526 
L 41.10835 289.102779 
L 53.008884 289.102779 
L 53.008884 287.723537 
L 56.84 287.723537 
L 56.84 286.804042 
L 59.97025 286.804042 
L 59.97025 285.4248 
L 64.909418 285.4248 
L 64.909418 284.965053 
L 70.3769 284.965053 
L 70.3769 283.585811 
L 71.870784 283.585811 
L 71.870784 282.666316 
L 78.83215 282.666316 
L 78.83215 282.206569 
L 85.793517 282.206569 
L 85.793517 279.448085 
L 87.602435 279.448085 
L 87.602435 277.609095 
L 89.2388 277.609095 
L 89.2388 274.390864 
L 90.249023 274.390864 
L 90.249023 273.931116 
L 91.203093 273.931116 
L 91.203093 273.471369 
L 92.965546 273.471369 
L 92.965546 272.551874 
L 94.177968 272.551874 
L 94.177968 272.092127 
L 102.870034 272.092127 
L 102.870034 271.63238 
L 106.841687 271.63238 
L 106.841687 271.172632 
L 107.750304 271.172632 
L 107.750304 270.253138 
L 110.218975 270.253138 
L 110.218975 269.333643 
L 111.114944 269.333643 
L 111.114944 268.873896 
L 118.648658 268.873896 
L 118.648658 267.954401 
L 118.835278 267.954401 
L 118.835278 267.494653 
L 121.495119 267.494653 
L 121.495119 267.034906 
L 123.658047 267.034906 
L 123.658047 266.575159 
L 125.703588 266.575159 
L 125.703588 266.115411 
L 126.612204 266.115411 
L 126.612204 264.736169 
L 128.926894 264.736169 
L 128.926894 262.437433 
L 129.683353 262.437433 
L 129.683353 261.977685 
L 130.265403 261.977685 
L 130.313029 260.138696 
L 132.031346 260.138696 
L 132.031346 259.678948 
L 132.993554 259.678948 
L 132.993554 259.219201 
L 133.395653 259.219201 
L 133.395653 258.299706 
L 133.710687 258.299706 
L 133.710687 257.839959 
L 134.286233 257.839959 
L 134.361535 256.920464 
L 134.80654 256.920464 
L 134.80654 255.081475 
L 135.204571 255.081475 
L 135.204571 254.621728 
L 135.48836 254.621728 
L 135.48836 254.16198 
L 135.732885 254.16198 
L 135.732885 253.702233 
L 136.245426 253.702233 
L 136.245426 252.782738 
L 137.258534 252.782738 
L 137.258534 252.322991 
L 138.630334 252.322991 
L 138.630334 251.863243 
L 139.007049 251.863243 
L 139.007049 251.403496 
L 139.206523 251.403496 
L 139.206523 250.484001 
L 140.827428 250.484001 
L 140.878909 249.104759 
L 140.955842 249.104759 
L 140.955842 248.645012 
L 141.360429 248.645012 
L 141.360429 247.26577 
L 141.780105 247.26577 
L 141.780105 245.886528 
L 142.261056 245.886528 
L 142.261056 244.507286 
L 142.589881 244.507286 
L 142.589881 243.587791 
L 143.29633 243.587791 
L 143.29633 243.128044 
L 143.451906 243.128044 
L 143.451906 241.289054 
L 144.440623 241.289054 
L 144.440623 240.829307 
L 145.434727 240.829307 
L 145.49376 236.691581 
L 146.871022 236.691581 
L 146.871022 236.231833 
L 147.212077 236.231833 
L 147.212077 235.312339 
L 149.644052 235.312339 
L 149.644052 234.392844 
L 150.516212 234.392844 
L 150.516212 233.473349 
L 150.749211 233.473349 
L 150.749211 232.553855 
L 151.036083 232.553855 
L 151.036083 231.63436 
L 151.443712 231.63436 
L 151.443712 230.714865 
L 152.533523 230.714865 
L 152.533523 230.255118 
L 152.907474 230.255118 
L 152.907474 229.79537 
L 153.260963 229.79537 
L 153.260963 228.875876 
L 153.910772 228.875876 
L 153.910772 227.956381 
L 155.691995 227.956381 
L 155.691995 226.577139 
L 156.046226 226.577139 
L 156.046226 226.117392 
L 156.631109 226.117392 
L 156.631109 225.197897 
L 156.966667 225.197897 
L 156.966667 224.73815 
L 158.058977 224.73815 
L 158.058977 223.818655 
L 158.432837 223.818655 
L 158.432837 222.89916 
L 159.594544 222.89916 
L 159.611817 221.519918 
L 162.453362 221.519918 
L 162.453362 220.140676 
L 164.505608 220.140676 
L 164.505608 219.680929 
L 165.279796 219.680929 
L 165.279796 219.221181 
L 166.36767 219.221181 
L 166.420005 216.922445 
L 166.581813 216.922445 
L 166.593312 216.00295 
L 168.407977 216.00295 
L 168.407977 215.543202 
L 169.127037 215.543202 
L 169.127037 215.083455 
L 171.19436 215.083455 
L 171.19436 214.623708 
L 173.425828 214.623708 
L 173.425828 214.16396 
L 174.36852 214.16396 
L 174.36852 213.244466 
L 175.171699 213.244466 
L 175.171699 212.784718 
L 178.795812 212.784718 
L 178.795812 210.945729 
L 179.109202 210.945729 
L 179.109202 210.485982 
L 179.756749 210.485982 
L 179.756749 209.566487 
L 182.458939 209.566487 
L 182.458939 209.10674 
L 183.075098 209.10674 
L 183.075098 207.727497 
L 183.64225 207.727497 
L 183.64225 206.808003 
L 184.160301 206.808003 
L 184.160301 206.348255 
L 184.989115 206.348255 
L 184.989115 205.428761 
L 188.81196 205.428761 
L 188.81196 204.969013 
L 189.262939 204.969013 
L 189.262939 204.509266 
L 189.642426 204.509266 
L 189.720317 203.130024 
L 189.83204 203.130024 
L 189.878008 201.750782 
L 190.923565 201.750782 
L 190.931924 200.37154 
L 191.186281 200.37154 
L 191.254754 199.452045 
L 191.333842 199.452045 
L 191.333842 198.992298 
L 191.4599 198.992298 
L 191.4626 198.072803 
L 191.685297 198.072803 
L 191.695956 197.153308 
L 192.153364 197.153308 
L 192.153364 196.693561 
L 192.535593 196.693561 
L 192.535593 196.233814 
L 192.697195 196.233814 
L 192.697195 195.774066 
L 192.933064 195.774066 
L 192.957835 193.475329 
L 193.373566 193.475329 
L 193.380813 192.555835 
L 193.547846 192.555835 
L 193.547846 192.096087 
L 193.716823 192.096087 
L 193.719191 191.176593 
L 194.073079 191.176593 
L 194.075399 190.257098 
L 194.71283 190.257098 
L 194.71283 189.337603 
L 194.960219 189.337603 
L 194.960219 188.877856 
L 195.233388 188.877856 
L 195.233388 188.418109 
L 196.77112 188.418109 
L 196.77112 187.958361 
L 198.543723 187.958361 
L 198.543723 187.498614 
L 198.89412 187.498614 
L 198.89412 187.038867 
L 201.62384 187.038867 
L 201.62384 186.579119 
L 201.792604 186.579119 
L 201.802219 185.659624 
L 201.919383 185.659624 
L 201.994857 183.360888 
L 202.213534 183.360888 
L 202.213534 182.90114 
L 202.524721 182.90114 
L 202.524721 182.441393 
L 202.653968 182.441393 
L 202.653968 181.981646 
L 202.779454 181.981646 
L 202.779454 181.521898 
L 202.91928 181.521898 
L 202.91928 181.062151 
L 203.361109 181.062151 
L 203.441945 180.142656 
L 203.539785 180.142656 
L 203.542458 178.763414 
L 205.167461 178.763414 
L 205.167461 178.303667 
L 205.956788 178.303667 
L 205.956788 177.843919 
L 206.115107 177.843919 
L 206.116257 176.924425 
L 206.266279 176.924425 
L 206.282235 176.00493 
L 206.514751 176.00493 
L 206.514751 175.545183 
L 208.309559 175.545183 
L 208.417533 174.165941 
L 208.560284 174.165941 
L 208.599644 173.246446 
L 208.916695 173.246446 
L 209.001494 170.947709 
L 209.173216 170.947709 
L 209.173216 170.487962 
L 209.328457 170.487962 
L 209.336086 169.568467 
L 209.621196 169.568467 
L 209.621196 169.10872 
L 210.082452 169.10872 
L 210.082452 168.648972 
L 210.765726 168.648972 
L 210.785893 167.26973 
L 211.734124 167.26973 
L 211.734124 166.809983 
L 213.075131 166.809983 
L 213.131026 164.970994 
L 213.24569 164.970994 
L 213.311248 163.591751 
L 213.552741 163.591751 
L 213.552741 163.132004 
L 213.753327 163.132004 
L 213.753327 162.672257 
L 213.936651 162.672257 
L 213.979268 161.293015 
L 215.751877 161.293015 
L 215.751877 160.833267 
L 216.95702 160.833267 
L 216.95702 160.37352 
L 217.254782 160.37352 
L 217.288717 158.994278 
L 217.465413 158.994278 
L 217.465413 158.534531 
L 217.630311 158.534531 
L 217.630311 158.074783 
L 217.797137 158.074783 
L 217.810821 157.155288 
L 217.940708 157.155288 
L 217.940708 156.695541 
L 218.360692 156.695541 
L 218.360692 156.235794 
L 219.006249 156.235794 
L 219.006249 155.776046 
L 220.090481 155.776046 
L 220.198954 154.856552 
L 220.26366 154.856552 
L 220.26366 154.396804 
L 220.434361 154.396804 
L 220.434361 153.937057 
L 220.574418 153.937057 
L 220.574418 153.47731 
L 221.722652 153.47731 
L 221.730993 152.098068 
L 222.521105 152.098068 
L 222.622996 151.178573 
L 222.676127 151.178573 
L 222.676127 150.718826 
L 222.795837 150.718826 
L 222.87381 148.879836 
L 223.043512 148.879836 
L 223.084232 147.960341 
L 223.191782 147.960341 
L 223.296971 147.040847 
L 224.0763 147.040847 
L 224.07832 146.121352 
L 224.881459 146.121352 
L 224.881459 145.661605 
L 225.022193 145.661605 
L 225.022193 145.201857 
L 225.146414 145.201857 
L 225.146414 144.74211 
L 225.373841 144.74211 
L 225.373841 144.282363 
L 226.853029 144.282363 
L 226.853029 143.822615 
L 227.014685 143.822615 
L 227.014685 143.362868 
L 227.155593 143.362868 
L 227.155593 142.903121 
L 228.00557 142.903121 
L 228.00557 142.443373 
L 228.572582 142.443373 
L 228.604739 140.604384 
L 228.753705 140.604384 
L 228.810999 138.765394 
L 228.954088 138.765394 
L 228.961234 137.8459 
L 229.102479 137.8459 
L 229.110317 136.926405 
L 229.670563 136.926405 
L 229.670563 136.466658 
L 230.217342 136.466658 
L 230.219179 135.547163 
L 230.354828 135.547163 
L 230.354828 135.087416 
L 230.676822 135.087416 
L 230.676822 134.627668 
L 231.1404 134.627668 
L 231.191604 133.708173 
L 231.73517 133.708173 
L 231.825594 132.328931 
L 232.580913 132.328931 
L 232.590636 131.409437 
L 233.048366 131.409437 
L 233.15038 130.030195 
L 233.182745 130.030195 
L 233.182745 129.570447 
L 233.381421 129.570447 
L 233.384828 128.650953 
L 233.868107 128.650953 
L 233.868107 128.191205 
L 234.285506 128.191205 
L 234.394521 126.811963 
L 234.416219 126.811963 
L 234.416219 126.352216 
L 235.481415 126.352216 
L 235.481415 125.892468 
L 235.594793 125.892468 
L 235.600887 124.513226 
L 235.712968 124.513226 
L 235.717174 123.133984 
L 236.589772 123.133984 
L 236.67534 121.294995 
L 236.71332 121.294995 
L 236.71332 120.835248 
L 237.030519 120.835248 
L 237.030519 120.3755 
L 237.817857 120.3755 
L 237.902589 119.456005 
L 239.523802 119.456005 
L 239.622364 117.157269 
L 240.076655 117.157269 
L 240.082462 116.237774 
L 240.589573 116.237774 
L 240.636151 115.318279 
L 241.564532 115.318279 
L 241.564532 114.858532 
L 242.076429 114.858532 
L 242.076429 114.398785 
L 242.746676 114.398785 
L 242.830782 113.47929 
L 242.891262 113.47929 
L 242.891262 113.019543 
L 244.851881 113.019543 
L 244.877947 112.100048 
L 244.969436 112.100048 
L 244.969436 111.6403 
L 245.517463 111.6403 
L 245.544043 110.720806 
L 246.833097 110.720806 
L 246.833097 110.261058 
L 247.369103 110.261058 
L 247.369103 109.801311 
L 248.508185 109.801311 
L 248.508185 109.341564 
L 249.518674 109.341564 
L 249.518674 108.881816 
L 250.975606 108.881816 
L 250.975606 108.422069 
L 251.416528 108.422069 
L 251.416528 107.962322 
L 251.870484 107.962322 
L 251.870484 107.502574 
L 252.678148 107.502574 
L 252.678148 107.042827 
L 254.261323 107.042827 
L 254.261323 106.58308 
L 254.976512 106.58308 
L 254.976512 106.123332 
L 256.032773 106.123332 
L 256.032773 105.663585 
L 333.569032 105.663585 
L 333.569032 105.663585 
" style="fill:none;stroke:#6495ed;stroke-linecap:square;stroke-width:1.5;"/>
   </g>
   <g id="line2d_63">
    <defs>
     <path d="M -0 6 
L 6 -6 
L -6 -6 
z
" id="m46d5e99e88" style="stroke:#6495ed;stroke-linejoin:miter;stroke-width:1.5;"/>
    </defs>
    <g>
     <use style="fill:none;stroke:#6495ed;stroke-linejoin:miter;stroke-width:1.5;" x="141.780105" xlink:href="#m46d5e99e88" y="247.26577"/>
     <use style="fill:none;stroke:#6495ed;stroke-linejoin:miter;stroke-width:1.5;" x="194.075399" xlink:href="#m46d5e99e88" y="190.257098"/>
     <use style="fill:none;stroke:#6495ed;stroke-linejoin:miter;stroke-width:1.5;" x="254.976512" xlink:href="#m46d5e99e88" y="106.58308"/>
     <use style="fill:none;stroke:#6495ed;stroke-linejoin:miter;stroke-width:1.5;" x="256.032773" xlink:href="#m46d5e99e88" y="105.663585"/>
     <use style="fill:none;stroke:#6495ed;stroke-linejoin:miter;stroke-width:1.5;" x="333.569032" xlink:href="#m46d5e99e88" y="105.663585"/>
    </g>
   </g>
   <g id="line2d_64">
    <path style="fill:none;stroke:#6495ed;stroke-linecap:square;stroke-width:1.5;"/>
    <g/>
   </g>
   <g id="line2d_65">
    <path clip-path="url(#p6edddbb845)" d="M 188.81196 204.969013 
" style="fill:none;stroke:#6495ed;stroke-linecap:square;stroke-width:1.5;"/>
    <defs>
     <path d="M -12 12 
L 12 -12 
M -12 -12 
L 12 12 
" id="m7f0d8d76d3" style="stroke:#6495ed;stroke-width:3;"/>
    </defs>
    <g clip-path="url(#p6edddbb845)">
     <use style="fill:#6495ed;stroke:#6495ed;stroke-width:3;" x="188.81196" xlink:href="#m7f0d8d76d3" y="204.969013"/>
    </g>
   </g>
   <g id="line2d_66">
    <path d="M 333.569032 266.575159 
L 364.009226 288.826931 
" style="fill:none;stroke:#ffa500;stroke-linecap:square;stroke-width:1.5;"/>
    <g>
     <use style="fill:none;stroke:#ffa500;stroke-linejoin:bevel;stroke-width:1.5;" x="333.569032" xlink:href="#m2a4621f60b" y="266.575159"/>
     <use style="fill:none;stroke:#ffa500;stroke-linejoin:bevel;stroke-width:1.5;" x="364.009226" xlink:href="#m2a4621f60b" y="288.826931"/>
    </g>
   </g>
   <g id="line2d_67">
    <path d="M 333.569032 183.820635 
L 364.009226 224.830099 
" style="fill:none;stroke:#ff00ff;stroke-linecap:square;stroke-width:1.5;"/>
    <g>
     <use style="fill:none;stroke:#ff00ff;stroke-linejoin:miter;stroke-width:1.5;" x="333.569032" xlink:href="#md8e491f44e" y="183.820635"/>
     <use style="fill:none;stroke:#ff00ff;stroke-linejoin:miter;stroke-width:1.5;" x="364.009226" xlink:href="#md8e491f44e" y="224.830099"/>
    </g>
   </g>
   <g id="line2d_68">
    <path d="M 333.569032 105.663585 
L 364.009226 160.833267 
" style="fill:none;stroke:#000080;stroke-linecap:square;stroke-width:1.5;"/>
    <g>
     <use style="fill:none;stroke:#000080;stroke-width:1.5;" x="333.569032" xlink:href="#m0aaf60c541" y="105.663585"/>
     <use style="fill:none;stroke:#000080;stroke-width:1.5;" x="364.009226" xlink:href="#m0aaf60c541" y="160.833267"/>
    </g>
   </g>
   <g id="line2d_69">
    <path d="M 333.569032 105.663585 
L 364.009226 96.836436 
" style="fill:none;stroke:#6495ed;stroke-linecap:square;stroke-width:1.5;"/>
    <g>
     <use style="fill:none;stroke:#6495ed;stroke-linejoin:miter;stroke-width:1.5;" x="333.569032" xlink:href="#m46d5e99e88" y="105.663585"/>
     <use style="fill:none;stroke:#6495ed;stroke-linejoin:miter;stroke-width:1.5;" x="364.009226" xlink:href="#m46d5e99e88" y="96.836436"/>
    </g>
   </g>
   <g id="line2d_70">
    <path d="M 333.569032 294.16 
L 333.569032 27.506535 
" style="fill:none;stroke:#000000;stroke-linecap:square;stroke-width:1.5;"/>
   </g>
   <g id="patch_3">
    <path d="M 56.84 294.16 
L 56.84 24.84 
" style="fill:none;stroke:#000000;stroke-linecap:square;stroke-linejoin:miter;stroke-width:0.8;"/>
   </g>
   <g id="patch_4">
    <path d="M 399.984 294.16 
L 399.984 24.84 
" style="fill:none;stroke:#000000;stroke-linecap:square;stroke-linejoin:miter;stroke-width:0.8;"/>
   </g>
   <g id="patch_5">
    <path d="M 56.84 294.16 
L 399.984 294.16 
" style="fill:none;stroke:#000000;stroke-linecap:square;stroke-linejoin:miter;stroke-width:0.8;"/>
   </g>
   <g id="patch_6">
    <path d="M 56.84 24.84 
L 399.984 24.84 
" style="fill:none;stroke:#000000;stroke-linecap:square;stroke-linejoin:miter;stroke-width:0.8;"/>
   </g>
   <g id="text_14">
    <!-- adaptiveH -->
    <defs>
     <path d="M 9.8125 72.90625 
L 19.671875 72.90625 
L 19.671875 43.015625 
L 55.515625 43.015625 
L 55.515625 72.90625 
L 65.375 72.90625 
L 65.375 0 
L 55.515625 0 
L 55.515625 34.71875 
L 19.671875 34.71875 
L 19.671875 0 
L 9.8125 0 
z
" id="DejaVuSans-48"/>
    </defs>
    <g transform="translate(369.543806 293.517868)scale(0.17 -0.17)">
     <use xlink:href="#DejaVuSans-61"/>
     <use x="61.279297" xlink:href="#DejaVuSans-64"/>
     <use x="124.755859" xlink:href="#DejaVuSans-61"/>
     <use x="186.035156" xlink:href="#DejaVuSans-70"/>
     <use x="249.511719" xlink:href="#DejaVuSans-74"/>
     <use x="288.720703" xlink:href="#DejaVuSans-69"/>
     <use x="316.503906" xlink:href="#DejaVuSans-76"/>
     <use x="375.683594" xlink:href="#DejaVuSans-65"/>
     <use x="437.207031" xlink:href="#DejaVuSans-48"/>
    </g>
   </g>
   <g id="text_15">
    <!-- RANDOMSEA -->
    <defs>
     <path d="M 44.390625 34.1875 
Q 47.5625 33.109375 50.5625 29.59375 
Q 53.5625 26.078125 56.59375 19.921875 
L 66.609375 0 
L 56 0 
L 46.6875 18.703125 
Q 43.0625 26.03125 39.671875 28.421875 
Q 36.28125 30.8125 30.421875 30.8125 
L 19.671875 30.8125 
L 19.671875 0 
L 9.8125 0 
L 9.8125 72.90625 
L 32.078125 72.90625 
Q 44.578125 72.90625 50.734375 67.671875 
Q 56.890625 62.453125 56.890625 51.90625 
Q 56.890625 45.015625 53.6875 40.46875 
Q 50.484375 35.9375 44.390625 34.1875 
M 19.671875 64.796875 
L 19.671875 38.921875 
L 32.078125 38.921875 
Q 39.203125 38.921875 42.84375 42.21875 
Q 46.484375 45.515625 46.484375 51.90625 
Q 46.484375 58.296875 42.84375 61.546875 
Q 39.203125 64.796875 32.078125 64.796875 
z
" id="DejaVuSans-52"/>
     <path d="M 34.1875 63.1875 
L 20.796875 26.90625 
L 47.609375 26.90625 
z
M 28.609375 72.90625 
L 39.796875 72.90625 
L 67.578125 0 
L 57.328125 0 
L 50.6875 18.703125 
L 17.828125 18.703125 
L 11.1875 0 
L 0.78125 0 
z
" id="DejaVuSans-41"/>
     <path d="M 9.8125 72.90625 
L 23.09375 72.90625 
L 55.421875 11.921875 
L 55.421875 72.90625 
L 64.984375 72.90625 
L 64.984375 0 
L 51.703125 0 
L 19.390625 60.984375 
L 19.390625 0 
L 9.8125 0 
z
" id="DejaVuSans-4e"/>
     <path d="M 19.671875 64.796875 
L 19.671875 8.109375 
L 31.59375 8.109375 
Q 46.6875 8.109375 53.6875 14.9375 
Q 60.6875 21.78125 60.6875 36.53125 
Q 60.6875 51.171875 53.6875 57.984375 
Q 46.6875 64.796875 31.59375 64.796875 
z
M 9.8125 72.90625 
L 30.078125 72.90625 
Q 51.265625 72.90625 61.171875 64.09375 
Q 71.09375 55.28125 71.09375 36.53125 
Q 71.09375 17.671875 61.125 8.828125 
Q 51.171875 0 30.078125 0 
L 9.8125 0 
z
" id="DejaVuSans-44"/>
     <path d="M 39.40625 66.21875 
Q 28.65625 66.21875 22.328125 58.203125 
Q 16.015625 50.203125 16.015625 36.375 
Q 16.015625 22.609375 22.328125 14.59375 
Q 28.65625 6.59375 39.40625 6.59375 
Q 50.140625 6.59375 56.421875 14.59375 
Q 62.703125 22.609375 62.703125 36.375 
Q 62.703125 50.203125 56.421875 58.203125 
Q 50.140625 66.21875 39.40625 66.21875 
M 39.40625 74.21875 
Q 54.734375 74.21875 63.90625 63.9375 
Q 73.09375 53.65625 73.09375 36.375 
Q 73.09375 19.140625 63.90625 8.859375 
Q 54.734375 -1.421875 39.40625 -1.421875 
Q 24.03125 -1.421875 14.8125 8.828125 
Q 5.609375 19.09375 5.609375 36.375 
Q 5.609375 53.65625 14.8125 63.9375 
Q 24.03125 74.21875 39.40625 74.21875 
" id="DejaVuSans-4f"/>
     <path d="M 9.8125 72.90625 
L 24.515625 72.90625 
L 43.109375 23.296875 
L 61.8125 72.90625 
L 76.515625 72.90625 
L 76.515625 0 
L 66.890625 0 
L 66.890625 64.015625 
L 48.09375 14.015625 
L 38.1875 14.015625 
L 19.390625 64.015625 
L 19.390625 0 
L 9.8125 0 
z
" id="DejaVuSans-4d"/>
     <path d="M 53.515625 70.515625 
L 53.515625 60.890625 
Q 47.90625 63.578125 42.921875 64.890625 
Q 37.9375 66.21875 33.296875 66.21875 
Q 25.25 66.21875 20.875 63.09375 
Q 16.5 59.96875 16.5 54.203125 
Q 16.5 49.359375 19.40625 46.890625 
Q 22.3125 44.4375 30.421875 42.921875 
L 36.375 41.703125 
Q 47.40625 39.59375 52.65625 34.296875 
Q 57.90625 29 57.90625 20.125 
Q 57.90625 9.515625 50.796875 4.046875 
Q 43.703125 -1.421875 29.984375 -1.421875 
Q 24.8125 -1.421875 18.96875 -0.25 
Q 13.140625 0.921875 6.890625 3.21875 
L 6.890625 13.375 
Q 12.890625 10.015625 18.65625 8.296875 
Q 24.421875 6.59375 29.984375 6.59375 
Q 38.421875 6.59375 43.015625 9.90625 
Q 47.609375 13.234375 47.609375 19.390625 
Q 47.609375 24.75 44.3125 27.78125 
Q 41.015625 30.8125 33.5 32.328125 
L 27.484375 33.5 
Q 16.453125 35.6875 11.515625 40.375 
Q 6.59375 45.0625 6.59375 53.421875 
Q 6.59375 63.09375 13.40625 68.65625 
Q 20.21875 74.21875 32.171875 74.21875 
Q 37.3125 74.21875 42.625 73.28125 
Q 47.953125 72.359375 53.515625 70.515625 
" id="DejaVuSans-53"/>
     <path d="M 9.8125 72.90625 
L 55.90625 72.90625 
L 55.90625 64.59375 
L 19.671875 64.59375 
L 19.671875 43.015625 
L 54.390625 43.015625 
L 54.390625 34.71875 
L 19.671875 34.71875 
L 19.671875 8.296875 
L 56.78125 8.296875 
L 56.78125 0 
L 9.8125 0 
z
" id="DejaVuSans-45"/>
    </defs>
    <g transform="translate(369.543806 229.521037)scale(0.17 -0.17)">
     <use xlink:href="#DejaVuSans-52"/>
     <use x="69.419922" xlink:href="#DejaVuSans-41"/>
     <use x="137.828125" xlink:href="#DejaVuSans-4e"/>
     <use x="212.632812" xlink:href="#DejaVuSans-44"/>
     <use x="289.634766" xlink:href="#DejaVuSans-4f"/>
     <use x="368.345703" xlink:href="#DejaVuSans-4d"/>
     <use x="454.625" xlink:href="#DejaVuSans-53"/>
     <use x="518.101562" xlink:href="#DejaVuSans-45"/>
     <use x="581.285156" xlink:href="#DejaVuSans-41"/>
    </g>
   </g>
   <g id="text_16">
    <!-- NSGA-II-M -->
    <defs>
     <path d="M 59.515625 10.40625 
L 59.515625 29.984375 
L 43.40625 29.984375 
L 43.40625 38.09375 
L 69.28125 38.09375 
L 69.28125 6.78125 
Q 63.578125 2.734375 56.6875 0.65625 
Q 49.8125 -1.421875 42 -1.421875 
Q 24.90625 -1.421875 15.25 8.5625 
Q 5.609375 18.5625 5.609375 36.375 
Q 5.609375 54.25 15.25 64.234375 
Q 24.90625 74.21875 42 74.21875 
Q 49.125 74.21875 55.546875 72.453125 
Q 61.96875 70.703125 67.390625 67.28125 
L 67.390625 56.78125 
Q 61.921875 61.421875 55.765625 63.765625 
Q 49.609375 66.109375 42.828125 66.109375 
Q 29.4375 66.109375 22.71875 58.640625 
Q 16.015625 51.171875 16.015625 36.375 
Q 16.015625 21.625 22.71875 14.15625 
Q 29.4375 6.6875 42.828125 6.6875 
Q 48.046875 6.6875 52.140625 7.59375 
Q 56.25 8.5 59.515625 10.40625 
" id="DejaVuSans-47"/>
     <path d="M 9.8125 72.90625 
L 19.671875 72.90625 
L 19.671875 0 
L 9.8125 0 
z
" id="DejaVuSans-49"/>
    </defs>
    <g transform="translate(369.543806 165.524205)scale(0.17 -0.17)">
     <use xlink:href="#DejaVuSans-4e"/>
     <use x="74.804688" xlink:href="#DejaVuSans-53"/>
     <use x="138.28125" xlink:href="#DejaVuSans-47"/>
     <use x="215.771484" xlink:href="#DejaVuSans-41"/>
     <use x="284.148438" xlink:href="#DejaVuSans-2d"/>
     <use x="320.232422" xlink:href="#DejaVuSans-49"/>
     <use x="349.724609" xlink:href="#DejaVuSans-49"/>
     <use x="379.216797" xlink:href="#DejaVuSans-2d"/>
     <use x="415.300781" xlink:href="#DejaVuSans-4d"/>
    </g>
   </g>
   <g id="text_17">
    <!-- final  bu -->
    <defs>
     <path d="M 48.6875 27.296875 
Q 48.6875 37.203125 44.609375 42.84375 
Q 40.53125 48.484375 33.40625 48.484375 
Q 26.265625 48.484375 22.1875 42.84375 
Q 18.109375 37.203125 18.109375 27.296875 
Q 18.109375 17.390625 22.1875 11.75 
Q 26.265625 6.109375 33.40625 6.109375 
Q 40.53125 6.109375 44.609375 11.75 
Q 48.6875 17.390625 48.6875 27.296875 
M 18.109375 46.390625 
Q 20.953125 51.265625 25.265625 53.625 
Q 29.59375 56 35.59375 56 
Q 45.5625 56 51.78125 48.09375 
Q 58.015625 40.1875 58.015625 27.296875 
Q 58.015625 14.40625 51.78125 6.484375 
Q 45.5625 -1.421875 35.59375 -1.421875 
Q 29.59375 -1.421875 25.265625 0.953125 
Q 20.953125 3.328125 18.109375 8.203125 
L 18.109375 0 
L 9.078125 0 
L 9.078125 75.984375 
L 18.109375 75.984375 
z
" id="DejaVuSans-62"/>
    </defs>
    <g transform="translate(369.543806 101.527373)scale(0.17 -0.17)">
     <use xlink:href="#DejaVuSans-66"/>
     <use x="35.205078" xlink:href="#DejaVuSans-69"/>
     <use x="62.988281" xlink:href="#DejaVuSans-6e"/>
     <use x="126.367188" xlink:href="#DejaVuSans-61"/>
     <use x="187.646484" xlink:href="#DejaVuSans-6c"/>
     <use x="215.429688" xlink:href="#DejaVuSans-20"/>
     <use x="247.216797" xlink:href="#DejaVuSans-20"/>
     <use x="279.003906" xlink:href="#DejaVuSans-62"/>
     <use x="342.480469" xlink:href="#DejaVuSans-75"/>
    </g>
   </g>
   <g id="text_18">
    <!-- best 2016 -->
    <g transform="translate(369.543806 37.530541)scale(0.17 -0.17)">
     <use xlink:href="#DejaVuSans-62"/>
     <use x="63.476562" xlink:href="#DejaVuSans-65"/>
     <use x="125" xlink:href="#DejaVuSans-73"/>
     <use x="177.099609" xlink:href="#DejaVuSans-74"/>
     <use x="216.308594" xlink:href="#DejaVuSans-20"/>
     <use x="248.095703" xlink:href="#DejaVuSans-32"/>
     <use x="311.71875" xlink:href="#DejaVuSans-30"/>
     <use x="375.341797" xlink:href="#DejaVuSans-31"/>
     <use x="438.964844" xlink:href="#DejaVuSans-36"/>
    </g>
   </g>
   <g id="text_19">
    <!-- bbob-biobj f54, 5-D -->
    <defs>
     <path d="M 9.421875 54.6875 
L 18.40625 54.6875 
L 18.40625 -0.984375 
Q 18.40625 -11.421875 14.421875 -16.109375 
Q 10.453125 -20.796875 1.609375 -20.796875 
L -1.8125 -20.796875 
L -1.8125 -13.1875 
L 0.59375 -13.1875 
Q 5.71875 -13.1875 7.5625 -10.8125 
Q 9.421875 -8.453125 9.421875 -0.984375 
z
M 9.421875 75.984375 
L 18.40625 75.984375 
L 18.40625 64.59375 
L 9.421875 64.59375 
z
" id="DejaVuSans-6a"/>
     <path d="M 10.796875 72.90625 
L 49.515625 72.90625 
L 49.515625 64.59375 
L 19.828125 64.59375 
L 19.828125 46.734375 
Q 21.96875 47.46875 24.109375 47.828125 
Q 26.265625 48.1875 28.421875 48.1875 
Q 40.625 48.1875 47.75 41.5 
Q 54.890625 34.8125 54.890625 23.390625 
Q 54.890625 11.625 47.5625 5.09375 
Q 40.234375 -1.421875 26.90625 -1.421875 
Q 22.3125 -1.421875 17.546875 -0.640625 
Q 12.796875 0.140625 7.71875 1.703125 
L 7.71875 11.625 
Q 12.109375 9.234375 16.796875 8.0625 
Q 21.484375 6.890625 26.703125 6.890625 
Q 35.15625 6.890625 40.078125 11.328125 
Q 45.015625 15.765625 45.015625 23.390625 
Q 45.015625 31 40.078125 35.4375 
Q 35.15625 39.890625 26.703125 39.890625 
Q 22.75 39.890625 18.8125 39.015625 
Q 14.890625 38.140625 10.796875 36.28125 
z
" id="DejaVuSans-35"/>
    </defs>
    <g transform="translate(60.27144 35.283606)scale(0.102 -0.102)">
     <use xlink:href="#DejaVuSans-62"/>
     <use x="63.476562" xlink:href="#DejaVuSans-62"/>
     <use x="126.953125" xlink:href="#DejaVuSans-6f"/>
     <use x="188.134766" xlink:href="#DejaVuSans-62"/>
     <use x="251.611328" xlink:href="#DejaVuSans-2d"/>
     <use x="287.695312" xlink:href="#DejaVuSans-62"/>
     <use x="351.171875" xlink:href="#DejaVuSans-69"/>
     <use x="378.955078" xlink:href="#DejaVuSans-6f"/>
     <use x="440.136719" xlink:href="#DejaVuSans-62"/>
     <use x="503.613281" xlink:href="#DejaVuSans-6a"/>
     <use x="531.396484" xlink:href="#DejaVuSans-20"/>
     <use x="563.183594" xlink:href="#DejaVuSans-66"/>
     <use x="598.388672" xlink:href="#DejaVuSans-35"/>
     <use x="662.011719" xlink:href="#DejaVuSans-34"/>
     <use x="725.634766" xlink:href="#DejaVuSans-2c"/>
     <use x="757.421875" xlink:href="#DejaVuSans-20"/>
     <use x="789.208984" xlink:href="#DejaVuSans-35"/>
     <use x="852.832031" xlink:href="#DejaVuSans-2d"/>
     <use x="888.916016" xlink:href="#DejaVuSans-44"/>
    </g>
    <!-- 58 targets: 1..-1.0e-4 -->
    <defs>
     <path d="M 11.71875 12.40625 
L 22.015625 12.40625 
L 22.015625 0 
L 11.71875 0 
z
M 11.71875 51.703125 
L 22.015625 51.703125 
L 22.015625 39.3125 
L 11.71875 39.3125 
z
" id="DejaVuSans-3a"/>
    </defs>
    <g transform="translate(60.27144 46.705375)scale(0.102 -0.102)">
     <use xlink:href="#DejaVuSans-35"/>
     <use x="63.623047" xlink:href="#DejaVuSans-38"/>
     <use x="127.246094" xlink:href="#DejaVuSans-20"/>
     <use x="159.033203" xlink:href="#DejaVuSans-74"/>
     <use x="198.242188" xlink:href="#DejaVuSans-61"/>
     <use x="259.521484" xlink:href="#DejaVuSans-72"/>
     <use x="300.619141" xlink:href="#DejaVuSans-67"/>
     <use x="364.095703" xlink:href="#DejaVuSans-65"/>
     <use x="425.619141" xlink:href="#DejaVuSans-74"/>
     <use x="464.828125" xlink:href="#DejaVuSans-73"/>
     <use x="516.927734" xlink:href="#DejaVuSans-3a"/>
     <use x="550.619141" xlink:href="#DejaVuSans-20"/>
     <use x="582.40625" xlink:href="#DejaVuSans-31"/>
     <use x="646.029297" xlink:href="#DejaVuSans-2e"/>
     <use x="677.816406" xlink:href="#DejaVuSans-2e"/>
     <use x="709.603516" xlink:href="#DejaVuSans-2d"/>
     <use x="745.6875" xlink:href="#DejaVuSans-31"/>
     <use x="809.310547" xlink:href="#DejaVuSans-2e"/>
     <use x="841.097656" xlink:href="#DejaVuSans-30"/>
     <use x="904.720703" xlink:href="#DejaVuSans-65"/>
     <use x="966.244141" xlink:href="#DejaVuSans-2d"/>
     <use x="1002.328125" xlink:href="#DejaVuSans-34"/>
    </g>
    <!-- 10 instances -->
    <g transform="translate(60.27144 58.127144)scale(0.102 -0.102)">
     <use xlink:href="#DejaVuSans-31"/>
     <use x="63.623047" xlink:href="#DejaVuSans-30"/>
     <use x="127.246094" xlink:href="#DejaVuSans-20"/>
     <use x="159.033203" xlink:href="#DejaVuSans-69"/>
     <use x="186.816406" xlink:href="#DejaVuSans-6e"/>
     <use x="250.195312" xlink:href="#DejaVuSans-73"/>
     <use x="302.294922" xlink:href="#DejaVuSans-74"/>
     <use x="341.503906" xlink:href="#DejaVuSans-61"/>
     <use x="402.783203" xlink:href="#DejaVuSans-6e"/>
     <use x="466.162109" xlink:href="#DejaVuSans-63"/>
     <use x="521.142578" xlink:href="#DejaVuSans-65"/>
     <use x="582.666016" xlink:href="#DejaVuSans-73"/>
    </g>
   </g>
   <g id="text_20">
    <!-- v2.2.1.10, hv-hash=ff0e71e8cd978373 -->
    <defs>
     <path d="M 54.890625 33.015625 
L 54.890625 0 
L 45.90625 0 
L 45.90625 32.71875 
Q 45.90625 40.484375 42.875 44.328125 
Q 39.84375 48.1875 33.796875 48.1875 
Q 26.515625 48.1875 22.3125 43.546875 
Q 18.109375 38.921875 18.109375 30.90625 
L 18.109375 0 
L 9.078125 0 
L 9.078125 75.984375 
L 18.109375 75.984375 
L 18.109375 46.1875 
Q 21.34375 51.125 25.703125 53.5625 
Q 30.078125 56 35.796875 56 
Q 45.21875 56 50.046875 50.171875 
Q 54.890625 44.34375 54.890625 33.015625 
" id="DejaVuSans-68"/>
     <path d="M 10.59375 45.40625 
L 73.1875 45.40625 
L 73.1875 37.203125 
L 10.59375 37.203125 
z
M 10.59375 25.484375 
L 73.1875 25.484375 
L 73.1875 17.1875 
L 10.59375 17.1875 
z
" id="DejaVuSans-3d"/>
     <path d="M 8.203125 72.90625 
L 55.078125 72.90625 
L 55.078125 68.703125 
L 28.609375 0 
L 18.3125 0 
L 43.21875 64.59375 
L 8.203125 64.59375 
z
" id="DejaVuSans-37"/>
     <path d="M 10.984375 1.515625 
L 10.984375 10.5 
Q 14.703125 8.734375 18.5 7.8125 
Q 22.3125 6.890625 25.984375 6.890625 
Q 35.75 6.890625 40.890625 13.453125 
Q 46.046875 20.015625 46.78125 33.40625 
Q 43.953125 29.203125 39.59375 26.953125 
Q 35.25 24.703125 29.984375 24.703125 
Q 19.046875 24.703125 12.671875 31.3125 
Q 6.296875 37.9375 6.296875 49.421875 
Q 6.296875 60.640625 12.9375 67.421875 
Q 19.578125 74.21875 30.609375 74.21875 
Q 43.265625 74.21875 49.921875 64.515625 
Q 56.59375 54.828125 56.59375 36.375 
Q 56.59375 19.140625 48.40625 8.859375 
Q 40.234375 -1.421875 26.421875 -1.421875 
Q 22.703125 -1.421875 18.890625 -0.6875 
Q 15.09375 0.046875 10.984375 1.515625 
M 30.609375 32.421875 
Q 37.25 32.421875 41.125 36.953125 
Q 45.015625 41.5 45.015625 49.421875 
Q 45.015625 57.28125 41.125 61.84375 
Q 37.25 66.40625 30.609375 66.40625 
Q 23.96875 66.40625 20.09375 61.84375 
Q 16.21875 57.28125 16.21875 49.421875 
Q 16.21875 41.5 20.09375 36.953125 
Q 23.96875 32.421875 30.609375 32.421875 
" id="DejaVuSans-39"/>
     <path d="M 40.578125 39.3125 
Q 47.65625 37.796875 51.625 33 
Q 55.609375 28.21875 55.609375 21.1875 
Q 55.609375 10.40625 48.1875 4.484375 
Q 40.765625 -1.421875 27.09375 -1.421875 
Q 22.515625 -1.421875 17.65625 -0.515625 
Q 12.796875 0.390625 7.625 2.203125 
L 7.625 11.71875 
Q 11.71875 9.328125 16.59375 8.109375 
Q 21.484375 6.890625 26.8125 6.890625 
Q 36.078125 6.890625 40.9375 10.546875 
Q 45.796875 14.203125 45.796875 21.1875 
Q 45.796875 27.640625 41.28125 31.265625 
Q 36.765625 34.90625 28.71875 34.90625 
L 20.21875 34.90625 
L 20.21875 43.015625 
L 29.109375 43.015625 
Q 36.375 43.015625 40.234375 45.921875 
Q 44.09375 48.828125 44.09375 54.296875 
Q 44.09375 59.90625 40.109375 62.90625 
Q 36.140625 65.921875 28.71875 65.921875 
Q 24.65625 65.921875 20.015625 65.03125 
Q 15.375 64.15625 9.8125 62.3125 
L 9.8125 71.09375 
Q 15.4375 72.65625 20.34375 73.4375 
Q 25.25 74.21875 29.59375 74.21875 
Q 40.828125 74.21875 47.359375 69.109375 
Q 53.90625 64.015625 53.90625 55.328125 
Q 53.90625 49.265625 50.4375 45.09375 
Q 46.96875 40.921875 40.578125 39.3125 
" id="DejaVuSans-33"/>
    </defs>
    <g style="fill:#808080;" transform="translate(130.065125 289.387113)scale(0.1 -0.1)">
     <use xlink:href="#DejaVuSans-76"/>
     <use x="59.179688" xlink:href="#DejaVuSans-32"/>
     <use x="122.802734" xlink:href="#DejaVuSans-2e"/>
     <use x="154.589844" xlink:href="#DejaVuSans-32"/>
     <use x="218.212891" xlink:href="#DejaVuSans-2e"/>
     <use x="250" xlink:href="#DejaVuSans-31"/>
     <use x="313.623047" xlink:href="#DejaVuSans-2e"/>
     <use x="345.410156" xlink:href="#DejaVuSans-31"/>
     <use x="409.033203" xlink:href="#DejaVuSans-30"/>
     <use x="472.65625" xlink:href="#DejaVuSans-2c"/>
     <use x="504.443359" xlink:href="#DejaVuSans-20"/>
     <use x="536.230469" xlink:href="#DejaVuSans-68"/>
     <use x="599.609375" xlink:href="#DejaVuSans-76"/>
     <use x="658.757812" xlink:href="#DejaVuSans-2d"/>
     <use x="694.841797" xlink:href="#DejaVuSans-68"/>
     <use x="758.220703" xlink:href="#DejaVuSans-61"/>
     <use x="819.5" xlink:href="#DejaVuSans-73"/>
     <use x="871.599609" xlink:href="#DejaVuSans-68"/>
     <use x="934.978516" xlink:href="#DejaVuSans-3d"/>
     <use x="1018.767578" xlink:href="#DejaVuSans-66"/>
     <use x="1053.972656" xlink:href="#DejaVuSans-66"/>
     <use x="1089.177734" xlink:href="#DejaVuSans-30"/>
     <use x="1152.800781" xlink:href="#DejaVuSans-65"/>
     <use x="1214.324219" xlink:href="#DejaVuSans-37"/>
     <use x="1277.947266" xlink:href="#DejaVuSans-31"/>
     <use x="1341.570312" xlink:href="#DejaVuSans-65"/>
     <use x="1403.09375" xlink:href="#DejaVuSans-38"/>
     <use x="1466.716797" xlink:href="#DejaVuSans-63"/>
     <use x="1521.697266" xlink:href="#DejaVuSans-64"/>
     <use x="1585.173828" xlink:href="#DejaVuSans-39"/>
     <use x="1648.796875" xlink:href="#DejaVuSans-37"/>
     <use x="1712.419922" xlink:href="#DejaVuSans-38"/>
     <use x="1776.042969" xlink:href="#DejaVuSans-33"/>
     <use x="1839.666016" xlink:href="#DejaVuSans-37"/>
     <use x="1903.289062" xlink:href="#DejaVuSans-33"/>
    </g>
   </g>
   <g id="text_21">
    <!-- 54 Schwefel/Gallagher 101 -->
    <defs>
     <path d="M 4.203125 54.6875 
L 13.1875 54.6875 
L 24.421875 12.015625 
L 35.59375 54.6875 
L 46.1875 54.6875 
L 57.421875 12.015625 
L 68.609375 54.6875 
L 77.59375 54.6875 
L 63.28125 0 
L 52.6875 0 
L 40.921875 44.828125 
L 29.109375 0 
L 18.5 0 
z
" id="DejaVuSans-77"/>
    </defs>
    <g transform="translate(93.396375 18.84)scale(0.2 -0.2)">
     <use xlink:href="#DejaVuSans-35"/>
     <use x="63.623047" xlink:href="#DejaVuSans-34"/>
     <use x="127.246094" xlink:href="#DejaVuSans-20"/>
     <use x="159.033203" xlink:href="#DejaVuSans-53"/>
     <use x="222.509766" xlink:href="#DejaVuSans-63"/>
     <use x="277.490234" xlink:href="#DejaVuSans-68"/>
     <use x="340.869141" xlink:href="#DejaVuSans-77"/>
     <use x="422.65625" xlink:href="#DejaVuSans-65"/>
     <use x="484.179688" xlink:href="#DejaVuSans-66"/>
     <use x="519.384766" xlink:href="#DejaVuSans-65"/>
     <use x="580.908203" xlink:href="#DejaVuSans-6c"/>
     <use x="608.691406" xlink:href="#DejaVuSans-2f"/>
     <use x="642.382812" xlink:href="#DejaVuSans-47"/>
     <use x="719.873047" xlink:href="#DejaVuSans-61"/>
     <use x="781.152344" xlink:href="#DejaVuSans-6c"/>
     <use x="808.935547" xlink:href="#DejaVuSans-6c"/>
     <use x="836.71875" xlink:href="#DejaVuSans-61"/>
     <use x="897.998047" xlink:href="#DejaVuSans-67"/>
     <use x="961.474609" xlink:href="#DejaVuSans-68"/>
     <use x="1024.853516" xlink:href="#DejaVuSans-65"/>
     <use x="1086.376953" xlink:href="#DejaVuSans-72"/>
     <use x="1127.490234" xlink:href="#DejaVuSans-20"/>
     <use x="1159.277344" xlink:href="#DejaVuSans-31"/>
     <use x="1222.900391" xlink:href="#DejaVuSans-30"/>
     <use x="1286.523438" xlink:href="#DejaVuSans-31"/>
    </g>
   </g>
  </g>
 </g>
 <defs>
  <clipPath id="p6edddbb845">
   <rect height="269.32" width="343.144" x="56.84" y="24.84"/>
  </clipPath>
 </defs>
</svg>
