<?xml version="1.0" encoding="utf-8" standalone="no"?>
<!DOCTYPE svg PUBLIC "-//W3C//DTD SVG 1.1//EN"
  "http://www.w3.org/Graphics/SVG/1.1/DTD/svg11.dtd">
<!-- Created with matplotlib (http://matplotlib.org/) -->
<svg height="345pt" version="1.1" viewBox="0 0 460 345" width="460pt" xmlns="http://www.w3.org/2000/svg" xmlns:xlink="http://www.w3.org/1999/xlink">
 <defs>
  <style type="text/css">
*{stroke-linecap:butt;stroke-linejoin:round;}
  </style>
 </defs>
 <g id="figure_1">
  <g id="patch_1">
   <path d="M 0 345.6 
L 460.8 345.6 
L 460.8 0 
L 0 0 
z
" style="fill:#ffffff;"/>
  </g>
  <g id="axes_1">
   <g id="patch_2">
    <path d="M 56.84 294.16 
L 399.984 294.16 
L 399.984 24.84 
L 56.84 24.84 
z
" style="fill:#ffffff;"/>
   </g>
   <g id="line2d_1">
    <path d="M 56.84 294.16 
L 56.84 289.562526 
L 63.801366 289.562526 
L 63.801366 280.367579 
L 78.348489 280.367579 
L 78.348489 271.172632 
L 94.563801 271.172632 
L 94.563801 266.575159 
L 104.970451 266.575159 
L 104.970451 252.782738 
L 111.757512 252.782738 
L 111.757512 243.587791 
L 121.613935 243.587791 
L 121.613935 238.990318 
L 127.277634 238.990318 
L 127.277634 229.79537 
L 140.475836 229.79537 
L 140.475836 216.00295 
L 147.976808 216.00295 
L 147.976808 206.808003 
L 154.852969 206.808003 
L 154.852969 197.613056 
L 162.511784 197.613056 
L 162.511784 188.418109 
L 166.262518 188.418109 
L 166.262518 183.820635 
L 173.253158 183.820635 
L 173.253158 170.028214 
L 181.43433 170.028214 
L 181.43433 165.430741 
L 190.140323 165.430741 
L 190.140323 151.63832 
L 197.056664 151.63832 
L 197.056664 142.443373 
L 205.88728 142.443373 
L 205.88728 137.8459 
L 215.661575 137.8459 
L 215.661575 124.053479 
L 223.02419 124.053479 
L 223.02419 119.456005 
L 226.800011 119.456005 
L 226.800011 105.663585 
L 231.436215 105.663585 
L 231.436215 96.468638 
L 236.737401 96.468638 
L 236.737401 87.273691 
L 242.720948 87.273691 
L 242.720948 82.676217 
L 249.153329 82.676217 
L 249.153329 73.48127 
L 255.781472 73.48127 
L 255.781472 59.688849 
L 333.569032 59.688849 
" style="fill:none;stroke:#f5deb3;stroke-linecap:square;stroke-width:6;"/>
   </g>
   <g id="line2d_2">
    <defs>
     <path d="M -0 7.778175 
L 7.778175 0 
L 0 -7.778175 
L -7.778175 -0 
z
" id="m04271d3e4b" style="stroke:#f5deb3;stroke-linejoin:miter;stroke-width:1.5;"/>
    </defs>
    <g>
     <use style="fill:#f5deb3;stroke:#f5deb3;stroke-linejoin:miter;stroke-width:1.5;" x="140.475836" xlink:href="#m04271d3e4b" y="216.00295"/>
     <use style="fill:#f5deb3;stroke:#f5deb3;stroke-linejoin:miter;stroke-width:1.5;" x="205.88728" xlink:href="#m04271d3e4b" y="142.443373"/>
     <use style="fill:#f5deb3;stroke:#f5deb3;stroke-linejoin:miter;stroke-width:1.5;" x="249.153329" xlink:href="#m04271d3e4b" y="73.48127"/>
     <use style="fill:#f5deb3;stroke:#f5deb3;stroke-linejoin:miter;stroke-width:1.5;" x="255.781472" xlink:href="#m04271d3e4b" y="59.688849"/>
     <use style="fill:#f5deb3;stroke:#f5deb3;stroke-linejoin:miter;stroke-width:1.5;" x="333.569032" xlink:href="#m04271d3e4b" y="59.688849"/>
    </g>
   </g>
   <g id="line2d_3">
    <path style="fill:none;stroke:#f5deb3;stroke-linecap:square;stroke-width:6;"/>
    <g/>
   </g>
   <g id="line2d_4">
    <path d="M 333.569032 59.688849 
L 364.009226 32.839604 
" style="fill:none;stroke:#f5deb3;stroke-linecap:square;stroke-width:6;"/>
    <g>
     <use style="fill:#f5deb3;stroke:#f5deb3;stroke-linejoin:miter;stroke-width:1.5;" x="333.569032" xlink:href="#m04271d3e4b" y="59.688849"/>
     <use style="fill:#f5deb3;stroke:#f5deb3;stroke-linejoin:miter;stroke-width:1.5;" x="364.009226" xlink:href="#m04271d3e4b" y="32.839604"/>
    </g>
   </g>
   <g id="matplotlib.axis_1">
    <g id="xtick_1">
     <g id="line2d_5">
      <path clip-path="url(#p5e6c322fc6)" d="M 56.84 294.16 
L 56.84 24.84 
" style="fill:none;stroke:#b0b0b0;stroke-linecap:square;stroke-width:0.8;"/>
     </g>
     <g id="line2d_6">
      <defs>
       <path d="M 0 0 
L 0 3.5 
" id="mc7082de620" style="stroke:#000000;stroke-width:0.8;"/>
      </defs>
      <g>
       <use style="stroke:#000000;stroke-width:0.8;" x="56.84" xlink:href="#mc7082de620" y="294.16"/>
      </g>
     </g>
     <g id="text_1">
      <!-- 0 -->
      <defs>
       <path d="M 31.78125 66.40625 
Q 24.171875 66.40625 20.328125 58.90625 
Q 16.5 51.421875 16.5 36.375 
Q 16.5 21.390625 20.328125 13.890625 
Q 24.171875 6.390625 31.78125 6.390625 
Q 39.453125 6.390625 43.28125 13.890625 
Q 47.125 21.390625 47.125 36.375 
Q 47.125 51.421875 43.28125 58.90625 
Q 39.453125 66.40625 31.78125 66.40625 
M 31.78125 74.21875 
Q 44.046875 74.21875 50.515625 64.515625 
Q 56.984375 54.828125 56.984375 36.375 
Q 56.984375 17.96875 50.515625 8.265625 
Q 44.046875 -1.421875 31.78125 -1.421875 
Q 19.53125 -1.421875 13.0625 8.265625 
Q 6.59375 17.96875 6.59375 36.375 
Q 6.59375 54.828125 13.0625 64.515625 
Q 19.53125 74.21875 31.78125 74.21875 
" id="DejaVuSans-30"/>
      </defs>
      <g transform="translate(50.4775 316.356875)scale(0.2 -0.2)">
       <use xlink:href="#DejaVuSans-30"/>
      </g>
     </g>
    </g>
    <g id="xtick_2">
     <g id="line2d_7">
      <path clip-path="url(#p5e6c322fc6)" d="M 135.905438 294.16 
L 135.905438 24.84 
" style="fill:none;stroke:#b0b0b0;stroke-linecap:square;stroke-width:0.8;"/>
     </g>
     <g id="line2d_8">
      <g>
       <use style="stroke:#000000;stroke-width:0.8;" x="135.905438" xlink:href="#mc7082de620" y="294.16"/>
      </g>
     </g>
     <g id="text_2">
      <!-- 2 -->
      <defs>
       <path d="M 19.1875 8.296875 
L 53.609375 8.296875 
L 53.609375 0 
L 7.328125 0 
L 7.328125 8.296875 
Q 12.9375 14.109375 22.625 23.890625 
Q 32.328125 33.6875 34.8125 36.53125 
Q 39.546875 41.84375 41.421875 45.53125 
Q 43.3125 49.21875 43.3125 52.78125 
Q 43.3125 58.59375 39.234375 62.25 
Q 35.15625 65.921875 28.609375 65.921875 
Q 23.96875 65.921875 18.8125 64.3125 
Q 13.671875 62.703125 7.8125 59.421875 
L 7.8125 69.390625 
Q 13.765625 71.78125 18.9375 73 
Q 24.125 74.21875 28.421875 74.21875 
Q 39.75 74.21875 46.484375 68.546875 
Q 53.21875 62.890625 53.21875 53.421875 
Q 53.21875 48.921875 51.53125 44.890625 
Q 49.859375 40.875 45.40625 35.40625 
Q 44.1875 33.984375 37.640625 27.21875 
Q 31.109375 20.453125 19.1875 8.296875 
" id="DejaVuSans-32"/>
      </defs>
      <g transform="translate(129.542938 316.356875)scale(0.2 -0.2)">
       <use xlink:href="#DejaVuSans-32"/>
      </g>
     </g>
    </g>
    <g id="xtick_3">
     <g id="line2d_9">
      <path clip-path="url(#p5e6c322fc6)" d="M 214.970876 294.16 
L 214.970876 24.84 
" style="fill:none;stroke:#b0b0b0;stroke-linecap:square;stroke-width:0.8;"/>
     </g>
     <g id="line2d_10">
      <g>
       <use style="stroke:#000000;stroke-width:0.8;" x="214.970876" xlink:href="#mc7082de620" y="294.16"/>
      </g>
     </g>
     <g id="text_3">
      <!-- 4 -->
      <defs>
       <path d="M 37.796875 64.3125 
L 12.890625 25.390625 
L 37.796875 25.390625 
z
M 35.203125 72.90625 
L 47.609375 72.90625 
L 47.609375 25.390625 
L 58.015625 25.390625 
L 58.015625 17.1875 
L 47.609375 17.1875 
L 47.609375 0 
L 37.796875 0 
L 37.796875 17.1875 
L 4.890625 17.1875 
L 4.890625 26.703125 
z
" id="DejaVuSans-34"/>
      </defs>
      <g transform="translate(208.608376 316.356875)scale(0.2 -0.2)">
       <use xlink:href="#DejaVuSans-34"/>
      </g>
     </g>
    </g>
    <g id="xtick_4">
     <g id="line2d_11">
      <path clip-path="url(#p5e6c322fc6)" d="M 294.036313 294.16 
L 294.036313 24.84 
" style="fill:none;stroke:#b0b0b0;stroke-linecap:square;stroke-width:0.8;"/>
     </g>
     <g id="line2d_12">
      <g>
       <use style="stroke:#000000;stroke-width:0.8;" x="294.036313" xlink:href="#mc7082de620" y="294.16"/>
      </g>
     </g>
     <g id="text_4">
      <!-- 6 -->
      <defs>
       <path d="M 33.015625 40.375 
Q 26.375 40.375 22.484375 35.828125 
Q 18.609375 31.296875 18.609375 23.390625 
Q 18.609375 15.53125 22.484375 10.953125 
Q 26.375 6.390625 33.015625 6.390625 
Q 39.65625 6.390625 43.53125 10.953125 
Q 47.40625 15.53125 47.40625 23.390625 
Q 47.40625 31.296875 43.53125 35.828125 
Q 39.65625 40.375 33.015625 40.375 
M 52.59375 71.296875 
L 52.59375 62.3125 
Q 48.875 64.0625 45.09375 64.984375 
Q 41.3125 65.921875 37.59375 65.921875 
Q 27.828125 65.921875 22.671875 59.328125 
Q 17.53125 52.734375 16.796875 39.40625 
Q 19.671875 43.65625 24.015625 45.921875 
Q 28.375 48.1875 33.59375 48.1875 
Q 44.578125 48.1875 50.953125 41.515625 
Q 57.328125 34.859375 57.328125 23.390625 
Q 57.328125 12.15625 50.6875 5.359375 
Q 44.046875 -1.421875 33.015625 -1.421875 
Q 20.359375 -1.421875 13.671875 8.265625 
Q 6.984375 17.96875 6.984375 36.375 
Q 6.984375 53.65625 15.1875 63.9375 
Q 23.390625 74.21875 37.203125 74.21875 
Q 40.921875 74.21875 44.703125 73.484375 
Q 48.484375 72.75 52.59375 71.296875 
" id="DejaVuSans-36"/>
      </defs>
      <g transform="translate(287.673813 316.356875)scale(0.2 -0.2)">
       <use xlink:href="#DejaVuSans-36"/>
      </g>
     </g>
    </g>
    <g id="xtick_5">
     <g id="line2d_13">
      <path clip-path="url(#p5e6c322fc6)" d="M 373.101751 294.16 
L 373.101751 24.84 
" style="fill:none;stroke:#b0b0b0;stroke-linecap:square;stroke-width:0.8;"/>
     </g>
     <g id="line2d_14">
      <g>
       <use style="stroke:#000000;stroke-width:0.8;" x="373.101751" xlink:href="#mc7082de620" y="294.16"/>
      </g>
     </g>
     <g id="text_5">
      <!-- 8 -->
      <defs>
       <path d="M 31.78125 34.625 
Q 24.75 34.625 20.71875 30.859375 
Q 16.703125 27.09375 16.703125 20.515625 
Q 16.703125 13.921875 20.71875 10.15625 
Q 24.75 6.390625 31.78125 6.390625 
Q 38.8125 6.390625 42.859375 10.171875 
Q 46.921875 13.96875 46.921875 20.515625 
Q 46.921875 27.09375 42.890625 30.859375 
Q 38.875 34.625 31.78125 34.625 
M 21.921875 38.8125 
Q 15.578125 40.375 12.03125 44.71875 
Q 8.5 49.078125 8.5 55.328125 
Q 8.5 64.0625 14.71875 69.140625 
Q 20.953125 74.21875 31.78125 74.21875 
Q 42.671875 74.21875 48.875 69.140625 
Q 55.078125 64.0625 55.078125 55.328125 
Q 55.078125 49.078125 51.53125 44.71875 
Q 48 40.375 41.703125 38.8125 
Q 48.828125 37.15625 52.796875 32.3125 
Q 56.78125 27.484375 56.78125 20.515625 
Q 56.78125 9.90625 50.3125 4.234375 
Q 43.84375 -1.421875 31.78125 -1.421875 
Q 19.734375 -1.421875 13.25 4.234375 
Q 6.78125 9.90625 6.78125 20.515625 
Q 6.78125 27.484375 10.78125 32.3125 
Q 14.796875 37.15625 21.921875 38.8125 
M 18.3125 54.390625 
Q 18.3125 48.734375 21.84375 45.5625 
Q 25.390625 42.390625 31.78125 42.390625 
Q 38.140625 42.390625 41.71875 45.5625 
Q 45.3125 48.734375 45.3125 54.390625 
Q 45.3125 60.0625 41.71875 63.234375 
Q 38.140625 66.40625 31.78125 66.40625 
Q 25.390625 66.40625 21.84375 63.234375 
Q 18.3125 60.0625 18.3125 54.390625 
" id="DejaVuSans-38"/>
      </defs>
      <g transform="translate(366.739251 316.356875)scale(0.2 -0.2)">
       <use xlink:href="#DejaVuSans-38"/>
      </g>
     </g>
    </g>
    <g id="xtick_6">
     <g id="line2d_15">
      <defs>
       <path d="M 0 0 
L 0 2 
" id="mee42cd2356" style="stroke:#000000;stroke-width:0.6;"/>
      </defs>
      <g>
       <use style="stroke:#000000;stroke-width:0.6;" x="68.740534" xlink:href="#mee42cd2356" y="294.16"/>
      </g>
     </g>
    </g>
    <g id="xtick_7">
     <g id="line2d_16">
      <g>
       <use style="stroke:#000000;stroke-width:0.6;" x="80.641068" xlink:href="#mee42cd2356" y="294.16"/>
      </g>
     </g>
    </g>
    <g id="xtick_8">
     <g id="line2d_17">
      <g>
       <use style="stroke:#000000;stroke-width:0.6;" x="87.602435" xlink:href="#mee42cd2356" y="294.16"/>
      </g>
     </g>
    </g>
    <g id="xtick_9">
     <g id="line2d_18">
      <g>
       <use style="stroke:#000000;stroke-width:0.6;" x="92.541603" xlink:href="#mee42cd2356" y="294.16"/>
      </g>
     </g>
    </g>
    <g id="xtick_10">
     <g id="line2d_19">
      <g>
       <use style="stroke:#000000;stroke-width:0.6;" x="147.805972" xlink:href="#mee42cd2356" y="294.16"/>
      </g>
     </g>
    </g>
    <g id="xtick_11">
     <g id="line2d_20">
      <g>
       <use style="stroke:#000000;stroke-width:0.6;" x="159.706506" xlink:href="#mee42cd2356" y="294.16"/>
      </g>
     </g>
    </g>
    <g id="xtick_12">
     <g id="line2d_21">
      <g>
       <use style="stroke:#000000;stroke-width:0.6;" x="166.667872" xlink:href="#mee42cd2356" y="294.16"/>
      </g>
     </g>
    </g>
    <g id="xtick_13">
     <g id="line2d_22">
      <g>
       <use style="stroke:#000000;stroke-width:0.6;" x="171.60704" xlink:href="#mee42cd2356" y="294.16"/>
      </g>
     </g>
    </g>
    <g id="xtick_14">
     <g id="line2d_23">
      <g>
       <use style="stroke:#000000;stroke-width:0.6;" x="226.87141" xlink:href="#mee42cd2356" y="294.16"/>
      </g>
     </g>
    </g>
    <g id="xtick_15">
     <g id="line2d_24">
      <g>
       <use style="stroke:#000000;stroke-width:0.6;" x="238.771944" xlink:href="#mee42cd2356" y="294.16"/>
      </g>
     </g>
    </g>
    <g id="xtick_16">
     <g id="line2d_25">
      <g>
       <use style="stroke:#000000;stroke-width:0.6;" x="245.73331" xlink:href="#mee42cd2356" y="294.16"/>
      </g>
     </g>
    </g>
    <g id="xtick_17">
     <g id="line2d_26">
      <g>
       <use style="stroke:#000000;stroke-width:0.6;" x="250.672478" xlink:href="#mee42cd2356" y="294.16"/>
      </g>
     </g>
    </g>
    <g id="xtick_18">
     <g id="line2d_27">
      <g>
       <use style="stroke:#000000;stroke-width:0.6;" x="305.936848" xlink:href="#mee42cd2356" y="294.16"/>
      </g>
     </g>
    </g>
    <g id="xtick_19">
     <g id="line2d_28">
      <g>
       <use style="stroke:#000000;stroke-width:0.6;" x="317.837382" xlink:href="#mee42cd2356" y="294.16"/>
      </g>
     </g>
    </g>
    <g id="xtick_20">
     <g id="line2d_29">
      <g>
       <use style="stroke:#000000;stroke-width:0.6;" x="324.798748" xlink:href="#mee42cd2356" y="294.16"/>
      </g>
     </g>
    </g>
    <g id="xtick_21">
     <g id="line2d_30">
      <g>
       <use style="stroke:#000000;stroke-width:0.6;" x="329.737916" xlink:href="#mee42cd2356" y="294.16"/>
      </g>
     </g>
    </g>
    <g id="xtick_22">
     <g id="line2d_31">
      <g>
       <use style="stroke:#000000;stroke-width:0.6;" x="385.002285" xlink:href="#mee42cd2356" y="294.16"/>
      </g>
     </g>
    </g>
    <g id="xtick_23">
     <g id="line2d_32">
      <g>
       <use style="stroke:#000000;stroke-width:0.6;" x="396.90282" xlink:href="#mee42cd2356" y="294.16"/>
      </g>
     </g>
    </g>
    <g id="text_6">
     <!-- log10(# f-evals / dimension) -->
     <defs>
      <path d="M 9.421875 75.984375 
L 18.40625 75.984375 
L 18.40625 0 
L 9.421875 0 
z
" id="DejaVuSans-6c"/>
      <path d="M 30.609375 48.390625 
Q 23.390625 48.390625 19.1875 42.75 
Q 14.984375 37.109375 14.984375 27.296875 
Q 14.984375 17.484375 19.15625 11.84375 
Q 23.34375 6.203125 30.609375 6.203125 
Q 37.796875 6.203125 41.984375 11.859375 
Q 46.1875 17.53125 46.1875 27.296875 
Q 46.1875 37.015625 41.984375 42.703125 
Q 37.796875 48.390625 30.609375 48.390625 
M 30.609375 56 
Q 42.328125 56 49.015625 48.375 
Q 55.71875 40.765625 55.71875 27.296875 
Q 55.71875 13.875 49.015625 6.21875 
Q 42.328125 -1.421875 30.609375 -1.421875 
Q 18.84375 -1.421875 12.171875 6.21875 
Q 5.515625 13.875 5.515625 27.296875 
Q 5.515625 40.765625 12.171875 48.375 
Q 18.84375 56 30.609375 56 
" id="DejaVuSans-6f"/>
      <path d="M 45.40625 27.984375 
Q 45.40625 37.75 41.375 43.109375 
Q 37.359375 48.484375 30.078125 48.484375 
Q 22.859375 48.484375 18.828125 43.109375 
Q 14.796875 37.75 14.796875 27.984375 
Q 14.796875 18.265625 18.828125 12.890625 
Q 22.859375 7.515625 30.078125 7.515625 
Q 37.359375 7.515625 41.375 12.890625 
Q 45.40625 18.265625 45.40625 27.984375 
M 54.390625 6.78125 
Q 54.390625 -7.171875 48.1875 -13.984375 
Q 42 -20.796875 29.203125 -20.796875 
Q 24.46875 -20.796875 20.265625 -20.09375 
Q 16.0625 -19.390625 12.109375 -17.921875 
L 12.109375 -9.1875 
Q 16.0625 -11.328125 19.921875 -12.34375 
Q 23.78125 -13.375 27.78125 -13.375 
Q 36.625 -13.375 41.015625 -8.765625 
Q 45.40625 -4.15625 45.40625 5.171875 
L 45.40625 9.625 
Q 42.625 4.78125 38.28125 2.390625 
Q 33.9375 0 27.875 0 
Q 17.828125 0 11.671875 7.65625 
Q 5.515625 15.328125 5.515625 27.984375 
Q 5.515625 40.671875 11.671875 48.328125 
Q 17.828125 56 27.875 56 
Q 33.9375 56 38.28125 53.609375 
Q 42.625 51.21875 45.40625 46.390625 
L 45.40625 54.6875 
L 54.390625 54.6875 
z
" id="DejaVuSans-67"/>
      <path d="M 12.40625 8.296875 
L 28.515625 8.296875 
L 28.515625 63.921875 
L 10.984375 60.40625 
L 10.984375 69.390625 
L 28.421875 72.90625 
L 38.28125 72.90625 
L 38.28125 8.296875 
L 54.390625 8.296875 
L 54.390625 0 
L 12.40625 0 
z
" id="DejaVuSans-31"/>
      <path d="M 31 75.875 
Q 24.46875 64.65625 21.28125 53.65625 
Q 18.109375 42.671875 18.109375 31.390625 
Q 18.109375 20.125 21.3125 9.0625 
Q 24.515625 -2 31 -13.1875 
L 23.1875 -13.1875 
Q 15.875 -1.703125 12.234375 9.375 
Q 8.59375 20.453125 8.59375 31.390625 
Q 8.59375 42.28125 12.203125 53.3125 
Q 15.828125 64.359375 23.1875 75.875 
z
" id="DejaVuSans-28"/>
      <path d="M 51.125 44 
L 36.921875 44 
L 32.8125 27.6875 
L 47.125 27.6875 
z
M 43.796875 71.78125 
L 38.71875 51.515625 
L 52.984375 51.515625 
L 58.109375 71.78125 
L 65.921875 71.78125 
L 60.890625 51.515625 
L 76.125 51.515625 
L 76.125 44 
L 58.984375 44 
L 54.984375 27.6875 
L 70.515625 27.6875 
L 70.515625 20.21875 
L 53.078125 20.21875 
L 48 0 
L 40.1875 0 
L 45.21875 20.21875 
L 30.90625 20.21875 
L 25.875 0 
L 18.015625 0 
L 23.09375 20.21875 
L 7.71875 20.21875 
L 7.71875 27.6875 
L 24.90625 27.6875 
L 29 44 
L 13.28125 44 
L 13.28125 51.515625 
L 30.90625 51.515625 
L 35.890625 71.78125 
z
" id="DejaVuSans-23"/>
      <path id="DejaVuSans-20"/>
      <path d="M 37.109375 75.984375 
L 37.109375 68.5 
L 28.515625 68.5 
Q 23.6875 68.5 21.796875 66.546875 
Q 19.921875 64.59375 19.921875 59.515625 
L 19.921875 54.6875 
L 34.71875 54.6875 
L 34.71875 47.703125 
L 19.921875 47.703125 
L 19.921875 0 
L 10.890625 0 
L 10.890625 47.703125 
L 2.296875 47.703125 
L 2.296875 54.6875 
L 10.890625 54.6875 
L 10.890625 58.5 
Q 10.890625 67.625 15.140625 71.796875 
Q 19.390625 75.984375 28.609375 75.984375 
z
" id="DejaVuSans-66"/>
      <path d="M 4.890625 31.390625 
L 31.203125 31.390625 
L 31.203125 23.390625 
L 4.890625 23.390625 
z
" id="DejaVuSans-2d"/>
      <path d="M 56.203125 29.59375 
L 56.203125 25.203125 
L 14.890625 25.203125 
Q 15.484375 15.921875 20.484375 11.0625 
Q 25.484375 6.203125 34.421875 6.203125 
Q 39.59375 6.203125 44.453125 7.46875 
Q 49.3125 8.734375 54.109375 11.28125 
L 54.109375 2.78125 
Q 49.265625 0.734375 44.1875 -0.34375 
Q 39.109375 -1.421875 33.890625 -1.421875 
Q 20.796875 -1.421875 13.15625 6.1875 
Q 5.515625 13.8125 5.515625 26.8125 
Q 5.515625 40.234375 12.765625 48.109375 
Q 20.015625 56 32.328125 56 
Q 43.359375 56 49.78125 48.890625 
Q 56.203125 41.796875 56.203125 29.59375 
M 47.21875 32.234375 
Q 47.125 39.59375 43.09375 43.984375 
Q 39.0625 48.390625 32.421875 48.390625 
Q 24.90625 48.390625 20.390625 44.140625 
Q 15.875 39.890625 15.1875 32.171875 
z
" id="DejaVuSans-65"/>
      <path d="M 2.984375 54.6875 
L 12.5 54.6875 
L 29.59375 8.796875 
L 46.6875 54.6875 
L 56.203125 54.6875 
L 35.6875 0 
L 23.484375 0 
z
" id="DejaVuSans-76"/>
      <path d="M 34.28125 27.484375 
Q 23.390625 27.484375 19.1875 25 
Q 14.984375 22.515625 14.984375 16.5 
Q 14.984375 11.71875 18.140625 8.90625 
Q 21.296875 6.109375 26.703125 6.109375 
Q 34.1875 6.109375 38.703125 11.40625 
Q 43.21875 16.703125 43.21875 25.484375 
L 43.21875 27.484375 
z
M 52.203125 31.203125 
L 52.203125 0 
L 43.21875 0 
L 43.21875 8.296875 
Q 40.140625 3.328125 35.546875 0.953125 
Q 30.953125 -1.421875 24.3125 -1.421875 
Q 15.921875 -1.421875 10.953125 3.296875 
Q 6 8.015625 6 15.921875 
Q 6 25.140625 12.171875 29.828125 
Q 18.359375 34.515625 30.609375 34.515625 
L 43.21875 34.515625 
L 43.21875 35.40625 
Q 43.21875 41.609375 39.140625 45 
Q 35.0625 48.390625 27.6875 48.390625 
Q 23 48.390625 18.546875 47.265625 
Q 14.109375 46.140625 10.015625 43.890625 
L 10.015625 52.203125 
Q 14.9375 54.109375 19.578125 55.046875 
Q 24.21875 56 28.609375 56 
Q 40.484375 56 46.34375 49.84375 
Q 52.203125 43.703125 52.203125 31.203125 
" id="DejaVuSans-61"/>
      <path d="M 44.28125 53.078125 
L 44.28125 44.578125 
Q 40.484375 46.53125 36.375 47.5 
Q 32.28125 48.484375 27.875 48.484375 
Q 21.1875 48.484375 17.84375 46.4375 
Q 14.5 44.390625 14.5 40.28125 
Q 14.5 37.15625 16.890625 35.375 
Q 19.28125 33.59375 26.515625 31.984375 
L 29.59375 31.296875 
Q 39.15625 29.25 43.1875 25.515625 
Q 47.21875 21.78125 47.21875 15.09375 
Q 47.21875 7.46875 41.1875 3.015625 
Q 35.15625 -1.421875 24.609375 -1.421875 
Q 20.21875 -1.421875 15.453125 -0.5625 
Q 10.6875 0.296875 5.421875 2 
L 5.421875 11.28125 
Q 10.40625 8.6875 15.234375 7.390625 
Q 20.0625 6.109375 24.8125 6.109375 
Q 31.15625 6.109375 34.5625 8.28125 
Q 37.984375 10.453125 37.984375 14.40625 
Q 37.984375 18.0625 35.515625 20.015625 
Q 33.0625 21.96875 24.703125 23.78125 
L 21.578125 24.515625 
Q 13.234375 26.265625 9.515625 29.90625 
Q 5.8125 33.546875 5.8125 39.890625 
Q 5.8125 47.609375 11.28125 51.796875 
Q 16.75 56 26.8125 56 
Q 31.78125 56 36.171875 55.265625 
Q 40.578125 54.546875 44.28125 53.078125 
" id="DejaVuSans-73"/>
      <path d="M 25.390625 72.90625 
L 33.6875 72.90625 
L 8.296875 -9.28125 
L 0 -9.28125 
z
" id="DejaVuSans-2f"/>
      <path d="M 45.40625 46.390625 
L 45.40625 75.984375 
L 54.390625 75.984375 
L 54.390625 0 
L 45.40625 0 
L 45.40625 8.203125 
Q 42.578125 3.328125 38.25 0.953125 
Q 33.9375 -1.421875 27.875 -1.421875 
Q 17.96875 -1.421875 11.734375 6.484375 
Q 5.515625 14.40625 5.515625 27.296875 
Q 5.515625 40.1875 11.734375 48.09375 
Q 17.96875 56 27.875 56 
Q 33.9375 56 38.25 53.625 
Q 42.578125 51.265625 45.40625 46.390625 
M 14.796875 27.296875 
Q 14.796875 17.390625 18.875 11.75 
Q 22.953125 6.109375 30.078125 6.109375 
Q 37.203125 6.109375 41.296875 11.75 
Q 45.40625 17.390625 45.40625 27.296875 
Q 45.40625 37.203125 41.296875 42.84375 
Q 37.203125 48.484375 30.078125 48.484375 
Q 22.953125 48.484375 18.875 42.84375 
Q 14.796875 37.203125 14.796875 27.296875 
" id="DejaVuSans-64"/>
      <path d="M 9.421875 54.6875 
L 18.40625 54.6875 
L 18.40625 0 
L 9.421875 0 
z
M 9.421875 75.984375 
L 18.40625 75.984375 
L 18.40625 64.59375 
L 9.421875 64.59375 
z
" id="DejaVuSans-69"/>
      <path d="M 52 44.1875 
Q 55.375 50.25 60.0625 53.125 
Q 64.75 56 71.09375 56 
Q 79.640625 56 84.28125 50.015625 
Q 88.921875 44.046875 88.921875 33.015625 
L 88.921875 0 
L 79.890625 0 
L 79.890625 32.71875 
Q 79.890625 40.578125 77.09375 44.375 
Q 74.3125 48.1875 68.609375 48.1875 
Q 61.625 48.1875 57.5625 43.546875 
Q 53.515625 38.921875 53.515625 30.90625 
L 53.515625 0 
L 44.484375 0 
L 44.484375 32.71875 
Q 44.484375 40.625 41.703125 44.40625 
Q 38.921875 48.1875 33.109375 48.1875 
Q 26.21875 48.1875 22.15625 43.53125 
Q 18.109375 38.875 18.109375 30.90625 
L 18.109375 0 
L 9.078125 0 
L 9.078125 54.6875 
L 18.109375 54.6875 
L 18.109375 46.1875 
Q 21.1875 51.21875 25.484375 53.609375 
Q 29.78125 56 35.6875 56 
Q 41.65625 56 45.828125 52.96875 
Q 50 49.953125 52 44.1875 
" id="DejaVuSans-6d"/>
      <path d="M 54.890625 33.015625 
L 54.890625 0 
L 45.90625 0 
L 45.90625 32.71875 
Q 45.90625 40.484375 42.875 44.328125 
Q 39.84375 48.1875 33.796875 48.1875 
Q 26.515625 48.1875 22.3125 43.546875 
Q 18.109375 38.921875 18.109375 30.90625 
L 18.109375 0 
L 9.078125 0 
L 9.078125 54.6875 
L 18.109375 54.6875 
L 18.109375 46.1875 
Q 21.34375 51.125 25.703125 53.5625 
Q 30.078125 56 35.796875 56 
Q 45.21875 56 50.046875 50.171875 
Q 54.890625 44.34375 54.890625 33.015625 
" id="DejaVuSans-6e"/>
      <path d="M 8.015625 75.875 
L 15.828125 75.875 
Q 23.140625 64.359375 26.78125 53.3125 
Q 30.421875 42.28125 30.421875 31.390625 
Q 30.421875 20.453125 26.78125 9.375 
Q 23.140625 -1.703125 15.828125 -13.1875 
L 8.015625 -13.1875 
Q 14.5 -2 17.703125 9.0625 
Q 20.90625 20.125 20.90625 31.390625 
Q 20.90625 42.671875 17.703125 53.65625 
Q 14.5 64.65625 8.015625 75.875 
" id="DejaVuSans-29"/>
     </defs>
     <g transform="translate(107.571219 337.433594)scale(0.17 -0.17)">
      <use xlink:href="#DejaVuSans-6c"/>
      <use x="27.783203" xlink:href="#DejaVuSans-6f"/>
      <use x="88.964844" xlink:href="#DejaVuSans-67"/>
      <use x="152.441406" xlink:href="#DejaVuSans-31"/>
      <use x="216.064453" xlink:href="#DejaVuSans-30"/>
      <use x="279.6875" xlink:href="#DejaVuSans-28"/>
      <use x="318.701172" xlink:href="#DejaVuSans-23"/>
      <use x="402.490234" xlink:href="#DejaVuSans-20"/>
      <use x="434.277344" xlink:href="#DejaVuSans-66"/>
      <use x="469.404297" xlink:href="#DejaVuSans-2d"/>
      <use x="505.488281" xlink:href="#DejaVuSans-65"/>
      <use x="567.011719" xlink:href="#DejaVuSans-76"/>
      <use x="626.191406" xlink:href="#DejaVuSans-61"/>
      <use x="687.470703" xlink:href="#DejaVuSans-6c"/>
      <use x="715.253906" xlink:href="#DejaVuSans-73"/>
      <use x="767.353516" xlink:href="#DejaVuSans-20"/>
      <use x="799.140625" xlink:href="#DejaVuSans-2f"/>
      <use x="832.832031" xlink:href="#DejaVuSans-20"/>
      <use x="864.619141" xlink:href="#DejaVuSans-64"/>
      <use x="928.095703" xlink:href="#DejaVuSans-69"/>
      <use x="955.878906" xlink:href="#DejaVuSans-6d"/>
      <use x="1053.291016" xlink:href="#DejaVuSans-65"/>
      <use x="1114.814453" xlink:href="#DejaVuSans-6e"/>
      <use x="1178.193359" xlink:href="#DejaVuSans-73"/>
      <use x="1230.292969" xlink:href="#DejaVuSans-69"/>
      <use x="1258.076172" xlink:href="#DejaVuSans-6f"/>
      <use x="1319.257812" xlink:href="#DejaVuSans-6e"/>
      <use x="1382.636719" xlink:href="#DejaVuSans-29"/>
     </g>
    </g>
   </g>
   <g id="matplotlib.axis_2">
    <g id="ytick_1">
     <g id="line2d_33">
      <path clip-path="url(#p5e6c322fc6)" d="M 56.84 294.16 
L 399.984 294.16 
" style="fill:none;stroke:#b0b0b0;stroke-linecap:square;stroke-width:0.8;"/>
     </g>
     <g id="line2d_34">
      <defs>
       <path d="M 0 0 
L -3.5 0 
" id="m1ad2c0f093" style="stroke:#000000;stroke-width:0.8;"/>
      </defs>
      <g>
       <use style="stroke:#000000;stroke-width:0.8;" x="56.84" xlink:href="#m1ad2c0f093" y="294.16"/>
      </g>
     </g>
     <g id="text_7">
      <!-- 0.0 -->
      <defs>
       <path d="M 10.6875 12.40625 
L 21 12.40625 
L 21 0 
L 10.6875 0 
z
" id="DejaVuSans-2e"/>
      </defs>
      <g transform="translate(24.395 300.23875)scale(0.16 -0.16)">
       <use xlink:href="#DejaVuSans-30"/>
       <use x="63.623047" xlink:href="#DejaVuSans-2e"/>
       <use x="95.410156" xlink:href="#DejaVuSans-30"/>
      </g>
     </g>
    </g>
    <g id="ytick_2">
     <g id="line2d_35">
      <path clip-path="url(#p5e6c322fc6)" d="M 56.84 240.829307 
L 399.984 240.829307 
" style="fill:none;stroke:#b0b0b0;stroke-linecap:square;stroke-width:0.8;"/>
     </g>
     <g id="line2d_36">
      <g>
       <use style="stroke:#000000;stroke-width:0.8;" x="56.84" xlink:href="#m1ad2c0f093" y="240.829307"/>
      </g>
     </g>
     <g id="text_8">
      <!-- 0.2 -->
      <g transform="translate(24.395 246.908057)scale(0.16 -0.16)">
       <use xlink:href="#DejaVuSans-30"/>
       <use x="63.623047" xlink:href="#DejaVuSans-2e"/>
       <use x="95.410156" xlink:href="#DejaVuSans-32"/>
      </g>
     </g>
    </g>
    <g id="ytick_3">
     <g id="line2d_37">
      <path clip-path="url(#p5e6c322fc6)" d="M 56.84 187.498614 
L 399.984 187.498614 
" style="fill:none;stroke:#b0b0b0;stroke-linecap:square;stroke-width:0.8;"/>
     </g>
     <g id="line2d_38">
      <g>
       <use style="stroke:#000000;stroke-width:0.8;" x="56.84" xlink:href="#m1ad2c0f093" y="187.498614"/>
      </g>
     </g>
     <g id="text_9">
      <!-- 0.4 -->
      <g transform="translate(24.395 193.577364)scale(0.16 -0.16)">
       <use xlink:href="#DejaVuSans-30"/>
       <use x="63.623047" xlink:href="#DejaVuSans-2e"/>
       <use x="95.410156" xlink:href="#DejaVuSans-34"/>
      </g>
     </g>
    </g>
    <g id="ytick_4">
     <g id="line2d_39">
      <path clip-path="url(#p5e6c322fc6)" d="M 56.84 134.167921 
L 399.984 134.167921 
" style="fill:none;stroke:#b0b0b0;stroke-linecap:square;stroke-width:0.8;"/>
     </g>
     <g id="line2d_40">
      <g>
       <use style="stroke:#000000;stroke-width:0.8;" x="56.84" xlink:href="#m1ad2c0f093" y="134.167921"/>
      </g>
     </g>
     <g id="text_10">
      <!-- 0.6 -->
      <g transform="translate(24.395 140.246671)scale(0.16 -0.16)">
       <use xlink:href="#DejaVuSans-30"/>
       <use x="63.623047" xlink:href="#DejaVuSans-2e"/>
       <use x="95.410156" xlink:href="#DejaVuSans-36"/>
      </g>
     </g>
    </g>
    <g id="ytick_5">
     <g id="line2d_41">
      <path clip-path="url(#p5e6c322fc6)" d="M 56.84 80.837228 
L 399.984 80.837228 
" style="fill:none;stroke:#b0b0b0;stroke-linecap:square;stroke-width:0.8;"/>
     </g>
     <g id="line2d_42">
      <g>
       <use style="stroke:#000000;stroke-width:0.8;" x="56.84" xlink:href="#m1ad2c0f093" y="80.837228"/>
      </g>
     </g>
     <g id="text_11">
      <!-- 0.8 -->
      <g transform="translate(24.395 86.915978)scale(0.16 -0.16)">
       <use xlink:href="#DejaVuSans-30"/>
       <use x="63.623047" xlink:href="#DejaVuSans-2e"/>
       <use x="95.410156" xlink:href="#DejaVuSans-38"/>
      </g>
     </g>
    </g>
    <g id="ytick_6">
     <g id="line2d_43">
      <path clip-path="url(#p5e6c322fc6)" d="M 56.84 27.506535 
L 399.984 27.506535 
" style="fill:none;stroke:#b0b0b0;stroke-linecap:square;stroke-width:0.8;"/>
     </g>
     <g id="line2d_44">
      <g>
       <use style="stroke:#000000;stroke-width:0.8;" x="56.84" xlink:href="#m1ad2c0f093" y="27.506535"/>
      </g>
     </g>
     <g id="text_12">
      <!-- 1.0 -->
      <g transform="translate(24.395 33.585285)scale(0.16 -0.16)">
       <use xlink:href="#DejaVuSans-31"/>
       <use x="63.623047" xlink:href="#DejaVuSans-2e"/>
       <use x="95.410156" xlink:href="#DejaVuSans-30"/>
      </g>
     </g>
    </g>
    <g id="text_13">
     <!-- Fraction of function,target pairs -->
     <defs>
      <path d="M 9.8125 72.90625 
L 51.703125 72.90625 
L 51.703125 64.59375 
L 19.671875 64.59375 
L 19.671875 43.109375 
L 48.578125 43.109375 
L 48.578125 34.8125 
L 19.671875 34.8125 
L 19.671875 0 
L 9.8125 0 
z
" id="DejaVuSans-46"/>
      <path d="M 41.109375 46.296875 
Q 39.59375 47.171875 37.8125 47.578125 
Q 36.03125 48 33.890625 48 
Q 26.265625 48 22.1875 43.046875 
Q 18.109375 38.09375 18.109375 28.8125 
L 18.109375 0 
L 9.078125 0 
L 9.078125 54.6875 
L 18.109375 54.6875 
L 18.109375 46.1875 
Q 20.953125 51.171875 25.484375 53.578125 
Q 30.03125 56 36.53125 56 
Q 37.453125 56 38.578125 55.875 
Q 39.703125 55.765625 41.0625 55.515625 
z
" id="DejaVuSans-72"/>
      <path d="M 48.78125 52.59375 
L 48.78125 44.1875 
Q 44.96875 46.296875 41.140625 47.34375 
Q 37.3125 48.390625 33.40625 48.390625 
Q 24.65625 48.390625 19.8125 42.84375 
Q 14.984375 37.3125 14.984375 27.296875 
Q 14.984375 17.28125 19.8125 11.734375 
Q 24.65625 6.203125 33.40625 6.203125 
Q 37.3125 6.203125 41.140625 7.25 
Q 44.96875 8.296875 48.78125 10.40625 
L 48.78125 2.09375 
Q 45.015625 0.34375 40.984375 -0.53125 
Q 36.96875 -1.421875 32.421875 -1.421875 
Q 20.0625 -1.421875 12.78125 6.34375 
Q 5.515625 14.109375 5.515625 27.296875 
Q 5.515625 40.671875 12.859375 48.328125 
Q 20.21875 56 33.015625 56 
Q 37.15625 56 41.109375 55.140625 
Q 45.0625 54.296875 48.78125 52.59375 
" id="DejaVuSans-63"/>
      <path d="M 18.3125 70.21875 
L 18.3125 54.6875 
L 36.8125 54.6875 
L 36.8125 47.703125 
L 18.3125 47.703125 
L 18.3125 18.015625 
Q 18.3125 11.328125 20.140625 9.421875 
Q 21.96875 7.515625 27.59375 7.515625 
L 36.8125 7.515625 
L 36.8125 0 
L 27.59375 0 
Q 17.1875 0 13.234375 3.875 
Q 9.28125 7.765625 9.28125 18.015625 
L 9.28125 47.703125 
L 2.6875 47.703125 
L 2.6875 54.6875 
L 9.28125 54.6875 
L 9.28125 70.21875 
z
" id="DejaVuSans-74"/>
      <path d="M 8.5 21.578125 
L 8.5 54.6875 
L 17.484375 54.6875 
L 17.484375 21.921875 
Q 17.484375 14.15625 20.5 10.265625 
Q 23.53125 6.390625 29.59375 6.390625 
Q 36.859375 6.390625 41.078125 11.03125 
Q 45.3125 15.671875 45.3125 23.6875 
L 45.3125 54.6875 
L 54.296875 54.6875 
L 54.296875 0 
L 45.3125 0 
L 45.3125 8.40625 
Q 42.046875 3.421875 37.71875 1 
Q 33.40625 -1.421875 27.6875 -1.421875 
Q 18.265625 -1.421875 13.375 4.4375 
Q 8.5 10.296875 8.5 21.578125 
M 31.109375 56 
z
" id="DejaVuSans-75"/>
      <path d="M 11.71875 12.40625 
L 22.015625 12.40625 
L 22.015625 4 
L 14.015625 -11.625 
L 7.71875 -11.625 
L 11.71875 4 
z
" id="DejaVuSans-2c"/>
      <path d="M 18.109375 8.203125 
L 18.109375 -20.796875 
L 9.078125 -20.796875 
L 9.078125 54.6875 
L 18.109375 54.6875 
L 18.109375 46.390625 
Q 20.953125 51.265625 25.265625 53.625 
Q 29.59375 56 35.59375 56 
Q 45.5625 56 51.78125 48.09375 
Q 58.015625 40.1875 58.015625 27.296875 
Q 58.015625 14.40625 51.78125 6.484375 
Q 45.5625 -1.421875 35.59375 -1.421875 
Q 29.59375 -1.421875 25.265625 0.953125 
Q 20.953125 3.328125 18.109375 8.203125 
M 48.6875 27.296875 
Q 48.6875 37.203125 44.609375 42.84375 
Q 40.53125 48.484375 33.40625 48.484375 
Q 26.265625 48.484375 22.1875 42.84375 
Q 18.109375 37.203125 18.109375 27.296875 
Q 18.109375 17.390625 22.1875 11.75 
Q 26.265625 6.109375 33.40625 6.109375 
Q 40.53125 6.109375 44.609375 11.75 
Q 48.6875 17.390625 48.6875 27.296875 
" id="DejaVuSans-70"/>
     </defs>
     <g transform="translate(16.859531 294.639375)rotate(-90)scale(0.17 -0.17)">
      <use xlink:href="#DejaVuSans-46"/>
      <use x="57.410156" xlink:href="#DejaVuSans-72"/>
      <use x="98.523438" xlink:href="#DejaVuSans-61"/>
      <use x="159.802734" xlink:href="#DejaVuSans-63"/>
      <use x="214.783203" xlink:href="#DejaVuSans-74"/>
      <use x="253.992188" xlink:href="#DejaVuSans-69"/>
      <use x="281.775391" xlink:href="#DejaVuSans-6f"/>
      <use x="342.957031" xlink:href="#DejaVuSans-6e"/>
      <use x="406.335938" xlink:href="#DejaVuSans-20"/>
      <use x="438.123047" xlink:href="#DejaVuSans-6f"/>
      <use x="499.304688" xlink:href="#DejaVuSans-66"/>
      <use x="534.509766" xlink:href="#DejaVuSans-20"/>
      <use x="566.296875" xlink:href="#DejaVuSans-66"/>
      <use x="601.501953" xlink:href="#DejaVuSans-75"/>
      <use x="664.880859" xlink:href="#DejaVuSans-6e"/>
      <use x="728.259766" xlink:href="#DejaVuSans-63"/>
      <use x="783.240234" xlink:href="#DejaVuSans-74"/>
      <use x="822.449219" xlink:href="#DejaVuSans-69"/>
      <use x="850.232422" xlink:href="#DejaVuSans-6f"/>
      <use x="911.414062" xlink:href="#DejaVuSans-6e"/>
      <use x="974.792969" xlink:href="#DejaVuSans-2c"/>
      <use x="1006.580078" xlink:href="#DejaVuSans-74"/>
      <use x="1045.789062" xlink:href="#DejaVuSans-61"/>
      <use x="1107.068359" xlink:href="#DejaVuSans-72"/>
      <use x="1148.166016" xlink:href="#DejaVuSans-67"/>
      <use x="1211.642578" xlink:href="#DejaVuSans-65"/>
      <use x="1273.166016" xlink:href="#DejaVuSans-74"/>
      <use x="1312.375" xlink:href="#DejaVuSans-20"/>
      <use x="1344.162109" xlink:href="#DejaVuSans-70"/>
      <use x="1407.638672" xlink:href="#DejaVuSans-61"/>
      <use x="1468.917969" xlink:href="#DejaVuSans-69"/>
      <use x="1496.701172" xlink:href="#DejaVuSans-72"/>
      <use x="1537.814453" xlink:href="#DejaVuSans-73"/>
     </g>
    </g>
   </g>
   <g id="line2d_45">
    <defs>
     <path d="M 0 1.5 
C 0.397805 1.5 0.77937 1.341951 1.06066 1.06066 
C 1.341951 0.77937 1.5 0.397805 1.5 0 
C 1.5 -0.397805 1.341951 -0.77937 1.06066 -1.06066 
C 0.77937 -1.341951 0.397805 -1.5 0 -1.5 
C -0.397805 -1.5 -0.77937 -1.341951 -1.06066 -1.06066 
C -1.341951 -0.77937 -1.5 -0.397805 -1.5 0 
C -1.5 0.397805 -1.341951 0.77937 -1.06066 1.06066 
C -0.77937 1.341951 -0.397805 1.5 0 1.5 
z
" id="m08f4441ca3" style="stroke:#f5deb3;"/>
    </defs>
    <g>
     <use style="fill:#f5deb3;stroke:#f5deb3;" x="255.781472" xlink:href="#m08f4441ca3" y="59.688849"/>
     <use style="fill:#f5deb3;stroke:#f5deb3;" x="255.781472" xlink:href="#m08f4441ca3" y="59.688849"/>
    </g>
   </g>
   <g id="line2d_46">
    <defs>
     <path d="M 0 1.5 
C 0.397805 1.5 0.77937 1.341951 1.06066 1.06066 
C 1.341951 0.77937 1.5 0.397805 1.5 0 
C 1.5 -0.397805 1.341951 -0.77937 1.06066 -1.06066 
C 0.77937 -1.341951 0.397805 -1.5 0 -1.5 
C -0.397805 -1.5 -0.77937 -1.341951 -1.06066 -1.06066 
C -1.341951 -0.77937 -1.5 -0.397805 -1.5 0 
C -1.5 0.397805 -1.341951 0.77937 -1.06066 1.06066 
C -0.77937 1.341951 -0.397805 1.5 0 1.5 
z
" id="md04a77b668" style="stroke:#000080;"/>
    </defs>
    <g>
     <use style="fill:#000080;stroke:#000080;" x="287.187859" xlink:href="#md04a77b668" y="119.456005"/>
     <use style="fill:#000080;stroke:#000080;" x="287.187859" xlink:href="#md04a77b668" y="119.456005"/>
    </g>
   </g>
   <g id="line2d_47">
    <path d="M 44.939466 294.16 
L 44.939466 282.666316 
L 136.824671 282.666316 
L 136.824671 282.206569 
L 142.923938 282.206569 
L 142.923938 281.746821 
L 143.813139 281.746821 
L 143.813139 280.367579 
L 144.135064 280.367579 
L 144.135064 278.988337 
L 144.710025 278.988337 
L 144.710025 278.52859 
L 145.853381 278.52859 
L 145.853381 278.068843 
L 147.105106 278.068843 
L 147.105106 277.609095 
L 147.934258 277.609095 
L 148.019252 276.229853 
L 148.355084 276.229853 
L 148.355084 275.770106 
L 148.479346 275.770106 
L 148.479346 274.850611 
L 149.127304 274.850611 
L 149.127304 273.931116 
L 150.130713 273.931116 
L 150.130713 273.011622 
L 150.280008 273.011622 
L 150.31713 269.79339 
L 150.391134 269.79339 
L 150.391134 268.873896 
L 150.720259 268.873896 
L 150.720259 267.954401 
L 151.395026 267.954401 
L 151.395026 266.575159 
L 151.568275 266.575159 
L 151.568275 266.115411 
L 151.773893 266.115411 
L 151.875785 263.816675 
L 151.909615 263.816675 
L 152.010708 262.437433 
L 152.077774 262.437433 
L 152.144579 261.058191 
L 152.37637 261.058191 
L 152.37637 260.138696 
L 152.572587 260.138696 
L 152.572587 257.839959 
L 152.95842 257.839959 
L 152.95842 257.380212 
L 153.085128 257.380212 
L 153.085128 256.460717 
L 153.335773 256.460717 
L 153.335773 256.00097 
L 153.796091 256.00097 
L 153.796091 254.621728 
L 154.361984 254.621728 
L 154.361984 253.702233 
L 154.767338 253.702233 
L 154.824473 250.943749 
L 154.909819 250.943749 
L 154.966482 248.645012 
L 155.274829 248.645012 
L 155.357971 247.26577 
L 155.413176 247.26577 
L 155.413176 245.42678 
L 155.632239 245.42678 
L 155.740732 243.587791 
L 155.767748 243.587791 
L 155.767748 242.668296 
L 156.115145 242.668296 
L 156.220637 240.36956 
L 156.246909 240.36956 
L 156.273141 238.990318 
L 156.37767 238.990318 
L 156.403704 236.691581 
L 156.507443 236.691581 
L 156.559079 234.852591 
L 156.71306 234.852591 
L 156.789537 233.473349 
L 157.849831 233.473349 
L 157.849831 233.013602 
L 157.968976 233.013602 
L 158.016404 231.174612 
L 158.55261 231.174612 
L 158.644177 229.335623 
L 159.293826 229.335623 
L 159.337736 226.577139 
L 159.598864 226.577139 
L 159.598864 226.117392 
L 159.962126 226.117392 
L 159.962126 225.197897 
L 160.172274 225.197897 
L 160.193148 223.358907 
L 160.297139 223.358907 
L 160.37988 221.519918 
L 160.605385 221.519918 
L 160.666375 216.922445 
L 161.74777 216.922445 
L 161.74777 216.00295 
L 162.693083 216.00295 
L 162.693083 215.083455 
L 163.208276 215.083455 
L 163.312964 211.865224 
L 163.571926 211.865224 
L 163.571926 210.945729 
L 163.894435 210.945729 
L 163.961566 208.646992 
L 164.111659 208.646992 
L 164.111659 206.808003 
L 165.064382 206.808003 
L 165.064382 205.428761 
L 165.189589 205.428761 
L 165.282898 204.509266 
L 165.559821 204.509266 
L 165.559821 204.049519 
L 165.772159 204.049519 
L 165.772159 203.589771 
L 166.923493 203.589771 
L 166.923493 202.670277 
L 167.147559 202.670277 
L 167.147559 201.291034 
L 167.450952 201.291034 
L 167.546373 199.452045 
L 167.882895 199.452045 
L 167.882895 198.53255 
L 168.459613 198.53255 
L 168.459613 197.613056 
L 169.104706 197.613056 
L 169.104706 197.153308 
L 169.821951 197.153308 
L 169.821951 196.233814 
L 170.081911 196.233814 
L 170.187134 195.314319 
L 170.590313 195.314319 
L 170.590313 194.854572 
L 171.050872 194.854572 
L 171.050872 194.394824 
L 171.936505 194.394824 
L 171.936505 193.475329 
L 173.648305 193.475329 
L 173.648305 193.015582 
L 174.897498 193.015582 
L 174.897498 192.555835 
L 175.334833 192.555835 
L 175.334833 192.096087 
L 175.727574 192.096087 
L 175.727574 191.63634 
L 176.703758 191.63634 
L 176.703758 191.176593 
L 178.554093 191.176593 
L 178.554093 189.797351 
L 178.98537 189.797351 
L 178.98537 188.877856 
L 179.730027 188.877856 
L 179.823373 187.038867 
L 180.146142 187.038867 
L 180.146142 186.579119 
L 182.995684 186.579119 
L 182.995684 186.119372 
L 184.222171 186.119372 
L 184.222171 185.659624 
L 184.794096 185.659624 
L 184.794096 184.74013 
L 185.178049 184.74013 
L 185.178049 184.280382 
L 185.572641 184.280382 
L 185.572641 182.90114 
L 185.794788 182.90114 
L 185.794788 181.062151 
L 186.453526 181.062151 
L 186.453526 180.142656 
L 186.758121 180.142656 
L 186.758121 179.223161 
L 186.934802 179.223161 
L 186.934802 177.384172 
L 187.317216 177.384172 
L 187.342983 176.464677 
L 189.990184 176.464677 
L 189.990184 175.545183 
L 190.73513 175.545183 
L 190.73513 175.085435 
L 191.820054 175.085435 
L 191.820054 174.625688 
L 192.806173 174.625688 
L 192.806173 173.706193 
L 193.130852 173.706193 
L 193.130852 173.246446 
L 193.304568 173.246446 
L 193.304568 172.326951 
L 198.603067 172.326951 
L 198.603067 171.867204 
L 200.52276 171.867204 
L 200.52276 171.407456 
L 201.20027 171.407456 
L 201.20027 170.947709 
L 203.155972 170.947709 
L 203.155972 170.487962 
L 203.546132 170.487962 
L 203.559486 165.430741 
L 203.837557 165.430741 
L 203.837557 164.970994 
L 205.150434 164.970994 
L 205.150434 164.511246 
L 207.875933 164.511246 
L 207.875933 164.051499 
L 208.258362 164.051499 
L 208.258362 163.591751 
L 208.54032 163.591751 
L 208.54032 163.132004 
L 209.817483 163.132004 
L 209.862623 162.212509 
L 210.662106 162.212509 
L 210.662106 161.752762 
L 212.57892 161.752762 
L 212.57892 160.833267 
L 212.877278 160.833267 
L 212.877278 159.913773 
L 214.248535 159.913773 
L 214.248535 158.994278 
L 214.532676 158.994278 
L 214.532676 158.074783 
L 217.312852 158.074783 
L 217.312852 157.615036 
L 217.919177 157.615036 
L 217.919177 156.695541 
L 218.454434 156.695541 
L 218.454434 154.856552 
L 219.589227 154.856552 
L 219.589227 154.396804 
L 220.12841 154.396804 
L 220.132859 152.557815 
L 220.390843 152.557815 
L 220.390843 152.098068 
L 221.745231 152.098068 
L 221.745231 151.178573 
L 223.406037 151.178573 
L 223.406037 150.718826 
L 223.897881 150.718826 
L 223.897881 150.259078 
L 226.155335 150.259078 
L 226.155335 149.799331 
L 226.467081 149.799331 
L 226.467081 149.339583 
L 226.943795 149.339583 
L 226.943795 148.879836 
L 227.568705 148.879836 
L 227.568705 147.500594 
L 230.06022 147.500594 
L 230.142367 146.581099 
L 230.666778 146.581099 
L 230.666778 146.121352 
L 233.119088 146.121352 
L 233.119088 145.661605 
L 235.267134 145.661605 
L 235.267134 143.822615 
L 236.09342 143.822615 
L 236.09342 142.903121 
L 236.503384 142.903121 
L 236.567679 139.684889 
L 236.617142 139.684889 
L 236.617142 138.765394 
L 237.997146 138.765394 
L 238.052065 137.386152 
L 240.513148 137.386152 
L 240.513148 136.00691 
L 241.542192 136.00691 
L 241.542192 135.547163 
L 243.119216 135.547163 
L 243.119216 135.087416 
L 243.340697 135.087416 
L 243.340697 133.708173 
L 243.660066 133.708173 
L 243.723233 131.869184 
L 244.931699 131.869184 
L 244.931699 131.409437 
L 246.298212 131.409437 
L 246.298212 130.030195 
L 247.932387 130.030195 
L 247.932387 129.570447 
L 250.641116 129.570447 
L 250.641116 129.1107 
L 258.727538 129.1107 
L 258.727538 128.650953 
L 259.357328 128.650953 
L 259.357328 127.731458 
L 259.574201 127.731458 
L 259.574201 127.27171 
L 259.699102 127.27171 
L 259.699102 126.811963 
L 260.803038 126.811963 
L 260.803038 126.352216 
L 263.036587 126.352216 
L 263.036691 125.432721 
L 263.692361 125.432721 
L 263.692411 124.513226 
L 264.586815 124.513226 
L 264.586815 124.053479 
L 265.309486 124.053479 
L 265.309486 123.593732 
L 268.01308 123.593732 
L 268.01308 123.133984 
L 270.734599 123.133984 
L 270.734599 122.674237 
L 272.179036 122.674237 
L 272.179036 122.21449 
L 273.280528 122.21449 
L 273.280528 121.754742 
L 275.278125 121.754742 
L 275.278125 121.294995 
L 276.062877 121.294995 
L 276.062877 120.835248 
L 276.708766 120.835248 
L 276.708766 119.915753 
L 287.187859 119.915753 
L 287.187859 119.456005 
L 333.569032 119.456005 
L 333.569032 119.456005 
" style="fill:none;stroke:#000080;stroke-linecap:square;stroke-width:1.5;"/>
   </g>
   <g id="line2d_48">
    <defs>
     <path d="M 0 6 
C 1.591219 6 3.117479 5.367802 4.242641 4.242641 
C 5.367802 3.117479 6 1.591219 6 0 
C 6 -1.591219 5.367802 -3.117479 4.242641 -4.242641 
C 3.117479 -5.367802 1.591219 -6 0 -6 
C -1.591219 -6 -3.117479 -5.367802 -4.242641 -4.242641 
C -5.367802 -3.117479 -6 -1.591219 -6 0 
C -6 1.591219 -5.367802 3.117479 -4.242641 4.242641 
C -3.117479 5.367802 -1.591219 6 0 6 
z
" id="m9fe968bb1d" style="stroke:#000080;stroke-width:1.5;"/>
    </defs>
    <g>
     <use style="fill:none;stroke:#000080;stroke-width:1.5;" x="160.37988" xlink:href="#m9fe968bb1d" y="221.519918"/>
     <use style="fill:none;stroke:#000080;stroke-width:1.5;" x="220.132859" xlink:href="#m9fe968bb1d" y="153.47731"/>
     <use style="fill:none;stroke:#000080;stroke-width:1.5;" x="287.187859" xlink:href="#m9fe968bb1d" y="119.915753"/>
     <use style="fill:none;stroke:#000080;stroke-width:1.5;" x="287.187859" xlink:href="#m9fe968bb1d" y="119.456005"/>
     <use style="fill:none;stroke:#000080;stroke-width:1.5;" x="333.569032" xlink:href="#m9fe968bb1d" y="119.456005"/>
    </g>
   </g>
   <g id="line2d_49">
    <path style="fill:none;stroke:#000080;stroke-linecap:square;stroke-width:1.5;"/>
    <g/>
   </g>
   <g id="line2d_50">
    <path clip-path="url(#p5e6c322fc6)" d="M 254.513421 129.1107 
" style="fill:none;stroke:#000080;stroke-linecap:square;stroke-width:1.5;"/>
    <defs>
     <path d="M -12 12 
L 12 -12 
M -12 -12 
L 12 12 
" id="mbd0da14f99" style="stroke:#000080;stroke-width:3;"/>
    </defs>
    <g clip-path="url(#p5e6c322fc6)">
     <use style="fill:#000080;stroke:#000080;stroke-width:3;" x="254.513421" xlink:href="#mbd0da14f99" y="129.1107"/>
    </g>
   </g>
   <g id="line2d_51">
    <defs>
     <path d="M 0 1.5 
C 0.397805 1.5 0.77937 1.341951 1.06066 1.06066 
C 1.341951 0.77937 1.5 0.397805 1.5 0 
C 1.5 -0.397805 1.341951 -0.77937 1.06066 -1.06066 
C 0.77937 -1.341951 0.397805 -1.5 0 -1.5 
C -0.397805 -1.5 -0.77937 -1.341951 -1.06066 -1.06066 
C -1.341951 -0.77937 -1.5 -0.397805 -1.5 0 
C -1.5 0.397805 -1.341951 0.77937 -1.06066 1.06066 
C -0.77937 1.341951 -0.397805 1.5 0 1.5 
z
" id="m8167e9486e" style="stroke:#ff00ff;"/>
    </defs>
    <g>
     <use style="fill:#ff00ff;stroke:#ff00ff;" x="350.482049" xlink:href="#m8167e9486e" y="105.663585"/>
     <use style="fill:#ff00ff;stroke:#ff00ff;" x="350.482049" xlink:href="#m8167e9486e" y="105.663585"/>
    </g>
   </g>
   <g id="line2d_52">
    <path d="M 44.939466 294.16 
L 44.939466 291.401516 
L 63.801366 291.401516 
L 63.801366 290.482021 
L 68.740534 290.482021 
L 68.740534 286.804042 
L 72.57165 286.804042 
L 72.57165 285.884548 
L 78.348489 285.884548 
L 78.348489 284.505306 
L 80.641068 284.505306 
L 80.641068 274.850611 
L 87.602435 274.850611 
L 87.602435 274.390864 
L 88.976675 274.390864 
L 88.976675 273.471369 
L 91.433551 273.471369 
L 91.433551 272.092127 
L 92.541603 272.092127 
L 92.541603 271.63238 
L 93.582457 271.63238 
L 93.582457 269.79339 
L 97.210389 269.79339 
L 97.210389 269.333643 
L 98.009084 269.333643 
L 98.009084 268.414148 
L 101.525167 268.414148 
L 101.525167 266.575159 
L 102.149557 266.575159 
L 102.149557 266.115411 
L 102.752035 266.115411 
L 102.752035 265.195917 
L 104.970451 265.195917 
L 104.970451 264.276422 
L 105.482991 264.276422 
L 105.482991 260.138696 
L 106.464335 260.138696 
L 106.464335 259.678948 
L 111.757512 259.678948 
L 111.757512 257.839959 
L 112.777744 257.839959 
L 112.777744 256.920464 
L 115.234619 256.920464 
L 115.234619 256.460717 
L 116.342671 256.460717 
L 116.342671 255.081475 
L 118.124742 255.081475 
L 118.124742 254.621728 
L 118.364869 254.621728 
L 118.364869 253.702233 
L 119.293141 253.702233 
L 119.293141 252.782738 
L 120.805841 252.782738 
L 120.805841 250.943749 
L 122.004153 250.943749 
L 122.004153 250.484001 
L 124.175739 250.484001 
L 124.175739 249.104759 
L 125.484475 249.104759 
L 125.484475 248.645012 
L 127.83602 248.645012 
L 127.83602 247.26577 
L 130.025276 247.26577 
L 130.025276 246.346275 
L 130.145759 246.346275 
L 130.145759 245.42678 
L 130.502219 245.42678 
L 130.502219 244.507286 
L 131.858358 244.507286 
L 131.858358 244.047538 
L 133.807961 244.047538 
L 133.904687 242.208549 
L 134.380309 242.208549 
L 134.380309 241.748802 
L 134.751541 241.748802 
L 134.751541 241.289054 
L 138.155041 241.289054 
L 138.155041 240.829307 
L 139.805092 240.829307 
L 139.805092 239.909812 
L 141.497332 239.909812 
L 141.497332 238.990318 
L 141.620849 238.990318 
L 141.620849 238.53057 
L 142.225448 238.53057 
L 142.225448 237.151328 
L 143.03764 237.151328 
L 143.03764 236.691581 
L 143.595119 236.691581 
L 143.595119 235.312339 
L 145.116408 235.312339 
L 145.116408 234.852591 
L 145.464269 234.852591 
L 145.464269 234.392844 
L 147.015451 234.392844 
L 147.015451 232.553855 
L 152.144579 232.553855 
L 152.144579 232.094107 
L 152.277414 232.094107 
L 152.277414 231.174612 
L 152.669861 231.174612 
L 152.669861 230.255118 
L 155.468205 230.255118 
L 155.468205 229.79537 
L 155.632239 229.79537 
L 155.632239 229.335623 
L 156.062155 229.335623 
L 156.062155 227.956381 
L 157.266131 227.956381 
L 157.266131 227.496634 
L 158.181377 227.496634 
L 158.181377 226.117392 
L 158.960871 226.117392 
L 158.960871 224.278402 
L 161.440146 224.278402 
L 161.440146 223.358907 
L 163.674427 223.358907 
L 163.674427 222.439413 
L 164.342559 222.439413 
L 164.342559 221.519918 
L 165.017194 221.519918 
L 165.017194 220.600423 
L 167.654779 220.600423 
L 167.654779 219.680929 
L 168.677348 219.680929 
L 168.677348 218.761434 
L 169.375669 218.761434 
L 169.375669 217.841939 
L 171.714012 217.841939 
L 171.714012 216.922445 
L 172.888584 216.922445 
L 172.888584 216.00295 
L 173.931781 216.00295 
L 173.931781 215.543202 
L 175.498143 215.543202 
L 175.498143 214.16396 
L 178.060201 214.16396 
L 178.060201 213.244466 
L 180.424474 213.244466 
L 180.424474 212.324971 
L 181.085744 212.324971 
L 181.085744 210.026234 
L 182.649504 210.026234 
L 182.649504 209.10674 
L 184.294071 209.10674 
L 184.294071 208.646992 
L 185.3861 208.646992 
L 185.3861 208.187245 
L 186.358357 208.187245 
L 186.358357 207.727497 
L 187.000591 207.727497 
L 187.000591 206.348255 
L 187.398677 206.348255 
L 187.398677 205.888508 
L 187.842014 205.888508 
L 187.842014 204.509266 
L 189.31887 204.509266 
L 189.31887 201.750782 
L 192.231655 201.750782 
L 192.231655 199.911792 
L 193.140039 199.911792 
L 193.140039 199.452045 
L 194.017317 199.452045 
L 194.017317 198.992298 
L 196.408518 198.992298 
L 196.408518 197.613056 
L 196.788951 197.613056 
L 196.788951 196.693561 
L 197.73285 196.693561 
L 197.73285 195.774066 
L 198.142616 195.774066 
L 198.142616 194.854572 
L 198.731756 194.854572 
L 198.733966 193.015582 
L 202.442644 193.015582 
L 202.442644 192.096087 
L 204.692654 192.096087 
L 204.692654 191.63634 
L 206.146137 191.63634 
L 206.146137 189.797351 
L 207.519274 189.797351 
L 207.519274 188.418109 
L 208.059227 188.418109 
L 208.059227 187.498614 
L 209.235193 187.498614 
L 209.263943 186.579119 
L 209.35348 186.579119 
L 209.35348 185.659624 
L 210.899874 185.659624 
L 210.899874 184.74013 
L 213.857329 184.74013 
L 213.857329 184.280382 
L 215.164644 184.280382 
L 215.164644 183.820635 
L 215.546572 183.820635 
L 215.546572 183.360888 
L 216.170963 183.360888 
L 216.170963 182.90114 
L 216.622062 182.90114 
L 216.622062 181.981646 
L 216.96711 181.981646 
L 216.96711 180.602404 
L 220.669664 180.602404 
L 220.669664 180.142656 
L 221.557916 180.142656 
L 221.58772 178.303667 
L 222.821614 178.303667 
L 222.821614 177.843919 
L 223.348165 177.843919 
L 223.348165 177.384172 
L 223.958001 177.384172 
L 223.958001 176.00493 
L 224.63515 176.00493 
L 224.63515 175.545183 
L 226.465323 175.545183 
L 226.465323 174.165941 
L 227.988446 174.165941 
L 227.988446 172.786699 
L 228.851971 172.786699 
L 228.851971 172.326951 
L 230.959161 172.326951 
L 230.959161 171.867204 
L 232.089229 171.867204 
L 232.089229 170.947709 
L 232.802381 170.947709 
L 232.802381 170.487962 
L 234.663087 170.487962 
L 234.706926 168.648972 
L 234.918816 168.648972 
L 234.918816 168.189225 
L 235.485262 168.189225 
L 235.485262 167.26973 
L 240.64412 167.26973 
L 240.64412 165.430741 
L 241.765373 165.430741 
L 241.765373 164.970994 
L 241.90273 164.970994 
L 241.90273 164.511246 
L 242.561289 164.511246 
L 242.561289 163.591751 
L 242.740205 163.591751 
L 242.740205 163.132004 
L 243.744451 163.132004 
L 243.744451 162.672257 
L 247.198305 162.672257 
L 247.198305 161.752762 
L 247.828353 161.752762 
L 247.828353 161.293015 
L 248.155365 161.293015 
L 248.155365 160.37352 
L 249.278545 160.37352 
L 249.278545 159.913773 
L 250.543551 159.913773 
L 250.543551 159.454025 
L 251.008258 159.454025 
L 251.008258 158.534531 
L 252.999093 158.534531 
L 252.999093 156.695541 
L 253.570548 156.695541 
L 253.570548 155.776046 
L 253.711096 155.776046 
L 253.711096 154.856552 
L 256.362718 154.856552 
L 256.362718 153.937057 
L 257.541888 153.937057 
L 257.541888 152.557815 
L 257.873458 152.557815 
L 257.873458 152.098068 
L 259.560011 152.098068 
L 259.560011 151.63832 
L 259.883134 151.63832 
L 259.883134 150.718826 
L 260.66215 150.718826 
L 260.66215 149.799331 
L 261.118396 149.799331 
L 261.118396 148.420089 
L 261.411597 148.420089 
L 261.411597 147.960341 
L 262.06068 147.960341 
L 262.06068 147.500594 
L 264.247526 147.500594 
L 264.247526 146.581099 
L 266.072375 146.581099 
L 266.072375 146.121352 
L 266.805151 146.121352 
L 266.805151 144.74211 
L 268.393102 144.74211 
L 268.393102 143.822615 
L 272.109507 143.822615 
L 272.109507 143.362868 
L 272.653209 143.362868 
L 272.653209 142.443373 
L 274.591685 142.443373 
L 274.591685 141.983626 
L 278.870935 141.983626 
L 278.881667 140.144636 
L 280.57985 140.144636 
L 280.57985 139.684889 
L 281.682021 139.684889 
L 281.682021 138.765394 
L 282.506727 138.765394 
L 282.506727 138.305647 
L 282.83703 138.305647 
L 282.83703 137.386152 
L 283.514879 137.386152 
L 283.514879 136.00691 
L 284.146207 136.00691 
L 284.219218 134.627668 
L 284.995852 134.627668 
L 284.995852 133.708173 
L 288.05177 133.708173 
L 288.05177 133.248426 
L 288.656433 133.248426 
L 288.704947 130.949689 
L 288.905483 130.949689 
L 288.905483 130.030195 
L 289.787724 130.030195 
L 289.787724 128.650953 
L 291.073132 128.650953 
L 291.073132 128.191205 
L 291.317949 128.191205 
L 291.317949 127.731458 
L 295.541225 127.731458 
L 295.640965 126.811963 
L 296.306951 126.811963 
L 296.306951 126.352216 
L 297.111714 126.352216 
L 297.111714 125.892468 
L 297.446855 125.892468 
L 297.514475 124.972974 
L 297.881324 124.972974 
L 297.881324 124.513226 
L 299.121685 124.513226 
L 299.121685 124.053479 
L 299.665047 124.053479 
L 299.665047 123.593732 
L 299.979998 123.593732 
L 299.979998 123.133984 
L 300.114256 123.133984 
L 300.114256 122.674237 
L 301.720618 122.674237 
L 301.720618 120.835248 
L 303.943638 120.835248 
L 303.943638 119.915753 
L 304.794947 119.915753 
L 304.794947 118.536511 
L 306.43917 118.536511 
L 306.43917 118.076763 
L 307.052251 118.076763 
L 307.052251 117.617016 
L 309.162783 117.617016 
L 309.162783 117.157269 
L 310.189324 117.157269 
L 310.189324 116.237774 
L 311.59544 116.237774 
L 311.59544 115.778027 
L 312.039042 115.778027 
L 312.039042 115.318279 
L 315.114718 115.318279 
L 315.114718 114.858532 
L 317.275923 114.858532 
L 317.275923 114.398785 
L 319.526005 114.398785 
L 319.526005 113.939037 
L 321.22081 113.939037 
L 321.22081 113.47929 
L 324.159715 113.47929 
L 324.159715 113.019543 
L 327.082372 113.019543 
L 327.082372 112.559795 
L 328.77147 112.559795 
L 328.77147 112.100048 
L 329.260885 112.100048 
L 329.260885 111.180553 
L 331.336746 111.180553 
L 331.336746 110.261058 
L 333.569032 110.261058 
L 333.569032 110.261058 
" style="fill:none;stroke:#ff00ff;stroke-linecap:square;stroke-width:1.5;"/>
   </g>
   <g id="line2d_53">
    <defs>
     <path d="M -0 8.485281 
L 5.091169 0 
L 0 -8.485281 
L -5.091169 -0 
z
" id="mbcd2765ceb" style="stroke:#ff00ff;stroke-linejoin:miter;stroke-width:1.5;"/>
    </defs>
    <g>
     <use style="fill:none;stroke:#ff00ff;stroke-linejoin:miter;stroke-width:1.5;" x="115.234619" xlink:href="#mbcd2765ceb" y="256.460717"/>
     <use style="fill:none;stroke:#ff00ff;stroke-linejoin:miter;stroke-width:1.5;" x="168.677348" xlink:href="#mbcd2765ceb" y="219.680929"/>
     <use style="fill:none;stroke:#ff00ff;stroke-linejoin:miter;stroke-width:1.5;" x="234.706926" xlink:href="#mbcd2765ceb" y="168.648972"/>
     <use style="fill:none;stroke:#ff00ff;stroke-linejoin:miter;stroke-width:1.5;" x="307.052251" xlink:href="#mbcd2765ceb" y="118.076763"/>
     <use style="fill:none;stroke:#ff00ff;stroke-linejoin:miter;stroke-width:1.5;" x="331.336746" xlink:href="#mbcd2765ceb" y="110.261058"/>
     <use style="fill:none;stroke:#ff00ff;stroke-linejoin:miter;stroke-width:1.5;" x="333.569032" xlink:href="#mbcd2765ceb" y="110.261058"/>
    </g>
   </g>
   <g id="line2d_54">
    <path style="fill:none;stroke:#ff00ff;stroke-linecap:square;stroke-width:1.5;"/>
    <g/>
   </g>
   <g id="line2d_55">
    <path clip-path="url(#p5e6c322fc6)" d="M 294.036313 127.731458 
" style="fill:none;stroke:#ff00ff;stroke-linecap:square;stroke-width:1.5;"/>
    <defs>
     <path d="M -12 12 
L 12 -12 
M -12 -12 
L 12 12 
" id="m9ca1be8f07" style="stroke:#ff00ff;stroke-width:3;"/>
    </defs>
    <g clip-path="url(#p5e6c322fc6)">
     <use style="fill:#ff00ff;stroke:#ff00ff;stroke-width:3;" x="294.036313" xlink:href="#m9ca1be8f07" y="127.731458"/>
    </g>
   </g>
   <g id="line2d_56">
    <defs>
     <path d="M 0 1.5 
C 0.397805 1.5 0.77937 1.341951 1.06066 1.06066 
C 1.341951 0.77937 1.5 0.397805 1.5 0 
C 1.5 -0.397805 1.341951 -0.77937 1.06066 -1.06066 
C 0.77937 -1.341951 0.397805 -1.5 0 -1.5 
C -0.397805 -1.5 -0.77937 -1.341951 -1.06066 -1.06066 
C -1.341951 -0.77937 -1.5 -0.397805 -1.5 0 
C -1.5 0.397805 -1.341951 0.77937 -1.06066 1.06066 
C -0.77937 1.341951 -0.397805 1.5 0 1.5 
z
" id="mb946616409" style="stroke:#ffa500;"/>
    </defs>
    <g>
     <use style="fill:#ffa500;stroke:#ffa500;" x="239.075072" xlink:href="#mb946616409" y="229.79537"/>
     <use style="fill:#ffa500;stroke:#ffa500;" x="239.075072" xlink:href="#mb946616409" y="229.79537"/>
    </g>
   </g>
   <g id="line2d_57">
    <path d="M 44.939466 294.16 
L 44.939466 280.827327 
L 135.382488 280.827327 
L 135.382488 279.907832 
L 140.672053 279.907832 
L 140.672053 279.448085 
L 143.867214 279.448085 
L 143.867214 278.988337 
L 146.69792 278.988337 
L 146.69792 276.689601 
L 147.546488 276.689601 
L 147.590009 275.310358 
L 153.796091 275.310358 
L 153.796091 273.011622 
L 154.155661 273.011622 
L 154.214864 269.79339 
L 157.681625 269.79339 
L 157.681625 268.414148 
L 157.80194 268.414148 
L 157.80194 267.494653 
L 159.13925 267.494653 
L 159.13925 264.736169 
L 160.109499 264.736169 
L 160.109499 264.276422 
L 161.245043 264.276422 
L 161.245043 263.816675 
L 165.892326 263.816675 
L 165.892326 263.356927 
L 168.121172 263.356927 
L 168.121172 261.517938 
L 168.753542 261.517938 
L 168.753542 260.598443 
L 171.841504 260.598443 
L 171.841504 258.759454 
L 174.755165 258.759454 
L 174.755165 258.299706 
L 181.104268 258.299706 
L 181.104268 256.460717 
L 182.62128 256.460717 
L 182.62128 256.00097 
L 185.016654 256.00097 
L 185.016654 255.541222 
L 185.672254 255.541222 
L 185.672254 255.081475 
L 185.841684 255.081475 
L 185.907125 252.782738 
L 186.503166 252.782738 
L 186.557156 251.863243 
L 186.94798 251.863243 
L 187.018093 250.484001 
L 188.994555 250.484001 
L 189.010138 249.564507 
L 189.184482 249.564507 
L 189.184482 249.104759 
L 190.184019 249.104759 
L 190.184019 248.185265 
L 191.241765 248.185265 
L 191.279338 247.26577 
L 196.197168 247.26577 
L 196.197168 246.806023 
L 196.370515 246.806023 
L 196.370515 246.346275 
L 196.880295 246.346275 
L 196.880295 245.886528 
L 197.095612 245.886528 
L 197.105335 244.967033 
L 198.450951 244.967033 
L 198.450951 244.507286 
L 199.494845 244.507286 
L 199.520199 243.587791 
L 202.918587 243.587791 
L 202.918587 243.128044 
L 203.309038 243.128044 
L 203.309038 242.668296 
L 204.075609 242.668296 
L 204.075609 242.208549 
L 207.88242 242.208549 
L 207.918704 240.829307 
L 211.278692 240.829307 
L 211.325462 239.909812 
L 214.54412 239.909812 
L 214.558195 238.990318 
L 215.172282 238.990318 
L 215.172282 238.53057 
L 216.842859 238.53057 
L 216.93192 236.691581 
L 219.119747 236.691581 
L 219.160149 235.772086 
L 221.194375 235.772086 
L 221.244486 234.392844 
L 222.95693 234.392844 
L 222.95693 233.933097 
L 224.464647 233.933097 
L 224.464647 233.473349 
L 227.379734 233.473349 
L 227.398059 232.553855 
L 228.610868 232.553855 
L 228.610868 232.094107 
L 229.708735 232.094107 
L 229.708735 231.63436 
L 230.962544 231.63436 
L 230.962544 231.174612 
L 232.854563 231.174612 
L 232.854563 230.714865 
L 236.290205 230.714865 
L 236.290205 230.255118 
L 239.075072 230.255118 
L 239.075072 229.79537 
L 333.569032 229.79537 
L 333.569032 229.79537 
" style="fill:none;stroke:#ffa500;stroke-linecap:square;stroke-width:1.5;"/>
   </g>
   <g id="line2d_58">
    <defs>
     <path d="M 0 -6 
L -1.347084 -1.854102 
L -5.706339 -1.854102 
L -2.179628 0.708204 
L -3.526712 4.854102 
L -0 2.291796 
L 3.526712 4.854102 
L 2.179628 0.708204 
L 5.706339 -1.854102 
L 1.347084 -1.854102 
z
" id="mc3ca36c309" style="stroke:#ffa500;stroke-linejoin:bevel;stroke-width:1.5;"/>
    </defs>
    <g>
     <use style="fill:none;stroke:#ffa500;stroke-linejoin:bevel;stroke-width:1.5;" x="146.69792" xlink:href="#mc3ca36c309" y="278.988337"/>
     <use style="fill:none;stroke:#ffa500;stroke-linejoin:bevel;stroke-width:1.5;" x="204.075609" xlink:href="#mc3ca36c309" y="242.208549"/>
     <use style="fill:none;stroke:#ffa500;stroke-linejoin:bevel;stroke-width:1.5;" x="239.075072" xlink:href="#mc3ca36c309" y="230.255118"/>
     <use style="fill:none;stroke:#ffa500;stroke-linejoin:bevel;stroke-width:1.5;" x="239.075072" xlink:href="#mc3ca36c309" y="229.79537"/>
     <use style="fill:none;stroke:#ffa500;stroke-linejoin:bevel;stroke-width:1.5;" x="239.075072" xlink:href="#mc3ca36c309" y="229.79537"/>
     <use style="fill:none;stroke:#ffa500;stroke-linejoin:bevel;stroke-width:1.5;" x="333.569032" xlink:href="#mc3ca36c309" y="229.79537"/>
    </g>
   </g>
   <g id="line2d_59">
    <path style="fill:none;stroke:#ffa500;stroke-linecap:square;stroke-width:1.5;"/>
    <g/>
   </g>
   <g id="line2d_60">
    <path clip-path="url(#p5e6c322fc6)" d="M 182.979093 256.00097 
" style="fill:none;stroke:#ffa500;stroke-linecap:square;stroke-width:1.5;"/>
    <defs>
     <path d="M -12 12 
L 12 -12 
M -12 -12 
L 12 12 
" id="m4d01168835" style="stroke:#ffa500;stroke-width:3;"/>
    </defs>
    <g clip-path="url(#p5e6c322fc6)">
     <use style="fill:#ffa500;stroke:#ffa500;stroke-width:3;" x="182.979093" xlink:href="#m4d01168835" y="256.00097"/>
    </g>
   </g>
   <g id="line2d_61">
    <defs>
     <path d="M 0 1.5 
C 0.397805 1.5 0.77937 1.341951 1.06066 1.06066 
C 1.341951 0.77937 1.5 0.397805 1.5 0 
C 1.5 -0.397805 1.341951 -0.77937 1.06066 -1.06066 
C 0.77937 -1.341951 0.397805 -1.5 0 -1.5 
C -0.397805 -1.5 -0.77937 -1.341951 -1.06066 -1.06066 
C -1.341951 -0.77937 -1.5 -0.397805 -1.5 0 
C -1.5 0.397805 -1.341951 0.77937 -1.06066 1.06066 
C -0.77937 1.341951 -0.397805 1.5 0 1.5 
z
" id="m52b662537d" style="stroke:#6495ed;"/>
    </defs>
    <g>
     <use style="fill:#6495ed;stroke:#6495ed;" x="245.543407" xlink:href="#m52b662537d" y="105.663585"/>
     <use style="fill:#6495ed;stroke:#6495ed;" x="245.543407" xlink:href="#m52b662537d" y="105.663585"/>
    </g>
   </g>
   <g id="line2d_62">
    <path d="M 44.939466 294.16 
L 44.939466 280.367579 
L 56.84 280.367579 
L 56.84 278.52859 
L 63.801366 278.52859 
L 63.801366 276.689601 
L 68.740534 276.689601 
L 68.740534 275.770106 
L 80.641068 275.770106 
L 80.641068 274.850611 
L 84.472185 274.850611 
L 84.472185 273.011622 
L 92.541603 273.011622 
L 92.541603 272.092127 
L 93.582457 272.092127 
L 93.582457 270.712885 
L 94.563801 270.712885 
L 94.563801 268.873896 
L 96.372719 268.873896 
L 96.372719 266.575159 
L 100.877209 266.575159 
L 100.877209 265.655664 
L 103.897048 265.655664 
L 103.897048 264.736169 
L 104.442137 264.736169 
L 104.442137 263.816675 
L 105.482991 263.816675 
L 105.482991 263.356927 
L 108.697197 263.356927 
L 108.697197 262.89718 
L 109.909618 262.89718 
L 109.909618 260.598443 
L 111.403503 260.598443 
L 111.403503 259.678948 
L 111.757512 259.678948 
L 111.757512 259.219201 
L 112.444358 259.219201 
L 112.444358 258.759454 
L 113.740735 258.759454 
L 113.740735 257.839959 
L 114.946061 257.839959 
L 114.946061 256.920464 
L 115.797583 256.920464 
L 115.797583 256.00097 
L 118.835278 256.00097 
L 118.835278 255.541222 
L 123.124257 255.541222 
L 123.124257 255.081475 
L 124.175739 255.081475 
L 124.175739 254.621728 
L 124.678278 254.621728 
L 124.678278 253.702233 
L 126.700476 253.702233 
L 126.700476 253.242485 
L 127.277634 253.242485 
L 127.277634 252.782738 
L 127.418943 252.782738 
L 127.418943 250.484001 
L 127.559097 250.484001 
L 127.559097 249.104759 
L 128.108547 249.104759 
L 128.108547 248.645012 
L 128.771519 248.645012 
L 128.771519 247.26577 
L 130.384219 247.26577 
L 130.384219 245.886528 
L 130.851428 245.886528 
L 130.851428 245.42678 
L 130.96627 245.42678 
L 130.96627 244.047538 
L 132.181293 244.047538 
L 132.181293 242.668296 
L 136.661157 242.668296 
L 136.661157 241.289054 
L 137.385009 241.289054 
L 137.385009 239.909812 
L 137.541803 239.909812 
L 137.541803 239.450065 
L 137.927636 239.450065 
L 137.927636 237.611075 
L 138.155041 237.611075 
L 138.155041 236.231833 
L 138.453637 236.231833 
L 138.453637 235.772086 
L 138.892015 235.772086 
L 138.892015 234.392844 
L 139.598651 234.392844 
L 139.667741 231.63436 
L 140.866053 231.63436 
L 140.866053 230.714865 
L 141.310374 230.714865 
L 141.310374 229.79537 
L 141.92581 229.79537 
L 141.92581 229.335623 
L 142.165938 229.335623 
L 142.165938 228.875876 
L 143.540178 228.875876 
L 143.540178 227.496634 
L 145.365597 227.496634 
L 145.365597 227.036886 
L 146.467463 227.036886 
L 146.467463 226.577139 
L 147.934258 226.577139 
L 147.934258 225.197897 
L 148.313462 225.197897 
L 148.313462 223.818655 
L 149.047634 223.818655 
L 149.047634 223.358907 
L 149.167001 223.358907 
L 149.167001 221.060171 
L 149.364119 221.060171 
L 149.364119 220.600423 
L 149.789975 220.600423 
L 149.82817 218.761434 
L 150.280008 218.761434 
L 150.280008 216.922445 
L 151.184793 216.922445 
L 151.184793 216.462697 
L 151.602716 216.462697 
L 151.705627 213.704213 
L 152.862772 213.704213 
L 152.95842 212.324971 
L 153.242209 212.324971 
L 153.242209 210.945729 
L 153.735423 210.945729 
L 153.735423 210.485982 
L 154.332661 210.485982 
L 154.332661 209.566487 
L 154.824473 209.566487 
L 154.824473 208.646992 
L 154.966482 208.646992 
L 154.966482 208.187245 
L 155.219176 208.187245 
L 155.247025 205.888508 
L 155.330302 205.888508 
L 155.330302 204.969013 
L 155.848543 204.969013 
L 155.848543 204.509266 
L 156.141579 204.509266 
L 156.141579 204.049519 
L 156.584839 204.049519 
L 156.584839 203.130024 
L 157.266131 203.130024 
L 157.266131 202.210529 
L 157.389382 202.210529 
L 157.48735 199.452045 
L 157.753915 199.452045 
L 157.753915 198.53255 
L 158.063701 198.53255 
L 158.063701 198.072803 
L 158.506642 198.072803 
L 158.506642 197.613056 
L 159.533954 197.613056 
L 159.533954 197.153308 
L 159.749375 197.153308 
L 159.749375 195.774066 
L 160.297139 195.774066 
L 160.297139 195.314319 
L 160.686658 195.314319 
L 160.787711 193.475329 
L 160.948168 193.475329 
L 160.948168 193.015582 
L 161.10714 193.015582 
L 161.10714 192.555835 
L 161.842784 192.555835 
L 161.842784 191.63634 
L 162.273197 191.63634 
L 162.273197 191.176593 
L 162.493548 191.176593 
L 162.548197 188.418109 
L 163.312964 188.418109 
L 163.36507 186.579119 
L 163.589052 186.579119 
L 163.606161 185.199877 
L 164.243982 185.199877 
L 164.243982 184.280382 
L 164.521827 184.280382 
L 164.521827 183.820635 
L 164.763306 183.820635 
L 164.763306 183.360888 
L 165.173988 183.360888 
L 165.173988 182.90114 
L 165.620757 182.90114 
L 165.681478 181.062151 
L 165.952096 181.062151 
L 165.952096 180.142656 
L 166.321015 180.142656 
L 166.321015 179.682909 
L 166.451909 179.682909 
L 166.451909 178.763414 
L 167.519164 178.763414 
L 167.573539 177.843919 
L 168.055315 177.843919 
L 168.147444 176.00493 
L 168.265173 176.00493 
L 168.265173 175.545183 
L 168.639125 175.545183 
L 168.639125 172.786699 
L 169.07986 172.786699 
L 169.07986 172.326951 
L 169.654449 172.326951 
L 169.726436 170.487962 
L 170.601694 170.487962 
L 170.601694 169.10872 
L 170.917348 169.10872 
L 170.917348 168.648972 
L 171.477789 168.648972 
L 171.564065 167.26973 
L 171.777876 167.26973 
L 171.777876 166.350236 
L 173.223885 166.350236 
L 173.292112 164.511246 
L 173.437406 164.511246 
L 173.437406 164.051499 
L 174.210653 164.051499 
L 174.210653 163.591751 
L 174.375828 163.591751 
L 174.375828 163.132004 
L 174.593617 163.132004 
L 174.593617 161.752762 
L 175.61749 161.752762 
L 175.642956 160.833267 
L 175.870473 160.833267 
L 175.870473 159.913773 
L 176.07021 159.913773 
L 176.103275 158.074783 
L 176.365525 158.074783 
L 176.365525 157.615036 
L 177.467984 157.615036 
L 177.467984 155.776046 
L 177.589588 155.776046 
L 177.672693 153.017562 
L 178.279848 153.017562 
L 178.279848 152.557815 
L 178.625541 152.557815 
L 178.625541 152.098068 
L 179.179762 152.098068 
L 179.179762 151.178573 
L 179.378803 151.178573 
L 179.412889 149.799331 
L 179.716651 149.799331 
L 179.716651 148.879836 
L 180.62237 148.879836 
L 180.628716 147.500594 
L 180.755144 147.500594 
L 180.755144 146.121352 
L 181.251746 146.121352 
L 181.251746 145.661605 
L 181.781914 145.661605 
L 181.781914 145.201857 
L 182.450952 145.201857 
L 182.450952 144.74211 
L 182.990156 144.74211 
L 182.990156 143.822615 
L 184.067076 143.822615 
L 184.067076 143.362868 
L 184.482658 143.362868 
L 184.482658 142.443373 
L 184.972373 142.443373 
L 184.972373 141.523878 
L 185.577398 141.523878 
L 185.577398 141.064131 
L 185.897792 141.064131 
L 185.897792 140.604384 
L 186.143429 140.604384 
L 186.143429 138.765394 
L 186.642295 138.765394 
L 186.642295 137.8459 
L 188.540379 137.8459 
L 188.540379 137.386152 
L 188.963346 137.386152 
L 188.963346 136.926405 
L 189.326517 136.926405 
L 189.326517 136.466658 
L 189.64843 136.466658 
L 189.730775 135.087416 
L 190.579466 135.087416 
L 190.579466 133.248426 
L 190.829956 133.248426 
L 190.850958 132.328931 
L 191.12511 132.328931 
L 191.12511 131.409437 
L 192.621003 131.409437 
L 192.621003 129.570447 
L 193.715046 129.570447 
L 193.824243 128.191205 
L 193.859509 128.191205 
L 193.859509 127.27171 
L 194.248473 127.27171 
L 194.248473 126.352216 
L 195.774377 126.352216 
L 195.774377 125.432721 
L 195.993557 125.432721 
L 195.993557 124.513226 
L 196.181788 124.513226 
L 196.181788 123.593732 
L 196.719502 123.593732 
L 196.719502 122.674237 
L 197.394501 122.674237 
L 197.394501 121.754742 
L 197.71175 121.754742 
L 197.71175 121.294995 
L 199.140219 121.294995 
L 199.140219 119.915753 
L 199.309901 119.915753 
L 199.309901 118.996258 
L 199.677819 118.996258 
L 199.677819 118.076763 
L 199.804957 118.076763 
L 199.804957 117.617016 
L 200.532715 117.617016 
L 200.532715 117.157269 
L 201.690949 117.157269 
L 201.720692 114.858532 
L 202.796908 114.858532 
L 202.796908 113.939037 
L 203.577832 113.939037 
L 203.577832 112.559795 
L 213.935922 112.559795 
L 213.943215 111.6403 
L 215.578088 111.6403 
L 215.578088 110.720806 
L 215.951838 110.720806 
L 215.951838 110.261058 
L 222.480245 110.261058 
L 222.480245 109.801311 
L 227.135485 109.801311 
L 227.135485 109.341564 
L 227.253427 109.341564 
L 227.253427 108.881816 
L 227.659956 108.881816 
L 227.659956 108.422069 
L 231.829775 108.422069 
L 231.829775 107.962322 
L 235.133164 107.962322 
L 235.133164 107.502574 
L 237.450595 107.502574 
L 237.450595 107.042827 
L 243.584022 107.042827 
L 243.584022 106.58308 
L 245.447952 106.58308 
L 245.543407 105.663585 
L 333.569032 105.663585 
L 333.569032 105.663585 
" style="fill:none;stroke:#6495ed;stroke-linecap:square;stroke-width:1.5;"/>
   </g>
   <g id="line2d_63">
    <defs>
     <path d="M -0 6 
L 6 -6 
L -6 -6 
z
" id="m3bc4c177c9" style="stroke:#6495ed;stroke-linejoin:miter;stroke-width:1.5;"/>
    </defs>
    <g>
     <use style="fill:none;stroke:#6495ed;stroke-linejoin:miter;stroke-width:1.5;" x="124.678278" xlink:href="#m3bc4c177c9" y="253.702233"/>
     <use style="fill:none;stroke:#6495ed;stroke-linejoin:miter;stroke-width:1.5;" x="160.948168" xlink:href="#m3bc4c177c9" y="193.475329"/>
     <use style="fill:none;stroke:#6495ed;stroke-linejoin:miter;stroke-width:1.5;" x="199.140219" xlink:href="#m3bc4c177c9" y="121.294995"/>
     <use style="fill:none;stroke:#6495ed;stroke-linejoin:miter;stroke-width:1.5;" x="245.543407" xlink:href="#m3bc4c177c9" y="105.663585"/>
     <use style="fill:none;stroke:#6495ed;stroke-linejoin:miter;stroke-width:1.5;" x="245.543407" xlink:href="#m3bc4c177c9" y="105.663585"/>
     <use style="fill:none;stroke:#6495ed;stroke-linejoin:miter;stroke-width:1.5;" x="333.569032" xlink:href="#m3bc4c177c9" y="105.663585"/>
    </g>
   </g>
   <g id="line2d_64">
    <path style="fill:none;stroke:#6495ed;stroke-linecap:square;stroke-width:1.5;"/>
    <g/>
   </g>
   <g id="line2d_65">
    <path clip-path="url(#p5e6c322fc6)" d="M 204.524692 112.559795 
" style="fill:none;stroke:#6495ed;stroke-linecap:square;stroke-width:1.5;"/>
    <defs>
     <path d="M -12 12 
L 12 -12 
M -12 -12 
L 12 12 
" id="mfe4215c5ee" style="stroke:#6495ed;stroke-width:3;"/>
    </defs>
    <g clip-path="url(#p5e6c322fc6)">
     <use style="fill:#6495ed;stroke:#6495ed;stroke-width:3;" x="204.524692" xlink:href="#mfe4215c5ee" y="112.559795"/>
    </g>
   </g>
   <g id="line2d_66">
    <path d="M 333.569032 229.79537 
L 364.009226 288.826931 
" style="fill:none;stroke:#ffa500;stroke-linecap:square;stroke-width:1.5;"/>
    <g>
     <use style="fill:none;stroke:#ffa500;stroke-linejoin:bevel;stroke-width:1.5;" x="333.569032" xlink:href="#mc3ca36c309" y="229.79537"/>
     <use style="fill:none;stroke:#ffa500;stroke-linejoin:bevel;stroke-width:1.5;" x="364.009226" xlink:href="#mc3ca36c309" y="288.826931"/>
    </g>
   </g>
   <g id="line2d_67">
    <path d="M 333.569032 119.456005 
L 364.009226 224.830099 
" style="fill:none;stroke:#000080;stroke-linecap:square;stroke-width:1.5;"/>
    <g>
     <use style="fill:none;stroke:#000080;stroke-width:1.5;" x="333.569032" xlink:href="#m9fe968bb1d" y="119.456005"/>
     <use style="fill:none;stroke:#000080;stroke-width:1.5;" x="364.009226" xlink:href="#m9fe968bb1d" y="224.830099"/>
    </g>
   </g>
   <g id="line2d_68">
    <path d="M 333.569032 110.261058 
L 364.009226 160.833267 
" style="fill:none;stroke:#ff00ff;stroke-linecap:square;stroke-width:1.5;"/>
    <g>
     <use style="fill:none;stroke:#ff00ff;stroke-linejoin:miter;stroke-width:1.5;" x="333.569032" xlink:href="#mbcd2765ceb" y="110.261058"/>
     <use style="fill:none;stroke:#ff00ff;stroke-linejoin:miter;stroke-width:1.5;" x="364.009226" xlink:href="#mbcd2765ceb" y="160.833267"/>
    </g>
   </g>
   <g id="line2d_69">
    <path d="M 333.569032 105.663585 
L 364.009226 96.836436 
" style="fill:none;stroke:#6495ed;stroke-linecap:square;stroke-width:1.5;"/>
    <g>
     <use style="fill:none;stroke:#6495ed;stroke-linejoin:miter;stroke-width:1.5;" x="333.569032" xlink:href="#m3bc4c177c9" y="105.663585"/>
     <use style="fill:none;stroke:#6495ed;stroke-linejoin:miter;stroke-width:1.5;" x="364.009226" xlink:href="#m3bc4c177c9" y="96.836436"/>
    </g>
   </g>
   <g id="line2d_70">
    <path d="M 333.569032 294.16 
L 333.569032 27.506535 
" style="fill:none;stroke:#000000;stroke-linecap:square;stroke-width:1.5;"/>
   </g>
   <g id="patch_3">
    <path d="M 56.84 294.16 
L 56.84 24.84 
" style="fill:none;stroke:#000000;stroke-linecap:square;stroke-linejoin:miter;stroke-width:0.8;"/>
   </g>
   <g id="patch_4">
    <path d="M 399.984 294.16 
L 399.984 24.84 
" style="fill:none;stroke:#000000;stroke-linecap:square;stroke-linejoin:miter;stroke-width:0.8;"/>
   </g>
   <g id="patch_5">
    <path d="M 56.84 294.16 
L 399.984 294.16 
" style="fill:none;stroke:#000000;stroke-linecap:square;stroke-linejoin:miter;stroke-width:0.8;"/>
   </g>
   <g id="patch_6">
    <path d="M 56.84 24.84 
L 399.984 24.84 
" style="fill:none;stroke:#000000;stroke-linecap:square;stroke-linejoin:miter;stroke-width:0.8;"/>
   </g>
   <g id="text_14">
    <!-- adaptiveH -->
    <defs>
     <path d="M 9.8125 72.90625 
L 19.671875 72.90625 
L 19.671875 43.015625 
L 55.515625 43.015625 
L 55.515625 72.90625 
L 65.375 72.90625 
L 65.375 0 
L 55.515625 0 
L 55.515625 34.71875 
L 19.671875 34.71875 
L 19.671875 0 
L 9.8125 0 
z
" id="DejaVuSans-48"/>
    </defs>
    <g transform="translate(369.543806 293.517868)scale(0.17 -0.17)">
     <use xlink:href="#DejaVuSans-61"/>
     <use x="61.279297" xlink:href="#DejaVuSans-64"/>
     <use x="124.755859" xlink:href="#DejaVuSans-61"/>
     <use x="186.035156" xlink:href="#DejaVuSans-70"/>
     <use x="249.511719" xlink:href="#DejaVuSans-74"/>
     <use x="288.720703" xlink:href="#DejaVuSans-69"/>
     <use x="316.503906" xlink:href="#DejaVuSans-76"/>
     <use x="375.683594" xlink:href="#DejaVuSans-65"/>
     <use x="437.207031" xlink:href="#DejaVuSans-48"/>
    </g>
   </g>
   <g id="text_15">
    <!-- NSGA-II-M -->
    <defs>
     <path d="M 9.8125 72.90625 
L 23.09375 72.90625 
L 55.421875 11.921875 
L 55.421875 72.90625 
L 64.984375 72.90625 
L 64.984375 0 
L 51.703125 0 
L 19.390625 60.984375 
L 19.390625 0 
L 9.8125 0 
z
" id="DejaVuSans-4e"/>
     <path d="M 53.515625 70.515625 
L 53.515625 60.890625 
Q 47.90625 63.578125 42.921875 64.890625 
Q 37.9375 66.21875 33.296875 66.21875 
Q 25.25 66.21875 20.875 63.09375 
Q 16.5 59.96875 16.5 54.203125 
Q 16.5 49.359375 19.40625 46.890625 
Q 22.3125 44.4375 30.421875 42.921875 
L 36.375 41.703125 
Q 47.40625 39.59375 52.65625 34.296875 
Q 57.90625 29 57.90625 20.125 
Q 57.90625 9.515625 50.796875 4.046875 
Q 43.703125 -1.421875 29.984375 -1.421875 
Q 24.8125 -1.421875 18.96875 -0.25 
Q 13.140625 0.921875 6.890625 3.21875 
L 6.890625 13.375 
Q 12.890625 10.015625 18.65625 8.296875 
Q 24.421875 6.59375 29.984375 6.59375 
Q 38.421875 6.59375 43.015625 9.90625 
Q 47.609375 13.234375 47.609375 19.390625 
Q 47.609375 24.75 44.3125 27.78125 
Q 41.015625 30.8125 33.5 32.328125 
L 27.484375 33.5 
Q 16.453125 35.6875 11.515625 40.375 
Q 6.59375 45.0625 6.59375 53.421875 
Q 6.59375 63.09375 13.40625 68.65625 
Q 20.21875 74.21875 32.171875 74.21875 
Q 37.3125 74.21875 42.625 73.28125 
Q 47.953125 72.359375 53.515625 70.515625 
" id="DejaVuSans-53"/>
     <path d="M 59.515625 10.40625 
L 59.515625 29.984375 
L 43.40625 29.984375 
L 43.40625 38.09375 
L 69.28125 38.09375 
L 69.28125 6.78125 
Q 63.578125 2.734375 56.6875 0.65625 
Q 49.8125 -1.421875 42 -1.421875 
Q 24.90625 -1.421875 15.25 8.5625 
Q 5.609375 18.5625 5.609375 36.375 
Q 5.609375 54.25 15.25 64.234375 
Q 24.90625 74.21875 42 74.21875 
Q 49.125 74.21875 55.546875 72.453125 
Q 61.96875 70.703125 67.390625 67.28125 
L 67.390625 56.78125 
Q 61.921875 61.421875 55.765625 63.765625 
Q 49.609375 66.109375 42.828125 66.109375 
Q 29.4375 66.109375 22.71875 58.640625 
Q 16.015625 51.171875 16.015625 36.375 
Q 16.015625 21.625 22.71875 14.15625 
Q 29.4375 6.6875 42.828125 6.6875 
Q 48.046875 6.6875 52.140625 7.59375 
Q 56.25 8.5 59.515625 10.40625 
" id="DejaVuSans-47"/>
     <path d="M 34.1875 63.1875 
L 20.796875 26.90625 
L 47.609375 26.90625 
z
M 28.609375 72.90625 
L 39.796875 72.90625 
L 67.578125 0 
L 57.328125 0 
L 50.6875 18.703125 
L 17.828125 18.703125 
L 11.1875 0 
L 0.78125 0 
z
" id="DejaVuSans-41"/>
     <path d="M 9.8125 72.90625 
L 19.671875 72.90625 
L 19.671875 0 
L 9.8125 0 
z
" id="DejaVuSans-49"/>
     <path d="M 9.8125 72.90625 
L 24.515625 72.90625 
L 43.109375 23.296875 
L 61.8125 72.90625 
L 76.515625 72.90625 
L 76.515625 0 
L 66.890625 0 
L 66.890625 64.015625 
L 48.09375 14.015625 
L 38.1875 14.015625 
L 19.390625 64.015625 
L 19.390625 0 
L 9.8125 0 
z
" id="DejaVuSans-4d"/>
    </defs>
    <g transform="translate(369.543806 229.521037)scale(0.17 -0.17)">
     <use xlink:href="#DejaVuSans-4e"/>
     <use x="74.804688" xlink:href="#DejaVuSans-53"/>
     <use x="138.28125" xlink:href="#DejaVuSans-47"/>
     <use x="215.771484" xlink:href="#DejaVuSans-41"/>
     <use x="284.148438" xlink:href="#DejaVuSans-2d"/>
     <use x="320.232422" xlink:href="#DejaVuSans-49"/>
     <use x="349.724609" xlink:href="#DejaVuSans-49"/>
     <use x="379.216797" xlink:href="#DejaVuSans-2d"/>
     <use x="415.300781" xlink:href="#DejaVuSans-4d"/>
    </g>
   </g>
   <g id="text_16">
    <!-- RANDOMSEA -->
    <defs>
     <path d="M 44.390625 34.1875 
Q 47.5625 33.109375 50.5625 29.59375 
Q 53.5625 26.078125 56.59375 19.921875 
L 66.609375 0 
L 56 0 
L 46.6875 18.703125 
Q 43.0625 26.03125 39.671875 28.421875 
Q 36.28125 30.8125 30.421875 30.8125 
L 19.671875 30.8125 
L 19.671875 0 
L 9.8125 0 
L 9.8125 72.90625 
L 32.078125 72.90625 
Q 44.578125 72.90625 50.734375 67.671875 
Q 56.890625 62.453125 56.890625 51.90625 
Q 56.890625 45.015625 53.6875 40.46875 
Q 50.484375 35.9375 44.390625 34.1875 
M 19.671875 64.796875 
L 19.671875 38.921875 
L 32.078125 38.921875 
Q 39.203125 38.921875 42.84375 42.21875 
Q 46.484375 45.515625 46.484375 51.90625 
Q 46.484375 58.296875 42.84375 61.546875 
Q 39.203125 64.796875 32.078125 64.796875 
z
" id="DejaVuSans-52"/>
     <path d="M 19.671875 64.796875 
L 19.671875 8.109375 
L 31.59375 8.109375 
Q 46.6875 8.109375 53.6875 14.9375 
Q 60.6875 21.78125 60.6875 36.53125 
Q 60.6875 51.171875 53.6875 57.984375 
Q 46.6875 64.796875 31.59375 64.796875 
z
M 9.8125 72.90625 
L 30.078125 72.90625 
Q 51.265625 72.90625 61.171875 64.09375 
Q 71.09375 55.28125 71.09375 36.53125 
Q 71.09375 17.671875 61.125 8.828125 
Q 51.171875 0 30.078125 0 
L 9.8125 0 
z
" id="DejaVuSans-44"/>
     <path d="M 39.40625 66.21875 
Q 28.65625 66.21875 22.328125 58.203125 
Q 16.015625 50.203125 16.015625 36.375 
Q 16.015625 22.609375 22.328125 14.59375 
Q 28.65625 6.59375 39.40625 6.59375 
Q 50.140625 6.59375 56.421875 14.59375 
Q 62.703125 22.609375 62.703125 36.375 
Q 62.703125 50.203125 56.421875 58.203125 
Q 50.140625 66.21875 39.40625 66.21875 
M 39.40625 74.21875 
Q 54.734375 74.21875 63.90625 63.9375 
Q 73.09375 53.65625 73.09375 36.375 
Q 73.09375 19.140625 63.90625 8.859375 
Q 54.734375 -1.421875 39.40625 -1.421875 
Q 24.03125 -1.421875 14.8125 8.828125 
Q 5.609375 19.09375 5.609375 36.375 
Q 5.609375 53.65625 14.8125 63.9375 
Q 24.03125 74.21875 39.40625 74.21875 
" id="DejaVuSans-4f"/>
     <path d="M 9.8125 72.90625 
L 55.90625 72.90625 
L 55.90625 64.59375 
L 19.671875 64.59375 
L 19.671875 43.015625 
L 54.390625 43.015625 
L 54.390625 34.71875 
L 19.671875 34.71875 
L 19.671875 8.296875 
L 56.78125 8.296875 
L 56.78125 0 
L 9.8125 0 
z
" id="DejaVuSans-45"/>
    </defs>
    <g transform="translate(369.543806 165.524205)scale(0.17 -0.17)">
     <use xlink:href="#DejaVuSans-52"/>
     <use x="69.419922" xlink:href="#DejaVuSans-41"/>
     <use x="137.828125" xlink:href="#DejaVuSans-4e"/>
     <use x="212.632812" xlink:href="#DejaVuSans-44"/>
     <use x="289.634766" xlink:href="#DejaVuSans-4f"/>
     <use x="368.345703" xlink:href="#DejaVuSans-4d"/>
     <use x="454.625" xlink:href="#DejaVuSans-53"/>
     <use x="518.101562" xlink:href="#DejaVuSans-45"/>
     <use x="581.285156" xlink:href="#DejaVuSans-41"/>
    </g>
   </g>
   <g id="text_17">
    <!-- final  bu -->
    <defs>
     <path d="M 48.6875 27.296875 
Q 48.6875 37.203125 44.609375 42.84375 
Q 40.53125 48.484375 33.40625 48.484375 
Q 26.265625 48.484375 22.1875 42.84375 
Q 18.109375 37.203125 18.109375 27.296875 
Q 18.109375 17.390625 22.1875 11.75 
Q 26.265625 6.109375 33.40625 6.109375 
Q 40.53125 6.109375 44.609375 11.75 
Q 48.6875 17.390625 48.6875 27.296875 
M 18.109375 46.390625 
Q 20.953125 51.265625 25.265625 53.625 
Q 29.59375 56 35.59375 56 
Q 45.5625 56 51.78125 48.09375 
Q 58.015625 40.1875 58.015625 27.296875 
Q 58.015625 14.40625 51.78125 6.484375 
Q 45.5625 -1.421875 35.59375 -1.421875 
Q 29.59375 -1.421875 25.265625 0.953125 
Q 20.953125 3.328125 18.109375 8.203125 
L 18.109375 0 
L 9.078125 0 
L 9.078125 75.984375 
L 18.109375 75.984375 
z
" id="DejaVuSans-62"/>
    </defs>
    <g transform="translate(369.543806 101.527373)scale(0.17 -0.17)">
     <use xlink:href="#DejaVuSans-66"/>
     <use x="35.205078" xlink:href="#DejaVuSans-69"/>
     <use x="62.988281" xlink:href="#DejaVuSans-6e"/>
     <use x="126.367188" xlink:href="#DejaVuSans-61"/>
     <use x="187.646484" xlink:href="#DejaVuSans-6c"/>
     <use x="215.429688" xlink:href="#DejaVuSans-20"/>
     <use x="247.216797" xlink:href="#DejaVuSans-20"/>
     <use x="279.003906" xlink:href="#DejaVuSans-62"/>
     <use x="342.480469" xlink:href="#DejaVuSans-75"/>
    </g>
   </g>
   <g id="text_18">
    <!-- best 2016 -->
    <g transform="translate(369.543806 37.530541)scale(0.17 -0.17)">
     <use xlink:href="#DejaVuSans-62"/>
     <use x="63.476562" xlink:href="#DejaVuSans-65"/>
     <use x="125" xlink:href="#DejaVuSans-73"/>
     <use x="177.099609" xlink:href="#DejaVuSans-74"/>
     <use x="216.308594" xlink:href="#DejaVuSans-20"/>
     <use x="248.095703" xlink:href="#DejaVuSans-32"/>
     <use x="311.71875" xlink:href="#DejaVuSans-30"/>
     <use x="375.341797" xlink:href="#DejaVuSans-31"/>
     <use x="438.964844" xlink:href="#DejaVuSans-36"/>
    </g>
   </g>
   <g id="text_19">
    <!-- bbob-biobj f5, 2-D -->
    <defs>
     <path d="M 9.421875 54.6875 
L 18.40625 54.6875 
L 18.40625 -0.984375 
Q 18.40625 -11.421875 14.421875 -16.109375 
Q 10.453125 -20.796875 1.609375 -20.796875 
L -1.8125 -20.796875 
L -1.8125 -13.1875 
L 0.59375 -13.1875 
Q 5.71875 -13.1875 7.5625 -10.8125 
Q 9.421875 -8.453125 9.421875 -0.984375 
z
M 9.421875 75.984375 
L 18.40625 75.984375 
L 18.40625 64.59375 
L 9.421875 64.59375 
z
" id="DejaVuSans-6a"/>
     <path d="M 10.796875 72.90625 
L 49.515625 72.90625 
L 49.515625 64.59375 
L 19.828125 64.59375 
L 19.828125 46.734375 
Q 21.96875 47.46875 24.109375 47.828125 
Q 26.265625 48.1875 28.421875 48.1875 
Q 40.625 48.1875 47.75 41.5 
Q 54.890625 34.8125 54.890625 23.390625 
Q 54.890625 11.625 47.5625 5.09375 
Q 40.234375 -1.421875 26.90625 -1.421875 
Q 22.3125 -1.421875 17.546875 -0.640625 
Q 12.796875 0.140625 7.71875 1.703125 
L 7.71875 11.625 
Q 12.109375 9.234375 16.796875 8.0625 
Q 21.484375 6.890625 26.703125 6.890625 
Q 35.15625 6.890625 40.078125 11.328125 
Q 45.015625 15.765625 45.015625 23.390625 
Q 45.015625 31 40.078125 35.4375 
Q 35.15625 39.890625 26.703125 39.890625 
Q 22.75 39.890625 18.8125 39.015625 
Q 14.890625 38.140625 10.796875 36.28125 
z
" id="DejaVuSans-35"/>
    </defs>
    <g transform="translate(60.27144 35.283606)scale(0.102 -0.102)">
     <use xlink:href="#DejaVuSans-62"/>
     <use x="63.476562" xlink:href="#DejaVuSans-62"/>
     <use x="126.953125" xlink:href="#DejaVuSans-6f"/>
     <use x="188.134766" xlink:href="#DejaVuSans-62"/>
     <use x="251.611328" xlink:href="#DejaVuSans-2d"/>
     <use x="287.695312" xlink:href="#DejaVuSans-62"/>
     <use x="351.171875" xlink:href="#DejaVuSans-69"/>
     <use x="378.955078" xlink:href="#DejaVuSans-6f"/>
     <use x="440.136719" xlink:href="#DejaVuSans-62"/>
     <use x="503.613281" xlink:href="#DejaVuSans-6a"/>
     <use x="531.396484" xlink:href="#DejaVuSans-20"/>
     <use x="563.183594" xlink:href="#DejaVuSans-66"/>
     <use x="598.388672" xlink:href="#DejaVuSans-35"/>
     <use x="662.011719" xlink:href="#DejaVuSans-2c"/>
     <use x="693.798828" xlink:href="#DejaVuSans-20"/>
     <use x="725.585938" xlink:href="#DejaVuSans-32"/>
     <use x="789.208984" xlink:href="#DejaVuSans-2d"/>
     <use x="825.292969" xlink:href="#DejaVuSans-44"/>
    </g>
    <!-- 58 targets: 1..-1.0e-4 -->
    <defs>
     <path d="M 11.71875 12.40625 
L 22.015625 12.40625 
L 22.015625 0 
L 11.71875 0 
z
M 11.71875 51.703125 
L 22.015625 51.703125 
L 22.015625 39.3125 
L 11.71875 39.3125 
z
" id="DejaVuSans-3a"/>
    </defs>
    <g transform="translate(60.27144 46.705375)scale(0.102 -0.102)">
     <use xlink:href="#DejaVuSans-35"/>
     <use x="63.623047" xlink:href="#DejaVuSans-38"/>
     <use x="127.246094" xlink:href="#DejaVuSans-20"/>
     <use x="159.033203" xlink:href="#DejaVuSans-74"/>
     <use x="198.242188" xlink:href="#DejaVuSans-61"/>
     <use x="259.521484" xlink:href="#DejaVuSans-72"/>
     <use x="300.619141" xlink:href="#DejaVuSans-67"/>
     <use x="364.095703" xlink:href="#DejaVuSans-65"/>
     <use x="425.619141" xlink:href="#DejaVuSans-74"/>
     <use x="464.828125" xlink:href="#DejaVuSans-73"/>
     <use x="516.927734" xlink:href="#DejaVuSans-3a"/>
     <use x="550.619141" xlink:href="#DejaVuSans-20"/>
     <use x="582.40625" xlink:href="#DejaVuSans-31"/>
     <use x="646.029297" xlink:href="#DejaVuSans-2e"/>
     <use x="677.816406" xlink:href="#DejaVuSans-2e"/>
     <use x="709.603516" xlink:href="#DejaVuSans-2d"/>
     <use x="745.6875" xlink:href="#DejaVuSans-31"/>
     <use x="809.310547" xlink:href="#DejaVuSans-2e"/>
     <use x="841.097656" xlink:href="#DejaVuSans-30"/>
     <use x="904.720703" xlink:href="#DejaVuSans-65"/>
     <use x="966.244141" xlink:href="#DejaVuSans-2d"/>
     <use x="1002.328125" xlink:href="#DejaVuSans-34"/>
    </g>
    <!-- 10 instances -->
    <g transform="translate(60.27144 58.127144)scale(0.102 -0.102)">
     <use xlink:href="#DejaVuSans-31"/>
     <use x="63.623047" xlink:href="#DejaVuSans-30"/>
     <use x="127.246094" xlink:href="#DejaVuSans-20"/>
     <use x="159.033203" xlink:href="#DejaVuSans-69"/>
     <use x="186.816406" xlink:href="#DejaVuSans-6e"/>
     <use x="250.195312" xlink:href="#DejaVuSans-73"/>
     <use x="302.294922" xlink:href="#DejaVuSans-74"/>
     <use x="341.503906" xlink:href="#DejaVuSans-61"/>
     <use x="402.783203" xlink:href="#DejaVuSans-6e"/>
     <use x="466.162109" xlink:href="#DejaVuSans-63"/>
     <use x="521.142578" xlink:href="#DejaVuSans-65"/>
     <use x="582.666016" xlink:href="#DejaVuSans-73"/>
    </g>
   </g>
   <g id="text_20">
    <!-- v2.2.1.10, hv-hash=ff0e71e8cd978373 -->
    <defs>
     <path d="M 54.890625 33.015625 
L 54.890625 0 
L 45.90625 0 
L 45.90625 32.71875 
Q 45.90625 40.484375 42.875 44.328125 
Q 39.84375 48.1875 33.796875 48.1875 
Q 26.515625 48.1875 22.3125 43.546875 
Q 18.109375 38.921875 18.109375 30.90625 
L 18.109375 0 
L 9.078125 0 
L 9.078125 75.984375 
L 18.109375 75.984375 
L 18.109375 46.1875 
Q 21.34375 51.125 25.703125 53.5625 
Q 30.078125 56 35.796875 56 
Q 45.21875 56 50.046875 50.171875 
Q 54.890625 44.34375 54.890625 33.015625 
" id="DejaVuSans-68"/>
     <path d="M 10.59375 45.40625 
L 73.1875 45.40625 
L 73.1875 37.203125 
L 10.59375 37.203125 
z
M 10.59375 25.484375 
L 73.1875 25.484375 
L 73.1875 17.1875 
L 10.59375 17.1875 
z
" id="DejaVuSans-3d"/>
     <path d="M 8.203125 72.90625 
L 55.078125 72.90625 
L 55.078125 68.703125 
L 28.609375 0 
L 18.3125 0 
L 43.21875 64.59375 
L 8.203125 64.59375 
z
" id="DejaVuSans-37"/>
     <path d="M 10.984375 1.515625 
L 10.984375 10.5 
Q 14.703125 8.734375 18.5 7.8125 
Q 22.3125 6.890625 25.984375 6.890625 
Q 35.75 6.890625 40.890625 13.453125 
Q 46.046875 20.015625 46.78125 33.40625 
Q 43.953125 29.203125 39.59375 26.953125 
Q 35.25 24.703125 29.984375 24.703125 
Q 19.046875 24.703125 12.671875 31.3125 
Q 6.296875 37.9375 6.296875 49.421875 
Q 6.296875 60.640625 12.9375 67.421875 
Q 19.578125 74.21875 30.609375 74.21875 
Q 43.265625 74.21875 49.921875 64.515625 
Q 56.59375 54.828125 56.59375 36.375 
Q 56.59375 19.140625 48.40625 8.859375 
Q 40.234375 -1.421875 26.421875 -1.421875 
Q 22.703125 -1.421875 18.890625 -0.6875 
Q 15.09375 0.046875 10.984375 1.515625 
M 30.609375 32.421875 
Q 37.25 32.421875 41.125 36.953125 
Q 45.015625 41.5 45.015625 49.421875 
Q 45.015625 57.28125 41.125 61.84375 
Q 37.25 66.40625 30.609375 66.40625 
Q 23.96875 66.40625 20.09375 61.84375 
Q 16.21875 57.28125 16.21875 49.421875 
Q 16.21875 41.5 20.09375 36.953125 
Q 23.96875 32.421875 30.609375 32.421875 
" id="DejaVuSans-39"/>
     <path d="M 40.578125 39.3125 
Q 47.65625 37.796875 51.625 33 
Q 55.609375 28.21875 55.609375 21.1875 
Q 55.609375 10.40625 48.1875 4.484375 
Q 40.765625 -1.421875 27.09375 -1.421875 
Q 22.515625 -1.421875 17.65625 -0.515625 
Q 12.796875 0.390625 7.625 2.203125 
L 7.625 11.71875 
Q 11.71875 9.328125 16.59375 8.109375 
Q 21.484375 6.890625 26.8125 6.890625 
Q 36.078125 6.890625 40.9375 10.546875 
Q 45.796875 14.203125 45.796875 21.1875 
Q 45.796875 27.640625 41.28125 31.265625 
Q 36.765625 34.90625 28.71875 34.90625 
L 20.21875 34.90625 
L 20.21875 43.015625 
L 29.109375 43.015625 
Q 36.375 43.015625 40.234375 45.921875 
Q 44.09375 48.828125 44.09375 54.296875 
Q 44.09375 59.90625 40.109375 62.90625 
Q 36.140625 65.921875 28.71875 65.921875 
Q 24.65625 65.921875 20.015625 65.03125 
Q 15.375 64.15625 9.8125 62.3125 
L 9.8125 71.09375 
Q 15.4375 72.65625 20.34375 73.4375 
Q 25.25 74.21875 29.59375 74.21875 
Q 40.828125 74.21875 47.359375 69.109375 
Q 53.90625 64.015625 53.90625 55.328125 
Q 53.90625 49.265625 50.4375 45.09375 
Q 46.96875 40.921875 40.578125 39.3125 
" id="DejaVuSans-33"/>
    </defs>
    <g style="fill:#808080;" transform="translate(130.065125 289.387113)scale(0.1 -0.1)">
     <use xlink:href="#DejaVuSans-76"/>
     <use x="59.179688" xlink:href="#DejaVuSans-32"/>
     <use x="122.802734" xlink:href="#DejaVuSans-2e"/>
     <use x="154.589844" xlink:href="#DejaVuSans-32"/>
     <use x="218.212891" xlink:href="#DejaVuSans-2e"/>
     <use x="250" xlink:href="#DejaVuSans-31"/>
     <use x="313.623047" xlink:href="#DejaVuSans-2e"/>
     <use x="345.410156" xlink:href="#DejaVuSans-31"/>
     <use x="409.033203" xlink:href="#DejaVuSans-30"/>
     <use x="472.65625" xlink:href="#DejaVuSans-2c"/>
     <use x="504.443359" xlink:href="#DejaVuSans-20"/>
     <use x="536.230469" xlink:href="#DejaVuSans-68"/>
     <use x="599.609375" xlink:href="#DejaVuSans-76"/>
     <use x="658.757812" xlink:href="#DejaVuSans-2d"/>
     <use x="694.841797" xlink:href="#DejaVuSans-68"/>
     <use x="758.220703" xlink:href="#DejaVuSans-61"/>
     <use x="819.5" xlink:href="#DejaVuSans-73"/>
     <use x="871.599609" xlink:href="#DejaVuSans-68"/>
     <use x="934.978516" xlink:href="#DejaVuSans-3d"/>
     <use x="1018.767578" xlink:href="#DejaVuSans-66"/>
     <use x="1053.972656" xlink:href="#DejaVuSans-66"/>
     <use x="1089.177734" xlink:href="#DejaVuSans-30"/>
     <use x="1152.800781" xlink:href="#DejaVuSans-65"/>
     <use x="1214.324219" xlink:href="#DejaVuSans-37"/>
     <use x="1277.947266" xlink:href="#DejaVuSans-31"/>
     <use x="1341.570312" xlink:href="#DejaVuSans-65"/>
     <use x="1403.09375" xlink:href="#DejaVuSans-38"/>
     <use x="1466.716797" xlink:href="#DejaVuSans-63"/>
     <use x="1521.697266" xlink:href="#DejaVuSans-64"/>
     <use x="1585.173828" xlink:href="#DejaVuSans-39"/>
     <use x="1648.796875" xlink:href="#DejaVuSans-37"/>
     <use x="1712.419922" xlink:href="#DejaVuSans-38"/>
     <use x="1776.042969" xlink:href="#DejaVuSans-33"/>
     <use x="1839.666016" xlink:href="#DejaVuSans-37"/>
     <use x="1903.289062" xlink:href="#DejaVuSans-33"/>
    </g>
   </g>
   <g id="text_21">
    <!-- 5 Sphere/Sharp ridge -->
    <g transform="translate(121.863563 18.84)scale(0.2 -0.2)">
     <use xlink:href="#DejaVuSans-35"/>
     <use x="63.623047" xlink:href="#DejaVuSans-20"/>
     <use x="95.410156" xlink:href="#DejaVuSans-53"/>
     <use x="158.886719" xlink:href="#DejaVuSans-70"/>
     <use x="222.363281" xlink:href="#DejaVuSans-68"/>
     <use x="285.742188" xlink:href="#DejaVuSans-65"/>
     <use x="347.265625" xlink:href="#DejaVuSans-72"/>
     <use x="388.347656" xlink:href="#DejaVuSans-65"/>
     <use x="449.871094" xlink:href="#DejaVuSans-2f"/>
     <use x="483.5625" xlink:href="#DejaVuSans-53"/>
     <use x="547.039062" xlink:href="#DejaVuSans-68"/>
     <use x="610.417969" xlink:href="#DejaVuSans-61"/>
     <use x="671.697266" xlink:href="#DejaVuSans-72"/>
     <use x="712.810547" xlink:href="#DejaVuSans-70"/>
     <use x="776.287109" xlink:href="#DejaVuSans-20"/>
     <use x="808.074219" xlink:href="#DejaVuSans-72"/>
     <use x="849.1875" xlink:href="#DejaVuSans-69"/>
     <use x="876.970703" xlink:href="#DejaVuSans-64"/>
     <use x="940.447266" xlink:href="#DejaVuSans-67"/>
     <use x="1003.923828" xlink:href="#DejaVuSans-65"/>
    </g>
   </g>
  </g>
 </g>
 <defs>
  <clipPath id="p5e6c322fc6">
   <rect height="269.32" width="343.144" x="56.84" y="24.84"/>
  </clipPath>
 </defs>
</svg>
