<?xml version="1.0" encoding="utf-8" standalone="no"?>
<!DOCTYPE svg PUBLIC "-//W3C//DTD SVG 1.1//EN"
  "http://www.w3.org/Graphics/SVG/1.1/DTD/svg11.dtd">
<!-- Created with matplotlib (http://matplotlib.org/) -->
<svg height="345pt" version="1.1" viewBox="0 0 460 345" width="460pt" xmlns="http://www.w3.org/2000/svg" xmlns:xlink="http://www.w3.org/1999/xlink">
 <defs>
  <style type="text/css">
*{stroke-linecap:butt;stroke-linejoin:round;}
  </style>
 </defs>
 <g id="figure_1">
  <g id="patch_1">
   <path d="M 0 345.6 
L 460.8 345.6 
L 460.8 0 
L 0 0 
z
" style="fill:#ffffff;"/>
  </g>
  <g id="axes_1">
   <g id="patch_2">
    <path d="M 56.84 294.16 
L 399.984 294.16 
L 399.984 24.84 
L 56.84 24.84 
z
" style="fill:#ffffff;"/>
   </g>
   <g id="line2d_1">
    <path d="M 78.348489 294.16 
L 78.348489 289.562526 
L 84.472185 289.562526 
L 84.472185 280.367579 
L 100.203835 280.367579 
L 100.203835 271.172632 
L 107.392607 271.172632 
L 107.392607 266.575159 
L 123.658047 266.575159 
L 123.658047 252.782738 
L 147.105106 252.782738 
L 147.105106 243.587791 
L 155.468205 243.587791 
L 155.468205 238.990318 
L 162.656976 238.990318 
L 162.656976 229.79537 
L 169.363445 229.79537 
L 169.363445 216.00295 
L 175.744447 216.00295 
L 175.744447 206.808003 
L 181.085744 206.808003 
L 181.085744 197.613056 
L 187.295715 197.613056 
L 187.295715 188.418109 
L 191.556861 188.418109 
L 191.556861 183.820635 
L 201.852056 183.820635 
L 201.852056 170.028214 
L 214.666013 170.028214 
L 214.666013 165.430741 
L 216.289028 165.430741 
L 216.289028 151.63832 
L 217.548651 151.63832 
L 217.548651 142.443373 
L 218.923801 142.443373 
L 218.923801 137.8459 
L 221.053403 137.8459 
L 221.053403 124.053479 
L 223.967153 124.053479 
L 223.967153 119.456005 
L 227.044795 119.456005 
L 227.044795 105.663585 
L 231.242656 105.663585 
L 231.242656 96.468638 
L 234.987977 96.468638 
L 234.987977 87.273691 
L 241.656685 87.273691 
L 241.656685 82.676217 
L 248.863441 82.676217 
L 248.863441 73.48127 
L 254.746862 73.48127 
L 254.746862 59.688849 
L 333.569032 59.688849 
" style="fill:none;stroke:#f5deb3;stroke-linecap:square;stroke-width:6;"/>
   </g>
   <g id="line2d_2">
    <defs>
     <path d="M -0 7.778175 
L 7.778175 0 
L 0 -7.778175 
L -7.778175 -0 
z
" id="m71fde6d26c" style="stroke:#f5deb3;stroke-linejoin:miter;stroke-width:1.5;"/>
    </defs>
    <g>
     <use style="fill:#f5deb3;stroke:#f5deb3;stroke-linejoin:miter;stroke-width:1.5;" x="187.295715" xlink:href="#m71fde6d26c" y="197.613056"/>
     <use style="fill:#f5deb3;stroke:#f5deb3;stroke-linejoin:miter;stroke-width:1.5;" x="227.044795" xlink:href="#m71fde6d26c" y="105.663585"/>
     <use style="fill:#f5deb3;stroke:#f5deb3;stroke-linejoin:miter;stroke-width:1.5;" x="254.746862" xlink:href="#m71fde6d26c" y="59.688849"/>
     <use style="fill:#f5deb3;stroke:#f5deb3;stroke-linejoin:miter;stroke-width:1.5;" x="254.746862" xlink:href="#m71fde6d26c" y="59.688849"/>
     <use style="fill:#f5deb3;stroke:#f5deb3;stroke-linejoin:miter;stroke-width:1.5;" x="333.569032" xlink:href="#m71fde6d26c" y="59.688849"/>
    </g>
   </g>
   <g id="line2d_3">
    <path style="fill:none;stroke:#f5deb3;stroke-linecap:square;stroke-width:6;"/>
    <g/>
   </g>
   <g id="line2d_4">
    <path d="M 333.569032 59.688849 
L 364.009226 32.839604 
" style="fill:none;stroke:#f5deb3;stroke-linecap:square;stroke-width:6;"/>
    <g>
     <use style="fill:#f5deb3;stroke:#f5deb3;stroke-linejoin:miter;stroke-width:1.5;" x="333.569032" xlink:href="#m71fde6d26c" y="59.688849"/>
     <use style="fill:#f5deb3;stroke:#f5deb3;stroke-linejoin:miter;stroke-width:1.5;" x="364.009226" xlink:href="#m71fde6d26c" y="32.839604"/>
    </g>
   </g>
   <g id="matplotlib.axis_1">
    <g id="xtick_1">
     <g id="line2d_5">
      <path clip-path="url(#pf4d3a5e8ef)" d="M 56.84 294.16 
L 56.84 24.84 
" style="fill:none;stroke:#b0b0b0;stroke-linecap:square;stroke-width:0.8;"/>
     </g>
     <g id="line2d_6">
      <defs>
       <path d="M 0 0 
L 0 3.5 
" id="mdb88651d21" style="stroke:#000000;stroke-width:0.8;"/>
      </defs>
      <g>
       <use style="stroke:#000000;stroke-width:0.8;" x="56.84" xlink:href="#mdb88651d21" y="294.16"/>
      </g>
     </g>
     <g id="text_1">
      <!-- 0 -->
      <defs>
       <path d="M 31.78125 66.40625 
Q 24.171875 66.40625 20.328125 58.90625 
Q 16.5 51.421875 16.5 36.375 
Q 16.5 21.390625 20.328125 13.890625 
Q 24.171875 6.390625 31.78125 6.390625 
Q 39.453125 6.390625 43.28125 13.890625 
Q 47.125 21.390625 47.125 36.375 
Q 47.125 51.421875 43.28125 58.90625 
Q 39.453125 66.40625 31.78125 66.40625 
M 31.78125 74.21875 
Q 44.046875 74.21875 50.515625 64.515625 
Q 56.984375 54.828125 56.984375 36.375 
Q 56.984375 17.96875 50.515625 8.265625 
Q 44.046875 -1.421875 31.78125 -1.421875 
Q 19.53125 -1.421875 13.0625 8.265625 
Q 6.59375 17.96875 6.59375 36.375 
Q 6.59375 54.828125 13.0625 64.515625 
Q 19.53125 74.21875 31.78125 74.21875 
" id="DejaVuSans-30"/>
      </defs>
      <g transform="translate(50.4775 316.356875)scale(0.2 -0.2)">
       <use xlink:href="#DejaVuSans-30"/>
      </g>
     </g>
    </g>
    <g id="xtick_2">
     <g id="line2d_7">
      <path clip-path="url(#pf4d3a5e8ef)" d="M 135.905438 294.16 
L 135.905438 24.84 
" style="fill:none;stroke:#b0b0b0;stroke-linecap:square;stroke-width:0.8;"/>
     </g>
     <g id="line2d_8">
      <g>
       <use style="stroke:#000000;stroke-width:0.8;" x="135.905438" xlink:href="#mdb88651d21" y="294.16"/>
      </g>
     </g>
     <g id="text_2">
      <!-- 2 -->
      <defs>
       <path d="M 19.1875 8.296875 
L 53.609375 8.296875 
L 53.609375 0 
L 7.328125 0 
L 7.328125 8.296875 
Q 12.9375 14.109375 22.625 23.890625 
Q 32.328125 33.6875 34.8125 36.53125 
Q 39.546875 41.84375 41.421875 45.53125 
Q 43.3125 49.21875 43.3125 52.78125 
Q 43.3125 58.59375 39.234375 62.25 
Q 35.15625 65.921875 28.609375 65.921875 
Q 23.96875 65.921875 18.8125 64.3125 
Q 13.671875 62.703125 7.8125 59.421875 
L 7.8125 69.390625 
Q 13.765625 71.78125 18.9375 73 
Q 24.125 74.21875 28.421875 74.21875 
Q 39.75 74.21875 46.484375 68.546875 
Q 53.21875 62.890625 53.21875 53.421875 
Q 53.21875 48.921875 51.53125 44.890625 
Q 49.859375 40.875 45.40625 35.40625 
Q 44.1875 33.984375 37.640625 27.21875 
Q 31.109375 20.453125 19.1875 8.296875 
" id="DejaVuSans-32"/>
      </defs>
      <g transform="translate(129.542938 316.356875)scale(0.2 -0.2)">
       <use xlink:href="#DejaVuSans-32"/>
      </g>
     </g>
    </g>
    <g id="xtick_3">
     <g id="line2d_9">
      <path clip-path="url(#pf4d3a5e8ef)" d="M 214.970876 294.16 
L 214.970876 24.84 
" style="fill:none;stroke:#b0b0b0;stroke-linecap:square;stroke-width:0.8;"/>
     </g>
     <g id="line2d_10">
      <g>
       <use style="stroke:#000000;stroke-width:0.8;" x="214.970876" xlink:href="#mdb88651d21" y="294.16"/>
      </g>
     </g>
     <g id="text_3">
      <!-- 4 -->
      <defs>
       <path d="M 37.796875 64.3125 
L 12.890625 25.390625 
L 37.796875 25.390625 
z
M 35.203125 72.90625 
L 47.609375 72.90625 
L 47.609375 25.390625 
L 58.015625 25.390625 
L 58.015625 17.1875 
L 47.609375 17.1875 
L 47.609375 0 
L 37.796875 0 
L 37.796875 17.1875 
L 4.890625 17.1875 
L 4.890625 26.703125 
z
" id="DejaVuSans-34"/>
      </defs>
      <g transform="translate(208.608376 316.356875)scale(0.2 -0.2)">
       <use xlink:href="#DejaVuSans-34"/>
      </g>
     </g>
    </g>
    <g id="xtick_4">
     <g id="line2d_11">
      <path clip-path="url(#pf4d3a5e8ef)" d="M 294.036313 294.16 
L 294.036313 24.84 
" style="fill:none;stroke:#b0b0b0;stroke-linecap:square;stroke-width:0.8;"/>
     </g>
     <g id="line2d_12">
      <g>
       <use style="stroke:#000000;stroke-width:0.8;" x="294.036313" xlink:href="#mdb88651d21" y="294.16"/>
      </g>
     </g>
     <g id="text_4">
      <!-- 6 -->
      <defs>
       <path d="M 33.015625 40.375 
Q 26.375 40.375 22.484375 35.828125 
Q 18.609375 31.296875 18.609375 23.390625 
Q 18.609375 15.53125 22.484375 10.953125 
Q 26.375 6.390625 33.015625 6.390625 
Q 39.65625 6.390625 43.53125 10.953125 
Q 47.40625 15.53125 47.40625 23.390625 
Q 47.40625 31.296875 43.53125 35.828125 
Q 39.65625 40.375 33.015625 40.375 
M 52.59375 71.296875 
L 52.59375 62.3125 
Q 48.875 64.0625 45.09375 64.984375 
Q 41.3125 65.921875 37.59375 65.921875 
Q 27.828125 65.921875 22.671875 59.328125 
Q 17.53125 52.734375 16.796875 39.40625 
Q 19.671875 43.65625 24.015625 45.921875 
Q 28.375 48.1875 33.59375 48.1875 
Q 44.578125 48.1875 50.953125 41.515625 
Q 57.328125 34.859375 57.328125 23.390625 
Q 57.328125 12.15625 50.6875 5.359375 
Q 44.046875 -1.421875 33.015625 -1.421875 
Q 20.359375 -1.421875 13.671875 8.265625 
Q 6.984375 17.96875 6.984375 36.375 
Q 6.984375 53.65625 15.1875 63.9375 
Q 23.390625 74.21875 37.203125 74.21875 
Q 40.921875 74.21875 44.703125 73.484375 
Q 48.484375 72.75 52.59375 71.296875 
" id="DejaVuSans-36"/>
      </defs>
      <g transform="translate(287.673813 316.356875)scale(0.2 -0.2)">
       <use xlink:href="#DejaVuSans-36"/>
      </g>
     </g>
    </g>
    <g id="xtick_5">
     <g id="line2d_13">
      <path clip-path="url(#pf4d3a5e8ef)" d="M 373.101751 294.16 
L 373.101751 24.84 
" style="fill:none;stroke:#b0b0b0;stroke-linecap:square;stroke-width:0.8;"/>
     </g>
     <g id="line2d_14">
      <g>
       <use style="stroke:#000000;stroke-width:0.8;" x="373.101751" xlink:href="#mdb88651d21" y="294.16"/>
      </g>
     </g>
     <g id="text_5">
      <!-- 8 -->
      <defs>
       <path d="M 31.78125 34.625 
Q 24.75 34.625 20.71875 30.859375 
Q 16.703125 27.09375 16.703125 20.515625 
Q 16.703125 13.921875 20.71875 10.15625 
Q 24.75 6.390625 31.78125 6.390625 
Q 38.8125 6.390625 42.859375 10.171875 
Q 46.921875 13.96875 46.921875 20.515625 
Q 46.921875 27.09375 42.890625 30.859375 
Q 38.875 34.625 31.78125 34.625 
M 21.921875 38.8125 
Q 15.578125 40.375 12.03125 44.71875 
Q 8.5 49.078125 8.5 55.328125 
Q 8.5 64.0625 14.71875 69.140625 
Q 20.953125 74.21875 31.78125 74.21875 
Q 42.671875 74.21875 48.875 69.140625 
Q 55.078125 64.0625 55.078125 55.328125 
Q 55.078125 49.078125 51.53125 44.71875 
Q 48 40.375 41.703125 38.8125 
Q 48.828125 37.15625 52.796875 32.3125 
Q 56.78125 27.484375 56.78125 20.515625 
Q 56.78125 9.90625 50.3125 4.234375 
Q 43.84375 -1.421875 31.78125 -1.421875 
Q 19.734375 -1.421875 13.25 4.234375 
Q 6.78125 9.90625 6.78125 20.515625 
Q 6.78125 27.484375 10.78125 32.3125 
Q 14.796875 37.15625 21.921875 38.8125 
M 18.3125 54.390625 
Q 18.3125 48.734375 21.84375 45.5625 
Q 25.390625 42.390625 31.78125 42.390625 
Q 38.140625 42.390625 41.71875 45.5625 
Q 45.3125 48.734375 45.3125 54.390625 
Q 45.3125 60.0625 41.71875 63.234375 
Q 38.140625 66.40625 31.78125 66.40625 
Q 25.390625 66.40625 21.84375 63.234375 
Q 18.3125 60.0625 18.3125 54.390625 
" id="DejaVuSans-38"/>
      </defs>
      <g transform="translate(366.739251 316.356875)scale(0.2 -0.2)">
       <use xlink:href="#DejaVuSans-38"/>
      </g>
     </g>
    </g>
    <g id="xtick_6">
     <g id="line2d_15">
      <defs>
       <path d="M 0 0 
L 0 2 
" id="m1a326ad0a5" style="stroke:#000000;stroke-width:0.6;"/>
      </defs>
      <g>
       <use style="stroke:#000000;stroke-width:0.6;" x="68.740534" xlink:href="#m1a326ad0a5" y="294.16"/>
      </g>
     </g>
    </g>
    <g id="xtick_7">
     <g id="line2d_16">
      <g>
       <use style="stroke:#000000;stroke-width:0.6;" x="80.641068" xlink:href="#m1a326ad0a5" y="294.16"/>
      </g>
     </g>
    </g>
    <g id="xtick_8">
     <g id="line2d_17">
      <g>
       <use style="stroke:#000000;stroke-width:0.6;" x="87.602435" xlink:href="#m1a326ad0a5" y="294.16"/>
      </g>
     </g>
    </g>
    <g id="xtick_9">
     <g id="line2d_18">
      <g>
       <use style="stroke:#000000;stroke-width:0.6;" x="92.541603" xlink:href="#m1a326ad0a5" y="294.16"/>
      </g>
     </g>
    </g>
    <g id="xtick_10">
     <g id="line2d_19">
      <g>
       <use style="stroke:#000000;stroke-width:0.6;" x="147.805972" xlink:href="#m1a326ad0a5" y="294.16"/>
      </g>
     </g>
    </g>
    <g id="xtick_11">
     <g id="line2d_20">
      <g>
       <use style="stroke:#000000;stroke-width:0.6;" x="159.706506" xlink:href="#m1a326ad0a5" y="294.16"/>
      </g>
     </g>
    </g>
    <g id="xtick_12">
     <g id="line2d_21">
      <g>
       <use style="stroke:#000000;stroke-width:0.6;" x="166.667872" xlink:href="#m1a326ad0a5" y="294.16"/>
      </g>
     </g>
    </g>
    <g id="xtick_13">
     <g id="line2d_22">
      <g>
       <use style="stroke:#000000;stroke-width:0.6;" x="171.60704" xlink:href="#m1a326ad0a5" y="294.16"/>
      </g>
     </g>
    </g>
    <g id="xtick_14">
     <g id="line2d_23">
      <g>
       <use style="stroke:#000000;stroke-width:0.6;" x="226.87141" xlink:href="#m1a326ad0a5" y="294.16"/>
      </g>
     </g>
    </g>
    <g id="xtick_15">
     <g id="line2d_24">
      <g>
       <use style="stroke:#000000;stroke-width:0.6;" x="238.771944" xlink:href="#m1a326ad0a5" y="294.16"/>
      </g>
     </g>
    </g>
    <g id="xtick_16">
     <g id="line2d_25">
      <g>
       <use style="stroke:#000000;stroke-width:0.6;" x="245.73331" xlink:href="#m1a326ad0a5" y="294.16"/>
      </g>
     </g>
    </g>
    <g id="xtick_17">
     <g id="line2d_26">
      <g>
       <use style="stroke:#000000;stroke-width:0.6;" x="250.672478" xlink:href="#m1a326ad0a5" y="294.16"/>
      </g>
     </g>
    </g>
    <g id="xtick_18">
     <g id="line2d_27">
      <g>
       <use style="stroke:#000000;stroke-width:0.6;" x="305.936848" xlink:href="#m1a326ad0a5" y="294.16"/>
      </g>
     </g>
    </g>
    <g id="xtick_19">
     <g id="line2d_28">
      <g>
       <use style="stroke:#000000;stroke-width:0.6;" x="317.837382" xlink:href="#m1a326ad0a5" y="294.16"/>
      </g>
     </g>
    </g>
    <g id="xtick_20">
     <g id="line2d_29">
      <g>
       <use style="stroke:#000000;stroke-width:0.6;" x="324.798748" xlink:href="#m1a326ad0a5" y="294.16"/>
      </g>
     </g>
    </g>
    <g id="xtick_21">
     <g id="line2d_30">
      <g>
       <use style="stroke:#000000;stroke-width:0.6;" x="329.737916" xlink:href="#m1a326ad0a5" y="294.16"/>
      </g>
     </g>
    </g>
    <g id="xtick_22">
     <g id="line2d_31">
      <g>
       <use style="stroke:#000000;stroke-width:0.6;" x="385.002285" xlink:href="#m1a326ad0a5" y="294.16"/>
      </g>
     </g>
    </g>
    <g id="xtick_23">
     <g id="line2d_32">
      <g>
       <use style="stroke:#000000;stroke-width:0.6;" x="396.90282" xlink:href="#m1a326ad0a5" y="294.16"/>
      </g>
     </g>
    </g>
    <g id="text_6">
     <!-- log10(# f-evals / dimension) -->
     <defs>
      <path d="M 9.421875 75.984375 
L 18.40625 75.984375 
L 18.40625 0 
L 9.421875 0 
z
" id="DejaVuSans-6c"/>
      <path d="M 30.609375 48.390625 
Q 23.390625 48.390625 19.1875 42.75 
Q 14.984375 37.109375 14.984375 27.296875 
Q 14.984375 17.484375 19.15625 11.84375 
Q 23.34375 6.203125 30.609375 6.203125 
Q 37.796875 6.203125 41.984375 11.859375 
Q 46.1875 17.53125 46.1875 27.296875 
Q 46.1875 37.015625 41.984375 42.703125 
Q 37.796875 48.390625 30.609375 48.390625 
M 30.609375 56 
Q 42.328125 56 49.015625 48.375 
Q 55.71875 40.765625 55.71875 27.296875 
Q 55.71875 13.875 49.015625 6.21875 
Q 42.328125 -1.421875 30.609375 -1.421875 
Q 18.84375 -1.421875 12.171875 6.21875 
Q 5.515625 13.875 5.515625 27.296875 
Q 5.515625 40.765625 12.171875 48.375 
Q 18.84375 56 30.609375 56 
" id="DejaVuSans-6f"/>
      <path d="M 45.40625 27.984375 
Q 45.40625 37.75 41.375 43.109375 
Q 37.359375 48.484375 30.078125 48.484375 
Q 22.859375 48.484375 18.828125 43.109375 
Q 14.796875 37.75 14.796875 27.984375 
Q 14.796875 18.265625 18.828125 12.890625 
Q 22.859375 7.515625 30.078125 7.515625 
Q 37.359375 7.515625 41.375 12.890625 
Q 45.40625 18.265625 45.40625 27.984375 
M 54.390625 6.78125 
Q 54.390625 -7.171875 48.1875 -13.984375 
Q 42 -20.796875 29.203125 -20.796875 
Q 24.46875 -20.796875 20.265625 -20.09375 
Q 16.0625 -19.390625 12.109375 -17.921875 
L 12.109375 -9.1875 
Q 16.0625 -11.328125 19.921875 -12.34375 
Q 23.78125 -13.375 27.78125 -13.375 
Q 36.625 -13.375 41.015625 -8.765625 
Q 45.40625 -4.15625 45.40625 5.171875 
L 45.40625 9.625 
Q 42.625 4.78125 38.28125 2.390625 
Q 33.9375 0 27.875 0 
Q 17.828125 0 11.671875 7.65625 
Q 5.515625 15.328125 5.515625 27.984375 
Q 5.515625 40.671875 11.671875 48.328125 
Q 17.828125 56 27.875 56 
Q 33.9375 56 38.28125 53.609375 
Q 42.625 51.21875 45.40625 46.390625 
L 45.40625 54.6875 
L 54.390625 54.6875 
z
" id="DejaVuSans-67"/>
      <path d="M 12.40625 8.296875 
L 28.515625 8.296875 
L 28.515625 63.921875 
L 10.984375 60.40625 
L 10.984375 69.390625 
L 28.421875 72.90625 
L 38.28125 72.90625 
L 38.28125 8.296875 
L 54.390625 8.296875 
L 54.390625 0 
L 12.40625 0 
z
" id="DejaVuSans-31"/>
      <path d="M 31 75.875 
Q 24.46875 64.65625 21.28125 53.65625 
Q 18.109375 42.671875 18.109375 31.390625 
Q 18.109375 20.125 21.3125 9.0625 
Q 24.515625 -2 31 -13.1875 
L 23.1875 -13.1875 
Q 15.875 -1.703125 12.234375 9.375 
Q 8.59375 20.453125 8.59375 31.390625 
Q 8.59375 42.28125 12.203125 53.3125 
Q 15.828125 64.359375 23.1875 75.875 
z
" id="DejaVuSans-28"/>
      <path d="M 51.125 44 
L 36.921875 44 
L 32.8125 27.6875 
L 47.125 27.6875 
z
M 43.796875 71.78125 
L 38.71875 51.515625 
L 52.984375 51.515625 
L 58.109375 71.78125 
L 65.921875 71.78125 
L 60.890625 51.515625 
L 76.125 51.515625 
L 76.125 44 
L 58.984375 44 
L 54.984375 27.6875 
L 70.515625 27.6875 
L 70.515625 20.21875 
L 53.078125 20.21875 
L 48 0 
L 40.1875 0 
L 45.21875 20.21875 
L 30.90625 20.21875 
L 25.875 0 
L 18.015625 0 
L 23.09375 20.21875 
L 7.71875 20.21875 
L 7.71875 27.6875 
L 24.90625 27.6875 
L 29 44 
L 13.28125 44 
L 13.28125 51.515625 
L 30.90625 51.515625 
L 35.890625 71.78125 
z
" id="DejaVuSans-23"/>
      <path id="DejaVuSans-20"/>
      <path d="M 37.109375 75.984375 
L 37.109375 68.5 
L 28.515625 68.5 
Q 23.6875 68.5 21.796875 66.546875 
Q 19.921875 64.59375 19.921875 59.515625 
L 19.921875 54.6875 
L 34.71875 54.6875 
L 34.71875 47.703125 
L 19.921875 47.703125 
L 19.921875 0 
L 10.890625 0 
L 10.890625 47.703125 
L 2.296875 47.703125 
L 2.296875 54.6875 
L 10.890625 54.6875 
L 10.890625 58.5 
Q 10.890625 67.625 15.140625 71.796875 
Q 19.390625 75.984375 28.609375 75.984375 
z
" id="DejaVuSans-66"/>
      <path d="M 4.890625 31.390625 
L 31.203125 31.390625 
L 31.203125 23.390625 
L 4.890625 23.390625 
z
" id="DejaVuSans-2d"/>
      <path d="M 56.203125 29.59375 
L 56.203125 25.203125 
L 14.890625 25.203125 
Q 15.484375 15.921875 20.484375 11.0625 
Q 25.484375 6.203125 34.421875 6.203125 
Q 39.59375 6.203125 44.453125 7.46875 
Q 49.3125 8.734375 54.109375 11.28125 
L 54.109375 2.78125 
Q 49.265625 0.734375 44.1875 -0.34375 
Q 39.109375 -1.421875 33.890625 -1.421875 
Q 20.796875 -1.421875 13.15625 6.1875 
Q 5.515625 13.8125 5.515625 26.8125 
Q 5.515625 40.234375 12.765625 48.109375 
Q 20.015625 56 32.328125 56 
Q 43.359375 56 49.78125 48.890625 
Q 56.203125 41.796875 56.203125 29.59375 
M 47.21875 32.234375 
Q 47.125 39.59375 43.09375 43.984375 
Q 39.0625 48.390625 32.421875 48.390625 
Q 24.90625 48.390625 20.390625 44.140625 
Q 15.875 39.890625 15.1875 32.171875 
z
" id="DejaVuSans-65"/>
      <path d="M 2.984375 54.6875 
L 12.5 54.6875 
L 29.59375 8.796875 
L 46.6875 54.6875 
L 56.203125 54.6875 
L 35.6875 0 
L 23.484375 0 
z
" id="DejaVuSans-76"/>
      <path d="M 34.28125 27.484375 
Q 23.390625 27.484375 19.1875 25 
Q 14.984375 22.515625 14.984375 16.5 
Q 14.984375 11.71875 18.140625 8.90625 
Q 21.296875 6.109375 26.703125 6.109375 
Q 34.1875 6.109375 38.703125 11.40625 
Q 43.21875 16.703125 43.21875 25.484375 
L 43.21875 27.484375 
z
M 52.203125 31.203125 
L 52.203125 0 
L 43.21875 0 
L 43.21875 8.296875 
Q 40.140625 3.328125 35.546875 0.953125 
Q 30.953125 -1.421875 24.3125 -1.421875 
Q 15.921875 -1.421875 10.953125 3.296875 
Q 6 8.015625 6 15.921875 
Q 6 25.140625 12.171875 29.828125 
Q 18.359375 34.515625 30.609375 34.515625 
L 43.21875 34.515625 
L 43.21875 35.40625 
Q 43.21875 41.609375 39.140625 45 
Q 35.0625 48.390625 27.6875 48.390625 
Q 23 48.390625 18.546875 47.265625 
Q 14.109375 46.140625 10.015625 43.890625 
L 10.015625 52.203125 
Q 14.9375 54.109375 19.578125 55.046875 
Q 24.21875 56 28.609375 56 
Q 40.484375 56 46.34375 49.84375 
Q 52.203125 43.703125 52.203125 31.203125 
" id="DejaVuSans-61"/>
      <path d="M 44.28125 53.078125 
L 44.28125 44.578125 
Q 40.484375 46.53125 36.375 47.5 
Q 32.28125 48.484375 27.875 48.484375 
Q 21.1875 48.484375 17.84375 46.4375 
Q 14.5 44.390625 14.5 40.28125 
Q 14.5 37.15625 16.890625 35.375 
Q 19.28125 33.59375 26.515625 31.984375 
L 29.59375 31.296875 
Q 39.15625 29.25 43.1875 25.515625 
Q 47.21875 21.78125 47.21875 15.09375 
Q 47.21875 7.46875 41.1875 3.015625 
Q 35.15625 -1.421875 24.609375 -1.421875 
Q 20.21875 -1.421875 15.453125 -0.5625 
Q 10.6875 0.296875 5.421875 2 
L 5.421875 11.28125 
Q 10.40625 8.6875 15.234375 7.390625 
Q 20.0625 6.109375 24.8125 6.109375 
Q 31.15625 6.109375 34.5625 8.28125 
Q 37.984375 10.453125 37.984375 14.40625 
Q 37.984375 18.0625 35.515625 20.015625 
Q 33.0625 21.96875 24.703125 23.78125 
L 21.578125 24.515625 
Q 13.234375 26.265625 9.515625 29.90625 
Q 5.8125 33.546875 5.8125 39.890625 
Q 5.8125 47.609375 11.28125 51.796875 
Q 16.75 56 26.8125 56 
Q 31.78125 56 36.171875 55.265625 
Q 40.578125 54.546875 44.28125 53.078125 
" id="DejaVuSans-73"/>
      <path d="M 25.390625 72.90625 
L 33.6875 72.90625 
L 8.296875 -9.28125 
L 0 -9.28125 
z
" id="DejaVuSans-2f"/>
      <path d="M 45.40625 46.390625 
L 45.40625 75.984375 
L 54.390625 75.984375 
L 54.390625 0 
L 45.40625 0 
L 45.40625 8.203125 
Q 42.578125 3.328125 38.25 0.953125 
Q 33.9375 -1.421875 27.875 -1.421875 
Q 17.96875 -1.421875 11.734375 6.484375 
Q 5.515625 14.40625 5.515625 27.296875 
Q 5.515625 40.1875 11.734375 48.09375 
Q 17.96875 56 27.875 56 
Q 33.9375 56 38.25 53.625 
Q 42.578125 51.265625 45.40625 46.390625 
M 14.796875 27.296875 
Q 14.796875 17.390625 18.875 11.75 
Q 22.953125 6.109375 30.078125 6.109375 
Q 37.203125 6.109375 41.296875 11.75 
Q 45.40625 17.390625 45.40625 27.296875 
Q 45.40625 37.203125 41.296875 42.84375 
Q 37.203125 48.484375 30.078125 48.484375 
Q 22.953125 48.484375 18.875 42.84375 
Q 14.796875 37.203125 14.796875 27.296875 
" id="DejaVuSans-64"/>
      <path d="M 9.421875 54.6875 
L 18.40625 54.6875 
L 18.40625 0 
L 9.421875 0 
z
M 9.421875 75.984375 
L 18.40625 75.984375 
L 18.40625 64.59375 
L 9.421875 64.59375 
z
" id="DejaVuSans-69"/>
      <path d="M 52 44.1875 
Q 55.375 50.25 60.0625 53.125 
Q 64.75 56 71.09375 56 
Q 79.640625 56 84.28125 50.015625 
Q 88.921875 44.046875 88.921875 33.015625 
L 88.921875 0 
L 79.890625 0 
L 79.890625 32.71875 
Q 79.890625 40.578125 77.09375 44.375 
Q 74.3125 48.1875 68.609375 48.1875 
Q 61.625 48.1875 57.5625 43.546875 
Q 53.515625 38.921875 53.515625 30.90625 
L 53.515625 0 
L 44.484375 0 
L 44.484375 32.71875 
Q 44.484375 40.625 41.703125 44.40625 
Q 38.921875 48.1875 33.109375 48.1875 
Q 26.21875 48.1875 22.15625 43.53125 
Q 18.109375 38.875 18.109375 30.90625 
L 18.109375 0 
L 9.078125 0 
L 9.078125 54.6875 
L 18.109375 54.6875 
L 18.109375 46.1875 
Q 21.1875 51.21875 25.484375 53.609375 
Q 29.78125 56 35.6875 56 
Q 41.65625 56 45.828125 52.96875 
Q 50 49.953125 52 44.1875 
" id="DejaVuSans-6d"/>
      <path d="M 54.890625 33.015625 
L 54.890625 0 
L 45.90625 0 
L 45.90625 32.71875 
Q 45.90625 40.484375 42.875 44.328125 
Q 39.84375 48.1875 33.796875 48.1875 
Q 26.515625 48.1875 22.3125 43.546875 
Q 18.109375 38.921875 18.109375 30.90625 
L 18.109375 0 
L 9.078125 0 
L 9.078125 54.6875 
L 18.109375 54.6875 
L 18.109375 46.1875 
Q 21.34375 51.125 25.703125 53.5625 
Q 30.078125 56 35.796875 56 
Q 45.21875 56 50.046875 50.171875 
Q 54.890625 44.34375 54.890625 33.015625 
" id="DejaVuSans-6e"/>
      <path d="M 8.015625 75.875 
L 15.828125 75.875 
Q 23.140625 64.359375 26.78125 53.3125 
Q 30.421875 42.28125 30.421875 31.390625 
Q 30.421875 20.453125 26.78125 9.375 
Q 23.140625 -1.703125 15.828125 -13.1875 
L 8.015625 -13.1875 
Q 14.5 -2 17.703125 9.0625 
Q 20.90625 20.125 20.90625 31.390625 
Q 20.90625 42.671875 17.703125 53.65625 
Q 14.5 64.65625 8.015625 75.875 
" id="DejaVuSans-29"/>
     </defs>
     <g transform="translate(107.571219 337.433594)scale(0.17 -0.17)">
      <use xlink:href="#DejaVuSans-6c"/>
      <use x="27.783203" xlink:href="#DejaVuSans-6f"/>
      <use x="88.964844" xlink:href="#DejaVuSans-67"/>
      <use x="152.441406" xlink:href="#DejaVuSans-31"/>
      <use x="216.064453" xlink:href="#DejaVuSans-30"/>
      <use x="279.6875" xlink:href="#DejaVuSans-28"/>
      <use x="318.701172" xlink:href="#DejaVuSans-23"/>
      <use x="402.490234" xlink:href="#DejaVuSans-20"/>
      <use x="434.277344" xlink:href="#DejaVuSans-66"/>
      <use x="469.404297" xlink:href="#DejaVuSans-2d"/>
      <use x="505.488281" xlink:href="#DejaVuSans-65"/>
      <use x="567.011719" xlink:href="#DejaVuSans-76"/>
      <use x="626.191406" xlink:href="#DejaVuSans-61"/>
      <use x="687.470703" xlink:href="#DejaVuSans-6c"/>
      <use x="715.253906" xlink:href="#DejaVuSans-73"/>
      <use x="767.353516" xlink:href="#DejaVuSans-20"/>
      <use x="799.140625" xlink:href="#DejaVuSans-2f"/>
      <use x="832.832031" xlink:href="#DejaVuSans-20"/>
      <use x="864.619141" xlink:href="#DejaVuSans-64"/>
      <use x="928.095703" xlink:href="#DejaVuSans-69"/>
      <use x="955.878906" xlink:href="#DejaVuSans-6d"/>
      <use x="1053.291016" xlink:href="#DejaVuSans-65"/>
      <use x="1114.814453" xlink:href="#DejaVuSans-6e"/>
      <use x="1178.193359" xlink:href="#DejaVuSans-73"/>
      <use x="1230.292969" xlink:href="#DejaVuSans-69"/>
      <use x="1258.076172" xlink:href="#DejaVuSans-6f"/>
      <use x="1319.257812" xlink:href="#DejaVuSans-6e"/>
      <use x="1382.636719" xlink:href="#DejaVuSans-29"/>
     </g>
    </g>
   </g>
   <g id="matplotlib.axis_2">
    <g id="ytick_1">
     <g id="line2d_33">
      <path clip-path="url(#pf4d3a5e8ef)" d="M 56.84 294.16 
L 399.984 294.16 
" style="fill:none;stroke:#b0b0b0;stroke-linecap:square;stroke-width:0.8;"/>
     </g>
     <g id="line2d_34">
      <defs>
       <path d="M 0 0 
L -3.5 0 
" id="mbcafb8da3c" style="stroke:#000000;stroke-width:0.8;"/>
      </defs>
      <g>
       <use style="stroke:#000000;stroke-width:0.8;" x="56.84" xlink:href="#mbcafb8da3c" y="294.16"/>
      </g>
     </g>
     <g id="text_7">
      <!-- 0.0 -->
      <defs>
       <path d="M 10.6875 12.40625 
L 21 12.40625 
L 21 0 
L 10.6875 0 
z
" id="DejaVuSans-2e"/>
      </defs>
      <g transform="translate(24.395 300.23875)scale(0.16 -0.16)">
       <use xlink:href="#DejaVuSans-30"/>
       <use x="63.623047" xlink:href="#DejaVuSans-2e"/>
       <use x="95.410156" xlink:href="#DejaVuSans-30"/>
      </g>
     </g>
    </g>
    <g id="ytick_2">
     <g id="line2d_35">
      <path clip-path="url(#pf4d3a5e8ef)" d="M 56.84 240.829307 
L 399.984 240.829307 
" style="fill:none;stroke:#b0b0b0;stroke-linecap:square;stroke-width:0.8;"/>
     </g>
     <g id="line2d_36">
      <g>
       <use style="stroke:#000000;stroke-width:0.8;" x="56.84" xlink:href="#mbcafb8da3c" y="240.829307"/>
      </g>
     </g>
     <g id="text_8">
      <!-- 0.2 -->
      <g transform="translate(24.395 246.908057)scale(0.16 -0.16)">
       <use xlink:href="#DejaVuSans-30"/>
       <use x="63.623047" xlink:href="#DejaVuSans-2e"/>
       <use x="95.410156" xlink:href="#DejaVuSans-32"/>
      </g>
     </g>
    </g>
    <g id="ytick_3">
     <g id="line2d_37">
      <path clip-path="url(#pf4d3a5e8ef)" d="M 56.84 187.498614 
L 399.984 187.498614 
" style="fill:none;stroke:#b0b0b0;stroke-linecap:square;stroke-width:0.8;"/>
     </g>
     <g id="line2d_38">
      <g>
       <use style="stroke:#000000;stroke-width:0.8;" x="56.84" xlink:href="#mbcafb8da3c" y="187.498614"/>
      </g>
     </g>
     <g id="text_9">
      <!-- 0.4 -->
      <g transform="translate(24.395 193.577364)scale(0.16 -0.16)">
       <use xlink:href="#DejaVuSans-30"/>
       <use x="63.623047" xlink:href="#DejaVuSans-2e"/>
       <use x="95.410156" xlink:href="#DejaVuSans-34"/>
      </g>
     </g>
    </g>
    <g id="ytick_4">
     <g id="line2d_39">
      <path clip-path="url(#pf4d3a5e8ef)" d="M 56.84 134.167921 
L 399.984 134.167921 
" style="fill:none;stroke:#b0b0b0;stroke-linecap:square;stroke-width:0.8;"/>
     </g>
     <g id="line2d_40">
      <g>
       <use style="stroke:#000000;stroke-width:0.8;" x="56.84" xlink:href="#mbcafb8da3c" y="134.167921"/>
      </g>
     </g>
     <g id="text_10">
      <!-- 0.6 -->
      <g transform="translate(24.395 140.246671)scale(0.16 -0.16)">
       <use xlink:href="#DejaVuSans-30"/>
       <use x="63.623047" xlink:href="#DejaVuSans-2e"/>
       <use x="95.410156" xlink:href="#DejaVuSans-36"/>
      </g>
     </g>
    </g>
    <g id="ytick_5">
     <g id="line2d_41">
      <path clip-path="url(#pf4d3a5e8ef)" d="M 56.84 80.837228 
L 399.984 80.837228 
" style="fill:none;stroke:#b0b0b0;stroke-linecap:square;stroke-width:0.8;"/>
     </g>
     <g id="line2d_42">
      <g>
       <use style="stroke:#000000;stroke-width:0.8;" x="56.84" xlink:href="#mbcafb8da3c" y="80.837228"/>
      </g>
     </g>
     <g id="text_11">
      <!-- 0.8 -->
      <g transform="translate(24.395 86.915978)scale(0.16 -0.16)">
       <use xlink:href="#DejaVuSans-30"/>
       <use x="63.623047" xlink:href="#DejaVuSans-2e"/>
       <use x="95.410156" xlink:href="#DejaVuSans-38"/>
      </g>
     </g>
    </g>
    <g id="ytick_6">
     <g id="line2d_43">
      <path clip-path="url(#pf4d3a5e8ef)" d="M 56.84 27.506535 
L 399.984 27.506535 
" style="fill:none;stroke:#b0b0b0;stroke-linecap:square;stroke-width:0.8;"/>
     </g>
     <g id="line2d_44">
      <g>
       <use style="stroke:#000000;stroke-width:0.8;" x="56.84" xlink:href="#mbcafb8da3c" y="27.506535"/>
      </g>
     </g>
     <g id="text_12">
      <!-- 1.0 -->
      <g transform="translate(24.395 33.585285)scale(0.16 -0.16)">
       <use xlink:href="#DejaVuSans-31"/>
       <use x="63.623047" xlink:href="#DejaVuSans-2e"/>
       <use x="95.410156" xlink:href="#DejaVuSans-30"/>
      </g>
     </g>
    </g>
    <g id="text_13">
     <!-- Fraction of function,target pairs -->
     <defs>
      <path d="M 9.8125 72.90625 
L 51.703125 72.90625 
L 51.703125 64.59375 
L 19.671875 64.59375 
L 19.671875 43.109375 
L 48.578125 43.109375 
L 48.578125 34.8125 
L 19.671875 34.8125 
L 19.671875 0 
L 9.8125 0 
z
" id="DejaVuSans-46"/>
      <path d="M 41.109375 46.296875 
Q 39.59375 47.171875 37.8125 47.578125 
Q 36.03125 48 33.890625 48 
Q 26.265625 48 22.1875 43.046875 
Q 18.109375 38.09375 18.109375 28.8125 
L 18.109375 0 
L 9.078125 0 
L 9.078125 54.6875 
L 18.109375 54.6875 
L 18.109375 46.1875 
Q 20.953125 51.171875 25.484375 53.578125 
Q 30.03125 56 36.53125 56 
Q 37.453125 56 38.578125 55.875 
Q 39.703125 55.765625 41.0625 55.515625 
z
" id="DejaVuSans-72"/>
      <path d="M 48.78125 52.59375 
L 48.78125 44.1875 
Q 44.96875 46.296875 41.140625 47.34375 
Q 37.3125 48.390625 33.40625 48.390625 
Q 24.65625 48.390625 19.8125 42.84375 
Q 14.984375 37.3125 14.984375 27.296875 
Q 14.984375 17.28125 19.8125 11.734375 
Q 24.65625 6.203125 33.40625 6.203125 
Q 37.3125 6.203125 41.140625 7.25 
Q 44.96875 8.296875 48.78125 10.40625 
L 48.78125 2.09375 
Q 45.015625 0.34375 40.984375 -0.53125 
Q 36.96875 -1.421875 32.421875 -1.421875 
Q 20.0625 -1.421875 12.78125 6.34375 
Q 5.515625 14.109375 5.515625 27.296875 
Q 5.515625 40.671875 12.859375 48.328125 
Q 20.21875 56 33.015625 56 
Q 37.15625 56 41.109375 55.140625 
Q 45.0625 54.296875 48.78125 52.59375 
" id="DejaVuSans-63"/>
      <path d="M 18.3125 70.21875 
L 18.3125 54.6875 
L 36.8125 54.6875 
L 36.8125 47.703125 
L 18.3125 47.703125 
L 18.3125 18.015625 
Q 18.3125 11.328125 20.140625 9.421875 
Q 21.96875 7.515625 27.59375 7.515625 
L 36.8125 7.515625 
L 36.8125 0 
L 27.59375 0 
Q 17.1875 0 13.234375 3.875 
Q 9.28125 7.765625 9.28125 18.015625 
L 9.28125 47.703125 
L 2.6875 47.703125 
L 2.6875 54.6875 
L 9.28125 54.6875 
L 9.28125 70.21875 
z
" id="DejaVuSans-74"/>
      <path d="M 8.5 21.578125 
L 8.5 54.6875 
L 17.484375 54.6875 
L 17.484375 21.921875 
Q 17.484375 14.15625 20.5 10.265625 
Q 23.53125 6.390625 29.59375 6.390625 
Q 36.859375 6.390625 41.078125 11.03125 
Q 45.3125 15.671875 45.3125 23.6875 
L 45.3125 54.6875 
L 54.296875 54.6875 
L 54.296875 0 
L 45.3125 0 
L 45.3125 8.40625 
Q 42.046875 3.421875 37.71875 1 
Q 33.40625 -1.421875 27.6875 -1.421875 
Q 18.265625 -1.421875 13.375 4.4375 
Q 8.5 10.296875 8.5 21.578125 
M 31.109375 56 
z
" id="DejaVuSans-75"/>
      <path d="M 11.71875 12.40625 
L 22.015625 12.40625 
L 22.015625 4 
L 14.015625 -11.625 
L 7.71875 -11.625 
L 11.71875 4 
z
" id="DejaVuSans-2c"/>
      <path d="M 18.109375 8.203125 
L 18.109375 -20.796875 
L 9.078125 -20.796875 
L 9.078125 54.6875 
L 18.109375 54.6875 
L 18.109375 46.390625 
Q 20.953125 51.265625 25.265625 53.625 
Q 29.59375 56 35.59375 56 
Q 45.5625 56 51.78125 48.09375 
Q 58.015625 40.1875 58.015625 27.296875 
Q 58.015625 14.40625 51.78125 6.484375 
Q 45.5625 -1.421875 35.59375 -1.421875 
Q 29.59375 -1.421875 25.265625 0.953125 
Q 20.953125 3.328125 18.109375 8.203125 
M 48.6875 27.296875 
Q 48.6875 37.203125 44.609375 42.84375 
Q 40.53125 48.484375 33.40625 48.484375 
Q 26.265625 48.484375 22.1875 42.84375 
Q 18.109375 37.203125 18.109375 27.296875 
Q 18.109375 17.390625 22.1875 11.75 
Q 26.265625 6.109375 33.40625 6.109375 
Q 40.53125 6.109375 44.609375 11.75 
Q 48.6875 17.390625 48.6875 27.296875 
" id="DejaVuSans-70"/>
     </defs>
     <g transform="translate(16.859531 294.639375)rotate(-90)scale(0.17 -0.17)">
      <use xlink:href="#DejaVuSans-46"/>
      <use x="57.410156" xlink:href="#DejaVuSans-72"/>
      <use x="98.523438" xlink:href="#DejaVuSans-61"/>
      <use x="159.802734" xlink:href="#DejaVuSans-63"/>
      <use x="214.783203" xlink:href="#DejaVuSans-74"/>
      <use x="253.992188" xlink:href="#DejaVuSans-69"/>
      <use x="281.775391" xlink:href="#DejaVuSans-6f"/>
      <use x="342.957031" xlink:href="#DejaVuSans-6e"/>
      <use x="406.335938" xlink:href="#DejaVuSans-20"/>
      <use x="438.123047" xlink:href="#DejaVuSans-6f"/>
      <use x="499.304688" xlink:href="#DejaVuSans-66"/>
      <use x="534.509766" xlink:href="#DejaVuSans-20"/>
      <use x="566.296875" xlink:href="#DejaVuSans-66"/>
      <use x="601.501953" xlink:href="#DejaVuSans-75"/>
      <use x="664.880859" xlink:href="#DejaVuSans-6e"/>
      <use x="728.259766" xlink:href="#DejaVuSans-63"/>
      <use x="783.240234" xlink:href="#DejaVuSans-74"/>
      <use x="822.449219" xlink:href="#DejaVuSans-69"/>
      <use x="850.232422" xlink:href="#DejaVuSans-6f"/>
      <use x="911.414062" xlink:href="#DejaVuSans-6e"/>
      <use x="974.792969" xlink:href="#DejaVuSans-2c"/>
      <use x="1006.580078" xlink:href="#DejaVuSans-74"/>
      <use x="1045.789062" xlink:href="#DejaVuSans-61"/>
      <use x="1107.068359" xlink:href="#DejaVuSans-72"/>
      <use x="1148.166016" xlink:href="#DejaVuSans-67"/>
      <use x="1211.642578" xlink:href="#DejaVuSans-65"/>
      <use x="1273.166016" xlink:href="#DejaVuSans-74"/>
      <use x="1312.375" xlink:href="#DejaVuSans-20"/>
      <use x="1344.162109" xlink:href="#DejaVuSans-70"/>
      <use x="1407.638672" xlink:href="#DejaVuSans-61"/>
      <use x="1468.917969" xlink:href="#DejaVuSans-69"/>
      <use x="1496.701172" xlink:href="#DejaVuSans-72"/>
      <use x="1537.814453" xlink:href="#DejaVuSans-73"/>
     </g>
    </g>
   </g>
   <g id="line2d_45">
    <defs>
     <path d="M 0 1.5 
C 0.397805 1.5 0.77937 1.341951 1.06066 1.06066 
C 1.341951 0.77937 1.5 0.397805 1.5 0 
C 1.5 -0.397805 1.341951 -0.77937 1.06066 -1.06066 
C 0.77937 -1.341951 0.397805 -1.5 0 -1.5 
C -0.397805 -1.5 -0.77937 -1.341951 -1.06066 -1.06066 
C -1.341951 -0.77937 -1.5 -0.397805 -1.5 0 
C -1.5 0.397805 -1.341951 0.77937 -1.06066 1.06066 
C -0.77937 1.341951 -0.397805 1.5 0 1.5 
z
" id="m65efc3d74a" style="stroke:#f5deb3;"/>
    </defs>
    <g>
     <use style="fill:#f5deb3;stroke:#f5deb3;" x="254.746862" xlink:href="#m65efc3d74a" y="59.688849"/>
     <use style="fill:#f5deb3;stroke:#f5deb3;" x="254.746862" xlink:href="#m65efc3d74a" y="59.688849"/>
    </g>
   </g>
   <g id="line2d_46">
    <defs>
     <path d="M 0 1.5 
C 0.397805 1.5 0.77937 1.341951 1.06066 1.06066 
C 1.341951 0.77937 1.5 0.397805 1.5 0 
C 1.5 -0.397805 1.341951 -0.77937 1.06066 -1.06066 
C 0.77937 -1.341951 0.397805 -1.5 0 -1.5 
C -0.397805 -1.5 -0.77937 -1.341951 -1.06066 -1.06066 
C -1.341951 -0.77937 -1.5 -0.397805 -1.5 0 
C -1.5 0.397805 -1.341951 0.77937 -1.06066 1.06066 
C -0.77937 1.341951 -0.397805 1.5 0 1.5 
z
" id="mae4efd937c" style="stroke:#000080;"/>
    </defs>
    <g>
     <use style="fill:#000080;stroke:#000080;" x="312.071138" xlink:href="#mae4efd937c" y="91.871164"/>
     <use style="fill:#000080;stroke:#000080;" x="312.071138" xlink:href="#mae4efd937c" y="91.871164"/>
    </g>
   </g>
   <g id="line2d_47">
    <path d="M 44.939466 294.16 
L 44.939466 287.723537 
L 136.743108 287.723537 
L 136.743108 285.884548 
L 138.379474 285.884548 
L 138.379474 285.4248 
L 141.86525 285.4248 
L 141.86525 284.505306 
L 142.46145 284.505306 
L 142.46145 284.045558 
L 144.028425 284.045558 
L 144.028425 283.585811 
L 145.415004 283.585811 
L 145.415004 282.206569 
L 148.103828 282.206569 
L 148.187989 279.448085 
L 149.520201 279.448085 
L 149.520201 278.068843 
L 149.789975 278.068843 
L 149.789975 277.609095 
L 150.683999 277.609095 
L 150.792549 275.770106 
L 151.807924 275.770106 
L 151.909615 273.471369 
L 151.977076 273.471369 
L 152.077774 271.172632 
L 152.474759 271.172632 
L 152.474759 270.712885 
L 152.702164 270.712885 
L 152.702164 269.79339 
L 152.83077 269.79339 
L 152.83077 268.414148 
L 153.304641 268.414148 
L 153.304641 267.954401 
L 153.644019 267.954401 
L 153.644019 267.494653 
L 154.881417 267.494653 
L 154.881417 264.276422 
L 155.163342 264.276422 
L 155.163342 263.816675 
L 155.413176 263.816675 
L 155.413176 263.356927 
L 155.632239 263.356927 
L 155.632239 262.89718 
L 155.821653 262.89718 
L 155.821653 262.437433 
L 156.062155 262.437433 
L 156.115145 261.058191 
L 156.299333 261.058191 
L 156.299333 260.598443 
L 156.814953 260.598443 
L 156.814953 260.138696 
L 157.092079 260.138696 
L 157.092079 258.759454 
L 157.462911 258.759454 
L 157.462911 256.460717 
L 157.729852 256.460717 
L 157.777944 251.863243 
L 158.063701 251.863243 
L 158.087301 250.943749 
L 158.893498 250.943749 
L 158.98327 248.185265 
L 159.205667 248.185265 
L 159.205667 247.26577 
L 159.577255 247.26577 
L 159.577255 246.346275 
L 159.749375 246.346275 
L 159.749375 245.42678 
L 160.109499 245.42678 
L 160.172274 244.047538 
L 160.523726 244.047538 
L 160.523726 242.208549 
L 160.72715 242.208549 
L 160.72715 241.748802 
L 161.146654 241.748802 
L 161.146654 240.36956 
L 161.51757 240.36956 
L 161.51757 239.909812 
L 162.365354 239.909812 
L 162.475293 238.070823 
L 162.511784 238.070823 
L 162.511784 236.231833 
L 162.656976 236.231833 
L 162.656976 235.772086 
L 163.417018 235.772086 
L 163.417018 235.312339 
L 164.243982 235.312339 
L 164.309763 233.933097 
L 164.811197 233.933097 
L 164.811197 233.473349 
L 165.282898 233.473349 
L 165.344824 231.174612 
L 165.892326 231.174612 
L 165.892326 230.255118 
L 166.115398 230.255118 
L 166.115398 229.79537 
L 166.710741 229.79537 
L 166.710741 227.036886 
L 167.28613 227.036886 
L 167.28613 226.577139 
L 167.491912 226.577139 
L 167.491912 226.117392 
L 167.789332 226.117392 
L 167.789332 225.197897 
L 168.068506 225.197897 
L 168.068506 224.278402 
L 168.31724 224.278402 
L 168.369148 223.358907 
L 168.740866 223.358907 
L 168.740866 221.979665 
L 170.703788 221.979665 
L 170.703788 221.060171 
L 171.957545 221.060171 
L 171.957545 219.680929 
L 172.34221 219.680929 
L 172.383284 217.382192 
L 173.997258 217.382192 
L 173.997258 216.462697 
L 174.275077 216.462697 
L 174.275077 216.00295 
L 174.710443 216.00295 
L 174.728346 214.623708 
L 175.230884 214.623708 
L 175.230884 214.16396 
L 176.854607 214.16396 
L 176.854607 213.704213 
L 177.368543 213.704213 
L 177.368543 211.865224 
L 177.597159 211.865224 
L 177.597159 211.405476 
L 179.089782 211.405476 
L 179.089782 210.485982 
L 180.584245 210.485982 
L 180.584245 209.566487 
L 180.811734 209.566487 
L 180.811734 209.10674 
L 181.128936 209.10674 
L 181.128936 207.727497 
L 181.512851 207.727497 
L 181.512851 206.808003 
L 182.203832 206.808003 
L 182.203832 205.428761 
L 182.570359 205.428761 
L 182.570359 204.969013 
L 182.901456 204.969013 
L 182.901456 203.130024 
L 183.280742 203.130024 
L 183.372916 202.210529 
L 184.497858 202.210529 
L 184.513045 200.37154 
L 184.639083 200.37154 
L 184.639083 199.452045 
L 184.759216 199.452045 
L 184.794096 198.072803 
L 186.207732 198.072803 
L 186.207732 197.153308 
L 187.013719 197.153308 
L 187.013719 196.693561 
L 187.295715 196.693561 
L 187.295715 195.314319 
L 187.954188 195.314319 
L 187.954188 194.394824 
L 188.229421 194.394824 
L 188.229421 192.096087 
L 190.724561 192.096087 
L 190.724561 191.176593 
L 192.424241 191.176593 
L 192.462501 189.797351 
L 194.973431 189.797351 
L 194.973431 189.337603 
L 195.658442 189.337603 
L 195.661086 186.119372 
L 196.702096 186.119372 
L 196.741856 184.74013 
L 198.105974 184.74013 
L 198.105974 183.820635 
L 199.305626 183.820635 
L 199.305626 183.360888 
L 199.966168 183.360888 
L 199.966168 182.90114 
L 200.364705 182.90114 
L 200.364705 181.981646 
L 200.939853 181.981646 
L 200.939853 181.521898 
L 207.839558 181.521898 
L 207.900572 179.223161 
L 207.99491 179.223161 
L 208.007792 177.843919 
L 208.174394 177.843919 
L 208.174394 176.924425 
L 208.888825 176.924425 
L 208.888825 175.545183 
L 209.087086 175.545183 
L 209.183561 172.326951 
L 209.266337 172.326951 
L 209.29623 170.028214 
L 209.452025 170.028214 
L 209.452025 169.10872 
L 209.701194 169.10872 
L 209.734999 166.809983 
L 209.966342 166.809983 
L 209.966342 165.890488 
L 210.277176 165.890488 
L 210.277176 165.430741 
L 210.815881 165.430741 
L 210.815881 163.591751 
L 211.231795 163.591751 
L 211.231795 162.672257 
L 211.966185 162.672257 
L 211.966185 161.752762 
L 213.178165 161.752762 
L 213.178165 161.293015 
L 213.712917 161.293015 
L 213.712917 160.833267 
L 214.395632 160.833267 
L 214.395632 159.913773 
L 214.523867 159.913773 
L 214.523867 159.454025 
L 215.563167 159.454025 
L 215.563167 158.994278 
L 218.522975 158.994278 
L 218.522975 158.534531 
L 219.276112 158.534531 
L 219.328807 155.316299 
L 219.994393 155.316299 
L 219.994393 154.856552 
L 221.594726 154.856552 
L 221.594726 153.47731 
L 221.989376 153.47731 
L 222.034378 152.098068 
L 222.107043 152.098068 
L 222.107043 151.178573 
L 224.181845 151.178573 
L 224.270972 149.339583 
L 226.348018 149.339583 
L 226.348018 147.960341 
L 227.029917 147.960341 
L 227.029917 147.040847 
L 227.811786 147.040847 
L 227.811786 146.581099 
L 230.731346 146.581099 
L 230.731346 146.121352 
L 231.473354 146.121352 
L 231.473354 145.661605 
L 232.30577 145.661605 
L 232.30577 145.201857 
L 232.674595 145.201857 
L 232.674595 144.74211 
L 233.040757 144.74211 
L 233.040757 143.822615 
L 233.393109 143.822615 
L 233.478033 139.225142 
L 235.153313 139.225142 
L 235.153313 138.765394 
L 236.332064 138.765394 
L 236.332064 137.386152 
L 236.709593 137.386152 
L 236.709593 136.926405 
L 237.044622 136.926405 
L 237.044622 135.547163 
L 237.500355 135.547163 
L 237.500355 134.167921 
L 237.640756 134.167921 
L 237.640756 133.708173 
L 237.919738 133.708173 
L 237.919738 132.788679 
L 239.772759 132.788679 
L 239.772759 131.869184 
L 240.884897 131.869184 
L 240.985364 130.489942 
L 241.035096 130.489942 
L 241.035096 130.030195 
L 241.642892 130.030195 
L 241.642892 129.570447 
L 241.934891 129.570447 
L 241.934891 128.650953 
L 243.408816 128.650953 
L 243.408816 127.731458 
L 243.60849 127.731458 
L 243.60849 126.811963 
L 244.0301 126.811963 
L 244.0301 126.352216 
L 244.927501 126.352216 
L 244.927501 125.432721 
L 245.778034 125.432721 
L 245.778034 124.513226 
L 248.046301 124.513226 
L 248.046301 124.053479 
L 248.315272 124.053479 
L 248.315272 123.133984 
L 248.829905 123.133984 
L 248.829905 122.674237 
L 251.18903 122.674237 
L 251.18903 122.21449 
L 251.345336 122.21449 
L 251.345336 120.835248 
L 254.263012 120.835248 
L 254.263012 119.456005 
L 256.588326 119.456005 
L 256.588326 118.996258 
L 257.556267 118.996258 
L 257.556267 118.536511 
L 257.79384 118.536511 
L 257.79384 118.076763 
L 258.836399 118.076763 
L 258.91552 116.697521 
L 259.329613 116.697521 
L 259.329613 116.237774 
L 260.048567 116.237774 
L 260.048629 114.858532 
L 261.960501 114.858532 
L 261.960557 113.939037 
L 262.281689 113.939037 
L 262.281689 113.019543 
L 262.5056 113.019543 
L 262.596121 112.100048 
L 264.832308 112.100048 
L 264.903047 110.720806 
L 266.289402 110.720806 
L 266.289402 110.261058 
L 268.351231 110.261058 
L 268.438608 108.881816 
L 268.755839 108.881816 
L 268.8233 107.962322 
L 269.913352 107.962322 
L 269.913352 107.502574 
L 270.733899 107.502574 
L 270.733932 106.123332 
L 276.511595 106.123332 
L 276.511643 105.203837 
L 277.57583 105.203837 
L 277.57583 104.74409 
L 278.252433 104.74409 
L 278.252433 104.284343 
L 279.31066 104.284343 
L 279.31066 103.824595 
L 279.52547 103.824595 
L 279.52547 103.364848 
L 280.610087 103.364848 
L 280.610087 102.905101 
L 284.006038 102.905101 
L 284.006038 102.445353 
L 286.092632 102.445353 
L 286.092673 101.525859 
L 286.839966 101.525859 
L 286.915682 100.606364 
L 288.624967 100.606364 
L 288.625002 99.686869 
L 289.27163 99.686869 
L 289.27172 98.767375 
L 289.849775 98.767375 
L 289.849775 98.307627 
L 291.401271 98.307627 
L 291.401271 97.84788 
L 295.048818 97.84788 
L 295.048818 97.388132 
L 295.41775 97.388132 
L 295.41775 96.928385 
L 296.553396 96.928385 
L 296.553396 96.468638 
L 296.933894 96.468638 
L 296.933923 95.549143 
L 298.01603 95.549143 
L 298.01603 95.089396 
L 299.29043 95.089396 
L 299.29043 94.629648 
L 300.510977 94.629648 
L 300.510977 94.169901 
L 301.650494 94.169901 
L 301.650494 93.710154 
L 302.71907 93.710154 
L 302.719111 92.790659 
L 304.702137 92.790659 
L 304.702137 92.330912 
L 312.071138 92.330912 
L 312.071138 91.871164 
L 333.569032 91.871164 
L 333.569032 91.871164 
" style="fill:none;stroke:#000080;stroke-linecap:square;stroke-width:1.5;"/>
   </g>
   <g id="line2d_48">
    <defs>
     <path d="M 0 6 
C 1.591219 6 3.117479 5.367802 4.242641 4.242641 
C 5.367802 3.117479 6 1.591219 6 0 
C 6 -1.591219 5.367802 -3.117479 4.242641 -4.242641 
C 3.117479 -5.367802 1.591219 -6 0 -6 
C -1.591219 -6 -3.117479 -5.367802 -4.242641 -4.242641 
C -5.367802 -3.117479 -6 -1.591219 -6 0 
C -6 1.591219 -5.367802 3.117479 -4.242641 4.242641 
C -3.117479 5.367802 -1.591219 6 0 6 
z
" id="mb8378250b6" style="stroke:#000080;stroke-width:1.5;"/>
    </defs>
    <g>
     <use style="fill:none;stroke:#000080;stroke-width:1.5;" x="155.413176" xlink:href="#mb8378250b6" y="263.356927"/>
     <use style="fill:none;stroke:#000080;stroke-width:1.5;" x="214.395632" xlink:href="#mb8378250b6" y="160.833267"/>
     <use style="fill:none;stroke:#000080;stroke-width:1.5;" x="268.8233" xlink:href="#mb8378250b6" y="107.962322"/>
     <use style="fill:none;stroke:#000080;stroke-width:1.5;" x="312.071138" xlink:href="#mb8378250b6" y="91.871164"/>
     <use style="fill:none;stroke:#000080;stroke-width:1.5;" x="333.569032" xlink:href="#mb8378250b6" y="91.871164"/>
    </g>
   </g>
   <g id="line2d_49">
    <path style="fill:none;stroke:#000080;stroke-linecap:square;stroke-width:1.5;"/>
    <g/>
   </g>
   <g id="line2d_50">
    <path clip-path="url(#pf4d3a5e8ef)" d="M 254.513721 119.456005 
" style="fill:none;stroke:#000080;stroke-linecap:square;stroke-width:1.5;"/>
    <defs>
     <path d="M -12 12 
L 12 -12 
M -12 -12 
L 12 12 
" id="m16633dba6a" style="stroke:#000080;stroke-width:3;"/>
    </defs>
    <g clip-path="url(#pf4d3a5e8ef)">
     <use style="fill:#000080;stroke:#000080;stroke-width:3;" x="254.513721" xlink:href="#m16633dba6a" y="119.456005"/>
    </g>
   </g>
   <g id="line2d_51">
    <defs>
     <path d="M 0 1.5 
C 0.397805 1.5 0.77937 1.341951 1.06066 1.06066 
C 1.341951 0.77937 1.5 0.397805 1.5 0 
C 1.5 -0.397805 1.341951 -0.77937 1.06066 -1.06066 
C 0.77937 -1.341951 0.397805 -1.5 0 -1.5 
C -0.397805 -1.5 -0.77937 -1.341951 -1.06066 -1.06066 
C -1.341951 -0.77937 -1.5 -0.397805 -1.5 0 
C -1.5 0.397805 -1.341951 0.77937 -1.06066 1.06066 
C -0.77937 1.341951 -0.397805 1.5 0 1.5 
z
" id="mf8a4de9ec5" style="stroke:#ff00ff;"/>
    </defs>
    <g>
     <use style="fill:#ff00ff;stroke:#ff00ff;" x="355.769962" xlink:href="#mf8a4de9ec5" y="124.053479"/>
     <use style="fill:#ff00ff;stroke:#ff00ff;" x="355.769962" xlink:href="#mf8a4de9ec5" y="124.053479"/>
    </g>
   </g>
   <g id="line2d_52">
    <path d="M 44.939466 294.16 
L 44.939466 292.321011 
L 56.84 292.321011 
L 56.84 288.183284 
L 63.801366 288.183284 
L 63.801366 287.723537 
L 68.740534 287.723537 
L 68.740534 284.965053 
L 72.57165 284.965053 
L 72.57165 284.505306 
L 78.348489 284.505306 
L 78.348489 283.126064 
L 87.602435 283.126064 
L 87.602435 282.206569 
L 92.541603 282.206569 
L 92.541603 281.287074 
L 96.372719 281.287074 
L 96.372719 279.907832 
L 97.210389 279.907832 
L 97.210389 278.52859 
L 98.009084 278.52859 
L 98.009084 277.609095 
L 102.752035 277.609095 
L 102.752035 276.229853 
L 104.442137 276.229853 
L 104.442137 275.770106 
L 106.934744 275.770106 
L 106.934744 273.931116 
L 111.757512 273.931116 
L 111.757512 272.551874 
L 113.104779 272.551874 
L 113.104779 270.712885 
L 118.124742 270.712885 
L 118.124742 269.79339 
L 121.613935 269.79339 
L 121.613935 266.115411 
L 124.842574 266.115411 
L 124.842574 265.655664 
L 125.326236 265.655664 
L 125.326236 265.195917 
L 128.640957 265.195917 
L 128.640957 264.736169 
L 129.781742 264.736169 
L 129.781742 264.276422 
L 130.145759 264.276422 
L 130.145759 263.356927 
L 131.529233 263.356927 
L 131.529233 262.89718 
L 134.751541 262.89718 
L 134.751541 261.058191 
L 134.93419 261.058191 
L 134.93419 260.138696 
L 135.991068 260.138696 
L 135.991068 259.678948 
L 140.409928 259.678948 
L 140.409928 258.759454 
L 140.866053 258.759454 
L 140.866053 258.299706 
L 141.435238 258.299706 
L 141.435238 257.839959 
L 143.03764 257.839959 
L 143.03764 257.380212 
L 144.606909 257.380212 
L 144.606909 255.541222 
L 145.901406 255.541222 
L 145.901406 254.16198 
L 149.206606 254.16198 
L 149.206606 252.322991 
L 150.538191 252.322991 
L 150.538191 251.403496 
L 152.474759 251.403496 
L 152.474759 250.484001 
L 153.644019 250.484001 
L 153.644019 250.024254 
L 154.565857 250.024254 
L 154.565857 248.185265 
L 159.749375 248.185265 
L 159.749375 247.725517 
L 162.273197 247.725517 
L 162.273197 247.26577 
L 162.711108 247.26577 
L 162.711108 246.806023 
L 163.82704 246.806023 
L 163.82704 245.886528 
L 166.233195 245.886528 
L 166.233195 244.967033 
L 166.466392 244.967033 
L 166.466392 244.507286 
L 169.302193 244.507286 
L 169.33897 243.587791 
L 170.256927 243.587791 
L 170.256927 243.128044 
L 171.336659 243.128044 
L 171.336659 242.208549 
L 171.520981 242.208549 
L 171.564065 240.36956 
L 171.873229 240.36956 
L 171.873229 239.909812 
L 172.637793 239.909812 
L 172.637793 238.990318 
L 177.36087 238.990318 
L 177.36087 237.611075 
L 181.847049 237.611075 
L 181.847049 237.151328 
L 183.133322 237.151328 
L 183.133322 236.231833 
L 183.894838 236.231833 
L 183.894838 235.772086 
L 188.119036 235.772086 
L 188.119036 235.312339 
L 188.520357 235.312339 
L 188.520357 234.852591 
L 188.671941 234.852591 
L 188.671941 233.933097 
L 189.134298 233.933097 
L 189.134298 232.553855 
L 191.697288 232.553855 
L 191.697288 232.094107 
L 192.605218 232.094107 
L 192.605218 231.63436 
L 195.73231 231.63436 
L 195.73231 230.714865 
L 196.572236 230.714865 
L 196.572236 229.335623 
L 199.811186 229.335623 
L 199.811186 228.875876 
L 203.403595 228.875876 
L 203.403595 227.496634 
L 204.472558 227.496634 
L 204.472558 227.036886 
L 204.723867 227.036886 
L 204.723867 226.577139 
L 205.571113 226.577139 
L 205.571113 226.117392 
L 206.113094 226.117392 
L 206.113094 225.657644 
L 211.059091 225.657644 
L 211.059091 225.197897 
L 212.781001 225.197897 
L 212.781001 223.818655 
L 213.967805 223.818655 
L 213.967805 223.358907 
L 214.976884 223.358907 
L 214.976884 222.439413 
L 215.293181 222.439413 
L 215.293181 221.519918 
L 216.807413 221.519918 
L 216.807413 220.600423 
L 219.157459 220.600423 
L 219.157459 219.221181 
L 219.38466 219.221181 
L 219.38466 218.301687 
L 220.490098 218.301687 
L 220.490098 217.841939 
L 220.686287 217.841939 
L 220.686287 216.922445 
L 221.50402 216.922445 
L 221.50402 215.543202 
L 222.066207 215.543202 
L 222.066207 213.244466 
L 224.45032 213.244466 
L 224.45032 212.784718 
L 225.457564 212.784718 
L 225.457564 211.865224 
L 226.126671 211.865224 
L 226.126671 210.485982 
L 227.417611 210.485982 
L 227.417611 208.187245 
L 228.621337 208.187245 
L 228.621337 206.808003 
L 229.51996 206.808003 
L 229.604727 205.428761 
L 230.33323 205.428761 
L 230.33323 204.969013 
L 234.700398 204.969013 
L 234.700398 203.130024 
L 236.047957 203.130024 
L 236.047957 202.210529 
L 237.533833 202.210529 
L 237.533833 199.452045 
L 238.407997 199.452045 
L 238.407997 198.53255 
L 239.298177 198.53255 
L 239.298177 198.072803 
L 239.482216 198.072803 
L 239.482216 196.233814 
L 240.572383 196.233814 
L 240.572383 195.774066 
L 241.370946 195.774066 
L 241.370946 195.314319 
L 241.745892 195.314319 
L 241.745892 194.394824 
L 244.218967 194.394824 
L 244.218967 193.935077 
L 245.856199 193.935077 
L 245.856199 192.555835 
L 245.998372 192.555835 
L 245.998372 191.63634 
L 247.701756 191.63634 
L 247.701756 191.176593 
L 248.752318 191.176593 
L 248.752318 190.716845 
L 248.96105 190.716845 
L 248.96105 190.257098 
L 250.509244 190.257098 
L 250.509244 188.877856 
L 250.784781 188.877856 
L 250.784781 187.498614 
L 252.887125 187.498614 
L 252.887125 187.038867 
L 256.171615 187.038867 
L 256.171615 185.659624 
L 257.460136 185.659624 
L 257.536637 184.280382 
L 260.640188 184.280382 
L 260.651293 182.90114 
L 260.996264 182.90114 
L 260.996264 182.441393 
L 263.799345 182.441393 
L 263.799345 181.981646 
L 264.422899 181.981646 
L 264.422899 181.062151 
L 265.39027 181.062151 
L 265.39027 180.602404 
L 265.559093 180.602404 
L 265.559093 179.223161 
L 265.808856 179.223161 
L 265.808856 177.843919 
L 266.52142 177.843919 
L 266.52142 177.384172 
L 266.762244 177.384172 
L 266.762244 176.00493 
L 268.873556 176.00493 
L 268.873556 175.085435 
L 269.932619 175.085435 
L 269.932619 174.625688 
L 270.830124 174.625688 
L 270.830124 173.706193 
L 273.289699 173.706193 
L 273.311385 172.326951 
L 279.542372 172.326951 
L 279.542372 171.407456 
L 279.958422 171.407456 
L 279.958422 170.947709 
L 280.177801 170.947709 
L 280.177801 170.487962 
L 281.086413 170.487962 
L 281.086413 170.028214 
L 282.873268 170.028214 
L 282.873268 169.568467 
L 283.232292 169.568467 
L 283.232292 167.729478 
L 283.686775 167.729478 
L 283.686775 166.809983 
L 285.721866 166.809983 
L 285.721866 165.890488 
L 288.760295 165.890488 
L 288.760295 164.511246 
L 289.315557 164.511246 
L 289.315557 163.591751 
L 291.111895 163.591751 
L 291.134232 162.212509 
L 291.445142 162.212509 
L 291.445142 160.833267 
L 292.835888 160.833267 
L 292.835888 160.37352 
L 294.501505 160.37352 
L 294.501505 159.913773 
L 295.312127 159.913773 
L 295.345607 158.994278 
L 295.831194 158.994278 
L 295.831194 158.074783 
L 296.851831 158.074783 
L 296.851831 157.155288 
L 297.988066 157.155288 
L 298.003532 156.235794 
L 298.528332 156.235794 
L 298.626414 154.396804 
L 298.916187 154.396804 
L 298.916187 153.937057 
L 299.99971 153.937057 
L 299.99971 153.47731 
L 300.30213 153.47731 
L 300.30213 153.017562 
L 300.654968 153.017562 
L 300.654968 152.098068 
L 301.247046 152.098068 
L 301.247046 151.63832 
L 301.530399 151.63832 
L 301.530399 150.718826 
L 302.435496 150.718826 
L 302.435496 150.259078 
L 304.536829 150.259078 
L 304.536829 149.799331 
L 304.690099 149.799331 
L 304.690099 148.879836 
L 306.857732 148.879836 
L 306.857732 148.420089 
L 308.034792 148.420089 
L 308.034792 147.040847 
L 309.279678 147.040847 
L 309.279678 146.581099 
L 309.393825 146.581099 
L 309.393825 146.121352 
L 309.563159 146.121352 
L 309.563159 145.661605 
L 309.918018 145.661605 
L 309.918018 145.201857 
L 310.089575 145.201857 
L 310.089575 144.282363 
L 311.977665 144.282363 
L 312.077187 143.362868 
L 315.775138 143.362868 
L 315.775138 141.983626 
L 316.837123 141.983626 
L 316.837123 141.523878 
L 317.225322 141.523878 
L 317.225322 141.064131 
L 318.918379 141.064131 
L 318.918379 140.604384 
L 319.630847 140.604384 
L 319.652733 139.684889 
L 320.038996 139.684889 
L 320.038996 139.225142 
L 320.873007 139.225142 
L 320.873007 138.765394 
L 323.117945 138.765394 
L 323.117945 138.305647 
L 324.138425 138.305647 
L 324.138425 137.8459 
L 324.393142 137.8459 
L 324.393142 137.386152 
L 326.297399 137.386152 
L 326.297399 136.926405 
L 328.927222 136.926405 
L 328.927222 136.466658 
L 329.24507 136.466658 
L 329.24507 136.00691 
L 330.093477 136.00691 
L 330.093477 135.547163 
L 330.658056 135.547163 
L 330.658056 135.087416 
L 331.041411 135.087416 
L 331.041411 134.167921 
L 331.322733 134.167921 
L 331.322733 133.708173 
L 332.773606 133.708173 
L 332.773606 132.788679 
L 333.175894 132.788679 
L 333.175894 132.328931 
L 333.298013 132.328931 
L 333.298013 131.869184 
L 333.569032 131.869184 
L 333.569032 131.869184 
" style="fill:none;stroke:#ff00ff;stroke-linecap:square;stroke-width:1.5;"/>
   </g>
   <g id="line2d_53">
    <defs>
     <path d="M -0 8.485281 
L 5.091169 0 
L 0 -8.485281 
L -5.091169 -0 
z
" id="m8145e13545" style="stroke:#ff00ff;stroke-linejoin:miter;stroke-width:1.5;"/>
    </defs>
    <g>
     <use style="fill:none;stroke:#ff00ff;stroke-linejoin:miter;stroke-width:1.5;" x="125.326236" xlink:href="#m8145e13545" y="265.655664"/>
     <use style="fill:none;stroke:#ff00ff;stroke-linejoin:miter;stroke-width:1.5;" x="192.605218" xlink:href="#m8145e13545" y="232.094107"/>
     <use style="fill:none;stroke:#ff00ff;stroke-linejoin:miter;stroke-width:1.5;" x="252.887125" xlink:href="#m8145e13545" y="187.498614"/>
     <use style="fill:none;stroke:#ff00ff;stroke-linejoin:miter;stroke-width:1.5;" x="301.530399" xlink:href="#m8145e13545" y="150.718826"/>
     <use style="fill:none;stroke:#ff00ff;stroke-linejoin:miter;stroke-width:1.5;" x="333.298013" xlink:href="#m8145e13545" y="131.869184"/>
     <use style="fill:none;stroke:#ff00ff;stroke-linejoin:miter;stroke-width:1.5;" x="333.569032" xlink:href="#m8145e13545" y="131.869184"/>
    </g>
   </g>
   <g id="line2d_54">
    <path style="fill:none;stroke:#ff00ff;stroke-linecap:square;stroke-width:1.5;"/>
    <g/>
   </g>
   <g id="line2d_55">
    <path clip-path="url(#pf4d3a5e8ef)" d="M 294.036313 160.37352 
" style="fill:none;stroke:#ff00ff;stroke-linecap:square;stroke-width:1.5;"/>
    <defs>
     <path d="M -12 12 
L 12 -12 
M -12 -12 
L 12 12 
" id="m0bbdf84cc6" style="stroke:#ff00ff;stroke-width:3;"/>
    </defs>
    <g clip-path="url(#pf4d3a5e8ef)">
     <use style="fill:#ff00ff;stroke:#ff00ff;stroke-width:3;" x="294.036313" xlink:href="#m0bbdf84cc6" y="160.37352"/>
    </g>
   </g>
   <g id="line2d_56">
    <defs>
     <path d="M 0 1.5 
C 0.397805 1.5 0.77937 1.341951 1.06066 1.06066 
C 1.341951 0.77937 1.5 0.397805 1.5 0 
C 1.5 -0.397805 1.341951 -0.77937 1.06066 -1.06066 
C 0.77937 -1.341951 0.397805 -1.5 0 -1.5 
C -0.397805 -1.5 -0.77937 -1.341951 -1.06066 -1.06066 
C -1.341951 -0.77937 -1.5 -0.397805 -1.5 0 
C -1.5 0.397805 -1.341951 0.77937 -1.06066 1.06066 
C -0.77937 1.341951 -0.397805 1.5 0 1.5 
z
" id="mef774108e7" style="stroke:#ffa500;"/>
    </defs>
    <g>
     <use style="fill:#ffa500;stroke:#ffa500;" x="246.409711" xlink:href="#mef774108e7" y="238.990318"/>
     <use style="fill:#ffa500;stroke:#ffa500;" x="246.409711" xlink:href="#mef774108e7" y="238.990318"/>
    </g>
   </g>
   <g id="line2d_57">
    <path d="M 44.939466 294.16 
L 44.939466 284.965053 
L 112.444358 284.965053 
L 112.444358 283.585811 
L 142.046294 283.585811 
L 142.046294 282.666316 
L 143.03764 282.666316 
L 143.03764 281.746821 
L 146.092172 281.746821 
L 146.092172 280.367579 
L 147.762996 280.367579 
L 147.762996 279.907832 
L 148.725205 279.907832 
L 148.725205 278.068843 
L 153.273454 278.068843 
L 153.273454 276.689601 
L 157.462911 276.689601 
L 157.462911 276.229853 
L 161.087349 276.229853 
L 161.087349 272.551874 
L 164.375293 272.551874 
L 164.375293 270.253138 
L 167.091816 270.253138 
L 167.091816 269.333643 
L 175.489586 269.333643 
L 175.489586 268.873896 
L 177.792861 268.873896 
L 177.792861 268.414148 
L 182.962486 268.414148 
L 183.001211 266.115411 
L 183.20446 266.115411 
L 183.20446 265.195917 
L 183.475353 265.195917 
L 183.475353 264.736169 
L 184.294071 264.736169 
L 184.294071 264.276422 
L 184.694248 264.276422 
L 184.694248 263.816675 
L 184.853728 263.816675 
L 184.932915 262.89718 
L 185.011739 262.89718 
L 185.109763 261.977685 
L 185.362037 261.977685 
L 185.362037 261.517938 
L 185.761884 261.517938 
L 185.761884 261.058191 
L 187.950046 261.058191 
L 187.950046 260.598443 
L 188.536376 260.598443 
L 188.536376 259.678948 
L 191.673963 259.678948 
L 191.673963 259.219201 
L 192.494318 259.219201 
L 192.51973 257.839959 
L 195.589565 257.839959 
L 195.589565 257.380212 
L 195.988371 257.380212 
L 195.988371 256.920464 
L 197.506444 256.920464 
L 197.506444 256.460717 
L 198.167761 256.460717 
L 198.167761 256.00097 
L 200.247731 256.00097 
L 200.247731 255.541222 
L 202.440863 255.541222 
L 202.440863 255.081475 
L 203.102931 255.081475 
L 203.102931 254.621728 
L 207.839558 254.621728 
L 207.839558 254.16198 
L 208.250746 254.16198 
L 208.250746 253.702233 
L 211.379514 253.702233 
L 211.379514 253.242485 
L 211.785253 253.242485 
L 211.785253 252.782738 
L 214.451466 252.782738 
L 214.451466 252.322991 
L 216.798926 252.322991 
L 216.798926 251.863243 
L 219.021715 251.863243 
L 219.021715 251.403496 
L 219.213201 251.403496 
L 219.213201 250.943749 
L 221.001522 250.943749 
L 221.008771 250.024254 
L 222.726254 250.024254 
L 222.75028 249.104759 
L 224.382974 249.104759 
L 224.382974 248.645012 
L 224.521341 248.645012 
L 224.521341 248.185265 
L 224.703464 248.185265 
L 224.703464 247.725517 
L 226.160704 247.725517 
L 226.160704 247.26577 
L 227.389315 247.26577 
L 227.495601 246.346275 
L 228.703319 246.346275 
L 228.737234 245.42678 
L 229.687984 245.42678 
L 229.779538 244.507286 
L 230.971673 244.507286 
L 230.971673 244.047538 
L 231.872168 244.047538 
L 231.872168 243.587791 
L 231.98853 243.587791 
L 231.98853 243.128044 
L 233.713036 243.128044 
L 233.713036 242.668296 
L 235.544156 242.668296 
L 235.544156 242.208549 
L 237.097701 242.208549 
L 237.097701 241.748802 
L 239.837625 241.748802 
L 239.837625 241.289054 
L 242.072852 241.289054 
L 242.072852 240.829307 
L 242.698596 240.829307 
L 242.698596 240.36956 
L 243.610595 240.36956 
L 243.610595 239.909812 
L 245.960009 239.909812 
L 245.960009 239.450065 
L 246.409711 239.450065 
L 246.409711 238.990318 
L 333.569032 238.990318 
L 333.569032 238.990318 
" style="fill:none;stroke:#ffa500;stroke-linecap:square;stroke-width:1.5;"/>
   </g>
   <g id="line2d_58">
    <defs>
     <path d="M 0 -6 
L -1.347084 -1.854102 
L -5.706339 -1.854102 
L -2.179628 0.708204 
L -3.526712 4.854102 
L -0 2.291796 
L 3.526712 4.854102 
L 2.179628 0.708204 
L 5.706339 -1.854102 
L 1.347084 -1.854102 
z
" id="m48804d6a70" style="stroke:#ffa500;stroke-linejoin:bevel;stroke-width:1.5;"/>
    </defs>
    <g>
     <use style="fill:none;stroke:#ffa500;stroke-linejoin:bevel;stroke-width:1.5;" x="112.444358" xlink:href="#m48804d6a70" y="284.965053"/>
     <use style="fill:none;stroke:#ffa500;stroke-linejoin:bevel;stroke-width:1.5;" x="177.792861" xlink:href="#m48804d6a70" y="268.414148"/>
     <use style="fill:none;stroke:#ffa500;stroke-linejoin:bevel;stroke-width:1.5;" x="243.610595" xlink:href="#m48804d6a70" y="239.909812"/>
     <use style="fill:none;stroke:#ffa500;stroke-linejoin:bevel;stroke-width:1.5;" x="246.409711" xlink:href="#m48804d6a70" y="238.990318"/>
     <use style="fill:none;stroke:#ffa500;stroke-linejoin:bevel;stroke-width:1.5;" x="246.409711" xlink:href="#m48804d6a70" y="238.990318"/>
     <use style="fill:none;stroke:#ffa500;stroke-linejoin:bevel;stroke-width:1.5;" x="333.569032" xlink:href="#m48804d6a70" y="238.990318"/>
    </g>
   </g>
   <g id="line2d_59">
    <path style="fill:none;stroke:#ffa500;stroke-linecap:square;stroke-width:1.5;"/>
    <g/>
   </g>
   <g id="line2d_60">
    <path clip-path="url(#pf4d3a5e8ef)" d="M 183.001211 266.115411 
" style="fill:none;stroke:#ffa500;stroke-linecap:square;stroke-width:1.5;"/>
    <defs>
     <path d="M -12 12 
L 12 -12 
M -12 -12 
L 12 12 
" id="mb52198d0a7" style="stroke:#ffa500;stroke-width:3;"/>
    </defs>
    <g clip-path="url(#pf4d3a5e8ef)">
     <use style="fill:#ffa500;stroke:#ffa500;stroke-width:3;" x="183.001211" xlink:href="#mb52198d0a7" y="266.115411"/>
    </g>
   </g>
   <g id="line2d_61">
    <defs>
     <path d="M 0 1.5 
C 0.397805 1.5 0.77937 1.341951 1.06066 1.06066 
C 1.341951 0.77937 1.5 0.397805 1.5 0 
C 1.5 -0.397805 1.341951 -0.77937 1.06066 -1.06066 
C 0.77937 -1.341951 0.397805 -1.5 0 -1.5 
C -0.397805 -1.5 -0.77937 -1.341951 -1.06066 -1.06066 
C -1.341951 -0.77937 -1.5 -0.397805 -1.5 0 
C -1.5 0.397805 -1.341951 0.77937 -1.06066 1.06066 
C -0.77937 1.341951 -0.397805 1.5 0 1.5 
z
" id="m93513c24b2" style="stroke:#6495ed;"/>
    </defs>
    <g>
     <use style="fill:#6495ed;stroke:#6495ed;" x="270.938671" xlink:href="#m93513c24b2" y="128.650953"/>
     <use style="fill:#6495ed;stroke:#6495ed;" x="270.938671" xlink:href="#m93513c24b2" y="128.650953"/>
    </g>
   </g>
   <g id="line2d_62">
    <path d="M 44.939466 294.16 
L 44.939466 287.26379 
L 68.740534 287.26379 
L 68.740534 286.804042 
L 75.7019 286.804042 
L 75.7019 285.884548 
L 80.641068 285.884548 
L 80.641068 283.585811 
L 82.663267 283.585811 
L 82.663267 283.126064 
L 86.10855 283.126064 
L 86.10855 282.206569 
L 87.602435 282.206569 
L 87.602435 280.367579 
L 98.77227 280.367579 
L 98.77227 279.907832 
L 100.877209 279.907832 
L 100.877209 279.448085 
L 103.897048 279.448085 
L 103.897048 278.068843 
L 105.482991 278.068843 
L 105.482991 277.609095 
L 110.672804 277.609095 
L 110.672804 273.471369 
L 111.757512 273.471369 
L 111.757512 270.253138 
L 117.63417 270.253138 
L 117.63417 269.79339 
L 119.293141 269.79339 
L 119.293141 268.873896 
L 119.73911 268.873896 
L 119.73911 267.954401 
L 121.214642 267.954401 
L 121.214642 266.575159 
L 122.195986 266.575159 
L 122.195986 266.115411 
L 123.304037 266.115411 
L 123.304037 265.655664 
L 125.326236 265.655664 
L 125.326236 265.195917 
L 125.484475 265.195917 
L 125.484475 264.736169 
L 126.103239 264.736169 
L 126.103239 263.816675 
L 129.903941 263.816675 
L 129.903941 263.356927 
L 130.502219 263.356927 
L 130.502219 262.89718 
L 130.619413 262.89718 
L 130.619413 262.437433 
L 131.306258 262.437433 
L 131.306258 261.977685 
L 132.074321 261.977685 
L 132.181293 260.598443 
L 137.541803 260.598443 
L 137.541803 260.138696 
L 138.453637 260.138696 
L 138.453637 257.839959 
L 139.667741 257.839959 
L 139.667741 256.920464 
L 140.930236 256.920464 
L 140.930236 256.00097 
L 141.184594 256.00097 
L 141.184594 255.081475 
L 141.682276 255.081475 
L 141.682276 254.16198 
L 142.923938 254.16198 
L 142.923938 253.702233 
L 145.853381 253.702233 
L 145.949296 251.863243 
L 146.513802 251.863243 
L 146.606108 250.024254 
L 147.149758 250.024254 
L 147.149758 248.185265 
L 148.355084 248.185265 
L 148.396605 246.806023 
L 149.980108 246.806023 
L 149.980108 246.346275 
L 150.574759 246.346275 
L 150.574759 244.967033 
L 152.990185 244.967033 
L 152.990185 244.047538 
L 154.449655 244.047538 
L 154.449655 243.587791 
L 154.994743 243.587791 
L 154.994743 242.208549 
L 155.135357 242.208549 
L 155.135357 240.36956 
L 156.220637 240.36956 
L 156.273141 238.53057 
L 156.429697 238.53057 
L 156.429697 238.070823 
L 156.661887 238.070823 
L 156.661887 235.772086 
L 157.06707 235.772086 
L 157.06707 234.852591 
L 157.968976 234.852591 
L 157.968976 234.392844 
L 158.98327 234.392844 
L 158.98327 233.933097 
L 159.577255 233.933097 
L 159.66353 231.174612 
L 160.151375 231.174612 
L 160.151375 230.255118 
L 163.537622 230.255118 
L 163.537622 227.956381 
L 164.699243 227.956381 
L 164.699243 226.577139 
L 166.466392 226.577139 
L 166.509766 225.657644 
L 168.160565 225.657644 
L 168.160565 224.278402 
L 168.278205 224.278402 
L 168.278205 223.818655 
L 168.433815 223.818655 
L 168.433815 223.358907 
L 170.578924 223.358907 
L 170.578924 221.519918 
L 171.596306 221.519918 
L 171.596306 219.680929 
L 171.97856 219.680929 
L 171.97856 219.221181 
L 172.898539 219.221181 
L 172.898539 218.301687 
L 173.837808 218.301687 
L 173.903643 216.922445 
L 174.192202 216.922445 
L 174.192202 216.00295 
L 174.985861 216.00295 
L 174.985861 215.543202 
L 175.300254 215.543202 
L 175.300254 215.083455 
L 176.679819 215.083455 
L 176.679819 214.623708 
L 178.746324 214.623708 
L 178.746324 213.704213 
L 179.78343 213.704213 
L 179.78343 212.324971 
L 180.767735 212.324971 
L 180.767735 210.945729 
L 181.325013 210.945729 
L 181.325013 210.485982 
L 182.507916 210.485982 
L 182.507916 209.10674 
L 183.039848 209.10674 
L 183.039848 208.646992 
L 184.669195 208.646992 
L 184.669195 207.727497 
L 187.636547 207.727497 
L 187.636547 207.26775 
L 188.200871 207.26775 
L 188.200871 205.888508 
L 188.548381 205.888508 
L 188.548381 204.969013 
L 191.94523 204.969013 
L 191.94523 203.130024 
L 192.111808 203.130024 
L 192.157254 201.750782 
L 192.73109 201.750782 
L 192.771801 200.831287 
L 193.932749 200.831287 
L 193.932749 198.992298 
L 196.850723 198.992298 
L 196.850723 198.53255 
L 198.025547 198.53255 
L 198.025547 198.072803 
L 199.294933 198.072803 
L 199.294933 197.153308 
L 199.742548 197.153308 
L 199.742548 196.233814 
L 201.69839 196.233814 
L 201.69839 194.394824 
L 202.303176 194.394824 
L 202.303176 193.475329 
L 204.686404 193.475329 
L 204.686404 193.015582 
L 205.185381 193.015582 
L 205.235399 192.096087 
L 205.341016 192.096087 
L 205.450473 191.176593 
L 205.459438 191.176593 
L 205.52653 189.797351 
L 205.695333 189.797351 
L 205.774716 188.418109 
L 206.035263 188.418109 
L 206.082868 187.498614 
L 206.252021 187.498614 
L 206.290492 185.659624 
L 206.468893 185.659624 
L 206.495635 184.74013 
L 206.860203 184.74013 
L 206.937132 182.90114 
L 207.036899 182.90114 
L 207.036899 182.441393 
L 207.192901 182.441393 
L 207.234712 180.602404 
L 207.334109 180.602404 
L 207.408948 178.763414 
L 207.961369 178.763414 
L 207.972987 177.843919 
L 208.348235 177.843919 
L 208.365901 176.464677 
L 208.832457 176.464677 
L 208.832457 176.00493 
L 209.088295 176.00493 
L 209.088295 175.545183 
L 209.229197 175.545183 
L 209.229197 175.085435 
L 210.142375 175.085435 
L 210.142375 174.625688 
L 211.31803 174.625688 
L 211.332891 172.786699 
L 211.536462 172.786699 
L 211.536462 172.326951 
L 215.071021 172.326951 
L 215.076141 171.407456 
L 216.48978 171.407456 
L 216.48978 170.947709 
L 216.608802 170.947709 
L 216.608802 170.487962 
L 216.909698 170.487962 
L 217.004516 169.568467 
L 217.058572 169.568467 
L 217.083639 168.648972 
L 217.318842 168.648972 
L 217.41739 167.729478 
L 217.433759 167.729478 
L 217.433759 167.26973 
L 217.717731 167.26973 
L 217.822022 165.890488 
L 218.240768 165.890488 
L 218.255663 164.970994 
L 218.5975 164.970994 
L 218.5975 164.511246 
L 218.716623 164.511246 
L 218.716623 164.051499 
L 218.941521 164.051499 
L 218.941521 163.591751 
L 219.466119 163.591751 
L 219.466119 163.132004 
L 220.169046 163.132004 
L 220.273371 162.212509 
L 220.280933 162.212509 
L 220.282193 161.293015 
L 220.533614 161.293015 
L 220.533614 160.833267 
L 221.940252 160.833267 
L 221.940252 160.37352 
L 222.49022 160.37352 
L 222.49022 159.913773 
L 223.810382 159.913773 
L 223.866719 158.994278 
L 223.991028 158.994278 
L 224.064981 158.074783 
L 224.203418 158.074783 
L 224.276964 155.316299 
L 224.347213 155.316299 
L 224.347213 154.856552 
L 224.753551 154.856552 
L 224.802524 153.937057 
L 225.458496 153.937057 
L 225.458496 153.47731 
L 225.976751 153.47731 
L 225.97856 152.557815 
L 226.923695 152.557815 
L 226.923695 152.098068 
L 228.844703 152.098068 
L 228.941233 151.178573 
L 229.598503 151.178573 
L 229.636544 149.799331 
L 229.919195 149.799331 
L 229.919195 148.879836 
L 230.369679 148.879836 
L 230.369679 148.420089 
L 231.639651 148.420089 
L 231.642577 147.500594 
L 232.731743 147.500594 
L 232.731743 147.040847 
L 233.067106 147.040847 
L 233.17002 145.661605 
L 233.752755 145.661605 
L 233.815026 144.74211 
L 234.369967 144.74211 
L 234.369967 144.282363 
L 235.628641 144.282363 
L 235.628641 143.822615 
L 235.755745 143.822615 
L 235.770576 142.903121 
L 235.922499 142.903121 
L 235.922499 142.443373 
L 236.138013 142.443373 
L 236.138763 141.523878 
L 236.360736 141.523878 
L 236.360736 141.064131 
L 236.621764 141.064131 
L 236.621764 140.604384 
L 237.023962 140.604384 
L 237.023962 140.144636 
L 238.578785 140.144636 
L 238.578785 139.684889 
L 238.864406 139.684889 
L 238.864406 139.225142 
L 239.084558 139.225142 
L 239.084558 138.765394 
L 239.543264 138.765394 
L 239.543264 138.305647 
L 242.752634 138.305647 
L 242.752634 137.8459 
L 242.977016 137.8459 
L 242.977016 137.386152 
L 243.189379 137.386152 
L 243.189379 136.926405 
L 243.425517 136.926405 
L 243.425517 136.466658 
L 243.801226 136.466658 
L 243.801226 136.00691 
L 245.462493 136.00691 
L 245.462493 135.547163 
L 246.966319 135.547163 
L 246.971112 134.627668 
L 247.545147 134.627668 
L 247.545147 134.167921 
L 248.361125 134.167921 
L 248.361125 133.708173 
L 249.199223 133.708173 
L 249.199223 133.248426 
L 249.648348 133.248426 
L 249.648348 132.788679 
L 250.305353 132.788679 
L 250.305353 132.328931 
L 250.845014 132.328931 
L 250.845014 131.869184 
L 251.740075 131.869184 
L 251.740075 131.409437 
L 256.499753 131.409437 
L 256.499753 130.949689 
L 257.022093 130.949689 
L 257.022093 130.489942 
L 261.651145 130.489942 
L 261.651145 130.030195 
L 263.403323 130.030195 
L 263.403323 129.570447 
L 263.949993 129.570447 
L 263.949993 129.1107 
L 270.938671 129.1107 
L 270.938671 128.650953 
L 333.569032 128.650953 
L 333.569032 128.650953 
" style="fill:none;stroke:#6495ed;stroke-linecap:square;stroke-width:1.5;"/>
   </g>
   <g id="line2d_63">
    <defs>
     <path d="M -0 6 
L 6 -6 
L -6 -6 
z
" id="m0107963ac7" style="stroke:#6495ed;stroke-linejoin:miter;stroke-width:1.5;"/>
    </defs>
    <g>
     <use style="fill:none;stroke:#6495ed;stroke-linejoin:miter;stroke-width:1.5;" x="105.482991" xlink:href="#m0107963ac7" y="278.068843"/>
     <use style="fill:none;stroke:#6495ed;stroke-linejoin:miter;stroke-width:1.5;" x="164.699243" xlink:href="#m0107963ac7" y="226.577139"/>
     <use style="fill:none;stroke:#6495ed;stroke-linejoin:miter;stroke-width:1.5;" x="207.972987" xlink:href="#m0107963ac7" y="178.303667"/>
     <use style="fill:none;stroke:#6495ed;stroke-linejoin:miter;stroke-width:1.5;" x="270.938671" xlink:href="#m0107963ac7" y="129.1107"/>
     <use style="fill:none;stroke:#6495ed;stroke-linejoin:miter;stroke-width:1.5;" x="270.938671" xlink:href="#m0107963ac7" y="128.650953"/>
     <use style="fill:none;stroke:#6495ed;stroke-linejoin:miter;stroke-width:1.5;" x="333.569032" xlink:href="#m0107963ac7" y="128.650953"/>
    </g>
   </g>
   <g id="line2d_64">
    <path style="fill:none;stroke:#6495ed;stroke-linecap:square;stroke-width:1.5;"/>
    <g/>
   </g>
   <g id="line2d_65">
    <path clip-path="url(#pf4d3a5e8ef)" d="M 204.531001 193.475329 
" style="fill:none;stroke:#6495ed;stroke-linecap:square;stroke-width:1.5;"/>
    <defs>
     <path d="M -12 12 
L 12 -12 
M -12 -12 
L 12 12 
" id="m2688c2a1b7" style="stroke:#6495ed;stroke-width:3;"/>
    </defs>
    <g clip-path="url(#pf4d3a5e8ef)">
     <use style="fill:#6495ed;stroke:#6495ed;stroke-width:3;" x="204.531001" xlink:href="#m2688c2a1b7" y="193.475329"/>
    </g>
   </g>
   <g id="line2d_66">
    <path d="M 333.569032 238.990318 
L 364.009226 288.826931 
" style="fill:none;stroke:#ffa500;stroke-linecap:square;stroke-width:1.5;"/>
    <g>
     <use style="fill:none;stroke:#ffa500;stroke-linejoin:bevel;stroke-width:1.5;" x="333.569032" xlink:href="#m48804d6a70" y="238.990318"/>
     <use style="fill:none;stroke:#ffa500;stroke-linejoin:bevel;stroke-width:1.5;" x="364.009226" xlink:href="#m48804d6a70" y="288.826931"/>
    </g>
   </g>
   <g id="line2d_67">
    <path d="M 333.569032 131.869184 
L 364.009226 224.830099 
" style="fill:none;stroke:#ff00ff;stroke-linecap:square;stroke-width:1.5;"/>
    <g>
     <use style="fill:none;stroke:#ff00ff;stroke-linejoin:miter;stroke-width:1.5;" x="333.569032" xlink:href="#m8145e13545" y="131.869184"/>
     <use style="fill:none;stroke:#ff00ff;stroke-linejoin:miter;stroke-width:1.5;" x="364.009226" xlink:href="#m8145e13545" y="224.830099"/>
    </g>
   </g>
   <g id="line2d_68">
    <path d="M 333.569032 128.650953 
L 364.009226 160.833267 
" style="fill:none;stroke:#6495ed;stroke-linecap:square;stroke-width:1.5;"/>
    <g>
     <use style="fill:none;stroke:#6495ed;stroke-linejoin:miter;stroke-width:1.5;" x="333.569032" xlink:href="#m0107963ac7" y="128.650953"/>
     <use style="fill:none;stroke:#6495ed;stroke-linejoin:miter;stroke-width:1.5;" x="364.009226" xlink:href="#m0107963ac7" y="160.833267"/>
    </g>
   </g>
   <g id="line2d_69">
    <path d="M 333.569032 91.871164 
L 364.009226 96.836436 
" style="fill:none;stroke:#000080;stroke-linecap:square;stroke-width:1.5;"/>
    <g>
     <use style="fill:none;stroke:#000080;stroke-width:1.5;" x="333.569032" xlink:href="#mb8378250b6" y="91.871164"/>
     <use style="fill:none;stroke:#000080;stroke-width:1.5;" x="364.009226" xlink:href="#mb8378250b6" y="96.836436"/>
    </g>
   </g>
   <g id="line2d_70">
    <path d="M 333.569032 294.16 
L 333.569032 27.506535 
" style="fill:none;stroke:#000000;stroke-linecap:square;stroke-width:1.5;"/>
   </g>
   <g id="patch_3">
    <path d="M 56.84 294.16 
L 56.84 24.84 
" style="fill:none;stroke:#000000;stroke-linecap:square;stroke-linejoin:miter;stroke-width:0.8;"/>
   </g>
   <g id="patch_4">
    <path d="M 399.984 294.16 
L 399.984 24.84 
" style="fill:none;stroke:#000000;stroke-linecap:square;stroke-linejoin:miter;stroke-width:0.8;"/>
   </g>
   <g id="patch_5">
    <path d="M 56.84 294.16 
L 399.984 294.16 
" style="fill:none;stroke:#000000;stroke-linecap:square;stroke-linejoin:miter;stroke-width:0.8;"/>
   </g>
   <g id="patch_6">
    <path d="M 56.84 24.84 
L 399.984 24.84 
" style="fill:none;stroke:#000000;stroke-linecap:square;stroke-linejoin:miter;stroke-width:0.8;"/>
   </g>
   <g id="text_14">
    <!-- adaptiveH -->
    <defs>
     <path d="M 9.8125 72.90625 
L 19.671875 72.90625 
L 19.671875 43.015625 
L 55.515625 43.015625 
L 55.515625 72.90625 
L 65.375 72.90625 
L 65.375 0 
L 55.515625 0 
L 55.515625 34.71875 
L 19.671875 34.71875 
L 19.671875 0 
L 9.8125 0 
z
" id="DejaVuSans-48"/>
    </defs>
    <g transform="translate(369.543806 293.517868)scale(0.17 -0.17)">
     <use xlink:href="#DejaVuSans-61"/>
     <use x="61.279297" xlink:href="#DejaVuSans-64"/>
     <use x="124.755859" xlink:href="#DejaVuSans-61"/>
     <use x="186.035156" xlink:href="#DejaVuSans-70"/>
     <use x="249.511719" xlink:href="#DejaVuSans-74"/>
     <use x="288.720703" xlink:href="#DejaVuSans-69"/>
     <use x="316.503906" xlink:href="#DejaVuSans-76"/>
     <use x="375.683594" xlink:href="#DejaVuSans-65"/>
     <use x="437.207031" xlink:href="#DejaVuSans-48"/>
    </g>
   </g>
   <g id="text_15">
    <!-- RANDOMSEA -->
    <defs>
     <path d="M 44.390625 34.1875 
Q 47.5625 33.109375 50.5625 29.59375 
Q 53.5625 26.078125 56.59375 19.921875 
L 66.609375 0 
L 56 0 
L 46.6875 18.703125 
Q 43.0625 26.03125 39.671875 28.421875 
Q 36.28125 30.8125 30.421875 30.8125 
L 19.671875 30.8125 
L 19.671875 0 
L 9.8125 0 
L 9.8125 72.90625 
L 32.078125 72.90625 
Q 44.578125 72.90625 50.734375 67.671875 
Q 56.890625 62.453125 56.890625 51.90625 
Q 56.890625 45.015625 53.6875 40.46875 
Q 50.484375 35.9375 44.390625 34.1875 
M 19.671875 64.796875 
L 19.671875 38.921875 
L 32.078125 38.921875 
Q 39.203125 38.921875 42.84375 42.21875 
Q 46.484375 45.515625 46.484375 51.90625 
Q 46.484375 58.296875 42.84375 61.546875 
Q 39.203125 64.796875 32.078125 64.796875 
z
" id="DejaVuSans-52"/>
     <path d="M 34.1875 63.1875 
L 20.796875 26.90625 
L 47.609375 26.90625 
z
M 28.609375 72.90625 
L 39.796875 72.90625 
L 67.578125 0 
L 57.328125 0 
L 50.6875 18.703125 
L 17.828125 18.703125 
L 11.1875 0 
L 0.78125 0 
z
" id="DejaVuSans-41"/>
     <path d="M 9.8125 72.90625 
L 23.09375 72.90625 
L 55.421875 11.921875 
L 55.421875 72.90625 
L 64.984375 72.90625 
L 64.984375 0 
L 51.703125 0 
L 19.390625 60.984375 
L 19.390625 0 
L 9.8125 0 
z
" id="DejaVuSans-4e"/>
     <path d="M 19.671875 64.796875 
L 19.671875 8.109375 
L 31.59375 8.109375 
Q 46.6875 8.109375 53.6875 14.9375 
Q 60.6875 21.78125 60.6875 36.53125 
Q 60.6875 51.171875 53.6875 57.984375 
Q 46.6875 64.796875 31.59375 64.796875 
z
M 9.8125 72.90625 
L 30.078125 72.90625 
Q 51.265625 72.90625 61.171875 64.09375 
Q 71.09375 55.28125 71.09375 36.53125 
Q 71.09375 17.671875 61.125 8.828125 
Q 51.171875 0 30.078125 0 
L 9.8125 0 
z
" id="DejaVuSans-44"/>
     <path d="M 39.40625 66.21875 
Q 28.65625 66.21875 22.328125 58.203125 
Q 16.015625 50.203125 16.015625 36.375 
Q 16.015625 22.609375 22.328125 14.59375 
Q 28.65625 6.59375 39.40625 6.59375 
Q 50.140625 6.59375 56.421875 14.59375 
Q 62.703125 22.609375 62.703125 36.375 
Q 62.703125 50.203125 56.421875 58.203125 
Q 50.140625 66.21875 39.40625 66.21875 
M 39.40625 74.21875 
Q 54.734375 74.21875 63.90625 63.9375 
Q 73.09375 53.65625 73.09375 36.375 
Q 73.09375 19.140625 63.90625 8.859375 
Q 54.734375 -1.421875 39.40625 -1.421875 
Q 24.03125 -1.421875 14.8125 8.828125 
Q 5.609375 19.09375 5.609375 36.375 
Q 5.609375 53.65625 14.8125 63.9375 
Q 24.03125 74.21875 39.40625 74.21875 
" id="DejaVuSans-4f"/>
     <path d="M 9.8125 72.90625 
L 24.515625 72.90625 
L 43.109375 23.296875 
L 61.8125 72.90625 
L 76.515625 72.90625 
L 76.515625 0 
L 66.890625 0 
L 66.890625 64.015625 
L 48.09375 14.015625 
L 38.1875 14.015625 
L 19.390625 64.015625 
L 19.390625 0 
L 9.8125 0 
z
" id="DejaVuSans-4d"/>
     <path d="M 53.515625 70.515625 
L 53.515625 60.890625 
Q 47.90625 63.578125 42.921875 64.890625 
Q 37.9375 66.21875 33.296875 66.21875 
Q 25.25 66.21875 20.875 63.09375 
Q 16.5 59.96875 16.5 54.203125 
Q 16.5 49.359375 19.40625 46.890625 
Q 22.3125 44.4375 30.421875 42.921875 
L 36.375 41.703125 
Q 47.40625 39.59375 52.65625 34.296875 
Q 57.90625 29 57.90625 20.125 
Q 57.90625 9.515625 50.796875 4.046875 
Q 43.703125 -1.421875 29.984375 -1.421875 
Q 24.8125 -1.421875 18.96875 -0.25 
Q 13.140625 0.921875 6.890625 3.21875 
L 6.890625 13.375 
Q 12.890625 10.015625 18.65625 8.296875 
Q 24.421875 6.59375 29.984375 6.59375 
Q 38.421875 6.59375 43.015625 9.90625 
Q 47.609375 13.234375 47.609375 19.390625 
Q 47.609375 24.75 44.3125 27.78125 
Q 41.015625 30.8125 33.5 32.328125 
L 27.484375 33.5 
Q 16.453125 35.6875 11.515625 40.375 
Q 6.59375 45.0625 6.59375 53.421875 
Q 6.59375 63.09375 13.40625 68.65625 
Q 20.21875 74.21875 32.171875 74.21875 
Q 37.3125 74.21875 42.625 73.28125 
Q 47.953125 72.359375 53.515625 70.515625 
" id="DejaVuSans-53"/>
     <path d="M 9.8125 72.90625 
L 55.90625 72.90625 
L 55.90625 64.59375 
L 19.671875 64.59375 
L 19.671875 43.015625 
L 54.390625 43.015625 
L 54.390625 34.71875 
L 19.671875 34.71875 
L 19.671875 8.296875 
L 56.78125 8.296875 
L 56.78125 0 
L 9.8125 0 
z
" id="DejaVuSans-45"/>
    </defs>
    <g transform="translate(369.543806 229.521037)scale(0.17 -0.17)">
     <use xlink:href="#DejaVuSans-52"/>
     <use x="69.419922" xlink:href="#DejaVuSans-41"/>
     <use x="137.828125" xlink:href="#DejaVuSans-4e"/>
     <use x="212.632812" xlink:href="#DejaVuSans-44"/>
     <use x="289.634766" xlink:href="#DejaVuSans-4f"/>
     <use x="368.345703" xlink:href="#DejaVuSans-4d"/>
     <use x="454.625" xlink:href="#DejaVuSans-53"/>
     <use x="518.101562" xlink:href="#DejaVuSans-45"/>
     <use x="581.285156" xlink:href="#DejaVuSans-41"/>
    </g>
   </g>
   <g id="text_16">
    <!-- final  bu -->
    <defs>
     <path d="M 48.6875 27.296875 
Q 48.6875 37.203125 44.609375 42.84375 
Q 40.53125 48.484375 33.40625 48.484375 
Q 26.265625 48.484375 22.1875 42.84375 
Q 18.109375 37.203125 18.109375 27.296875 
Q 18.109375 17.390625 22.1875 11.75 
Q 26.265625 6.109375 33.40625 6.109375 
Q 40.53125 6.109375 44.609375 11.75 
Q 48.6875 17.390625 48.6875 27.296875 
M 18.109375 46.390625 
Q 20.953125 51.265625 25.265625 53.625 
Q 29.59375 56 35.59375 56 
Q 45.5625 56 51.78125 48.09375 
Q 58.015625 40.1875 58.015625 27.296875 
Q 58.015625 14.40625 51.78125 6.484375 
Q 45.5625 -1.421875 35.59375 -1.421875 
Q 29.59375 -1.421875 25.265625 0.953125 
Q 20.953125 3.328125 18.109375 8.203125 
L 18.109375 0 
L 9.078125 0 
L 9.078125 75.984375 
L 18.109375 75.984375 
z
" id="DejaVuSans-62"/>
    </defs>
    <g transform="translate(369.543806 165.524205)scale(0.17 -0.17)">
     <use xlink:href="#DejaVuSans-66"/>
     <use x="35.205078" xlink:href="#DejaVuSans-69"/>
     <use x="62.988281" xlink:href="#DejaVuSans-6e"/>
     <use x="126.367188" xlink:href="#DejaVuSans-61"/>
     <use x="187.646484" xlink:href="#DejaVuSans-6c"/>
     <use x="215.429688" xlink:href="#DejaVuSans-20"/>
     <use x="247.216797" xlink:href="#DejaVuSans-20"/>
     <use x="279.003906" xlink:href="#DejaVuSans-62"/>
     <use x="342.480469" xlink:href="#DejaVuSans-75"/>
    </g>
   </g>
   <g id="text_17">
    <!-- NSGA-II-M -->
    <defs>
     <path d="M 59.515625 10.40625 
L 59.515625 29.984375 
L 43.40625 29.984375 
L 43.40625 38.09375 
L 69.28125 38.09375 
L 69.28125 6.78125 
Q 63.578125 2.734375 56.6875 0.65625 
Q 49.8125 -1.421875 42 -1.421875 
Q 24.90625 -1.421875 15.25 8.5625 
Q 5.609375 18.5625 5.609375 36.375 
Q 5.609375 54.25 15.25 64.234375 
Q 24.90625 74.21875 42 74.21875 
Q 49.125 74.21875 55.546875 72.453125 
Q 61.96875 70.703125 67.390625 67.28125 
L 67.390625 56.78125 
Q 61.921875 61.421875 55.765625 63.765625 
Q 49.609375 66.109375 42.828125 66.109375 
Q 29.4375 66.109375 22.71875 58.640625 
Q 16.015625 51.171875 16.015625 36.375 
Q 16.015625 21.625 22.71875 14.15625 
Q 29.4375 6.6875 42.828125 6.6875 
Q 48.046875 6.6875 52.140625 7.59375 
Q 56.25 8.5 59.515625 10.40625 
" id="DejaVuSans-47"/>
     <path d="M 9.8125 72.90625 
L 19.671875 72.90625 
L 19.671875 0 
L 9.8125 0 
z
" id="DejaVuSans-49"/>
    </defs>
    <g transform="translate(369.543806 101.527373)scale(0.17 -0.17)">
     <use xlink:href="#DejaVuSans-4e"/>
     <use x="74.804688" xlink:href="#DejaVuSans-53"/>
     <use x="138.28125" xlink:href="#DejaVuSans-47"/>
     <use x="215.771484" xlink:href="#DejaVuSans-41"/>
     <use x="284.148438" xlink:href="#DejaVuSans-2d"/>
     <use x="320.232422" xlink:href="#DejaVuSans-49"/>
     <use x="349.724609" xlink:href="#DejaVuSans-49"/>
     <use x="379.216797" xlink:href="#DejaVuSans-2d"/>
     <use x="415.300781" xlink:href="#DejaVuSans-4d"/>
    </g>
   </g>
   <g id="text_18">
    <!-- best 2016 -->
    <g transform="translate(369.543806 37.530541)scale(0.17 -0.17)">
     <use xlink:href="#DejaVuSans-62"/>
     <use x="63.476562" xlink:href="#DejaVuSans-65"/>
     <use x="125" xlink:href="#DejaVuSans-73"/>
     <use x="177.099609" xlink:href="#DejaVuSans-74"/>
     <use x="216.308594" xlink:href="#DejaVuSans-20"/>
     <use x="248.095703" xlink:href="#DejaVuSans-32"/>
     <use x="311.71875" xlink:href="#DejaVuSans-30"/>
     <use x="375.341797" xlink:href="#DejaVuSans-31"/>
     <use x="438.964844" xlink:href="#DejaVuSans-36"/>
    </g>
   </g>
   <g id="text_19">
    <!-- bbob-biobj f37, 2-D -->
    <defs>
     <path d="M 9.421875 54.6875 
L 18.40625 54.6875 
L 18.40625 -0.984375 
Q 18.40625 -11.421875 14.421875 -16.109375 
Q 10.453125 -20.796875 1.609375 -20.796875 
L -1.8125 -20.796875 
L -1.8125 -13.1875 
L 0.59375 -13.1875 
Q 5.71875 -13.1875 7.5625 -10.8125 
Q 9.421875 -8.453125 9.421875 -0.984375 
z
M 9.421875 75.984375 
L 18.40625 75.984375 
L 18.40625 64.59375 
L 9.421875 64.59375 
z
" id="DejaVuSans-6a"/>
     <path d="M 40.578125 39.3125 
Q 47.65625 37.796875 51.625 33 
Q 55.609375 28.21875 55.609375 21.1875 
Q 55.609375 10.40625 48.1875 4.484375 
Q 40.765625 -1.421875 27.09375 -1.421875 
Q 22.515625 -1.421875 17.65625 -0.515625 
Q 12.796875 0.390625 7.625 2.203125 
L 7.625 11.71875 
Q 11.71875 9.328125 16.59375 8.109375 
Q 21.484375 6.890625 26.8125 6.890625 
Q 36.078125 6.890625 40.9375 10.546875 
Q 45.796875 14.203125 45.796875 21.1875 
Q 45.796875 27.640625 41.28125 31.265625 
Q 36.765625 34.90625 28.71875 34.90625 
L 20.21875 34.90625 
L 20.21875 43.015625 
L 29.109375 43.015625 
Q 36.375 43.015625 40.234375 45.921875 
Q 44.09375 48.828125 44.09375 54.296875 
Q 44.09375 59.90625 40.109375 62.90625 
Q 36.140625 65.921875 28.71875 65.921875 
Q 24.65625 65.921875 20.015625 65.03125 
Q 15.375 64.15625 9.8125 62.3125 
L 9.8125 71.09375 
Q 15.4375 72.65625 20.34375 73.4375 
Q 25.25 74.21875 29.59375 74.21875 
Q 40.828125 74.21875 47.359375 69.109375 
Q 53.90625 64.015625 53.90625 55.328125 
Q 53.90625 49.265625 50.4375 45.09375 
Q 46.96875 40.921875 40.578125 39.3125 
" id="DejaVuSans-33"/>
     <path d="M 8.203125 72.90625 
L 55.078125 72.90625 
L 55.078125 68.703125 
L 28.609375 0 
L 18.3125 0 
L 43.21875 64.59375 
L 8.203125 64.59375 
z
" id="DejaVuSans-37"/>
    </defs>
    <g transform="translate(60.27144 35.283606)scale(0.102 -0.102)">
     <use xlink:href="#DejaVuSans-62"/>
     <use x="63.476562" xlink:href="#DejaVuSans-62"/>
     <use x="126.953125" xlink:href="#DejaVuSans-6f"/>
     <use x="188.134766" xlink:href="#DejaVuSans-62"/>
     <use x="251.611328" xlink:href="#DejaVuSans-2d"/>
     <use x="287.695312" xlink:href="#DejaVuSans-62"/>
     <use x="351.171875" xlink:href="#DejaVuSans-69"/>
     <use x="378.955078" xlink:href="#DejaVuSans-6f"/>
     <use x="440.136719" xlink:href="#DejaVuSans-62"/>
     <use x="503.613281" xlink:href="#DejaVuSans-6a"/>
     <use x="531.396484" xlink:href="#DejaVuSans-20"/>
     <use x="563.183594" xlink:href="#DejaVuSans-66"/>
     <use x="598.388672" xlink:href="#DejaVuSans-33"/>
     <use x="662.011719" xlink:href="#DejaVuSans-37"/>
     <use x="725.634766" xlink:href="#DejaVuSans-2c"/>
     <use x="757.421875" xlink:href="#DejaVuSans-20"/>
     <use x="789.208984" xlink:href="#DejaVuSans-32"/>
     <use x="852.832031" xlink:href="#DejaVuSans-2d"/>
     <use x="888.916016" xlink:href="#DejaVuSans-44"/>
    </g>
    <!-- 58 targets: 1..-1.0e-4 -->
    <defs>
     <path d="M 10.796875 72.90625 
L 49.515625 72.90625 
L 49.515625 64.59375 
L 19.828125 64.59375 
L 19.828125 46.734375 
Q 21.96875 47.46875 24.109375 47.828125 
Q 26.265625 48.1875 28.421875 48.1875 
Q 40.625 48.1875 47.75 41.5 
Q 54.890625 34.8125 54.890625 23.390625 
Q 54.890625 11.625 47.5625 5.09375 
Q 40.234375 -1.421875 26.90625 -1.421875 
Q 22.3125 -1.421875 17.546875 -0.640625 
Q 12.796875 0.140625 7.71875 1.703125 
L 7.71875 11.625 
Q 12.109375 9.234375 16.796875 8.0625 
Q 21.484375 6.890625 26.703125 6.890625 
Q 35.15625 6.890625 40.078125 11.328125 
Q 45.015625 15.765625 45.015625 23.390625 
Q 45.015625 31 40.078125 35.4375 
Q 35.15625 39.890625 26.703125 39.890625 
Q 22.75 39.890625 18.8125 39.015625 
Q 14.890625 38.140625 10.796875 36.28125 
z
" id="DejaVuSans-35"/>
     <path d="M 11.71875 12.40625 
L 22.015625 12.40625 
L 22.015625 0 
L 11.71875 0 
z
M 11.71875 51.703125 
L 22.015625 51.703125 
L 22.015625 39.3125 
L 11.71875 39.3125 
z
" id="DejaVuSans-3a"/>
    </defs>
    <g transform="translate(60.27144 46.705375)scale(0.102 -0.102)">
     <use xlink:href="#DejaVuSans-35"/>
     <use x="63.623047" xlink:href="#DejaVuSans-38"/>
     <use x="127.246094" xlink:href="#DejaVuSans-20"/>
     <use x="159.033203" xlink:href="#DejaVuSans-74"/>
     <use x="198.242188" xlink:href="#DejaVuSans-61"/>
     <use x="259.521484" xlink:href="#DejaVuSans-72"/>
     <use x="300.619141" xlink:href="#DejaVuSans-67"/>
     <use x="364.095703" xlink:href="#DejaVuSans-65"/>
     <use x="425.619141" xlink:href="#DejaVuSans-74"/>
     <use x="464.828125" xlink:href="#DejaVuSans-73"/>
     <use x="516.927734" xlink:href="#DejaVuSans-3a"/>
     <use x="550.619141" xlink:href="#DejaVuSans-20"/>
     <use x="582.40625" xlink:href="#DejaVuSans-31"/>
     <use x="646.029297" xlink:href="#DejaVuSans-2e"/>
     <use x="677.816406" xlink:href="#DejaVuSans-2e"/>
     <use x="709.603516" xlink:href="#DejaVuSans-2d"/>
     <use x="745.6875" xlink:href="#DejaVuSans-31"/>
     <use x="809.310547" xlink:href="#DejaVuSans-2e"/>
     <use x="841.097656" xlink:href="#DejaVuSans-30"/>
     <use x="904.720703" xlink:href="#DejaVuSans-65"/>
     <use x="966.244141" xlink:href="#DejaVuSans-2d"/>
     <use x="1002.328125" xlink:href="#DejaVuSans-34"/>
    </g>
    <!-- 10 instances -->
    <g transform="translate(60.27144 58.127144)scale(0.102 -0.102)">
     <use xlink:href="#DejaVuSans-31"/>
     <use x="63.623047" xlink:href="#DejaVuSans-30"/>
     <use x="127.246094" xlink:href="#DejaVuSans-20"/>
     <use x="159.033203" xlink:href="#DejaVuSans-69"/>
     <use x="186.816406" xlink:href="#DejaVuSans-6e"/>
     <use x="250.195312" xlink:href="#DejaVuSans-73"/>
     <use x="302.294922" xlink:href="#DejaVuSans-74"/>
     <use x="341.503906" xlink:href="#DejaVuSans-61"/>
     <use x="402.783203" xlink:href="#DejaVuSans-6e"/>
     <use x="466.162109" xlink:href="#DejaVuSans-63"/>
     <use x="521.142578" xlink:href="#DejaVuSans-65"/>
     <use x="582.666016" xlink:href="#DejaVuSans-73"/>
    </g>
   </g>
   <g id="text_20">
    <!-- v2.2.1.10, hv-hash=ff0e71e8cd978373 -->
    <defs>
     <path d="M 54.890625 33.015625 
L 54.890625 0 
L 45.90625 0 
L 45.90625 32.71875 
Q 45.90625 40.484375 42.875 44.328125 
Q 39.84375 48.1875 33.796875 48.1875 
Q 26.515625 48.1875 22.3125 43.546875 
Q 18.109375 38.921875 18.109375 30.90625 
L 18.109375 0 
L 9.078125 0 
L 9.078125 75.984375 
L 18.109375 75.984375 
L 18.109375 46.1875 
Q 21.34375 51.125 25.703125 53.5625 
Q 30.078125 56 35.796875 56 
Q 45.21875 56 50.046875 50.171875 
Q 54.890625 44.34375 54.890625 33.015625 
" id="DejaVuSans-68"/>
     <path d="M 10.59375 45.40625 
L 73.1875 45.40625 
L 73.1875 37.203125 
L 10.59375 37.203125 
z
M 10.59375 25.484375 
L 73.1875 25.484375 
L 73.1875 17.1875 
L 10.59375 17.1875 
z
" id="DejaVuSans-3d"/>
     <path d="M 10.984375 1.515625 
L 10.984375 10.5 
Q 14.703125 8.734375 18.5 7.8125 
Q 22.3125 6.890625 25.984375 6.890625 
Q 35.75 6.890625 40.890625 13.453125 
Q 46.046875 20.015625 46.78125 33.40625 
Q 43.953125 29.203125 39.59375 26.953125 
Q 35.25 24.703125 29.984375 24.703125 
Q 19.046875 24.703125 12.671875 31.3125 
Q 6.296875 37.9375 6.296875 49.421875 
Q 6.296875 60.640625 12.9375 67.421875 
Q 19.578125 74.21875 30.609375 74.21875 
Q 43.265625 74.21875 49.921875 64.515625 
Q 56.59375 54.828125 56.59375 36.375 
Q 56.59375 19.140625 48.40625 8.859375 
Q 40.234375 -1.421875 26.421875 -1.421875 
Q 22.703125 -1.421875 18.890625 -0.6875 
Q 15.09375 0.046875 10.984375 1.515625 
M 30.609375 32.421875 
Q 37.25 32.421875 41.125 36.953125 
Q 45.015625 41.5 45.015625 49.421875 
Q 45.015625 57.28125 41.125 61.84375 
Q 37.25 66.40625 30.609375 66.40625 
Q 23.96875 66.40625 20.09375 61.84375 
Q 16.21875 57.28125 16.21875 49.421875 
Q 16.21875 41.5 20.09375 36.953125 
Q 23.96875 32.421875 30.609375 32.421875 
" id="DejaVuSans-39"/>
    </defs>
    <g style="fill:#808080;" transform="translate(130.065125 289.387113)scale(0.1 -0.1)">
     <use xlink:href="#DejaVuSans-76"/>
     <use x="59.179688" xlink:href="#DejaVuSans-32"/>
     <use x="122.802734" xlink:href="#DejaVuSans-2e"/>
     <use x="154.589844" xlink:href="#DejaVuSans-32"/>
     <use x="218.212891" xlink:href="#DejaVuSans-2e"/>
     <use x="250" xlink:href="#DejaVuSans-31"/>
     <use x="313.623047" xlink:href="#DejaVuSans-2e"/>
     <use x="345.410156" xlink:href="#DejaVuSans-31"/>
     <use x="409.033203" xlink:href="#DejaVuSans-30"/>
     <use x="472.65625" xlink:href="#DejaVuSans-2c"/>
     <use x="504.443359" xlink:href="#DejaVuSans-20"/>
     <use x="536.230469" xlink:href="#DejaVuSans-68"/>
     <use x="599.609375" xlink:href="#DejaVuSans-76"/>
     <use x="658.757812" xlink:href="#DejaVuSans-2d"/>
     <use x="694.841797" xlink:href="#DejaVuSans-68"/>
     <use x="758.220703" xlink:href="#DejaVuSans-61"/>
     <use x="819.5" xlink:href="#DejaVuSans-73"/>
     <use x="871.599609" xlink:href="#DejaVuSans-68"/>
     <use x="934.978516" xlink:href="#DejaVuSans-3d"/>
     <use x="1018.767578" xlink:href="#DejaVuSans-66"/>
     <use x="1053.972656" xlink:href="#DejaVuSans-66"/>
     <use x="1089.177734" xlink:href="#DejaVuSans-30"/>
     <use x="1152.800781" xlink:href="#DejaVuSans-65"/>
     <use x="1214.324219" xlink:href="#DejaVuSans-37"/>
     <use x="1277.947266" xlink:href="#DejaVuSans-31"/>
     <use x="1341.570312" xlink:href="#DejaVuSans-65"/>
     <use x="1403.09375" xlink:href="#DejaVuSans-38"/>
     <use x="1466.716797" xlink:href="#DejaVuSans-63"/>
     <use x="1521.697266" xlink:href="#DejaVuSans-64"/>
     <use x="1585.173828" xlink:href="#DejaVuSans-39"/>
     <use x="1648.796875" xlink:href="#DejaVuSans-37"/>
     <use x="1712.419922" xlink:href="#DejaVuSans-38"/>
     <use x="1776.042969" xlink:href="#DejaVuSans-33"/>
     <use x="1839.666016" xlink:href="#DejaVuSans-37"/>
     <use x="1903.289062" xlink:href="#DejaVuSans-33"/>
    </g>
   </g>
   <g id="text_21">
    <!-- 37 Sharp ridge/Rastrigin -->
    <g transform="translate(106.39325 18.84)scale(0.2 -0.2)">
     <use xlink:href="#DejaVuSans-33"/>
     <use x="63.623047" xlink:href="#DejaVuSans-37"/>
     <use x="127.246094" xlink:href="#DejaVuSans-20"/>
     <use x="159.033203" xlink:href="#DejaVuSans-53"/>
     <use x="222.509766" xlink:href="#DejaVuSans-68"/>
     <use x="285.888672" xlink:href="#DejaVuSans-61"/>
     <use x="347.167969" xlink:href="#DejaVuSans-72"/>
     <use x="388.28125" xlink:href="#DejaVuSans-70"/>
     <use x="451.757812" xlink:href="#DejaVuSans-20"/>
     <use x="483.544922" xlink:href="#DejaVuSans-72"/>
     <use x="524.658203" xlink:href="#DejaVuSans-69"/>
     <use x="552.441406" xlink:href="#DejaVuSans-64"/>
     <use x="615.917969" xlink:href="#DejaVuSans-67"/>
     <use x="679.394531" xlink:href="#DejaVuSans-65"/>
     <use x="740.917969" xlink:href="#DejaVuSans-2f"/>
     <use x="774.609375" xlink:href="#DejaVuSans-52"/>
     <use x="844.060547" xlink:href="#DejaVuSans-61"/>
     <use x="905.339844" xlink:href="#DejaVuSans-73"/>
     <use x="957.439453" xlink:href="#DejaVuSans-74"/>
     <use x="996.648438" xlink:href="#DejaVuSans-72"/>
     <use x="1037.761719" xlink:href="#DejaVuSans-69"/>
     <use x="1065.544922" xlink:href="#DejaVuSans-67"/>
     <use x="1129.021484" xlink:href="#DejaVuSans-69"/>
     <use x="1156.804688" xlink:href="#DejaVuSans-6e"/>
    </g>
   </g>
  </g>
 </g>
 <defs>
  <clipPath id="pf4d3a5e8ef">
   <rect height="269.32" width="343.144" x="56.84" y="24.84"/>
  </clipPath>
 </defs>
</svg>
