<?xml version="1.0" encoding="utf-8" standalone="no"?>
<!DOCTYPE svg PUBLIC "-//W3C//DTD SVG 1.1//EN"
  "http://www.w3.org/Graphics/SVG/1.1/DTD/svg11.dtd">
<!-- Created with matplotlib (http://matplotlib.org/) -->
<svg height="345pt" version="1.1" viewBox="0 0 460 345" width="460pt" xmlns="http://www.w3.org/2000/svg" xmlns:xlink="http://www.w3.org/1999/xlink">
 <defs>
  <style type="text/css">
*{stroke-linecap:butt;stroke-linejoin:round;}
  </style>
 </defs>
 <g id="figure_1">
  <g id="patch_1">
   <path d="M 0 345.6 
L 460.8 345.6 
L 460.8 0 
L 0 0 
z
" style="fill:#ffffff;"/>
  </g>
  <g id="axes_1">
   <g id="patch_2">
    <path d="M 56.84 294.16 
L 399.984 294.16 
L 399.984 24.84 
L 56.84 24.84 
z
" style="fill:#ffffff;"/>
   </g>
   <g id="line2d_1">
    <path d="M 68.740534 294.16 
L 68.740534 280.367579 
L 92.541603 280.367579 
L 92.541603 271.172632 
L 99.502969 271.172632 
L 99.502969 266.575159 
L 103.334085 266.575159 
L 103.334085 252.782738 
L 106.934744 252.782738 
L 106.934744 243.587791 
L 112.104369 243.587791 
L 112.104369 238.990318 
L 117.383526 238.990318 
L 117.383526 229.79537 
L 130.735812 229.79537 
L 130.735812 216.00295 
L 139.805092 216.00295 
L 139.805092 206.808003 
L 143.704475 206.808003 
L 143.704475 197.613056 
L 151.255157 197.613056 
L 151.255157 188.418109 
L 152.50743 188.418109 
L 152.50743 183.820635 
L 156.840332 183.820635 
L 156.840332 170.028214 
L 157.560461 170.028214 
L 157.560461 165.430741 
L 158.735259 165.430741 
L 158.735259 151.63832 
L 160.523726 151.63832 
L 160.523726 142.443373 
L 165.711758 142.443373 
L 165.711758 137.8459 
L 167.532774 137.8459 
L 167.532774 124.053479 
L 174.330105 124.053479 
L 174.330105 119.456005 
L 178.546932 119.456005 
L 178.546932 105.663585 
L 185.681711 105.663585 
L 185.681711 96.468638 
L 186.22606 96.468638 
L 186.22606 87.273691 
L 187.131419 87.273691 
L 187.131419 82.676217 
L 200.655675 82.676217 
L 200.655675 73.48127 
L 214.025045 73.48127 
L 214.025045 59.688849 
L 333.569032 59.688849 
" style="fill:none;stroke:#f5deb3;stroke-linecap:square;stroke-width:6;"/>
   </g>
   <g id="line2d_2">
    <defs>
     <path d="M -0 7.778175 
L 7.778175 0 
L 0 -7.778175 
L -7.778175 -0 
z
" id="mfcf772257e" style="stroke:#f5deb3;stroke-linejoin:miter;stroke-width:1.5;"/>
    </defs>
    <g>
     <use style="fill:#f5deb3;stroke:#f5deb3;stroke-linejoin:miter;stroke-width:1.5;" x="112.104369" xlink:href="#mfcf772257e" y="238.990318"/>
     <use style="fill:#f5deb3;stroke:#f5deb3;stroke-linejoin:miter;stroke-width:1.5;" x="165.711758" xlink:href="#mfcf772257e" y="137.8459"/>
     <use style="fill:#f5deb3;stroke:#f5deb3;stroke-linejoin:miter;stroke-width:1.5;" x="214.025045" xlink:href="#mfcf772257e" y="73.48127"/>
     <use style="fill:#f5deb3;stroke:#f5deb3;stroke-linejoin:miter;stroke-width:1.5;" x="214.025045" xlink:href="#mfcf772257e" y="59.688849"/>
     <use style="fill:#f5deb3;stroke:#f5deb3;stroke-linejoin:miter;stroke-width:1.5;" x="333.569032" xlink:href="#mfcf772257e" y="59.688849"/>
    </g>
   </g>
   <g id="line2d_3">
    <path style="fill:none;stroke:#f5deb3;stroke-linecap:square;stroke-width:6;"/>
    <g/>
   </g>
   <g id="line2d_4">
    <path d="M 333.569032 59.688849 
L 364.009226 32.839604 
" style="fill:none;stroke:#f5deb3;stroke-linecap:square;stroke-width:6;"/>
    <g>
     <use style="fill:#f5deb3;stroke:#f5deb3;stroke-linejoin:miter;stroke-width:1.5;" x="333.569032" xlink:href="#mfcf772257e" y="59.688849"/>
     <use style="fill:#f5deb3;stroke:#f5deb3;stroke-linejoin:miter;stroke-width:1.5;" x="364.009226" xlink:href="#mfcf772257e" y="32.839604"/>
    </g>
   </g>
   <g id="matplotlib.axis_1">
    <g id="xtick_1">
     <g id="line2d_5">
      <path clip-path="url(#pdd22bea73e)" d="M 56.84 294.16 
L 56.84 24.84 
" style="fill:none;stroke:#b0b0b0;stroke-linecap:square;stroke-width:0.8;"/>
     </g>
     <g id="line2d_6">
      <defs>
       <path d="M 0 0 
L 0 3.5 
" id="m0b0584c7aa" style="stroke:#000000;stroke-width:0.8;"/>
      </defs>
      <g>
       <use style="stroke:#000000;stroke-width:0.8;" x="56.84" xlink:href="#m0b0584c7aa" y="294.16"/>
      </g>
     </g>
     <g id="text_1">
      <!-- 0 -->
      <defs>
       <path d="M 31.78125 66.40625 
Q 24.171875 66.40625 20.328125 58.90625 
Q 16.5 51.421875 16.5 36.375 
Q 16.5 21.390625 20.328125 13.890625 
Q 24.171875 6.390625 31.78125 6.390625 
Q 39.453125 6.390625 43.28125 13.890625 
Q 47.125 21.390625 47.125 36.375 
Q 47.125 51.421875 43.28125 58.90625 
Q 39.453125 66.40625 31.78125 66.40625 
M 31.78125 74.21875 
Q 44.046875 74.21875 50.515625 64.515625 
Q 56.984375 54.828125 56.984375 36.375 
Q 56.984375 17.96875 50.515625 8.265625 
Q 44.046875 -1.421875 31.78125 -1.421875 
Q 19.53125 -1.421875 13.0625 8.265625 
Q 6.59375 17.96875 6.59375 36.375 
Q 6.59375 54.828125 13.0625 64.515625 
Q 19.53125 74.21875 31.78125 74.21875 
" id="DejaVuSans-30"/>
      </defs>
      <g transform="translate(50.4775 316.356875)scale(0.2 -0.2)">
       <use xlink:href="#DejaVuSans-30"/>
      </g>
     </g>
    </g>
    <g id="xtick_2">
     <g id="line2d_7">
      <path clip-path="url(#pdd22bea73e)" d="M 135.905438 294.16 
L 135.905438 24.84 
" style="fill:none;stroke:#b0b0b0;stroke-linecap:square;stroke-width:0.8;"/>
     </g>
     <g id="line2d_8">
      <g>
       <use style="stroke:#000000;stroke-width:0.8;" x="135.905438" xlink:href="#m0b0584c7aa" y="294.16"/>
      </g>
     </g>
     <g id="text_2">
      <!-- 2 -->
      <defs>
       <path d="M 19.1875 8.296875 
L 53.609375 8.296875 
L 53.609375 0 
L 7.328125 0 
L 7.328125 8.296875 
Q 12.9375 14.109375 22.625 23.890625 
Q 32.328125 33.6875 34.8125 36.53125 
Q 39.546875 41.84375 41.421875 45.53125 
Q 43.3125 49.21875 43.3125 52.78125 
Q 43.3125 58.59375 39.234375 62.25 
Q 35.15625 65.921875 28.609375 65.921875 
Q 23.96875 65.921875 18.8125 64.3125 
Q 13.671875 62.703125 7.8125 59.421875 
L 7.8125 69.390625 
Q 13.765625 71.78125 18.9375 73 
Q 24.125 74.21875 28.421875 74.21875 
Q 39.75 74.21875 46.484375 68.546875 
Q 53.21875 62.890625 53.21875 53.421875 
Q 53.21875 48.921875 51.53125 44.890625 
Q 49.859375 40.875 45.40625 35.40625 
Q 44.1875 33.984375 37.640625 27.21875 
Q 31.109375 20.453125 19.1875 8.296875 
" id="DejaVuSans-32"/>
      </defs>
      <g transform="translate(129.542938 316.356875)scale(0.2 -0.2)">
       <use xlink:href="#DejaVuSans-32"/>
      </g>
     </g>
    </g>
    <g id="xtick_3">
     <g id="line2d_9">
      <path clip-path="url(#pdd22bea73e)" d="M 214.970876 294.16 
L 214.970876 24.84 
" style="fill:none;stroke:#b0b0b0;stroke-linecap:square;stroke-width:0.8;"/>
     </g>
     <g id="line2d_10">
      <g>
       <use style="stroke:#000000;stroke-width:0.8;" x="214.970876" xlink:href="#m0b0584c7aa" y="294.16"/>
      </g>
     </g>
     <g id="text_3">
      <!-- 4 -->
      <defs>
       <path d="M 37.796875 64.3125 
L 12.890625 25.390625 
L 37.796875 25.390625 
z
M 35.203125 72.90625 
L 47.609375 72.90625 
L 47.609375 25.390625 
L 58.015625 25.390625 
L 58.015625 17.1875 
L 47.609375 17.1875 
L 47.609375 0 
L 37.796875 0 
L 37.796875 17.1875 
L 4.890625 17.1875 
L 4.890625 26.703125 
z
" id="DejaVuSans-34"/>
      </defs>
      <g transform="translate(208.608376 316.356875)scale(0.2 -0.2)">
       <use xlink:href="#DejaVuSans-34"/>
      </g>
     </g>
    </g>
    <g id="xtick_4">
     <g id="line2d_11">
      <path clip-path="url(#pdd22bea73e)" d="M 294.036313 294.16 
L 294.036313 24.84 
" style="fill:none;stroke:#b0b0b0;stroke-linecap:square;stroke-width:0.8;"/>
     </g>
     <g id="line2d_12">
      <g>
       <use style="stroke:#000000;stroke-width:0.8;" x="294.036313" xlink:href="#m0b0584c7aa" y="294.16"/>
      </g>
     </g>
     <g id="text_4">
      <!-- 6 -->
      <defs>
       <path d="M 33.015625 40.375 
Q 26.375 40.375 22.484375 35.828125 
Q 18.609375 31.296875 18.609375 23.390625 
Q 18.609375 15.53125 22.484375 10.953125 
Q 26.375 6.390625 33.015625 6.390625 
Q 39.65625 6.390625 43.53125 10.953125 
Q 47.40625 15.53125 47.40625 23.390625 
Q 47.40625 31.296875 43.53125 35.828125 
Q 39.65625 40.375 33.015625 40.375 
M 52.59375 71.296875 
L 52.59375 62.3125 
Q 48.875 64.0625 45.09375 64.984375 
Q 41.3125 65.921875 37.59375 65.921875 
Q 27.828125 65.921875 22.671875 59.328125 
Q 17.53125 52.734375 16.796875 39.40625 
Q 19.671875 43.65625 24.015625 45.921875 
Q 28.375 48.1875 33.59375 48.1875 
Q 44.578125 48.1875 50.953125 41.515625 
Q 57.328125 34.859375 57.328125 23.390625 
Q 57.328125 12.15625 50.6875 5.359375 
Q 44.046875 -1.421875 33.015625 -1.421875 
Q 20.359375 -1.421875 13.671875 8.265625 
Q 6.984375 17.96875 6.984375 36.375 
Q 6.984375 53.65625 15.1875 63.9375 
Q 23.390625 74.21875 37.203125 74.21875 
Q 40.921875 74.21875 44.703125 73.484375 
Q 48.484375 72.75 52.59375 71.296875 
" id="DejaVuSans-36"/>
      </defs>
      <g transform="translate(287.673813 316.356875)scale(0.2 -0.2)">
       <use xlink:href="#DejaVuSans-36"/>
      </g>
     </g>
    </g>
    <g id="xtick_5">
     <g id="line2d_13">
      <path clip-path="url(#pdd22bea73e)" d="M 373.101751 294.16 
L 373.101751 24.84 
" style="fill:none;stroke:#b0b0b0;stroke-linecap:square;stroke-width:0.8;"/>
     </g>
     <g id="line2d_14">
      <g>
       <use style="stroke:#000000;stroke-width:0.8;" x="373.101751" xlink:href="#m0b0584c7aa" y="294.16"/>
      </g>
     </g>
     <g id="text_5">
      <!-- 8 -->
      <defs>
       <path d="M 31.78125 34.625 
Q 24.75 34.625 20.71875 30.859375 
Q 16.703125 27.09375 16.703125 20.515625 
Q 16.703125 13.921875 20.71875 10.15625 
Q 24.75 6.390625 31.78125 6.390625 
Q 38.8125 6.390625 42.859375 10.171875 
Q 46.921875 13.96875 46.921875 20.515625 
Q 46.921875 27.09375 42.890625 30.859375 
Q 38.875 34.625 31.78125 34.625 
M 21.921875 38.8125 
Q 15.578125 40.375 12.03125 44.71875 
Q 8.5 49.078125 8.5 55.328125 
Q 8.5 64.0625 14.71875 69.140625 
Q 20.953125 74.21875 31.78125 74.21875 
Q 42.671875 74.21875 48.875 69.140625 
Q 55.078125 64.0625 55.078125 55.328125 
Q 55.078125 49.078125 51.53125 44.71875 
Q 48 40.375 41.703125 38.8125 
Q 48.828125 37.15625 52.796875 32.3125 
Q 56.78125 27.484375 56.78125 20.515625 
Q 56.78125 9.90625 50.3125 4.234375 
Q 43.84375 -1.421875 31.78125 -1.421875 
Q 19.734375 -1.421875 13.25 4.234375 
Q 6.78125 9.90625 6.78125 20.515625 
Q 6.78125 27.484375 10.78125 32.3125 
Q 14.796875 37.15625 21.921875 38.8125 
M 18.3125 54.390625 
Q 18.3125 48.734375 21.84375 45.5625 
Q 25.390625 42.390625 31.78125 42.390625 
Q 38.140625 42.390625 41.71875 45.5625 
Q 45.3125 48.734375 45.3125 54.390625 
Q 45.3125 60.0625 41.71875 63.234375 
Q 38.140625 66.40625 31.78125 66.40625 
Q 25.390625 66.40625 21.84375 63.234375 
Q 18.3125 60.0625 18.3125 54.390625 
" id="DejaVuSans-38"/>
      </defs>
      <g transform="translate(366.739251 316.356875)scale(0.2 -0.2)">
       <use xlink:href="#DejaVuSans-38"/>
      </g>
     </g>
    </g>
    <g id="xtick_6">
     <g id="line2d_15">
      <defs>
       <path d="M 0 0 
L 0 2 
" id="mbc189972fb" style="stroke:#000000;stroke-width:0.6;"/>
      </defs>
      <g>
       <use style="stroke:#000000;stroke-width:0.6;" x="68.740534" xlink:href="#mbc189972fb" y="294.16"/>
      </g>
     </g>
    </g>
    <g id="xtick_7">
     <g id="line2d_16">
      <g>
       <use style="stroke:#000000;stroke-width:0.6;" x="80.641068" xlink:href="#mbc189972fb" y="294.16"/>
      </g>
     </g>
    </g>
    <g id="xtick_8">
     <g id="line2d_17">
      <g>
       <use style="stroke:#000000;stroke-width:0.6;" x="87.602435" xlink:href="#mbc189972fb" y="294.16"/>
      </g>
     </g>
    </g>
    <g id="xtick_9">
     <g id="line2d_18">
      <g>
       <use style="stroke:#000000;stroke-width:0.6;" x="92.541603" xlink:href="#mbc189972fb" y="294.16"/>
      </g>
     </g>
    </g>
    <g id="xtick_10">
     <g id="line2d_19">
      <g>
       <use style="stroke:#000000;stroke-width:0.6;" x="147.805972" xlink:href="#mbc189972fb" y="294.16"/>
      </g>
     </g>
    </g>
    <g id="xtick_11">
     <g id="line2d_20">
      <g>
       <use style="stroke:#000000;stroke-width:0.6;" x="159.706506" xlink:href="#mbc189972fb" y="294.16"/>
      </g>
     </g>
    </g>
    <g id="xtick_12">
     <g id="line2d_21">
      <g>
       <use style="stroke:#000000;stroke-width:0.6;" x="166.667872" xlink:href="#mbc189972fb" y="294.16"/>
      </g>
     </g>
    </g>
    <g id="xtick_13">
     <g id="line2d_22">
      <g>
       <use style="stroke:#000000;stroke-width:0.6;" x="171.60704" xlink:href="#mbc189972fb" y="294.16"/>
      </g>
     </g>
    </g>
    <g id="xtick_14">
     <g id="line2d_23">
      <g>
       <use style="stroke:#000000;stroke-width:0.6;" x="226.87141" xlink:href="#mbc189972fb" y="294.16"/>
      </g>
     </g>
    </g>
    <g id="xtick_15">
     <g id="line2d_24">
      <g>
       <use style="stroke:#000000;stroke-width:0.6;" x="238.771944" xlink:href="#mbc189972fb" y="294.16"/>
      </g>
     </g>
    </g>
    <g id="xtick_16">
     <g id="line2d_25">
      <g>
       <use style="stroke:#000000;stroke-width:0.6;" x="245.73331" xlink:href="#mbc189972fb" y="294.16"/>
      </g>
     </g>
    </g>
    <g id="xtick_17">
     <g id="line2d_26">
      <g>
       <use style="stroke:#000000;stroke-width:0.6;" x="250.672478" xlink:href="#mbc189972fb" y="294.16"/>
      </g>
     </g>
    </g>
    <g id="xtick_18">
     <g id="line2d_27">
      <g>
       <use style="stroke:#000000;stroke-width:0.6;" x="305.936848" xlink:href="#mbc189972fb" y="294.16"/>
      </g>
     </g>
    </g>
    <g id="xtick_19">
     <g id="line2d_28">
      <g>
       <use style="stroke:#000000;stroke-width:0.6;" x="317.837382" xlink:href="#mbc189972fb" y="294.16"/>
      </g>
     </g>
    </g>
    <g id="xtick_20">
     <g id="line2d_29">
      <g>
       <use style="stroke:#000000;stroke-width:0.6;" x="324.798748" xlink:href="#mbc189972fb" y="294.16"/>
      </g>
     </g>
    </g>
    <g id="xtick_21">
     <g id="line2d_30">
      <g>
       <use style="stroke:#000000;stroke-width:0.6;" x="329.737916" xlink:href="#mbc189972fb" y="294.16"/>
      </g>
     </g>
    </g>
    <g id="xtick_22">
     <g id="line2d_31">
      <g>
       <use style="stroke:#000000;stroke-width:0.6;" x="385.002285" xlink:href="#mbc189972fb" y="294.16"/>
      </g>
     </g>
    </g>
    <g id="xtick_23">
     <g id="line2d_32">
      <g>
       <use style="stroke:#000000;stroke-width:0.6;" x="396.90282" xlink:href="#mbc189972fb" y="294.16"/>
      </g>
     </g>
    </g>
    <g id="text_6">
     <!-- log10(# f-evals / dimension) -->
     <defs>
      <path d="M 9.421875 75.984375 
L 18.40625 75.984375 
L 18.40625 0 
L 9.421875 0 
z
" id="DejaVuSans-6c"/>
      <path d="M 30.609375 48.390625 
Q 23.390625 48.390625 19.1875 42.75 
Q 14.984375 37.109375 14.984375 27.296875 
Q 14.984375 17.484375 19.15625 11.84375 
Q 23.34375 6.203125 30.609375 6.203125 
Q 37.796875 6.203125 41.984375 11.859375 
Q 46.1875 17.53125 46.1875 27.296875 
Q 46.1875 37.015625 41.984375 42.703125 
Q 37.796875 48.390625 30.609375 48.390625 
M 30.609375 56 
Q 42.328125 56 49.015625 48.375 
Q 55.71875 40.765625 55.71875 27.296875 
Q 55.71875 13.875 49.015625 6.21875 
Q 42.328125 -1.421875 30.609375 -1.421875 
Q 18.84375 -1.421875 12.171875 6.21875 
Q 5.515625 13.875 5.515625 27.296875 
Q 5.515625 40.765625 12.171875 48.375 
Q 18.84375 56 30.609375 56 
" id="DejaVuSans-6f"/>
      <path d="M 45.40625 27.984375 
Q 45.40625 37.75 41.375 43.109375 
Q 37.359375 48.484375 30.078125 48.484375 
Q 22.859375 48.484375 18.828125 43.109375 
Q 14.796875 37.75 14.796875 27.984375 
Q 14.796875 18.265625 18.828125 12.890625 
Q 22.859375 7.515625 30.078125 7.515625 
Q 37.359375 7.515625 41.375 12.890625 
Q 45.40625 18.265625 45.40625 27.984375 
M 54.390625 6.78125 
Q 54.390625 -7.171875 48.1875 -13.984375 
Q 42 -20.796875 29.203125 -20.796875 
Q 24.46875 -20.796875 20.265625 -20.09375 
Q 16.0625 -19.390625 12.109375 -17.921875 
L 12.109375 -9.1875 
Q 16.0625 -11.328125 19.921875 -12.34375 
Q 23.78125 -13.375 27.78125 -13.375 
Q 36.625 -13.375 41.015625 -8.765625 
Q 45.40625 -4.15625 45.40625 5.171875 
L 45.40625 9.625 
Q 42.625 4.78125 38.28125 2.390625 
Q 33.9375 0 27.875 0 
Q 17.828125 0 11.671875 7.65625 
Q 5.515625 15.328125 5.515625 27.984375 
Q 5.515625 40.671875 11.671875 48.328125 
Q 17.828125 56 27.875 56 
Q 33.9375 56 38.28125 53.609375 
Q 42.625 51.21875 45.40625 46.390625 
L 45.40625 54.6875 
L 54.390625 54.6875 
z
" id="DejaVuSans-67"/>
      <path d="M 12.40625 8.296875 
L 28.515625 8.296875 
L 28.515625 63.921875 
L 10.984375 60.40625 
L 10.984375 69.390625 
L 28.421875 72.90625 
L 38.28125 72.90625 
L 38.28125 8.296875 
L 54.390625 8.296875 
L 54.390625 0 
L 12.40625 0 
z
" id="DejaVuSans-31"/>
      <path d="M 31 75.875 
Q 24.46875 64.65625 21.28125 53.65625 
Q 18.109375 42.671875 18.109375 31.390625 
Q 18.109375 20.125 21.3125 9.0625 
Q 24.515625 -2 31 -13.1875 
L 23.1875 -13.1875 
Q 15.875 -1.703125 12.234375 9.375 
Q 8.59375 20.453125 8.59375 31.390625 
Q 8.59375 42.28125 12.203125 53.3125 
Q 15.828125 64.359375 23.1875 75.875 
z
" id="DejaVuSans-28"/>
      <path d="M 51.125 44 
L 36.921875 44 
L 32.8125 27.6875 
L 47.125 27.6875 
z
M 43.796875 71.78125 
L 38.71875 51.515625 
L 52.984375 51.515625 
L 58.109375 71.78125 
L 65.921875 71.78125 
L 60.890625 51.515625 
L 76.125 51.515625 
L 76.125 44 
L 58.984375 44 
L 54.984375 27.6875 
L 70.515625 27.6875 
L 70.515625 20.21875 
L 53.078125 20.21875 
L 48 0 
L 40.1875 0 
L 45.21875 20.21875 
L 30.90625 20.21875 
L 25.875 0 
L 18.015625 0 
L 23.09375 20.21875 
L 7.71875 20.21875 
L 7.71875 27.6875 
L 24.90625 27.6875 
L 29 44 
L 13.28125 44 
L 13.28125 51.515625 
L 30.90625 51.515625 
L 35.890625 71.78125 
z
" id="DejaVuSans-23"/>
      <path id="DejaVuSans-20"/>
      <path d="M 37.109375 75.984375 
L 37.109375 68.5 
L 28.515625 68.5 
Q 23.6875 68.5 21.796875 66.546875 
Q 19.921875 64.59375 19.921875 59.515625 
L 19.921875 54.6875 
L 34.71875 54.6875 
L 34.71875 47.703125 
L 19.921875 47.703125 
L 19.921875 0 
L 10.890625 0 
L 10.890625 47.703125 
L 2.296875 47.703125 
L 2.296875 54.6875 
L 10.890625 54.6875 
L 10.890625 58.5 
Q 10.890625 67.625 15.140625 71.796875 
Q 19.390625 75.984375 28.609375 75.984375 
z
" id="DejaVuSans-66"/>
      <path d="M 4.890625 31.390625 
L 31.203125 31.390625 
L 31.203125 23.390625 
L 4.890625 23.390625 
z
" id="DejaVuSans-2d"/>
      <path d="M 56.203125 29.59375 
L 56.203125 25.203125 
L 14.890625 25.203125 
Q 15.484375 15.921875 20.484375 11.0625 
Q 25.484375 6.203125 34.421875 6.203125 
Q 39.59375 6.203125 44.453125 7.46875 
Q 49.3125 8.734375 54.109375 11.28125 
L 54.109375 2.78125 
Q 49.265625 0.734375 44.1875 -0.34375 
Q 39.109375 -1.421875 33.890625 -1.421875 
Q 20.796875 -1.421875 13.15625 6.1875 
Q 5.515625 13.8125 5.515625 26.8125 
Q 5.515625 40.234375 12.765625 48.109375 
Q 20.015625 56 32.328125 56 
Q 43.359375 56 49.78125 48.890625 
Q 56.203125 41.796875 56.203125 29.59375 
M 47.21875 32.234375 
Q 47.125 39.59375 43.09375 43.984375 
Q 39.0625 48.390625 32.421875 48.390625 
Q 24.90625 48.390625 20.390625 44.140625 
Q 15.875 39.890625 15.1875 32.171875 
z
" id="DejaVuSans-65"/>
      <path d="M 2.984375 54.6875 
L 12.5 54.6875 
L 29.59375 8.796875 
L 46.6875 54.6875 
L 56.203125 54.6875 
L 35.6875 0 
L 23.484375 0 
z
" id="DejaVuSans-76"/>
      <path d="M 34.28125 27.484375 
Q 23.390625 27.484375 19.1875 25 
Q 14.984375 22.515625 14.984375 16.5 
Q 14.984375 11.71875 18.140625 8.90625 
Q 21.296875 6.109375 26.703125 6.109375 
Q 34.1875 6.109375 38.703125 11.40625 
Q 43.21875 16.703125 43.21875 25.484375 
L 43.21875 27.484375 
z
M 52.203125 31.203125 
L 52.203125 0 
L 43.21875 0 
L 43.21875 8.296875 
Q 40.140625 3.328125 35.546875 0.953125 
Q 30.953125 -1.421875 24.3125 -1.421875 
Q 15.921875 -1.421875 10.953125 3.296875 
Q 6 8.015625 6 15.921875 
Q 6 25.140625 12.171875 29.828125 
Q 18.359375 34.515625 30.609375 34.515625 
L 43.21875 34.515625 
L 43.21875 35.40625 
Q 43.21875 41.609375 39.140625 45 
Q 35.0625 48.390625 27.6875 48.390625 
Q 23 48.390625 18.546875 47.265625 
Q 14.109375 46.140625 10.015625 43.890625 
L 10.015625 52.203125 
Q 14.9375 54.109375 19.578125 55.046875 
Q 24.21875 56 28.609375 56 
Q 40.484375 56 46.34375 49.84375 
Q 52.203125 43.703125 52.203125 31.203125 
" id="DejaVuSans-61"/>
      <path d="M 44.28125 53.078125 
L 44.28125 44.578125 
Q 40.484375 46.53125 36.375 47.5 
Q 32.28125 48.484375 27.875 48.484375 
Q 21.1875 48.484375 17.84375 46.4375 
Q 14.5 44.390625 14.5 40.28125 
Q 14.5 37.15625 16.890625 35.375 
Q 19.28125 33.59375 26.515625 31.984375 
L 29.59375 31.296875 
Q 39.15625 29.25 43.1875 25.515625 
Q 47.21875 21.78125 47.21875 15.09375 
Q 47.21875 7.46875 41.1875 3.015625 
Q 35.15625 -1.421875 24.609375 -1.421875 
Q 20.21875 -1.421875 15.453125 -0.5625 
Q 10.6875 0.296875 5.421875 2 
L 5.421875 11.28125 
Q 10.40625 8.6875 15.234375 7.390625 
Q 20.0625 6.109375 24.8125 6.109375 
Q 31.15625 6.109375 34.5625 8.28125 
Q 37.984375 10.453125 37.984375 14.40625 
Q 37.984375 18.0625 35.515625 20.015625 
Q 33.0625 21.96875 24.703125 23.78125 
L 21.578125 24.515625 
Q 13.234375 26.265625 9.515625 29.90625 
Q 5.8125 33.546875 5.8125 39.890625 
Q 5.8125 47.609375 11.28125 51.796875 
Q 16.75 56 26.8125 56 
Q 31.78125 56 36.171875 55.265625 
Q 40.578125 54.546875 44.28125 53.078125 
" id="DejaVuSans-73"/>
      <path d="M 25.390625 72.90625 
L 33.6875 72.90625 
L 8.296875 -9.28125 
L 0 -9.28125 
z
" id="DejaVuSans-2f"/>
      <path d="M 45.40625 46.390625 
L 45.40625 75.984375 
L 54.390625 75.984375 
L 54.390625 0 
L 45.40625 0 
L 45.40625 8.203125 
Q 42.578125 3.328125 38.25 0.953125 
Q 33.9375 -1.421875 27.875 -1.421875 
Q 17.96875 -1.421875 11.734375 6.484375 
Q 5.515625 14.40625 5.515625 27.296875 
Q 5.515625 40.1875 11.734375 48.09375 
Q 17.96875 56 27.875 56 
Q 33.9375 56 38.25 53.625 
Q 42.578125 51.265625 45.40625 46.390625 
M 14.796875 27.296875 
Q 14.796875 17.390625 18.875 11.75 
Q 22.953125 6.109375 30.078125 6.109375 
Q 37.203125 6.109375 41.296875 11.75 
Q 45.40625 17.390625 45.40625 27.296875 
Q 45.40625 37.203125 41.296875 42.84375 
Q 37.203125 48.484375 30.078125 48.484375 
Q 22.953125 48.484375 18.875 42.84375 
Q 14.796875 37.203125 14.796875 27.296875 
" id="DejaVuSans-64"/>
      <path d="M 9.421875 54.6875 
L 18.40625 54.6875 
L 18.40625 0 
L 9.421875 0 
z
M 9.421875 75.984375 
L 18.40625 75.984375 
L 18.40625 64.59375 
L 9.421875 64.59375 
z
" id="DejaVuSans-69"/>
      <path d="M 52 44.1875 
Q 55.375 50.25 60.0625 53.125 
Q 64.75 56 71.09375 56 
Q 79.640625 56 84.28125 50.015625 
Q 88.921875 44.046875 88.921875 33.015625 
L 88.921875 0 
L 79.890625 0 
L 79.890625 32.71875 
Q 79.890625 40.578125 77.09375 44.375 
Q 74.3125 48.1875 68.609375 48.1875 
Q 61.625 48.1875 57.5625 43.546875 
Q 53.515625 38.921875 53.515625 30.90625 
L 53.515625 0 
L 44.484375 0 
L 44.484375 32.71875 
Q 44.484375 40.625 41.703125 44.40625 
Q 38.921875 48.1875 33.109375 48.1875 
Q 26.21875 48.1875 22.15625 43.53125 
Q 18.109375 38.875 18.109375 30.90625 
L 18.109375 0 
L 9.078125 0 
L 9.078125 54.6875 
L 18.109375 54.6875 
L 18.109375 46.1875 
Q 21.1875 51.21875 25.484375 53.609375 
Q 29.78125 56 35.6875 56 
Q 41.65625 56 45.828125 52.96875 
Q 50 49.953125 52 44.1875 
" id="DejaVuSans-6d"/>
      <path d="M 54.890625 33.015625 
L 54.890625 0 
L 45.90625 0 
L 45.90625 32.71875 
Q 45.90625 40.484375 42.875 44.328125 
Q 39.84375 48.1875 33.796875 48.1875 
Q 26.515625 48.1875 22.3125 43.546875 
Q 18.109375 38.921875 18.109375 30.90625 
L 18.109375 0 
L 9.078125 0 
L 9.078125 54.6875 
L 18.109375 54.6875 
L 18.109375 46.1875 
Q 21.34375 51.125 25.703125 53.5625 
Q 30.078125 56 35.796875 56 
Q 45.21875 56 50.046875 50.171875 
Q 54.890625 44.34375 54.890625 33.015625 
" id="DejaVuSans-6e"/>
      <path d="M 8.015625 75.875 
L 15.828125 75.875 
Q 23.140625 64.359375 26.78125 53.3125 
Q 30.421875 42.28125 30.421875 31.390625 
Q 30.421875 20.453125 26.78125 9.375 
Q 23.140625 -1.703125 15.828125 -13.1875 
L 8.015625 -13.1875 
Q 14.5 -2 17.703125 9.0625 
Q 20.90625 20.125 20.90625 31.390625 
Q 20.90625 42.671875 17.703125 53.65625 
Q 14.5 64.65625 8.015625 75.875 
" id="DejaVuSans-29"/>
     </defs>
     <g transform="translate(107.571219 337.433594)scale(0.17 -0.17)">
      <use xlink:href="#DejaVuSans-6c"/>
      <use x="27.783203" xlink:href="#DejaVuSans-6f"/>
      <use x="88.964844" xlink:href="#DejaVuSans-67"/>
      <use x="152.441406" xlink:href="#DejaVuSans-31"/>
      <use x="216.064453" xlink:href="#DejaVuSans-30"/>
      <use x="279.6875" xlink:href="#DejaVuSans-28"/>
      <use x="318.701172" xlink:href="#DejaVuSans-23"/>
      <use x="402.490234" xlink:href="#DejaVuSans-20"/>
      <use x="434.277344" xlink:href="#DejaVuSans-66"/>
      <use x="469.404297" xlink:href="#DejaVuSans-2d"/>
      <use x="505.488281" xlink:href="#DejaVuSans-65"/>
      <use x="567.011719" xlink:href="#DejaVuSans-76"/>
      <use x="626.191406" xlink:href="#DejaVuSans-61"/>
      <use x="687.470703" xlink:href="#DejaVuSans-6c"/>
      <use x="715.253906" xlink:href="#DejaVuSans-73"/>
      <use x="767.353516" xlink:href="#DejaVuSans-20"/>
      <use x="799.140625" xlink:href="#DejaVuSans-2f"/>
      <use x="832.832031" xlink:href="#DejaVuSans-20"/>
      <use x="864.619141" xlink:href="#DejaVuSans-64"/>
      <use x="928.095703" xlink:href="#DejaVuSans-69"/>
      <use x="955.878906" xlink:href="#DejaVuSans-6d"/>
      <use x="1053.291016" xlink:href="#DejaVuSans-65"/>
      <use x="1114.814453" xlink:href="#DejaVuSans-6e"/>
      <use x="1178.193359" xlink:href="#DejaVuSans-73"/>
      <use x="1230.292969" xlink:href="#DejaVuSans-69"/>
      <use x="1258.076172" xlink:href="#DejaVuSans-6f"/>
      <use x="1319.257812" xlink:href="#DejaVuSans-6e"/>
      <use x="1382.636719" xlink:href="#DejaVuSans-29"/>
     </g>
    </g>
   </g>
   <g id="matplotlib.axis_2">
    <g id="ytick_1">
     <g id="line2d_33">
      <path clip-path="url(#pdd22bea73e)" d="M 56.84 294.16 
L 399.984 294.16 
" style="fill:none;stroke:#b0b0b0;stroke-linecap:square;stroke-width:0.8;"/>
     </g>
     <g id="line2d_34">
      <defs>
       <path d="M 0 0 
L -3.5 0 
" id="mf425de9de4" style="stroke:#000000;stroke-width:0.8;"/>
      </defs>
      <g>
       <use style="stroke:#000000;stroke-width:0.8;" x="56.84" xlink:href="#mf425de9de4" y="294.16"/>
      </g>
     </g>
     <g id="text_7">
      <!-- 0.0 -->
      <defs>
       <path d="M 10.6875 12.40625 
L 21 12.40625 
L 21 0 
L 10.6875 0 
z
" id="DejaVuSans-2e"/>
      </defs>
      <g transform="translate(24.395 300.23875)scale(0.16 -0.16)">
       <use xlink:href="#DejaVuSans-30"/>
       <use x="63.623047" xlink:href="#DejaVuSans-2e"/>
       <use x="95.410156" xlink:href="#DejaVuSans-30"/>
      </g>
     </g>
    </g>
    <g id="ytick_2">
     <g id="line2d_35">
      <path clip-path="url(#pdd22bea73e)" d="M 56.84 240.829307 
L 399.984 240.829307 
" style="fill:none;stroke:#b0b0b0;stroke-linecap:square;stroke-width:0.8;"/>
     </g>
     <g id="line2d_36">
      <g>
       <use style="stroke:#000000;stroke-width:0.8;" x="56.84" xlink:href="#mf425de9de4" y="240.829307"/>
      </g>
     </g>
     <g id="text_8">
      <!-- 0.2 -->
      <g transform="translate(24.395 246.908057)scale(0.16 -0.16)">
       <use xlink:href="#DejaVuSans-30"/>
       <use x="63.623047" xlink:href="#DejaVuSans-2e"/>
       <use x="95.410156" xlink:href="#DejaVuSans-32"/>
      </g>
     </g>
    </g>
    <g id="ytick_3">
     <g id="line2d_37">
      <path clip-path="url(#pdd22bea73e)" d="M 56.84 187.498614 
L 399.984 187.498614 
" style="fill:none;stroke:#b0b0b0;stroke-linecap:square;stroke-width:0.8;"/>
     </g>
     <g id="line2d_38">
      <g>
       <use style="stroke:#000000;stroke-width:0.8;" x="56.84" xlink:href="#mf425de9de4" y="187.498614"/>
      </g>
     </g>
     <g id="text_9">
      <!-- 0.4 -->
      <g transform="translate(24.395 193.577364)scale(0.16 -0.16)">
       <use xlink:href="#DejaVuSans-30"/>
       <use x="63.623047" xlink:href="#DejaVuSans-2e"/>
       <use x="95.410156" xlink:href="#DejaVuSans-34"/>
      </g>
     </g>
    </g>
    <g id="ytick_4">
     <g id="line2d_39">
      <path clip-path="url(#pdd22bea73e)" d="M 56.84 134.167921 
L 399.984 134.167921 
" style="fill:none;stroke:#b0b0b0;stroke-linecap:square;stroke-width:0.8;"/>
     </g>
     <g id="line2d_40">
      <g>
       <use style="stroke:#000000;stroke-width:0.8;" x="56.84" xlink:href="#mf425de9de4" y="134.167921"/>
      </g>
     </g>
     <g id="text_10">
      <!-- 0.6 -->
      <g transform="translate(24.395 140.246671)scale(0.16 -0.16)">
       <use xlink:href="#DejaVuSans-30"/>
       <use x="63.623047" xlink:href="#DejaVuSans-2e"/>
       <use x="95.410156" xlink:href="#DejaVuSans-36"/>
      </g>
     </g>
    </g>
    <g id="ytick_5">
     <g id="line2d_41">
      <path clip-path="url(#pdd22bea73e)" d="M 56.84 80.837228 
L 399.984 80.837228 
" style="fill:none;stroke:#b0b0b0;stroke-linecap:square;stroke-width:0.8;"/>
     </g>
     <g id="line2d_42">
      <g>
       <use style="stroke:#000000;stroke-width:0.8;" x="56.84" xlink:href="#mf425de9de4" y="80.837228"/>
      </g>
     </g>
     <g id="text_11">
      <!-- 0.8 -->
      <g transform="translate(24.395 86.915978)scale(0.16 -0.16)">
       <use xlink:href="#DejaVuSans-30"/>
       <use x="63.623047" xlink:href="#DejaVuSans-2e"/>
       <use x="95.410156" xlink:href="#DejaVuSans-38"/>
      </g>
     </g>
    </g>
    <g id="ytick_6">
     <g id="line2d_43">
      <path clip-path="url(#pdd22bea73e)" d="M 56.84 27.506535 
L 399.984 27.506535 
" style="fill:none;stroke:#b0b0b0;stroke-linecap:square;stroke-width:0.8;"/>
     </g>
     <g id="line2d_44">
      <g>
       <use style="stroke:#000000;stroke-width:0.8;" x="56.84" xlink:href="#mf425de9de4" y="27.506535"/>
      </g>
     </g>
     <g id="text_12">
      <!-- 1.0 -->
      <g transform="translate(24.395 33.585285)scale(0.16 -0.16)">
       <use xlink:href="#DejaVuSans-31"/>
       <use x="63.623047" xlink:href="#DejaVuSans-2e"/>
       <use x="95.410156" xlink:href="#DejaVuSans-30"/>
      </g>
     </g>
    </g>
    <g id="text_13">
     <!-- Fraction of function,target pairs -->
     <defs>
      <path d="M 9.8125 72.90625 
L 51.703125 72.90625 
L 51.703125 64.59375 
L 19.671875 64.59375 
L 19.671875 43.109375 
L 48.578125 43.109375 
L 48.578125 34.8125 
L 19.671875 34.8125 
L 19.671875 0 
L 9.8125 0 
z
" id="DejaVuSans-46"/>
      <path d="M 41.109375 46.296875 
Q 39.59375 47.171875 37.8125 47.578125 
Q 36.03125 48 33.890625 48 
Q 26.265625 48 22.1875 43.046875 
Q 18.109375 38.09375 18.109375 28.8125 
L 18.109375 0 
L 9.078125 0 
L 9.078125 54.6875 
L 18.109375 54.6875 
L 18.109375 46.1875 
Q 20.953125 51.171875 25.484375 53.578125 
Q 30.03125 56 36.53125 56 
Q 37.453125 56 38.578125 55.875 
Q 39.703125 55.765625 41.0625 55.515625 
z
" id="DejaVuSans-72"/>
      <path d="M 48.78125 52.59375 
L 48.78125 44.1875 
Q 44.96875 46.296875 41.140625 47.34375 
Q 37.3125 48.390625 33.40625 48.390625 
Q 24.65625 48.390625 19.8125 42.84375 
Q 14.984375 37.3125 14.984375 27.296875 
Q 14.984375 17.28125 19.8125 11.734375 
Q 24.65625 6.203125 33.40625 6.203125 
Q 37.3125 6.203125 41.140625 7.25 
Q 44.96875 8.296875 48.78125 10.40625 
L 48.78125 2.09375 
Q 45.015625 0.34375 40.984375 -0.53125 
Q 36.96875 -1.421875 32.421875 -1.421875 
Q 20.0625 -1.421875 12.78125 6.34375 
Q 5.515625 14.109375 5.515625 27.296875 
Q 5.515625 40.671875 12.859375 48.328125 
Q 20.21875 56 33.015625 56 
Q 37.15625 56 41.109375 55.140625 
Q 45.0625 54.296875 48.78125 52.59375 
" id="DejaVuSans-63"/>
      <path d="M 18.3125 70.21875 
L 18.3125 54.6875 
L 36.8125 54.6875 
L 36.8125 47.703125 
L 18.3125 47.703125 
L 18.3125 18.015625 
Q 18.3125 11.328125 20.140625 9.421875 
Q 21.96875 7.515625 27.59375 7.515625 
L 36.8125 7.515625 
L 36.8125 0 
L 27.59375 0 
Q 17.1875 0 13.234375 3.875 
Q 9.28125 7.765625 9.28125 18.015625 
L 9.28125 47.703125 
L 2.6875 47.703125 
L 2.6875 54.6875 
L 9.28125 54.6875 
L 9.28125 70.21875 
z
" id="DejaVuSans-74"/>
      <path d="M 8.5 21.578125 
L 8.5 54.6875 
L 17.484375 54.6875 
L 17.484375 21.921875 
Q 17.484375 14.15625 20.5 10.265625 
Q 23.53125 6.390625 29.59375 6.390625 
Q 36.859375 6.390625 41.078125 11.03125 
Q 45.3125 15.671875 45.3125 23.6875 
L 45.3125 54.6875 
L 54.296875 54.6875 
L 54.296875 0 
L 45.3125 0 
L 45.3125 8.40625 
Q 42.046875 3.421875 37.71875 1 
Q 33.40625 -1.421875 27.6875 -1.421875 
Q 18.265625 -1.421875 13.375 4.4375 
Q 8.5 10.296875 8.5 21.578125 
M 31.109375 56 
z
" id="DejaVuSans-75"/>
      <path d="M 11.71875 12.40625 
L 22.015625 12.40625 
L 22.015625 4 
L 14.015625 -11.625 
L 7.71875 -11.625 
L 11.71875 4 
z
" id="DejaVuSans-2c"/>
      <path d="M 18.109375 8.203125 
L 18.109375 -20.796875 
L 9.078125 -20.796875 
L 9.078125 54.6875 
L 18.109375 54.6875 
L 18.109375 46.390625 
Q 20.953125 51.265625 25.265625 53.625 
Q 29.59375 56 35.59375 56 
Q 45.5625 56 51.78125 48.09375 
Q 58.015625 40.1875 58.015625 27.296875 
Q 58.015625 14.40625 51.78125 6.484375 
Q 45.5625 -1.421875 35.59375 -1.421875 
Q 29.59375 -1.421875 25.265625 0.953125 
Q 20.953125 3.328125 18.109375 8.203125 
M 48.6875 27.296875 
Q 48.6875 37.203125 44.609375 42.84375 
Q 40.53125 48.484375 33.40625 48.484375 
Q 26.265625 48.484375 22.1875 42.84375 
Q 18.109375 37.203125 18.109375 27.296875 
Q 18.109375 17.390625 22.1875 11.75 
Q 26.265625 6.109375 33.40625 6.109375 
Q 40.53125 6.109375 44.609375 11.75 
Q 48.6875 17.390625 48.6875 27.296875 
" id="DejaVuSans-70"/>
     </defs>
     <g transform="translate(16.859531 294.639375)rotate(-90)scale(0.17 -0.17)">
      <use xlink:href="#DejaVuSans-46"/>
      <use x="57.410156" xlink:href="#DejaVuSans-72"/>
      <use x="98.523438" xlink:href="#DejaVuSans-61"/>
      <use x="159.802734" xlink:href="#DejaVuSans-63"/>
      <use x="214.783203" xlink:href="#DejaVuSans-74"/>
      <use x="253.992188" xlink:href="#DejaVuSans-69"/>
      <use x="281.775391" xlink:href="#DejaVuSans-6f"/>
      <use x="342.957031" xlink:href="#DejaVuSans-6e"/>
      <use x="406.335938" xlink:href="#DejaVuSans-20"/>
      <use x="438.123047" xlink:href="#DejaVuSans-6f"/>
      <use x="499.304688" xlink:href="#DejaVuSans-66"/>
      <use x="534.509766" xlink:href="#DejaVuSans-20"/>
      <use x="566.296875" xlink:href="#DejaVuSans-66"/>
      <use x="601.501953" xlink:href="#DejaVuSans-75"/>
      <use x="664.880859" xlink:href="#DejaVuSans-6e"/>
      <use x="728.259766" xlink:href="#DejaVuSans-63"/>
      <use x="783.240234" xlink:href="#DejaVuSans-74"/>
      <use x="822.449219" xlink:href="#DejaVuSans-69"/>
      <use x="850.232422" xlink:href="#DejaVuSans-6f"/>
      <use x="911.414062" xlink:href="#DejaVuSans-6e"/>
      <use x="974.792969" xlink:href="#DejaVuSans-2c"/>
      <use x="1006.580078" xlink:href="#DejaVuSans-74"/>
      <use x="1045.789062" xlink:href="#DejaVuSans-61"/>
      <use x="1107.068359" xlink:href="#DejaVuSans-72"/>
      <use x="1148.166016" xlink:href="#DejaVuSans-67"/>
      <use x="1211.642578" xlink:href="#DejaVuSans-65"/>
      <use x="1273.166016" xlink:href="#DejaVuSans-74"/>
      <use x="1312.375" xlink:href="#DejaVuSans-20"/>
      <use x="1344.162109" xlink:href="#DejaVuSans-70"/>
      <use x="1407.638672" xlink:href="#DejaVuSans-61"/>
      <use x="1468.917969" xlink:href="#DejaVuSans-69"/>
      <use x="1496.701172" xlink:href="#DejaVuSans-72"/>
      <use x="1537.814453" xlink:href="#DejaVuSans-73"/>
     </g>
    </g>
   </g>
   <g id="line2d_45">
    <defs>
     <path d="M 0 1.5 
C 0.397805 1.5 0.77937 1.341951 1.06066 1.06066 
C 1.341951 0.77937 1.5 0.397805 1.5 0 
C 1.5 -0.397805 1.341951 -0.77937 1.06066 -1.06066 
C 0.77937 -1.341951 0.397805 -1.5 0 -1.5 
C -0.397805 -1.5 -0.77937 -1.341951 -1.06066 -1.06066 
C -1.341951 -0.77937 -1.5 -0.397805 -1.5 0 
C -1.5 0.397805 -1.341951 0.77937 -1.06066 1.06066 
C -0.77937 1.341951 -0.397805 1.5 0 1.5 
z
" id="m3e1f698a53" style="stroke:#f5deb3;"/>
    </defs>
    <g>
     <use style="fill:#f5deb3;stroke:#f5deb3;" x="214.025045" xlink:href="#m3e1f698a53" y="59.688849"/>
     <use style="fill:#f5deb3;stroke:#f5deb3;" x="214.025045" xlink:href="#m3e1f698a53" y="59.688849"/>
    </g>
   </g>
   <g id="line2d_46">
    <defs>
     <path d="M 0 1.5 
C 0.397805 1.5 0.77937 1.341951 1.06066 1.06066 
C 1.341951 0.77937 1.5 0.397805 1.5 0 
C 1.5 -0.397805 1.341951 -0.77937 1.06066 -1.06066 
C 0.77937 -1.341951 0.397805 -1.5 0 -1.5 
C -0.397805 -1.5 -0.77937 -1.341951 -1.06066 -1.06066 
C -1.341951 -0.77937 -1.5 -0.397805 -1.5 0 
C -1.5 0.397805 -1.341951 0.77937 -1.06066 1.06066 
C -0.77937 1.341951 -0.397805 1.5 0 1.5 
z
" id="ma8a34b62a3" style="stroke:#000080;"/>
    </defs>
    <g>
     <use style="fill:#000080;stroke:#000080;" x="273.420604" xlink:href="#ma8a34b62a3" y="59.688849"/>
     <use style="fill:#000080;stroke:#000080;" x="273.420604" xlink:href="#ma8a34b62a3" y="59.688849"/>
    </g>
   </g>
   <g id="line2d_47">
    <path d="M 44.939466 294.16 
L 44.939466 285.884548 
L 113.740735 285.884548 
L 113.740735 284.045558 
L 127.972824 284.045558 
L 127.972824 281.287074 
L 141.804475 281.287074 
L 141.804475 279.907832 
L 142.866804 279.907832 
L 142.866804 279.448085 
L 143.318642 279.448085 
L 143.374294 272.551874 
L 143.867214 272.551874 
L 143.974856 268.873896 
L 144.188136 268.873896 
L 144.188136 264.276422 
L 145.01571 264.276422 
L 145.01571 263.816675 
L 145.659927 263.816675 
L 145.659927 262.437433 
L 147.805972 262.437433 
L 147.805972 261.517938 
L 148.019252 261.517938 
L 148.019252 260.598443 
L 148.520568 260.598443 
L 148.520568 259.678948 
L 148.684472 259.678948 
L 148.765841 252.782738 
L 148.927432 252.782738 
L 148.927432 249.564507 
L 149.167001 249.564507 
L 149.167001 247.725517 
L 149.904307 247.725517 
L 149.904307 244.047538 
L 150.093185 244.047538 
L 150.093185 243.128044 
L 150.354172 243.128044 
L 150.354172 240.829307 
L 150.574759 240.829307 
L 150.574759 239.450065 
L 151.464536 239.450065 
L 151.464536 237.151328 
L 151.875785 237.151328 
L 151.909615 231.174612 
L 152.144579 231.174612 
L 152.211125 225.197897 
L 152.702164 225.197897 
L 152.702164 224.278402 
L 153.021891 224.278402 
L 153.11666 219.680929 
L 153.210908 219.680929 
L 153.210908 219.221181 
L 153.397866 219.221181 
L 153.459736 214.623708 
L 154.096253 214.623708 
L 154.185288 210.485982 
L 154.594786 210.485982 
L 154.594786 209.566487 
L 154.938174 209.566487 
L 154.938174 208.187245 
L 155.107326 208.187245 
L 155.107326 207.26775 
L 155.219176 207.26775 
L 155.219176 206.348255 
L 155.468205 206.348255 
L 155.468205 204.049519 
L 155.659427 204.049519 
L 155.713673 201.750782 
L 155.87539 201.750782 
L 155.955681 197.613056 
L 156.507443 197.613056 
L 156.507443 196.233814 
L 156.764082 196.233814 
L 156.764082 192.096087 
L 156.941474 192.096087 
L 157.042024 190.716845 
L 157.389382 190.716845 
L 157.389382 190.257098 
L 157.560461 190.257098 
L 157.657461 187.498614 
L 157.705756 187.498614 
L 157.705756 186.579119 
L 157.825902 186.579119 
L 157.921417 184.74013 
L 158.110868 184.74013 
L 158.157906 182.441393 
L 158.228223 182.441393 
L 158.228223 180.602404 
L 158.367997 180.602404 
L 158.367997 179.223161 
L 158.529641 179.223161 
L 158.621331 177.843919 
L 158.689778 177.843919 
L 158.689778 176.924425 
L 158.893498 176.924425 
L 158.893498 176.00493 
L 159.050292 176.00493 
L 159.050292 174.165941 
L 159.598864 174.165941 
L 159.598864 172.786699 
L 159.85608 172.786699 
L 159.85608 172.326951 
L 159.983257 172.326951 
L 160.067522 168.648972 
L 160.193148 168.648972 
L 160.193148 166.809983 
L 160.48275 166.809983 
L 160.544177 164.970994 
L 160.747361 164.970994 
L 160.80785 161.752762 
L 161.342872 161.752762 
L 161.342872 159.913773 
L 161.51757 159.913773 
L 161.51757 158.994278 
L 161.861723 158.994278 
L 161.89954 157.615036 
L 162.087385 157.615036 
L 162.087385 155.316299 
L 162.273197 155.316299 
L 162.273197 154.856552 
L 162.693083 154.856552 
L 162.693083 154.396804 
L 162.890325 154.396804 
L 162.979237 152.557815 
L 163.032364 152.557815 
L 163.138127 148.420089 
L 163.29556 148.420089 
L 163.399719 147.500594 
L 163.589052 147.500594 
L 163.606161 145.201857 
L 163.776319 145.201857 
L 163.776319 144.74211 
L 163.928033 144.74211 
L 163.978308 143.362868 
L 164.095047 143.362868 
L 164.095047 142.443373 
L 164.293341 142.443373 
L 164.293341 141.523878 
L 164.538032 141.523878 
L 164.538032 141.064131 
L 164.858954 141.064131 
L 164.858954 139.225142 
L 165.017194 139.225142 
L 165.017194 137.8459 
L 165.605543 137.8459 
L 165.605543 136.926405 
L 165.832348 136.926405 
L 165.832348 136.00691 
L 167.695256 136.00691 
L 167.695256 135.547163 
L 168.160565 135.547163 
L 168.160565 135.087416 
L 168.278205 135.087416 
L 168.278205 133.708173 
L 169.821951 133.708173 
L 169.821951 133.248426 
L 170.37262 133.248426 
L 170.37262 132.328931 
L 170.715095 132.328931 
L 170.715095 131.409437 
L 171.293 131.409437 
L 171.293 130.949689 
L 171.434488 130.949689 
L 171.434488 130.030195 
L 172.04145 130.030195 
L 172.04145 129.1107 
L 172.516099 129.1107 
L 172.516099 125.892468 
L 173.667349 125.892468 
L 173.667349 125.432721 
L 174.339259 125.432721 
L 174.339259 124.513226 
L 176.152753 124.513226 
L 176.152753 124.053479 
L 176.743584 124.053479 
L 176.743584 123.133984 
L 177.657613 123.133984 
L 177.657613 122.21449 
L 178.038081 122.21449 
L 178.038081 120.835248 
L 179.988809 120.835248 
L 179.988809 119.915753 
L 180.62237 119.915753 
L 180.62237 119.456005 
L 182.070176 119.456005 
L 182.070176 118.076763 
L 183.999431 118.076763 
L 183.999431 117.617016 
L 185.691162 117.617016 
L 185.691162 117.157269 
L 186.055774 117.157269 
L 186.055774 116.237774 
L 187.07049 116.237774 
L 187.07049 115.318279 
L 189.322694 115.318279 
L 189.33034 113.019543 
L 190.833458 113.019543 
L 190.833458 112.100048 
L 191.697288 112.100048 
L 191.697288 110.720806 
L 192.806173 110.720806 
L 192.806173 109.341564 
L 194.581031 109.341564 
L 194.581031 108.881816 
L 206.644066 108.881816 
L 206.644066 106.58308 
L 208.935251 106.58308 
L 208.935251 104.284343 
L 209.343951 104.284343 
L 209.343951 103.364848 
L 209.916865 103.364848 
L 209.947949 101.066111 
L 210.162833 101.066111 
L 210.162833 99.686869 
L 210.362716 99.686869 
L 210.362716 99.227122 
L 211.139759 99.227122 
L 211.139759 98.307627 
L 212.681239 98.307627 
L 212.681239 97.84788 
L 215.403192 97.84788 
L 215.403192 97.388132 
L 216.300949 97.388132 
L 216.300949 96.928385 
L 216.532942 96.928385 
L 216.532942 94.629648 
L 219.483948 94.629648 
L 219.483948 92.330912 
L 219.948202 92.330912 
L 220.055149 90.491922 
L 221.794339 90.491922 
L 221.794339 89.572427 
L 222.548291 89.572427 
L 222.548291 88.652933 
L 223.343949 88.652933 
L 223.343949 87.733438 
L 223.855978 87.733438 
L 223.855978 87.273691 
L 235.67574 87.273691 
L 235.67574 86.354196 
L 235.903994 86.354196 
L 235.903994 85.434701 
L 236.27929 85.434701 
L 236.27929 84.974954 
L 237.038451 84.974954 
L 237.038451 84.515207 
L 237.184076 84.515207 
L 237.274235 82.21647 
L 237.486483 82.21647 
L 237.546976 79.917733 
L 237.992655 79.917733 
L 237.992655 79.457986 
L 238.365857 79.457986 
L 238.365857 78.538491 
L 238.834924 78.538491 
L 238.834924 78.078744 
L 239.647997 78.078744 
L 239.647997 77.159249 
L 240.616964 77.159249 
L 240.616964 76.699502 
L 240.739305 76.699502 
L 240.739305 76.239754 
L 242.821766 76.239754 
L 242.851236 74.860512 
L 243.098545 74.860512 
L 243.098545 72.102028 
L 244.608769 72.102028 
L 244.608769 70.722786 
L 246.873389 70.722786 
L 246.873389 69.343544 
L 253.377128 69.343544 
L 253.377128 68.883797 
L 254.583074 68.883797 
L 254.60024 66.125312 
L 255.028911 66.125312 
L 255.028911 65.665565 
L 255.707363 65.665565 
L 255.707363 64.74607 
L 256.296882 64.74607 
L 256.296882 64.286323 
L 256.917844 64.286323 
L 256.917844 63.826576 
L 257.102486 63.826576 
L 257.102486 63.366828 
L 257.611869 63.366828 
L 257.611869 62.907081 
L 260.837857 62.907081 
L 260.837857 62.447334 
L 266.506322 62.447334 
L 266.529645 61.068091 
L 267.316892 61.068091 
L 267.316892 60.608344 
L 269.886391 60.608344 
L 269.886391 60.148597 
L 273.420604 60.148597 
L 273.420604 59.688849 
L 333.569032 59.688849 
L 333.569032 59.688849 
" style="fill:none;stroke:#000080;stroke-linecap:square;stroke-width:1.5;"/>
   </g>
   <g id="line2d_48">
    <defs>
     <path d="M 0 6 
C 1.591219 6 3.117479 5.367802 4.242641 4.242641 
C 5.367802 3.117479 6 1.591219 6 0 
C 6 -1.591219 5.367802 -3.117479 4.242641 -4.242641 
C 3.117479 -5.367802 1.591219 -6 0 -6 
C -1.591219 -6 -3.117479 -5.367802 -4.242641 -4.242641 
C -5.367802 -3.117479 -6 -1.591219 -6 0 
C -6 1.591219 -5.367802 3.117479 -4.242641 4.242641 
C -3.117479 5.367802 -1.591219 6 0 6 
z
" id="m103bf18b23" style="stroke:#000080;stroke-width:1.5;"/>
    </defs>
    <g>
     <use style="fill:none;stroke:#000080;stroke-width:1.5;" x="152.702164" xlink:href="#m103bf18b23" y="224.278402"/>
     <use style="fill:none;stroke:#000080;stroke-width:1.5;" x="178.038081" xlink:href="#m103bf18b23" y="122.21449"/>
     <use style="fill:none;stroke:#000080;stroke-width:1.5;" x="237.038451" xlink:href="#m103bf18b23" y="84.515207"/>
     <use style="fill:none;stroke:#000080;stroke-width:1.5;" x="273.420604" xlink:href="#m103bf18b23" y="59.688849"/>
     <use style="fill:none;stroke:#000080;stroke-width:1.5;" x="273.420604" xlink:href="#m103bf18b23" y="59.688849"/>
     <use style="fill:none;stroke:#000080;stroke-width:1.5;" x="333.569032" xlink:href="#m103bf18b23" y="59.688849"/>
    </g>
   </g>
   <g id="line2d_49">
    <path style="fill:none;stroke:#000080;stroke-linecap:square;stroke-width:1.5;"/>
    <g/>
   </g>
   <g id="line2d_50">
    <path clip-path="url(#pdd22bea73e)" d="M 254.513464 68.883797 
" style="fill:none;stroke:#000080;stroke-linecap:square;stroke-width:1.5;"/>
    <defs>
     <path d="M -12 12 
L 12 -12 
M -12 -12 
L 12 12 
" id="m618b5e663c" style="stroke:#000080;stroke-width:3;"/>
    </defs>
    <g clip-path="url(#pdd22bea73e)">
     <use style="fill:#000080;stroke:#000080;stroke-width:3;" x="254.513464" xlink:href="#m618b5e663c" y="68.883797"/>
    </g>
   </g>
   <g id="line2d_51">
    <defs>
     <path d="M 0 1.5 
C 0.397805 1.5 0.77937 1.341951 1.06066 1.06066 
C 1.341951 0.77937 1.5 0.397805 1.5 0 
C 1.5 -0.397805 1.341951 -0.77937 1.06066 -1.06066 
C 0.77937 -1.341951 0.397805 -1.5 0 -1.5 
C -0.397805 -1.5 -0.77937 -1.341951 -1.06066 -1.06066 
C -1.341951 -0.77937 -1.5 -0.397805 -1.5 0 
C -1.5 0.397805 -1.341951 0.77937 -1.06066 1.06066 
C -0.77937 1.341951 -0.397805 1.5 0 1.5 
z
" id="m20647fe2d8" style="stroke:#ff00ff;"/>
    </defs>
    <g>
     <use style="fill:#ff00ff;stroke:#ff00ff;" x="312.898672" xlink:href="#m20647fe2d8" y="59.688849"/>
     <use style="fill:#ff00ff;stroke:#ff00ff;" x="312.898672" xlink:href="#m20647fe2d8" y="59.688849"/>
    </g>
   </g>
   <g id="line2d_52">
    <path d="M 44.939466 294.16 
L 44.939466 288.643032 
L 63.801366 288.643032 
L 63.801366 286.804042 
L 68.740534 286.804042 
L 68.740534 286.344295 
L 72.57165 286.344295 
L 72.57165 285.884548 
L 75.7019 285.884548 
L 75.7019 283.585811 
L 78.348489 283.585811 
L 78.348489 275.770106 
L 80.641068 275.770106 
L 80.641068 269.79339 
L 84.472185 269.79339 
L 84.472185 267.954401 
L 87.602435 267.954401 
L 87.602435 263.816675 
L 90.249023 263.816675 
L 90.249023 261.517938 
L 91.433551 261.517938 
L 91.433551 258.759454 
L 93.582457 258.759454 
L 93.582457 258.299706 
L 96.372719 258.299706 
L 96.372719 256.460717 
L 98.009084 256.460717 
L 98.009084 255.541222 
L 100.877209 255.541222 
L 100.877209 254.16198 
L 103.897048 254.16198 
L 103.897048 252.782738 
L 104.442137 252.782738 
L 104.442137 252.322991 
L 108.697197 252.322991 
L 108.697197 250.484001 
L 109.514915 250.484001 
L 109.514915 245.42678 
L 109.909618 245.42678 
L 109.909618 237.151328 
L 110.295451 237.151328 
L 110.295451 233.933097 
L 113.425701 233.933097 
L 113.425701 233.473349 
L 114.652569 233.473349 
L 114.652569 232.553855 
L 114.946061 232.553855 
L 114.946061 232.094107 
L 117.881208 232.094107 
L 117.881208 229.335623 
L 119.517573 229.335623 
L 119.517573 228.416128 
L 119.73911 228.416128 
L 119.73911 227.956381 
L 120.387068 227.956381 
L 120.387068 227.036886 
L 120.597731 227.036886 
L 120.597731 226.117392 
L 122.573338 226.117392 
L 122.573338 224.73815 
L 123.304037 224.73815 
L 123.304037 223.818655 
L 123.658047 223.818655 
L 123.658047 223.358907 
L 124.344892 223.358907 
L 124.344892 220.140676 
L 127.559097 220.140676 
L 127.559097 213.244466 
L 129.658667 213.244466 
L 129.658667 210.945729 
L 131.858358 210.945729 
L 131.858358 207.727497 
L 132.074321 207.727497 
L 132.074321 202.210529 
L 133.415513 202.210529 
L 133.415513 200.37154 
L 133.807961 200.37154 
L 133.807961 197.613056 
L 134.93419 197.613056 
L 134.93419 197.153308 
L 137.1471 197.153308 
L 137.1471 195.774066 
L 138.079574 195.774066 
L 138.079574 195.314319 
L 140.27735 195.314319 
L 140.27735 187.498614 
L 140.930236 187.498614 
L 140.930236 187.038867 
L 141.184594 187.038867 
L 141.247599 184.280382 
L 143.813139 184.280382 
L 143.813139 180.142656 
L 145.853381 180.142656 
L 145.853381 179.682909 
L 147.105106 179.682909 
L 147.105106 178.303667 
L 149.324876 178.303667 
L 149.324876 177.843919 
L 149.559 177.843919 
L 149.559 177.384172 
L 153.521383 177.384172 
L 153.521383 175.545183 
L 155.767748 175.545183 
L 155.767748 174.625688 
L 155.955681 174.625688 
L 156.062155 172.786699 
L 156.890978 172.786699 
L 156.890978 170.487962 
L 157.968976 170.487962 
L 157.968976 169.568467 
L 158.367997 169.568467 
L 158.367997 169.10872 
L 160.359232 169.10872 
L 160.359232 166.809983 
L 164.19448 166.809983 
L 164.19448 166.350236 
L 166.437415 166.350236 
L 166.437415 164.511246 
L 168.31724 164.511246 
L 168.31724 164.051499 
L 169.497434 164.051499 
L 169.497434 163.591751 
L 170.498989 163.591751 
L 170.498989 162.672257 
L 172.208038 162.672257 
L 172.208038 160.833267 
L 173.94115 160.833267 
L 173.94115 159.913773 
L 175.634472 159.913773 
L 175.634472 157.615036 
L 176.316657 157.615036 
L 176.316657 156.695541 
L 177.559267 156.695541 
L 177.589588 154.856552 
L 178.539768 154.856552 
L 178.639795 152.098068 
L 179.020244 152.098068 
L 179.020244 151.178573 
L 180.430894 151.178573 
L 180.430894 150.259078 
L 180.843092 150.259078 
L 180.843092 149.339583 
L 181.36153 149.339583 
L 181.36153 148.420089 
L 181.805628 148.420089 
L 181.805628 147.500594 
L 183.155242 147.500594 
L 183.155242 142.903121 
L 186.285492 142.903121 
L 186.285492 142.443373 
L 186.512176 142.443373 
L 186.570627 141.064131 
L 187.278495 141.064131 
L 187.278495 140.604384 
L 188.110831 140.604384 
L 188.110831 138.765394 
L 189.418023 138.765394 
L 189.418023 137.386152 
L 191.472725 137.386152 
L 191.472725 135.547163 
L 192.000936 135.547163 
L 192.000936 133.708173 
L 192.796805 133.708173 
L 192.796805 133.248426 
L 193.841885 133.248426 
L 193.841885 129.570447 
L 195.912994 129.570447 
L 195.912994 129.1107 
L 196.840855 129.1107 
L 196.840855 127.27171 
L 198.188308 127.27171 
L 198.188308 126.352216 
L 200.762058 126.352216 
L 200.762058 125.432721 
L 201.04063 125.432721 
L 201.04063 124.972974 
L 202.817828 124.972974 
L 202.817828 124.513226 
L 203.133749 124.513226 
L 203.133749 123.593732 
L 203.393489 123.593732 
L 203.445641 122.21449 
L 204.429784 122.21449 
L 204.429784 121.754742 
L 205.049755 121.754742 
L 205.049755 119.915753 
L 206.280526 119.915753 
L 206.340234 118.996258 
L 207.307302 118.996258 
L 207.307302 118.076763 
L 208.316643 118.076763 
L 208.316643 117.617016 
L 211.102161 117.617016 
L 211.102161 117.157269 
L 212.339446 117.157269 
L 212.339446 115.778027 
L 213.842667 115.778027 
L 213.900325 113.939037 
L 215.788095 113.939037 
L 215.788095 113.019543 
L 216.34855 113.019543 
L 216.34855 110.261058 
L 217.276863 110.261058 
L 217.276863 108.881816 
L 218.006436 108.881816 
L 218.006436 107.502574 
L 218.239349 107.502574 
L 218.239349 106.58308 
L 219.961687 106.58308 
L 219.961687 105.663585 
L 220.301084 105.663585 
L 220.301084 105.203837 
L 220.990643 105.203837 
L 220.990643 103.824595 
L 221.409882 103.824595 
L 221.47113 102.905101 
L 229.59191 102.905101 
L 229.59191 102.445353 
L 230.66196 102.445353 
L 230.66196 101.525859 
L 233.066807 101.525859 
L 233.066807 100.606364 
L 234.874169 100.606364 
L 234.874169 99.686869 
L 240.64489 99.686869 
L 240.673154 97.84788 
L 242.981719 97.84788 
L 243.050271 96.468638 
L 244.810292 96.468638 
L 244.810292 95.089396 
L 247.246189 95.089396 
L 247.246189 93.710154 
L 247.707241 93.710154 
L 247.707241 92.790659 
L 248.025031 92.790659 
L 248.025031 90.95167 
L 249.349738 90.95167 
L 249.349738 90.032175 
L 251.666813 90.032175 
L 251.666813 88.652933 
L 252.521257 88.652933 
L 252.521257 88.193185 
L 253.181133 88.193185 
L 253.181133 87.733438 
L 254.111917 87.733438 
L 254.111917 87.273691 
L 254.793518 87.273691 
L 254.793518 86.813943 
L 255.317785 86.813943 
L 255.317785 86.354196 
L 255.590682 86.354196 
L 255.590682 84.974954 
L 256.727652 84.974954 
L 256.727652 84.515207 
L 257.186543 84.515207 
L 257.186543 84.055459 
L 258.367575 84.055459 
L 258.367575 83.135964 
L 259.39501 83.135964 
L 259.39501 82.21647 
L 259.747936 82.21647 
L 259.747936 81.756722 
L 261.42537 81.756722 
L 261.42537 80.837228 
L 265.613518 80.837228 
L 265.613518 79.917733 
L 268.631655 79.917733 
L 268.631655 79.457986 
L 270.996943 79.457986 
L 270.996943 78.538491 
L 273.941773 78.538491 
L 273.941773 78.078744 
L 276.735476 78.078744 
L 276.735476 77.618996 
L 283.528024 77.618996 
L 283.528024 76.239754 
L 288.436138 76.239754 
L 288.436138 74.860512 
L 294.037687 74.860512 
L 294.139855 68.883797 
L 294.182977 68.883797 
L 294.284329 66.58506 
L 294.338623 66.58506 
L 294.338623 66.125312 
L 294.459269 66.125312 
L 294.459269 65.665565 
L 294.78684 65.665565 
L 294.78684 65.205818 
L 294.985781 65.205818 
L 294.985781 64.286323 
L 295.154725 64.286323 
L 295.154725 63.826576 
L 295.556577 63.826576 
L 295.556577 62.907081 
L 298.022497 62.907081 
L 298.022497 62.447334 
L 298.998131 62.447334 
L 298.998131 61.987586 
L 305.937955 61.987586 
L 305.98053 60.148597 
L 312.898672 60.148597 
L 312.898672 59.688849 
L 333.569032 59.688849 
L 333.569032 59.688849 
" style="fill:none;stroke:#ff00ff;stroke-linecap:square;stroke-width:1.5;"/>
   </g>
   <g id="line2d_53">
    <defs>
     <path d="M -0 8.485281 
L 5.091169 0 
L 0 -8.485281 
L -5.091169 -0 
z
" id="m85b85a6c60" style="stroke:#ff00ff;stroke-linejoin:miter;stroke-width:1.5;"/>
    </defs>
    <g>
     <use style="fill:none;stroke:#ff00ff;stroke-linejoin:miter;stroke-width:1.5;" x="90.249023" xlink:href="#m85b85a6c60" y="263.816675"/>
     <use style="fill:none;stroke:#ff00ff;stroke-linejoin:miter;stroke-width:1.5;" x="160.359232" xlink:href="#m85b85a6c60" y="169.10872"/>
     <use style="fill:none;stroke:#ff00ff;stroke-linejoin:miter;stroke-width:1.5;" x="221.409882" xlink:href="#m85b85a6c60" y="103.824595"/>
     <use style="fill:none;stroke:#ff00ff;stroke-linejoin:miter;stroke-width:1.5;" x="270.996943" xlink:href="#m85b85a6c60" y="79.457986"/>
     <use style="fill:none;stroke:#ff00ff;stroke-linejoin:miter;stroke-width:1.5;" x="312.898672" xlink:href="#m85b85a6c60" y="59.688849"/>
     <use style="fill:none;stroke:#ff00ff;stroke-linejoin:miter;stroke-width:1.5;" x="333.569032" xlink:href="#m85b85a6c60" y="59.688849"/>
    </g>
   </g>
   <g id="line2d_54">
    <path style="fill:none;stroke:#ff00ff;stroke-linecap:square;stroke-width:1.5;"/>
    <g/>
   </g>
   <g id="line2d_55">
    <path clip-path="url(#pdd22bea73e)" d="M 294.036313 74.860512 
" style="fill:none;stroke:#ff00ff;stroke-linecap:square;stroke-width:1.5;"/>
    <defs>
     <path d="M -12 12 
L 12 -12 
M -12 -12 
L 12 12 
" id="m377cd34a7e" style="stroke:#ff00ff;stroke-width:3;"/>
    </defs>
    <g clip-path="url(#pdd22bea73e)">
     <use style="fill:#ff00ff;stroke:#ff00ff;stroke-width:3;" x="294.036313" xlink:href="#m377cd34a7e" y="74.860512"/>
    </g>
   </g>
   <g id="line2d_56">
    <defs>
     <path d="M 0 1.5 
C 0.397805 1.5 0.77937 1.341951 1.06066 1.06066 
C 1.341951 0.77937 1.5 0.397805 1.5 0 
C 1.5 -0.397805 1.341951 -0.77937 1.06066 -1.06066 
C 0.77937 -1.341951 0.397805 -1.5 0 -1.5 
C -0.397805 -1.5 -0.77937 -1.341951 -1.06066 -1.06066 
C -1.341951 -0.77937 -1.5 -0.397805 -1.5 0 
C -1.5 0.397805 -1.341951 0.77937 -1.06066 1.06066 
C -0.77937 1.341951 -0.397805 1.5 0 1.5 
z
" id="mb68014ae3b" style="stroke:#ffa500;"/>
    </defs>
    <g>
     <use style="fill:#ffa500;stroke:#ffa500;" x="247.814924" xlink:href="#mb68014ae3b" y="105.663585"/>
     <use style="fill:#ffa500;stroke:#ffa500;" x="247.814924" xlink:href="#mb68014ae3b" y="105.663585"/>
    </g>
   </g>
   <g id="line2d_57">
    <path d="M 44.939466 294.16 
L 44.939466 281.287074 
L 98.77227 281.287074 
L 98.77227 279.907832 
L 125.166524 279.907832 
L 125.166524 273.931116 
L 142.343855 273.931116 
L 142.343855 273.011622 
L 145.901406 273.011622 
L 145.901406 269.79339 
L 146.092172 269.79339 
L 146.092172 267.494653 
L 146.280843 267.494653 
L 146.280843 262.437433 
L 147.015451 262.437433 
L 147.015451 261.977685 
L 149.403273 261.977685 
L 149.403273 257.839959 
L 150.31713 257.839959 
L 150.31713 257.380212 
L 153.053539 257.380212 
L 153.053539 255.081475 
L 153.179549 255.081475 
L 153.179549 252.782738 
L 154.7387 252.782738 
L 154.7387 248.185265 
L 155.302587 248.185265 
L 155.413176 236.231833 
L 157.191753 236.231833 
L 157.191753 234.852591 
L 161.007955 234.852591 
L 161.067535 229.79537 
L 161.861723 229.79537 
L 161.861723 229.335623 
L 162.161951 229.335623 
L 162.161951 228.875876 
L 162.53 228.875876 
L 162.620793 222.439413 
L 162.675039 222.439413 
L 162.675039 220.600423 
L 163.085327 220.600423 
L 163.085327 218.761434 
L 164.375293 218.761434 
L 164.375293 217.841939 
L 164.699243 217.841939 
L 164.699243 217.382192 
L 165.468009 217.382192 
L 165.468009 216.922445 
L 165.757079 216.922445 
L 165.757079 216.462697 
L 167.327484 216.462697 
L 167.327484 213.704213 
L 167.708727 213.704213 
L 167.708727 210.945729 
L 168.549603 210.945729 
L 168.549603 207.26775 
L 169.642422 207.26775 
L 169.642422 205.428761 
L 169.833854 205.428761 
L 169.833854 203.589771 
L 170.349544 203.589771 
L 170.349544 203.130024 
L 172.987883 203.130024 
L 172.987883 202.210529 
L 173.155385 202.210529 
L 173.155385 198.53255 
L 173.456686 198.53255 
L 173.456686 193.015582 
L 174.584598 193.015582 
L 174.584598 192.555835 
L 174.879771 192.555835 
L 174.879771 187.498614 
L 175.625983 187.498614 
L 175.625983 187.038867 
L 176.389906 187.038867 
L 176.389906 184.74013 
L 176.623829 184.74013 
L 176.679819 182.441393 
L 182.2962 182.441393 
L 182.2962 177.843919 
L 182.829049 177.843919 
L 182.829049 176.464677 
L 182.984625 176.464677 
L 182.984625 175.085435 
L 183.138804 175.085435 
L 183.138804 174.625688 
L 184.754227 174.625688 
L 184.754227 174.165941 
L 184.873559 174.165941 
L 184.972373 172.786699 
L 185.11465 172.786699 
L 185.11465 171.867204 
L 185.3861 171.867204 
L 185.3861 171.407456 
L 185.747763 171.407456 
L 185.747763 170.947709 
L 185.87911 170.947709 
L 185.87911 170.487962 
L 185.990899 170.487962 
L 186.065022 169.10872 
L 187.312918 169.10872 
L 187.342983 168.189225 
L 187.449927 168.189225 
L 187.449927 167.729478 
L 187.56892 167.729478 
L 187.66605 164.970994 
L 187.687093 164.970994 
L 187.783559 164.051499 
L 188.584345 164.051499 
L 188.66797 163.132004 
L 189.138163 163.132004 
L 189.230676 161.293015 
L 189.429428 161.293015 
L 189.535502 159.454025 
L 189.700877 159.454025 
L 189.700877 158.994278 
L 190.699875 158.994278 
L 190.770312 157.615036 
L 191.398342 157.615036 
L 191.398342 156.235794 
L 191.994392 156.235794 
L 192.056462 155.316299 
L 192.108558 155.316299 
L 192.108558 154.856552 
L 195.86343 154.856552 
L 195.86343 154.396804 
L 196.380657 154.396804 
L 196.380657 153.937057 
L 196.532081 153.937057 
L 196.532081 153.017562 
L 197.260163 153.017562 
L 197.289038 152.098068 
L 197.461278 152.098068 
L 197.544386 151.178573 
L 197.676527 151.178573 
L 197.676527 150.718826 
L 197.909994 150.718826 
L 197.909994 150.259078 
L 198.170045 150.259078 
L 198.261163 149.339583 
L 198.324659 149.339583 
L 198.432966 147.960341 
L 198.486864 147.960341 
L 198.594156 146.121352 
L 198.620875 146.121352 
L 198.674187 144.74211 
L 198.857294 144.74211 
L 198.857294 144.282363 
L 199.135902 144.282363 
L 199.224196 141.983626 
L 199.482154 141.983626 
L 199.482154 141.523878 
L 199.796649 141.523878 
L 199.796649 141.064131 
L 199.978507 141.064131 
L 199.978507 140.604384 
L 201.842838 140.604384 
L 201.842838 140.144636 
L 202.580989 140.144636 
L 202.580989 139.684889 
L 202.911657 139.684889 
L 202.932438 138.765394 
L 203.130327 138.765394 
L 203.130327 138.305647 
L 203.596158 138.305647 
L 203.629427 137.386152 
L 203.755268 137.386152 
L 203.755268 136.926405 
L 204.283231 136.926405 
L 204.391673 134.627668 
L 204.404386 134.627668 
L 204.404386 134.167921 
L 204.731661 134.167921 
L 204.82957 132.788679 
L 207.609135 132.788679 
L 207.694595 131.869184 
L 208.047668 131.869184 
L 208.047668 131.409437 
L 208.559037 131.409437 
L 208.668433 129.570447 
L 208.703095 129.570447 
L 208.703095 129.1107 
L 209.036219 129.1107 
L 209.112463 128.191205 
L 212.093539 128.191205 
L 212.174553 127.27171 
L 212.287334 127.27171 
L 212.287334 126.811963 
L 212.430263 126.811963 
L 212.459104 125.892468 
L 214.335163 125.892468 
L 214.392081 124.972974 
L 215.006036 124.972974 
L 215.088081 122.674237 
L 215.337774 122.674237 
L 215.354572 121.294995 
L 215.604584 121.294995 
L 215.667346 119.915753 
L 217.138203 119.915753 
L 217.138203 119.456005 
L 217.536827 119.456005 
L 217.59292 117.617016 
L 217.757188 117.617016 
L 217.792185 116.697521 
L 219.692559 116.697521 
L 219.692559 116.237774 
L 220.055788 116.237774 
L 220.055788 115.778027 
L 221.353151 115.778027 
L 221.357886 114.858532 
L 221.598227 114.858532 
L 221.644847 113.47929 
L 221.739445 113.47929 
L 221.739445 113.019543 
L 222.046889 113.019543 
L 222.046889 112.559795 
L 222.958547 112.559795 
L 222.958547 112.100048 
L 223.357648 112.100048 
L 223.357648 111.6403 
L 225.212066 111.6403 
L 225.264935 110.720806 
L 226.485528 110.720806 
L 226.485528 110.261058 
L 226.642402 110.261058 
L 226.642402 109.801311 
L 229.0969 109.801311 
L 229.152611 108.422069 
L 231.202681 108.422069 
L 231.211017 107.502574 
L 232.907493 107.502574 
L 232.907493 107.042827 
L 234.184823 107.042827 
L 234.184823 106.58308 
L 246.634361 106.58308 
L 246.634361 106.123332 
L 247.814924 106.123332 
L 247.814924 105.663585 
L 333.569032 105.663585 
L 333.569032 105.663585 
" style="fill:none;stroke:#ffa500;stroke-linecap:square;stroke-width:1.5;"/>
   </g>
   <g id="line2d_58">
    <defs>
     <path d="M 0 -6 
L -1.347084 -1.854102 
L -5.706339 -1.854102 
L -2.179628 0.708204 
L -3.526712 4.854102 
L -0 2.291796 
L 3.526712 4.854102 
L 2.179628 0.708204 
L 5.706339 -1.854102 
L 1.347084 -1.854102 
z
" id="mb52df11ddd" style="stroke:#ffa500;stroke-linejoin:bevel;stroke-width:1.5;"/>
    </defs>
    <g>
     <use style="fill:none;stroke:#ffa500;stroke-linejoin:bevel;stroke-width:1.5;" x="153.179549" xlink:href="#mb52df11ddd" y="252.782738"/>
     <use style="fill:none;stroke:#ffa500;stroke-linejoin:bevel;stroke-width:1.5;" x="198.324659" xlink:href="#mb52df11ddd" y="148.879836"/>
     <use style="fill:none;stroke:#ffa500;stroke-linejoin:bevel;stroke-width:1.5;" x="247.814924" xlink:href="#mb52df11ddd" y="106.123332"/>
     <use style="fill:none;stroke:#ffa500;stroke-linejoin:bevel;stroke-width:1.5;" x="247.814924" xlink:href="#mb52df11ddd" y="105.663585"/>
     <use style="fill:none;stroke:#ffa500;stroke-linejoin:bevel;stroke-width:1.5;" x="247.814924" xlink:href="#mb52df11ddd" y="105.663585"/>
     <use style="fill:none;stroke:#ffa500;stroke-linejoin:bevel;stroke-width:1.5;" x="333.569032" xlink:href="#mb52df11ddd" y="105.663585"/>
    </g>
   </g>
   <g id="line2d_59">
    <path style="fill:none;stroke:#ffa500;stroke-linecap:square;stroke-width:1.5;"/>
    <g/>
   </g>
   <g id="line2d_60">
    <path clip-path="url(#pdd22bea73e)" d="M 182.979093 176.464677 
" style="fill:none;stroke:#ffa500;stroke-linecap:square;stroke-width:1.5;"/>
    <defs>
     <path d="M -12 12 
L 12 -12 
M -12 -12 
L 12 12 
" id="m17101270b3" style="stroke:#ffa500;stroke-width:3;"/>
    </defs>
    <g clip-path="url(#pdd22bea73e)">
     <use style="fill:#ffa500;stroke:#ffa500;stroke-width:3;" x="182.979093" xlink:href="#m17101270b3" y="176.464677"/>
    </g>
   </g>
   <g id="line2d_61">
    <defs>
     <path d="M 0 1.5 
C 0.397805 1.5 0.77937 1.341951 1.06066 1.06066 
C 1.341951 0.77937 1.5 0.397805 1.5 0 
C 1.5 -0.397805 1.341951 -0.77937 1.06066 -1.06066 
C 0.77937 -1.341951 0.397805 -1.5 0 -1.5 
C -0.397805 -1.5 -0.77937 -1.341951 -1.06066 -1.06066 
C -1.341951 -0.77937 -1.5 -0.397805 -1.5 0 
C -1.5 0.397805 -1.341951 0.77937 -1.06066 1.06066 
C -0.77937 1.341951 -0.397805 1.5 0 1.5 
z
" id="m001194226d" style="stroke:#6495ed;"/>
    </defs>
    <g>
     <use style="fill:#6495ed;stroke:#6495ed;" x="256.061663" xlink:href="#m001194226d" y="59.688849"/>
     <use style="fill:#6495ed;stroke:#6495ed;" x="256.061663" xlink:href="#m001194226d" y="59.688849"/>
    </g>
   </g>
   <g id="line2d_62">
    <path d="M 44.939466 294.16 
L 44.939466 274.850611 
L 75.7019 274.850611 
L 75.7019 274.390864 
L 86.10855 274.390864 
L 86.10855 273.011622 
L 87.602435 273.011622 
L 87.602435 267.494653 
L 88.976675 267.494653 
L 88.976675 265.195917 
L 91.433551 265.195917 
L 91.433551 261.517938 
L 92.541603 261.517938 
L 92.541603 259.219201 
L 94.563801 259.219201 
L 94.563801 258.299706 
L 95.492072 258.299706 
L 95.492072 257.839959 
L 96.372719 257.839959 
L 96.372719 253.702233 
L 98.009084 253.702233 
L 98.009084 250.024254 
L 98.77227 250.024254 
L 98.77227 249.104759 
L 99.502969 249.104759 
L 99.502969 246.806023 
L 100.203835 246.806023 
L 100.203835 238.53057 
L 101.525167 238.53057 
L 101.525167 238.070823 
L 102.752035 238.070823 
L 102.752035 236.691581 
L 103.334085 236.691581 
L 103.334085 234.392844 
L 106.934744 234.392844 
L 106.934744 232.553855 
L 107.392607 232.553855 
L 107.392607 231.63436 
L 109.110924 231.63436 
L 109.110924 227.496634 
L 114.652569 227.496634 
L 114.652569 227.036886 
L 116.60886 227.036886 
L 116.60886 225.657644 
L 116.870985 225.657644 
L 116.870985 224.278402 
L 119.293141 224.278402 
L 119.293141 223.818655 
L 119.517573 223.818655 
L 119.517573 222.89916 
L 121.011458 222.89916 
L 121.011458 220.140676 
L 121.415449 220.140676 
L 121.415449 215.083455 
L 122.942575 215.083455 
L 122.942575 214.623708 
L 125.484475 214.623708 
L 125.484475 213.704213 
L 126.700476 213.704213 
L 126.700476 212.784718 
L 126.99148 212.784718 
L 126.99148 210.945729 
L 127.135154 210.945729 
L 127.135154 210.026234 
L 131.858358 210.026234 
L 131.858358 209.10674 
L 132.393257 209.10674 
L 132.393257 206.808003 
L 136.329381 206.808003 
L 136.329381 203.130024 
L 136.661157 203.130024 
L 136.661157 202.670277 
L 137.067058 202.670277 
L 137.1471 198.992298 
L 138.453637 198.992298 
L 138.453637 193.015582 
L 139.598651 193.015582 
L 139.598651 191.176593 
L 140.672053 191.176593 
L 140.736964 189.337603 
L 141.184594 189.337603 
L 141.184594 187.958361 
L 141.743484 187.958361 
L 141.743484 184.74013 
L 142.402753 184.74013 
L 142.402753 184.280382 
L 142.809479 184.280382 
L 142.809479 182.441393 
L 144.081827 182.441393 
L 144.081827 181.981646 
L 144.658545 181.981646 
L 144.658545 180.602404 
L 144.965139 180.602404 
L 144.965139 177.843919 
L 145.216518 177.843919 
L 145.216518 176.00493 
L 145.708495 176.00493 
L 145.756926 174.625688 
L 145.949296 174.625688 
L 145.949296 174.165941 
L 146.374406 174.165941 
L 146.374406 173.706193 
L 146.560017 173.706193 
L 146.560017 173.246446 
L 146.69792 173.246446 
L 146.789244 170.028214 
L 147.459115 170.028214 
L 147.459115 169.568467 
L 147.633419 169.568467 
L 147.633419 165.890488 
L 148.103828 165.890488 
L 148.14596 163.132004 
L 150.242806 163.132004 
L 150.242806 162.212509 
L 151.149502 162.212509 
L 151.149502 161.752762 
L 151.841888 161.752762 
L 151.841888 160.37352 
L 152.605073 160.37352 
L 152.605073 158.074783 
L 152.990185 158.074783 
L 152.990185 156.695541 
L 153.916786 156.695541 
L 153.916786 155.776046 
L 156.115145 155.776046 
L 156.115145 155.316299 
L 157.117052 155.316299 
L 157.117052 153.017562 
L 157.560461 153.017562 
L 157.560461 152.098068 
L 157.945213 152.098068 
L 157.945213 150.259078 
L 158.321532 150.259078 
L 158.321532 147.960341 
L 159.770769 147.960341 
L 159.770769 147.040847 
L 160.067522 147.040847 
L 160.067522 146.581099 
L 160.928193 146.581099 
L 160.928193 145.661605 
L 161.974925 145.661605 
L 161.974925 145.201857 
L 165.907288 145.201857 
L 165.907288 141.064131 
L 166.277161 141.064131 
L 166.277161 140.604384 
L 171.216329 140.604384 
L 171.216329 139.684889 
L 173.504792 139.684889 
L 173.504792 138.765394 
L 174.853146 138.765394 
L 174.853146 137.8459 
L 177.634968 137.8459 
L 177.634968 137.386152 
L 187.754257 137.386152 
L 187.754257 136.466658 
L 188.904676 136.466658 
L 188.904676 135.087416 
L 193.044869 135.087416 
L 193.044869 134.627668 
L 195.73231 134.627668 
L 195.73231 133.248426 
L 200.468905 133.248426 
L 200.468905 132.788679 
L 204.546762 132.788679 
L 204.628489 129.1107 
L 204.658254 129.1107 
L 204.728544 127.27171 
L 204.821819 127.27171 
L 204.909964 123.593732 
L 205.026791 123.593732 
L 205.133696 120.3755 
L 205.176272 120.3755 
L 205.276214 119.456005 
L 205.341016 119.456005 
L 205.425045 116.697521 
L 205.520577 116.697521 
L 205.596325 115.778027 
L 205.652549 115.778027 
L 205.745358 114.858532 
L 205.806953 114.858532 
L 205.885823 113.47929 
L 205.965783 113.47929 
L 206.054032 112.559795 
L 206.09151 112.559795 
L 206.118845 110.720806 
L 206.264854 110.720806 
L 206.267705 108.881816 
L 206.563008 108.881816 
L 206.563008 108.422069 
L 207.348835 108.422069 
L 207.348835 107.962322 
L 209.285475 107.962322 
L 209.285475 107.502574 
L 211.640998 107.502574 
L 211.640998 107.042827 
L 216.455172 107.042827 
L 216.494494 106.123332 
L 216.604119 106.123332 
L 216.713825 101.985606 
L 216.740174 101.985606 
L 216.740174 101.525859 
L 216.868242 101.525859 
L 216.868242 101.066111 
L 217.005278 101.066111 
L 217.101846 99.686869 
L 217.122306 99.686869 
L 217.157864 98.767375 
L 217.299365 98.767375 
L 217.327076 96.928385 
L 217.458285 96.928385 
L 217.473873 96.00889 
L 217.601023 96.00889 
L 217.637075 95.089396 
L 218.983024 95.089396 
L 218.997288 94.169901 
L 219.576102 94.169901 
L 219.576102 93.710154 
L 220.358885 93.710154 
L 220.358885 93.250406 
L 222.138738 93.250406 
L 222.14213 92.330912 
L 223.435424 92.330912 
L 223.444859 91.411417 
L 223.555596 91.411417 
L 223.656826 89.11268 
L 223.674415 89.11268 
L 223.731199 87.733438 
L 223.859559 87.733438 
L 223.859559 87.273691 
L 223.986459 87.273691 
L 224.067003 86.354196 
L 224.210436 86.354196 
L 224.298418 84.515207 
L 227.386816 84.515207 
L 227.386816 84.055459 
L 228.428773 84.055459 
L 228.467146 81.756722 
L 228.541689 81.756722 
L 228.635674 80.37748 
L 228.732613 80.37748 
L 228.732613 79.917733 
L 228.851588 79.917733 
L 228.851971 78.998238 
L 229.022841 78.998238 
L 229.022841 78.538491 
L 229.184901 78.538491 
L 229.184901 78.078744 
L 230.395217 78.078744 
L 230.395217 77.618996 
L 232.286994 77.618996 
L 232.331086 75.780007 
L 232.423279 75.780007 
L 232.511272 73.941017 
L 232.860317 73.941017 
L 232.860317 73.48127 
L 234.666358 73.48127 
L 234.666358 73.021523 
L 235.347751 73.021523 
L 235.444932 71.642281 
L 235.588646 71.642281 
L 235.592779 70.722786 
L 238.181825 70.722786 
L 238.189598 69.343544 
L 240.306556 69.343544 
L 240.306556 68.883797 
L 240.463045 68.883797 
L 240.463045 68.424049 
L 244.208807 68.424049 
L 244.244576 67.044807 
L 245.857761 67.044807 
L 245.859892 66.125312 
L 247.236361 66.125312 
L 247.340516 65.205818 
L 247.758306 65.205818 
L 247.758306 64.74607 
L 248.730344 64.74607 
L 248.730344 64.286323 
L 249.881395 64.286323 
L 249.991831 62.907081 
L 250.229104 62.907081 
L 250.229104 62.447334 
L 252.260195 62.447334 
L 252.260195 61.987586 
L 255.169621 61.987586 
L 255.189098 60.148597 
L 256.061663 60.148597 
L 256.061663 59.688849 
L 333.569032 59.688849 
L 333.569032 59.688849 
" style="fill:none;stroke:#6495ed;stroke-linecap:square;stroke-width:1.5;"/>
   </g>
   <g id="line2d_63">
    <defs>
     <path d="M -0 6 
L 6 -6 
L -6 -6 
z
" id="mc153017a37" style="stroke:#6495ed;stroke-linejoin:miter;stroke-width:1.5;"/>
    </defs>
    <g>
     <use style="fill:none;stroke:#6495ed;stroke-linejoin:miter;stroke-width:1.5;" x="116.870985" xlink:href="#mc153017a37" y="225.657644"/>
     <use style="fill:none;stroke:#6495ed;stroke-linejoin:miter;stroke-width:1.5;" x="174.853146" xlink:href="#mc153017a37" y="137.8459"/>
     <use style="fill:none;stroke:#6495ed;stroke-linejoin:miter;stroke-width:1.5;" x="250.229104" xlink:href="#mc153017a37" y="62.447334"/>
     <use style="fill:none;stroke:#6495ed;stroke-linejoin:miter;stroke-width:1.5;" x="256.061663" xlink:href="#mc153017a37" y="59.688849"/>
     <use style="fill:none;stroke:#6495ed;stroke-linejoin:miter;stroke-width:1.5;" x="256.061663" xlink:href="#mc153017a37" y="59.688849"/>
     <use style="fill:none;stroke:#6495ed;stroke-linejoin:miter;stroke-width:1.5;" x="333.569032" xlink:href="#mc153017a37" y="59.688849"/>
    </g>
   </g>
   <g id="line2d_64">
    <path style="fill:none;stroke:#6495ed;stroke-linecap:square;stroke-width:1.5;"/>
    <g/>
   </g>
   <g id="line2d_65">
    <path clip-path="url(#pdd22bea73e)" d="M 204.526269 132.788679 
" style="fill:none;stroke:#6495ed;stroke-linecap:square;stroke-width:1.5;"/>
    <defs>
     <path d="M -12 12 
L 12 -12 
M -12 -12 
L 12 12 
" id="m75a368f72a" style="stroke:#6495ed;stroke-width:3;"/>
    </defs>
    <g clip-path="url(#pdd22bea73e)">
     <use style="fill:#6495ed;stroke:#6495ed;stroke-width:3;" x="204.526269" xlink:href="#m75a368f72a" y="132.788679"/>
    </g>
   </g>
   <g id="line2d_66">
    <path d="M 333.569032 105.663585 
L 364.009226 288.826931 
" style="fill:none;stroke:#ffa500;stroke-linecap:square;stroke-width:1.5;"/>
    <g>
     <use style="fill:none;stroke:#ffa500;stroke-linejoin:bevel;stroke-width:1.5;" x="333.569032" xlink:href="#mb52df11ddd" y="105.663585"/>
     <use style="fill:none;stroke:#ffa500;stroke-linejoin:bevel;stroke-width:1.5;" x="364.009226" xlink:href="#mb52df11ddd" y="288.826931"/>
    </g>
   </g>
   <g id="line2d_67">
    <path d="M 333.569032 59.688849 
L 364.009226 224.830099 
" style="fill:none;stroke:#ff00ff;stroke-linecap:square;stroke-width:1.5;"/>
    <g>
     <use style="fill:none;stroke:#ff00ff;stroke-linejoin:miter;stroke-width:1.5;" x="333.569032" xlink:href="#m85b85a6c60" y="59.688849"/>
     <use style="fill:none;stroke:#ff00ff;stroke-linejoin:miter;stroke-width:1.5;" x="364.009226" xlink:href="#m85b85a6c60" y="224.830099"/>
    </g>
   </g>
   <g id="line2d_68">
    <path d="M 333.569032 59.688849 
L 364.009226 160.833267 
" style="fill:none;stroke:#000080;stroke-linecap:square;stroke-width:1.5;"/>
    <g>
     <use style="fill:none;stroke:#000080;stroke-width:1.5;" x="333.569032" xlink:href="#m103bf18b23" y="59.688849"/>
     <use style="fill:none;stroke:#000080;stroke-width:1.5;" x="364.009226" xlink:href="#m103bf18b23" y="160.833267"/>
    </g>
   </g>
   <g id="line2d_69">
    <path d="M 333.569032 59.688849 
L 364.009226 96.836436 
" style="fill:none;stroke:#6495ed;stroke-linecap:square;stroke-width:1.5;"/>
    <g>
     <use style="fill:none;stroke:#6495ed;stroke-linejoin:miter;stroke-width:1.5;" x="333.569032" xlink:href="#mc153017a37" y="59.688849"/>
     <use style="fill:none;stroke:#6495ed;stroke-linejoin:miter;stroke-width:1.5;" x="364.009226" xlink:href="#mc153017a37" y="96.836436"/>
    </g>
   </g>
   <g id="line2d_70">
    <path d="M 333.569032 294.16 
L 333.569032 27.506535 
" style="fill:none;stroke:#000000;stroke-linecap:square;stroke-width:1.5;"/>
   </g>
   <g id="patch_3">
    <path d="M 56.84 294.16 
L 56.84 24.84 
" style="fill:none;stroke:#000000;stroke-linecap:square;stroke-linejoin:miter;stroke-width:0.8;"/>
   </g>
   <g id="patch_4">
    <path d="M 399.984 294.16 
L 399.984 24.84 
" style="fill:none;stroke:#000000;stroke-linecap:square;stroke-linejoin:miter;stroke-width:0.8;"/>
   </g>
   <g id="patch_5">
    <path d="M 56.84 294.16 
L 399.984 294.16 
" style="fill:none;stroke:#000000;stroke-linecap:square;stroke-linejoin:miter;stroke-width:0.8;"/>
   </g>
   <g id="patch_6">
    <path d="M 56.84 24.84 
L 399.984 24.84 
" style="fill:none;stroke:#000000;stroke-linecap:square;stroke-linejoin:miter;stroke-width:0.8;"/>
   </g>
   <g id="text_14">
    <!-- adaptiveH -->
    <defs>
     <path d="M 9.8125 72.90625 
L 19.671875 72.90625 
L 19.671875 43.015625 
L 55.515625 43.015625 
L 55.515625 72.90625 
L 65.375 72.90625 
L 65.375 0 
L 55.515625 0 
L 55.515625 34.71875 
L 19.671875 34.71875 
L 19.671875 0 
L 9.8125 0 
z
" id="DejaVuSans-48"/>
    </defs>
    <g transform="translate(369.543806 293.517868)scale(0.17 -0.17)">
     <use xlink:href="#DejaVuSans-61"/>
     <use x="61.279297" xlink:href="#DejaVuSans-64"/>
     <use x="124.755859" xlink:href="#DejaVuSans-61"/>
     <use x="186.035156" xlink:href="#DejaVuSans-70"/>
     <use x="249.511719" xlink:href="#DejaVuSans-74"/>
     <use x="288.720703" xlink:href="#DejaVuSans-69"/>
     <use x="316.503906" xlink:href="#DejaVuSans-76"/>
     <use x="375.683594" xlink:href="#DejaVuSans-65"/>
     <use x="437.207031" xlink:href="#DejaVuSans-48"/>
    </g>
   </g>
   <g id="text_15">
    <!-- RANDOMSEA -->
    <defs>
     <path d="M 44.390625 34.1875 
Q 47.5625 33.109375 50.5625 29.59375 
Q 53.5625 26.078125 56.59375 19.921875 
L 66.609375 0 
L 56 0 
L 46.6875 18.703125 
Q 43.0625 26.03125 39.671875 28.421875 
Q 36.28125 30.8125 30.421875 30.8125 
L 19.671875 30.8125 
L 19.671875 0 
L 9.8125 0 
L 9.8125 72.90625 
L 32.078125 72.90625 
Q 44.578125 72.90625 50.734375 67.671875 
Q 56.890625 62.453125 56.890625 51.90625 
Q 56.890625 45.015625 53.6875 40.46875 
Q 50.484375 35.9375 44.390625 34.1875 
M 19.671875 64.796875 
L 19.671875 38.921875 
L 32.078125 38.921875 
Q 39.203125 38.921875 42.84375 42.21875 
Q 46.484375 45.515625 46.484375 51.90625 
Q 46.484375 58.296875 42.84375 61.546875 
Q 39.203125 64.796875 32.078125 64.796875 
z
" id="DejaVuSans-52"/>
     <path d="M 34.1875 63.1875 
L 20.796875 26.90625 
L 47.609375 26.90625 
z
M 28.609375 72.90625 
L 39.796875 72.90625 
L 67.578125 0 
L 57.328125 0 
L 50.6875 18.703125 
L 17.828125 18.703125 
L 11.1875 0 
L 0.78125 0 
z
" id="DejaVuSans-41"/>
     <path d="M 9.8125 72.90625 
L 23.09375 72.90625 
L 55.421875 11.921875 
L 55.421875 72.90625 
L 64.984375 72.90625 
L 64.984375 0 
L 51.703125 0 
L 19.390625 60.984375 
L 19.390625 0 
L 9.8125 0 
z
" id="DejaVuSans-4e"/>
     <path d="M 19.671875 64.796875 
L 19.671875 8.109375 
L 31.59375 8.109375 
Q 46.6875 8.109375 53.6875 14.9375 
Q 60.6875 21.78125 60.6875 36.53125 
Q 60.6875 51.171875 53.6875 57.984375 
Q 46.6875 64.796875 31.59375 64.796875 
z
M 9.8125 72.90625 
L 30.078125 72.90625 
Q 51.265625 72.90625 61.171875 64.09375 
Q 71.09375 55.28125 71.09375 36.53125 
Q 71.09375 17.671875 61.125 8.828125 
Q 51.171875 0 30.078125 0 
L 9.8125 0 
z
" id="DejaVuSans-44"/>
     <path d="M 39.40625 66.21875 
Q 28.65625 66.21875 22.328125 58.203125 
Q 16.015625 50.203125 16.015625 36.375 
Q 16.015625 22.609375 22.328125 14.59375 
Q 28.65625 6.59375 39.40625 6.59375 
Q 50.140625 6.59375 56.421875 14.59375 
Q 62.703125 22.609375 62.703125 36.375 
Q 62.703125 50.203125 56.421875 58.203125 
Q 50.140625 66.21875 39.40625 66.21875 
M 39.40625 74.21875 
Q 54.734375 74.21875 63.90625 63.9375 
Q 73.09375 53.65625 73.09375 36.375 
Q 73.09375 19.140625 63.90625 8.859375 
Q 54.734375 -1.421875 39.40625 -1.421875 
Q 24.03125 -1.421875 14.8125 8.828125 
Q 5.609375 19.09375 5.609375 36.375 
Q 5.609375 53.65625 14.8125 63.9375 
Q 24.03125 74.21875 39.40625 74.21875 
" id="DejaVuSans-4f"/>
     <path d="M 9.8125 72.90625 
L 24.515625 72.90625 
L 43.109375 23.296875 
L 61.8125 72.90625 
L 76.515625 72.90625 
L 76.515625 0 
L 66.890625 0 
L 66.890625 64.015625 
L 48.09375 14.015625 
L 38.1875 14.015625 
L 19.390625 64.015625 
L 19.390625 0 
L 9.8125 0 
z
" id="DejaVuSans-4d"/>
     <path d="M 53.515625 70.515625 
L 53.515625 60.890625 
Q 47.90625 63.578125 42.921875 64.890625 
Q 37.9375 66.21875 33.296875 66.21875 
Q 25.25 66.21875 20.875 63.09375 
Q 16.5 59.96875 16.5 54.203125 
Q 16.5 49.359375 19.40625 46.890625 
Q 22.3125 44.4375 30.421875 42.921875 
L 36.375 41.703125 
Q 47.40625 39.59375 52.65625 34.296875 
Q 57.90625 29 57.90625 20.125 
Q 57.90625 9.515625 50.796875 4.046875 
Q 43.703125 -1.421875 29.984375 -1.421875 
Q 24.8125 -1.421875 18.96875 -0.25 
Q 13.140625 0.921875 6.890625 3.21875 
L 6.890625 13.375 
Q 12.890625 10.015625 18.65625 8.296875 
Q 24.421875 6.59375 29.984375 6.59375 
Q 38.421875 6.59375 43.015625 9.90625 
Q 47.609375 13.234375 47.609375 19.390625 
Q 47.609375 24.75 44.3125 27.78125 
Q 41.015625 30.8125 33.5 32.328125 
L 27.484375 33.5 
Q 16.453125 35.6875 11.515625 40.375 
Q 6.59375 45.0625 6.59375 53.421875 
Q 6.59375 63.09375 13.40625 68.65625 
Q 20.21875 74.21875 32.171875 74.21875 
Q 37.3125 74.21875 42.625 73.28125 
Q 47.953125 72.359375 53.515625 70.515625 
" id="DejaVuSans-53"/>
     <path d="M 9.8125 72.90625 
L 55.90625 72.90625 
L 55.90625 64.59375 
L 19.671875 64.59375 
L 19.671875 43.015625 
L 54.390625 43.015625 
L 54.390625 34.71875 
L 19.671875 34.71875 
L 19.671875 8.296875 
L 56.78125 8.296875 
L 56.78125 0 
L 9.8125 0 
z
" id="DejaVuSans-45"/>
    </defs>
    <g transform="translate(369.543806 229.521037)scale(0.17 -0.17)">
     <use xlink:href="#DejaVuSans-52"/>
     <use x="69.419922" xlink:href="#DejaVuSans-41"/>
     <use x="137.828125" xlink:href="#DejaVuSans-4e"/>
     <use x="212.632812" xlink:href="#DejaVuSans-44"/>
     <use x="289.634766" xlink:href="#DejaVuSans-4f"/>
     <use x="368.345703" xlink:href="#DejaVuSans-4d"/>
     <use x="454.625" xlink:href="#DejaVuSans-53"/>
     <use x="518.101562" xlink:href="#DejaVuSans-45"/>
     <use x="581.285156" xlink:href="#DejaVuSans-41"/>
    </g>
   </g>
   <g id="text_16">
    <!-- NSGA-II-M -->
    <defs>
     <path d="M 59.515625 10.40625 
L 59.515625 29.984375 
L 43.40625 29.984375 
L 43.40625 38.09375 
L 69.28125 38.09375 
L 69.28125 6.78125 
Q 63.578125 2.734375 56.6875 0.65625 
Q 49.8125 -1.421875 42 -1.421875 
Q 24.90625 -1.421875 15.25 8.5625 
Q 5.609375 18.5625 5.609375 36.375 
Q 5.609375 54.25 15.25 64.234375 
Q 24.90625 74.21875 42 74.21875 
Q 49.125 74.21875 55.546875 72.453125 
Q 61.96875 70.703125 67.390625 67.28125 
L 67.390625 56.78125 
Q 61.921875 61.421875 55.765625 63.765625 
Q 49.609375 66.109375 42.828125 66.109375 
Q 29.4375 66.109375 22.71875 58.640625 
Q 16.015625 51.171875 16.015625 36.375 
Q 16.015625 21.625 22.71875 14.15625 
Q 29.4375 6.6875 42.828125 6.6875 
Q 48.046875 6.6875 52.140625 7.59375 
Q 56.25 8.5 59.515625 10.40625 
" id="DejaVuSans-47"/>
     <path d="M 9.8125 72.90625 
L 19.671875 72.90625 
L 19.671875 0 
L 9.8125 0 
z
" id="DejaVuSans-49"/>
    </defs>
    <g transform="translate(369.543806 165.524205)scale(0.17 -0.17)">
     <use xlink:href="#DejaVuSans-4e"/>
     <use x="74.804688" xlink:href="#DejaVuSans-53"/>
     <use x="138.28125" xlink:href="#DejaVuSans-47"/>
     <use x="215.771484" xlink:href="#DejaVuSans-41"/>
     <use x="284.148438" xlink:href="#DejaVuSans-2d"/>
     <use x="320.232422" xlink:href="#DejaVuSans-49"/>
     <use x="349.724609" xlink:href="#DejaVuSans-49"/>
     <use x="379.216797" xlink:href="#DejaVuSans-2d"/>
     <use x="415.300781" xlink:href="#DejaVuSans-4d"/>
    </g>
   </g>
   <g id="text_17">
    <!-- final  bu -->
    <defs>
     <path d="M 48.6875 27.296875 
Q 48.6875 37.203125 44.609375 42.84375 
Q 40.53125 48.484375 33.40625 48.484375 
Q 26.265625 48.484375 22.1875 42.84375 
Q 18.109375 37.203125 18.109375 27.296875 
Q 18.109375 17.390625 22.1875 11.75 
Q 26.265625 6.109375 33.40625 6.109375 
Q 40.53125 6.109375 44.609375 11.75 
Q 48.6875 17.390625 48.6875 27.296875 
M 18.109375 46.390625 
Q 20.953125 51.265625 25.265625 53.625 
Q 29.59375 56 35.59375 56 
Q 45.5625 56 51.78125 48.09375 
Q 58.015625 40.1875 58.015625 27.296875 
Q 58.015625 14.40625 51.78125 6.484375 
Q 45.5625 -1.421875 35.59375 -1.421875 
Q 29.59375 -1.421875 25.265625 0.953125 
Q 20.953125 3.328125 18.109375 8.203125 
L 18.109375 0 
L 9.078125 0 
L 9.078125 75.984375 
L 18.109375 75.984375 
z
" id="DejaVuSans-62"/>
    </defs>
    <g transform="translate(369.543806 101.527373)scale(0.17 -0.17)">
     <use xlink:href="#DejaVuSans-66"/>
     <use x="35.205078" xlink:href="#DejaVuSans-69"/>
     <use x="62.988281" xlink:href="#DejaVuSans-6e"/>
     <use x="126.367188" xlink:href="#DejaVuSans-61"/>
     <use x="187.646484" xlink:href="#DejaVuSans-6c"/>
     <use x="215.429688" xlink:href="#DejaVuSans-20"/>
     <use x="247.216797" xlink:href="#DejaVuSans-20"/>
     <use x="279.003906" xlink:href="#DejaVuSans-62"/>
     <use x="342.480469" xlink:href="#DejaVuSans-75"/>
    </g>
   </g>
   <g id="text_18">
    <!-- best 2016 -->
    <g transform="translate(369.543806 37.530541)scale(0.17 -0.17)">
     <use xlink:href="#DejaVuSans-62"/>
     <use x="63.476562" xlink:href="#DejaVuSans-65"/>
     <use x="125" xlink:href="#DejaVuSans-73"/>
     <use x="177.099609" xlink:href="#DejaVuSans-74"/>
     <use x="216.308594" xlink:href="#DejaVuSans-20"/>
     <use x="248.095703" xlink:href="#DejaVuSans-32"/>
     <use x="311.71875" xlink:href="#DejaVuSans-30"/>
     <use x="375.341797" xlink:href="#DejaVuSans-31"/>
     <use x="438.964844" xlink:href="#DejaVuSans-36"/>
    </g>
   </g>
   <g id="text_19">
    <!-- bbob-biobj f13, 2-D -->
    <defs>
     <path d="M 9.421875 54.6875 
L 18.40625 54.6875 
L 18.40625 -0.984375 
Q 18.40625 -11.421875 14.421875 -16.109375 
Q 10.453125 -20.796875 1.609375 -20.796875 
L -1.8125 -20.796875 
L -1.8125 -13.1875 
L 0.59375 -13.1875 
Q 5.71875 -13.1875 7.5625 -10.8125 
Q 9.421875 -8.453125 9.421875 -0.984375 
z
M 9.421875 75.984375 
L 18.40625 75.984375 
L 18.40625 64.59375 
L 9.421875 64.59375 
z
" id="DejaVuSans-6a"/>
     <path d="M 40.578125 39.3125 
Q 47.65625 37.796875 51.625 33 
Q 55.609375 28.21875 55.609375 21.1875 
Q 55.609375 10.40625 48.1875 4.484375 
Q 40.765625 -1.421875 27.09375 -1.421875 
Q 22.515625 -1.421875 17.65625 -0.515625 
Q 12.796875 0.390625 7.625 2.203125 
L 7.625 11.71875 
Q 11.71875 9.328125 16.59375 8.109375 
Q 21.484375 6.890625 26.8125 6.890625 
Q 36.078125 6.890625 40.9375 10.546875 
Q 45.796875 14.203125 45.796875 21.1875 
Q 45.796875 27.640625 41.28125 31.265625 
Q 36.765625 34.90625 28.71875 34.90625 
L 20.21875 34.90625 
L 20.21875 43.015625 
L 29.109375 43.015625 
Q 36.375 43.015625 40.234375 45.921875 
Q 44.09375 48.828125 44.09375 54.296875 
Q 44.09375 59.90625 40.109375 62.90625 
Q 36.140625 65.921875 28.71875 65.921875 
Q 24.65625 65.921875 20.015625 65.03125 
Q 15.375 64.15625 9.8125 62.3125 
L 9.8125 71.09375 
Q 15.4375 72.65625 20.34375 73.4375 
Q 25.25 74.21875 29.59375 74.21875 
Q 40.828125 74.21875 47.359375 69.109375 
Q 53.90625 64.015625 53.90625 55.328125 
Q 53.90625 49.265625 50.4375 45.09375 
Q 46.96875 40.921875 40.578125 39.3125 
" id="DejaVuSans-33"/>
    </defs>
    <g transform="translate(60.27144 35.283606)scale(0.102 -0.102)">
     <use xlink:href="#DejaVuSans-62"/>
     <use x="63.476562" xlink:href="#DejaVuSans-62"/>
     <use x="126.953125" xlink:href="#DejaVuSans-6f"/>
     <use x="188.134766" xlink:href="#DejaVuSans-62"/>
     <use x="251.611328" xlink:href="#DejaVuSans-2d"/>
     <use x="287.695312" xlink:href="#DejaVuSans-62"/>
     <use x="351.171875" xlink:href="#DejaVuSans-69"/>
     <use x="378.955078" xlink:href="#DejaVuSans-6f"/>
     <use x="440.136719" xlink:href="#DejaVuSans-62"/>
     <use x="503.613281" xlink:href="#DejaVuSans-6a"/>
     <use x="531.396484" xlink:href="#DejaVuSans-20"/>
     <use x="563.183594" xlink:href="#DejaVuSans-66"/>
     <use x="598.388672" xlink:href="#DejaVuSans-31"/>
     <use x="662.011719" xlink:href="#DejaVuSans-33"/>
     <use x="725.634766" xlink:href="#DejaVuSans-2c"/>
     <use x="757.421875" xlink:href="#DejaVuSans-20"/>
     <use x="789.208984" xlink:href="#DejaVuSans-32"/>
     <use x="852.832031" xlink:href="#DejaVuSans-2d"/>
     <use x="888.916016" xlink:href="#DejaVuSans-44"/>
    </g>
    <!-- 58 targets: 1..-1.0e-4 -->
    <defs>
     <path d="M 10.796875 72.90625 
L 49.515625 72.90625 
L 49.515625 64.59375 
L 19.828125 64.59375 
L 19.828125 46.734375 
Q 21.96875 47.46875 24.109375 47.828125 
Q 26.265625 48.1875 28.421875 48.1875 
Q 40.625 48.1875 47.75 41.5 
Q 54.890625 34.8125 54.890625 23.390625 
Q 54.890625 11.625 47.5625 5.09375 
Q 40.234375 -1.421875 26.90625 -1.421875 
Q 22.3125 -1.421875 17.546875 -0.640625 
Q 12.796875 0.140625 7.71875 1.703125 
L 7.71875 11.625 
Q 12.109375 9.234375 16.796875 8.0625 
Q 21.484375 6.890625 26.703125 6.890625 
Q 35.15625 6.890625 40.078125 11.328125 
Q 45.015625 15.765625 45.015625 23.390625 
Q 45.015625 31 40.078125 35.4375 
Q 35.15625 39.890625 26.703125 39.890625 
Q 22.75 39.890625 18.8125 39.015625 
Q 14.890625 38.140625 10.796875 36.28125 
z
" id="DejaVuSans-35"/>
     <path d="M 11.71875 12.40625 
L 22.015625 12.40625 
L 22.015625 0 
L 11.71875 0 
z
M 11.71875 51.703125 
L 22.015625 51.703125 
L 22.015625 39.3125 
L 11.71875 39.3125 
z
" id="DejaVuSans-3a"/>
    </defs>
    <g transform="translate(60.27144 46.705375)scale(0.102 -0.102)">
     <use xlink:href="#DejaVuSans-35"/>
     <use x="63.623047" xlink:href="#DejaVuSans-38"/>
     <use x="127.246094" xlink:href="#DejaVuSans-20"/>
     <use x="159.033203" xlink:href="#DejaVuSans-74"/>
     <use x="198.242188" xlink:href="#DejaVuSans-61"/>
     <use x="259.521484" xlink:href="#DejaVuSans-72"/>
     <use x="300.619141" xlink:href="#DejaVuSans-67"/>
     <use x="364.095703" xlink:href="#DejaVuSans-65"/>
     <use x="425.619141" xlink:href="#DejaVuSans-74"/>
     <use x="464.828125" xlink:href="#DejaVuSans-73"/>
     <use x="516.927734" xlink:href="#DejaVuSans-3a"/>
     <use x="550.619141" xlink:href="#DejaVuSans-20"/>
     <use x="582.40625" xlink:href="#DejaVuSans-31"/>
     <use x="646.029297" xlink:href="#DejaVuSans-2e"/>
     <use x="677.816406" xlink:href="#DejaVuSans-2e"/>
     <use x="709.603516" xlink:href="#DejaVuSans-2d"/>
     <use x="745.6875" xlink:href="#DejaVuSans-31"/>
     <use x="809.310547" xlink:href="#DejaVuSans-2e"/>
     <use x="841.097656" xlink:href="#DejaVuSans-30"/>
     <use x="904.720703" xlink:href="#DejaVuSans-65"/>
     <use x="966.244141" xlink:href="#DejaVuSans-2d"/>
     <use x="1002.328125" xlink:href="#DejaVuSans-34"/>
    </g>
    <!-- 10 instances -->
    <g transform="translate(60.27144 58.127144)scale(0.102 -0.102)">
     <use xlink:href="#DejaVuSans-31"/>
     <use x="63.623047" xlink:href="#DejaVuSans-30"/>
     <use x="127.246094" xlink:href="#DejaVuSans-20"/>
     <use x="159.033203" xlink:href="#DejaVuSans-69"/>
     <use x="186.816406" xlink:href="#DejaVuSans-6e"/>
     <use x="250.195312" xlink:href="#DejaVuSans-73"/>
     <use x="302.294922" xlink:href="#DejaVuSans-74"/>
     <use x="341.503906" xlink:href="#DejaVuSans-61"/>
     <use x="402.783203" xlink:href="#DejaVuSans-6e"/>
     <use x="466.162109" xlink:href="#DejaVuSans-63"/>
     <use x="521.142578" xlink:href="#DejaVuSans-65"/>
     <use x="582.666016" xlink:href="#DejaVuSans-73"/>
    </g>
   </g>
   <g id="text_20">
    <!-- v2.2.1.10, hv-hash=ff0e71e8cd978373 -->
    <defs>
     <path d="M 54.890625 33.015625 
L 54.890625 0 
L 45.90625 0 
L 45.90625 32.71875 
Q 45.90625 40.484375 42.875 44.328125 
Q 39.84375 48.1875 33.796875 48.1875 
Q 26.515625 48.1875 22.3125 43.546875 
Q 18.109375 38.921875 18.109375 30.90625 
L 18.109375 0 
L 9.078125 0 
L 9.078125 75.984375 
L 18.109375 75.984375 
L 18.109375 46.1875 
Q 21.34375 51.125 25.703125 53.5625 
Q 30.078125 56 35.796875 56 
Q 45.21875 56 50.046875 50.171875 
Q 54.890625 44.34375 54.890625 33.015625 
" id="DejaVuSans-68"/>
     <path d="M 10.59375 45.40625 
L 73.1875 45.40625 
L 73.1875 37.203125 
L 10.59375 37.203125 
z
M 10.59375 25.484375 
L 73.1875 25.484375 
L 73.1875 17.1875 
L 10.59375 17.1875 
z
" id="DejaVuSans-3d"/>
     <path d="M 8.203125 72.90625 
L 55.078125 72.90625 
L 55.078125 68.703125 
L 28.609375 0 
L 18.3125 0 
L 43.21875 64.59375 
L 8.203125 64.59375 
z
" id="DejaVuSans-37"/>
     <path d="M 10.984375 1.515625 
L 10.984375 10.5 
Q 14.703125 8.734375 18.5 7.8125 
Q 22.3125 6.890625 25.984375 6.890625 
Q 35.75 6.890625 40.890625 13.453125 
Q 46.046875 20.015625 46.78125 33.40625 
Q 43.953125 29.203125 39.59375 26.953125 
Q 35.25 24.703125 29.984375 24.703125 
Q 19.046875 24.703125 12.671875 31.3125 
Q 6.296875 37.9375 6.296875 49.421875 
Q 6.296875 60.640625 12.9375 67.421875 
Q 19.578125 74.21875 30.609375 74.21875 
Q 43.265625 74.21875 49.921875 64.515625 
Q 56.59375 54.828125 56.59375 36.375 
Q 56.59375 19.140625 48.40625 8.859375 
Q 40.234375 -1.421875 26.421875 -1.421875 
Q 22.703125 -1.421875 18.890625 -0.6875 
Q 15.09375 0.046875 10.984375 1.515625 
M 30.609375 32.421875 
Q 37.25 32.421875 41.125 36.953125 
Q 45.015625 41.5 45.015625 49.421875 
Q 45.015625 57.28125 41.125 61.84375 
Q 37.25 66.40625 30.609375 66.40625 
Q 23.96875 66.40625 20.09375 61.84375 
Q 16.21875 57.28125 16.21875 49.421875 
Q 16.21875 41.5 20.09375 36.953125 
Q 23.96875 32.421875 30.609375 32.421875 
" id="DejaVuSans-39"/>
    </defs>
    <g style="fill:#808080;" transform="translate(130.065125 289.387113)scale(0.1 -0.1)">
     <use xlink:href="#DejaVuSans-76"/>
     <use x="59.179688" xlink:href="#DejaVuSans-32"/>
     <use x="122.802734" xlink:href="#DejaVuSans-2e"/>
     <use x="154.589844" xlink:href="#DejaVuSans-32"/>
     <use x="218.212891" xlink:href="#DejaVuSans-2e"/>
     <use x="250" xlink:href="#DejaVuSans-31"/>
     <use x="313.623047" xlink:href="#DejaVuSans-2e"/>
     <use x="345.410156" xlink:href="#DejaVuSans-31"/>
     <use x="409.033203" xlink:href="#DejaVuSans-30"/>
     <use x="472.65625" xlink:href="#DejaVuSans-2c"/>
     <use x="504.443359" xlink:href="#DejaVuSans-20"/>
     <use x="536.230469" xlink:href="#DejaVuSans-68"/>
     <use x="599.609375" xlink:href="#DejaVuSans-76"/>
     <use x="658.757812" xlink:href="#DejaVuSans-2d"/>
     <use x="694.841797" xlink:href="#DejaVuSans-68"/>
     <use x="758.220703" xlink:href="#DejaVuSans-61"/>
     <use x="819.5" xlink:href="#DejaVuSans-73"/>
     <use x="871.599609" xlink:href="#DejaVuSans-68"/>
     <use x="934.978516" xlink:href="#DejaVuSans-3d"/>
     <use x="1018.767578" xlink:href="#DejaVuSans-66"/>
     <use x="1053.972656" xlink:href="#DejaVuSans-66"/>
     <use x="1089.177734" xlink:href="#DejaVuSans-30"/>
     <use x="1152.800781" xlink:href="#DejaVuSans-65"/>
     <use x="1214.324219" xlink:href="#DejaVuSans-37"/>
     <use x="1277.947266" xlink:href="#DejaVuSans-31"/>
     <use x="1341.570312" xlink:href="#DejaVuSans-65"/>
     <use x="1403.09375" xlink:href="#DejaVuSans-38"/>
     <use x="1466.716797" xlink:href="#DejaVuSans-63"/>
     <use x="1521.697266" xlink:href="#DejaVuSans-64"/>
     <use x="1585.173828" xlink:href="#DejaVuSans-39"/>
     <use x="1648.796875" xlink:href="#DejaVuSans-37"/>
     <use x="1712.419922" xlink:href="#DejaVuSans-38"/>
     <use x="1776.042969" xlink:href="#DejaVuSans-33"/>
     <use x="1839.666016" xlink:href="#DejaVuSans-37"/>
     <use x="1903.289062" xlink:href="#DejaVuSans-33"/>
    </g>
   </g>
   <g id="text_21">
    <!-- 13 sep. Ellipsoid/Rosenbrock -->
    <defs>
     <path d="M 9.078125 75.984375 
L 18.109375 75.984375 
L 18.109375 31.109375 
L 44.921875 54.6875 
L 56.390625 54.6875 
L 27.390625 29.109375 
L 57.625 0 
L 45.90625 0 
L 18.109375 26.703125 
L 18.109375 0 
L 9.078125 0 
z
" id="DejaVuSans-6b"/>
    </defs>
    <g transform="translate(84.991688 18.84)scale(0.2 -0.2)">
     <use xlink:href="#DejaVuSans-31"/>
     <use x="63.623047" xlink:href="#DejaVuSans-33"/>
     <use x="127.246094" xlink:href="#DejaVuSans-20"/>
     <use x="159.033203" xlink:href="#DejaVuSans-73"/>
     <use x="211.132812" xlink:href="#DejaVuSans-65"/>
     <use x="272.65625" xlink:href="#DejaVuSans-70"/>
     <use x="336.132812" xlink:href="#DejaVuSans-2e"/>
     <use x="367.919922" xlink:href="#DejaVuSans-20"/>
     <use x="399.707031" xlink:href="#DejaVuSans-45"/>
     <use x="462.890625" xlink:href="#DejaVuSans-6c"/>
     <use x="490.673828" xlink:href="#DejaVuSans-6c"/>
     <use x="518.457031" xlink:href="#DejaVuSans-69"/>
     <use x="546.240234" xlink:href="#DejaVuSans-70"/>
     <use x="609.716797" xlink:href="#DejaVuSans-73"/>
     <use x="661.816406" xlink:href="#DejaVuSans-6f"/>
     <use x="722.998047" xlink:href="#DejaVuSans-69"/>
     <use x="750.78125" xlink:href="#DejaVuSans-64"/>
     <use x="814.257812" xlink:href="#DejaVuSans-2f"/>
     <use x="847.949219" xlink:href="#DejaVuSans-52"/>
     <use x="917.369141" xlink:href="#DejaVuSans-6f"/>
     <use x="978.550781" xlink:href="#DejaVuSans-73"/>
     <use x="1030.650391" xlink:href="#DejaVuSans-65"/>
     <use x="1092.173828" xlink:href="#DejaVuSans-6e"/>
     <use x="1155.552734" xlink:href="#DejaVuSans-62"/>
     <use x="1219.029297" xlink:href="#DejaVuSans-72"/>
     <use x="1260.111328" xlink:href="#DejaVuSans-6f"/>
     <use x="1321.292969" xlink:href="#DejaVuSans-63"/>
     <use x="1376.273438" xlink:href="#DejaVuSans-6b"/>
    </g>
   </g>
  </g>
 </g>
 <defs>
  <clipPath id="pdd22bea73e">
   <rect height="269.32" width="343.144" x="56.84" y="24.84"/>
  </clipPath>
 </defs>
</svg>
