<?xml version="1.0" encoding="utf-8" standalone="no"?>
<!DOCTYPE svg PUBLIC "-//W3C//DTD SVG 1.1//EN"
  "http://www.w3.org/Graphics/SVG/1.1/DTD/svg11.dtd">
<!-- Created with matplotlib (http://matplotlib.org/) -->
<svg height="345pt" version="1.1" viewBox="0 0 460 345" width="460pt" xmlns="http://www.w3.org/2000/svg" xmlns:xlink="http://www.w3.org/1999/xlink">
 <defs>
  <style type="text/css">
*{stroke-linecap:butt;stroke-linejoin:round;}
  </style>
 </defs>
 <g id="figure_1">
  <g id="patch_1">
   <path d="M 0 345.6 
L 460.8 345.6 
L 460.8 0 
L 0 0 
z
" style="fill:#ffffff;"/>
  </g>
  <g id="axes_1">
   <g id="patch_2">
    <path d="M 56.84 294.16 
L 399.984 294.16 
L 399.984 24.84 
L 56.84 24.84 
z
" style="fill:#ffffff;"/>
   </g>
   <g id="line2d_1">
    <path d="M 41.10835 294.16 
L 41.10835 289.562526 
L 53.008884 289.562526 
L 53.008884 280.367579 
L 64.909418 280.367579 
L 64.909418 271.172632 
L 72.57165 271.172632 
L 72.57165 266.575159 
L 81.065012 266.575159 
L 81.065012 252.782738 
L 87.313876 252.782738 
L 87.313876 243.587791 
L 95.671853 243.587791 
L 95.671853 238.990318 
L 102.870034 238.990318 
L 102.870034 229.79537 
L 111.616783 229.79537 
L 111.616783 216.00295 
L 117.282234 216.00295 
L 117.282234 206.808003 
L 122.081143 206.808003 
L 122.081143 197.613056 
L 130.073571 197.613056 
L 130.073571 188.418109 
L 138.003773 188.418109 
L 138.003773 183.820635 
L 145.611221 183.820635 
L 145.611221 170.028214 
L 152.37637 170.028214 
L 152.37637 165.430741 
L 162.402079 165.430741 
L 162.402079 151.63832 
L 170.457734 151.63832 
L 170.457734 142.443373 
L 174.712234 142.443373 
L 174.712234 137.8459 
L 182.005884 137.8459 
L 182.005884 124.053479 
L 197.788988 124.053479 
L 197.788988 119.456005 
L 203.766812 119.456005 
L 203.766812 105.663585 
L 212.637828 105.663585 
L 212.637828 96.468638 
L 217.386841 96.468638 
L 217.386841 87.273691 
L 218.477265 87.273691 
L 218.477265 82.676217 
L 219.790606 82.676217 
L 219.790606 73.48127 
L 221.533684 73.48127 
L 221.533684 59.688849 
L 333.569032 59.688849 
" style="fill:none;stroke:#f5deb3;stroke-linecap:square;stroke-width:6;"/>
   </g>
   <g id="line2d_2">
    <defs>
     <path d="M -0 7.778175 
L 7.778175 0 
L 0 -7.778175 
L -7.778175 -0 
z
" id="m846aa2b527" style="stroke:#f5deb3;stroke-linejoin:miter;stroke-width:1.5;"/>
    </defs>
    <g>
     <use style="fill:#f5deb3;stroke:#f5deb3;stroke-linejoin:miter;stroke-width:1.5;" x="122.081143" xlink:href="#m846aa2b527" y="197.613056"/>
     <use style="fill:#f5deb3;stroke:#f5deb3;stroke-linejoin:miter;stroke-width:1.5;" x="170.457734" xlink:href="#m846aa2b527" y="142.443373"/>
     <use style="fill:#f5deb3;stroke:#f5deb3;stroke-linejoin:miter;stroke-width:1.5;" x="219.790606" xlink:href="#m846aa2b527" y="73.48127"/>
     <use style="fill:#f5deb3;stroke:#f5deb3;stroke-linejoin:miter;stroke-width:1.5;" x="221.533684" xlink:href="#m846aa2b527" y="59.688849"/>
     <use style="fill:#f5deb3;stroke:#f5deb3;stroke-linejoin:miter;stroke-width:1.5;" x="221.533684" xlink:href="#m846aa2b527" y="59.688849"/>
     <use style="fill:#f5deb3;stroke:#f5deb3;stroke-linejoin:miter;stroke-width:1.5;" x="333.569032" xlink:href="#m846aa2b527" y="59.688849"/>
    </g>
   </g>
   <g id="line2d_3">
    <path style="fill:none;stroke:#f5deb3;stroke-linecap:square;stroke-width:6;"/>
    <g/>
   </g>
   <g id="line2d_4">
    <path d="M 333.569032 59.688849 
L 364.009226 32.839604 
" style="fill:none;stroke:#f5deb3;stroke-linecap:square;stroke-width:6;"/>
    <g>
     <use style="fill:#f5deb3;stroke:#f5deb3;stroke-linejoin:miter;stroke-width:1.5;" x="333.569032" xlink:href="#m846aa2b527" y="59.688849"/>
     <use style="fill:#f5deb3;stroke:#f5deb3;stroke-linejoin:miter;stroke-width:1.5;" x="364.009226" xlink:href="#m846aa2b527" y="32.839604"/>
    </g>
   </g>
   <g id="matplotlib.axis_1">
    <g id="xtick_1">
     <g id="line2d_5">
      <path clip-path="url(#p72ba53359e)" d="M 56.84 294.16 
L 56.84 24.84 
" style="fill:none;stroke:#b0b0b0;stroke-linecap:square;stroke-width:0.8;"/>
     </g>
     <g id="line2d_6">
      <defs>
       <path d="M 0 0 
L 0 3.5 
" id="mfef146eb95" style="stroke:#000000;stroke-width:0.8;"/>
      </defs>
      <g>
       <use style="stroke:#000000;stroke-width:0.8;" x="56.84" xlink:href="#mfef146eb95" y="294.16"/>
      </g>
     </g>
     <g id="text_1">
      <!-- 0 -->
      <defs>
       <path d="M 31.78125 66.40625 
Q 24.171875 66.40625 20.328125 58.90625 
Q 16.5 51.421875 16.5 36.375 
Q 16.5 21.390625 20.328125 13.890625 
Q 24.171875 6.390625 31.78125 6.390625 
Q 39.453125 6.390625 43.28125 13.890625 
Q 47.125 21.390625 47.125 36.375 
Q 47.125 51.421875 43.28125 58.90625 
Q 39.453125 66.40625 31.78125 66.40625 
M 31.78125 74.21875 
Q 44.046875 74.21875 50.515625 64.515625 
Q 56.984375 54.828125 56.984375 36.375 
Q 56.984375 17.96875 50.515625 8.265625 
Q 44.046875 -1.421875 31.78125 -1.421875 
Q 19.53125 -1.421875 13.0625 8.265625 
Q 6.59375 17.96875 6.59375 36.375 
Q 6.59375 54.828125 13.0625 64.515625 
Q 19.53125 74.21875 31.78125 74.21875 
" id="DejaVuSans-30"/>
      </defs>
      <g transform="translate(50.4775 316.356875)scale(0.2 -0.2)">
       <use xlink:href="#DejaVuSans-30"/>
      </g>
     </g>
    </g>
    <g id="xtick_2">
     <g id="line2d_7">
      <path clip-path="url(#p72ba53359e)" d="M 135.905438 294.16 
L 135.905438 24.84 
" style="fill:none;stroke:#b0b0b0;stroke-linecap:square;stroke-width:0.8;"/>
     </g>
     <g id="line2d_8">
      <g>
       <use style="stroke:#000000;stroke-width:0.8;" x="135.905438" xlink:href="#mfef146eb95" y="294.16"/>
      </g>
     </g>
     <g id="text_2">
      <!-- 2 -->
      <defs>
       <path d="M 19.1875 8.296875 
L 53.609375 8.296875 
L 53.609375 0 
L 7.328125 0 
L 7.328125 8.296875 
Q 12.9375 14.109375 22.625 23.890625 
Q 32.328125 33.6875 34.8125 36.53125 
Q 39.546875 41.84375 41.421875 45.53125 
Q 43.3125 49.21875 43.3125 52.78125 
Q 43.3125 58.59375 39.234375 62.25 
Q 35.15625 65.921875 28.609375 65.921875 
Q 23.96875 65.921875 18.8125 64.3125 
Q 13.671875 62.703125 7.8125 59.421875 
L 7.8125 69.390625 
Q 13.765625 71.78125 18.9375 73 
Q 24.125 74.21875 28.421875 74.21875 
Q 39.75 74.21875 46.484375 68.546875 
Q 53.21875 62.890625 53.21875 53.421875 
Q 53.21875 48.921875 51.53125 44.890625 
Q 49.859375 40.875 45.40625 35.40625 
Q 44.1875 33.984375 37.640625 27.21875 
Q 31.109375 20.453125 19.1875 8.296875 
" id="DejaVuSans-32"/>
      </defs>
      <g transform="translate(129.542938 316.356875)scale(0.2 -0.2)">
       <use xlink:href="#DejaVuSans-32"/>
      </g>
     </g>
    </g>
    <g id="xtick_3">
     <g id="line2d_9">
      <path clip-path="url(#p72ba53359e)" d="M 214.970876 294.16 
L 214.970876 24.84 
" style="fill:none;stroke:#b0b0b0;stroke-linecap:square;stroke-width:0.8;"/>
     </g>
     <g id="line2d_10">
      <g>
       <use style="stroke:#000000;stroke-width:0.8;" x="214.970876" xlink:href="#mfef146eb95" y="294.16"/>
      </g>
     </g>
     <g id="text_3">
      <!-- 4 -->
      <defs>
       <path d="M 37.796875 64.3125 
L 12.890625 25.390625 
L 37.796875 25.390625 
z
M 35.203125 72.90625 
L 47.609375 72.90625 
L 47.609375 25.390625 
L 58.015625 25.390625 
L 58.015625 17.1875 
L 47.609375 17.1875 
L 47.609375 0 
L 37.796875 0 
L 37.796875 17.1875 
L 4.890625 17.1875 
L 4.890625 26.703125 
z
" id="DejaVuSans-34"/>
      </defs>
      <g transform="translate(208.608376 316.356875)scale(0.2 -0.2)">
       <use xlink:href="#DejaVuSans-34"/>
      </g>
     </g>
    </g>
    <g id="xtick_4">
     <g id="line2d_11">
      <path clip-path="url(#p72ba53359e)" d="M 294.036313 294.16 
L 294.036313 24.84 
" style="fill:none;stroke:#b0b0b0;stroke-linecap:square;stroke-width:0.8;"/>
     </g>
     <g id="line2d_12">
      <g>
       <use style="stroke:#000000;stroke-width:0.8;" x="294.036313" xlink:href="#mfef146eb95" y="294.16"/>
      </g>
     </g>
     <g id="text_4">
      <!-- 6 -->
      <defs>
       <path d="M 33.015625 40.375 
Q 26.375 40.375 22.484375 35.828125 
Q 18.609375 31.296875 18.609375 23.390625 
Q 18.609375 15.53125 22.484375 10.953125 
Q 26.375 6.390625 33.015625 6.390625 
Q 39.65625 6.390625 43.53125 10.953125 
Q 47.40625 15.53125 47.40625 23.390625 
Q 47.40625 31.296875 43.53125 35.828125 
Q 39.65625 40.375 33.015625 40.375 
M 52.59375 71.296875 
L 52.59375 62.3125 
Q 48.875 64.0625 45.09375 64.984375 
Q 41.3125 65.921875 37.59375 65.921875 
Q 27.828125 65.921875 22.671875 59.328125 
Q 17.53125 52.734375 16.796875 39.40625 
Q 19.671875 43.65625 24.015625 45.921875 
Q 28.375 48.1875 33.59375 48.1875 
Q 44.578125 48.1875 50.953125 41.515625 
Q 57.328125 34.859375 57.328125 23.390625 
Q 57.328125 12.15625 50.6875 5.359375 
Q 44.046875 -1.421875 33.015625 -1.421875 
Q 20.359375 -1.421875 13.671875 8.265625 
Q 6.984375 17.96875 6.984375 36.375 
Q 6.984375 53.65625 15.1875 63.9375 
Q 23.390625 74.21875 37.203125 74.21875 
Q 40.921875 74.21875 44.703125 73.484375 
Q 48.484375 72.75 52.59375 71.296875 
" id="DejaVuSans-36"/>
      </defs>
      <g transform="translate(287.673813 316.356875)scale(0.2 -0.2)">
       <use xlink:href="#DejaVuSans-36"/>
      </g>
     </g>
    </g>
    <g id="xtick_5">
     <g id="line2d_13">
      <path clip-path="url(#p72ba53359e)" d="M 373.101751 294.16 
L 373.101751 24.84 
" style="fill:none;stroke:#b0b0b0;stroke-linecap:square;stroke-width:0.8;"/>
     </g>
     <g id="line2d_14">
      <g>
       <use style="stroke:#000000;stroke-width:0.8;" x="373.101751" xlink:href="#mfef146eb95" y="294.16"/>
      </g>
     </g>
     <g id="text_5">
      <!-- 8 -->
      <defs>
       <path d="M 31.78125 34.625 
Q 24.75 34.625 20.71875 30.859375 
Q 16.703125 27.09375 16.703125 20.515625 
Q 16.703125 13.921875 20.71875 10.15625 
Q 24.75 6.390625 31.78125 6.390625 
Q 38.8125 6.390625 42.859375 10.171875 
Q 46.921875 13.96875 46.921875 20.515625 
Q 46.921875 27.09375 42.890625 30.859375 
Q 38.875 34.625 31.78125 34.625 
M 21.921875 38.8125 
Q 15.578125 40.375 12.03125 44.71875 
Q 8.5 49.078125 8.5 55.328125 
Q 8.5 64.0625 14.71875 69.140625 
Q 20.953125 74.21875 31.78125 74.21875 
Q 42.671875 74.21875 48.875 69.140625 
Q 55.078125 64.0625 55.078125 55.328125 
Q 55.078125 49.078125 51.53125 44.71875 
Q 48 40.375 41.703125 38.8125 
Q 48.828125 37.15625 52.796875 32.3125 
Q 56.78125 27.484375 56.78125 20.515625 
Q 56.78125 9.90625 50.3125 4.234375 
Q 43.84375 -1.421875 31.78125 -1.421875 
Q 19.734375 -1.421875 13.25 4.234375 
Q 6.78125 9.90625 6.78125 20.515625 
Q 6.78125 27.484375 10.78125 32.3125 
Q 14.796875 37.15625 21.921875 38.8125 
M 18.3125 54.390625 
Q 18.3125 48.734375 21.84375 45.5625 
Q 25.390625 42.390625 31.78125 42.390625 
Q 38.140625 42.390625 41.71875 45.5625 
Q 45.3125 48.734375 45.3125 54.390625 
Q 45.3125 60.0625 41.71875 63.234375 
Q 38.140625 66.40625 31.78125 66.40625 
Q 25.390625 66.40625 21.84375 63.234375 
Q 18.3125 60.0625 18.3125 54.390625 
" id="DejaVuSans-38"/>
      </defs>
      <g transform="translate(366.739251 316.356875)scale(0.2 -0.2)">
       <use xlink:href="#DejaVuSans-38"/>
      </g>
     </g>
    </g>
    <g id="xtick_6">
     <g id="line2d_15">
      <defs>
       <path d="M 0 0 
L 0 2 
" id="mba920b5891" style="stroke:#000000;stroke-width:0.6;"/>
      </defs>
      <g>
       <use style="stroke:#000000;stroke-width:0.6;" x="68.740534" xlink:href="#mba920b5891" y="294.16"/>
      </g>
     </g>
    </g>
    <g id="xtick_7">
     <g id="line2d_16">
      <g>
       <use style="stroke:#000000;stroke-width:0.6;" x="80.641068" xlink:href="#mba920b5891" y="294.16"/>
      </g>
     </g>
    </g>
    <g id="xtick_8">
     <g id="line2d_17">
      <g>
       <use style="stroke:#000000;stroke-width:0.6;" x="87.602435" xlink:href="#mba920b5891" y="294.16"/>
      </g>
     </g>
    </g>
    <g id="xtick_9">
     <g id="line2d_18">
      <g>
       <use style="stroke:#000000;stroke-width:0.6;" x="92.541603" xlink:href="#mba920b5891" y="294.16"/>
      </g>
     </g>
    </g>
    <g id="xtick_10">
     <g id="line2d_19">
      <g>
       <use style="stroke:#000000;stroke-width:0.6;" x="147.805972" xlink:href="#mba920b5891" y="294.16"/>
      </g>
     </g>
    </g>
    <g id="xtick_11">
     <g id="line2d_20">
      <g>
       <use style="stroke:#000000;stroke-width:0.6;" x="159.706506" xlink:href="#mba920b5891" y="294.16"/>
      </g>
     </g>
    </g>
    <g id="xtick_12">
     <g id="line2d_21">
      <g>
       <use style="stroke:#000000;stroke-width:0.6;" x="166.667872" xlink:href="#mba920b5891" y="294.16"/>
      </g>
     </g>
    </g>
    <g id="xtick_13">
     <g id="line2d_22">
      <g>
       <use style="stroke:#000000;stroke-width:0.6;" x="171.60704" xlink:href="#mba920b5891" y="294.16"/>
      </g>
     </g>
    </g>
    <g id="xtick_14">
     <g id="line2d_23">
      <g>
       <use style="stroke:#000000;stroke-width:0.6;" x="226.87141" xlink:href="#mba920b5891" y="294.16"/>
      </g>
     </g>
    </g>
    <g id="xtick_15">
     <g id="line2d_24">
      <g>
       <use style="stroke:#000000;stroke-width:0.6;" x="238.771944" xlink:href="#mba920b5891" y="294.16"/>
      </g>
     </g>
    </g>
    <g id="xtick_16">
     <g id="line2d_25">
      <g>
       <use style="stroke:#000000;stroke-width:0.6;" x="245.73331" xlink:href="#mba920b5891" y="294.16"/>
      </g>
     </g>
    </g>
    <g id="xtick_17">
     <g id="line2d_26">
      <g>
       <use style="stroke:#000000;stroke-width:0.6;" x="250.672478" xlink:href="#mba920b5891" y="294.16"/>
      </g>
     </g>
    </g>
    <g id="xtick_18">
     <g id="line2d_27">
      <g>
       <use style="stroke:#000000;stroke-width:0.6;" x="305.936848" xlink:href="#mba920b5891" y="294.16"/>
      </g>
     </g>
    </g>
    <g id="xtick_19">
     <g id="line2d_28">
      <g>
       <use style="stroke:#000000;stroke-width:0.6;" x="317.837382" xlink:href="#mba920b5891" y="294.16"/>
      </g>
     </g>
    </g>
    <g id="xtick_20">
     <g id="line2d_29">
      <g>
       <use style="stroke:#000000;stroke-width:0.6;" x="324.798748" xlink:href="#mba920b5891" y="294.16"/>
      </g>
     </g>
    </g>
    <g id="xtick_21">
     <g id="line2d_30">
      <g>
       <use style="stroke:#000000;stroke-width:0.6;" x="329.737916" xlink:href="#mba920b5891" y="294.16"/>
      </g>
     </g>
    </g>
    <g id="xtick_22">
     <g id="line2d_31">
      <g>
       <use style="stroke:#000000;stroke-width:0.6;" x="385.002285" xlink:href="#mba920b5891" y="294.16"/>
      </g>
     </g>
    </g>
    <g id="xtick_23">
     <g id="line2d_32">
      <g>
       <use style="stroke:#000000;stroke-width:0.6;" x="396.90282" xlink:href="#mba920b5891" y="294.16"/>
      </g>
     </g>
    </g>
    <g id="text_6">
     <!-- log10(# f-evals / dimension) -->
     <defs>
      <path d="M 9.421875 75.984375 
L 18.40625 75.984375 
L 18.40625 0 
L 9.421875 0 
z
" id="DejaVuSans-6c"/>
      <path d="M 30.609375 48.390625 
Q 23.390625 48.390625 19.1875 42.75 
Q 14.984375 37.109375 14.984375 27.296875 
Q 14.984375 17.484375 19.15625 11.84375 
Q 23.34375 6.203125 30.609375 6.203125 
Q 37.796875 6.203125 41.984375 11.859375 
Q 46.1875 17.53125 46.1875 27.296875 
Q 46.1875 37.015625 41.984375 42.703125 
Q 37.796875 48.390625 30.609375 48.390625 
M 30.609375 56 
Q 42.328125 56 49.015625 48.375 
Q 55.71875 40.765625 55.71875 27.296875 
Q 55.71875 13.875 49.015625 6.21875 
Q 42.328125 -1.421875 30.609375 -1.421875 
Q 18.84375 -1.421875 12.171875 6.21875 
Q 5.515625 13.875 5.515625 27.296875 
Q 5.515625 40.765625 12.171875 48.375 
Q 18.84375 56 30.609375 56 
" id="DejaVuSans-6f"/>
      <path d="M 45.40625 27.984375 
Q 45.40625 37.75 41.375 43.109375 
Q 37.359375 48.484375 30.078125 48.484375 
Q 22.859375 48.484375 18.828125 43.109375 
Q 14.796875 37.75 14.796875 27.984375 
Q 14.796875 18.265625 18.828125 12.890625 
Q 22.859375 7.515625 30.078125 7.515625 
Q 37.359375 7.515625 41.375 12.890625 
Q 45.40625 18.265625 45.40625 27.984375 
M 54.390625 6.78125 
Q 54.390625 -7.171875 48.1875 -13.984375 
Q 42 -20.796875 29.203125 -20.796875 
Q 24.46875 -20.796875 20.265625 -20.09375 
Q 16.0625 -19.390625 12.109375 -17.921875 
L 12.109375 -9.1875 
Q 16.0625 -11.328125 19.921875 -12.34375 
Q 23.78125 -13.375 27.78125 -13.375 
Q 36.625 -13.375 41.015625 -8.765625 
Q 45.40625 -4.15625 45.40625 5.171875 
L 45.40625 9.625 
Q 42.625 4.78125 38.28125 2.390625 
Q 33.9375 0 27.875 0 
Q 17.828125 0 11.671875 7.65625 
Q 5.515625 15.328125 5.515625 27.984375 
Q 5.515625 40.671875 11.671875 48.328125 
Q 17.828125 56 27.875 56 
Q 33.9375 56 38.28125 53.609375 
Q 42.625 51.21875 45.40625 46.390625 
L 45.40625 54.6875 
L 54.390625 54.6875 
z
" id="DejaVuSans-67"/>
      <path d="M 12.40625 8.296875 
L 28.515625 8.296875 
L 28.515625 63.921875 
L 10.984375 60.40625 
L 10.984375 69.390625 
L 28.421875 72.90625 
L 38.28125 72.90625 
L 38.28125 8.296875 
L 54.390625 8.296875 
L 54.390625 0 
L 12.40625 0 
z
" id="DejaVuSans-31"/>
      <path d="M 31 75.875 
Q 24.46875 64.65625 21.28125 53.65625 
Q 18.109375 42.671875 18.109375 31.390625 
Q 18.109375 20.125 21.3125 9.0625 
Q 24.515625 -2 31 -13.1875 
L 23.1875 -13.1875 
Q 15.875 -1.703125 12.234375 9.375 
Q 8.59375 20.453125 8.59375 31.390625 
Q 8.59375 42.28125 12.203125 53.3125 
Q 15.828125 64.359375 23.1875 75.875 
z
" id="DejaVuSans-28"/>
      <path d="M 51.125 44 
L 36.921875 44 
L 32.8125 27.6875 
L 47.125 27.6875 
z
M 43.796875 71.78125 
L 38.71875 51.515625 
L 52.984375 51.515625 
L 58.109375 71.78125 
L 65.921875 71.78125 
L 60.890625 51.515625 
L 76.125 51.515625 
L 76.125 44 
L 58.984375 44 
L 54.984375 27.6875 
L 70.515625 27.6875 
L 70.515625 20.21875 
L 53.078125 20.21875 
L 48 0 
L 40.1875 0 
L 45.21875 20.21875 
L 30.90625 20.21875 
L 25.875 0 
L 18.015625 0 
L 23.09375 20.21875 
L 7.71875 20.21875 
L 7.71875 27.6875 
L 24.90625 27.6875 
L 29 44 
L 13.28125 44 
L 13.28125 51.515625 
L 30.90625 51.515625 
L 35.890625 71.78125 
z
" id="DejaVuSans-23"/>
      <path id="DejaVuSans-20"/>
      <path d="M 37.109375 75.984375 
L 37.109375 68.5 
L 28.515625 68.5 
Q 23.6875 68.5 21.796875 66.546875 
Q 19.921875 64.59375 19.921875 59.515625 
L 19.921875 54.6875 
L 34.71875 54.6875 
L 34.71875 47.703125 
L 19.921875 47.703125 
L 19.921875 0 
L 10.890625 0 
L 10.890625 47.703125 
L 2.296875 47.703125 
L 2.296875 54.6875 
L 10.890625 54.6875 
L 10.890625 58.5 
Q 10.890625 67.625 15.140625 71.796875 
Q 19.390625 75.984375 28.609375 75.984375 
z
" id="DejaVuSans-66"/>
      <path d="M 4.890625 31.390625 
L 31.203125 31.390625 
L 31.203125 23.390625 
L 4.890625 23.390625 
z
" id="DejaVuSans-2d"/>
      <path d="M 56.203125 29.59375 
L 56.203125 25.203125 
L 14.890625 25.203125 
Q 15.484375 15.921875 20.484375 11.0625 
Q 25.484375 6.203125 34.421875 6.203125 
Q 39.59375 6.203125 44.453125 7.46875 
Q 49.3125 8.734375 54.109375 11.28125 
L 54.109375 2.78125 
Q 49.265625 0.734375 44.1875 -0.34375 
Q 39.109375 -1.421875 33.890625 -1.421875 
Q 20.796875 -1.421875 13.15625 6.1875 
Q 5.515625 13.8125 5.515625 26.8125 
Q 5.515625 40.234375 12.765625 48.109375 
Q 20.015625 56 32.328125 56 
Q 43.359375 56 49.78125 48.890625 
Q 56.203125 41.796875 56.203125 29.59375 
M 47.21875 32.234375 
Q 47.125 39.59375 43.09375 43.984375 
Q 39.0625 48.390625 32.421875 48.390625 
Q 24.90625 48.390625 20.390625 44.140625 
Q 15.875 39.890625 15.1875 32.171875 
z
" id="DejaVuSans-65"/>
      <path d="M 2.984375 54.6875 
L 12.5 54.6875 
L 29.59375 8.796875 
L 46.6875 54.6875 
L 56.203125 54.6875 
L 35.6875 0 
L 23.484375 0 
z
" id="DejaVuSans-76"/>
      <path d="M 34.28125 27.484375 
Q 23.390625 27.484375 19.1875 25 
Q 14.984375 22.515625 14.984375 16.5 
Q 14.984375 11.71875 18.140625 8.90625 
Q 21.296875 6.109375 26.703125 6.109375 
Q 34.1875 6.109375 38.703125 11.40625 
Q 43.21875 16.703125 43.21875 25.484375 
L 43.21875 27.484375 
z
M 52.203125 31.203125 
L 52.203125 0 
L 43.21875 0 
L 43.21875 8.296875 
Q 40.140625 3.328125 35.546875 0.953125 
Q 30.953125 -1.421875 24.3125 -1.421875 
Q 15.921875 -1.421875 10.953125 3.296875 
Q 6 8.015625 6 15.921875 
Q 6 25.140625 12.171875 29.828125 
Q 18.359375 34.515625 30.609375 34.515625 
L 43.21875 34.515625 
L 43.21875 35.40625 
Q 43.21875 41.609375 39.140625 45 
Q 35.0625 48.390625 27.6875 48.390625 
Q 23 48.390625 18.546875 47.265625 
Q 14.109375 46.140625 10.015625 43.890625 
L 10.015625 52.203125 
Q 14.9375 54.109375 19.578125 55.046875 
Q 24.21875 56 28.609375 56 
Q 40.484375 56 46.34375 49.84375 
Q 52.203125 43.703125 52.203125 31.203125 
" id="DejaVuSans-61"/>
      <path d="M 44.28125 53.078125 
L 44.28125 44.578125 
Q 40.484375 46.53125 36.375 47.5 
Q 32.28125 48.484375 27.875 48.484375 
Q 21.1875 48.484375 17.84375 46.4375 
Q 14.5 44.390625 14.5 40.28125 
Q 14.5 37.15625 16.890625 35.375 
Q 19.28125 33.59375 26.515625 31.984375 
L 29.59375 31.296875 
Q 39.15625 29.25 43.1875 25.515625 
Q 47.21875 21.78125 47.21875 15.09375 
Q 47.21875 7.46875 41.1875 3.015625 
Q 35.15625 -1.421875 24.609375 -1.421875 
Q 20.21875 -1.421875 15.453125 -0.5625 
Q 10.6875 0.296875 5.421875 2 
L 5.421875 11.28125 
Q 10.40625 8.6875 15.234375 7.390625 
Q 20.0625 6.109375 24.8125 6.109375 
Q 31.15625 6.109375 34.5625 8.28125 
Q 37.984375 10.453125 37.984375 14.40625 
Q 37.984375 18.0625 35.515625 20.015625 
Q 33.0625 21.96875 24.703125 23.78125 
L 21.578125 24.515625 
Q 13.234375 26.265625 9.515625 29.90625 
Q 5.8125 33.546875 5.8125 39.890625 
Q 5.8125 47.609375 11.28125 51.796875 
Q 16.75 56 26.8125 56 
Q 31.78125 56 36.171875 55.265625 
Q 40.578125 54.546875 44.28125 53.078125 
" id="DejaVuSans-73"/>
      <path d="M 25.390625 72.90625 
L 33.6875 72.90625 
L 8.296875 -9.28125 
L 0 -9.28125 
z
" id="DejaVuSans-2f"/>
      <path d="M 45.40625 46.390625 
L 45.40625 75.984375 
L 54.390625 75.984375 
L 54.390625 0 
L 45.40625 0 
L 45.40625 8.203125 
Q 42.578125 3.328125 38.25 0.953125 
Q 33.9375 -1.421875 27.875 -1.421875 
Q 17.96875 -1.421875 11.734375 6.484375 
Q 5.515625 14.40625 5.515625 27.296875 
Q 5.515625 40.1875 11.734375 48.09375 
Q 17.96875 56 27.875 56 
Q 33.9375 56 38.25 53.625 
Q 42.578125 51.265625 45.40625 46.390625 
M 14.796875 27.296875 
Q 14.796875 17.390625 18.875 11.75 
Q 22.953125 6.109375 30.078125 6.109375 
Q 37.203125 6.109375 41.296875 11.75 
Q 45.40625 17.390625 45.40625 27.296875 
Q 45.40625 37.203125 41.296875 42.84375 
Q 37.203125 48.484375 30.078125 48.484375 
Q 22.953125 48.484375 18.875 42.84375 
Q 14.796875 37.203125 14.796875 27.296875 
" id="DejaVuSans-64"/>
      <path d="M 9.421875 54.6875 
L 18.40625 54.6875 
L 18.40625 0 
L 9.421875 0 
z
M 9.421875 75.984375 
L 18.40625 75.984375 
L 18.40625 64.59375 
L 9.421875 64.59375 
z
" id="DejaVuSans-69"/>
      <path d="M 52 44.1875 
Q 55.375 50.25 60.0625 53.125 
Q 64.75 56 71.09375 56 
Q 79.640625 56 84.28125 50.015625 
Q 88.921875 44.046875 88.921875 33.015625 
L 88.921875 0 
L 79.890625 0 
L 79.890625 32.71875 
Q 79.890625 40.578125 77.09375 44.375 
Q 74.3125 48.1875 68.609375 48.1875 
Q 61.625 48.1875 57.5625 43.546875 
Q 53.515625 38.921875 53.515625 30.90625 
L 53.515625 0 
L 44.484375 0 
L 44.484375 32.71875 
Q 44.484375 40.625 41.703125 44.40625 
Q 38.921875 48.1875 33.109375 48.1875 
Q 26.21875 48.1875 22.15625 43.53125 
Q 18.109375 38.875 18.109375 30.90625 
L 18.109375 0 
L 9.078125 0 
L 9.078125 54.6875 
L 18.109375 54.6875 
L 18.109375 46.1875 
Q 21.1875 51.21875 25.484375 53.609375 
Q 29.78125 56 35.6875 56 
Q 41.65625 56 45.828125 52.96875 
Q 50 49.953125 52 44.1875 
" id="DejaVuSans-6d"/>
      <path d="M 54.890625 33.015625 
L 54.890625 0 
L 45.90625 0 
L 45.90625 32.71875 
Q 45.90625 40.484375 42.875 44.328125 
Q 39.84375 48.1875 33.796875 48.1875 
Q 26.515625 48.1875 22.3125 43.546875 
Q 18.109375 38.921875 18.109375 30.90625 
L 18.109375 0 
L 9.078125 0 
L 9.078125 54.6875 
L 18.109375 54.6875 
L 18.109375 46.1875 
Q 21.34375 51.125 25.703125 53.5625 
Q 30.078125 56 35.796875 56 
Q 45.21875 56 50.046875 50.171875 
Q 54.890625 44.34375 54.890625 33.015625 
" id="DejaVuSans-6e"/>
      <path d="M 8.015625 75.875 
L 15.828125 75.875 
Q 23.140625 64.359375 26.78125 53.3125 
Q 30.421875 42.28125 30.421875 31.390625 
Q 30.421875 20.453125 26.78125 9.375 
Q 23.140625 -1.703125 15.828125 -13.1875 
L 8.015625 -13.1875 
Q 14.5 -2 17.703125 9.0625 
Q 20.90625 20.125 20.90625 31.390625 
Q 20.90625 42.671875 17.703125 53.65625 
Q 14.5 64.65625 8.015625 75.875 
" id="DejaVuSans-29"/>
     </defs>
     <g transform="translate(107.571219 337.433594)scale(0.17 -0.17)">
      <use xlink:href="#DejaVuSans-6c"/>
      <use x="27.783203" xlink:href="#DejaVuSans-6f"/>
      <use x="88.964844" xlink:href="#DejaVuSans-67"/>
      <use x="152.441406" xlink:href="#DejaVuSans-31"/>
      <use x="216.064453" xlink:href="#DejaVuSans-30"/>
      <use x="279.6875" xlink:href="#DejaVuSans-28"/>
      <use x="318.701172" xlink:href="#DejaVuSans-23"/>
      <use x="402.490234" xlink:href="#DejaVuSans-20"/>
      <use x="434.277344" xlink:href="#DejaVuSans-66"/>
      <use x="469.404297" xlink:href="#DejaVuSans-2d"/>
      <use x="505.488281" xlink:href="#DejaVuSans-65"/>
      <use x="567.011719" xlink:href="#DejaVuSans-76"/>
      <use x="626.191406" xlink:href="#DejaVuSans-61"/>
      <use x="687.470703" xlink:href="#DejaVuSans-6c"/>
      <use x="715.253906" xlink:href="#DejaVuSans-73"/>
      <use x="767.353516" xlink:href="#DejaVuSans-20"/>
      <use x="799.140625" xlink:href="#DejaVuSans-2f"/>
      <use x="832.832031" xlink:href="#DejaVuSans-20"/>
      <use x="864.619141" xlink:href="#DejaVuSans-64"/>
      <use x="928.095703" xlink:href="#DejaVuSans-69"/>
      <use x="955.878906" xlink:href="#DejaVuSans-6d"/>
      <use x="1053.291016" xlink:href="#DejaVuSans-65"/>
      <use x="1114.814453" xlink:href="#DejaVuSans-6e"/>
      <use x="1178.193359" xlink:href="#DejaVuSans-73"/>
      <use x="1230.292969" xlink:href="#DejaVuSans-69"/>
      <use x="1258.076172" xlink:href="#DejaVuSans-6f"/>
      <use x="1319.257812" xlink:href="#DejaVuSans-6e"/>
      <use x="1382.636719" xlink:href="#DejaVuSans-29"/>
     </g>
    </g>
   </g>
   <g id="matplotlib.axis_2">
    <g id="ytick_1">
     <g id="line2d_33">
      <path clip-path="url(#p72ba53359e)" d="M 56.84 294.16 
L 399.984 294.16 
" style="fill:none;stroke:#b0b0b0;stroke-linecap:square;stroke-width:0.8;"/>
     </g>
     <g id="line2d_34">
      <defs>
       <path d="M 0 0 
L -3.5 0 
" id="m79ca1aa5b5" style="stroke:#000000;stroke-width:0.8;"/>
      </defs>
      <g>
       <use style="stroke:#000000;stroke-width:0.8;" x="56.84" xlink:href="#m79ca1aa5b5" y="294.16"/>
      </g>
     </g>
     <g id="text_7">
      <!-- 0.0 -->
      <defs>
       <path d="M 10.6875 12.40625 
L 21 12.40625 
L 21 0 
L 10.6875 0 
z
" id="DejaVuSans-2e"/>
      </defs>
      <g transform="translate(24.395 300.23875)scale(0.16 -0.16)">
       <use xlink:href="#DejaVuSans-30"/>
       <use x="63.623047" xlink:href="#DejaVuSans-2e"/>
       <use x="95.410156" xlink:href="#DejaVuSans-30"/>
      </g>
     </g>
    </g>
    <g id="ytick_2">
     <g id="line2d_35">
      <path clip-path="url(#p72ba53359e)" d="M 56.84 240.829307 
L 399.984 240.829307 
" style="fill:none;stroke:#b0b0b0;stroke-linecap:square;stroke-width:0.8;"/>
     </g>
     <g id="line2d_36">
      <g>
       <use style="stroke:#000000;stroke-width:0.8;" x="56.84" xlink:href="#m79ca1aa5b5" y="240.829307"/>
      </g>
     </g>
     <g id="text_8">
      <!-- 0.2 -->
      <g transform="translate(24.395 246.908057)scale(0.16 -0.16)">
       <use xlink:href="#DejaVuSans-30"/>
       <use x="63.623047" xlink:href="#DejaVuSans-2e"/>
       <use x="95.410156" xlink:href="#DejaVuSans-32"/>
      </g>
     </g>
    </g>
    <g id="ytick_3">
     <g id="line2d_37">
      <path clip-path="url(#p72ba53359e)" d="M 56.84 187.498614 
L 399.984 187.498614 
" style="fill:none;stroke:#b0b0b0;stroke-linecap:square;stroke-width:0.8;"/>
     </g>
     <g id="line2d_38">
      <g>
       <use style="stroke:#000000;stroke-width:0.8;" x="56.84" xlink:href="#m79ca1aa5b5" y="187.498614"/>
      </g>
     </g>
     <g id="text_9">
      <!-- 0.4 -->
      <g transform="translate(24.395 193.577364)scale(0.16 -0.16)">
       <use xlink:href="#DejaVuSans-30"/>
       <use x="63.623047" xlink:href="#DejaVuSans-2e"/>
       <use x="95.410156" xlink:href="#DejaVuSans-34"/>
      </g>
     </g>
    </g>
    <g id="ytick_4">
     <g id="line2d_39">
      <path clip-path="url(#p72ba53359e)" d="M 56.84 134.167921 
L 399.984 134.167921 
" style="fill:none;stroke:#b0b0b0;stroke-linecap:square;stroke-width:0.8;"/>
     </g>
     <g id="line2d_40">
      <g>
       <use style="stroke:#000000;stroke-width:0.8;" x="56.84" xlink:href="#m79ca1aa5b5" y="134.167921"/>
      </g>
     </g>
     <g id="text_10">
      <!-- 0.6 -->
      <g transform="translate(24.395 140.246671)scale(0.16 -0.16)">
       <use xlink:href="#DejaVuSans-30"/>
       <use x="63.623047" xlink:href="#DejaVuSans-2e"/>
       <use x="95.410156" xlink:href="#DejaVuSans-36"/>
      </g>
     </g>
    </g>
    <g id="ytick_5">
     <g id="line2d_41">
      <path clip-path="url(#p72ba53359e)" d="M 56.84 80.837228 
L 399.984 80.837228 
" style="fill:none;stroke:#b0b0b0;stroke-linecap:square;stroke-width:0.8;"/>
     </g>
     <g id="line2d_42">
      <g>
       <use style="stroke:#000000;stroke-width:0.8;" x="56.84" xlink:href="#m79ca1aa5b5" y="80.837228"/>
      </g>
     </g>
     <g id="text_11">
      <!-- 0.8 -->
      <g transform="translate(24.395 86.915978)scale(0.16 -0.16)">
       <use xlink:href="#DejaVuSans-30"/>
       <use x="63.623047" xlink:href="#DejaVuSans-2e"/>
       <use x="95.410156" xlink:href="#DejaVuSans-38"/>
      </g>
     </g>
    </g>
    <g id="ytick_6">
     <g id="line2d_43">
      <path clip-path="url(#p72ba53359e)" d="M 56.84 27.506535 
L 399.984 27.506535 
" style="fill:none;stroke:#b0b0b0;stroke-linecap:square;stroke-width:0.8;"/>
     </g>
     <g id="line2d_44">
      <g>
       <use style="stroke:#000000;stroke-width:0.8;" x="56.84" xlink:href="#m79ca1aa5b5" y="27.506535"/>
      </g>
     </g>
     <g id="text_12">
      <!-- 1.0 -->
      <g transform="translate(24.395 33.585285)scale(0.16 -0.16)">
       <use xlink:href="#DejaVuSans-31"/>
       <use x="63.623047" xlink:href="#DejaVuSans-2e"/>
       <use x="95.410156" xlink:href="#DejaVuSans-30"/>
      </g>
     </g>
    </g>
    <g id="text_13">
     <!-- Fraction of function,target pairs -->
     <defs>
      <path d="M 9.8125 72.90625 
L 51.703125 72.90625 
L 51.703125 64.59375 
L 19.671875 64.59375 
L 19.671875 43.109375 
L 48.578125 43.109375 
L 48.578125 34.8125 
L 19.671875 34.8125 
L 19.671875 0 
L 9.8125 0 
z
" id="DejaVuSans-46"/>
      <path d="M 41.109375 46.296875 
Q 39.59375 47.171875 37.8125 47.578125 
Q 36.03125 48 33.890625 48 
Q 26.265625 48 22.1875 43.046875 
Q 18.109375 38.09375 18.109375 28.8125 
L 18.109375 0 
L 9.078125 0 
L 9.078125 54.6875 
L 18.109375 54.6875 
L 18.109375 46.1875 
Q 20.953125 51.171875 25.484375 53.578125 
Q 30.03125 56 36.53125 56 
Q 37.453125 56 38.578125 55.875 
Q 39.703125 55.765625 41.0625 55.515625 
z
" id="DejaVuSans-72"/>
      <path d="M 48.78125 52.59375 
L 48.78125 44.1875 
Q 44.96875 46.296875 41.140625 47.34375 
Q 37.3125 48.390625 33.40625 48.390625 
Q 24.65625 48.390625 19.8125 42.84375 
Q 14.984375 37.3125 14.984375 27.296875 
Q 14.984375 17.28125 19.8125 11.734375 
Q 24.65625 6.203125 33.40625 6.203125 
Q 37.3125 6.203125 41.140625 7.25 
Q 44.96875 8.296875 48.78125 10.40625 
L 48.78125 2.09375 
Q 45.015625 0.34375 40.984375 -0.53125 
Q 36.96875 -1.421875 32.421875 -1.421875 
Q 20.0625 -1.421875 12.78125 6.34375 
Q 5.515625 14.109375 5.515625 27.296875 
Q 5.515625 40.671875 12.859375 48.328125 
Q 20.21875 56 33.015625 56 
Q 37.15625 56 41.109375 55.140625 
Q 45.0625 54.296875 48.78125 52.59375 
" id="DejaVuSans-63"/>
      <path d="M 18.3125 70.21875 
L 18.3125 54.6875 
L 36.8125 54.6875 
L 36.8125 47.703125 
L 18.3125 47.703125 
L 18.3125 18.015625 
Q 18.3125 11.328125 20.140625 9.421875 
Q 21.96875 7.515625 27.59375 7.515625 
L 36.8125 7.515625 
L 36.8125 0 
L 27.59375 0 
Q 17.1875 0 13.234375 3.875 
Q 9.28125 7.765625 9.28125 18.015625 
L 9.28125 47.703125 
L 2.6875 47.703125 
L 2.6875 54.6875 
L 9.28125 54.6875 
L 9.28125 70.21875 
z
" id="DejaVuSans-74"/>
      <path d="M 8.5 21.578125 
L 8.5 54.6875 
L 17.484375 54.6875 
L 17.484375 21.921875 
Q 17.484375 14.15625 20.5 10.265625 
Q 23.53125 6.390625 29.59375 6.390625 
Q 36.859375 6.390625 41.078125 11.03125 
Q 45.3125 15.671875 45.3125 23.6875 
L 45.3125 54.6875 
L 54.296875 54.6875 
L 54.296875 0 
L 45.3125 0 
L 45.3125 8.40625 
Q 42.046875 3.421875 37.71875 1 
Q 33.40625 -1.421875 27.6875 -1.421875 
Q 18.265625 -1.421875 13.375 4.4375 
Q 8.5 10.296875 8.5 21.578125 
M 31.109375 56 
z
" id="DejaVuSans-75"/>
      <path d="M 11.71875 12.40625 
L 22.015625 12.40625 
L 22.015625 4 
L 14.015625 -11.625 
L 7.71875 -11.625 
L 11.71875 4 
z
" id="DejaVuSans-2c"/>
      <path d="M 18.109375 8.203125 
L 18.109375 -20.796875 
L 9.078125 -20.796875 
L 9.078125 54.6875 
L 18.109375 54.6875 
L 18.109375 46.390625 
Q 20.953125 51.265625 25.265625 53.625 
Q 29.59375 56 35.59375 56 
Q 45.5625 56 51.78125 48.09375 
Q 58.015625 40.1875 58.015625 27.296875 
Q 58.015625 14.40625 51.78125 6.484375 
Q 45.5625 -1.421875 35.59375 -1.421875 
Q 29.59375 -1.421875 25.265625 0.953125 
Q 20.953125 3.328125 18.109375 8.203125 
M 48.6875 27.296875 
Q 48.6875 37.203125 44.609375 42.84375 
Q 40.53125 48.484375 33.40625 48.484375 
Q 26.265625 48.484375 22.1875 42.84375 
Q 18.109375 37.203125 18.109375 27.296875 
Q 18.109375 17.390625 22.1875 11.75 
Q 26.265625 6.109375 33.40625 6.109375 
Q 40.53125 6.109375 44.609375 11.75 
Q 48.6875 17.390625 48.6875 27.296875 
" id="DejaVuSans-70"/>
     </defs>
     <g transform="translate(16.859531 294.639375)rotate(-90)scale(0.17 -0.17)">
      <use xlink:href="#DejaVuSans-46"/>
      <use x="57.410156" xlink:href="#DejaVuSans-72"/>
      <use x="98.523438" xlink:href="#DejaVuSans-61"/>
      <use x="159.802734" xlink:href="#DejaVuSans-63"/>
      <use x="214.783203" xlink:href="#DejaVuSans-74"/>
      <use x="253.992188" xlink:href="#DejaVuSans-69"/>
      <use x="281.775391" xlink:href="#DejaVuSans-6f"/>
      <use x="342.957031" xlink:href="#DejaVuSans-6e"/>
      <use x="406.335938" xlink:href="#DejaVuSans-20"/>
      <use x="438.123047" xlink:href="#DejaVuSans-6f"/>
      <use x="499.304688" xlink:href="#DejaVuSans-66"/>
      <use x="534.509766" xlink:href="#DejaVuSans-20"/>
      <use x="566.296875" xlink:href="#DejaVuSans-66"/>
      <use x="601.501953" xlink:href="#DejaVuSans-75"/>
      <use x="664.880859" xlink:href="#DejaVuSans-6e"/>
      <use x="728.259766" xlink:href="#DejaVuSans-63"/>
      <use x="783.240234" xlink:href="#DejaVuSans-74"/>
      <use x="822.449219" xlink:href="#DejaVuSans-69"/>
      <use x="850.232422" xlink:href="#DejaVuSans-6f"/>
      <use x="911.414062" xlink:href="#DejaVuSans-6e"/>
      <use x="974.792969" xlink:href="#DejaVuSans-2c"/>
      <use x="1006.580078" xlink:href="#DejaVuSans-74"/>
      <use x="1045.789062" xlink:href="#DejaVuSans-61"/>
      <use x="1107.068359" xlink:href="#DejaVuSans-72"/>
      <use x="1148.166016" xlink:href="#DejaVuSans-67"/>
      <use x="1211.642578" xlink:href="#DejaVuSans-65"/>
      <use x="1273.166016" xlink:href="#DejaVuSans-74"/>
      <use x="1312.375" xlink:href="#DejaVuSans-20"/>
      <use x="1344.162109" xlink:href="#DejaVuSans-70"/>
      <use x="1407.638672" xlink:href="#DejaVuSans-61"/>
      <use x="1468.917969" xlink:href="#DejaVuSans-69"/>
      <use x="1496.701172" xlink:href="#DejaVuSans-72"/>
      <use x="1537.814453" xlink:href="#DejaVuSans-73"/>
     </g>
    </g>
   </g>
   <g id="line2d_45">
    <defs>
     <path d="M 0 1.5 
C 0.397805 1.5 0.77937 1.341951 1.06066 1.06066 
C 1.341951 0.77937 1.5 0.397805 1.5 0 
C 1.5 -0.397805 1.341951 -0.77937 1.06066 -1.06066 
C 0.77937 -1.341951 0.397805 -1.5 0 -1.5 
C -0.397805 -1.5 -0.77937 -1.341951 -1.06066 -1.06066 
C -1.341951 -0.77937 -1.5 -0.397805 -1.5 0 
C -1.5 0.397805 -1.341951 0.77937 -1.06066 1.06066 
C -0.77937 1.341951 -0.397805 1.5 0 1.5 
z
" id="me360b247cb" style="stroke:#f5deb3;"/>
    </defs>
    <g>
     <use style="fill:#f5deb3;stroke:#f5deb3;" x="221.533684" xlink:href="#me360b247cb" y="59.688849"/>
     <use style="fill:#f5deb3;stroke:#f5deb3;" x="221.533684" xlink:href="#me360b247cb" y="59.688849"/>
    </g>
   </g>
   <g id="line2d_46">
    <defs>
     <path d="M 0 1.5 
C 0.397805 1.5 0.77937 1.341951 1.06066 1.06066 
C 1.341951 0.77937 1.5 0.397805 1.5 0 
C 1.5 -0.397805 1.341951 -0.77937 1.06066 -1.06066 
C 0.77937 -1.341951 0.397805 -1.5 0 -1.5 
C -0.397805 -1.5 -0.77937 -1.341951 -1.06066 -1.06066 
C -1.341951 -0.77937 -1.5 -0.397805 -1.5 0 
C -1.5 0.397805 -1.341951 0.77937 -1.06066 1.06066 
C -0.77937 1.341951 -0.397805 1.5 0 1.5 
z
" id="m0642bd3dae" style="stroke:#000080;"/>
    </defs>
    <g>
     <use style="fill:#000080;stroke:#000080;" x="313.932076" xlink:href="#m0642bd3dae" y="87.273691"/>
     <use style="fill:#000080;stroke:#000080;" x="313.932076" xlink:href="#m0642bd3dae" y="87.273691"/>
    </g>
   </g>
   <g id="line2d_47">
    <path d="M 17.307281 294.16 
L 17.307281 290.482021 
L 119.383266 290.482021 
L 119.383266 289.562526 
L 124.445589 289.562526 
L 124.445589 289.102779 
L 124.842574 289.102779 
L 124.842574 288.183284 
L 126.133599 288.183284 
L 126.133599 287.723537 
L 126.404454 287.723537 
L 126.404454 287.26379 
L 127.277634 287.26379 
L 127.277634 286.344295 
L 127.531158 286.344295 
L 127.559097 284.965053 
L 127.863468 284.965053 
L 127.863468 284.505306 
L 128.849382 284.505306 
L 128.952654 282.666316 
L 129.258793 282.666316 
L 129.258793 282.206569 
L 129.434885 282.206569 
L 129.434885 281.746821 
L 130.097667 281.746821 
L 130.12173 280.367579 
L 130.384219 280.367579 
L 130.384219 279.907832 
L 130.525722 279.907832 
L 130.572631 278.068843 
L 131.261313 278.068843 
L 131.261313 277.609095 
L 131.395796 277.609095 
L 131.395796 276.689601 
L 131.595565 276.689601 
L 131.595565 276.229853 
L 132.11719 276.229853 
L 132.11719 275.310358 
L 132.287602 275.310358 
L 132.287602 274.390864 
L 132.41431 274.390864 
L 132.41431 273.471369 
L 132.560963 273.471369 
L 132.581812 271.63238 
L 132.911992 271.63238 
L 132.911992 270.253138 
L 133.375771 270.253138 
L 133.375771 268.873896 
L 133.593226 268.873896 
L 133.671622 266.575159 
L 134.191638 266.575159 
L 134.229539 261.977685 
L 134.399062 261.977685 
L 134.492524 260.598443 
L 134.511155 260.598443 
L 134.511155 258.759454 
L 134.843109 258.759454 
L 134.879599 256.00097 
L 135.096929 256.00097 
L 135.168766 254.16198 
L 135.222446 254.16198 
L 135.27596 253.242485 
L 135.347052 253.242485 
L 135.347052 252.322991 
L 136.076273 252.322991 
L 136.076273 251.403496 
L 136.26225 251.403496 
L 136.362849 247.725517 
L 136.792092 247.725517 
L 136.889643 246.346275 
L 137.002756 246.346275 
L 137.002756 245.886528 
L 137.131121 245.886528 
L 137.131121 244.967033 
L 137.650713 244.967033 
L 137.681704 243.587791 
L 137.80511 243.587791 
L 137.80511 243.128044 
L 138.049294 243.128044 
L 138.049294 242.208549 
L 138.58633 242.208549 
L 138.58633 240.36956 
L 139.403707 240.36956 
L 139.473584 238.070823 
L 139.515374 238.070823 
L 139.62632 233.933097 
L 139.77771 233.933097 
L 139.77771 233.473349 
L 140.143739 233.473349 
L 140.143739 232.553855 
L 140.711029 232.553855 
L 140.814534 228.875876 
L 140.98141 228.875876 
L 141.057886 226.117392 
L 141.095997 226.117392 
L 141.159327 224.278402 
L 141.792294 224.278402 
L 141.828811 221.979665 
L 141.913715 221.979665 
L 141.913715 220.140676 
L 142.046294 220.140676 
L 142.046294 219.680929 
L 142.225448 219.680929 
L 142.225448 219.221181 
L 142.901107 219.221181 
L 142.923938 217.841939 
L 143.363178 217.841939 
L 143.363178 217.382192 
L 143.496099 217.382192 
L 143.496099 216.462697 
L 144.145691 216.462697 
L 144.209319 214.623708 
L 145.176544 214.623708 
L 145.176544 214.16396 
L 145.533003 214.16396 
L 145.533003 211.865224 
L 145.766596 211.865224 
L 145.766596 211.405476 
L 145.958859 211.405476 
L 146.054188 210.485982 
L 146.365073 210.485982 
L 146.365073 210.026234 
L 147.00646 210.026234 
L 147.00646 209.10674 
L 147.318386 209.10674 
L 147.318386 208.646992 
L 148.504091 208.646992 
L 148.504091 208.187245 
L 148.798281 208.187245 
L 148.798281 207.727497 
L 149.135251 207.727497 
L 149.135251 205.888508 
L 150.048044 205.888508 
L 150.048044 204.969013 
L 150.280008 204.969013 
L 150.280008 203.589771 
L 151.753441 203.589771 
L 151.753441 202.670277 
L 152.971133 202.670277 
L 152.971133 202.210529 
L 153.360637 202.210529 
L 153.360637 201.750782 
L 155.280384 201.750782 
L 155.280384 200.37154 
L 157.845048 200.37154 
L 157.845048 199.911792 
L 158.358714 199.911792 
L 158.363356 198.072803 
L 160.535999 198.072803 
L 160.535999 197.153308 
L 161.142707 197.153308 
L 161.142707 196.693561 
L 161.567709 196.693561 
L 161.629219 195.314319 
L 162.515429 195.314319 
L 162.515429 194.854572 
L 162.808118 194.854572 
L 162.808118 193.935077 
L 163.934745 193.935077 
L 163.934745 193.015582 
L 167.773241 193.015582 
L 167.773241 192.096087 
L 170.173142 192.096087 
L 170.229044 191.176593 
L 171.589863 191.176593 
L 171.589863 190.257098 
L 173.406513 190.257098 
L 173.406513 189.797351 
L 175.433005 189.797351 
L 175.496432 187.038867 
L 175.768043 187.038867 
L 175.768043 185.659624 
L 177.266979 185.659624 
L 177.266979 184.280382 
L 185.535495 184.280382 
L 185.535495 182.90114 
L 186.086274 182.90114 
L 186.086274 181.981646 
L 191.378678 181.981646 
L 191.378678 181.521898 
L 191.941291 181.521898 
L 191.941291 179.682909 
L 192.07341 179.682909 
L 192.128053 177.843919 
L 192.621634 177.843919 
L 192.694682 176.464677 
L 193.210919 176.464677 
L 193.210919 176.00493 
L 193.984123 176.00493 
L 193.984123 175.545183 
L 194.265112 175.545183 
L 194.265112 174.625688 
L 194.690468 174.625688 
L 194.690468 174.165941 
L 194.856927 174.165941 
L 194.856927 173.706193 
L 196.148932 173.706193 
L 196.199217 172.786699 
L 197.428399 172.786699 
L 197.428876 171.407456 
L 198.843683 171.407456 
L 198.843683 170.947709 
L 200.476095 170.947709 
L 200.476095 170.028214 
L 200.742407 170.028214 
L 200.742407 168.189225 
L 201.255699 168.189225 
L 201.255699 167.729478 
L 201.746303 167.729478 
L 201.746303 167.26973 
L 201.859795 167.26973 
L 201.859795 166.809983 
L 203.102588 166.809983 
L 203.102588 166.350236 
L 204.971244 166.350236 
L 205.063213 164.051499 
L 207.036627 164.051499 
L 207.036627 163.132004 
L 207.333305 163.132004 
L 207.333305 161.293015 
L 208.680572 161.293015 
L 208.680572 160.37352 
L 208.920603 160.37352 
L 208.920603 158.994278 
L 209.345619 158.994278 
L 209.345619 158.074783 
L 209.487269 158.074783 
L 209.487269 157.615036 
L 212.172937 157.615036 
L 212.172937 157.155288 
L 212.812959 157.155288 
L 212.891431 155.316299 
L 215.036507 155.316299 
L 215.036507 154.856552 
L 215.218713 154.856552 
L 215.218713 154.396804 
L 219.153422 154.396804 
L 219.262479 152.098068 
L 219.469686 152.098068 
L 219.469686 151.63832 
L 220.525913 151.63832 
L 220.525913 151.178573 
L 223.35807 151.178573 
L 223.35807 149.799331 
L 223.989099 149.799331 
L 223.989099 149.339583 
L 224.141839 149.339583 
L 224.141839 148.420089 
L 225.158559 148.420089 
L 225.158559 147.040847 
L 226.374106 147.040847 
L 226.374106 145.661605 
L 227.609622 145.661605 
L 227.609622 145.201857 
L 227.86145 145.201857 
L 227.86145 143.822615 
L 228.272123 143.822615 
L 228.272123 142.443373 
L 231.786954 142.443373 
L 231.786954 141.983626 
L 233.923701 141.983626 
L 233.923701 141.523878 
L 234.099275 141.523878 
L 234.099275 141.064131 
L 234.462126 141.064131 
L 234.462126 140.604384 
L 236.073341 140.604384 
L 236.073341 140.144636 
L 236.243818 140.144636 
L 236.243818 139.225142 
L 238.023709 139.225142 
L 238.023709 138.765394 
L 242.78467 138.765394 
L 242.78467 137.8459 
L 242.900849 137.8459 
L 242.900849 136.926405 
L 243.106283 136.926405 
L 243.106283 136.00691 
L 243.85162 136.00691 
L 243.85162 135.087416 
L 244.095385 135.087416 
L 244.095385 134.627668 
L 248.100035 134.627668 
L 248.208956 133.708173 
L 248.839626 133.708173 
L 248.94938 132.328931 
L 249.026414 132.328931 
L 249.026414 130.949689 
L 251.878248 130.949689 
L 251.97711 130.030195 
L 253.692476 130.030195 
L 253.692476 129.570447 
L 254.631642 129.570447 
L 254.631642 129.1107 
L 254.822024 129.1107 
L 254.822024 128.650953 
L 254.966572 128.650953 
L 255.004083 127.731458 
L 255.443661 127.731458 
L 255.443661 127.27171 
L 256.295536 127.27171 
L 256.295536 126.811963 
L 257.361719 126.811963 
L 257.362039 125.432721 
L 257.804652 125.432721 
L 257.915396 123.133984 
L 258.558772 123.133984 
L 258.558772 122.674237 
L 259.553167 122.674237 
L 259.553513 120.835248 
L 261.566164 120.835248 
L 261.566232 119.456005 
L 263.79308 119.456005 
L 263.79308 118.996258 
L 265.142697 118.996258 
L 265.18847 118.076763 
L 266.565145 118.076763 
L 266.565145 117.617016 
L 266.691613 117.617016 
L 266.691613 117.157269 
L 267.216338 117.157269 
L 267.216338 116.697521 
L 267.952128 116.697521 
L 267.952128 116.237774 
L 268.134796 116.237774 
L 268.134804 115.318279 
L 268.817416 115.318279 
L 268.817566 114.398785 
L 269.11486 114.398785 
L 269.115022 113.47929 
L 269.413644 113.47929 
L 269.413673 112.559795 
L 271.389181 112.559795 
L 271.389181 112.100048 
L 271.678537 112.100048 
L 271.728231 110.720806 
L 272.535677 110.720806 
L 272.565431 108.881816 
L 273.100834 108.881816 
L 273.100834 108.422069 
L 274.208076 108.422069 
L 274.208076 107.962322 
L 274.539113 107.962322 
L 274.539113 107.502574 
L 274.881528 107.502574 
L 274.881649 106.58308 
L 275.061966 106.58308 
L 275.061976 105.663585 
L 275.220145 105.663585 
L 275.220145 105.203837 
L 277.686637 105.203837 
L 277.708675 103.364848 
L 279.714516 103.364848 
L 279.714516 102.905101 
L 281.643667 102.905101 
L 281.661086 101.525859 
L 282.184107 101.525859 
L 282.184107 101.066111 
L 283.273038 101.066111 
L 283.273038 100.606364 
L 284.857235 100.606364 
L 284.871776 98.767375 
L 285.863871 98.767375 
L 285.863871 98.307627 
L 286.118486 98.307627 
L 286.118486 97.84788 
L 287.564199 97.84788 
L 287.564199 97.388132 
L 288.733216 97.388132 
L 288.733216 96.928385 
L 289.900038 96.928385 
L 289.900046 96.00889 
L 291.956658 96.00889 
L 291.956658 95.549143 
L 293.557096 95.549143 
L 293.557096 95.089396 
L 293.793842 95.089396 
L 293.793842 94.629648 
L 295.451847 94.629648 
L 295.451847 94.169901 
L 298.355022 94.169901 
L 298.361135 93.250406 
L 299.640405 93.250406 
L 299.640405 92.790659 
L 300.836636 92.790659 
L 300.837135 91.411417 
L 301.954937 91.411417 
L 301.960266 90.032175 
L 305.816793 90.032175 
L 305.816793 89.572427 
L 306.660552 89.572427 
L 306.660552 89.11268 
L 311.628864 89.11268 
L 311.628864 88.652933 
L 312.234317 88.652933 
L 312.234317 88.193185 
L 312.819197 88.193185 
L 312.819197 87.733438 
L 313.932076 87.733438 
L 313.932076 87.273691 
L 333.569032 87.273691 
L 333.569032 87.273691 
" style="fill:none;stroke:#000080;stroke-linecap:square;stroke-width:1.5;"/>
   </g>
   <g id="line2d_48">
    <defs>
     <path d="M 0 6 
C 1.591219 6 3.117479 5.367802 4.242641 4.242641 
C 5.367802 3.117479 6 1.591219 6 0 
C 6 -1.591219 5.367802 -3.117479 4.242641 -4.242641 
C 3.117479 -5.367802 1.591219 -6 0 -6 
C -1.591219 -6 -3.117479 -5.367802 -4.242641 -4.242641 
C -5.367802 -3.117479 -6 -1.591219 -6 0 
C -6 1.591219 -5.367802 3.117479 -4.242641 4.242641 
C -3.117479 5.367802 -1.591219 6 0 6 
z
" id="ma5e89d17ca" style="stroke:#000080;stroke-width:1.5;"/>
    </defs>
    <g>
     <use style="fill:none;stroke:#000080;stroke-width:1.5;" x="134.191638" xlink:href="#ma5e89d17ca" y="266.575159"/>
     <use style="fill:none;stroke:#000080;stroke-width:1.5;" x="197.428876" xlink:href="#ma5e89d17ca" y="171.407456"/>
     <use style="fill:none;stroke:#000080;stroke-width:1.5;" x="254.631642" xlink:href="#ma5e89d17ca" y="129.1107"/>
     <use style="fill:none;stroke:#000080;stroke-width:1.5;" x="313.932076" xlink:href="#ma5e89d17ca" y="87.733438"/>
     <use style="fill:none;stroke:#000080;stroke-width:1.5;" x="313.932076" xlink:href="#ma5e89d17ca" y="87.273691"/>
     <use style="fill:none;stroke:#000080;stroke-width:1.5;" x="333.569032" xlink:href="#ma5e89d17ca" y="87.273691"/>
    </g>
   </g>
   <g id="line2d_49">
    <path style="fill:none;stroke:#000080;stroke-linecap:square;stroke-width:1.5;"/>
    <g/>
   </g>
   <g id="line2d_50">
    <path clip-path="url(#p72ba53359e)" d="M 254.505758 129.570447 
" style="fill:none;stroke:#000080;stroke-linecap:square;stroke-width:1.5;"/>
    <defs>
     <path d="M -12 12 
L 12 -12 
M -12 -12 
L 12 12 
" id="md450f5ef4a" style="stroke:#000080;stroke-width:3;"/>
    </defs>
    <g clip-path="url(#p72ba53359e)">
     <use style="fill:#000080;stroke:#000080;stroke-width:3;" x="254.505758" xlink:href="#md450f5ef4a" y="129.570447"/>
    </g>
   </g>
   <g id="line2d_51">
    <defs>
     <path d="M 0 1.5 
C 0.397805 1.5 0.77937 1.341951 1.06066 1.06066 
C 1.341951 0.77937 1.5 0.397805 1.5 0 
C 1.5 -0.397805 1.341951 -0.77937 1.06066 -1.06066 
C 0.77937 -1.341951 0.397805 -1.5 0 -1.5 
C -0.397805 -1.5 -0.77937 -1.341951 -1.06066 -1.06066 
C -1.341951 -0.77937 -1.5 -0.397805 -1.5 0 
C -1.5 0.397805 -1.341951 0.77937 -1.06066 1.06066 
C -0.77937 1.341951 -0.397805 1.5 0 1.5 
z
" id="mf42be97430" style="stroke:#ff00ff;"/>
    </defs>
    <g>
     <use style="fill:#ff00ff;stroke:#ff00ff;" x="339.665146" xlink:href="#mf42be97430" y="142.443373"/>
     <use style="fill:#ff00ff;stroke:#ff00ff;" x="339.665146" xlink:href="#mf42be97430" y="142.443373"/>
    </g>
   </g>
   <g id="line2d_52">
    <path d="M 17.307281 294.16 
L 17.307281 292.321011 
L 36.169182 292.321011 
L 36.169182 291.401516 
L 44.939466 291.401516 
L 44.939466 290.941769 
L 48.069716 290.941769 
L 48.069716 286.804042 
L 50.716304 286.804042 
L 50.716304 286.344295 
L 53.008884 286.344295 
L 53.008884 285.884548 
L 56.84 285.884548 
L 56.84 284.965053 
L 61.344491 284.965053 
L 61.344491 280.827327 
L 62.616839 280.827327 
L 62.616839 280.367579 
L 65.950272 280.367579 
L 65.950272 278.52859 
L 66.931616 278.52859 
L 66.931616 275.770106 
L 71.870784 275.770106 
L 71.870784 274.390864 
L 73.892982 274.390864 
L 73.892982 273.931116 
L 74.517373 273.931116 
L 74.517373 271.172632 
L 75.11985 271.172632 
L 75.11985 270.253138 
L 75.7019 270.253138 
L 75.7019 267.494653 
L 81.478739 267.494653 
L 81.478739 267.034906 
L 82.277434 267.034906 
L 82.277434 265.655664 
L 94.563801 265.655664 
L 94.563801 265.195917 
L 94.753514 265.195917 
L 94.753514 264.736169 
L 94.941153 264.736169 
L 94.941153 262.89718 
L 95.126764 262.89718 
L 95.126764 261.058191 
L 97.046093 261.058191 
L 97.046093 260.138696 
L 99.926912 260.138696 
L 99.926912 258.299706 
L 100.744631 258.299706 
L 100.744631 257.839959 
L 106.654048 257.839959 
L 106.654048 257.380212 
L 107.302006 257.380212 
L 107.302006 256.460717 
L 110.895297 256.460717 
L 110.895297 256.00097 
L 116.017699 256.00097 
L 116.017699 255.081475 
L 119.293141 255.081475 
L 119.293141 254.16198 
L 120.847162 254.16198 
L 120.847162 251.863243 
L 122.758949 251.863243 
L 122.758949 250.943749 
L 124.378523 250.943749 
L 124.378523 249.564507 
L 124.875246 249.564507 
L 124.875246 249.104759 
L 127.390774 249.104759 
L 127.390774 247.725517 
L 131.306258 247.725517 
L 131.306258 246.806023 
L 132.456339 246.806023 
L 132.456339 246.346275 
L 135.973976 246.346275 
L 135.973976 245.42678 
L 137.034937 245.42678 
L 137.034937 244.967033 
L 140.943044 244.967033 
L 140.943044 244.507286 
L 142.958128 244.507286 
L 142.958128 244.047538 
L 147.520323 244.047538 
L 147.520323 243.128044 
L 147.668069 243.128044 
L 147.668069 242.668296 
L 148.371704 242.668296 
L 148.371704 240.829307 
L 148.668152 240.829307 
L 148.668152 240.36956 
L 149.45014 240.36956 
L 149.45014 238.990318 
L 152.996531 238.990318 
L 152.996531 238.53057 
L 153.820298 238.53057 
L 153.820298 238.070823 
L 155.621352 238.070823 
L 155.621352 236.231833 
L 159.637693 236.231833 
L 159.637693 235.772086 
L 160.682603 235.772086 
L 160.682603 234.852591 
L 162.438725 234.852591 
L 162.438725 234.392844 
L 163.032364 234.392844 
L 163.032364 233.473349 
L 163.51013 233.473349 
L 163.51013 232.553855 
L 165.205176 232.553855 
L 165.205176 232.094107 
L 167.554527 232.094107 
L 167.554527 230.714865 
L 168.495666 230.714865 
L 168.495666 230.255118 
L 170.603969 230.255118 
L 170.603969 229.79537 
L 171.015367 229.79537 
L 171.015367 227.956381 
L 171.345378 227.956381 
L 171.345378 227.496634 
L 174.186663 227.496634 
L 174.186663 225.657644 
L 175.642956 225.657644 
L 175.642956 224.278402 
L 177.806327 224.278402 
L 177.806327 223.818655 
L 178.923817 223.818655 
L 178.923817 222.439413 
L 185.270289 222.439413 
L 185.270289 221.060171 
L 186.606499 221.060171 
L 186.606499 220.140676 
L 187.168739 220.140676 
L 187.168739 219.221181 
L 188.800139 219.221181 
L 188.800139 217.382192 
L 189.995333 217.382192 
L 189.995333 216.922445 
L 192.707245 216.922445 
L 192.707245 216.00295 
L 194.794763 216.00295 
L 194.794763 214.623708 
L 199.892778 214.623708 
L 199.908059 213.244466 
L 201.885936 213.244466 
L 201.885936 212.784718 
L 202.409846 212.784718 
L 202.409846 211.865224 
L 202.621218 211.865224 
L 202.621218 210.945729 
L 205.376779 210.945729 
L 205.376779 209.566487 
L 208.733984 209.566487 
L 208.733984 208.646992 
L 210.547864 208.646992 
L 210.547864 208.187245 
L 211.028662 208.187245 
L 211.028662 207.26775 
L 212.01724 207.26775 
L 212.01724 205.428761 
L 213.194547 205.428761 
L 213.194547 204.509266 
L 214.317337 204.509266 
L 214.317337 204.049519 
L 216.035306 204.049519 
L 216.035306 202.210529 
L 218.827246 202.210529 
L 218.827246 201.750782 
L 224.437268 201.750782 
L 224.437268 200.831287 
L 225.455326 200.831287 
L 225.455326 199.452045 
L 226.711599 199.452045 
L 226.711599 198.992298 
L 230.380738 198.992298 
L 230.380738 198.53255 
L 232.392748 198.53255 
L 232.392748 197.613056 
L 234.834967 197.613056 
L 234.834967 197.153308 
L 234.961096 197.153308 
L 234.998087 195.774066 
L 239.922168 195.774066 
L 239.922168 195.314319 
L 241.6013 195.314319 
L 241.6013 194.394824 
L 244.565085 194.394824 
L 244.565085 193.015582 
L 248.628582 193.015582 
L 248.628582 192.096087 
L 252.111383 192.096087 
L 252.111383 189.797351 
L 257.362867 189.797351 
L 257.362867 188.418109 
L 258.809539 188.418109 
L 258.915799 187.038867 
L 262.289338 187.038867 
L 262.289338 186.579119 
L 264.25427 186.579119 
L 264.25427 185.659624 
L 269.245231 185.659624 
L 269.245231 184.74013 
L 273.734522 184.74013 
L 273.734522 183.820635 
L 279.805528 183.820635 
L 279.805528 181.981646 
L 280.309397 181.981646 
L 280.309397 181.521898 
L 280.641669 181.521898 
L 280.641669 180.142656 
L 281.723233 180.142656 
L 281.723233 179.223161 
L 285.690151 179.223161 
L 285.690151 177.843919 
L 286.704003 177.843919 
L 286.704003 176.464677 
L 290.538967 176.464677 
L 290.538967 176.00493 
L 293.308544 176.00493 
L 293.308544 175.085435 
L 294.040959 175.085435 
L 294.119738 174.165941 
L 294.168499 174.165941 
L 294.168499 173.246446 
L 294.331744 173.246446 
L 294.430768 170.487962 
L 294.738052 170.487962 
L 294.827583 168.648972 
L 295.091661 168.648972 
L 295.091661 168.189225 
L 295.98955 168.189225 
L 295.98955 167.729478 
L 296.826432 167.729478 
L 296.826432 167.26973 
L 297.673941 167.26973 
L 297.673941 166.809983 
L 298.042108 166.809983 
L 298.042108 165.890488 
L 298.626671 165.890488 
L 298.626671 164.970994 
L 300.513947 164.970994 
L 300.513947 164.511246 
L 300.861263 164.511246 
L 300.861263 164.051499 
L 302.659181 164.051499 
L 302.659181 163.591751 
L 304.614609 163.591751 
L 304.614609 162.672257 
L 306.019287 162.672257 
L 306.106108 160.37352 
L 306.337041 160.37352 
L 306.337041 159.913773 
L 306.941227 159.913773 
L 307.012434 158.534531 
L 307.237327 158.534531 
L 307.237327 158.074783 
L 310.784028 158.074783 
L 310.784028 157.615036 
L 311.809713 157.615036 
L 311.809713 157.155288 
L 312.028131 157.155288 
L 312.028131 156.695541 
L 312.926067 156.695541 
L 312.926067 156.235794 
L 313.257253 156.235794 
L 313.257253 155.776046 
L 313.574286 155.776046 
L 313.622705 154.396804 
L 314.568457 154.396804 
L 314.568457 153.937057 
L 315.230656 153.937057 
L 315.230656 153.47731 
L 315.486471 153.47731 
L 315.486471 153.017562 
L 316.276646 153.017562 
L 316.276646 152.557815 
L 317.858276 152.557815 
L 317.878651 151.63832 
L 318.038644 151.63832 
L 318.038644 151.178573 
L 318.578558 151.178573 
L 318.578558 150.718826 
L 318.929797 150.718826 
L 318.929797 150.259078 
L 319.814228 150.259078 
L 319.814228 148.879836 
L 320.431467 148.879836 
L 320.431467 148.420089 
L 321.73162 148.420089 
L 321.829696 147.500594 
L 321.884821 147.500594 
L 321.884821 147.040847 
L 322.200568 147.040847 
L 322.263976 146.121352 
L 322.460297 146.121352 
L 322.460297 145.661605 
L 323.267766 145.661605 
L 323.267766 145.201857 
L 327.872775 145.201857 
L 327.872775 144.74211 
L 330.112503 144.74211 
L 330.112503 144.282363 
L 333.569032 144.282363 
L 333.569032 144.282363 
" style="fill:none;stroke:#ff00ff;stroke-linecap:square;stroke-width:1.5;"/>
   </g>
   <g id="line2d_53">
    <defs>
     <path d="M -0 8.485281 
L 5.091169 0 
L 0 -8.485281 
L -5.091169 -0 
z
" id="ma4067ef9f8" style="stroke:#ff00ff;stroke-linejoin:miter;stroke-width:1.5;"/>
    </defs>
    <g>
     <use style="fill:none;stroke:#ff00ff;stroke-linejoin:miter;stroke-width:1.5;" x="75.7019" xlink:href="#ma4067ef9f8" y="270.253138"/>
     <use style="fill:none;stroke:#ff00ff;stroke-linejoin:miter;stroke-width:1.5;" x="163.51013" xlink:href="#ma4067ef9f8" y="233.473349"/>
     <use style="fill:none;stroke:#ff00ff;stroke-linejoin:miter;stroke-width:1.5;" x="232.392748" xlink:href="#ma4067ef9f8" y="197.613056"/>
     <use style="fill:none;stroke:#ff00ff;stroke-linejoin:miter;stroke-width:1.5;" x="295.98955" xlink:href="#ma4067ef9f8" y="168.189225"/>
     <use style="fill:none;stroke:#ff00ff;stroke-linejoin:miter;stroke-width:1.5;" x="330.112503" xlink:href="#ma4067ef9f8" y="144.282363"/>
     <use style="fill:none;stroke:#ff00ff;stroke-linejoin:miter;stroke-width:1.5;" x="333.569032" xlink:href="#ma4067ef9f8" y="144.282363"/>
    </g>
   </g>
   <g id="line2d_54">
    <path style="fill:none;stroke:#ff00ff;stroke-linecap:square;stroke-width:1.5;"/>
    <g/>
   </g>
   <g id="line2d_55">
    <path clip-path="url(#p72ba53359e)" d="M 294.036313 175.085435 
" style="fill:none;stroke:#ff00ff;stroke-linecap:square;stroke-width:1.5;"/>
    <defs>
     <path d="M -12 12 
L 12 -12 
M -12 -12 
L 12 12 
" id="me642cd4b2e" style="stroke:#ff00ff;stroke-width:3;"/>
    </defs>
    <g clip-path="url(#p72ba53359e)">
     <use style="fill:#ff00ff;stroke:#ff00ff;stroke-width:3;" x="294.036313" xlink:href="#me642cd4b2e" y="175.085435"/>
    </g>
   </g>
   <g id="line2d_56">
    <defs>
     <path d="M 0 1.5 
C 0.397805 1.5 0.77937 1.341951 1.06066 1.06066 
C 1.341951 0.77937 1.5 0.397805 1.5 0 
C 1.5 -0.397805 1.341951 -0.77937 1.06066 -1.06066 
C 0.77937 -1.341951 0.397805 -1.5 0 -1.5 
C -0.397805 -1.5 -0.77937 -1.341951 -1.06066 -1.06066 
C -1.341951 -0.77937 -1.5 -0.397805 -1.5 0 
C -1.5 0.397805 -1.341951 0.77937 -1.06066 1.06066 
C -0.77937 1.341951 -0.397805 1.5 0 1.5 
z
" id="mfe6033ba81" style="stroke:#ffa500;"/>
    </defs>
    <g>
     <use style="fill:#ffa500;stroke:#ffa500;" x="191.104441" xlink:href="#mfe6033ba81" y="280.367579"/>
     <use style="fill:#ffa500;stroke:#ffa500;" x="191.104441" xlink:href="#mfe6033ba81" y="280.367579"/>
    </g>
   </g>
   <g id="line2d_57">
    <path d="M 17.307281 294.16 
L 17.307281 287.26379 
L 155.330302 287.26379 
L 155.330302 286.804042 
L 155.440712 286.804042 
L 155.440712 286.344295 
L 155.50662 286.344295 
L 155.50662 285.884548 
L 167.239141 285.884548 
L 167.239141 284.965053 
L 167.272323 284.965053 
L 167.272323 284.505306 
L 167.283369 284.505306 
L 167.283369 284.045558 
L 174.173731 284.045558 
L 174.173731 283.585811 
L 174.181122 283.585811 
L 174.181122 283.126064 
L 174.328274 283.126064 
L 174.328274 282.666316 
L 179.154892 282.666316 
L 179.154892 282.206569 
L 179.182523 282.206569 
L 179.182523 281.746821 
L 182.997895 281.746821 
L 182.997895 281.287074 
L 186.15079 281.287074 
L 186.15079 280.827327 
L 191.104441 280.827327 
L 191.104441 280.367579 
L 333.569032 280.367579 
" style="fill:none;stroke:#ffa500;stroke-linecap:square;stroke-width:1.5;"/>
   </g>
   <g id="line2d_58">
    <defs>
     <path d="M 0 -6 
L -1.347084 -1.854102 
L -5.706339 -1.854102 
L -2.179628 0.708204 
L -3.526712 4.854102 
L -0 2.291796 
L 3.526712 4.854102 
L 2.179628 0.708204 
L 5.706339 -1.854102 
L 1.347084 -1.854102 
z
" id="m1ffdf3fd30" style="stroke:#ffa500;stroke-linejoin:bevel;stroke-width:1.5;"/>
    </defs>
    <g>
     <use style="fill:none;stroke:#ffa500;stroke-linejoin:bevel;stroke-width:1.5;" x="174.328274" xlink:href="#m1ffdf3fd30" y="282.666316"/>
     <use style="fill:none;stroke:#ffa500;stroke-linejoin:bevel;stroke-width:1.5;" x="191.104441" xlink:href="#m1ffdf3fd30" y="280.827327"/>
     <use style="fill:none;stroke:#ffa500;stroke-linejoin:bevel;stroke-width:1.5;" x="191.104441" xlink:href="#m1ffdf3fd30" y="280.367579"/>
     <use style="fill:none;stroke:#ffa500;stroke-linejoin:bevel;stroke-width:1.5;" x="191.104441" xlink:href="#m1ffdf3fd30" y="280.367579"/>
     <use style="fill:none;stroke:#ffa500;stroke-linejoin:bevel;stroke-width:1.5;" x="333.569032" xlink:href="#m1ffdf3fd30" y="280.367579"/>
    </g>
   </g>
   <g id="line2d_59">
    <path style="fill:none;stroke:#ffa500;stroke-linecap:square;stroke-width:1.5;"/>
    <g/>
   </g>
   <g id="line2d_60">
    <path clip-path="url(#p72ba53359e)" d="M 155.369026 286.804042 
" style="fill:none;stroke:#ffa500;stroke-linecap:square;stroke-width:1.5;"/>
    <defs>
     <path d="M -12 12 
L 12 -12 
M -12 -12 
L 12 12 
" id="m0e774d0bb9" style="stroke:#ffa500;stroke-width:3;"/>
    </defs>
    <g clip-path="url(#p72ba53359e)">
     <use style="fill:#ffa500;stroke:#ffa500;stroke-width:3;" x="155.369026" xlink:href="#m0e774d0bb9" y="286.804042"/>
    </g>
   </g>
   <g id="line2d_61">
    <defs>
     <path d="M 0 1.5 
C 0.397805 1.5 0.77937 1.341951 1.06066 1.06066 
C 1.341951 0.77937 1.5 0.397805 1.5 0 
C 1.5 -0.397805 1.341951 -0.77937 1.06066 -1.06066 
C 0.77937 -1.341951 0.397805 -1.5 0 -1.5 
C -0.397805 -1.5 -0.77937 -1.341951 -1.06066 -1.06066 
C -1.341951 -0.77937 -1.5 -0.397805 -1.5 0 
C -1.5 0.397805 -1.341951 0.77937 -1.06066 1.06066 
C -0.77937 1.341951 -0.397805 1.5 0 1.5 
z
" id="m884b514dec" style="stroke:#6495ed;"/>
    </defs>
    <g>
     <use style="fill:#6495ed;stroke:#6495ed;" x="239.465735" xlink:href="#m884b514dec" y="128.650953"/>
     <use style="fill:#6495ed;stroke:#6495ed;" x="239.465735" xlink:href="#m884b514dec" y="128.650953"/>
    </g>
   </g>
   <g id="line2d_62">
    <path d="M 17.307281 294.16 
L 17.307281 287.26379 
L 29.207815 287.26379 
L 29.207815 285.884548 
L 44.939466 285.884548 
L 44.939466 285.4248 
L 50.716304 285.4248 
L 50.716304 284.505306 
L 58.476365 284.505306 
L 58.476365 283.585811 
L 63.801366 283.585811 
L 63.801366 282.206569 
L 64.909418 282.206569 
L 64.909418 281.746821 
L 68.740534 281.746821 
L 68.740534 280.827327 
L 69.578205 280.827327 
L 69.578205 279.907832 
L 71.140085 279.907832 
L 71.140085 278.52859 
L 81.88273 278.52859 
L 81.88273 277.609095 
L 82.663267 277.609095 
L 82.663267 276.689601 
L 83.040619 276.689601 
L 83.040619 275.310358 
L 92.325639 275.310358 
L 92.325639 274.390864 
L 94.753514 274.390864 
L 94.753514 273.471369 
L 96.025862 273.471369 
L 96.025862 271.63238 
L 96.372719 271.63238 
L 96.372719 270.253138 
L 96.880209 270.253138 
L 96.880209 269.333643 
L 102.149557 269.333643 
L 102.149557 268.873896 
L 107.027298 268.873896 
L 107.027298 268.414148 
L 107.572387 268.414148 
L 107.572387 267.954401 
L 109.273663 267.954401 
L 109.273663 267.494653 
L 109.673887 267.494653 
L 109.673887 265.655664 
L 110.142157 265.655664 
L 110.142157 265.195917 
L 110.371588 265.195917 
L 110.371588 264.276422 
L 110.747289 264.276422 
L 110.747289 262.89718 
L 112.035556 262.89718 
L 112.035556 261.977685 
L 112.57849 261.977685 
L 112.645165 259.678948 
L 115.234619 259.678948 
L 115.234619 257.839959 
L 116.126708 257.839959 
L 116.126708 257.380212 
L 116.288934 257.380212 
L 116.39624 256.460717 
L 117.332955 256.460717 
L 117.433948 254.621728 
L 117.881208 254.621728 
L 117.881208 254.16198 
L 119.157059 254.16198 
L 119.157059 253.702233 
L 119.695031 253.702233 
L 119.695031 253.242485 
L 120.001235 253.242485 
L 120.001235 251.863243 
L 121.174197 251.863243 
L 121.174197 250.943749 
L 121.45533 250.943749 
L 121.45533 250.024254 
L 121.574421 250.024254 
L 121.574421 249.564507 
L 121.731935 249.564507 
L 121.810153 248.185265 
L 122.832635 248.185265 
L 122.832635 247.725517 
L 123.587826 247.725517 
L 123.587826 247.26577 
L 124.777044 247.26577 
L 124.777044 246.806023 
L 124.940403 246.806023 
L 124.940403 246.346275 
L 125.230587 246.346275 
L 125.230587 244.967033 
L 125.889199 244.967033 
L 125.889199 244.507286 
L 126.133599 244.507286 
L 126.133599 243.587791 
L 126.493798 243.587791 
L 126.582679 240.36956 
L 126.904696 240.36956 
L 126.904696 239.909812 
L 127.077828 239.909812 
L 127.077828 238.070823 
L 127.277634 238.070823 
L 127.277634 235.312339 
L 128.56214 235.312339 
L 128.56214 234.852591 
L 130.712595 234.852591 
L 130.758998 233.013602 
L 131.639644 233.013602 
L 131.705551 231.63436 
L 132.41431 231.63436 
L 132.51919 225.197897 
L 132.581812 225.197897 
L 132.581812 223.358907 
L 133.155526 223.358907 
L 133.155526 221.979665 
L 133.612858 221.979665 
L 133.612858 221.519918 
L 135.541053 221.519918 
L 135.611058 219.221181 
L 136.889643 219.221181 
L 136.889643 218.761434 
L 137.33769 218.761434 
L 137.33769 218.301687 
L 138.200163 218.301687 
L 138.200163 217.841939 
L 138.80523 217.841939 
L 138.80523 217.382192 
L 139.403707 217.382192 
L 139.403707 216.922445 
L 139.570937 216.922445 
L 139.570937 216.00295 
L 139.722814 216.00295 
L 139.722814 215.543202 
L 140.009081 215.543202 
L 140.009081 214.623708 
L 140.475836 214.623708 
L 140.475836 213.704213 
L 141.019691 213.704213 
L 141.019691 213.244466 
L 141.347928 213.244466 
L 141.347928 210.945729 
L 141.645446 210.945729 
L 141.645446 210.485982 
L 142.058296 210.485982 
L 142.058296 210.026234 
L 142.55495 210.026234 
L 142.613129 209.10674 
L 143.791461 209.10674 
L 143.899577 207.26775 
L 144.730575 207.26775 
L 144.730575 206.808003 
L 145.37549 206.808003 
L 145.37549 206.348255 
L 145.650197 206.348255 
L 145.650197 205.428761 
L 145.939729 205.428761 
L 145.939729 204.049519 
L 146.186767 204.049519 
L 146.186767 202.210529 
L 146.761898 202.210529 
L 146.761898 201.750782 
L 148.668152 201.750782 
L 148.668152 200.37154 
L 149.379791 200.37154 
L 149.379791 199.911792 
L 150.138208 199.911792 
L 150.175638 198.53255 
L 150.34677 198.53255 
L 150.376358 197.153308 
L 151.043193 197.153308 
L 151.043193 196.233814 
L 151.248133 196.233814 
L 151.248133 195.314319 
L 151.650818 195.314319 
L 151.650818 194.854572 
L 153.856545 194.854572 
L 153.856545 193.935077 
L 154.606343 193.935077 
L 154.606343 193.475329 
L 155.185698 193.475329 
L 155.185698 191.176593 
L 155.697417 191.176593 
L 155.697417 190.257098 
L 157.44823 190.257098 
L 157.44823 189.337603 
L 157.676795 189.337603 
L 157.676795 188.877856 
L 158.506642 188.877856 
L 158.506642 187.958361 
L 159.706506 187.958361 
L 159.706506 186.119372 
L 161.338969 186.119372 
L 161.338969 185.199877 
L 161.816233 185.199877 
L 161.816233 184.74013 
L 162.904582 184.74013 
L 162.904582 182.90114 
L 163.766157 182.90114 
L 163.766157 180.602404 
L 163.928033 180.602404 
L 163.928033 180.142656 
L 164.204392 180.142656 
L 164.204392 179.682909 
L 164.407965 179.682909 
L 164.407965 178.763414 
L 164.8335 178.763414 
L 164.855775 176.924425 
L 166.121307 176.924425 
L 166.121307 176.464677 
L 166.807515 176.464677 
L 166.807515 175.545183 
L 168.811728 175.545183 
L 168.811728 174.625688 
L 169.521684 174.625688 
L 169.521684 174.165941 
L 170.37262 174.165941 
L 170.37262 173.246446 
L 171.115038 173.246446 
L 171.115038 172.786699 
L 171.745974 172.786699 
L 171.745974 171.867204 
L 173.135764 171.867204 
L 173.135764 171.407456 
L 173.735736 171.407456 
L 173.735736 170.947709 
L 174.012189 170.947709 
L 174.012189 170.028214 
L 174.282424 170.028214 
L 174.282424 169.568467 
L 175.493009 169.568467 
L 175.493009 169.10872 
L 176.169214 169.10872 
L 176.169214 168.648972 
L 178.182086 168.648972 
L 178.249266 167.729478 
L 179.099495 167.729478 
L 179.204596 166.809983 
L 179.582308 166.809983 
L 179.582308 166.350236 
L 179.885764 166.350236 
L 179.895037 165.430741 
L 180.401344 165.430741 
L 180.401344 164.970994 
L 181.245627 164.970994 
L 181.245627 164.511246 
L 182.289289 164.511246 
L 182.289289 164.051499 
L 182.84467 164.051499 
L 182.851361 163.132004 
L 183.212103 163.132004 
L 183.212103 162.212509 
L 183.615612 162.212509 
L 183.616679 161.293015 
L 184.259186 161.293015 
L 184.259186 160.833267 
L 185.134182 160.833267 
L 185.241214 159.913773 
L 189.872083 159.913773 
L 189.872083 159.454025 
L 190.09944 159.454025 
L 190.09944 158.994278 
L 190.650397 158.994278 
L 190.658182 158.074783 
L 192.630467 158.074783 
L 192.630467 157.615036 
L 192.882171 157.615036 
L 192.882171 157.155288 
L 194.622643 157.155288 
L 194.622643 156.695541 
L 194.785308 156.695541 
L 194.793095 155.316299 
L 196.501903 155.316299 
L 196.501903 154.856552 
L 196.714531 154.856552 
L 196.724472 153.937057 
L 196.977032 153.937057 
L 196.977032 153.47731 
L 197.357663 153.47731 
L 197.363888 152.557815 
L 199.983028 152.557815 
L 199.983028 152.098068 
L 201.32274 152.098068 
L 201.429615 150.718826 
L 201.619357 150.718826 
L 201.619357 150.259078 
L 201.914609 150.259078 
L 201.914609 149.799331 
L 202.869324 149.799331 
L 202.869324 149.339583 
L 203.214638 149.339583 
L 203.214638 148.879836 
L 203.972967 148.879836 
L 203.972967 148.420089 
L 205.186899 148.420089 
L 205.263829 147.500594 
L 207.1125 147.500594 
L 207.1125 147.040847 
L 208.205994 147.040847 
L 208.205994 146.581099 
L 209.385836 146.581099 
L 209.385836 146.121352 
L 210.847344 146.121352 
L 210.852364 145.201857 
L 211.803019 145.201857 
L 211.805084 144.282363 
L 212.201608 144.282363 
L 212.26142 143.362868 
L 212.980539 143.362868 
L 213.085673 141.983626 
L 213.917311 141.983626 
L 213.919867 141.064131 
L 214.999181 141.064131 
L 214.999181 140.604384 
L 215.188903 140.604384 
L 215.189581 139.684889 
L 215.79546 139.684889 
L 215.79546 139.225142 
L 216.948912 139.225142 
L 216.948912 138.765394 
L 217.49271 138.765394 
L 217.496563 136.926405 
L 217.827256 136.926405 
L 217.827256 136.466658 
L 219.349308 136.466658 
L 219.349308 136.00691 
L 221.335621 136.00691 
L 221.33811 135.087416 
L 221.767434 135.087416 
L 221.767434 134.627668 
L 222.49299 134.627668 
L 222.49299 134.167921 
L 225.186517 134.167921 
L 225.186517 133.708173 
L 225.784314 133.708173 
L 225.784314 133.248426 
L 226.725284 133.248426 
L 226.725284 132.788679 
L 228.888418 132.788679 
L 228.889792 131.869184 
L 229.354437 131.869184 
L 229.354437 131.409437 
L 229.701166 131.409437 
L 229.701166 130.949689 
L 232.984509 130.949689 
L 233.053457 130.030195 
L 233.272617 130.030195 
L 233.272617 129.570447 
L 234.642682 129.570447 
L 234.642682 129.1107 
L 239.465735 129.1107 
L 239.465735 128.650953 
L 333.569032 128.650953 
L 333.569032 128.650953 
" style="fill:none;stroke:#6495ed;stroke-linecap:square;stroke-width:1.5;"/>
   </g>
   <g id="line2d_63">
    <defs>
     <path d="M -0 6 
L 6 -6 
L -6 -6 
z
" id="mae4d90c1c7" style="stroke:#6495ed;stroke-linejoin:miter;stroke-width:1.5;"/>
    </defs>
    <g>
     <use style="fill:none;stroke:#6495ed;stroke-linejoin:miter;stroke-width:1.5;" x="117.332955" xlink:href="#mae4d90c1c7" y="256.00097"/>
     <use style="fill:none;stroke:#6495ed;stroke-linejoin:miter;stroke-width:1.5;" x="164.855775" xlink:href="#mae4d90c1c7" y="176.924425"/>
     <use style="fill:none;stroke:#6495ed;stroke-linejoin:miter;stroke-width:1.5;" x="219.349308" xlink:href="#mae4d90c1c7" y="136.466658"/>
     <use style="fill:none;stroke:#6495ed;stroke-linejoin:miter;stroke-width:1.5;" x="239.465735" xlink:href="#mae4d90c1c7" y="128.650953"/>
     <use style="fill:none;stroke:#6495ed;stroke-linejoin:miter;stroke-width:1.5;" x="239.465735" xlink:href="#mae4d90c1c7" y="128.650953"/>
     <use style="fill:none;stroke:#6495ed;stroke-linejoin:miter;stroke-width:1.5;" x="333.569032" xlink:href="#mae4d90c1c7" y="128.650953"/>
    </g>
   </g>
   <g id="line2d_64">
    <path style="fill:none;stroke:#6495ed;stroke-linecap:square;stroke-width:1.5;"/>
    <g/>
   </g>
   <g id="line2d_65">
    <path clip-path="url(#p72ba53359e)" d="M 176.924027 168.648972 
" style="fill:none;stroke:#6495ed;stroke-linecap:square;stroke-width:1.5;"/>
    <defs>
     <path d="M -12 12 
L 12 -12 
M -12 -12 
L 12 12 
" id="m6a3a8e834e" style="stroke:#6495ed;stroke-width:3;"/>
    </defs>
    <g clip-path="url(#p72ba53359e)">
     <use style="fill:#6495ed;stroke:#6495ed;stroke-width:3;" x="176.924027" xlink:href="#m6a3a8e834e" y="168.648972"/>
    </g>
   </g>
   <g id="line2d_66">
    <path d="M 333.569032 280.367579 
L 364.009226 288.826931 
" style="fill:none;stroke:#ffa500;stroke-linecap:square;stroke-width:1.5;"/>
    <g>
     <use style="fill:none;stroke:#ffa500;stroke-linejoin:bevel;stroke-width:1.5;" x="333.569032" xlink:href="#m1ffdf3fd30" y="280.367579"/>
     <use style="fill:none;stroke:#ffa500;stroke-linejoin:bevel;stroke-width:1.5;" x="364.009226" xlink:href="#m1ffdf3fd30" y="288.826931"/>
    </g>
   </g>
   <g id="line2d_67">
    <path d="M 333.569032 144.282363 
L 364.009226 224.830099 
" style="fill:none;stroke:#ff00ff;stroke-linecap:square;stroke-width:1.5;"/>
    <g>
     <use style="fill:none;stroke:#ff00ff;stroke-linejoin:miter;stroke-width:1.5;" x="333.569032" xlink:href="#ma4067ef9f8" y="144.282363"/>
     <use style="fill:none;stroke:#ff00ff;stroke-linejoin:miter;stroke-width:1.5;" x="364.009226" xlink:href="#ma4067ef9f8" y="224.830099"/>
    </g>
   </g>
   <g id="line2d_68">
    <path d="M 333.569032 128.650953 
L 364.009226 160.833267 
" style="fill:none;stroke:#6495ed;stroke-linecap:square;stroke-width:1.5;"/>
    <g>
     <use style="fill:none;stroke:#6495ed;stroke-linejoin:miter;stroke-width:1.5;" x="333.569032" xlink:href="#mae4d90c1c7" y="128.650953"/>
     <use style="fill:none;stroke:#6495ed;stroke-linejoin:miter;stroke-width:1.5;" x="364.009226" xlink:href="#mae4d90c1c7" y="160.833267"/>
    </g>
   </g>
   <g id="line2d_69">
    <path d="M 333.569032 87.273691 
L 364.009226 96.836436 
" style="fill:none;stroke:#000080;stroke-linecap:square;stroke-width:1.5;"/>
    <g>
     <use style="fill:none;stroke:#000080;stroke-width:1.5;" x="333.569032" xlink:href="#ma5e89d17ca" y="87.273691"/>
     <use style="fill:none;stroke:#000080;stroke-width:1.5;" x="364.009226" xlink:href="#ma5e89d17ca" y="96.836436"/>
    </g>
   </g>
   <g id="line2d_70">
    <path d="M 333.569032 294.16 
L 333.569032 27.506535 
" style="fill:none;stroke:#000000;stroke-linecap:square;stroke-width:1.5;"/>
   </g>
   <g id="patch_3">
    <path d="M 56.84 294.16 
L 56.84 24.84 
" style="fill:none;stroke:#000000;stroke-linecap:square;stroke-linejoin:miter;stroke-width:0.8;"/>
   </g>
   <g id="patch_4">
    <path d="M 399.984 294.16 
L 399.984 24.84 
" style="fill:none;stroke:#000000;stroke-linecap:square;stroke-linejoin:miter;stroke-width:0.8;"/>
   </g>
   <g id="patch_5">
    <path d="M 56.84 294.16 
L 399.984 294.16 
" style="fill:none;stroke:#000000;stroke-linecap:square;stroke-linejoin:miter;stroke-width:0.8;"/>
   </g>
   <g id="patch_6">
    <path d="M 56.84 24.84 
L 399.984 24.84 
" style="fill:none;stroke:#000000;stroke-linecap:square;stroke-linejoin:miter;stroke-width:0.8;"/>
   </g>
   <g id="text_14">
    <!-- adaptiveH -->
    <defs>
     <path d="M 9.8125 72.90625 
L 19.671875 72.90625 
L 19.671875 43.015625 
L 55.515625 43.015625 
L 55.515625 72.90625 
L 65.375 72.90625 
L 65.375 0 
L 55.515625 0 
L 55.515625 34.71875 
L 19.671875 34.71875 
L 19.671875 0 
L 9.8125 0 
z
" id="DejaVuSans-48"/>
    </defs>
    <g transform="translate(369.543806 293.517868)scale(0.17 -0.17)">
     <use xlink:href="#DejaVuSans-61"/>
     <use x="61.279297" xlink:href="#DejaVuSans-64"/>
     <use x="124.755859" xlink:href="#DejaVuSans-61"/>
     <use x="186.035156" xlink:href="#DejaVuSans-70"/>
     <use x="249.511719" xlink:href="#DejaVuSans-74"/>
     <use x="288.720703" xlink:href="#DejaVuSans-69"/>
     <use x="316.503906" xlink:href="#DejaVuSans-76"/>
     <use x="375.683594" xlink:href="#DejaVuSans-65"/>
     <use x="437.207031" xlink:href="#DejaVuSans-48"/>
    </g>
   </g>
   <g id="text_15">
    <!-- RANDOMSEA -->
    <defs>
     <path d="M 44.390625 34.1875 
Q 47.5625 33.109375 50.5625 29.59375 
Q 53.5625 26.078125 56.59375 19.921875 
L 66.609375 0 
L 56 0 
L 46.6875 18.703125 
Q 43.0625 26.03125 39.671875 28.421875 
Q 36.28125 30.8125 30.421875 30.8125 
L 19.671875 30.8125 
L 19.671875 0 
L 9.8125 0 
L 9.8125 72.90625 
L 32.078125 72.90625 
Q 44.578125 72.90625 50.734375 67.671875 
Q 56.890625 62.453125 56.890625 51.90625 
Q 56.890625 45.015625 53.6875 40.46875 
Q 50.484375 35.9375 44.390625 34.1875 
M 19.671875 64.796875 
L 19.671875 38.921875 
L 32.078125 38.921875 
Q 39.203125 38.921875 42.84375 42.21875 
Q 46.484375 45.515625 46.484375 51.90625 
Q 46.484375 58.296875 42.84375 61.546875 
Q 39.203125 64.796875 32.078125 64.796875 
z
" id="DejaVuSans-52"/>
     <path d="M 34.1875 63.1875 
L 20.796875 26.90625 
L 47.609375 26.90625 
z
M 28.609375 72.90625 
L 39.796875 72.90625 
L 67.578125 0 
L 57.328125 0 
L 50.6875 18.703125 
L 17.828125 18.703125 
L 11.1875 0 
L 0.78125 0 
z
" id="DejaVuSans-41"/>
     <path d="M 9.8125 72.90625 
L 23.09375 72.90625 
L 55.421875 11.921875 
L 55.421875 72.90625 
L 64.984375 72.90625 
L 64.984375 0 
L 51.703125 0 
L 19.390625 60.984375 
L 19.390625 0 
L 9.8125 0 
z
" id="DejaVuSans-4e"/>
     <path d="M 19.671875 64.796875 
L 19.671875 8.109375 
L 31.59375 8.109375 
Q 46.6875 8.109375 53.6875 14.9375 
Q 60.6875 21.78125 60.6875 36.53125 
Q 60.6875 51.171875 53.6875 57.984375 
Q 46.6875 64.796875 31.59375 64.796875 
z
M 9.8125 72.90625 
L 30.078125 72.90625 
Q 51.265625 72.90625 61.171875 64.09375 
Q 71.09375 55.28125 71.09375 36.53125 
Q 71.09375 17.671875 61.125 8.828125 
Q 51.171875 0 30.078125 0 
L 9.8125 0 
z
" id="DejaVuSans-44"/>
     <path d="M 39.40625 66.21875 
Q 28.65625 66.21875 22.328125 58.203125 
Q 16.015625 50.203125 16.015625 36.375 
Q 16.015625 22.609375 22.328125 14.59375 
Q 28.65625 6.59375 39.40625 6.59375 
Q 50.140625 6.59375 56.421875 14.59375 
Q 62.703125 22.609375 62.703125 36.375 
Q 62.703125 50.203125 56.421875 58.203125 
Q 50.140625 66.21875 39.40625 66.21875 
M 39.40625 74.21875 
Q 54.734375 74.21875 63.90625 63.9375 
Q 73.09375 53.65625 73.09375 36.375 
Q 73.09375 19.140625 63.90625 8.859375 
Q 54.734375 -1.421875 39.40625 -1.421875 
Q 24.03125 -1.421875 14.8125 8.828125 
Q 5.609375 19.09375 5.609375 36.375 
Q 5.609375 53.65625 14.8125 63.9375 
Q 24.03125 74.21875 39.40625 74.21875 
" id="DejaVuSans-4f"/>
     <path d="M 9.8125 72.90625 
L 24.515625 72.90625 
L 43.109375 23.296875 
L 61.8125 72.90625 
L 76.515625 72.90625 
L 76.515625 0 
L 66.890625 0 
L 66.890625 64.015625 
L 48.09375 14.015625 
L 38.1875 14.015625 
L 19.390625 64.015625 
L 19.390625 0 
L 9.8125 0 
z
" id="DejaVuSans-4d"/>
     <path d="M 53.515625 70.515625 
L 53.515625 60.890625 
Q 47.90625 63.578125 42.921875 64.890625 
Q 37.9375 66.21875 33.296875 66.21875 
Q 25.25 66.21875 20.875 63.09375 
Q 16.5 59.96875 16.5 54.203125 
Q 16.5 49.359375 19.40625 46.890625 
Q 22.3125 44.4375 30.421875 42.921875 
L 36.375 41.703125 
Q 47.40625 39.59375 52.65625 34.296875 
Q 57.90625 29 57.90625 20.125 
Q 57.90625 9.515625 50.796875 4.046875 
Q 43.703125 -1.421875 29.984375 -1.421875 
Q 24.8125 -1.421875 18.96875 -0.25 
Q 13.140625 0.921875 6.890625 3.21875 
L 6.890625 13.375 
Q 12.890625 10.015625 18.65625 8.296875 
Q 24.421875 6.59375 29.984375 6.59375 
Q 38.421875 6.59375 43.015625 9.90625 
Q 47.609375 13.234375 47.609375 19.390625 
Q 47.609375 24.75 44.3125 27.78125 
Q 41.015625 30.8125 33.5 32.328125 
L 27.484375 33.5 
Q 16.453125 35.6875 11.515625 40.375 
Q 6.59375 45.0625 6.59375 53.421875 
Q 6.59375 63.09375 13.40625 68.65625 
Q 20.21875 74.21875 32.171875 74.21875 
Q 37.3125 74.21875 42.625 73.28125 
Q 47.953125 72.359375 53.515625 70.515625 
" id="DejaVuSans-53"/>
     <path d="M 9.8125 72.90625 
L 55.90625 72.90625 
L 55.90625 64.59375 
L 19.671875 64.59375 
L 19.671875 43.015625 
L 54.390625 43.015625 
L 54.390625 34.71875 
L 19.671875 34.71875 
L 19.671875 8.296875 
L 56.78125 8.296875 
L 56.78125 0 
L 9.8125 0 
z
" id="DejaVuSans-45"/>
    </defs>
    <g transform="translate(369.543806 229.521037)scale(0.17 -0.17)">
     <use xlink:href="#DejaVuSans-52"/>
     <use x="69.419922" xlink:href="#DejaVuSans-41"/>
     <use x="137.828125" xlink:href="#DejaVuSans-4e"/>
     <use x="212.632812" xlink:href="#DejaVuSans-44"/>
     <use x="289.634766" xlink:href="#DejaVuSans-4f"/>
     <use x="368.345703" xlink:href="#DejaVuSans-4d"/>
     <use x="454.625" xlink:href="#DejaVuSans-53"/>
     <use x="518.101562" xlink:href="#DejaVuSans-45"/>
     <use x="581.285156" xlink:href="#DejaVuSans-41"/>
    </g>
   </g>
   <g id="text_16">
    <!-- final  bu -->
    <defs>
     <path d="M 48.6875 27.296875 
Q 48.6875 37.203125 44.609375 42.84375 
Q 40.53125 48.484375 33.40625 48.484375 
Q 26.265625 48.484375 22.1875 42.84375 
Q 18.109375 37.203125 18.109375 27.296875 
Q 18.109375 17.390625 22.1875 11.75 
Q 26.265625 6.109375 33.40625 6.109375 
Q 40.53125 6.109375 44.609375 11.75 
Q 48.6875 17.390625 48.6875 27.296875 
M 18.109375 46.390625 
Q 20.953125 51.265625 25.265625 53.625 
Q 29.59375 56 35.59375 56 
Q 45.5625 56 51.78125 48.09375 
Q 58.015625 40.1875 58.015625 27.296875 
Q 58.015625 14.40625 51.78125 6.484375 
Q 45.5625 -1.421875 35.59375 -1.421875 
Q 29.59375 -1.421875 25.265625 0.953125 
Q 20.953125 3.328125 18.109375 8.203125 
L 18.109375 0 
L 9.078125 0 
L 9.078125 75.984375 
L 18.109375 75.984375 
z
" id="DejaVuSans-62"/>
    </defs>
    <g transform="translate(369.543806 165.524205)scale(0.17 -0.17)">
     <use xlink:href="#DejaVuSans-66"/>
     <use x="35.205078" xlink:href="#DejaVuSans-69"/>
     <use x="62.988281" xlink:href="#DejaVuSans-6e"/>
     <use x="126.367188" xlink:href="#DejaVuSans-61"/>
     <use x="187.646484" xlink:href="#DejaVuSans-6c"/>
     <use x="215.429688" xlink:href="#DejaVuSans-20"/>
     <use x="247.216797" xlink:href="#DejaVuSans-20"/>
     <use x="279.003906" xlink:href="#DejaVuSans-62"/>
     <use x="342.480469" xlink:href="#DejaVuSans-75"/>
    </g>
   </g>
   <g id="text_17">
    <!-- NSGA-II-M -->
    <defs>
     <path d="M 59.515625 10.40625 
L 59.515625 29.984375 
L 43.40625 29.984375 
L 43.40625 38.09375 
L 69.28125 38.09375 
L 69.28125 6.78125 
Q 63.578125 2.734375 56.6875 0.65625 
Q 49.8125 -1.421875 42 -1.421875 
Q 24.90625 -1.421875 15.25 8.5625 
Q 5.609375 18.5625 5.609375 36.375 
Q 5.609375 54.25 15.25 64.234375 
Q 24.90625 74.21875 42 74.21875 
Q 49.125 74.21875 55.546875 72.453125 
Q 61.96875 70.703125 67.390625 67.28125 
L 67.390625 56.78125 
Q 61.921875 61.421875 55.765625 63.765625 
Q 49.609375 66.109375 42.828125 66.109375 
Q 29.4375 66.109375 22.71875 58.640625 
Q 16.015625 51.171875 16.015625 36.375 
Q 16.015625 21.625 22.71875 14.15625 
Q 29.4375 6.6875 42.828125 6.6875 
Q 48.046875 6.6875 52.140625 7.59375 
Q 56.25 8.5 59.515625 10.40625 
" id="DejaVuSans-47"/>
     <path d="M 9.8125 72.90625 
L 19.671875 72.90625 
L 19.671875 0 
L 9.8125 0 
z
" id="DejaVuSans-49"/>
    </defs>
    <g transform="translate(369.543806 101.527373)scale(0.17 -0.17)">
     <use xlink:href="#DejaVuSans-4e"/>
     <use x="74.804688" xlink:href="#DejaVuSans-53"/>
     <use x="138.28125" xlink:href="#DejaVuSans-47"/>
     <use x="215.771484" xlink:href="#DejaVuSans-41"/>
     <use x="284.148438" xlink:href="#DejaVuSans-2d"/>
     <use x="320.232422" xlink:href="#DejaVuSans-49"/>
     <use x="349.724609" xlink:href="#DejaVuSans-49"/>
     <use x="379.216797" xlink:href="#DejaVuSans-2d"/>
     <use x="415.300781" xlink:href="#DejaVuSans-4d"/>
    </g>
   </g>
   <g id="text_18">
    <!-- best 2016 -->
    <g transform="translate(369.543806 37.530541)scale(0.17 -0.17)">
     <use xlink:href="#DejaVuSans-62"/>
     <use x="63.476562" xlink:href="#DejaVuSans-65"/>
     <use x="125" xlink:href="#DejaVuSans-73"/>
     <use x="177.099609" xlink:href="#DejaVuSans-74"/>
     <use x="216.308594" xlink:href="#DejaVuSans-20"/>
     <use x="248.095703" xlink:href="#DejaVuSans-32"/>
     <use x="311.71875" xlink:href="#DejaVuSans-30"/>
     <use x="375.341797" xlink:href="#DejaVuSans-31"/>
     <use x="438.964844" xlink:href="#DejaVuSans-36"/>
    </g>
   </g>
   <g id="text_19">
    <!-- bbob-biobj f12, 10-D -->
    <defs>
     <path d="M 9.421875 54.6875 
L 18.40625 54.6875 
L 18.40625 -0.984375 
Q 18.40625 -11.421875 14.421875 -16.109375 
Q 10.453125 -20.796875 1.609375 -20.796875 
L -1.8125 -20.796875 
L -1.8125 -13.1875 
L 0.59375 -13.1875 
Q 5.71875 -13.1875 7.5625 -10.8125 
Q 9.421875 -8.453125 9.421875 -0.984375 
z
M 9.421875 75.984375 
L 18.40625 75.984375 
L 18.40625 64.59375 
L 9.421875 64.59375 
z
" id="DejaVuSans-6a"/>
    </defs>
    <g transform="translate(60.27144 35.283606)scale(0.102 -0.102)">
     <use xlink:href="#DejaVuSans-62"/>
     <use x="63.476562" xlink:href="#DejaVuSans-62"/>
     <use x="126.953125" xlink:href="#DejaVuSans-6f"/>
     <use x="188.134766" xlink:href="#DejaVuSans-62"/>
     <use x="251.611328" xlink:href="#DejaVuSans-2d"/>
     <use x="287.695312" xlink:href="#DejaVuSans-62"/>
     <use x="351.171875" xlink:href="#DejaVuSans-69"/>
     <use x="378.955078" xlink:href="#DejaVuSans-6f"/>
     <use x="440.136719" xlink:href="#DejaVuSans-62"/>
     <use x="503.613281" xlink:href="#DejaVuSans-6a"/>
     <use x="531.396484" xlink:href="#DejaVuSans-20"/>
     <use x="563.183594" xlink:href="#DejaVuSans-66"/>
     <use x="598.388672" xlink:href="#DejaVuSans-31"/>
     <use x="662.011719" xlink:href="#DejaVuSans-32"/>
     <use x="725.634766" xlink:href="#DejaVuSans-2c"/>
     <use x="757.421875" xlink:href="#DejaVuSans-20"/>
     <use x="789.208984" xlink:href="#DejaVuSans-31"/>
     <use x="852.832031" xlink:href="#DejaVuSans-30"/>
     <use x="916.455078" xlink:href="#DejaVuSans-2d"/>
     <use x="952.539062" xlink:href="#DejaVuSans-44"/>
    </g>
    <!-- 58 targets: 1..-1.0e-4 -->
    <defs>
     <path d="M 10.796875 72.90625 
L 49.515625 72.90625 
L 49.515625 64.59375 
L 19.828125 64.59375 
L 19.828125 46.734375 
Q 21.96875 47.46875 24.109375 47.828125 
Q 26.265625 48.1875 28.421875 48.1875 
Q 40.625 48.1875 47.75 41.5 
Q 54.890625 34.8125 54.890625 23.390625 
Q 54.890625 11.625 47.5625 5.09375 
Q 40.234375 -1.421875 26.90625 -1.421875 
Q 22.3125 -1.421875 17.546875 -0.640625 
Q 12.796875 0.140625 7.71875 1.703125 
L 7.71875 11.625 
Q 12.109375 9.234375 16.796875 8.0625 
Q 21.484375 6.890625 26.703125 6.890625 
Q 35.15625 6.890625 40.078125 11.328125 
Q 45.015625 15.765625 45.015625 23.390625 
Q 45.015625 31 40.078125 35.4375 
Q 35.15625 39.890625 26.703125 39.890625 
Q 22.75 39.890625 18.8125 39.015625 
Q 14.890625 38.140625 10.796875 36.28125 
z
" id="DejaVuSans-35"/>
     <path d="M 11.71875 12.40625 
L 22.015625 12.40625 
L 22.015625 0 
L 11.71875 0 
z
M 11.71875 51.703125 
L 22.015625 51.703125 
L 22.015625 39.3125 
L 11.71875 39.3125 
z
" id="DejaVuSans-3a"/>
    </defs>
    <g transform="translate(60.27144 46.705375)scale(0.102 -0.102)">
     <use xlink:href="#DejaVuSans-35"/>
     <use x="63.623047" xlink:href="#DejaVuSans-38"/>
     <use x="127.246094" xlink:href="#DejaVuSans-20"/>
     <use x="159.033203" xlink:href="#DejaVuSans-74"/>
     <use x="198.242188" xlink:href="#DejaVuSans-61"/>
     <use x="259.521484" xlink:href="#DejaVuSans-72"/>
     <use x="300.619141" xlink:href="#DejaVuSans-67"/>
     <use x="364.095703" xlink:href="#DejaVuSans-65"/>
     <use x="425.619141" xlink:href="#DejaVuSans-74"/>
     <use x="464.828125" xlink:href="#DejaVuSans-73"/>
     <use x="516.927734" xlink:href="#DejaVuSans-3a"/>
     <use x="550.619141" xlink:href="#DejaVuSans-20"/>
     <use x="582.40625" xlink:href="#DejaVuSans-31"/>
     <use x="646.029297" xlink:href="#DejaVuSans-2e"/>
     <use x="677.816406" xlink:href="#DejaVuSans-2e"/>
     <use x="709.603516" xlink:href="#DejaVuSans-2d"/>
     <use x="745.6875" xlink:href="#DejaVuSans-31"/>
     <use x="809.310547" xlink:href="#DejaVuSans-2e"/>
     <use x="841.097656" xlink:href="#DejaVuSans-30"/>
     <use x="904.720703" xlink:href="#DejaVuSans-65"/>
     <use x="966.244141" xlink:href="#DejaVuSans-2d"/>
     <use x="1002.328125" xlink:href="#DejaVuSans-34"/>
    </g>
    <!-- 10 instances -->
    <g transform="translate(60.27144 58.127144)scale(0.102 -0.102)">
     <use xlink:href="#DejaVuSans-31"/>
     <use x="63.623047" xlink:href="#DejaVuSans-30"/>
     <use x="127.246094" xlink:href="#DejaVuSans-20"/>
     <use x="159.033203" xlink:href="#DejaVuSans-69"/>
     <use x="186.816406" xlink:href="#DejaVuSans-6e"/>
     <use x="250.195312" xlink:href="#DejaVuSans-73"/>
     <use x="302.294922" xlink:href="#DejaVuSans-74"/>
     <use x="341.503906" xlink:href="#DejaVuSans-61"/>
     <use x="402.783203" xlink:href="#DejaVuSans-6e"/>
     <use x="466.162109" xlink:href="#DejaVuSans-63"/>
     <use x="521.142578" xlink:href="#DejaVuSans-65"/>
     <use x="582.666016" xlink:href="#DejaVuSans-73"/>
    </g>
   </g>
   <g id="text_20">
    <!-- v2.2.1.10, hv-hash=ff0e71e8cd978373 -->
    <defs>
     <path d="M 54.890625 33.015625 
L 54.890625 0 
L 45.90625 0 
L 45.90625 32.71875 
Q 45.90625 40.484375 42.875 44.328125 
Q 39.84375 48.1875 33.796875 48.1875 
Q 26.515625 48.1875 22.3125 43.546875 
Q 18.109375 38.921875 18.109375 30.90625 
L 18.109375 0 
L 9.078125 0 
L 9.078125 75.984375 
L 18.109375 75.984375 
L 18.109375 46.1875 
Q 21.34375 51.125 25.703125 53.5625 
Q 30.078125 56 35.796875 56 
Q 45.21875 56 50.046875 50.171875 
Q 54.890625 44.34375 54.890625 33.015625 
" id="DejaVuSans-68"/>
     <path d="M 10.59375 45.40625 
L 73.1875 45.40625 
L 73.1875 37.203125 
L 10.59375 37.203125 
z
M 10.59375 25.484375 
L 73.1875 25.484375 
L 73.1875 17.1875 
L 10.59375 17.1875 
z
" id="DejaVuSans-3d"/>
     <path d="M 8.203125 72.90625 
L 55.078125 72.90625 
L 55.078125 68.703125 
L 28.609375 0 
L 18.3125 0 
L 43.21875 64.59375 
L 8.203125 64.59375 
z
" id="DejaVuSans-37"/>
     <path d="M 10.984375 1.515625 
L 10.984375 10.5 
Q 14.703125 8.734375 18.5 7.8125 
Q 22.3125 6.890625 25.984375 6.890625 
Q 35.75 6.890625 40.890625 13.453125 
Q 46.046875 20.015625 46.78125 33.40625 
Q 43.953125 29.203125 39.59375 26.953125 
Q 35.25 24.703125 29.984375 24.703125 
Q 19.046875 24.703125 12.671875 31.3125 
Q 6.296875 37.9375 6.296875 49.421875 
Q 6.296875 60.640625 12.9375 67.421875 
Q 19.578125 74.21875 30.609375 74.21875 
Q 43.265625 74.21875 49.921875 64.515625 
Q 56.59375 54.828125 56.59375 36.375 
Q 56.59375 19.140625 48.40625 8.859375 
Q 40.234375 -1.421875 26.421875 -1.421875 
Q 22.703125 -1.421875 18.890625 -0.6875 
Q 15.09375 0.046875 10.984375 1.515625 
M 30.609375 32.421875 
Q 37.25 32.421875 41.125 36.953125 
Q 45.015625 41.5 45.015625 49.421875 
Q 45.015625 57.28125 41.125 61.84375 
Q 37.25 66.40625 30.609375 66.40625 
Q 23.96875 66.40625 20.09375 61.84375 
Q 16.21875 57.28125 16.21875 49.421875 
Q 16.21875 41.5 20.09375 36.953125 
Q 23.96875 32.421875 30.609375 32.421875 
" id="DejaVuSans-39"/>
     <path d="M 40.578125 39.3125 
Q 47.65625 37.796875 51.625 33 
Q 55.609375 28.21875 55.609375 21.1875 
Q 55.609375 10.40625 48.1875 4.484375 
Q 40.765625 -1.421875 27.09375 -1.421875 
Q 22.515625 -1.421875 17.65625 -0.515625 
Q 12.796875 0.390625 7.625 2.203125 
L 7.625 11.71875 
Q 11.71875 9.328125 16.59375 8.109375 
Q 21.484375 6.890625 26.8125 6.890625 
Q 36.078125 6.890625 40.9375 10.546875 
Q 45.796875 14.203125 45.796875 21.1875 
Q 45.796875 27.640625 41.28125 31.265625 
Q 36.765625 34.90625 28.71875 34.90625 
L 20.21875 34.90625 
L 20.21875 43.015625 
L 29.109375 43.015625 
Q 36.375 43.015625 40.234375 45.921875 
Q 44.09375 48.828125 44.09375 54.296875 
Q 44.09375 59.90625 40.109375 62.90625 
Q 36.140625 65.921875 28.71875 65.921875 
Q 24.65625 65.921875 20.015625 65.03125 
Q 15.375 64.15625 9.8125 62.3125 
L 9.8125 71.09375 
Q 15.4375 72.65625 20.34375 73.4375 
Q 25.25 74.21875 29.59375 74.21875 
Q 40.828125 74.21875 47.359375 69.109375 
Q 53.90625 64.015625 53.90625 55.328125 
Q 53.90625 49.265625 50.4375 45.09375 
Q 46.96875 40.921875 40.578125 39.3125 
" id="DejaVuSans-33"/>
    </defs>
    <g style="fill:#808080;" transform="translate(130.065125 289.387113)scale(0.1 -0.1)">
     <use xlink:href="#DejaVuSans-76"/>
     <use x="59.179688" xlink:href="#DejaVuSans-32"/>
     <use x="122.802734" xlink:href="#DejaVuSans-2e"/>
     <use x="154.589844" xlink:href="#DejaVuSans-32"/>
     <use x="218.212891" xlink:href="#DejaVuSans-2e"/>
     <use x="250" xlink:href="#DejaVuSans-31"/>
     <use x="313.623047" xlink:href="#DejaVuSans-2e"/>
     <use x="345.410156" xlink:href="#DejaVuSans-31"/>
     <use x="409.033203" xlink:href="#DejaVuSans-30"/>
     <use x="472.65625" xlink:href="#DejaVuSans-2c"/>
     <use x="504.443359" xlink:href="#DejaVuSans-20"/>
     <use x="536.230469" xlink:href="#DejaVuSans-68"/>
     <use x="599.609375" xlink:href="#DejaVuSans-76"/>
     <use x="658.757812" xlink:href="#DejaVuSans-2d"/>
     <use x="694.841797" xlink:href="#DejaVuSans-68"/>
     <use x="758.220703" xlink:href="#DejaVuSans-61"/>
     <use x="819.5" xlink:href="#DejaVuSans-73"/>
     <use x="871.599609" xlink:href="#DejaVuSans-68"/>
     <use x="934.978516" xlink:href="#DejaVuSans-3d"/>
     <use x="1018.767578" xlink:href="#DejaVuSans-66"/>
     <use x="1053.972656" xlink:href="#DejaVuSans-66"/>
     <use x="1089.177734" xlink:href="#DejaVuSans-30"/>
     <use x="1152.800781" xlink:href="#DejaVuSans-65"/>
     <use x="1214.324219" xlink:href="#DejaVuSans-37"/>
     <use x="1277.947266" xlink:href="#DejaVuSans-31"/>
     <use x="1341.570312" xlink:href="#DejaVuSans-65"/>
     <use x="1403.09375" xlink:href="#DejaVuSans-38"/>
     <use x="1466.716797" xlink:href="#DejaVuSans-63"/>
     <use x="1521.697266" xlink:href="#DejaVuSans-64"/>
     <use x="1585.173828" xlink:href="#DejaVuSans-39"/>
     <use x="1648.796875" xlink:href="#DejaVuSans-37"/>
     <use x="1712.419922" xlink:href="#DejaVuSans-38"/>
     <use x="1776.042969" xlink:href="#DejaVuSans-33"/>
     <use x="1839.666016" xlink:href="#DejaVuSans-37"/>
     <use x="1903.289062" xlink:href="#DejaVuSans-33"/>
    </g>
   </g>
   <g id="text_21">
    <!-- 12 sep. Ellipsoid/Attractive sector -->
    <g transform="translate(60.240125 18.84)scale(0.2 -0.2)">
     <use xlink:href="#DejaVuSans-31"/>
     <use x="63.623047" xlink:href="#DejaVuSans-32"/>
     <use x="127.246094" xlink:href="#DejaVuSans-20"/>
     <use x="159.033203" xlink:href="#DejaVuSans-73"/>
     <use x="211.132812" xlink:href="#DejaVuSans-65"/>
     <use x="272.65625" xlink:href="#DejaVuSans-70"/>
     <use x="336.132812" xlink:href="#DejaVuSans-2e"/>
     <use x="367.919922" xlink:href="#DejaVuSans-20"/>
     <use x="399.707031" xlink:href="#DejaVuSans-45"/>
     <use x="462.890625" xlink:href="#DejaVuSans-6c"/>
     <use x="490.673828" xlink:href="#DejaVuSans-6c"/>
     <use x="518.457031" xlink:href="#DejaVuSans-69"/>
     <use x="546.240234" xlink:href="#DejaVuSans-70"/>
     <use x="609.716797" xlink:href="#DejaVuSans-73"/>
     <use x="661.816406" xlink:href="#DejaVuSans-6f"/>
     <use x="722.998047" xlink:href="#DejaVuSans-69"/>
     <use x="750.78125" xlink:href="#DejaVuSans-64"/>
     <use x="814.257812" xlink:href="#DejaVuSans-2f"/>
     <use x="847.949219" xlink:href="#DejaVuSans-41"/>
     <use x="916.341797" xlink:href="#DejaVuSans-74"/>
     <use x="955.550781" xlink:href="#DejaVuSans-74"/>
     <use x="994.759766" xlink:href="#DejaVuSans-72"/>
     <use x="1035.873047" xlink:href="#DejaVuSans-61"/>
     <use x="1097.152344" xlink:href="#DejaVuSans-63"/>
     <use x="1152.132812" xlink:href="#DejaVuSans-74"/>
     <use x="1191.341797" xlink:href="#DejaVuSans-69"/>
     <use x="1219.125" xlink:href="#DejaVuSans-76"/>
     <use x="1278.304688" xlink:href="#DejaVuSans-65"/>
     <use x="1339.828125" xlink:href="#DejaVuSans-20"/>
     <use x="1371.615234" xlink:href="#DejaVuSans-73"/>
     <use x="1423.714844" xlink:href="#DejaVuSans-65"/>
     <use x="1485.238281" xlink:href="#DejaVuSans-63"/>
     <use x="1540.21875" xlink:href="#DejaVuSans-74"/>
     <use x="1579.427734" xlink:href="#DejaVuSans-6f"/>
     <use x="1640.609375" xlink:href="#DejaVuSans-72"/>
    </g>
   </g>
  </g>
 </g>
 <defs>
  <clipPath id="p72ba53359e">
   <rect height="269.32" width="343.144" x="56.84" y="24.84"/>
  </clipPath>
 </defs>
</svg>
