<?xml version="1.0" encoding="utf-8" standalone="no"?>
<!DOCTYPE svg PUBLIC "-//W3C//DTD SVG 1.1//EN"
  "http://www.w3.org/Graphics/SVG/1.1/DTD/svg11.dtd">
<!-- Created with matplotlib (http://matplotlib.org/) -->
<svg height="345pt" version="1.1" viewBox="0 0 460 345" width="460pt" xmlns="http://www.w3.org/2000/svg" xmlns:xlink="http://www.w3.org/1999/xlink">
 <defs>
  <style type="text/css">
*{stroke-linecap:butt;stroke-linejoin:round;}
  </style>
 </defs>
 <g id="figure_1">
  <g id="patch_1">
   <path d="M 0 345.6 
L 460.8 345.6 
L 460.8 0 
L 0 0 
z
" style="fill:#ffffff;"/>
  </g>
  <g id="axes_1">
   <g id="patch_2">
    <path d="M 56.84 294.16 
L 399.984 294.16 
L 399.984 24.84 
L 56.84 24.84 
z
" style="fill:#ffffff;"/>
   </g>
   <g id="line2d_1">
    <path d="M 37.9781 294.16 
L 37.9781 289.562526 
L 71.387123 289.562526 
L 71.387123 280.367579 
L 87.602435 280.367579 
L 87.602435 271.172632 
L 95.188191 271.172632 
L 95.188191 266.575159 
L 103.711438 266.575159 
L 103.711438 252.782738 
L 111.873912 252.782738 
L 111.873912 243.587791 
L 120.173787 243.587791 
L 120.173787 238.990318 
L 130.6583 238.990318 
L 130.6583 229.79537 
L 165.380844 229.79537 
L 165.380844 216.00295 
L 170.468439 216.00295 
L 170.468439 206.808003 
L 172.301038 206.808003 
L 172.301038 197.613056 
L 174.55751 197.613056 
L 174.55751 188.418109 
L 181.001102 188.418109 
L 181.001102 183.820635 
L 183.435888 183.820635 
L 183.435888 170.028214 
L 186.634844 170.028214 
L 186.634844 165.430741 
L 190.114783 165.430741 
L 190.114783 151.63832 
L 194.376194 151.63832 
L 194.376194 142.443373 
L 214.930768 142.443373 
L 214.930768 137.8459 
L 218.335118 137.8459 
L 218.335118 124.053479 
L 220.389591 124.053479 
L 220.389591 119.456005 
L 222.987992 119.456005 
L 222.987992 105.663585 
L 226.145786 105.663585 
L 226.145786 96.468638 
L 229.903373 96.468638 
L 229.903373 87.273691 
L 234.3998 87.273691 
L 234.3998 82.676217 
L 239.576335 82.676217 
L 239.576335 73.48127 
L 245.296872 73.48127 
L 245.296872 59.688849 
L 333.569032 59.688849 
" style="fill:none;stroke:#f5deb3;stroke-linecap:square;stroke-width:6;"/>
   </g>
   <g id="line2d_2">
    <defs>
     <path d="M -0 7.778175 
L 7.778175 0 
L 0 -7.778175 
L -7.778175 -0 
z
" id="mfd11a5fda5" style="stroke:#f5deb3;stroke-linejoin:miter;stroke-width:1.5;"/>
    </defs>
    <g>
     <use style="fill:#f5deb3;stroke:#f5deb3;stroke-linejoin:miter;stroke-width:1.5;" x="87.602435" xlink:href="#mfd11a5fda5" y="271.172632"/>
     <use style="fill:#f5deb3;stroke:#f5deb3;stroke-linejoin:miter;stroke-width:1.5;" x="172.301038" xlink:href="#mfd11a5fda5" y="206.808003"/>
     <use style="fill:#f5deb3;stroke:#f5deb3;stroke-linejoin:miter;stroke-width:1.5;" x="220.389591" xlink:href="#mfd11a5fda5" y="124.053479"/>
     <use style="fill:#f5deb3;stroke:#f5deb3;stroke-linejoin:miter;stroke-width:1.5;" x="245.296872" xlink:href="#mfd11a5fda5" y="73.48127"/>
     <use style="fill:#f5deb3;stroke:#f5deb3;stroke-linejoin:miter;stroke-width:1.5;" x="245.296872" xlink:href="#mfd11a5fda5" y="59.688849"/>
     <use style="fill:#f5deb3;stroke:#f5deb3;stroke-linejoin:miter;stroke-width:1.5;" x="333.569032" xlink:href="#mfd11a5fda5" y="59.688849"/>
    </g>
   </g>
   <g id="line2d_3">
    <path style="fill:none;stroke:#f5deb3;stroke-linecap:square;stroke-width:6;"/>
    <g/>
   </g>
   <g id="line2d_4">
    <path d="M 333.569032 59.688849 
L 364.009226 32.839604 
" style="fill:none;stroke:#f5deb3;stroke-linecap:square;stroke-width:6;"/>
    <g>
     <use style="fill:#f5deb3;stroke:#f5deb3;stroke-linejoin:miter;stroke-width:1.5;" x="333.569032" xlink:href="#mfd11a5fda5" y="59.688849"/>
     <use style="fill:#f5deb3;stroke:#f5deb3;stroke-linejoin:miter;stroke-width:1.5;" x="364.009226" xlink:href="#mfd11a5fda5" y="32.839604"/>
    </g>
   </g>
   <g id="matplotlib.axis_1">
    <g id="xtick_1">
     <g id="line2d_5">
      <path clip-path="url(#p5da1c40279)" d="M 56.84 294.16 
L 56.84 24.84 
" style="fill:none;stroke:#b0b0b0;stroke-linecap:square;stroke-width:0.8;"/>
     </g>
     <g id="line2d_6">
      <defs>
       <path d="M 0 0 
L 0 3.5 
" id="m4a3c1a3959" style="stroke:#000000;stroke-width:0.8;"/>
      </defs>
      <g>
       <use style="stroke:#000000;stroke-width:0.8;" x="56.84" xlink:href="#m4a3c1a3959" y="294.16"/>
      </g>
     </g>
     <g id="text_1">
      <!-- 0 -->
      <defs>
       <path d="M 31.78125 66.40625 
Q 24.171875 66.40625 20.328125 58.90625 
Q 16.5 51.421875 16.5 36.375 
Q 16.5 21.390625 20.328125 13.890625 
Q 24.171875 6.390625 31.78125 6.390625 
Q 39.453125 6.390625 43.28125 13.890625 
Q 47.125 21.390625 47.125 36.375 
Q 47.125 51.421875 43.28125 58.90625 
Q 39.453125 66.40625 31.78125 66.40625 
M 31.78125 74.21875 
Q 44.046875 74.21875 50.515625 64.515625 
Q 56.984375 54.828125 56.984375 36.375 
Q 56.984375 17.96875 50.515625 8.265625 
Q 44.046875 -1.421875 31.78125 -1.421875 
Q 19.53125 -1.421875 13.0625 8.265625 
Q 6.59375 17.96875 6.59375 36.375 
Q 6.59375 54.828125 13.0625 64.515625 
Q 19.53125 74.21875 31.78125 74.21875 
" id="DejaVuSans-30"/>
      </defs>
      <g transform="translate(50.4775 316.356875)scale(0.2 -0.2)">
       <use xlink:href="#DejaVuSans-30"/>
      </g>
     </g>
    </g>
    <g id="xtick_2">
     <g id="line2d_7">
      <path clip-path="url(#p5da1c40279)" d="M 135.905438 294.16 
L 135.905438 24.84 
" style="fill:none;stroke:#b0b0b0;stroke-linecap:square;stroke-width:0.8;"/>
     </g>
     <g id="line2d_8">
      <g>
       <use style="stroke:#000000;stroke-width:0.8;" x="135.905438" xlink:href="#m4a3c1a3959" y="294.16"/>
      </g>
     </g>
     <g id="text_2">
      <!-- 2 -->
      <defs>
       <path d="M 19.1875 8.296875 
L 53.609375 8.296875 
L 53.609375 0 
L 7.328125 0 
L 7.328125 8.296875 
Q 12.9375 14.109375 22.625 23.890625 
Q 32.328125 33.6875 34.8125 36.53125 
Q 39.546875 41.84375 41.421875 45.53125 
Q 43.3125 49.21875 43.3125 52.78125 
Q 43.3125 58.59375 39.234375 62.25 
Q 35.15625 65.921875 28.609375 65.921875 
Q 23.96875 65.921875 18.8125 64.3125 
Q 13.671875 62.703125 7.8125 59.421875 
L 7.8125 69.390625 
Q 13.765625 71.78125 18.9375 73 
Q 24.125 74.21875 28.421875 74.21875 
Q 39.75 74.21875 46.484375 68.546875 
Q 53.21875 62.890625 53.21875 53.421875 
Q 53.21875 48.921875 51.53125 44.890625 
Q 49.859375 40.875 45.40625 35.40625 
Q 44.1875 33.984375 37.640625 27.21875 
Q 31.109375 20.453125 19.1875 8.296875 
" id="DejaVuSans-32"/>
      </defs>
      <g transform="translate(129.542938 316.356875)scale(0.2 -0.2)">
       <use xlink:href="#DejaVuSans-32"/>
      </g>
     </g>
    </g>
    <g id="xtick_3">
     <g id="line2d_9">
      <path clip-path="url(#p5da1c40279)" d="M 214.970876 294.16 
L 214.970876 24.84 
" style="fill:none;stroke:#b0b0b0;stroke-linecap:square;stroke-width:0.8;"/>
     </g>
     <g id="line2d_10">
      <g>
       <use style="stroke:#000000;stroke-width:0.8;" x="214.970876" xlink:href="#m4a3c1a3959" y="294.16"/>
      </g>
     </g>
     <g id="text_3">
      <!-- 4 -->
      <defs>
       <path d="M 37.796875 64.3125 
L 12.890625 25.390625 
L 37.796875 25.390625 
z
M 35.203125 72.90625 
L 47.609375 72.90625 
L 47.609375 25.390625 
L 58.015625 25.390625 
L 58.015625 17.1875 
L 47.609375 17.1875 
L 47.609375 0 
L 37.796875 0 
L 37.796875 17.1875 
L 4.890625 17.1875 
L 4.890625 26.703125 
z
" id="DejaVuSans-34"/>
      </defs>
      <g transform="translate(208.608376 316.356875)scale(0.2 -0.2)">
       <use xlink:href="#DejaVuSans-34"/>
      </g>
     </g>
    </g>
    <g id="xtick_4">
     <g id="line2d_11">
      <path clip-path="url(#p5da1c40279)" d="M 294.036313 294.16 
L 294.036313 24.84 
" style="fill:none;stroke:#b0b0b0;stroke-linecap:square;stroke-width:0.8;"/>
     </g>
     <g id="line2d_12">
      <g>
       <use style="stroke:#000000;stroke-width:0.8;" x="294.036313" xlink:href="#m4a3c1a3959" y="294.16"/>
      </g>
     </g>
     <g id="text_4">
      <!-- 6 -->
      <defs>
       <path d="M 33.015625 40.375 
Q 26.375 40.375 22.484375 35.828125 
Q 18.609375 31.296875 18.609375 23.390625 
Q 18.609375 15.53125 22.484375 10.953125 
Q 26.375 6.390625 33.015625 6.390625 
Q 39.65625 6.390625 43.53125 10.953125 
Q 47.40625 15.53125 47.40625 23.390625 
Q 47.40625 31.296875 43.53125 35.828125 
Q 39.65625 40.375 33.015625 40.375 
M 52.59375 71.296875 
L 52.59375 62.3125 
Q 48.875 64.0625 45.09375 64.984375 
Q 41.3125 65.921875 37.59375 65.921875 
Q 27.828125 65.921875 22.671875 59.328125 
Q 17.53125 52.734375 16.796875 39.40625 
Q 19.671875 43.65625 24.015625 45.921875 
Q 28.375 48.1875 33.59375 48.1875 
Q 44.578125 48.1875 50.953125 41.515625 
Q 57.328125 34.859375 57.328125 23.390625 
Q 57.328125 12.15625 50.6875 5.359375 
Q 44.046875 -1.421875 33.015625 -1.421875 
Q 20.359375 -1.421875 13.671875 8.265625 
Q 6.984375 17.96875 6.984375 36.375 
Q 6.984375 53.65625 15.1875 63.9375 
Q 23.390625 74.21875 37.203125 74.21875 
Q 40.921875 74.21875 44.703125 73.484375 
Q 48.484375 72.75 52.59375 71.296875 
" id="DejaVuSans-36"/>
      </defs>
      <g transform="translate(287.673813 316.356875)scale(0.2 -0.2)">
       <use xlink:href="#DejaVuSans-36"/>
      </g>
     </g>
    </g>
    <g id="xtick_5">
     <g id="line2d_13">
      <path clip-path="url(#p5da1c40279)" d="M 373.101751 294.16 
L 373.101751 24.84 
" style="fill:none;stroke:#b0b0b0;stroke-linecap:square;stroke-width:0.8;"/>
     </g>
     <g id="line2d_14">
      <g>
       <use style="stroke:#000000;stroke-width:0.8;" x="373.101751" xlink:href="#m4a3c1a3959" y="294.16"/>
      </g>
     </g>
     <g id="text_5">
      <!-- 8 -->
      <defs>
       <path d="M 31.78125 34.625 
Q 24.75 34.625 20.71875 30.859375 
Q 16.703125 27.09375 16.703125 20.515625 
Q 16.703125 13.921875 20.71875 10.15625 
Q 24.75 6.390625 31.78125 6.390625 
Q 38.8125 6.390625 42.859375 10.171875 
Q 46.921875 13.96875 46.921875 20.515625 
Q 46.921875 27.09375 42.890625 30.859375 
Q 38.875 34.625 31.78125 34.625 
M 21.921875 38.8125 
Q 15.578125 40.375 12.03125 44.71875 
Q 8.5 49.078125 8.5 55.328125 
Q 8.5 64.0625 14.71875 69.140625 
Q 20.953125 74.21875 31.78125 74.21875 
Q 42.671875 74.21875 48.875 69.140625 
Q 55.078125 64.0625 55.078125 55.328125 
Q 55.078125 49.078125 51.53125 44.71875 
Q 48 40.375 41.703125 38.8125 
Q 48.828125 37.15625 52.796875 32.3125 
Q 56.78125 27.484375 56.78125 20.515625 
Q 56.78125 9.90625 50.3125 4.234375 
Q 43.84375 -1.421875 31.78125 -1.421875 
Q 19.734375 -1.421875 13.25 4.234375 
Q 6.78125 9.90625 6.78125 20.515625 
Q 6.78125 27.484375 10.78125 32.3125 
Q 14.796875 37.15625 21.921875 38.8125 
M 18.3125 54.390625 
Q 18.3125 48.734375 21.84375 45.5625 
Q 25.390625 42.390625 31.78125 42.390625 
Q 38.140625 42.390625 41.71875 45.5625 
Q 45.3125 48.734375 45.3125 54.390625 
Q 45.3125 60.0625 41.71875 63.234375 
Q 38.140625 66.40625 31.78125 66.40625 
Q 25.390625 66.40625 21.84375 63.234375 
Q 18.3125 60.0625 18.3125 54.390625 
" id="DejaVuSans-38"/>
      </defs>
      <g transform="translate(366.739251 316.356875)scale(0.2 -0.2)">
       <use xlink:href="#DejaVuSans-38"/>
      </g>
     </g>
    </g>
    <g id="xtick_6">
     <g id="line2d_15">
      <defs>
       <path d="M 0 0 
L 0 2 
" id="m586065e053" style="stroke:#000000;stroke-width:0.6;"/>
      </defs>
      <g>
       <use style="stroke:#000000;stroke-width:0.6;" x="68.740534" xlink:href="#m586065e053" y="294.16"/>
      </g>
     </g>
    </g>
    <g id="xtick_7">
     <g id="line2d_16">
      <g>
       <use style="stroke:#000000;stroke-width:0.6;" x="80.641068" xlink:href="#m586065e053" y="294.16"/>
      </g>
     </g>
    </g>
    <g id="xtick_8">
     <g id="line2d_17">
      <g>
       <use style="stroke:#000000;stroke-width:0.6;" x="87.602435" xlink:href="#m586065e053" y="294.16"/>
      </g>
     </g>
    </g>
    <g id="xtick_9">
     <g id="line2d_18">
      <g>
       <use style="stroke:#000000;stroke-width:0.6;" x="92.541603" xlink:href="#m586065e053" y="294.16"/>
      </g>
     </g>
    </g>
    <g id="xtick_10">
     <g id="line2d_19">
      <g>
       <use style="stroke:#000000;stroke-width:0.6;" x="147.805972" xlink:href="#m586065e053" y="294.16"/>
      </g>
     </g>
    </g>
    <g id="xtick_11">
     <g id="line2d_20">
      <g>
       <use style="stroke:#000000;stroke-width:0.6;" x="159.706506" xlink:href="#m586065e053" y="294.16"/>
      </g>
     </g>
    </g>
    <g id="xtick_12">
     <g id="line2d_21">
      <g>
       <use style="stroke:#000000;stroke-width:0.6;" x="166.667872" xlink:href="#m586065e053" y="294.16"/>
      </g>
     </g>
    </g>
    <g id="xtick_13">
     <g id="line2d_22">
      <g>
       <use style="stroke:#000000;stroke-width:0.6;" x="171.60704" xlink:href="#m586065e053" y="294.16"/>
      </g>
     </g>
    </g>
    <g id="xtick_14">
     <g id="line2d_23">
      <g>
       <use style="stroke:#000000;stroke-width:0.6;" x="226.87141" xlink:href="#m586065e053" y="294.16"/>
      </g>
     </g>
    </g>
    <g id="xtick_15">
     <g id="line2d_24">
      <g>
       <use style="stroke:#000000;stroke-width:0.6;" x="238.771944" xlink:href="#m586065e053" y="294.16"/>
      </g>
     </g>
    </g>
    <g id="xtick_16">
     <g id="line2d_25">
      <g>
       <use style="stroke:#000000;stroke-width:0.6;" x="245.73331" xlink:href="#m586065e053" y="294.16"/>
      </g>
     </g>
    </g>
    <g id="xtick_17">
     <g id="line2d_26">
      <g>
       <use style="stroke:#000000;stroke-width:0.6;" x="250.672478" xlink:href="#m586065e053" y="294.16"/>
      </g>
     </g>
    </g>
    <g id="xtick_18">
     <g id="line2d_27">
      <g>
       <use style="stroke:#000000;stroke-width:0.6;" x="305.936848" xlink:href="#m586065e053" y="294.16"/>
      </g>
     </g>
    </g>
    <g id="xtick_19">
     <g id="line2d_28">
      <g>
       <use style="stroke:#000000;stroke-width:0.6;" x="317.837382" xlink:href="#m586065e053" y="294.16"/>
      </g>
     </g>
    </g>
    <g id="xtick_20">
     <g id="line2d_29">
      <g>
       <use style="stroke:#000000;stroke-width:0.6;" x="324.798748" xlink:href="#m586065e053" y="294.16"/>
      </g>
     </g>
    </g>
    <g id="xtick_21">
     <g id="line2d_30">
      <g>
       <use style="stroke:#000000;stroke-width:0.6;" x="329.737916" xlink:href="#m586065e053" y="294.16"/>
      </g>
     </g>
    </g>
    <g id="xtick_22">
     <g id="line2d_31">
      <g>
       <use style="stroke:#000000;stroke-width:0.6;" x="385.002285" xlink:href="#m586065e053" y="294.16"/>
      </g>
     </g>
    </g>
    <g id="xtick_23">
     <g id="line2d_32">
      <g>
       <use style="stroke:#000000;stroke-width:0.6;" x="396.90282" xlink:href="#m586065e053" y="294.16"/>
      </g>
     </g>
    </g>
    <g id="text_6">
     <!-- log10(# f-evals / dimension) -->
     <defs>
      <path d="M 9.421875 75.984375 
L 18.40625 75.984375 
L 18.40625 0 
L 9.421875 0 
z
" id="DejaVuSans-6c"/>
      <path d="M 30.609375 48.390625 
Q 23.390625 48.390625 19.1875 42.75 
Q 14.984375 37.109375 14.984375 27.296875 
Q 14.984375 17.484375 19.15625 11.84375 
Q 23.34375 6.203125 30.609375 6.203125 
Q 37.796875 6.203125 41.984375 11.859375 
Q 46.1875 17.53125 46.1875 27.296875 
Q 46.1875 37.015625 41.984375 42.703125 
Q 37.796875 48.390625 30.609375 48.390625 
M 30.609375 56 
Q 42.328125 56 49.015625 48.375 
Q 55.71875 40.765625 55.71875 27.296875 
Q 55.71875 13.875 49.015625 6.21875 
Q 42.328125 -1.421875 30.609375 -1.421875 
Q 18.84375 -1.421875 12.171875 6.21875 
Q 5.515625 13.875 5.515625 27.296875 
Q 5.515625 40.765625 12.171875 48.375 
Q 18.84375 56 30.609375 56 
" id="DejaVuSans-6f"/>
      <path d="M 45.40625 27.984375 
Q 45.40625 37.75 41.375 43.109375 
Q 37.359375 48.484375 30.078125 48.484375 
Q 22.859375 48.484375 18.828125 43.109375 
Q 14.796875 37.75 14.796875 27.984375 
Q 14.796875 18.265625 18.828125 12.890625 
Q 22.859375 7.515625 30.078125 7.515625 
Q 37.359375 7.515625 41.375 12.890625 
Q 45.40625 18.265625 45.40625 27.984375 
M 54.390625 6.78125 
Q 54.390625 -7.171875 48.1875 -13.984375 
Q 42 -20.796875 29.203125 -20.796875 
Q 24.46875 -20.796875 20.265625 -20.09375 
Q 16.0625 -19.390625 12.109375 -17.921875 
L 12.109375 -9.1875 
Q 16.0625 -11.328125 19.921875 -12.34375 
Q 23.78125 -13.375 27.78125 -13.375 
Q 36.625 -13.375 41.015625 -8.765625 
Q 45.40625 -4.15625 45.40625 5.171875 
L 45.40625 9.625 
Q 42.625 4.78125 38.28125 2.390625 
Q 33.9375 0 27.875 0 
Q 17.828125 0 11.671875 7.65625 
Q 5.515625 15.328125 5.515625 27.984375 
Q 5.515625 40.671875 11.671875 48.328125 
Q 17.828125 56 27.875 56 
Q 33.9375 56 38.28125 53.609375 
Q 42.625 51.21875 45.40625 46.390625 
L 45.40625 54.6875 
L 54.390625 54.6875 
z
" id="DejaVuSans-67"/>
      <path d="M 12.40625 8.296875 
L 28.515625 8.296875 
L 28.515625 63.921875 
L 10.984375 60.40625 
L 10.984375 69.390625 
L 28.421875 72.90625 
L 38.28125 72.90625 
L 38.28125 8.296875 
L 54.390625 8.296875 
L 54.390625 0 
L 12.40625 0 
z
" id="DejaVuSans-31"/>
      <path d="M 31 75.875 
Q 24.46875 64.65625 21.28125 53.65625 
Q 18.109375 42.671875 18.109375 31.390625 
Q 18.109375 20.125 21.3125 9.0625 
Q 24.515625 -2 31 -13.1875 
L 23.1875 -13.1875 
Q 15.875 -1.703125 12.234375 9.375 
Q 8.59375 20.453125 8.59375 31.390625 
Q 8.59375 42.28125 12.203125 53.3125 
Q 15.828125 64.359375 23.1875 75.875 
z
" id="DejaVuSans-28"/>
      <path d="M 51.125 44 
L 36.921875 44 
L 32.8125 27.6875 
L 47.125 27.6875 
z
M 43.796875 71.78125 
L 38.71875 51.515625 
L 52.984375 51.515625 
L 58.109375 71.78125 
L 65.921875 71.78125 
L 60.890625 51.515625 
L 76.125 51.515625 
L 76.125 44 
L 58.984375 44 
L 54.984375 27.6875 
L 70.515625 27.6875 
L 70.515625 20.21875 
L 53.078125 20.21875 
L 48 0 
L 40.1875 0 
L 45.21875 20.21875 
L 30.90625 20.21875 
L 25.875 0 
L 18.015625 0 
L 23.09375 20.21875 
L 7.71875 20.21875 
L 7.71875 27.6875 
L 24.90625 27.6875 
L 29 44 
L 13.28125 44 
L 13.28125 51.515625 
L 30.90625 51.515625 
L 35.890625 71.78125 
z
" id="DejaVuSans-23"/>
      <path id="DejaVuSans-20"/>
      <path d="M 37.109375 75.984375 
L 37.109375 68.5 
L 28.515625 68.5 
Q 23.6875 68.5 21.796875 66.546875 
Q 19.921875 64.59375 19.921875 59.515625 
L 19.921875 54.6875 
L 34.71875 54.6875 
L 34.71875 47.703125 
L 19.921875 47.703125 
L 19.921875 0 
L 10.890625 0 
L 10.890625 47.703125 
L 2.296875 47.703125 
L 2.296875 54.6875 
L 10.890625 54.6875 
L 10.890625 58.5 
Q 10.890625 67.625 15.140625 71.796875 
Q 19.390625 75.984375 28.609375 75.984375 
z
" id="DejaVuSans-66"/>
      <path d="M 4.890625 31.390625 
L 31.203125 31.390625 
L 31.203125 23.390625 
L 4.890625 23.390625 
z
" id="DejaVuSans-2d"/>
      <path d="M 56.203125 29.59375 
L 56.203125 25.203125 
L 14.890625 25.203125 
Q 15.484375 15.921875 20.484375 11.0625 
Q 25.484375 6.203125 34.421875 6.203125 
Q 39.59375 6.203125 44.453125 7.46875 
Q 49.3125 8.734375 54.109375 11.28125 
L 54.109375 2.78125 
Q 49.265625 0.734375 44.1875 -0.34375 
Q 39.109375 -1.421875 33.890625 -1.421875 
Q 20.796875 -1.421875 13.15625 6.1875 
Q 5.515625 13.8125 5.515625 26.8125 
Q 5.515625 40.234375 12.765625 48.109375 
Q 20.015625 56 32.328125 56 
Q 43.359375 56 49.78125 48.890625 
Q 56.203125 41.796875 56.203125 29.59375 
M 47.21875 32.234375 
Q 47.125 39.59375 43.09375 43.984375 
Q 39.0625 48.390625 32.421875 48.390625 
Q 24.90625 48.390625 20.390625 44.140625 
Q 15.875 39.890625 15.1875 32.171875 
z
" id="DejaVuSans-65"/>
      <path d="M 2.984375 54.6875 
L 12.5 54.6875 
L 29.59375 8.796875 
L 46.6875 54.6875 
L 56.203125 54.6875 
L 35.6875 0 
L 23.484375 0 
z
" id="DejaVuSans-76"/>
      <path d="M 34.28125 27.484375 
Q 23.390625 27.484375 19.1875 25 
Q 14.984375 22.515625 14.984375 16.5 
Q 14.984375 11.71875 18.140625 8.90625 
Q 21.296875 6.109375 26.703125 6.109375 
Q 34.1875 6.109375 38.703125 11.40625 
Q 43.21875 16.703125 43.21875 25.484375 
L 43.21875 27.484375 
z
M 52.203125 31.203125 
L 52.203125 0 
L 43.21875 0 
L 43.21875 8.296875 
Q 40.140625 3.328125 35.546875 0.953125 
Q 30.953125 -1.421875 24.3125 -1.421875 
Q 15.921875 -1.421875 10.953125 3.296875 
Q 6 8.015625 6 15.921875 
Q 6 25.140625 12.171875 29.828125 
Q 18.359375 34.515625 30.609375 34.515625 
L 43.21875 34.515625 
L 43.21875 35.40625 
Q 43.21875 41.609375 39.140625 45 
Q 35.0625 48.390625 27.6875 48.390625 
Q 23 48.390625 18.546875 47.265625 
Q 14.109375 46.140625 10.015625 43.890625 
L 10.015625 52.203125 
Q 14.9375 54.109375 19.578125 55.046875 
Q 24.21875 56 28.609375 56 
Q 40.484375 56 46.34375 49.84375 
Q 52.203125 43.703125 52.203125 31.203125 
" id="DejaVuSans-61"/>
      <path d="M 44.28125 53.078125 
L 44.28125 44.578125 
Q 40.484375 46.53125 36.375 47.5 
Q 32.28125 48.484375 27.875 48.484375 
Q 21.1875 48.484375 17.84375 46.4375 
Q 14.5 44.390625 14.5 40.28125 
Q 14.5 37.15625 16.890625 35.375 
Q 19.28125 33.59375 26.515625 31.984375 
L 29.59375 31.296875 
Q 39.15625 29.25 43.1875 25.515625 
Q 47.21875 21.78125 47.21875 15.09375 
Q 47.21875 7.46875 41.1875 3.015625 
Q 35.15625 -1.421875 24.609375 -1.421875 
Q 20.21875 -1.421875 15.453125 -0.5625 
Q 10.6875 0.296875 5.421875 2 
L 5.421875 11.28125 
Q 10.40625 8.6875 15.234375 7.390625 
Q 20.0625 6.109375 24.8125 6.109375 
Q 31.15625 6.109375 34.5625 8.28125 
Q 37.984375 10.453125 37.984375 14.40625 
Q 37.984375 18.0625 35.515625 20.015625 
Q 33.0625 21.96875 24.703125 23.78125 
L 21.578125 24.515625 
Q 13.234375 26.265625 9.515625 29.90625 
Q 5.8125 33.546875 5.8125 39.890625 
Q 5.8125 47.609375 11.28125 51.796875 
Q 16.75 56 26.8125 56 
Q 31.78125 56 36.171875 55.265625 
Q 40.578125 54.546875 44.28125 53.078125 
" id="DejaVuSans-73"/>
      <path d="M 25.390625 72.90625 
L 33.6875 72.90625 
L 8.296875 -9.28125 
L 0 -9.28125 
z
" id="DejaVuSans-2f"/>
      <path d="M 45.40625 46.390625 
L 45.40625 75.984375 
L 54.390625 75.984375 
L 54.390625 0 
L 45.40625 0 
L 45.40625 8.203125 
Q 42.578125 3.328125 38.25 0.953125 
Q 33.9375 -1.421875 27.875 -1.421875 
Q 17.96875 -1.421875 11.734375 6.484375 
Q 5.515625 14.40625 5.515625 27.296875 
Q 5.515625 40.1875 11.734375 48.09375 
Q 17.96875 56 27.875 56 
Q 33.9375 56 38.25 53.625 
Q 42.578125 51.265625 45.40625 46.390625 
M 14.796875 27.296875 
Q 14.796875 17.390625 18.875 11.75 
Q 22.953125 6.109375 30.078125 6.109375 
Q 37.203125 6.109375 41.296875 11.75 
Q 45.40625 17.390625 45.40625 27.296875 
Q 45.40625 37.203125 41.296875 42.84375 
Q 37.203125 48.484375 30.078125 48.484375 
Q 22.953125 48.484375 18.875 42.84375 
Q 14.796875 37.203125 14.796875 27.296875 
" id="DejaVuSans-64"/>
      <path d="M 9.421875 54.6875 
L 18.40625 54.6875 
L 18.40625 0 
L 9.421875 0 
z
M 9.421875 75.984375 
L 18.40625 75.984375 
L 18.40625 64.59375 
L 9.421875 64.59375 
z
" id="DejaVuSans-69"/>
      <path d="M 52 44.1875 
Q 55.375 50.25 60.0625 53.125 
Q 64.75 56 71.09375 56 
Q 79.640625 56 84.28125 50.015625 
Q 88.921875 44.046875 88.921875 33.015625 
L 88.921875 0 
L 79.890625 0 
L 79.890625 32.71875 
Q 79.890625 40.578125 77.09375 44.375 
Q 74.3125 48.1875 68.609375 48.1875 
Q 61.625 48.1875 57.5625 43.546875 
Q 53.515625 38.921875 53.515625 30.90625 
L 53.515625 0 
L 44.484375 0 
L 44.484375 32.71875 
Q 44.484375 40.625 41.703125 44.40625 
Q 38.921875 48.1875 33.109375 48.1875 
Q 26.21875 48.1875 22.15625 43.53125 
Q 18.109375 38.875 18.109375 30.90625 
L 18.109375 0 
L 9.078125 0 
L 9.078125 54.6875 
L 18.109375 54.6875 
L 18.109375 46.1875 
Q 21.1875 51.21875 25.484375 53.609375 
Q 29.78125 56 35.6875 56 
Q 41.65625 56 45.828125 52.96875 
Q 50 49.953125 52 44.1875 
" id="DejaVuSans-6d"/>
      <path d="M 54.890625 33.015625 
L 54.890625 0 
L 45.90625 0 
L 45.90625 32.71875 
Q 45.90625 40.484375 42.875 44.328125 
Q 39.84375 48.1875 33.796875 48.1875 
Q 26.515625 48.1875 22.3125 43.546875 
Q 18.109375 38.921875 18.109375 30.90625 
L 18.109375 0 
L 9.078125 0 
L 9.078125 54.6875 
L 18.109375 54.6875 
L 18.109375 46.1875 
Q 21.34375 51.125 25.703125 53.5625 
Q 30.078125 56 35.796875 56 
Q 45.21875 56 50.046875 50.171875 
Q 54.890625 44.34375 54.890625 33.015625 
" id="DejaVuSans-6e"/>
      <path d="M 8.015625 75.875 
L 15.828125 75.875 
Q 23.140625 64.359375 26.78125 53.3125 
Q 30.421875 42.28125 30.421875 31.390625 
Q 30.421875 20.453125 26.78125 9.375 
Q 23.140625 -1.703125 15.828125 -13.1875 
L 8.015625 -13.1875 
Q 14.5 -2 17.703125 9.0625 
Q 20.90625 20.125 20.90625 31.390625 
Q 20.90625 42.671875 17.703125 53.65625 
Q 14.5 64.65625 8.015625 75.875 
" id="DejaVuSans-29"/>
     </defs>
     <g transform="translate(107.571219 337.433594)scale(0.17 -0.17)">
      <use xlink:href="#DejaVuSans-6c"/>
      <use x="27.783203" xlink:href="#DejaVuSans-6f"/>
      <use x="88.964844" xlink:href="#DejaVuSans-67"/>
      <use x="152.441406" xlink:href="#DejaVuSans-31"/>
      <use x="216.064453" xlink:href="#DejaVuSans-30"/>
      <use x="279.6875" xlink:href="#DejaVuSans-28"/>
      <use x="318.701172" xlink:href="#DejaVuSans-23"/>
      <use x="402.490234" xlink:href="#DejaVuSans-20"/>
      <use x="434.277344" xlink:href="#DejaVuSans-66"/>
      <use x="469.404297" xlink:href="#DejaVuSans-2d"/>
      <use x="505.488281" xlink:href="#DejaVuSans-65"/>
      <use x="567.011719" xlink:href="#DejaVuSans-76"/>
      <use x="626.191406" xlink:href="#DejaVuSans-61"/>
      <use x="687.470703" xlink:href="#DejaVuSans-6c"/>
      <use x="715.253906" xlink:href="#DejaVuSans-73"/>
      <use x="767.353516" xlink:href="#DejaVuSans-20"/>
      <use x="799.140625" xlink:href="#DejaVuSans-2f"/>
      <use x="832.832031" xlink:href="#DejaVuSans-20"/>
      <use x="864.619141" xlink:href="#DejaVuSans-64"/>
      <use x="928.095703" xlink:href="#DejaVuSans-69"/>
      <use x="955.878906" xlink:href="#DejaVuSans-6d"/>
      <use x="1053.291016" xlink:href="#DejaVuSans-65"/>
      <use x="1114.814453" xlink:href="#DejaVuSans-6e"/>
      <use x="1178.193359" xlink:href="#DejaVuSans-73"/>
      <use x="1230.292969" xlink:href="#DejaVuSans-69"/>
      <use x="1258.076172" xlink:href="#DejaVuSans-6f"/>
      <use x="1319.257812" xlink:href="#DejaVuSans-6e"/>
      <use x="1382.636719" xlink:href="#DejaVuSans-29"/>
     </g>
    </g>
   </g>
   <g id="matplotlib.axis_2">
    <g id="ytick_1">
     <g id="line2d_33">
      <path clip-path="url(#p5da1c40279)" d="M 56.84 294.16 
L 399.984 294.16 
" style="fill:none;stroke:#b0b0b0;stroke-linecap:square;stroke-width:0.8;"/>
     </g>
     <g id="line2d_34">
      <defs>
       <path d="M 0 0 
L -3.5 0 
" id="m53510b1a82" style="stroke:#000000;stroke-width:0.8;"/>
      </defs>
      <g>
       <use style="stroke:#000000;stroke-width:0.8;" x="56.84" xlink:href="#m53510b1a82" y="294.16"/>
      </g>
     </g>
     <g id="text_7">
      <!-- 0.0 -->
      <defs>
       <path d="M 10.6875 12.40625 
L 21 12.40625 
L 21 0 
L 10.6875 0 
z
" id="DejaVuSans-2e"/>
      </defs>
      <g transform="translate(24.395 300.23875)scale(0.16 -0.16)">
       <use xlink:href="#DejaVuSans-30"/>
       <use x="63.623047" xlink:href="#DejaVuSans-2e"/>
       <use x="95.410156" xlink:href="#DejaVuSans-30"/>
      </g>
     </g>
    </g>
    <g id="ytick_2">
     <g id="line2d_35">
      <path clip-path="url(#p5da1c40279)" d="M 56.84 240.829307 
L 399.984 240.829307 
" style="fill:none;stroke:#b0b0b0;stroke-linecap:square;stroke-width:0.8;"/>
     </g>
     <g id="line2d_36">
      <g>
       <use style="stroke:#000000;stroke-width:0.8;" x="56.84" xlink:href="#m53510b1a82" y="240.829307"/>
      </g>
     </g>
     <g id="text_8">
      <!-- 0.2 -->
      <g transform="translate(24.395 246.908057)scale(0.16 -0.16)">
       <use xlink:href="#DejaVuSans-30"/>
       <use x="63.623047" xlink:href="#DejaVuSans-2e"/>
       <use x="95.410156" xlink:href="#DejaVuSans-32"/>
      </g>
     </g>
    </g>
    <g id="ytick_3">
     <g id="line2d_37">
      <path clip-path="url(#p5da1c40279)" d="M 56.84 187.498614 
L 399.984 187.498614 
" style="fill:none;stroke:#b0b0b0;stroke-linecap:square;stroke-width:0.8;"/>
     </g>
     <g id="line2d_38">
      <g>
       <use style="stroke:#000000;stroke-width:0.8;" x="56.84" xlink:href="#m53510b1a82" y="187.498614"/>
      </g>
     </g>
     <g id="text_9">
      <!-- 0.4 -->
      <g transform="translate(24.395 193.577364)scale(0.16 -0.16)">
       <use xlink:href="#DejaVuSans-30"/>
       <use x="63.623047" xlink:href="#DejaVuSans-2e"/>
       <use x="95.410156" xlink:href="#DejaVuSans-34"/>
      </g>
     </g>
    </g>
    <g id="ytick_4">
     <g id="line2d_39">
      <path clip-path="url(#p5da1c40279)" d="M 56.84 134.167921 
L 399.984 134.167921 
" style="fill:none;stroke:#b0b0b0;stroke-linecap:square;stroke-width:0.8;"/>
     </g>
     <g id="line2d_40">
      <g>
       <use style="stroke:#000000;stroke-width:0.8;" x="56.84" xlink:href="#m53510b1a82" y="134.167921"/>
      </g>
     </g>
     <g id="text_10">
      <!-- 0.6 -->
      <g transform="translate(24.395 140.246671)scale(0.16 -0.16)">
       <use xlink:href="#DejaVuSans-30"/>
       <use x="63.623047" xlink:href="#DejaVuSans-2e"/>
       <use x="95.410156" xlink:href="#DejaVuSans-36"/>
      </g>
     </g>
    </g>
    <g id="ytick_5">
     <g id="line2d_41">
      <path clip-path="url(#p5da1c40279)" d="M 56.84 80.837228 
L 399.984 80.837228 
" style="fill:none;stroke:#b0b0b0;stroke-linecap:square;stroke-width:0.8;"/>
     </g>
     <g id="line2d_42">
      <g>
       <use style="stroke:#000000;stroke-width:0.8;" x="56.84" xlink:href="#m53510b1a82" y="80.837228"/>
      </g>
     </g>
     <g id="text_11">
      <!-- 0.8 -->
      <g transform="translate(24.395 86.915978)scale(0.16 -0.16)">
       <use xlink:href="#DejaVuSans-30"/>
       <use x="63.623047" xlink:href="#DejaVuSans-2e"/>
       <use x="95.410156" xlink:href="#DejaVuSans-38"/>
      </g>
     </g>
    </g>
    <g id="ytick_6">
     <g id="line2d_43">
      <path clip-path="url(#p5da1c40279)" d="M 56.84 27.506535 
L 399.984 27.506535 
" style="fill:none;stroke:#b0b0b0;stroke-linecap:square;stroke-width:0.8;"/>
     </g>
     <g id="line2d_44">
      <g>
       <use style="stroke:#000000;stroke-width:0.8;" x="56.84" xlink:href="#m53510b1a82" y="27.506535"/>
      </g>
     </g>
     <g id="text_12">
      <!-- 1.0 -->
      <g transform="translate(24.395 33.585285)scale(0.16 -0.16)">
       <use xlink:href="#DejaVuSans-31"/>
       <use x="63.623047" xlink:href="#DejaVuSans-2e"/>
       <use x="95.410156" xlink:href="#DejaVuSans-30"/>
      </g>
     </g>
    </g>
    <g id="text_13">
     <!-- Fraction of function,target pairs -->
     <defs>
      <path d="M 9.8125 72.90625 
L 51.703125 72.90625 
L 51.703125 64.59375 
L 19.671875 64.59375 
L 19.671875 43.109375 
L 48.578125 43.109375 
L 48.578125 34.8125 
L 19.671875 34.8125 
L 19.671875 0 
L 9.8125 0 
z
" id="DejaVuSans-46"/>
      <path d="M 41.109375 46.296875 
Q 39.59375 47.171875 37.8125 47.578125 
Q 36.03125 48 33.890625 48 
Q 26.265625 48 22.1875 43.046875 
Q 18.109375 38.09375 18.109375 28.8125 
L 18.109375 0 
L 9.078125 0 
L 9.078125 54.6875 
L 18.109375 54.6875 
L 18.109375 46.1875 
Q 20.953125 51.171875 25.484375 53.578125 
Q 30.03125 56 36.53125 56 
Q 37.453125 56 38.578125 55.875 
Q 39.703125 55.765625 41.0625 55.515625 
z
" id="DejaVuSans-72"/>
      <path d="M 48.78125 52.59375 
L 48.78125 44.1875 
Q 44.96875 46.296875 41.140625 47.34375 
Q 37.3125 48.390625 33.40625 48.390625 
Q 24.65625 48.390625 19.8125 42.84375 
Q 14.984375 37.3125 14.984375 27.296875 
Q 14.984375 17.28125 19.8125 11.734375 
Q 24.65625 6.203125 33.40625 6.203125 
Q 37.3125 6.203125 41.140625 7.25 
Q 44.96875 8.296875 48.78125 10.40625 
L 48.78125 2.09375 
Q 45.015625 0.34375 40.984375 -0.53125 
Q 36.96875 -1.421875 32.421875 -1.421875 
Q 20.0625 -1.421875 12.78125 6.34375 
Q 5.515625 14.109375 5.515625 27.296875 
Q 5.515625 40.671875 12.859375 48.328125 
Q 20.21875 56 33.015625 56 
Q 37.15625 56 41.109375 55.140625 
Q 45.0625 54.296875 48.78125 52.59375 
" id="DejaVuSans-63"/>
      <path d="M 18.3125 70.21875 
L 18.3125 54.6875 
L 36.8125 54.6875 
L 36.8125 47.703125 
L 18.3125 47.703125 
L 18.3125 18.015625 
Q 18.3125 11.328125 20.140625 9.421875 
Q 21.96875 7.515625 27.59375 7.515625 
L 36.8125 7.515625 
L 36.8125 0 
L 27.59375 0 
Q 17.1875 0 13.234375 3.875 
Q 9.28125 7.765625 9.28125 18.015625 
L 9.28125 47.703125 
L 2.6875 47.703125 
L 2.6875 54.6875 
L 9.28125 54.6875 
L 9.28125 70.21875 
z
" id="DejaVuSans-74"/>
      <path d="M 8.5 21.578125 
L 8.5 54.6875 
L 17.484375 54.6875 
L 17.484375 21.921875 
Q 17.484375 14.15625 20.5 10.265625 
Q 23.53125 6.390625 29.59375 6.390625 
Q 36.859375 6.390625 41.078125 11.03125 
Q 45.3125 15.671875 45.3125 23.6875 
L 45.3125 54.6875 
L 54.296875 54.6875 
L 54.296875 0 
L 45.3125 0 
L 45.3125 8.40625 
Q 42.046875 3.421875 37.71875 1 
Q 33.40625 -1.421875 27.6875 -1.421875 
Q 18.265625 -1.421875 13.375 4.4375 
Q 8.5 10.296875 8.5 21.578125 
M 31.109375 56 
z
" id="DejaVuSans-75"/>
      <path d="M 11.71875 12.40625 
L 22.015625 12.40625 
L 22.015625 4 
L 14.015625 -11.625 
L 7.71875 -11.625 
L 11.71875 4 
z
" id="DejaVuSans-2c"/>
      <path d="M 18.109375 8.203125 
L 18.109375 -20.796875 
L 9.078125 -20.796875 
L 9.078125 54.6875 
L 18.109375 54.6875 
L 18.109375 46.390625 
Q 20.953125 51.265625 25.265625 53.625 
Q 29.59375 56 35.59375 56 
Q 45.5625 56 51.78125 48.09375 
Q 58.015625 40.1875 58.015625 27.296875 
Q 58.015625 14.40625 51.78125 6.484375 
Q 45.5625 -1.421875 35.59375 -1.421875 
Q 29.59375 -1.421875 25.265625 0.953125 
Q 20.953125 3.328125 18.109375 8.203125 
M 48.6875 27.296875 
Q 48.6875 37.203125 44.609375 42.84375 
Q 40.53125 48.484375 33.40625 48.484375 
Q 26.265625 48.484375 22.1875 42.84375 
Q 18.109375 37.203125 18.109375 27.296875 
Q 18.109375 17.390625 22.1875 11.75 
Q 26.265625 6.109375 33.40625 6.109375 
Q 40.53125 6.109375 44.609375 11.75 
Q 48.6875 17.390625 48.6875 27.296875 
" id="DejaVuSans-70"/>
     </defs>
     <g transform="translate(16.859531 294.639375)rotate(-90)scale(0.17 -0.17)">
      <use xlink:href="#DejaVuSans-46"/>
      <use x="57.410156" xlink:href="#DejaVuSans-72"/>
      <use x="98.523438" xlink:href="#DejaVuSans-61"/>
      <use x="159.802734" xlink:href="#DejaVuSans-63"/>
      <use x="214.783203" xlink:href="#DejaVuSans-74"/>
      <use x="253.992188" xlink:href="#DejaVuSans-69"/>
      <use x="281.775391" xlink:href="#DejaVuSans-6f"/>
      <use x="342.957031" xlink:href="#DejaVuSans-6e"/>
      <use x="406.335938" xlink:href="#DejaVuSans-20"/>
      <use x="438.123047" xlink:href="#DejaVuSans-6f"/>
      <use x="499.304688" xlink:href="#DejaVuSans-66"/>
      <use x="534.509766" xlink:href="#DejaVuSans-20"/>
      <use x="566.296875" xlink:href="#DejaVuSans-66"/>
      <use x="601.501953" xlink:href="#DejaVuSans-75"/>
      <use x="664.880859" xlink:href="#DejaVuSans-6e"/>
      <use x="728.259766" xlink:href="#DejaVuSans-63"/>
      <use x="783.240234" xlink:href="#DejaVuSans-74"/>
      <use x="822.449219" xlink:href="#DejaVuSans-69"/>
      <use x="850.232422" xlink:href="#DejaVuSans-6f"/>
      <use x="911.414062" xlink:href="#DejaVuSans-6e"/>
      <use x="974.792969" xlink:href="#DejaVuSans-2c"/>
      <use x="1006.580078" xlink:href="#DejaVuSans-74"/>
      <use x="1045.789062" xlink:href="#DejaVuSans-61"/>
      <use x="1107.068359" xlink:href="#DejaVuSans-72"/>
      <use x="1148.166016" xlink:href="#DejaVuSans-67"/>
      <use x="1211.642578" xlink:href="#DejaVuSans-65"/>
      <use x="1273.166016" xlink:href="#DejaVuSans-74"/>
      <use x="1312.375" xlink:href="#DejaVuSans-20"/>
      <use x="1344.162109" xlink:href="#DejaVuSans-70"/>
      <use x="1407.638672" xlink:href="#DejaVuSans-61"/>
      <use x="1468.917969" xlink:href="#DejaVuSans-69"/>
      <use x="1496.701172" xlink:href="#DejaVuSans-72"/>
      <use x="1537.814453" xlink:href="#DejaVuSans-73"/>
     </g>
    </g>
   </g>
   <g id="line2d_45">
    <defs>
     <path d="M 0 1.5 
C 0.397805 1.5 0.77937 1.341951 1.06066 1.06066 
C 1.341951 0.77937 1.5 0.397805 1.5 0 
C 1.5 -0.397805 1.341951 -0.77937 1.06066 -1.06066 
C 0.77937 -1.341951 0.397805 -1.5 0 -1.5 
C -0.397805 -1.5 -0.77937 -1.341951 -1.06066 -1.06066 
C -1.341951 -0.77937 -1.5 -0.397805 -1.5 0 
C -1.5 0.397805 -1.341951 0.77937 -1.06066 1.06066 
C -0.77937 1.341951 -0.397805 1.5 0 1.5 
z
" id="mfb96d08c11" style="stroke:#f5deb3;"/>
    </defs>
    <g>
     <use style="fill:#f5deb3;stroke:#f5deb3;" x="245.296872" xlink:href="#mfb96d08c11" y="59.688849"/>
     <use style="fill:#f5deb3;stroke:#f5deb3;" x="245.296872" xlink:href="#mfb96d08c11" y="59.688849"/>
    </g>
   </g>
   <g id="line2d_46">
    <defs>
     <path d="M 0 1.5 
C 0.397805 1.5 0.77937 1.341951 1.06066 1.06066 
C 1.341951 0.77937 1.5 0.397805 1.5 0 
C 1.5 -0.397805 1.341951 -0.77937 1.06066 -1.06066 
C 0.77937 -1.341951 0.397805 -1.5 0 -1.5 
C -0.397805 -1.5 -0.77937 -1.341951 -1.06066 -1.06066 
C -1.341951 -0.77937 -1.5 -0.397805 -1.5 0 
C -1.5 0.397805 -1.341951 0.77937 -1.06066 1.06066 
C -0.77937 1.341951 -0.397805 1.5 0 1.5 
z
" id="m47d67b3f17" style="stroke:#000080;"/>
    </defs>
    <g>
     <use style="fill:#000080;stroke:#000080;" x="312.424282" xlink:href="#m47d67b3f17" y="105.663585"/>
     <use style="fill:#000080;stroke:#000080;" x="312.424282" xlink:href="#m47d67b3f17" y="105.663585"/>
    </g>
   </g>
   <g id="line2d_47">
    <path d="M 37.9781 294.16 
L 37.9781 286.804042 
L 139.083313 286.804042 
L 139.083313 285.884548 
L 140.844606 285.884548 
L 140.844606 284.965053 
L 141.476659 284.965053 
L 141.476659 282.206569 
L 141.723106 282.206569 
L 141.723106 281.746821 
L 142.165938 281.746821 
L 142.165938 279.907832 
L 143.281439 279.907832 
L 143.281439 279.448085 
L 144.363868 279.448085 
L 144.363868 278.52859 
L 144.880522 278.52859 
L 144.880522 278.068843 
L 145.049342 278.068843 
L 145.116408 276.229853 
L 145.282935 276.229853 
L 145.282935 275.310358 
L 145.546064 275.310358 
L 145.546064 273.931116 
L 145.740798 273.931116 
L 145.837343 272.092127 
L 146.249541 272.092127 
L 146.249541 271.63238 
L 146.49837 271.63238 
L 146.49837 270.253138 
L 147.920051 270.253138 
L 147.920051 269.79339 
L 148.061592 269.79339 
L 148.117884 268.414148 
L 148.229916 268.414148 
L 148.229916 267.954401 
L 148.589052 267.954401 
L 148.589052 267.034906 
L 148.779365 267.034906 
L 148.887176 262.437433 
L 149.82817 262.437433 
L 149.904307 261.517938 
L 150.030456 261.517938 
L 150.030456 261.058191 
L 150.525984 261.058191 
L 150.574759 258.759454 
L 150.720259 258.759454 
L 150.744389 256.920464 
L 150.888464 256.920464 
L 150.888464 256.00097 
L 151.078703 256.00097 
L 151.078703 255.541222 
L 151.313574 255.541222 
L 151.406631 252.322991 
L 151.522246 252.322991 
L 151.522246 251.863243 
L 151.728412 251.863243 
L 151.728412 251.403496 
L 152.420168 251.403496 
L 152.529177 250.484001 
L 152.615888 250.484001 
L 152.680636 248.645012 
L 152.915976 248.645012 
L 152.915976 248.185265 
L 153.064075 248.185265 
L 153.064075 247.26577 
L 153.190008 247.26577 
L 153.294252 245.42678 
L 153.377193 245.42678 
L 153.397866 242.668296 
L 154.086332 242.668296 
L 154.106169 241.289054 
L 155.126019 241.289054 
L 155.126019 240.829307 
L 155.256298 240.829307 
L 155.256298 240.36956 
L 155.677528 240.36956 
L 155.749742 238.990318 
L 155.803704 238.990318 
L 155.803704 238.070823 
L 156.017871 238.070823 
L 156.017871 237.611075 
L 156.490197 237.611075 
L 156.490197 237.151328 
L 156.696019 237.151328 
L 156.696019 236.691581 
L 156.848783 236.691581 
L 156.848783 236.231833 
L 156.983442 236.231833 
L 157.06707 234.852591 
L 157.266131 234.852591 
L 157.266131 234.392844 
L 157.381193 234.392844 
L 157.381193 233.013602 
L 157.785946 233.013602 
L 157.785946 232.553855 
L 158.367997 232.553855 
L 158.383457 230.714865 
L 158.885996 230.714865 
L 158.885996 228.875876 
L 159.976217 228.875876 
L 159.976217 226.117392 
L 161.524006 226.117392 
L 161.524006 225.197897 
L 161.690509 225.197897 
L 161.690509 223.818655 
L 162.943727 223.818655 
L 162.943727 222.439413 
L 163.214108 222.439413 
L 163.214108 221.979665 
L 163.353504 221.979665 
L 163.353504 221.060171 
L 163.787603 221.060171 
L 163.787603 220.600423 
L 164.033997 220.600423 
L 164.033997 219.221181 
L 164.890719 219.221181 
L 164.996179 216.00295 
L 165.00669 216.00295 
L 165.00669 215.083455 
L 165.666318 215.083455 
L 165.666318 214.16396 
L 165.907288 214.16396 
L 165.957068 212.784718 
L 166.301538 212.784718 
L 166.301538 212.324971 
L 166.447079 212.324971 
L 166.447079 211.865224 
L 166.648785 211.865224 
L 166.648785 211.405476 
L 166.857585 211.405476 
L 166.857585 210.945729 
L 167.820576 210.945729 
L 167.820576 210.026234 
L 168.112405 210.026234 
L 168.112405 209.10674 
L 168.791512 209.10674 
L 168.791512 208.646992 
L 169.166665 208.646992 
L 169.166665 207.26775 
L 170.575126 207.26775 
L 170.643361 204.509266 
L 170.831494 204.509266 
L 170.831494 202.210529 
L 172.410612 202.210529 
L 172.410612 201.750782 
L 173.392335 201.750782 
L 173.392335 201.291034 
L 174.198355 201.291034 
L 174.198355 200.831287 
L 174.424465 200.831287 
L 174.466909 199.452045 
L 174.974106 199.452045 
L 174.974106 198.992298 
L 177.100516 198.992298 
L 177.100516 198.072803 
L 177.276237 198.072803 
L 177.363428 195.774066 
L 178.241004 195.774066 
L 178.241004 195.314319 
L 180.780318 195.314319 
L 180.780318 193.475329 
L 181.682752 193.475329 
L 181.682752 192.555835 
L 182.460459 192.555835 
L 182.460459 191.63634 
L 184.891717 191.63634 
L 184.891717 190.716845 
L 185.621729 190.716845 
L 185.621729 189.337603 
L 186.034176 189.337603 
L 186.034176 188.877856 
L 186.968459 188.877856 
L 186.968459 188.418109 
L 188.132703 188.418109 
L 188.132703 187.958361 
L 189.522908 187.958361 
L 189.522908 187.498614 
L 190.019583 187.498614 
L 190.019583 186.119372 
L 192.969795 186.119372 
L 192.969795 185.199877 
L 193.435468 185.199877 
L 193.435468 184.74013 
L 193.664641 184.74013 
L 193.664641 183.820635 
L 199.780021 183.820635 
L 199.780021 183.360888 
L 200.985793 183.360888 
L 200.985793 182.90114 
L 201.124802 182.90114 
L 201.124802 181.981646 
L 201.69343 181.981646 
L 201.69343 181.521898 
L 202.096671 181.521898 
L 202.096671 180.602404 
L 202.421855 180.602404 
L 202.421855 180.142656 
L 206.479689 180.142656 
L 206.479689 178.303667 
L 208.682884 178.303667 
L 208.682884 177.384172 
L 208.905944 177.384172 
L 208.905944 176.924425 
L 210.922347 176.924425 
L 210.922347 175.545183 
L 211.42003 175.545183 
L 211.42003 175.085435 
L 211.694413 175.085435 
L 211.694413 173.706193 
L 213.248853 173.706193 
L 213.248853 171.867204 
L 214.197724 171.867204 
L 214.197724 171.407456 
L 216.48716 171.407456 
L 216.48716 170.487962 
L 216.776016 170.487962 
L 216.776016 170.028214 
L 218.478478 170.028214 
L 218.478478 169.568467 
L 220.723988 169.568467 
L 220.723988 169.10872 
L 221.377009 169.10872 
L 221.456035 165.890488 
L 221.504998 165.890488 
L 221.504998 164.970994 
L 221.90475 164.970994 
L 221.90475 164.511246 
L 222.37144 164.511246 
L 222.37144 163.591751 
L 222.815273 163.591751 
L 222.815273 162.672257 
L 223.654755 162.672257 
L 223.654755 160.833267 
L 224.230305 160.833267 
L 224.243982 158.994278 
L 224.705899 158.994278 
L 224.705899 157.615036 
L 224.833323 157.615036 
L 224.833323 156.695541 
L 226.410886 156.695541 
L 226.434678 154.856552 
L 230.030489 154.856552 
L 230.030489 153.47731 
L 230.974152 153.47731 
L 230.974152 153.017562 
L 232.490348 153.017562 
L 232.490348 152.557815 
L 233.875074 152.557815 
L 233.875074 151.63832 
L 234.241265 151.63832 
L 234.241265 151.178573 
L 234.977273 151.178573 
L 234.977273 150.259078 
L 238.425525 150.259078 
L 238.425525 148.879836 
L 238.942496 148.879836 
L 238.942496 148.420089 
L 240.934479 148.420089 
L 240.934479 147.960341 
L 241.207909 147.960341 
L 241.207909 147.500594 
L 241.994585 147.500594 
L 241.994585 145.661605 
L 243.317986 145.661605 
L 243.317986 144.74211 
L 243.516651 144.74211 
L 243.516651 143.822615 
L 247.620084 143.822615 
L 247.620084 143.362868 
L 249.006356 143.362868 
L 249.006356 142.903121 
L 249.963935 142.903121 
L 249.963935 142.443373 
L 251.08986 142.443373 
L 251.08986 141.064131 
L 252.445841 141.064131 
L 252.445841 139.684889 
L 253.89334 139.684889 
L 253.89334 138.765394 
L 256.289714 138.765394 
L 256.289714 138.305647 
L 256.496313 138.305647 
L 256.496313 137.8459 
L 257.563882 137.8459 
L 257.563882 137.386152 
L 258.39472 137.386152 
L 258.39472 136.926405 
L 258.911138 136.926405 
L 258.911138 136.466658 
L 259.023178 136.466658 
L 259.023178 136.00691 
L 260.889895 136.00691 
L 260.889895 135.547163 
L 261.017248 135.547163 
L 261.029422 133.708173 
L 261.77942 133.708173 
L 261.77942 133.248426 
L 262.14996 133.248426 
L 262.14996 132.788679 
L 263.878705 132.788679 
L 263.979414 131.869184 
L 265.409701 131.869184 
L 265.409701 130.949689 
L 267.323606 130.949689 
L 267.432563 130.030195 
L 267.823925 130.030195 
L 267.823925 129.570447 
L 268.462788 129.570447 
L 268.462839 128.650953 
L 269.978085 128.650953 
L 269.978085 128.191205 
L 271.790235 128.191205 
L 271.790235 127.731458 
L 273.16907 127.731458 
L 273.169109 126.811963 
L 274.327078 126.811963 
L 274.327078 125.892468 
L 274.767201 125.892468 
L 274.767201 125.432721 
L 275.830659 125.432721 
L 275.830659 124.972974 
L 277.818078 124.972974 
L 277.818195 123.593732 
L 278.159417 123.593732 
L 278.159417 123.133984 
L 278.829938 123.133984 
L 278.829993 122.21449 
L 279.368031 122.21449 
L 279.368044 121.294995 
L 280.187497 121.294995 
L 280.187586 120.3755 
L 281.324655 120.3755 
L 281.324655 119.915753 
L 281.749166 119.915753 
L 281.749166 119.456005 
L 282.993017 119.456005 
L 282.993104 118.536511 
L 283.659523 118.536511 
L 283.659523 118.076763 
L 284.945645 118.076763 
L 284.945645 117.617016 
L 286.543252 117.617016 
L 286.546041 116.237774 
L 289.01643 116.237774 
L 289.016461 115.318279 
L 291.175724 115.318279 
L 291.175724 114.858532 
L 292.558441 114.858532 
L 292.558441 114.398785 
L 293.091523 114.398785 
L 293.091523 113.939037 
L 294.818316 113.939037 
L 294.81836 113.019543 
L 295.945216 113.019543 
L 295.945226 112.100048 
L 296.071296 112.100048 
L 296.071296 111.6403 
L 296.38409 111.6403 
L 296.38409 111.180553 
L 297.821842 111.180553 
L 297.821842 110.720806 
L 299.147022 110.720806 
L 299.147056 109.801311 
L 301.524018 109.801311 
L 301.52522 108.881816 
L 302.600034 108.881816 
L 302.600034 108.422069 
L 306.334809 108.422069 
L 306.334809 107.962322 
L 307.154864 107.962322 
L 307.154864 107.502574 
L 307.935983 107.502574 
L 307.93677 106.58308 
L 310.561123 106.58308 
L 310.561123 106.123332 
L 312.424282 106.123332 
L 312.424282 105.663585 
L 333.569032 105.663585 
L 333.569032 105.663585 
" style="fill:none;stroke:#000080;stroke-linecap:square;stroke-width:1.5;"/>
   </g>
   <g id="line2d_48">
    <defs>
     <path d="M 0 6 
C 1.591219 6 3.117479 5.367802 4.242641 4.242641 
C 5.367802 3.117479 6 1.591219 6 0 
C 6 -1.591219 5.367802 -3.117479 4.242641 -4.242641 
C 3.117479 -5.367802 1.591219 -6 0 -6 
C -1.591219 -6 -3.117479 -5.367802 -4.242641 -4.242641 
C -5.367802 -3.117479 -6 -1.591219 -6 0 
C -6 1.591219 -5.367802 3.117479 -4.242641 4.242641 
C -3.117479 5.367802 -1.591219 6 0 6 
z
" id="mb5c8d3d60d" style="stroke:#000080;stroke-width:1.5;"/>
    </defs>
    <g>
     <use style="fill:none;stroke:#000080;stroke-width:1.5;" x="170.575126" xlink:href="#mb5c8d3d60d" y="207.26775"/>
     <use style="fill:none;stroke:#000080;stroke-width:1.5;" x="222.37144" xlink:href="#mb5c8d3d60d" y="163.591751"/>
     <use style="fill:none;stroke:#000080;stroke-width:1.5;" x="279.368044" xlink:href="#mb5c8d3d60d" y="121.754742"/>
     <use style="fill:none;stroke:#000080;stroke-width:1.5;" x="312.424282" xlink:href="#mb5c8d3d60d" y="105.663585"/>
     <use style="fill:none;stroke:#000080;stroke-width:1.5;" x="333.569032" xlink:href="#mb5c8d3d60d" y="105.663585"/>
    </g>
   </g>
   <g id="line2d_49">
    <path style="fill:none;stroke:#000080;stroke-linecap:square;stroke-width:1.5;"/>
    <g/>
   </g>
   <g id="line2d_50">
    <path clip-path="url(#p5da1c40279)" d="M 254.510461 138.765394 
" style="fill:none;stroke:#000080;stroke-linecap:square;stroke-width:1.5;"/>
    <defs>
     <path d="M -12 12 
L 12 -12 
M -12 -12 
L 12 12 
" id="m77410f785b" style="stroke:#000080;stroke-width:3;"/>
    </defs>
    <g clip-path="url(#p5da1c40279)">
     <use style="fill:#000080;stroke:#000080;stroke-width:3;" x="254.510461" xlink:href="#m77410f785b" y="138.765394"/>
    </g>
   </g>
   <g id="line2d_51">
    <defs>
     <path d="M 0 1.5 
C 0.397805 1.5 0.77937 1.341951 1.06066 1.06066 
C 1.341951 0.77937 1.5 0.397805 1.5 0 
C 1.5 -0.397805 1.341951 -0.77937 1.06066 -1.06066 
C 0.77937 -1.341951 0.397805 -1.5 0 -1.5 
C -0.397805 -1.5 -0.77937 -1.341951 -1.06066 -1.06066 
C -1.341951 -0.77937 -1.5 -0.397805 -1.5 0 
C -1.5 0.397805 -1.341951 0.77937 -1.06066 1.06066 
C -0.77937 1.341951 -0.397805 1.5 0 1.5 
z
" id="m6efeefca38" style="stroke:#ff00ff;"/>
    </defs>
    <g>
     <use style="fill:#ff00ff;stroke:#ff00ff;" x="329.527095" xlink:href="#m6efeefca38" y="174.625688"/>
     <use style="fill:#ff00ff;stroke:#ff00ff;" x="329.527095" xlink:href="#m6efeefca38" y="174.625688"/>
    </g>
   </g>
   <g id="line2d_52">
    <path d="M 37.9781 294.16 
L 37.9781 289.562526 
L 49.878634 289.562526 
L 49.878634 289.102779 
L 61.779168 289.102779 
L 61.779168 285.884548 
L 65.610284 285.884548 
L 65.610284 283.126064 
L 68.740534 283.126064 
L 68.740534 280.827327 
L 71.387123 280.827327 
L 71.387123 278.988337 
L 77.510818 278.988337 
L 77.510818 276.229853 
L 85.580236 276.229853 
L 85.580236 275.310358 
L 89.411353 275.310358 
L 89.411353 274.850611 
L 90.249023 274.850611 
L 90.249023 274.390864 
L 95.188191 274.390864 
L 95.188191 273.471369 
L 98.521625 273.471369 
L 98.521625 273.011622 
L 100.877209 273.011622 
L 100.877209 272.092127 
L 102.553549 272.092127 
L 102.553549 269.333643 
L 108.273253 269.333643 
L 108.273253 268.414148 
L 112.331775 268.414148 
L 112.331775 267.494653 
L 119.141873 267.494653 
L 119.141873 265.195917 
L 123.540853 265.195917 
L 123.540853 263.816675 
L 130.185734 263.816675 
L 130.185734 262.437433 
L 130.812976 262.437433 
L 130.812976 261.977685 
L 131.418108 261.977685 
L 131.418108 261.517938 
L 131.785763 261.517938 
L 131.785763 260.598443 
L 135.905438 260.598443 
L 135.905438 259.678948 
L 138.054344 259.678948 
L 138.054344 259.219201 
L 139.827878 259.219201 
L 139.827878 258.299706 
L 148.25781 258.299706 
L 148.25781 257.380212 
L 148.589052 257.380212 
L 148.589052 256.920464 
L 148.887176 256.920464 
L 148.887176 256.00097 
L 150.155686 256.00097 
L 150.230387 252.322991 
L 151.45297 252.322991 
L 151.45297 251.863243 
L 153.541884 251.863243 
L 153.541884 250.024254 
L 155.803704 250.024254 
L 155.803704 248.645012 
L 158.475929 248.645012 
L 158.475929 248.185265 
L 160.988049 248.185265 
L 160.988049 247.26577 
L 163.514715 247.26577 
L 163.514715 246.806023 
L 163.79888 246.806023 
L 163.79888 245.886528 
L 165.473122 245.886528 
L 165.473122 245.42678 
L 165.807295 245.42678 
L 165.807295 244.967033 
L 168.774646 244.967033 
L 168.774646 243.128044 
L 170.222066 243.128044 
L 170.222066 242.668296 
L 170.838977 242.668296 
L 170.838977 241.748802 
L 177.383879 241.748802 
L 177.383879 238.53057 
L 177.561796 238.53057 
L 177.561796 237.151328 
L 178.015932 237.151328 
L 178.015932 236.231833 
L 179.469548 236.231833 
L 179.469548 235.772086 
L 183.105882 235.772086 
L 183.105882 234.852591 
L 184.649126 234.852591 
L 184.649126 233.473349 
L 188.673265 233.473349 
L 188.673265 232.553855 
L 189.633416 232.553855 
L 189.633416 232.094107 
L 189.817681 232.094107 
L 189.817681 231.63436 
L 190.180382 231.63436 
L 190.180382 231.174612 
L 191.82997 231.174612 
L 191.82997 229.335623 
L 195.402743 229.335623 
L 195.402743 228.416128 
L 195.82158 228.416128 
L 195.82158 227.496634 
L 198.271005 227.496634 
L 198.271005 226.577139 
L 199.197683 226.577139 
L 199.197683 226.117392 
L 200.971571 226.117392 
L 200.971571 225.197897 
L 201.44862 225.197897 
L 201.44862 223.818655 
L 209.203191 223.818655 
L 209.203191 222.89916 
L 209.440182 222.89916 
L 209.440182 221.979665 
L 211.986285 221.979665 
L 211.986285 220.600423 
L 212.459104 220.600423 
L 212.459104 219.680929 
L 214.980602 219.680929 
L 214.980602 219.221181 
L 215.115627 219.221181 
L 215.115627 218.301687 
L 219.25383 218.301687 
L 219.25383 216.922445 
L 223.64578 216.922445 
L 223.64578 216.00295 
L 225.745952 216.00295 
L 225.745952 214.16396 
L 227.465083 214.16396 
L 227.465083 213.704213 
L 230.316147 213.704213 
L 230.316147 213.244466 
L 232.010924 213.244466 
L 232.010924 211.865224 
L 234.939039 211.865224 
L 234.939039 210.945729 
L 241.5188 210.945729 
L 241.5188 210.026234 
L 241.819729 210.026234 
L 241.819729 209.566487 
L 247.490128 209.566487 
L 247.490128 208.646992 
L 249.118241 208.646992 
L 249.118241 208.187245 
L 250.101821 208.187245 
L 250.101821 206.808003 
L 251.604115 206.808003 
L 251.604115 205.428761 
L 253.546936 205.428761 
L 253.546936 204.509266 
L 254.283864 204.509266 
L 254.340924 203.130024 
L 255.467522 203.130024 
L 255.467522 201.750782 
L 262.213413 201.750782 
L 262.213413 200.37154 
L 263.296492 200.37154 
L 263.296492 199.911792 
L 265.920634 199.911792 
L 265.920634 199.452045 
L 267.416169 199.452045 
L 267.416169 198.992298 
L 268.687635 198.992298 
L 268.687635 198.072803 
L 269.917375 198.072803 
L 269.917375 197.153308 
L 270.406171 197.153308 
L 270.406171 195.314319 
L 277.139562 195.314319 
L 277.139562 194.394824 
L 277.508852 194.394824 
L 277.508852 193.935077 
L 280.790834 193.935077 
L 280.790834 193.475329 
L 289.900298 193.475329 
L 289.900298 192.555835 
L 290.157652 192.555835 
L 290.157652 191.63634 
L 292.272477 191.63634 
L 292.272477 190.716845 
L 294.952367 190.716845 
L 294.952367 189.797351 
L 295.652819 189.797351 
L 295.652819 189.337603 
L 296.077959 189.337603 
L 296.077959 188.877856 
L 296.535358 188.877856 
L 296.535358 188.418109 
L 297.804325 188.418109 
L 297.901751 187.498614 
L 299.3533 187.498614 
L 299.3533 187.038867 
L 299.589516 187.038867 
L 299.589516 186.579119 
L 303.017443 186.579119 
L 303.017443 186.119372 
L 303.73013 186.119372 
L 303.73013 185.659624 
L 303.993087 185.659624 
L 303.993087 185.199877 
L 304.106815 185.199877 
L 304.106815 184.74013 
L 305.077571 184.74013 
L 305.077571 184.280382 
L 306.588621 184.280382 
L 306.686944 183.360888 
L 308.80035 183.360888 
L 308.80035 182.441393 
L 311.008097 182.441393 
L 311.008097 181.981646 
L 311.459018 181.981646 
L 311.459018 181.062151 
L 311.627123 181.062151 
L 311.627123 180.142656 
L 312.330167 180.142656 
L 312.330167 179.223161 
L 313.335467 179.223161 
L 313.335467 178.763414 
L 316.439657 178.763414 
L 316.439657 178.303667 
L 316.892995 178.303667 
L 316.892995 177.843919 
L 320.819535 177.843919 
L 320.819535 177.384172 
L 324.174963 177.384172 
L 324.174963 176.924425 
L 325.858128 176.924425 
L 325.858128 176.464677 
L 326.912064 176.464677 
L 326.912064 176.00493 
L 327.204186 176.00493 
L 327.204186 175.545183 
L 329.272215 175.545183 
L 329.272215 175.085435 
L 329.527095 175.085435 
L 329.527095 174.625688 
L 333.569032 174.625688 
L 333.569032 174.625688 
" style="fill:none;stroke:#ff00ff;stroke-linecap:square;stroke-width:1.5;"/>
   </g>
   <g id="line2d_53">
    <defs>
     <path d="M -0 8.485281 
L 5.091169 0 
L 0 -8.485281 
L -5.091169 -0 
z
" id="m9170211d44" style="stroke:#ff00ff;stroke-linejoin:miter;stroke-width:1.5;"/>
    </defs>
    <g>
     <use style="fill:none;stroke:#ff00ff;stroke-linejoin:miter;stroke-width:1.5;" x="119.141873" xlink:href="#m9170211d44" y="267.494653"/>
     <use style="fill:none;stroke:#ff00ff;stroke-linejoin:miter;stroke-width:1.5;" x="184.649126" xlink:href="#m9170211d44" y="233.473349"/>
     <use style="fill:none;stroke:#ff00ff;stroke-linejoin:miter;stroke-width:1.5;" x="241.819729" xlink:href="#m9170211d44" y="210.026234"/>
     <use style="fill:none;stroke:#ff00ff;stroke-linejoin:miter;stroke-width:1.5;" x="316.892995" xlink:href="#m9170211d44" y="177.843919"/>
     <use style="fill:none;stroke:#ff00ff;stroke-linejoin:miter;stroke-width:1.5;" x="329.527095" xlink:href="#m9170211d44" y="174.625688"/>
     <use style="fill:none;stroke:#ff00ff;stroke-linejoin:miter;stroke-width:1.5;" x="333.569032" xlink:href="#m9170211d44" y="174.625688"/>
    </g>
   </g>
   <g id="line2d_54">
    <path style="fill:none;stroke:#ff00ff;stroke-linecap:square;stroke-width:1.5;"/>
    <g/>
   </g>
   <g id="line2d_55">
    <path clip-path="url(#p5da1c40279)" d="M 294.036313 190.716845 
" style="fill:none;stroke:#ff00ff;stroke-linecap:square;stroke-width:1.5;"/>
    <defs>
     <path d="M -12 12 
L 12 -12 
M -12 -12 
L 12 12 
" id="m4630134e6d" style="stroke:#ff00ff;stroke-width:3;"/>
    </defs>
    <g clip-path="url(#p5da1c40279)">
     <use style="fill:#ff00ff;stroke:#ff00ff;stroke-width:3;" x="294.036313" xlink:href="#m4630134e6d" y="190.716845"/>
    </g>
   </g>
   <g id="line2d_56">
    <defs>
     <path d="M 0 1.5 
C 0.397805 1.5 0.77937 1.341951 1.06066 1.06066 
C 1.341951 0.77937 1.5 0.397805 1.5 0 
C 1.5 -0.397805 1.341951 -0.77937 1.06066 -1.06066 
C 0.77937 -1.341951 0.397805 -1.5 0 -1.5 
C -0.397805 -1.5 -0.77937 -1.341951 -1.06066 -1.06066 
C -1.341951 -0.77937 -1.5 -0.397805 -1.5 0 
C -1.5 0.397805 -1.341951 0.77937 -1.06066 1.06066 
C -0.77937 1.341951 -0.397805 1.5 0 1.5 
z
" id="m7d81adf09c" style="stroke:#ffa500;"/>
    </defs>
    <g>
     <use style="fill:#ffa500;stroke:#ffa500;" x="238.585657" xlink:href="#m7d81adf09c" y="252.782738"/>
     <use style="fill:#ffa500;stroke:#ffa500;" x="238.585657" xlink:href="#m7d81adf09c" y="252.782738"/>
    </g>
   </g>
   <g id="line2d_57">
    <path d="M 37.9781 294.16 
L 37.9781 285.884548 
L 137.120461 285.884548 
L 137.120461 285.4248 
L 139.130806 285.4248 
L 139.130806 284.965053 
L 140.054085 284.965053 
L 140.054085 284.505306 
L 148.887176 284.505306 
L 148.887176 283.126064 
L 154.361984 283.126064 
L 154.361984 281.287074 
L 156.334194 281.287074 
L 156.334194 280.827327 
L 156.351598 280.827327 
L 156.351598 280.367579 
L 160.747361 280.367579 
L 160.747361 279.448085 
L 167.063876 279.448085 
L 167.063876 278.52859 
L 171.799111 278.52859 
L 171.799111 278.068843 
L 174.369738 278.068843 
L 174.369738 277.149348 
L 175.248253 277.149348 
L 175.248253 275.770106 
L 175.755687 275.770106 
L 175.755687 275.310358 
L 175.856516 275.310358 
L 175.856516 274.850611 
L 176.133528 274.850611 
L 176.133528 274.390864 
L 177.307061 274.390864 
L 177.307061 273.931116 
L 177.470526 273.931116 
L 177.470526 273.471369 
L 177.772891 273.471369 
L 177.772891 273.011622 
L 178.211814 273.011622 
L 178.211814 272.551874 
L 179.324126 272.551874 
L 179.324126 272.092127 
L 180.126554 272.092127 
L 180.126554 271.63238 
L 180.265363 271.63238 
L 180.265363 271.172632 
L 180.368738 271.172632 
L 180.368738 270.712885 
L 180.552409 270.712885 
L 180.552409 270.253138 
L 180.742543 270.253138 
L 180.742543 269.79339 
L 180.822193 269.79339 
L 180.822193 269.333643 
L 184.046291 269.333643 
L 184.046291 268.873896 
L 184.184388 268.873896 
L 184.184388 268.414148 
L 185.813562 268.414148 
L 185.813562 267.954401 
L 185.925777 267.954401 
L 185.925777 267.494653 
L 187.832285 267.494653 
L 187.832285 267.034906 
L 187.843403 267.034906 
L 187.843403 266.575159 
L 187.893345 266.575159 
L 187.893345 266.115411 
L 189.630913 266.115411 
L 189.630913 265.655664 
L 189.670927 265.655664 
L 189.670927 265.195917 
L 189.820158 265.195917 
L 189.820158 264.736169 
L 190.173106 264.736169 
L 190.173106 264.276422 
L 190.318052 264.276422 
L 190.318052 263.816675 
L 192.525019 263.816675 
L 192.525019 263.356927 
L 196.198022 263.356927 
L 196.198022 262.89718 
L 197.905355 262.89718 
L 197.905355 262.437433 
L 200.983208 262.437433 
L 200.983208 261.977685 
L 202.170407 261.977685 
L 202.170407 261.517938 
L 204.554112 261.517938 
L 204.554112 261.058191 
L 204.650426 261.058191 
L 204.650426 260.138696 
L 207.512206 260.138696 
L 207.512206 259.678948 
L 210.068295 259.678948 
L 210.068295 258.759454 
L 210.095685 258.759454 
L 210.095685 258.299706 
L 214.209095 258.299706 
L 214.209095 257.839959 
L 214.249728 257.839959 
L 214.249728 257.380212 
L 215.982619 257.380212 
L 215.982619 256.920464 
L 217.662535 256.920464 
L 217.662535 256.460717 
L 219.075871 256.460717 
L 219.075871 256.00097 
L 221.674307 256.00097 
L 221.674307 255.541222 
L 229.292097 255.541222 
L 229.292097 255.081475 
L 229.300048 255.081475 
L 229.300048 254.621728 
L 230.72426 254.621728 
L 230.72426 254.16198 
L 232.097673 254.16198 
L 232.097673 253.702233 
L 236.136178 253.702233 
L 236.136178 253.242485 
L 238.585657 253.242485 
L 238.585657 252.782738 
L 333.569032 252.782738 
" style="fill:none;stroke:#ffa500;stroke-linecap:square;stroke-width:1.5;"/>
   </g>
   <g id="line2d_58">
    <defs>
     <path d="M 0 -6 
L -1.347084 -1.854102 
L -5.706339 -1.854102 
L -2.179628 0.708204 
L -3.526712 4.854102 
L -0 2.291796 
L 3.526712 4.854102 
L 2.179628 0.708204 
L 5.706339 -1.854102 
L 1.347084 -1.854102 
z
" id="mb87284d3eb" style="stroke:#ffa500;stroke-linejoin:bevel;stroke-width:1.5;"/>
    </defs>
    <g>
     <use style="fill:none;stroke:#ffa500;stroke-linejoin:bevel;stroke-width:1.5;" x="178.211814" xlink:href="#mb87284d3eb" y="272.551874"/>
     <use style="fill:none;stroke:#ffa500;stroke-linejoin:bevel;stroke-width:1.5;" x="229.300048" xlink:href="#mb87284d3eb" y="254.621728"/>
     <use style="fill:none;stroke:#ffa500;stroke-linejoin:bevel;stroke-width:1.5;" x="238.585657" xlink:href="#mb87284d3eb" y="252.782738"/>
     <use style="fill:none;stroke:#ffa500;stroke-linejoin:bevel;stroke-width:1.5;" x="238.585657" xlink:href="#mb87284d3eb" y="252.782738"/>
     <use style="fill:none;stroke:#ffa500;stroke-linejoin:bevel;stroke-width:1.5;" x="333.569032" xlink:href="#mb87284d3eb" y="252.782738"/>
    </g>
   </g>
   <g id="line2d_59">
    <path style="fill:none;stroke:#ffa500;stroke-linecap:square;stroke-width:1.5;"/>
    <g/>
   </g>
   <g id="line2d_60">
    <path clip-path="url(#p5da1c40279)" d="M 175.995581 274.850611 
" style="fill:none;stroke:#ffa500;stroke-linecap:square;stroke-width:1.5;"/>
    <defs>
     <path d="M -12 12 
L 12 -12 
M -12 -12 
L 12 12 
" id="maf79889ef3" style="stroke:#ffa500;stroke-width:3;"/>
    </defs>
    <g clip-path="url(#p5da1c40279)">
     <use style="fill:#ffa500;stroke:#ffa500;stroke-width:3;" x="175.995581" xlink:href="#maf79889ef3" y="274.850611"/>
    </g>
   </g>
   <g id="line2d_61">
    <defs>
     <path d="M 0 1.5 
C 0.397805 1.5 0.77937 1.341951 1.06066 1.06066 
C 1.341951 0.77937 1.5 0.397805 1.5 0 
C 1.5 -0.397805 1.341951 -0.77937 1.06066 -1.06066 
C 0.77937 -1.341951 0.397805 -1.5 0 -1.5 
C -0.397805 -1.5 -0.77937 -1.341951 -1.06066 -1.06066 
C -1.341951 -0.77937 -1.5 -0.397805 -1.5 0 
C -1.5 0.397805 -1.341951 0.77937 -1.06066 1.06066 
C -0.77937 1.341951 -0.397805 1.5 0 1.5 
z
" id="mc5aa3b0769" style="stroke:#6495ed;"/>
    </defs>
    <g>
     <use style="fill:#6495ed;stroke:#6495ed;" x="253.908692" xlink:href="#mc5aa3b0769" y="119.456005"/>
     <use style="fill:#6495ed;stroke:#6495ed;" x="253.908692" xlink:href="#mc5aa3b0769" y="119.456005"/>
    </g>
   </g>
   <g id="line2d_62">
    <path d="M 37.9781 294.16 
L 37.9781 286.344295 
L 49.878634 286.344295 
L 49.878634 285.4248 
L 61.779168 285.4248 
L 61.779168 283.585811 
L 65.610284 283.585811 
L 65.610284 281.746821 
L 68.740534 281.746821 
L 68.740534 280.367579 
L 71.387123 280.367579 
L 71.387123 278.52859 
L 80.641068 278.52859 
L 80.641068 277.149348 
L 84.472185 277.149348 
L 84.472185 276.229853 
L 86.621091 276.229853 
L 86.621091 275.310358 
L 88.530706 275.310358 
L 88.530706 274.390864 
L 93.242469 274.390864 
L 93.242469 273.931116 
L 93.915843 273.931116 
L 93.915843 273.471369 
L 94.563801 273.471369 
L 94.563801 273.011622 
L 95.790669 273.011622 
L 95.790669 272.092127 
L 98.009084 272.092127 
L 98.009084 271.172632 
L 101.311887 271.172632 
L 101.311887 270.253138 
L 102.149557 270.253138 
L 102.149557 269.333643 
L 103.711438 269.333643 
L 103.711438 268.414148 
L 107.392607 268.414148 
L 107.392607 267.954401 
L 110.167801 267.954401 
L 110.167801 264.276422 
L 110.672804 264.276422 
L 110.672804 262.89718 
L 111.163375 262.89718 
L 111.163375 262.437433 
L 113.844474 262.437433 
L 113.844474 261.977685 
L 114.253276 261.977685 
L 114.253276 261.517938 
L 121.415449 261.517938 
L 121.415449 260.598443 
L 121.548028 260.598443 
L 121.548028 260.138696 
L 123.422853 260.138696 
L 123.422853 258.759454 
L 124.232309 258.759454 
L 124.232309 257.839959 
L 124.567867 257.839959 
L 124.567867 256.920464 
L 126.454147 256.920464 
L 126.454147 256.00097 
L 126.651492 256.00097 
L 126.651492 255.081475 
L 127.039505 255.081475 
L 127.039505 253.702233 
L 130.025276 253.702233 
L 130.025276 251.863243 
L 132.074321 251.863243 
L 132.074321 251.403496 
L 132.911992 251.403496 
L 132.911992 250.484001 
L 133.249308 250.484001 
L 133.249308 250.024254 
L 133.448562 250.024254 
L 133.448562 249.564507 
L 137.173698 249.564507 
L 137.173698 249.104759 
L 138.60101 249.104759 
L 138.60101 248.645012 
L 139.130806 248.645012 
L 139.130806 247.725517 
L 139.272503 247.725517 
L 139.272503 247.26577 
L 139.736554 247.26577 
L 139.736554 246.806023 
L 140.80163 246.806023 
L 140.80163 246.346275 
L 140.930236 246.346275 
L 140.930236 245.42678 
L 141.682276 245.42678 
L 141.682276 244.047538 
L 142.006226 244.047538 
L 142.006226 243.128044 
L 142.324177 243.128044 
L 142.324177 242.668296 
L 142.519947 242.668296 
L 142.519947 242.208549 
L 143.93905 242.208549 
L 143.93905 241.289054 
L 147.075273 241.289054 
L 147.075273 239.450065 
L 147.400618 239.450065 
L 147.400618 238.990318 
L 147.546488 238.990318 
L 147.546488 238.53057 
L 148.45181 238.53057 
L 148.45181 237.611075 
L 148.643643 237.611075 
L 148.643643 235.312339 
L 148.887176 235.312339 
L 148.887176 234.852591 
L 149.82817 234.852591 
L 149.82817 234.392844 
L 150.055575 234.392844 
L 150.080658 233.473349 
L 150.255215 233.473349 
L 150.255215 232.553855 
L 150.91236 232.553855 
L 150.91236 231.63436 
L 152.021904 231.63436 
L 152.088926 228.875876 
L 152.33246 228.875876 
L 152.33246 227.956381 
L 153.62364 227.956381 
L 153.62364 227.036886 
L 154.322875 227.036886 
L 154.322875 225.657644 
L 154.652496 225.657644 
L 154.652496 224.278402 
L 155.330302 224.278402 
L 155.330302 222.439413 
L 155.495653 222.439413 
L 155.495653 221.519918 
L 156.678961 221.519918 
L 156.678961 220.600423 
L 156.882547 220.600423 
L 156.882547 219.221181 
L 158.071571 219.221181 
L 158.150076 218.301687 
L 158.659391 218.301687 
L 158.659391 216.922445 
L 160.448528 216.922445 
L 160.489586 213.704213 
L 160.6799 213.704213 
L 160.787711 212.784718 
L 160.948168 212.784718 
L 160.948168 211.405476 
L 161.146654 211.405476 
L 161.146654 209.566487 
L 161.433678 209.566487 
L 161.433678 208.187245 
L 161.588237 208.187245 
L 161.588237 207.26775 
L 162.118494 207.26775 
L 162.118494 205.888508 
L 162.450923 205.888508 
L 162.450923 203.589771 
L 163.026469 203.589771 
L 163.097074 202.210529 
L 163.79888 202.210529 
L 163.79888 201.750782 
L 165.37056 201.750782 
L 165.37056 201.291034 
L 166.046308 201.291034 
L 166.046308 200.37154 
L 166.359903 200.37154 
L 166.359903 199.911792 
L 166.772474 199.911792 
L 166.772474 199.452045 
L 167.377893 199.452045 
L 167.396187 197.613056 
L 167.496457 197.613056 
L 167.496457 196.693561 
L 168.312907 196.693561 
L 168.312907 195.774066 
L 168.757765 195.774066 
L 168.757765 195.314319 
L 169.452887 195.314319 
L 169.4772 193.015582 
L 169.77426 193.015582 
L 169.77426 192.096087 
L 170.921071 192.096087 
L 171.002775 190.716845 
L 171.091464 190.716845 
L 171.091464 189.797351 
L 171.799111 189.797351 
L 171.799111 189.337603 
L 172.058878 189.337603 
L 172.058878 188.877856 
L 172.355912 188.877856 
L 172.355912 188.418109 
L 173.020856 188.418109 
L 173.020856 187.958361 
L 173.230394 187.958361 
L 173.230394 187.498614 
L 173.443835 187.498614 
L 173.456686 186.119372 
L 173.913028 186.119372 
L 173.913028 185.199877 
L 174.388 185.199877 
L 174.388 184.280382 
L 174.641642 184.280382 
L 174.665604 183.360888 
L 174.755165 183.360888 
L 174.755165 182.441393 
L 176.056414 182.441393 
L 176.160985 180.142656 
L 176.35739 180.142656 
L 176.35739 178.303667 
L 177.383879 178.303667 
L 177.383879 176.924425 
L 177.657613 176.924425 
L 177.657613 175.085435 
L 178.079839 175.085435 
L 178.148397 173.246446 
L 178.4103 173.246446 
L 178.4103 172.326951 
L 178.701425 172.326951 
L 178.701425 171.867204 
L 179.36515 171.867204 
L 179.3879 170.028214 
L 179.613749 170.028214 
L 179.680929 167.729478 
L 180.50135 167.729478 
L 180.594844 166.809983 
L 180.658299 166.809983 
L 180.658299 164.970994 
L 182.292361 164.970994 
L 182.292361 163.591751 
L 182.585462 163.591751 
L 182.585462 163.132004 
L 182.858791 163.132004 
L 182.858791 162.212509 
L 182.973559 162.212509 
L 182.973559 161.752762 
L 183.928028 161.752762 
L 183.928028 161.293015 
L 184.300903 161.293015 
L 184.300903 160.833267 
L 184.50461 160.833267 
L 184.50461 159.913773 
L 186.04035 159.913773 
L 186.04035 159.454025 
L 187.171918 159.454025 
L 187.171918 158.994278 
L 187.790529 158.994278 
L 187.790529 158.074783 
L 188.312084 158.074783 
L 188.312084 156.235794 
L 189.416756 156.235794 
L 189.416756 155.776046 
L 190.899862 155.776046 
L 190.899862 155.316299 
L 191.358765 155.316299 
L 191.358765 153.47731 
L 192.851895 153.47731 
L 192.851895 153.017562 
L 197.350637 153.017562 
L 197.350637 152.557815 
L 201.88704 152.557815 
L 201.920117 151.63832 
L 202.495394 151.63832 
L 202.495394 151.178573 
L 202.780619 151.178573 
L 202.780619 150.718826 
L 202.99923 150.718826 
L 203.013016 149.799331 
L 203.193514 149.799331 
L 203.193514 149.339583 
L 203.375508 149.339583 
L 203.375508 148.879836 
L 203.872001 148.879836 
L 203.90147 147.960341 
L 204.65147 147.960341 
L 204.65147 147.500594 
L 205.067085 147.500594 
L 205.067085 147.040847 
L 205.251535 147.040847 
L 205.251535 146.581099 
L 205.459936 146.581099 
L 205.459936 146.121352 
L 206.529354 146.121352 
L 206.529354 145.661605 
L 206.650571 145.661605 
L 206.718265 144.282363 
L 209.348319 144.282363 
L 209.348319 143.822615 
L 212.273947 143.822615 
L 212.279972 142.903121 
L 212.402038 142.903121 
L 212.402038 142.443373 
L 212.916025 142.443373 
L 212.929566 141.064131 
L 213.75689 141.064131 
L 213.75689 140.604384 
L 213.895756 140.604384 
L 213.895756 140.144636 
L 214.526804 140.144636 
L 214.526804 139.684889 
L 214.643279 139.684889 
L 214.643279 139.225142 
L 218.451397 139.225142 
L 218.451397 138.765394 
L 218.71018 138.765394 
L 218.805196 137.8459 
L 219.14198 137.8459 
L 219.14198 137.386152 
L 219.491647 137.386152 
L 219.503518 136.00691 
L 222.829763 136.00691 
L 222.829763 135.547163 
L 223.724326 135.547163 
L 223.724326 135.087416 
L 224.081485 135.087416 
L 224.081485 134.627668 
L 226.168755 134.627668 
L 226.168755 134.167921 
L 226.373812 134.167921 
L 226.373812 133.708173 
L 227.10305 133.708173 
L 227.103332 132.788679 
L 227.409987 132.788679 
L 227.410542 131.869184 
L 227.735495 131.869184 
L 227.735495 131.409437 
L 229.326111 131.409437 
L 229.326111 130.949689 
L 229.947445 130.949689 
L 229.947445 130.489942 
L 230.465803 130.489942 
L 230.465803 130.030195 
L 230.968067 130.030195 
L 230.968067 129.570447 
L 231.844453 129.570447 
L 231.844453 129.1107 
L 232.366132 129.1107 
L 232.366132 128.650953 
L 232.591333 128.650953 
L 232.595844 127.731458 
L 232.844563 127.731458 
L 232.844563 127.27171 
L 234.346562 127.27171 
L 234.346562 126.811963 
L 234.909681 126.811963 
L 234.909681 126.352216 
L 236.563205 126.352216 
L 236.563205 125.892468 
L 236.752374 125.892468 
L 236.752374 125.432721 
L 238.082401 125.432721 
L 238.082401 124.972974 
L 241.194992 124.972974 
L 241.194992 124.513226 
L 241.336293 124.513226 
L 241.336293 124.053479 
L 242.388488 124.053479 
L 242.388488 123.593732 
L 243.584563 123.593732 
L 243.584563 123.133984 
L 246.011938 123.133984 
L 246.011938 122.674237 
L 246.897961 122.674237 
L 246.897961 122.21449 
L 247.947988 122.21449 
L 247.947988 121.754742 
L 248.83524 121.754742 
L 248.83524 121.294995 
L 249.511312 121.294995 
L 249.511312 120.835248 
L 249.687296 120.835248 
L 249.687296 120.3755 
L 251.101097 120.3755 
L 251.101097 119.915753 
L 253.908692 119.915753 
L 253.908692 119.456005 
L 333.569032 119.456005 
L 333.569032 119.456005 
" style="fill:none;stroke:#6495ed;stroke-linecap:square;stroke-width:1.5;"/>
   </g>
   <g id="line2d_63">
    <defs>
     <path d="M -0 6 
L 6 -6 
L -6 -6 
z
" id="m45ec59a628" style="stroke:#6495ed;stroke-linejoin:miter;stroke-width:1.5;"/>
    </defs>
    <g>
     <use style="fill:none;stroke:#6495ed;stroke-linejoin:miter;stroke-width:1.5;" x="71.387123" xlink:href="#m45ec59a628" y="278.52859"/>
     <use style="fill:none;stroke:#6495ed;stroke-linejoin:miter;stroke-width:1.5;" x="133.448562" xlink:href="#m45ec59a628" y="250.024254"/>
     <use style="fill:none;stroke:#6495ed;stroke-linejoin:miter;stroke-width:1.5;" x="189.416756" xlink:href="#m45ec59a628" y="155.776046"/>
     <use style="fill:none;stroke:#6495ed;stroke-linejoin:miter;stroke-width:1.5;" x="253.908692" xlink:href="#m45ec59a628" y="119.915753"/>
     <use style="fill:none;stroke:#6495ed;stroke-linejoin:miter;stroke-width:1.5;" x="253.908692" xlink:href="#m45ec59a628" y="119.456005"/>
     <use style="fill:none;stroke:#6495ed;stroke-linejoin:miter;stroke-width:1.5;" x="333.569032" xlink:href="#m45ec59a628" y="119.456005"/>
    </g>
   </g>
   <g id="line2d_64">
    <path style="fill:none;stroke:#6495ed;stroke-linecap:square;stroke-width:1.5;"/>
    <g/>
   </g>
   <g id="line2d_65">
    <path clip-path="url(#p5da1c40279)" d="M 197.585396 152.557815 
" style="fill:none;stroke:#6495ed;stroke-linecap:square;stroke-width:1.5;"/>
    <defs>
     <path d="M -12 12 
L 12 -12 
M -12 -12 
L 12 12 
" id="m0f4dc9258e" style="stroke:#6495ed;stroke-width:3;"/>
    </defs>
    <g clip-path="url(#p5da1c40279)">
     <use style="fill:#6495ed;stroke:#6495ed;stroke-width:3;" x="197.585396" xlink:href="#m0f4dc9258e" y="152.557815"/>
    </g>
   </g>
   <g id="line2d_66">
    <path d="M 333.569032 252.782738 
L 364.009226 288.826931 
" style="fill:none;stroke:#ffa500;stroke-linecap:square;stroke-width:1.5;"/>
    <g>
     <use style="fill:none;stroke:#ffa500;stroke-linejoin:bevel;stroke-width:1.5;" x="333.569032" xlink:href="#mb87284d3eb" y="252.782738"/>
     <use style="fill:none;stroke:#ffa500;stroke-linejoin:bevel;stroke-width:1.5;" x="364.009226" xlink:href="#mb87284d3eb" y="288.826931"/>
    </g>
   </g>
   <g id="line2d_67">
    <path d="M 333.569032 174.625688 
L 364.009226 224.830099 
" style="fill:none;stroke:#ff00ff;stroke-linecap:square;stroke-width:1.5;"/>
    <g>
     <use style="fill:none;stroke:#ff00ff;stroke-linejoin:miter;stroke-width:1.5;" x="333.569032" xlink:href="#m9170211d44" y="174.625688"/>
     <use style="fill:none;stroke:#ff00ff;stroke-linejoin:miter;stroke-width:1.5;" x="364.009226" xlink:href="#m9170211d44" y="224.830099"/>
    </g>
   </g>
   <g id="line2d_68">
    <path d="M 333.569032 119.456005 
L 364.009226 160.833267 
" style="fill:none;stroke:#6495ed;stroke-linecap:square;stroke-width:1.5;"/>
    <g>
     <use style="fill:none;stroke:#6495ed;stroke-linejoin:miter;stroke-width:1.5;" x="333.569032" xlink:href="#m45ec59a628" y="119.456005"/>
     <use style="fill:none;stroke:#6495ed;stroke-linejoin:miter;stroke-width:1.5;" x="364.009226" xlink:href="#m45ec59a628" y="160.833267"/>
    </g>
   </g>
   <g id="line2d_69">
    <path d="M 333.569032 105.663585 
L 364.009226 96.836436 
" style="fill:none;stroke:#000080;stroke-linecap:square;stroke-width:1.5;"/>
    <g>
     <use style="fill:none;stroke:#000080;stroke-width:1.5;" x="333.569032" xlink:href="#mb5c8d3d60d" y="105.663585"/>
     <use style="fill:none;stroke:#000080;stroke-width:1.5;" x="364.009226" xlink:href="#mb5c8d3d60d" y="96.836436"/>
    </g>
   </g>
   <g id="line2d_70">
    <path d="M 333.569032 294.16 
L 333.569032 27.506535 
" style="fill:none;stroke:#000000;stroke-linecap:square;stroke-width:1.5;"/>
   </g>
   <g id="patch_3">
    <path d="M 56.84 294.16 
L 56.84 24.84 
" style="fill:none;stroke:#000000;stroke-linecap:square;stroke-linejoin:miter;stroke-width:0.8;"/>
   </g>
   <g id="patch_4">
    <path d="M 399.984 294.16 
L 399.984 24.84 
" style="fill:none;stroke:#000000;stroke-linecap:square;stroke-linejoin:miter;stroke-width:0.8;"/>
   </g>
   <g id="patch_5">
    <path d="M 56.84 294.16 
L 399.984 294.16 
" style="fill:none;stroke:#000000;stroke-linecap:square;stroke-linejoin:miter;stroke-width:0.8;"/>
   </g>
   <g id="patch_6">
    <path d="M 56.84 24.84 
L 399.984 24.84 
" style="fill:none;stroke:#000000;stroke-linecap:square;stroke-linejoin:miter;stroke-width:0.8;"/>
   </g>
   <g id="text_14">
    <!-- adaptiveH -->
    <defs>
     <path d="M 9.8125 72.90625 
L 19.671875 72.90625 
L 19.671875 43.015625 
L 55.515625 43.015625 
L 55.515625 72.90625 
L 65.375 72.90625 
L 65.375 0 
L 55.515625 0 
L 55.515625 34.71875 
L 19.671875 34.71875 
L 19.671875 0 
L 9.8125 0 
z
" id="DejaVuSans-48"/>
    </defs>
    <g transform="translate(369.543806 293.517868)scale(0.17 -0.17)">
     <use xlink:href="#DejaVuSans-61"/>
     <use x="61.279297" xlink:href="#DejaVuSans-64"/>
     <use x="124.755859" xlink:href="#DejaVuSans-61"/>
     <use x="186.035156" xlink:href="#DejaVuSans-70"/>
     <use x="249.511719" xlink:href="#DejaVuSans-74"/>
     <use x="288.720703" xlink:href="#DejaVuSans-69"/>
     <use x="316.503906" xlink:href="#DejaVuSans-76"/>
     <use x="375.683594" xlink:href="#DejaVuSans-65"/>
     <use x="437.207031" xlink:href="#DejaVuSans-48"/>
    </g>
   </g>
   <g id="text_15">
    <!-- RANDOMSEA -->
    <defs>
     <path d="M 44.390625 34.1875 
Q 47.5625 33.109375 50.5625 29.59375 
Q 53.5625 26.078125 56.59375 19.921875 
L 66.609375 0 
L 56 0 
L 46.6875 18.703125 
Q 43.0625 26.03125 39.671875 28.421875 
Q 36.28125 30.8125 30.421875 30.8125 
L 19.671875 30.8125 
L 19.671875 0 
L 9.8125 0 
L 9.8125 72.90625 
L 32.078125 72.90625 
Q 44.578125 72.90625 50.734375 67.671875 
Q 56.890625 62.453125 56.890625 51.90625 
Q 56.890625 45.015625 53.6875 40.46875 
Q 50.484375 35.9375 44.390625 34.1875 
M 19.671875 64.796875 
L 19.671875 38.921875 
L 32.078125 38.921875 
Q 39.203125 38.921875 42.84375 42.21875 
Q 46.484375 45.515625 46.484375 51.90625 
Q 46.484375 58.296875 42.84375 61.546875 
Q 39.203125 64.796875 32.078125 64.796875 
z
" id="DejaVuSans-52"/>
     <path d="M 34.1875 63.1875 
L 20.796875 26.90625 
L 47.609375 26.90625 
z
M 28.609375 72.90625 
L 39.796875 72.90625 
L 67.578125 0 
L 57.328125 0 
L 50.6875 18.703125 
L 17.828125 18.703125 
L 11.1875 0 
L 0.78125 0 
z
" id="DejaVuSans-41"/>
     <path d="M 9.8125 72.90625 
L 23.09375 72.90625 
L 55.421875 11.921875 
L 55.421875 72.90625 
L 64.984375 72.90625 
L 64.984375 0 
L 51.703125 0 
L 19.390625 60.984375 
L 19.390625 0 
L 9.8125 0 
z
" id="DejaVuSans-4e"/>
     <path d="M 19.671875 64.796875 
L 19.671875 8.109375 
L 31.59375 8.109375 
Q 46.6875 8.109375 53.6875 14.9375 
Q 60.6875 21.78125 60.6875 36.53125 
Q 60.6875 51.171875 53.6875 57.984375 
Q 46.6875 64.796875 31.59375 64.796875 
z
M 9.8125 72.90625 
L 30.078125 72.90625 
Q 51.265625 72.90625 61.171875 64.09375 
Q 71.09375 55.28125 71.09375 36.53125 
Q 71.09375 17.671875 61.125 8.828125 
Q 51.171875 0 30.078125 0 
L 9.8125 0 
z
" id="DejaVuSans-44"/>
     <path d="M 39.40625 66.21875 
Q 28.65625 66.21875 22.328125 58.203125 
Q 16.015625 50.203125 16.015625 36.375 
Q 16.015625 22.609375 22.328125 14.59375 
Q 28.65625 6.59375 39.40625 6.59375 
Q 50.140625 6.59375 56.421875 14.59375 
Q 62.703125 22.609375 62.703125 36.375 
Q 62.703125 50.203125 56.421875 58.203125 
Q 50.140625 66.21875 39.40625 66.21875 
M 39.40625 74.21875 
Q 54.734375 74.21875 63.90625 63.9375 
Q 73.09375 53.65625 73.09375 36.375 
Q 73.09375 19.140625 63.90625 8.859375 
Q 54.734375 -1.421875 39.40625 -1.421875 
Q 24.03125 -1.421875 14.8125 8.828125 
Q 5.609375 19.09375 5.609375 36.375 
Q 5.609375 53.65625 14.8125 63.9375 
Q 24.03125 74.21875 39.40625 74.21875 
" id="DejaVuSans-4f"/>
     <path d="M 9.8125 72.90625 
L 24.515625 72.90625 
L 43.109375 23.296875 
L 61.8125 72.90625 
L 76.515625 72.90625 
L 76.515625 0 
L 66.890625 0 
L 66.890625 64.015625 
L 48.09375 14.015625 
L 38.1875 14.015625 
L 19.390625 64.015625 
L 19.390625 0 
L 9.8125 0 
z
" id="DejaVuSans-4d"/>
     <path d="M 53.515625 70.515625 
L 53.515625 60.890625 
Q 47.90625 63.578125 42.921875 64.890625 
Q 37.9375 66.21875 33.296875 66.21875 
Q 25.25 66.21875 20.875 63.09375 
Q 16.5 59.96875 16.5 54.203125 
Q 16.5 49.359375 19.40625 46.890625 
Q 22.3125 44.4375 30.421875 42.921875 
L 36.375 41.703125 
Q 47.40625 39.59375 52.65625 34.296875 
Q 57.90625 29 57.90625 20.125 
Q 57.90625 9.515625 50.796875 4.046875 
Q 43.703125 -1.421875 29.984375 -1.421875 
Q 24.8125 -1.421875 18.96875 -0.25 
Q 13.140625 0.921875 6.890625 3.21875 
L 6.890625 13.375 
Q 12.890625 10.015625 18.65625 8.296875 
Q 24.421875 6.59375 29.984375 6.59375 
Q 38.421875 6.59375 43.015625 9.90625 
Q 47.609375 13.234375 47.609375 19.390625 
Q 47.609375 24.75 44.3125 27.78125 
Q 41.015625 30.8125 33.5 32.328125 
L 27.484375 33.5 
Q 16.453125 35.6875 11.515625 40.375 
Q 6.59375 45.0625 6.59375 53.421875 
Q 6.59375 63.09375 13.40625 68.65625 
Q 20.21875 74.21875 32.171875 74.21875 
Q 37.3125 74.21875 42.625 73.28125 
Q 47.953125 72.359375 53.515625 70.515625 
" id="DejaVuSans-53"/>
     <path d="M 9.8125 72.90625 
L 55.90625 72.90625 
L 55.90625 64.59375 
L 19.671875 64.59375 
L 19.671875 43.015625 
L 54.390625 43.015625 
L 54.390625 34.71875 
L 19.671875 34.71875 
L 19.671875 8.296875 
L 56.78125 8.296875 
L 56.78125 0 
L 9.8125 0 
z
" id="DejaVuSans-45"/>
    </defs>
    <g transform="translate(369.543806 229.521037)scale(0.17 -0.17)">
     <use xlink:href="#DejaVuSans-52"/>
     <use x="69.419922" xlink:href="#DejaVuSans-41"/>
     <use x="137.828125" xlink:href="#DejaVuSans-4e"/>
     <use x="212.632812" xlink:href="#DejaVuSans-44"/>
     <use x="289.634766" xlink:href="#DejaVuSans-4f"/>
     <use x="368.345703" xlink:href="#DejaVuSans-4d"/>
     <use x="454.625" xlink:href="#DejaVuSans-53"/>
     <use x="518.101562" xlink:href="#DejaVuSans-45"/>
     <use x="581.285156" xlink:href="#DejaVuSans-41"/>
    </g>
   </g>
   <g id="text_16">
    <!-- final  bu -->
    <defs>
     <path d="M 48.6875 27.296875 
Q 48.6875 37.203125 44.609375 42.84375 
Q 40.53125 48.484375 33.40625 48.484375 
Q 26.265625 48.484375 22.1875 42.84375 
Q 18.109375 37.203125 18.109375 27.296875 
Q 18.109375 17.390625 22.1875 11.75 
Q 26.265625 6.109375 33.40625 6.109375 
Q 40.53125 6.109375 44.609375 11.75 
Q 48.6875 17.390625 48.6875 27.296875 
M 18.109375 46.390625 
Q 20.953125 51.265625 25.265625 53.625 
Q 29.59375 56 35.59375 56 
Q 45.5625 56 51.78125 48.09375 
Q 58.015625 40.1875 58.015625 27.296875 
Q 58.015625 14.40625 51.78125 6.484375 
Q 45.5625 -1.421875 35.59375 -1.421875 
Q 29.59375 -1.421875 25.265625 0.953125 
Q 20.953125 3.328125 18.109375 8.203125 
L 18.109375 0 
L 9.078125 0 
L 9.078125 75.984375 
L 18.109375 75.984375 
z
" id="DejaVuSans-62"/>
    </defs>
    <g transform="translate(369.543806 165.524205)scale(0.17 -0.17)">
     <use xlink:href="#DejaVuSans-66"/>
     <use x="35.205078" xlink:href="#DejaVuSans-69"/>
     <use x="62.988281" xlink:href="#DejaVuSans-6e"/>
     <use x="126.367188" xlink:href="#DejaVuSans-61"/>
     <use x="187.646484" xlink:href="#DejaVuSans-6c"/>
     <use x="215.429688" xlink:href="#DejaVuSans-20"/>
     <use x="247.216797" xlink:href="#DejaVuSans-20"/>
     <use x="279.003906" xlink:href="#DejaVuSans-62"/>
     <use x="342.480469" xlink:href="#DejaVuSans-75"/>
    </g>
   </g>
   <g id="text_17">
    <!-- NSGA-II-M -->
    <defs>
     <path d="M 59.515625 10.40625 
L 59.515625 29.984375 
L 43.40625 29.984375 
L 43.40625 38.09375 
L 69.28125 38.09375 
L 69.28125 6.78125 
Q 63.578125 2.734375 56.6875 0.65625 
Q 49.8125 -1.421875 42 -1.421875 
Q 24.90625 -1.421875 15.25 8.5625 
Q 5.609375 18.5625 5.609375 36.375 
Q 5.609375 54.25 15.25 64.234375 
Q 24.90625 74.21875 42 74.21875 
Q 49.125 74.21875 55.546875 72.453125 
Q 61.96875 70.703125 67.390625 67.28125 
L 67.390625 56.78125 
Q 61.921875 61.421875 55.765625 63.765625 
Q 49.609375 66.109375 42.828125 66.109375 
Q 29.4375 66.109375 22.71875 58.640625 
Q 16.015625 51.171875 16.015625 36.375 
Q 16.015625 21.625 22.71875 14.15625 
Q 29.4375 6.6875 42.828125 6.6875 
Q 48.046875 6.6875 52.140625 7.59375 
Q 56.25 8.5 59.515625 10.40625 
" id="DejaVuSans-47"/>
     <path d="M 9.8125 72.90625 
L 19.671875 72.90625 
L 19.671875 0 
L 9.8125 0 
z
" id="DejaVuSans-49"/>
    </defs>
    <g transform="translate(369.543806 101.527373)scale(0.17 -0.17)">
     <use xlink:href="#DejaVuSans-4e"/>
     <use x="74.804688" xlink:href="#DejaVuSans-53"/>
     <use x="138.28125" xlink:href="#DejaVuSans-47"/>
     <use x="215.771484" xlink:href="#DejaVuSans-41"/>
     <use x="284.148438" xlink:href="#DejaVuSans-2d"/>
     <use x="320.232422" xlink:href="#DejaVuSans-49"/>
     <use x="349.724609" xlink:href="#DejaVuSans-49"/>
     <use x="379.216797" xlink:href="#DejaVuSans-2d"/>
     <use x="415.300781" xlink:href="#DejaVuSans-4d"/>
    </g>
   </g>
   <g id="text_18">
    <!-- best 2016 -->
    <g transform="translate(369.543806 37.530541)scale(0.17 -0.17)">
     <use xlink:href="#DejaVuSans-62"/>
     <use x="63.476562" xlink:href="#DejaVuSans-65"/>
     <use x="125" xlink:href="#DejaVuSans-73"/>
     <use x="177.099609" xlink:href="#DejaVuSans-74"/>
     <use x="216.308594" xlink:href="#DejaVuSans-20"/>
     <use x="248.095703" xlink:href="#DejaVuSans-32"/>
     <use x="311.71875" xlink:href="#DejaVuSans-30"/>
     <use x="375.341797" xlink:href="#DejaVuSans-31"/>
     <use x="438.964844" xlink:href="#DejaVuSans-36"/>
    </g>
   </g>
   <g id="text_19">
    <!-- bbob-biobj f29, 3-D -->
    <defs>
     <path d="M 9.421875 54.6875 
L 18.40625 54.6875 
L 18.40625 -0.984375 
Q 18.40625 -11.421875 14.421875 -16.109375 
Q 10.453125 -20.796875 1.609375 -20.796875 
L -1.8125 -20.796875 
L -1.8125 -13.1875 
L 0.59375 -13.1875 
Q 5.71875 -13.1875 7.5625 -10.8125 
Q 9.421875 -8.453125 9.421875 -0.984375 
z
M 9.421875 75.984375 
L 18.40625 75.984375 
L 18.40625 64.59375 
L 9.421875 64.59375 
z
" id="DejaVuSans-6a"/>
     <path d="M 10.984375 1.515625 
L 10.984375 10.5 
Q 14.703125 8.734375 18.5 7.8125 
Q 22.3125 6.890625 25.984375 6.890625 
Q 35.75 6.890625 40.890625 13.453125 
Q 46.046875 20.015625 46.78125 33.40625 
Q 43.953125 29.203125 39.59375 26.953125 
Q 35.25 24.703125 29.984375 24.703125 
Q 19.046875 24.703125 12.671875 31.3125 
Q 6.296875 37.9375 6.296875 49.421875 
Q 6.296875 60.640625 12.9375 67.421875 
Q 19.578125 74.21875 30.609375 74.21875 
Q 43.265625 74.21875 49.921875 64.515625 
Q 56.59375 54.828125 56.59375 36.375 
Q 56.59375 19.140625 48.40625 8.859375 
Q 40.234375 -1.421875 26.421875 -1.421875 
Q 22.703125 -1.421875 18.890625 -0.6875 
Q 15.09375 0.046875 10.984375 1.515625 
M 30.609375 32.421875 
Q 37.25 32.421875 41.125 36.953125 
Q 45.015625 41.5 45.015625 49.421875 
Q 45.015625 57.28125 41.125 61.84375 
Q 37.25 66.40625 30.609375 66.40625 
Q 23.96875 66.40625 20.09375 61.84375 
Q 16.21875 57.28125 16.21875 49.421875 
Q 16.21875 41.5 20.09375 36.953125 
Q 23.96875 32.421875 30.609375 32.421875 
" id="DejaVuSans-39"/>
     <path d="M 40.578125 39.3125 
Q 47.65625 37.796875 51.625 33 
Q 55.609375 28.21875 55.609375 21.1875 
Q 55.609375 10.40625 48.1875 4.484375 
Q 40.765625 -1.421875 27.09375 -1.421875 
Q 22.515625 -1.421875 17.65625 -0.515625 
Q 12.796875 0.390625 7.625 2.203125 
L 7.625 11.71875 
Q 11.71875 9.328125 16.59375 8.109375 
Q 21.484375 6.890625 26.8125 6.890625 
Q 36.078125 6.890625 40.9375 10.546875 
Q 45.796875 14.203125 45.796875 21.1875 
Q 45.796875 27.640625 41.28125 31.265625 
Q 36.765625 34.90625 28.71875 34.90625 
L 20.21875 34.90625 
L 20.21875 43.015625 
L 29.109375 43.015625 
Q 36.375 43.015625 40.234375 45.921875 
Q 44.09375 48.828125 44.09375 54.296875 
Q 44.09375 59.90625 40.109375 62.90625 
Q 36.140625 65.921875 28.71875 65.921875 
Q 24.65625 65.921875 20.015625 65.03125 
Q 15.375 64.15625 9.8125 62.3125 
L 9.8125 71.09375 
Q 15.4375 72.65625 20.34375 73.4375 
Q 25.25 74.21875 29.59375 74.21875 
Q 40.828125 74.21875 47.359375 69.109375 
Q 53.90625 64.015625 53.90625 55.328125 
Q 53.90625 49.265625 50.4375 45.09375 
Q 46.96875 40.921875 40.578125 39.3125 
" id="DejaVuSans-33"/>
    </defs>
    <g transform="translate(60.27144 35.283606)scale(0.102 -0.102)">
     <use xlink:href="#DejaVuSans-62"/>
     <use x="63.476562" xlink:href="#DejaVuSans-62"/>
     <use x="126.953125" xlink:href="#DejaVuSans-6f"/>
     <use x="188.134766" xlink:href="#DejaVuSans-62"/>
     <use x="251.611328" xlink:href="#DejaVuSans-2d"/>
     <use x="287.695312" xlink:href="#DejaVuSans-62"/>
     <use x="351.171875" xlink:href="#DejaVuSans-69"/>
     <use x="378.955078" xlink:href="#DejaVuSans-6f"/>
     <use x="440.136719" xlink:href="#DejaVuSans-62"/>
     <use x="503.613281" xlink:href="#DejaVuSans-6a"/>
     <use x="531.396484" xlink:href="#DejaVuSans-20"/>
     <use x="563.183594" xlink:href="#DejaVuSans-66"/>
     <use x="598.388672" xlink:href="#DejaVuSans-32"/>
     <use x="662.011719" xlink:href="#DejaVuSans-39"/>
     <use x="725.634766" xlink:href="#DejaVuSans-2c"/>
     <use x="757.421875" xlink:href="#DejaVuSans-20"/>
     <use x="789.208984" xlink:href="#DejaVuSans-33"/>
     <use x="852.832031" xlink:href="#DejaVuSans-2d"/>
     <use x="888.916016" xlink:href="#DejaVuSans-44"/>
    </g>
    <!-- 58 targets: 1..-1.0e-4 -->
    <defs>
     <path d="M 10.796875 72.90625 
L 49.515625 72.90625 
L 49.515625 64.59375 
L 19.828125 64.59375 
L 19.828125 46.734375 
Q 21.96875 47.46875 24.109375 47.828125 
Q 26.265625 48.1875 28.421875 48.1875 
Q 40.625 48.1875 47.75 41.5 
Q 54.890625 34.8125 54.890625 23.390625 
Q 54.890625 11.625 47.5625 5.09375 
Q 40.234375 -1.421875 26.90625 -1.421875 
Q 22.3125 -1.421875 17.546875 -0.640625 
Q 12.796875 0.140625 7.71875 1.703125 
L 7.71875 11.625 
Q 12.109375 9.234375 16.796875 8.0625 
Q 21.484375 6.890625 26.703125 6.890625 
Q 35.15625 6.890625 40.078125 11.328125 
Q 45.015625 15.765625 45.015625 23.390625 
Q 45.015625 31 40.078125 35.4375 
Q 35.15625 39.890625 26.703125 39.890625 
Q 22.75 39.890625 18.8125 39.015625 
Q 14.890625 38.140625 10.796875 36.28125 
z
" id="DejaVuSans-35"/>
     <path d="M 11.71875 12.40625 
L 22.015625 12.40625 
L 22.015625 0 
L 11.71875 0 
z
M 11.71875 51.703125 
L 22.015625 51.703125 
L 22.015625 39.3125 
L 11.71875 39.3125 
z
" id="DejaVuSans-3a"/>
    </defs>
    <g transform="translate(60.27144 46.705375)scale(0.102 -0.102)">
     <use xlink:href="#DejaVuSans-35"/>
     <use x="63.623047" xlink:href="#DejaVuSans-38"/>
     <use x="127.246094" xlink:href="#DejaVuSans-20"/>
     <use x="159.033203" xlink:href="#DejaVuSans-74"/>
     <use x="198.242188" xlink:href="#DejaVuSans-61"/>
     <use x="259.521484" xlink:href="#DejaVuSans-72"/>
     <use x="300.619141" xlink:href="#DejaVuSans-67"/>
     <use x="364.095703" xlink:href="#DejaVuSans-65"/>
     <use x="425.619141" xlink:href="#DejaVuSans-74"/>
     <use x="464.828125" xlink:href="#DejaVuSans-73"/>
     <use x="516.927734" xlink:href="#DejaVuSans-3a"/>
     <use x="550.619141" xlink:href="#DejaVuSans-20"/>
     <use x="582.40625" xlink:href="#DejaVuSans-31"/>
     <use x="646.029297" xlink:href="#DejaVuSans-2e"/>
     <use x="677.816406" xlink:href="#DejaVuSans-2e"/>
     <use x="709.603516" xlink:href="#DejaVuSans-2d"/>
     <use x="745.6875" xlink:href="#DejaVuSans-31"/>
     <use x="809.310547" xlink:href="#DejaVuSans-2e"/>
     <use x="841.097656" xlink:href="#DejaVuSans-30"/>
     <use x="904.720703" xlink:href="#DejaVuSans-65"/>
     <use x="966.244141" xlink:href="#DejaVuSans-2d"/>
     <use x="1002.328125" xlink:href="#DejaVuSans-34"/>
    </g>
    <!-- 10 instances -->
    <g transform="translate(60.27144 58.127144)scale(0.102 -0.102)">
     <use xlink:href="#DejaVuSans-31"/>
     <use x="63.623047" xlink:href="#DejaVuSans-30"/>
     <use x="127.246094" xlink:href="#DejaVuSans-20"/>
     <use x="159.033203" xlink:href="#DejaVuSans-69"/>
     <use x="186.816406" xlink:href="#DejaVuSans-6e"/>
     <use x="250.195312" xlink:href="#DejaVuSans-73"/>
     <use x="302.294922" xlink:href="#DejaVuSans-74"/>
     <use x="341.503906" xlink:href="#DejaVuSans-61"/>
     <use x="402.783203" xlink:href="#DejaVuSans-6e"/>
     <use x="466.162109" xlink:href="#DejaVuSans-63"/>
     <use x="521.142578" xlink:href="#DejaVuSans-65"/>
     <use x="582.666016" xlink:href="#DejaVuSans-73"/>
    </g>
   </g>
   <g id="text_20">
    <!-- v2.2.1.10, hv-hash=ff0e71e8cd978373 -->
    <defs>
     <path d="M 54.890625 33.015625 
L 54.890625 0 
L 45.90625 0 
L 45.90625 32.71875 
Q 45.90625 40.484375 42.875 44.328125 
Q 39.84375 48.1875 33.796875 48.1875 
Q 26.515625 48.1875 22.3125 43.546875 
Q 18.109375 38.921875 18.109375 30.90625 
L 18.109375 0 
L 9.078125 0 
L 9.078125 75.984375 
L 18.109375 75.984375 
L 18.109375 46.1875 
Q 21.34375 51.125 25.703125 53.5625 
Q 30.078125 56 35.796875 56 
Q 45.21875 56 50.046875 50.171875 
Q 54.890625 44.34375 54.890625 33.015625 
" id="DejaVuSans-68"/>
     <path d="M 10.59375 45.40625 
L 73.1875 45.40625 
L 73.1875 37.203125 
L 10.59375 37.203125 
z
M 10.59375 25.484375 
L 73.1875 25.484375 
L 73.1875 17.1875 
L 10.59375 17.1875 
z
" id="DejaVuSans-3d"/>
     <path d="M 8.203125 72.90625 
L 55.078125 72.90625 
L 55.078125 68.703125 
L 28.609375 0 
L 18.3125 0 
L 43.21875 64.59375 
L 8.203125 64.59375 
z
" id="DejaVuSans-37"/>
    </defs>
    <g style="fill:#808080;" transform="translate(130.065125 289.387113)scale(0.1 -0.1)">
     <use xlink:href="#DejaVuSans-76"/>
     <use x="59.179688" xlink:href="#DejaVuSans-32"/>
     <use x="122.802734" xlink:href="#DejaVuSans-2e"/>
     <use x="154.589844" xlink:href="#DejaVuSans-32"/>
     <use x="218.212891" xlink:href="#DejaVuSans-2e"/>
     <use x="250" xlink:href="#DejaVuSans-31"/>
     <use x="313.623047" xlink:href="#DejaVuSans-2e"/>
     <use x="345.410156" xlink:href="#DejaVuSans-31"/>
     <use x="409.033203" xlink:href="#DejaVuSans-30"/>
     <use x="472.65625" xlink:href="#DejaVuSans-2c"/>
     <use x="504.443359" xlink:href="#DejaVuSans-20"/>
     <use x="536.230469" xlink:href="#DejaVuSans-68"/>
     <use x="599.609375" xlink:href="#DejaVuSans-76"/>
     <use x="658.757812" xlink:href="#DejaVuSans-2d"/>
     <use x="694.841797" xlink:href="#DejaVuSans-68"/>
     <use x="758.220703" xlink:href="#DejaVuSans-61"/>
     <use x="819.5" xlink:href="#DejaVuSans-73"/>
     <use x="871.599609" xlink:href="#DejaVuSans-68"/>
     <use x="934.978516" xlink:href="#DejaVuSans-3d"/>
     <use x="1018.767578" xlink:href="#DejaVuSans-66"/>
     <use x="1053.972656" xlink:href="#DejaVuSans-66"/>
     <use x="1089.177734" xlink:href="#DejaVuSans-30"/>
     <use x="1152.800781" xlink:href="#DejaVuSans-65"/>
     <use x="1214.324219" xlink:href="#DejaVuSans-37"/>
     <use x="1277.947266" xlink:href="#DejaVuSans-31"/>
     <use x="1341.570312" xlink:href="#DejaVuSans-65"/>
     <use x="1403.09375" xlink:href="#DejaVuSans-38"/>
     <use x="1466.716797" xlink:href="#DejaVuSans-63"/>
     <use x="1521.697266" xlink:href="#DejaVuSans-64"/>
     <use x="1585.173828" xlink:href="#DejaVuSans-39"/>
     <use x="1648.796875" xlink:href="#DejaVuSans-37"/>
     <use x="1712.419922" xlink:href="#DejaVuSans-38"/>
     <use x="1776.042969" xlink:href="#DejaVuSans-33"/>
     <use x="1839.666016" xlink:href="#DejaVuSans-37"/>
     <use x="1903.289062" xlink:href="#DejaVuSans-33"/>
    </g>
   </g>
   <g id="text_21">
    <!-- 29 Rosenbrock/Sharp ridge -->
    <defs>
     <path d="M 9.078125 75.984375 
L 18.109375 75.984375 
L 18.109375 31.109375 
L 44.921875 54.6875 
L 56.390625 54.6875 
L 27.390625 29.109375 
L 57.625 0 
L 45.90625 0 
L 18.109375 26.703125 
L 18.109375 0 
L 9.078125 0 
z
" id="DejaVuSans-6b"/>
    </defs>
    <g transform="translate(92.3245 18.84)scale(0.2 -0.2)">
     <use xlink:href="#DejaVuSans-32"/>
     <use x="63.623047" xlink:href="#DejaVuSans-39"/>
     <use x="127.246094" xlink:href="#DejaVuSans-20"/>
     <use x="159.033203" xlink:href="#DejaVuSans-52"/>
     <use x="228.453125" xlink:href="#DejaVuSans-6f"/>
     <use x="289.634766" xlink:href="#DejaVuSans-73"/>
     <use x="341.734375" xlink:href="#DejaVuSans-65"/>
     <use x="403.257812" xlink:href="#DejaVuSans-6e"/>
     <use x="466.636719" xlink:href="#DejaVuSans-62"/>
     <use x="530.113281" xlink:href="#DejaVuSans-72"/>
     <use x="571.195312" xlink:href="#DejaVuSans-6f"/>
     <use x="632.376953" xlink:href="#DejaVuSans-63"/>
     <use x="687.357422" xlink:href="#DejaVuSans-6b"/>
     <use x="745.267578" xlink:href="#DejaVuSans-2f"/>
     <use x="778.958984" xlink:href="#DejaVuSans-53"/>
     <use x="842.435547" xlink:href="#DejaVuSans-68"/>
     <use x="905.814453" xlink:href="#DejaVuSans-61"/>
     <use x="967.09375" xlink:href="#DejaVuSans-72"/>
     <use x="1008.207031" xlink:href="#DejaVuSans-70"/>
     <use x="1071.683594" xlink:href="#DejaVuSans-20"/>
     <use x="1103.470703" xlink:href="#DejaVuSans-72"/>
     <use x="1144.583984" xlink:href="#DejaVuSans-69"/>
     <use x="1172.367188" xlink:href="#DejaVuSans-64"/>
     <use x="1235.84375" xlink:href="#DejaVuSans-67"/>
     <use x="1299.320312" xlink:href="#DejaVuSans-65"/>
    </g>
   </g>
  </g>
 </g>
 <defs>
  <clipPath id="p5da1c40279">
   <rect height="269.32" width="343.144" x="56.84" y="24.84"/>
  </clipPath>
 </defs>
</svg>
