<?xml version="1.0" encoding="utf-8" standalone="no"?>
<!DOCTYPE svg PUBLIC "-//W3C//DTD SVG 1.1//EN"
  "http://www.w3.org/Graphics/SVG/1.1/DTD/svg11.dtd">
<!-- Created with matplotlib (http://matplotlib.org/) -->
<svg height="345pt" version="1.1" viewBox="0 0 460 345" width="460pt" xmlns="http://www.w3.org/2000/svg" xmlns:xlink="http://www.w3.org/1999/xlink">
 <defs>
  <style type="text/css">
*{stroke-linecap:butt;stroke-linejoin:round;}
  </style>
 </defs>
 <g id="figure_1">
  <g id="patch_1">
   <path d="M 0 345.6 
L 460.8 345.6 
L 460.8 0 
L 0 0 
z
" style="fill:#ffffff;"/>
  </g>
  <g id="axes_1">
   <g id="patch_2">
    <path d="M 56.84 294.16 
L 399.984 294.16 
L 399.984 24.84 
L 56.84 24.84 
z
" style="fill:#ffffff;"/>
   </g>
   <g id="line2d_1">
    <path d="M 29.207815 294.16 
L 29.207815 289.562526 
L 36.169182 289.562526 
L 36.169182 280.367579 
L 53.008884 280.367579 
L 53.008884 271.172632 
L 59.97025 271.172632 
L 59.97025 266.575159 
L 64.909418 266.575159 
L 64.909418 252.782738 
L 73.245025 252.782738 
L 73.245025 243.587791 
L 76.809952 243.587791 
L 76.809952 238.990318 
L 83.771318 238.990318 
L 83.771318 229.79537 
L 87.020384 229.79537 
L 87.020384 216.00295 
L 93.981751 216.00295 
L 93.981751 206.808003 
L 99.068291 206.808003 
L 99.068291 197.613056 
L 101.525167 197.613056 
L 101.525167 188.418109 
L 107.661576 188.418109 
L 107.661576 183.820635 
L 122.721987 183.820635 
L 122.721987 170.028214 
L 127.192288 170.028214 
L 127.192288 165.430741 
L 149.151133 165.430741 
L 149.151133 151.63832 
L 162.016246 151.63832 
L 162.016246 142.443373 
L 175.39346 142.443373 
L 175.39346 137.8459 
L 190.395099 137.8459 
L 190.395099 124.053479 
L 202.207036 124.053479 
L 202.207036 119.456005 
L 225.041208 119.456005 
L 225.041208 105.663585 
L 243.143324 105.663585 
L 243.143324 96.468638 
L 264.918911 96.468638 
L 264.918911 87.273691 
L 280.32361 87.273691 
L 280.32361 82.676217 
L 280.39117 82.676217 
L 280.39117 73.48127 
L 280.514967 73.48127 
L 280.514967 59.688849 
L 333.569032 59.688849 
" style="fill:none;stroke:#f5deb3;stroke-linecap:square;stroke-width:6;"/>
   </g>
   <g id="line2d_2">
    <defs>
     <path d="M -0 7.778175 
L 7.778175 0 
L 0 -7.778175 
L -7.778175 -0 
z
" id="mca5104555c" style="stroke:#f5deb3;stroke-linejoin:miter;stroke-width:1.5;"/>
    </defs>
    <g>
     <use style="fill:#f5deb3;stroke:#f5deb3;stroke-linejoin:miter;stroke-width:1.5;" x="101.525167" xlink:href="#mca5104555c" y="197.613056"/>
     <use style="fill:#f5deb3;stroke:#f5deb3;stroke-linejoin:miter;stroke-width:1.5;" x="149.151133" xlink:href="#mca5104555c" y="165.430741"/>
     <use style="fill:#f5deb3;stroke:#f5deb3;stroke-linejoin:miter;stroke-width:1.5;" x="243.143324" xlink:href="#mca5104555c" y="96.468638"/>
     <use style="fill:#f5deb3;stroke:#f5deb3;stroke-linejoin:miter;stroke-width:1.5;" x="280.514967" xlink:href="#mca5104555c" y="59.688849"/>
     <use style="fill:#f5deb3;stroke:#f5deb3;stroke-linejoin:miter;stroke-width:1.5;" x="280.514967" xlink:href="#mca5104555c" y="59.688849"/>
     <use style="fill:#f5deb3;stroke:#f5deb3;stroke-linejoin:miter;stroke-width:1.5;" x="333.569032" xlink:href="#mca5104555c" y="59.688849"/>
    </g>
   </g>
   <g id="line2d_3">
    <path style="fill:none;stroke:#f5deb3;stroke-linecap:square;stroke-width:6;"/>
    <g/>
   </g>
   <g id="line2d_4">
    <path d="M 333.569032 59.688849 
L 364.009226 32.839604 
" style="fill:none;stroke:#f5deb3;stroke-linecap:square;stroke-width:6;"/>
    <g>
     <use style="fill:#f5deb3;stroke:#f5deb3;stroke-linejoin:miter;stroke-width:1.5;" x="333.569032" xlink:href="#mca5104555c" y="59.688849"/>
     <use style="fill:#f5deb3;stroke:#f5deb3;stroke-linejoin:miter;stroke-width:1.5;" x="364.009226" xlink:href="#mca5104555c" y="32.839604"/>
    </g>
   </g>
   <g id="matplotlib.axis_1">
    <g id="xtick_1">
     <g id="line2d_5">
      <path clip-path="url(#p8a9f4ad0c8)" d="M 56.84 294.16 
L 56.84 24.84 
" style="fill:none;stroke:#b0b0b0;stroke-linecap:square;stroke-width:0.8;"/>
     </g>
     <g id="line2d_6">
      <defs>
       <path d="M 0 0 
L 0 3.5 
" id="m563ac7a952" style="stroke:#000000;stroke-width:0.8;"/>
      </defs>
      <g>
       <use style="stroke:#000000;stroke-width:0.8;" x="56.84" xlink:href="#m563ac7a952" y="294.16"/>
      </g>
     </g>
     <g id="text_1">
      <!-- 0 -->
      <defs>
       <path d="M 31.78125 66.40625 
Q 24.171875 66.40625 20.328125 58.90625 
Q 16.5 51.421875 16.5 36.375 
Q 16.5 21.390625 20.328125 13.890625 
Q 24.171875 6.390625 31.78125 6.390625 
Q 39.453125 6.390625 43.28125 13.890625 
Q 47.125 21.390625 47.125 36.375 
Q 47.125 51.421875 43.28125 58.90625 
Q 39.453125 66.40625 31.78125 66.40625 
M 31.78125 74.21875 
Q 44.046875 74.21875 50.515625 64.515625 
Q 56.984375 54.828125 56.984375 36.375 
Q 56.984375 17.96875 50.515625 8.265625 
Q 44.046875 -1.421875 31.78125 -1.421875 
Q 19.53125 -1.421875 13.0625 8.265625 
Q 6.59375 17.96875 6.59375 36.375 
Q 6.59375 54.828125 13.0625 64.515625 
Q 19.53125 74.21875 31.78125 74.21875 
" id="DejaVuSans-30"/>
      </defs>
      <g transform="translate(50.4775 316.356875)scale(0.2 -0.2)">
       <use xlink:href="#DejaVuSans-30"/>
      </g>
     </g>
    </g>
    <g id="xtick_2">
     <g id="line2d_7">
      <path clip-path="url(#p8a9f4ad0c8)" d="M 135.905438 294.16 
L 135.905438 24.84 
" style="fill:none;stroke:#b0b0b0;stroke-linecap:square;stroke-width:0.8;"/>
     </g>
     <g id="line2d_8">
      <g>
       <use style="stroke:#000000;stroke-width:0.8;" x="135.905438" xlink:href="#m563ac7a952" y="294.16"/>
      </g>
     </g>
     <g id="text_2">
      <!-- 2 -->
      <defs>
       <path d="M 19.1875 8.296875 
L 53.609375 8.296875 
L 53.609375 0 
L 7.328125 0 
L 7.328125 8.296875 
Q 12.9375 14.109375 22.625 23.890625 
Q 32.328125 33.6875 34.8125 36.53125 
Q 39.546875 41.84375 41.421875 45.53125 
Q 43.3125 49.21875 43.3125 52.78125 
Q 43.3125 58.59375 39.234375 62.25 
Q 35.15625 65.921875 28.609375 65.921875 
Q 23.96875 65.921875 18.8125 64.3125 
Q 13.671875 62.703125 7.8125 59.421875 
L 7.8125 69.390625 
Q 13.765625 71.78125 18.9375 73 
Q 24.125 74.21875 28.421875 74.21875 
Q 39.75 74.21875 46.484375 68.546875 
Q 53.21875 62.890625 53.21875 53.421875 
Q 53.21875 48.921875 51.53125 44.890625 
Q 49.859375 40.875 45.40625 35.40625 
Q 44.1875 33.984375 37.640625 27.21875 
Q 31.109375 20.453125 19.1875 8.296875 
" id="DejaVuSans-32"/>
      </defs>
      <g transform="translate(129.542938 316.356875)scale(0.2 -0.2)">
       <use xlink:href="#DejaVuSans-32"/>
      </g>
     </g>
    </g>
    <g id="xtick_3">
     <g id="line2d_9">
      <path clip-path="url(#p8a9f4ad0c8)" d="M 214.970876 294.16 
L 214.970876 24.84 
" style="fill:none;stroke:#b0b0b0;stroke-linecap:square;stroke-width:0.8;"/>
     </g>
     <g id="line2d_10">
      <g>
       <use style="stroke:#000000;stroke-width:0.8;" x="214.970876" xlink:href="#m563ac7a952" y="294.16"/>
      </g>
     </g>
     <g id="text_3">
      <!-- 4 -->
      <defs>
       <path d="M 37.796875 64.3125 
L 12.890625 25.390625 
L 37.796875 25.390625 
z
M 35.203125 72.90625 
L 47.609375 72.90625 
L 47.609375 25.390625 
L 58.015625 25.390625 
L 58.015625 17.1875 
L 47.609375 17.1875 
L 47.609375 0 
L 37.796875 0 
L 37.796875 17.1875 
L 4.890625 17.1875 
L 4.890625 26.703125 
z
" id="DejaVuSans-34"/>
      </defs>
      <g transform="translate(208.608376 316.356875)scale(0.2 -0.2)">
       <use xlink:href="#DejaVuSans-34"/>
      </g>
     </g>
    </g>
    <g id="xtick_4">
     <g id="line2d_11">
      <path clip-path="url(#p8a9f4ad0c8)" d="M 294.036313 294.16 
L 294.036313 24.84 
" style="fill:none;stroke:#b0b0b0;stroke-linecap:square;stroke-width:0.8;"/>
     </g>
     <g id="line2d_12">
      <g>
       <use style="stroke:#000000;stroke-width:0.8;" x="294.036313" xlink:href="#m563ac7a952" y="294.16"/>
      </g>
     </g>
     <g id="text_4">
      <!-- 6 -->
      <defs>
       <path d="M 33.015625 40.375 
Q 26.375 40.375 22.484375 35.828125 
Q 18.609375 31.296875 18.609375 23.390625 
Q 18.609375 15.53125 22.484375 10.953125 
Q 26.375 6.390625 33.015625 6.390625 
Q 39.65625 6.390625 43.53125 10.953125 
Q 47.40625 15.53125 47.40625 23.390625 
Q 47.40625 31.296875 43.53125 35.828125 
Q 39.65625 40.375 33.015625 40.375 
M 52.59375 71.296875 
L 52.59375 62.3125 
Q 48.875 64.0625 45.09375 64.984375 
Q 41.3125 65.921875 37.59375 65.921875 
Q 27.828125 65.921875 22.671875 59.328125 
Q 17.53125 52.734375 16.796875 39.40625 
Q 19.671875 43.65625 24.015625 45.921875 
Q 28.375 48.1875 33.59375 48.1875 
Q 44.578125 48.1875 50.953125 41.515625 
Q 57.328125 34.859375 57.328125 23.390625 
Q 57.328125 12.15625 50.6875 5.359375 
Q 44.046875 -1.421875 33.015625 -1.421875 
Q 20.359375 -1.421875 13.671875 8.265625 
Q 6.984375 17.96875 6.984375 36.375 
Q 6.984375 53.65625 15.1875 63.9375 
Q 23.390625 74.21875 37.203125 74.21875 
Q 40.921875 74.21875 44.703125 73.484375 
Q 48.484375 72.75 52.59375 71.296875 
" id="DejaVuSans-36"/>
      </defs>
      <g transform="translate(287.673813 316.356875)scale(0.2 -0.2)">
       <use xlink:href="#DejaVuSans-36"/>
      </g>
     </g>
    </g>
    <g id="xtick_5">
     <g id="line2d_13">
      <path clip-path="url(#p8a9f4ad0c8)" d="M 373.101751 294.16 
L 373.101751 24.84 
" style="fill:none;stroke:#b0b0b0;stroke-linecap:square;stroke-width:0.8;"/>
     </g>
     <g id="line2d_14">
      <g>
       <use style="stroke:#000000;stroke-width:0.8;" x="373.101751" xlink:href="#m563ac7a952" y="294.16"/>
      </g>
     </g>
     <g id="text_5">
      <!-- 8 -->
      <defs>
       <path d="M 31.78125 34.625 
Q 24.75 34.625 20.71875 30.859375 
Q 16.703125 27.09375 16.703125 20.515625 
Q 16.703125 13.921875 20.71875 10.15625 
Q 24.75 6.390625 31.78125 6.390625 
Q 38.8125 6.390625 42.859375 10.171875 
Q 46.921875 13.96875 46.921875 20.515625 
Q 46.921875 27.09375 42.890625 30.859375 
Q 38.875 34.625 31.78125 34.625 
M 21.921875 38.8125 
Q 15.578125 40.375 12.03125 44.71875 
Q 8.5 49.078125 8.5 55.328125 
Q 8.5 64.0625 14.71875 69.140625 
Q 20.953125 74.21875 31.78125 74.21875 
Q 42.671875 74.21875 48.875 69.140625 
Q 55.078125 64.0625 55.078125 55.328125 
Q 55.078125 49.078125 51.53125 44.71875 
Q 48 40.375 41.703125 38.8125 
Q 48.828125 37.15625 52.796875 32.3125 
Q 56.78125 27.484375 56.78125 20.515625 
Q 56.78125 9.90625 50.3125 4.234375 
Q 43.84375 -1.421875 31.78125 -1.421875 
Q 19.734375 -1.421875 13.25 4.234375 
Q 6.78125 9.90625 6.78125 20.515625 
Q 6.78125 27.484375 10.78125 32.3125 
Q 14.796875 37.15625 21.921875 38.8125 
M 18.3125 54.390625 
Q 18.3125 48.734375 21.84375 45.5625 
Q 25.390625 42.390625 31.78125 42.390625 
Q 38.140625 42.390625 41.71875 45.5625 
Q 45.3125 48.734375 45.3125 54.390625 
Q 45.3125 60.0625 41.71875 63.234375 
Q 38.140625 66.40625 31.78125 66.40625 
Q 25.390625 66.40625 21.84375 63.234375 
Q 18.3125 60.0625 18.3125 54.390625 
" id="DejaVuSans-38"/>
      </defs>
      <g transform="translate(366.739251 316.356875)scale(0.2 -0.2)">
       <use xlink:href="#DejaVuSans-38"/>
      </g>
     </g>
    </g>
    <g id="xtick_6">
     <g id="line2d_15">
      <defs>
       <path d="M 0 0 
L 0 2 
" id="m75603881d6" style="stroke:#000000;stroke-width:0.6;"/>
      </defs>
      <g>
       <use style="stroke:#000000;stroke-width:0.6;" x="68.740534" xlink:href="#m75603881d6" y="294.16"/>
      </g>
     </g>
    </g>
    <g id="xtick_7">
     <g id="line2d_16">
      <g>
       <use style="stroke:#000000;stroke-width:0.6;" x="80.641068" xlink:href="#m75603881d6" y="294.16"/>
      </g>
     </g>
    </g>
    <g id="xtick_8">
     <g id="line2d_17">
      <g>
       <use style="stroke:#000000;stroke-width:0.6;" x="87.602435" xlink:href="#m75603881d6" y="294.16"/>
      </g>
     </g>
    </g>
    <g id="xtick_9">
     <g id="line2d_18">
      <g>
       <use style="stroke:#000000;stroke-width:0.6;" x="92.541603" xlink:href="#m75603881d6" y="294.16"/>
      </g>
     </g>
    </g>
    <g id="xtick_10">
     <g id="line2d_19">
      <g>
       <use style="stroke:#000000;stroke-width:0.6;" x="147.805972" xlink:href="#m75603881d6" y="294.16"/>
      </g>
     </g>
    </g>
    <g id="xtick_11">
     <g id="line2d_20">
      <g>
       <use style="stroke:#000000;stroke-width:0.6;" x="159.706506" xlink:href="#m75603881d6" y="294.16"/>
      </g>
     </g>
    </g>
    <g id="xtick_12">
     <g id="line2d_21">
      <g>
       <use style="stroke:#000000;stroke-width:0.6;" x="166.667872" xlink:href="#m75603881d6" y="294.16"/>
      </g>
     </g>
    </g>
    <g id="xtick_13">
     <g id="line2d_22">
      <g>
       <use style="stroke:#000000;stroke-width:0.6;" x="171.60704" xlink:href="#m75603881d6" y="294.16"/>
      </g>
     </g>
    </g>
    <g id="xtick_14">
     <g id="line2d_23">
      <g>
       <use style="stroke:#000000;stroke-width:0.6;" x="226.87141" xlink:href="#m75603881d6" y="294.16"/>
      </g>
     </g>
    </g>
    <g id="xtick_15">
     <g id="line2d_24">
      <g>
       <use style="stroke:#000000;stroke-width:0.6;" x="238.771944" xlink:href="#m75603881d6" y="294.16"/>
      </g>
     </g>
    </g>
    <g id="xtick_16">
     <g id="line2d_25">
      <g>
       <use style="stroke:#000000;stroke-width:0.6;" x="245.73331" xlink:href="#m75603881d6" y="294.16"/>
      </g>
     </g>
    </g>
    <g id="xtick_17">
     <g id="line2d_26">
      <g>
       <use style="stroke:#000000;stroke-width:0.6;" x="250.672478" xlink:href="#m75603881d6" y="294.16"/>
      </g>
     </g>
    </g>
    <g id="xtick_18">
     <g id="line2d_27">
      <g>
       <use style="stroke:#000000;stroke-width:0.6;" x="305.936848" xlink:href="#m75603881d6" y="294.16"/>
      </g>
     </g>
    </g>
    <g id="xtick_19">
     <g id="line2d_28">
      <g>
       <use style="stroke:#000000;stroke-width:0.6;" x="317.837382" xlink:href="#m75603881d6" y="294.16"/>
      </g>
     </g>
    </g>
    <g id="xtick_20">
     <g id="line2d_29">
      <g>
       <use style="stroke:#000000;stroke-width:0.6;" x="324.798748" xlink:href="#m75603881d6" y="294.16"/>
      </g>
     </g>
    </g>
    <g id="xtick_21">
     <g id="line2d_30">
      <g>
       <use style="stroke:#000000;stroke-width:0.6;" x="329.737916" xlink:href="#m75603881d6" y="294.16"/>
      </g>
     </g>
    </g>
    <g id="xtick_22">
     <g id="line2d_31">
      <g>
       <use style="stroke:#000000;stroke-width:0.6;" x="385.002285" xlink:href="#m75603881d6" y="294.16"/>
      </g>
     </g>
    </g>
    <g id="xtick_23">
     <g id="line2d_32">
      <g>
       <use style="stroke:#000000;stroke-width:0.6;" x="396.90282" xlink:href="#m75603881d6" y="294.16"/>
      </g>
     </g>
    </g>
    <g id="text_6">
     <!-- log10(# f-evals / dimension) -->
     <defs>
      <path d="M 9.421875 75.984375 
L 18.40625 75.984375 
L 18.40625 0 
L 9.421875 0 
z
" id="DejaVuSans-6c"/>
      <path d="M 30.609375 48.390625 
Q 23.390625 48.390625 19.1875 42.75 
Q 14.984375 37.109375 14.984375 27.296875 
Q 14.984375 17.484375 19.15625 11.84375 
Q 23.34375 6.203125 30.609375 6.203125 
Q 37.796875 6.203125 41.984375 11.859375 
Q 46.1875 17.53125 46.1875 27.296875 
Q 46.1875 37.015625 41.984375 42.703125 
Q 37.796875 48.390625 30.609375 48.390625 
M 30.609375 56 
Q 42.328125 56 49.015625 48.375 
Q 55.71875 40.765625 55.71875 27.296875 
Q 55.71875 13.875 49.015625 6.21875 
Q 42.328125 -1.421875 30.609375 -1.421875 
Q 18.84375 -1.421875 12.171875 6.21875 
Q 5.515625 13.875 5.515625 27.296875 
Q 5.515625 40.765625 12.171875 48.375 
Q 18.84375 56 30.609375 56 
" id="DejaVuSans-6f"/>
      <path d="M 45.40625 27.984375 
Q 45.40625 37.75 41.375 43.109375 
Q 37.359375 48.484375 30.078125 48.484375 
Q 22.859375 48.484375 18.828125 43.109375 
Q 14.796875 37.75 14.796875 27.984375 
Q 14.796875 18.265625 18.828125 12.890625 
Q 22.859375 7.515625 30.078125 7.515625 
Q 37.359375 7.515625 41.375 12.890625 
Q 45.40625 18.265625 45.40625 27.984375 
M 54.390625 6.78125 
Q 54.390625 -7.171875 48.1875 -13.984375 
Q 42 -20.796875 29.203125 -20.796875 
Q 24.46875 -20.796875 20.265625 -20.09375 
Q 16.0625 -19.390625 12.109375 -17.921875 
L 12.109375 -9.1875 
Q 16.0625 -11.328125 19.921875 -12.34375 
Q 23.78125 -13.375 27.78125 -13.375 
Q 36.625 -13.375 41.015625 -8.765625 
Q 45.40625 -4.15625 45.40625 5.171875 
L 45.40625 9.625 
Q 42.625 4.78125 38.28125 2.390625 
Q 33.9375 0 27.875 0 
Q 17.828125 0 11.671875 7.65625 
Q 5.515625 15.328125 5.515625 27.984375 
Q 5.515625 40.671875 11.671875 48.328125 
Q 17.828125 56 27.875 56 
Q 33.9375 56 38.28125 53.609375 
Q 42.625 51.21875 45.40625 46.390625 
L 45.40625 54.6875 
L 54.390625 54.6875 
z
" id="DejaVuSans-67"/>
      <path d="M 12.40625 8.296875 
L 28.515625 8.296875 
L 28.515625 63.921875 
L 10.984375 60.40625 
L 10.984375 69.390625 
L 28.421875 72.90625 
L 38.28125 72.90625 
L 38.28125 8.296875 
L 54.390625 8.296875 
L 54.390625 0 
L 12.40625 0 
z
" id="DejaVuSans-31"/>
      <path d="M 31 75.875 
Q 24.46875 64.65625 21.28125 53.65625 
Q 18.109375 42.671875 18.109375 31.390625 
Q 18.109375 20.125 21.3125 9.0625 
Q 24.515625 -2 31 -13.1875 
L 23.1875 -13.1875 
Q 15.875 -1.703125 12.234375 9.375 
Q 8.59375 20.453125 8.59375 31.390625 
Q 8.59375 42.28125 12.203125 53.3125 
Q 15.828125 64.359375 23.1875 75.875 
z
" id="DejaVuSans-28"/>
      <path d="M 51.125 44 
L 36.921875 44 
L 32.8125 27.6875 
L 47.125 27.6875 
z
M 43.796875 71.78125 
L 38.71875 51.515625 
L 52.984375 51.515625 
L 58.109375 71.78125 
L 65.921875 71.78125 
L 60.890625 51.515625 
L 76.125 51.515625 
L 76.125 44 
L 58.984375 44 
L 54.984375 27.6875 
L 70.515625 27.6875 
L 70.515625 20.21875 
L 53.078125 20.21875 
L 48 0 
L 40.1875 0 
L 45.21875 20.21875 
L 30.90625 20.21875 
L 25.875 0 
L 18.015625 0 
L 23.09375 20.21875 
L 7.71875 20.21875 
L 7.71875 27.6875 
L 24.90625 27.6875 
L 29 44 
L 13.28125 44 
L 13.28125 51.515625 
L 30.90625 51.515625 
L 35.890625 71.78125 
z
" id="DejaVuSans-23"/>
      <path id="DejaVuSans-20"/>
      <path d="M 37.109375 75.984375 
L 37.109375 68.5 
L 28.515625 68.5 
Q 23.6875 68.5 21.796875 66.546875 
Q 19.921875 64.59375 19.921875 59.515625 
L 19.921875 54.6875 
L 34.71875 54.6875 
L 34.71875 47.703125 
L 19.921875 47.703125 
L 19.921875 0 
L 10.890625 0 
L 10.890625 47.703125 
L 2.296875 47.703125 
L 2.296875 54.6875 
L 10.890625 54.6875 
L 10.890625 58.5 
Q 10.890625 67.625 15.140625 71.796875 
Q 19.390625 75.984375 28.609375 75.984375 
z
" id="DejaVuSans-66"/>
      <path d="M 4.890625 31.390625 
L 31.203125 31.390625 
L 31.203125 23.390625 
L 4.890625 23.390625 
z
" id="DejaVuSans-2d"/>
      <path d="M 56.203125 29.59375 
L 56.203125 25.203125 
L 14.890625 25.203125 
Q 15.484375 15.921875 20.484375 11.0625 
Q 25.484375 6.203125 34.421875 6.203125 
Q 39.59375 6.203125 44.453125 7.46875 
Q 49.3125 8.734375 54.109375 11.28125 
L 54.109375 2.78125 
Q 49.265625 0.734375 44.1875 -0.34375 
Q 39.109375 -1.421875 33.890625 -1.421875 
Q 20.796875 -1.421875 13.15625 6.1875 
Q 5.515625 13.8125 5.515625 26.8125 
Q 5.515625 40.234375 12.765625 48.109375 
Q 20.015625 56 32.328125 56 
Q 43.359375 56 49.78125 48.890625 
Q 56.203125 41.796875 56.203125 29.59375 
M 47.21875 32.234375 
Q 47.125 39.59375 43.09375 43.984375 
Q 39.0625 48.390625 32.421875 48.390625 
Q 24.90625 48.390625 20.390625 44.140625 
Q 15.875 39.890625 15.1875 32.171875 
z
" id="DejaVuSans-65"/>
      <path d="M 2.984375 54.6875 
L 12.5 54.6875 
L 29.59375 8.796875 
L 46.6875 54.6875 
L 56.203125 54.6875 
L 35.6875 0 
L 23.484375 0 
z
" id="DejaVuSans-76"/>
      <path d="M 34.28125 27.484375 
Q 23.390625 27.484375 19.1875 25 
Q 14.984375 22.515625 14.984375 16.5 
Q 14.984375 11.71875 18.140625 8.90625 
Q 21.296875 6.109375 26.703125 6.109375 
Q 34.1875 6.109375 38.703125 11.40625 
Q 43.21875 16.703125 43.21875 25.484375 
L 43.21875 27.484375 
z
M 52.203125 31.203125 
L 52.203125 0 
L 43.21875 0 
L 43.21875 8.296875 
Q 40.140625 3.328125 35.546875 0.953125 
Q 30.953125 -1.421875 24.3125 -1.421875 
Q 15.921875 -1.421875 10.953125 3.296875 
Q 6 8.015625 6 15.921875 
Q 6 25.140625 12.171875 29.828125 
Q 18.359375 34.515625 30.609375 34.515625 
L 43.21875 34.515625 
L 43.21875 35.40625 
Q 43.21875 41.609375 39.140625 45 
Q 35.0625 48.390625 27.6875 48.390625 
Q 23 48.390625 18.546875 47.265625 
Q 14.109375 46.140625 10.015625 43.890625 
L 10.015625 52.203125 
Q 14.9375 54.109375 19.578125 55.046875 
Q 24.21875 56 28.609375 56 
Q 40.484375 56 46.34375 49.84375 
Q 52.203125 43.703125 52.203125 31.203125 
" id="DejaVuSans-61"/>
      <path d="M 44.28125 53.078125 
L 44.28125 44.578125 
Q 40.484375 46.53125 36.375 47.5 
Q 32.28125 48.484375 27.875 48.484375 
Q 21.1875 48.484375 17.84375 46.4375 
Q 14.5 44.390625 14.5 40.28125 
Q 14.5 37.15625 16.890625 35.375 
Q 19.28125 33.59375 26.515625 31.984375 
L 29.59375 31.296875 
Q 39.15625 29.25 43.1875 25.515625 
Q 47.21875 21.78125 47.21875 15.09375 
Q 47.21875 7.46875 41.1875 3.015625 
Q 35.15625 -1.421875 24.609375 -1.421875 
Q 20.21875 -1.421875 15.453125 -0.5625 
Q 10.6875 0.296875 5.421875 2 
L 5.421875 11.28125 
Q 10.40625 8.6875 15.234375 7.390625 
Q 20.0625 6.109375 24.8125 6.109375 
Q 31.15625 6.109375 34.5625 8.28125 
Q 37.984375 10.453125 37.984375 14.40625 
Q 37.984375 18.0625 35.515625 20.015625 
Q 33.0625 21.96875 24.703125 23.78125 
L 21.578125 24.515625 
Q 13.234375 26.265625 9.515625 29.90625 
Q 5.8125 33.546875 5.8125 39.890625 
Q 5.8125 47.609375 11.28125 51.796875 
Q 16.75 56 26.8125 56 
Q 31.78125 56 36.171875 55.265625 
Q 40.578125 54.546875 44.28125 53.078125 
" id="DejaVuSans-73"/>
      <path d="M 25.390625 72.90625 
L 33.6875 72.90625 
L 8.296875 -9.28125 
L 0 -9.28125 
z
" id="DejaVuSans-2f"/>
      <path d="M 45.40625 46.390625 
L 45.40625 75.984375 
L 54.390625 75.984375 
L 54.390625 0 
L 45.40625 0 
L 45.40625 8.203125 
Q 42.578125 3.328125 38.25 0.953125 
Q 33.9375 -1.421875 27.875 -1.421875 
Q 17.96875 -1.421875 11.734375 6.484375 
Q 5.515625 14.40625 5.515625 27.296875 
Q 5.515625 40.1875 11.734375 48.09375 
Q 17.96875 56 27.875 56 
Q 33.9375 56 38.25 53.625 
Q 42.578125 51.265625 45.40625 46.390625 
M 14.796875 27.296875 
Q 14.796875 17.390625 18.875 11.75 
Q 22.953125 6.109375 30.078125 6.109375 
Q 37.203125 6.109375 41.296875 11.75 
Q 45.40625 17.390625 45.40625 27.296875 
Q 45.40625 37.203125 41.296875 42.84375 
Q 37.203125 48.484375 30.078125 48.484375 
Q 22.953125 48.484375 18.875 42.84375 
Q 14.796875 37.203125 14.796875 27.296875 
" id="DejaVuSans-64"/>
      <path d="M 9.421875 54.6875 
L 18.40625 54.6875 
L 18.40625 0 
L 9.421875 0 
z
M 9.421875 75.984375 
L 18.40625 75.984375 
L 18.40625 64.59375 
L 9.421875 64.59375 
z
" id="DejaVuSans-69"/>
      <path d="M 52 44.1875 
Q 55.375 50.25 60.0625 53.125 
Q 64.75 56 71.09375 56 
Q 79.640625 56 84.28125 50.015625 
Q 88.921875 44.046875 88.921875 33.015625 
L 88.921875 0 
L 79.890625 0 
L 79.890625 32.71875 
Q 79.890625 40.578125 77.09375 44.375 
Q 74.3125 48.1875 68.609375 48.1875 
Q 61.625 48.1875 57.5625 43.546875 
Q 53.515625 38.921875 53.515625 30.90625 
L 53.515625 0 
L 44.484375 0 
L 44.484375 32.71875 
Q 44.484375 40.625 41.703125 44.40625 
Q 38.921875 48.1875 33.109375 48.1875 
Q 26.21875 48.1875 22.15625 43.53125 
Q 18.109375 38.875 18.109375 30.90625 
L 18.109375 0 
L 9.078125 0 
L 9.078125 54.6875 
L 18.109375 54.6875 
L 18.109375 46.1875 
Q 21.1875 51.21875 25.484375 53.609375 
Q 29.78125 56 35.6875 56 
Q 41.65625 56 45.828125 52.96875 
Q 50 49.953125 52 44.1875 
" id="DejaVuSans-6d"/>
      <path d="M 54.890625 33.015625 
L 54.890625 0 
L 45.90625 0 
L 45.90625 32.71875 
Q 45.90625 40.484375 42.875 44.328125 
Q 39.84375 48.1875 33.796875 48.1875 
Q 26.515625 48.1875 22.3125 43.546875 
Q 18.109375 38.921875 18.109375 30.90625 
L 18.109375 0 
L 9.078125 0 
L 9.078125 54.6875 
L 18.109375 54.6875 
L 18.109375 46.1875 
Q 21.34375 51.125 25.703125 53.5625 
Q 30.078125 56 35.796875 56 
Q 45.21875 56 50.046875 50.171875 
Q 54.890625 44.34375 54.890625 33.015625 
" id="DejaVuSans-6e"/>
      <path d="M 8.015625 75.875 
L 15.828125 75.875 
Q 23.140625 64.359375 26.78125 53.3125 
Q 30.421875 42.28125 30.421875 31.390625 
Q 30.421875 20.453125 26.78125 9.375 
Q 23.140625 -1.703125 15.828125 -13.1875 
L 8.015625 -13.1875 
Q 14.5 -2 17.703125 9.0625 
Q 20.90625 20.125 20.90625 31.390625 
Q 20.90625 42.671875 17.703125 53.65625 
Q 14.5 64.65625 8.015625 75.875 
" id="DejaVuSans-29"/>
     </defs>
     <g transform="translate(107.571219 337.433594)scale(0.17 -0.17)">
      <use xlink:href="#DejaVuSans-6c"/>
      <use x="27.783203" xlink:href="#DejaVuSans-6f"/>
      <use x="88.964844" xlink:href="#DejaVuSans-67"/>
      <use x="152.441406" xlink:href="#DejaVuSans-31"/>
      <use x="216.064453" xlink:href="#DejaVuSans-30"/>
      <use x="279.6875" xlink:href="#DejaVuSans-28"/>
      <use x="318.701172" xlink:href="#DejaVuSans-23"/>
      <use x="402.490234" xlink:href="#DejaVuSans-20"/>
      <use x="434.277344" xlink:href="#DejaVuSans-66"/>
      <use x="469.404297" xlink:href="#DejaVuSans-2d"/>
      <use x="505.488281" xlink:href="#DejaVuSans-65"/>
      <use x="567.011719" xlink:href="#DejaVuSans-76"/>
      <use x="626.191406" xlink:href="#DejaVuSans-61"/>
      <use x="687.470703" xlink:href="#DejaVuSans-6c"/>
      <use x="715.253906" xlink:href="#DejaVuSans-73"/>
      <use x="767.353516" xlink:href="#DejaVuSans-20"/>
      <use x="799.140625" xlink:href="#DejaVuSans-2f"/>
      <use x="832.832031" xlink:href="#DejaVuSans-20"/>
      <use x="864.619141" xlink:href="#DejaVuSans-64"/>
      <use x="928.095703" xlink:href="#DejaVuSans-69"/>
      <use x="955.878906" xlink:href="#DejaVuSans-6d"/>
      <use x="1053.291016" xlink:href="#DejaVuSans-65"/>
      <use x="1114.814453" xlink:href="#DejaVuSans-6e"/>
      <use x="1178.193359" xlink:href="#DejaVuSans-73"/>
      <use x="1230.292969" xlink:href="#DejaVuSans-69"/>
      <use x="1258.076172" xlink:href="#DejaVuSans-6f"/>
      <use x="1319.257812" xlink:href="#DejaVuSans-6e"/>
      <use x="1382.636719" xlink:href="#DejaVuSans-29"/>
     </g>
    </g>
   </g>
   <g id="matplotlib.axis_2">
    <g id="ytick_1">
     <g id="line2d_33">
      <path clip-path="url(#p8a9f4ad0c8)" d="M 56.84 294.16 
L 399.984 294.16 
" style="fill:none;stroke:#b0b0b0;stroke-linecap:square;stroke-width:0.8;"/>
     </g>
     <g id="line2d_34">
      <defs>
       <path d="M 0 0 
L -3.5 0 
" id="m7ff904a7a6" style="stroke:#000000;stroke-width:0.8;"/>
      </defs>
      <g>
       <use style="stroke:#000000;stroke-width:0.8;" x="56.84" xlink:href="#m7ff904a7a6" y="294.16"/>
      </g>
     </g>
     <g id="text_7">
      <!-- 0.0 -->
      <defs>
       <path d="M 10.6875 12.40625 
L 21 12.40625 
L 21 0 
L 10.6875 0 
z
" id="DejaVuSans-2e"/>
      </defs>
      <g transform="translate(24.395 300.23875)scale(0.16 -0.16)">
       <use xlink:href="#DejaVuSans-30"/>
       <use x="63.623047" xlink:href="#DejaVuSans-2e"/>
       <use x="95.410156" xlink:href="#DejaVuSans-30"/>
      </g>
     </g>
    </g>
    <g id="ytick_2">
     <g id="line2d_35">
      <path clip-path="url(#p8a9f4ad0c8)" d="M 56.84 240.829307 
L 399.984 240.829307 
" style="fill:none;stroke:#b0b0b0;stroke-linecap:square;stroke-width:0.8;"/>
     </g>
     <g id="line2d_36">
      <g>
       <use style="stroke:#000000;stroke-width:0.8;" x="56.84" xlink:href="#m7ff904a7a6" y="240.829307"/>
      </g>
     </g>
     <g id="text_8">
      <!-- 0.2 -->
      <g transform="translate(24.395 246.908057)scale(0.16 -0.16)">
       <use xlink:href="#DejaVuSans-30"/>
       <use x="63.623047" xlink:href="#DejaVuSans-2e"/>
       <use x="95.410156" xlink:href="#DejaVuSans-32"/>
      </g>
     </g>
    </g>
    <g id="ytick_3">
     <g id="line2d_37">
      <path clip-path="url(#p8a9f4ad0c8)" d="M 56.84 187.498614 
L 399.984 187.498614 
" style="fill:none;stroke:#b0b0b0;stroke-linecap:square;stroke-width:0.8;"/>
     </g>
     <g id="line2d_38">
      <g>
       <use style="stroke:#000000;stroke-width:0.8;" x="56.84" xlink:href="#m7ff904a7a6" y="187.498614"/>
      </g>
     </g>
     <g id="text_9">
      <!-- 0.4 -->
      <g transform="translate(24.395 193.577364)scale(0.16 -0.16)">
       <use xlink:href="#DejaVuSans-30"/>
       <use x="63.623047" xlink:href="#DejaVuSans-2e"/>
       <use x="95.410156" xlink:href="#DejaVuSans-34"/>
      </g>
     </g>
    </g>
    <g id="ytick_4">
     <g id="line2d_39">
      <path clip-path="url(#p8a9f4ad0c8)" d="M 56.84 134.167921 
L 399.984 134.167921 
" style="fill:none;stroke:#b0b0b0;stroke-linecap:square;stroke-width:0.8;"/>
     </g>
     <g id="line2d_40">
      <g>
       <use style="stroke:#000000;stroke-width:0.8;" x="56.84" xlink:href="#m7ff904a7a6" y="134.167921"/>
      </g>
     </g>
     <g id="text_10">
      <!-- 0.6 -->
      <g transform="translate(24.395 140.246671)scale(0.16 -0.16)">
       <use xlink:href="#DejaVuSans-30"/>
       <use x="63.623047" xlink:href="#DejaVuSans-2e"/>
       <use x="95.410156" xlink:href="#DejaVuSans-36"/>
      </g>
     </g>
    </g>
    <g id="ytick_5">
     <g id="line2d_41">
      <path clip-path="url(#p8a9f4ad0c8)" d="M 56.84 80.837228 
L 399.984 80.837228 
" style="fill:none;stroke:#b0b0b0;stroke-linecap:square;stroke-width:0.8;"/>
     </g>
     <g id="line2d_42">
      <g>
       <use style="stroke:#000000;stroke-width:0.8;" x="56.84" xlink:href="#m7ff904a7a6" y="80.837228"/>
      </g>
     </g>
     <g id="text_11">
      <!-- 0.8 -->
      <g transform="translate(24.395 86.915978)scale(0.16 -0.16)">
       <use xlink:href="#DejaVuSans-30"/>
       <use x="63.623047" xlink:href="#DejaVuSans-2e"/>
       <use x="95.410156" xlink:href="#DejaVuSans-38"/>
      </g>
     </g>
    </g>
    <g id="ytick_6">
     <g id="line2d_43">
      <path clip-path="url(#p8a9f4ad0c8)" d="M 56.84 27.506535 
L 399.984 27.506535 
" style="fill:none;stroke:#b0b0b0;stroke-linecap:square;stroke-width:0.8;"/>
     </g>
     <g id="line2d_44">
      <g>
       <use style="stroke:#000000;stroke-width:0.8;" x="56.84" xlink:href="#m7ff904a7a6" y="27.506535"/>
      </g>
     </g>
     <g id="text_12">
      <!-- 1.0 -->
      <g transform="translate(24.395 33.585285)scale(0.16 -0.16)">
       <use xlink:href="#DejaVuSans-31"/>
       <use x="63.623047" xlink:href="#DejaVuSans-2e"/>
       <use x="95.410156" xlink:href="#DejaVuSans-30"/>
      </g>
     </g>
    </g>
    <g id="text_13">
     <!-- Fraction of function,target pairs -->
     <defs>
      <path d="M 9.8125 72.90625 
L 51.703125 72.90625 
L 51.703125 64.59375 
L 19.671875 64.59375 
L 19.671875 43.109375 
L 48.578125 43.109375 
L 48.578125 34.8125 
L 19.671875 34.8125 
L 19.671875 0 
L 9.8125 0 
z
" id="DejaVuSans-46"/>
      <path d="M 41.109375 46.296875 
Q 39.59375 47.171875 37.8125 47.578125 
Q 36.03125 48 33.890625 48 
Q 26.265625 48 22.1875 43.046875 
Q 18.109375 38.09375 18.109375 28.8125 
L 18.109375 0 
L 9.078125 0 
L 9.078125 54.6875 
L 18.109375 54.6875 
L 18.109375 46.1875 
Q 20.953125 51.171875 25.484375 53.578125 
Q 30.03125 56 36.53125 56 
Q 37.453125 56 38.578125 55.875 
Q 39.703125 55.765625 41.0625 55.515625 
z
" id="DejaVuSans-72"/>
      <path d="M 48.78125 52.59375 
L 48.78125 44.1875 
Q 44.96875 46.296875 41.140625 47.34375 
Q 37.3125 48.390625 33.40625 48.390625 
Q 24.65625 48.390625 19.8125 42.84375 
Q 14.984375 37.3125 14.984375 27.296875 
Q 14.984375 17.28125 19.8125 11.734375 
Q 24.65625 6.203125 33.40625 6.203125 
Q 37.3125 6.203125 41.140625 7.25 
Q 44.96875 8.296875 48.78125 10.40625 
L 48.78125 2.09375 
Q 45.015625 0.34375 40.984375 -0.53125 
Q 36.96875 -1.421875 32.421875 -1.421875 
Q 20.0625 -1.421875 12.78125 6.34375 
Q 5.515625 14.109375 5.515625 27.296875 
Q 5.515625 40.671875 12.859375 48.328125 
Q 20.21875 56 33.015625 56 
Q 37.15625 56 41.109375 55.140625 
Q 45.0625 54.296875 48.78125 52.59375 
" id="DejaVuSans-63"/>
      <path d="M 18.3125 70.21875 
L 18.3125 54.6875 
L 36.8125 54.6875 
L 36.8125 47.703125 
L 18.3125 47.703125 
L 18.3125 18.015625 
Q 18.3125 11.328125 20.140625 9.421875 
Q 21.96875 7.515625 27.59375 7.515625 
L 36.8125 7.515625 
L 36.8125 0 
L 27.59375 0 
Q 17.1875 0 13.234375 3.875 
Q 9.28125 7.765625 9.28125 18.015625 
L 9.28125 47.703125 
L 2.6875 47.703125 
L 2.6875 54.6875 
L 9.28125 54.6875 
L 9.28125 70.21875 
z
" id="DejaVuSans-74"/>
      <path d="M 8.5 21.578125 
L 8.5 54.6875 
L 17.484375 54.6875 
L 17.484375 21.921875 
Q 17.484375 14.15625 20.5 10.265625 
Q 23.53125 6.390625 29.59375 6.390625 
Q 36.859375 6.390625 41.078125 11.03125 
Q 45.3125 15.671875 45.3125 23.6875 
L 45.3125 54.6875 
L 54.296875 54.6875 
L 54.296875 0 
L 45.3125 0 
L 45.3125 8.40625 
Q 42.046875 3.421875 37.71875 1 
Q 33.40625 -1.421875 27.6875 -1.421875 
Q 18.265625 -1.421875 13.375 4.4375 
Q 8.5 10.296875 8.5 21.578125 
M 31.109375 56 
z
" id="DejaVuSans-75"/>
      <path d="M 11.71875 12.40625 
L 22.015625 12.40625 
L 22.015625 4 
L 14.015625 -11.625 
L 7.71875 -11.625 
L 11.71875 4 
z
" id="DejaVuSans-2c"/>
      <path d="M 18.109375 8.203125 
L 18.109375 -20.796875 
L 9.078125 -20.796875 
L 9.078125 54.6875 
L 18.109375 54.6875 
L 18.109375 46.390625 
Q 20.953125 51.265625 25.265625 53.625 
Q 29.59375 56 35.59375 56 
Q 45.5625 56 51.78125 48.09375 
Q 58.015625 40.1875 58.015625 27.296875 
Q 58.015625 14.40625 51.78125 6.484375 
Q 45.5625 -1.421875 35.59375 -1.421875 
Q 29.59375 -1.421875 25.265625 0.953125 
Q 20.953125 3.328125 18.109375 8.203125 
M 48.6875 27.296875 
Q 48.6875 37.203125 44.609375 42.84375 
Q 40.53125 48.484375 33.40625 48.484375 
Q 26.265625 48.484375 22.1875 42.84375 
Q 18.109375 37.203125 18.109375 27.296875 
Q 18.109375 17.390625 22.1875 11.75 
Q 26.265625 6.109375 33.40625 6.109375 
Q 40.53125 6.109375 44.609375 11.75 
Q 48.6875 17.390625 48.6875 27.296875 
" id="DejaVuSans-70"/>
     </defs>
     <g transform="translate(16.859531 294.639375)rotate(-90)scale(0.17 -0.17)">
      <use xlink:href="#DejaVuSans-46"/>
      <use x="57.410156" xlink:href="#DejaVuSans-72"/>
      <use x="98.523438" xlink:href="#DejaVuSans-61"/>
      <use x="159.802734" xlink:href="#DejaVuSans-63"/>
      <use x="214.783203" xlink:href="#DejaVuSans-74"/>
      <use x="253.992188" xlink:href="#DejaVuSans-69"/>
      <use x="281.775391" xlink:href="#DejaVuSans-6f"/>
      <use x="342.957031" xlink:href="#DejaVuSans-6e"/>
      <use x="406.335938" xlink:href="#DejaVuSans-20"/>
      <use x="438.123047" xlink:href="#DejaVuSans-6f"/>
      <use x="499.304688" xlink:href="#DejaVuSans-66"/>
      <use x="534.509766" xlink:href="#DejaVuSans-20"/>
      <use x="566.296875" xlink:href="#DejaVuSans-66"/>
      <use x="601.501953" xlink:href="#DejaVuSans-75"/>
      <use x="664.880859" xlink:href="#DejaVuSans-6e"/>
      <use x="728.259766" xlink:href="#DejaVuSans-63"/>
      <use x="783.240234" xlink:href="#DejaVuSans-74"/>
      <use x="822.449219" xlink:href="#DejaVuSans-69"/>
      <use x="850.232422" xlink:href="#DejaVuSans-6f"/>
      <use x="911.414062" xlink:href="#DejaVuSans-6e"/>
      <use x="974.792969" xlink:href="#DejaVuSans-2c"/>
      <use x="1006.580078" xlink:href="#DejaVuSans-74"/>
      <use x="1045.789062" xlink:href="#DejaVuSans-61"/>
      <use x="1107.068359" xlink:href="#DejaVuSans-72"/>
      <use x="1148.166016" xlink:href="#DejaVuSans-67"/>
      <use x="1211.642578" xlink:href="#DejaVuSans-65"/>
      <use x="1273.166016" xlink:href="#DejaVuSans-74"/>
      <use x="1312.375" xlink:href="#DejaVuSans-20"/>
      <use x="1344.162109" xlink:href="#DejaVuSans-70"/>
      <use x="1407.638672" xlink:href="#DejaVuSans-61"/>
      <use x="1468.917969" xlink:href="#DejaVuSans-69"/>
      <use x="1496.701172" xlink:href="#DejaVuSans-72"/>
      <use x="1537.814453" xlink:href="#DejaVuSans-73"/>
     </g>
    </g>
   </g>
   <g id="line2d_45">
    <defs>
     <path d="M 0 1.5 
C 0.397805 1.5 0.77937 1.341951 1.06066 1.06066 
C 1.341951 0.77937 1.5 0.397805 1.5 0 
C 1.5 -0.397805 1.341951 -0.77937 1.06066 -1.06066 
C 0.77937 -1.341951 0.397805 -1.5 0 -1.5 
C -0.397805 -1.5 -0.77937 -1.341951 -1.06066 -1.06066 
C -1.341951 -0.77937 -1.5 -0.397805 -1.5 0 
C -1.5 0.397805 -1.341951 0.77937 -1.06066 1.06066 
C -0.77937 1.341951 -0.397805 1.5 0 1.5 
z
" id="mac081d0c94" style="stroke:#f5deb3;"/>
    </defs>
    <g>
     <use style="fill:#f5deb3;stroke:#f5deb3;" x="280.514967" xlink:href="#mac081d0c94" y="59.688849"/>
     <use style="fill:#f5deb3;stroke:#f5deb3;" x="280.514967" xlink:href="#mac081d0c94" y="59.688849"/>
    </g>
   </g>
   <g id="line2d_46">
    <defs>
     <path d="M 0 1.5 
C 0.397805 1.5 0.77937 1.341951 1.06066 1.06066 
C 1.341951 0.77937 1.5 0.397805 1.5 0 
C 1.5 -0.397805 1.341951 -0.77937 1.06066 -1.06066 
C 0.77937 -1.341951 0.397805 -1.5 0 -1.5 
C -0.397805 -1.5 -0.77937 -1.341951 -1.06066 -1.06066 
C -1.341951 -0.77937 -1.5 -0.397805 -1.5 0 
C -1.5 0.397805 -1.341951 0.77937 -1.06066 1.06066 
C -0.77937 1.341951 -0.397805 1.5 0 1.5 
z
" id="m69f524ba43" style="stroke:#000080;"/>
    </defs>
    <g>
     <use style="fill:#000080;stroke:#000080;" x="312.165831" xlink:href="#m69f524ba43" y="96.468638"/>
     <use style="fill:#000080;stroke:#000080;" x="312.165831" xlink:href="#m69f524ba43" y="96.468638"/>
    </g>
   </g>
   <g id="line2d_47">
    <path d="M 17.307281 294.16 
L 17.307281 288.643032 
L 114.233065 288.643032 
L 114.233065 286.344295 
L 119.73911 286.344295 
L 119.73911 285.884548 
L 119.870673 285.884548 
L 119.870673 284.965053 
L 123.411009 284.965053 
L 123.411009 284.045558 
L 123.762841 284.045558 
L 123.762841 282.666316 
L 130.431517 282.666316 
L 130.431517 281.746821 
L 130.96627 281.746821 
L 130.96627 280.827327 
L 132.560963 280.827327 
L 132.560963 280.367579 
L 132.83004 280.367579 
L 132.83004 277.609095 
L 133.034191 277.609095 
L 133.034191 277.149348 
L 133.235942 277.149348 
L 133.235942 276.689601 
L 133.632469 276.689601 
L 133.632469 276.229853 
L 134.172657 276.229853 
L 134.267355 271.63238 
L 134.34274 271.63238 
L 134.34274 271.172632 
L 134.659483 271.172632 
L 134.677934 269.79339 
L 134.952349 269.79339 
L 135.042854 268.414148 
L 135.505942 268.414148 
L 135.505942 267.954401 
L 136.008143 267.954401 
L 136.008143 266.115411 
L 136.228586 266.115411 
L 136.329381 263.816675 
L 136.346123 263.816675 
L 136.346123 263.356927 
L 136.512651 263.356927 
L 136.545763 261.058191 
L 137.179012 261.058191 
L 137.179012 259.678948 
L 137.897087 259.678948 
L 137.973359 257.839959 
L 138.06444 257.839959 
L 138.170095 256.00097 
L 138.245167 256.00097 
L 138.319911 254.16198 
L 138.703424 254.16198 
L 138.703424 252.782738 
L 138.848677 252.782738 
L 138.848677 251.863243 
L 139.163974 251.863243 
L 139.263093 250.943749 
L 139.305398 250.943749 
L 139.403707 243.128044 
L 139.487525 243.128044 
L 139.5848 238.990318 
L 139.612491 238.990318 
L 139.722814 235.312339 
L 140.143739 235.312339 
L 140.143739 234.392844 
L 140.436322 234.392844 
L 140.436322 233.013602 
L 140.827428 233.013602 
L 140.827428 232.553855 
L 141.019691 232.553855 
L 141.070599 230.714865 
L 141.14668 230.714865 
L 141.247599 229.335623 
L 141.792294 229.335623 
L 141.792294 228.875876 
L 141.92581 228.875876 
L 142.010237 225.657644 
L 142.601509 225.657644 
L 142.601509 222.89916 
L 142.912527 222.89916 
L 142.912527 222.439413 
L 143.184335 222.439413 
L 143.262808 220.140676 
L 143.340924 220.140676 
L 143.340924 219.680929 
L 143.682659 219.680929 
L 143.682659 218.761434 
L 144.188136 218.761434 
L 144.241045 216.922445 
L 144.356873 216.922445 
L 144.367364 216.00295 
L 144.74084 216.00295 
L 144.74084 215.543202 
L 145.066133 215.543202 
L 145.116408 213.244466 
L 145.30612 213.244466 
L 145.385377 212.324971 
L 145.503579 212.324971 
L 145.503579 210.945729 
L 146.139535 210.945729 
L 146.215044 208.646992 
L 146.271458 208.646992 
L 146.327688 207.26775 
L 146.716224 207.26775 
L 146.716224 205.888508 
L 146.970447 205.888508 
L 146.970447 204.969013 
L 147.149758 204.969013 
L 147.149758 204.049519 
L 147.353676 204.049519 
L 147.397688 202.670277 
L 147.590009 202.670277 
L 147.590009 202.210529 
L 147.745776 202.210529 
L 147.745776 201.750782 
L 148.044669 201.750782 
L 148.061592 199.452045 
L 148.196383 199.452045 
L 148.196383 198.53255 
L 148.396605 198.53255 
L 148.396605 198.072803 
L 148.708923 198.072803 
L 148.708923 197.153308 
L 149.079546 197.153308 
L 149.087515 194.394824 
L 149.387622 194.394824 
L 149.387622 193.015582 
L 150.138208 193.015582 
L 150.15319 191.176593 
L 150.405896 191.176593 
L 150.405896 190.257098 
L 150.683999 190.257098 
L 150.683999 189.337603 
L 151.956866 189.337603 
L 151.956866 188.418109 
L 152.157909 188.418109 
L 152.157909 187.498614 
L 152.461673 187.498614 
L 152.461673 186.579119 
L 152.637498 186.579119 
L 152.637498 186.119372 
L 152.785868 186.119372 
L 152.837175 184.280382 
L 153.034557 184.280382 
L 153.034557 183.360888 
L 153.41645 183.360888 
L 153.41645 182.441393 
L 153.625679 182.441393 
L 153.625679 181.521898 
L 154.790215 181.521898 
L 154.790215 181.062151 
L 156.341158 181.062151 
L 156.341158 180.602404 
L 157.047036 180.602404 
L 157.127031 179.223161 
L 159.792136 179.223161 
L 159.792136 178.303667 
L 160.466332 178.303667 
L 160.466332 177.843919 
L 160.888172 177.843919 
L 160.888172 177.384172 
L 161.690509 177.384172 
L 161.690509 176.00493 
L 165.236307 176.00493 
L 165.236307 175.085435 
L 166.926312 175.085435 
L 166.926312 174.625688 
L 169.516837 174.625688 
L 169.516837 174.165941 
L 169.786195 174.165941 
L 169.786195 173.706193 
L 170.82326 173.706193 
L 170.82326 173.246446 
L 172.30928 173.246446 
L 172.30928 172.786699 
L 172.704358 172.786699 
L 172.704358 172.326951 
L 173.629239 172.326951 
L 173.629239 171.867204 
L 179.788761 171.867204 
L 179.788761 171.407456 
L 181.720104 171.407456 
L 181.720104 170.947709 
L 182.351383 170.947709 
L 182.351383 170.487962 
L 183.289438 170.487962 
L 183.289438 170.028214 
L 184.579708 170.028214 
L 184.579708 169.568467 
L 185.544074 169.568467 
L 185.544074 167.26973 
L 185.709106 167.26973 
L 185.709106 166.809983 
L 186.429104 166.809983 
L 186.429104 164.511246 
L 186.619931 164.511246 
L 186.619931 164.051499 
L 186.895207 164.051499 
L 186.895207 163.591751 
L 187.008469 163.591751 
L 187.008469 162.672257 
L 187.128812 162.672257 
L 187.128812 160.37352 
L 187.256945 160.37352 
L 187.256945 159.913773 
L 187.832841 159.913773 
L 187.832841 159.454025 
L 188.272564 159.454025 
L 188.272564 157.615036 
L 188.659228 157.615036 
L 188.659228 157.155288 
L 189.032709 157.155288 
L 189.032709 156.235794 
L 190.009299 156.235794 
L 190.051863 154.856552 
L 191.239714 154.856552 
L 191.239714 153.017562 
L 191.944574 153.017562 
L 191.944574 152.098068 
L 192.194172 152.098068 
L 192.194172 151.63832 
L 192.765544 151.63832 
L 192.765544 150.718826 
L 193.108783 150.718826 
L 193.108783 149.799331 
L 194.495806 149.799331 
L 194.495806 149.339583 
L 195.102263 149.339583 
L 195.102263 148.420089 
L 195.764395 148.420089 
L 195.8535 147.500594 
L 196.263654 147.500594 
L 196.263654 147.040847 
L 196.660249 147.040847 
L 196.660249 146.121352 
L 200.007262 146.121352 
L 200.007262 143.822615 
L 200.324056 143.822615 
L 200.324056 143.362868 
L 201.639522 143.362868 
L 201.639522 141.983626 
L 202.27011 141.983626 
L 202.27011 141.523878 
L 202.584875 141.523878 
L 202.584875 140.604384 
L 202.717877 140.604384 
L 202.717877 140.144636 
L 203.555481 140.144636 
L 203.555481 139.684889 
L 203.872985 139.684889 
L 203.940357 138.305647 
L 204.046114 138.305647 
L 204.046114 137.386152 
L 204.220084 137.386152 
L 204.220084 136.926405 
L 205.391783 136.926405 
L 205.391783 136.466658 
L 205.943141 136.466658 
L 205.943141 136.00691 
L 206.054321 136.00691 
L 206.054321 135.547163 
L 206.419523 135.547163 
L 206.419523 135.087416 
L 207.351244 135.087416 
L 207.423344 134.167921 
L 207.500979 134.167921 
L 207.608872 131.869184 
L 207.688561 131.869184 
L 207.688561 130.949689 
L 216.791053 130.949689 
L 216.791053 130.489942 
L 217.230717 130.489942 
L 217.230717 130.030195 
L 221.048583 130.030195 
L 221.048583 129.1107 
L 221.516337 129.1107 
L 221.593208 127.27171 
L 221.854118 127.27171 
L 221.854118 126.352216 
L 225.329385 126.352216 
L 225.329385 124.972974 
L 227.462789 124.972974 
L 227.462789 123.593732 
L 229.545251 123.593732 
L 229.545251 122.674237 
L 229.747114 122.674237 
L 229.747114 121.754742 
L 230.182479 121.754742 
L 230.182479 120.835248 
L 232.131746 120.835248 
L 232.208539 118.996258 
L 235.669159 118.996258 
L 235.76664 117.157269 
L 239.226095 117.157269 
L 239.226095 116.697521 
L 244.4691 116.697521 
L 244.4691 115.778027 
L 249.415997 115.778027 
L 249.415997 114.858532 
L 251.876547 114.858532 
L 251.876547 114.398785 
L 254.795983 114.398785 
L 254.795983 113.939037 
L 255.209542 113.939037 
L 255.209542 113.47929 
L 255.594034 113.47929 
L 255.594034 113.019543 
L 256.360314 113.019543 
L 256.360376 111.6403 
L 256.791259 111.6403 
L 256.895081 110.261058 
L 257.746701 110.261058 
L 257.746701 109.801311 
L 258.149792 109.801311 
L 258.233902 108.422069 
L 259.674105 108.422069 
L 259.674105 107.962322 
L 264.049482 107.962322 
L 264.049482 107.502574 
L 266.430403 107.502574 
L 266.430403 107.042827 
L 268.371528 107.042827 
L 268.371528 106.58308 
L 269.184404 106.58308 
L 269.184404 106.123332 
L 271.833065 106.123332 
L 271.833065 105.663585 
L 273.625727 105.663585 
L 273.625727 105.203837 
L 274.201797 105.203837 
L 274.201797 104.74409 
L 274.702092 104.74409 
L 274.702092 104.284343 
L 277.168972 104.284343 
L 277.169004 102.905101 
L 281.233526 102.905101 
L 281.233526 102.445353 
L 282.837172 102.445353 
L 282.837172 101.985606 
L 284.517925 101.985606 
L 284.518179 100.606364 
L 289.647825 100.606364 
L 289.647825 100.146617 
L 291.73311 100.146617 
L 291.73331 99.227122 
L 293.592412 99.227122 
L 293.592412 98.767375 
L 295.269499 98.767375 
L 295.269499 98.307627 
L 299.497944 98.307627 
L 299.497944 97.84788 
L 300.703815 97.84788 
L 300.703815 97.388132 
L 306.565854 97.388132 
L 306.565854 96.928385 
L 312.165831 96.928385 
L 312.165831 96.468638 
L 333.569032 96.468638 
L 333.569032 96.468638 
" style="fill:none;stroke:#000080;stroke-linecap:square;stroke-width:1.5;"/>
   </g>
   <g id="line2d_48">
    <defs>
     <path d="M 0 6 
C 1.591219 6 3.117479 5.367802 4.242641 4.242641 
C 5.367802 3.117479 6 1.591219 6 0 
C 6 -1.591219 5.367802 -3.117479 4.242641 -4.242641 
C 3.117479 -5.367802 1.591219 -6 0 -6 
C -1.591219 -6 -3.117479 -5.367802 -4.242641 -4.242641 
C -5.367802 -3.117479 -6 -1.591219 -6 0 
C -6 1.591219 -5.367802 3.117479 -4.242641 4.242641 
C -3.117479 5.367802 -1.591219 6 0 6 
z
" id="mfaf3b4797c" style="stroke:#000080;stroke-width:1.5;"/>
    </defs>
    <g>
     <use style="fill:none;stroke:#000080;stroke-width:1.5;" x="146.970447" xlink:href="#mfaf3b4797c" y="205.888508"/>
     <use style="fill:none;stroke:#000080;stroke-width:1.5;" x="203.555481" xlink:href="#mfaf3b4797c" y="139.684889"/>
     <use style="fill:none;stroke:#000080;stroke-width:1.5;" x="293.592412" xlink:href="#mfaf3b4797c" y="98.767375"/>
     <use style="fill:none;stroke:#000080;stroke-width:1.5;" x="312.165831" xlink:href="#mfaf3b4797c" y="96.468638"/>
     <use style="fill:none;stroke:#000080;stroke-width:1.5;" x="333.569032" xlink:href="#mfaf3b4797c" y="96.468638"/>
    </g>
   </g>
   <g id="line2d_49">
    <path style="fill:none;stroke:#000080;stroke-linecap:square;stroke-width:1.5;"/>
    <g/>
   </g>
   <g id="line2d_50">
    <path clip-path="url(#p8a9f4ad0c8)" d="M 254.506015 114.398785 
" style="fill:none;stroke:#000080;stroke-linecap:square;stroke-width:1.5;"/>
    <defs>
     <path d="M -12 12 
L 12 -12 
M -12 -12 
L 12 12 
" id="m4baceb7f53" style="stroke:#000080;stroke-width:3;"/>
    </defs>
    <g clip-path="url(#p8a9f4ad0c8)">
     <use style="fill:#000080;stroke:#000080;stroke-width:3;" x="254.506015" xlink:href="#m4baceb7f53" y="114.398785"/>
    </g>
   </g>
   <g id="line2d_51">
    <defs>
     <path d="M 0 1.5 
C 0.397805 1.5 0.77937 1.341951 1.06066 1.06066 
C 1.341951 0.77937 1.5 0.397805 1.5 0 
C 1.5 -0.397805 1.341951 -0.77937 1.06066 -1.06066 
C 0.77937 -1.341951 0.397805 -1.5 0 -1.5 
C -0.397805 -1.5 -0.77937 -1.341951 -1.06066 -1.06066 
C -1.341951 -0.77937 -1.5 -0.397805 -1.5 0 
C -1.5 0.397805 -1.341951 0.77937 -1.06066 1.06066 
C -0.77937 1.341951 -0.397805 1.5 0 1.5 
z
" id="m1a34666294" style="stroke:#ff00ff;"/>
    </defs>
    <g>
     <use style="fill:#ff00ff;stroke:#ff00ff;" x="353.404604" xlink:href="#m1a34666294" y="147.040847"/>
     <use style="fill:#ff00ff;stroke:#ff00ff;" x="353.404604" xlink:href="#m1a34666294" y="147.040847"/>
    </g>
   </g>
   <g id="line2d_52">
    <path d="M 29.207815 294.16 
L 29.207815 293.700253 
L 36.169182 293.700253 
L 36.169182 293.240505 
L 41.10835 293.240505 
L 41.10835 290.941769 
L 61.344491 290.941769 
L 61.344491 290.022274 
L 62.616839 290.022274 
L 62.616839 288.183284 
L 71.140085 288.183284 
L 71.140085 287.26379 
L 84.125328 287.26379 
L 84.125328 285.884548 
L 90.001985 285.884548 
L 90.001985 285.4248 
L 90.492557 285.4248 
L 90.492557 281.746821 
L 90.9695 281.746821 
L 90.9695 279.448085 
L 92.325639 279.448085 
L 92.325639 278.988337 
L 94.753514 278.988337 
L 94.753514 277.149348 
L 95.31039 277.149348 
L 95.31039 276.229853 
L 100.340639 276.229853 
L 100.340639 275.310358 
L 102.870034 275.310358 
L 102.870034 274.850611 
L 104.226174 274.850611 
L 104.226174 274.390864 
L 108.444089 274.390864 
L 108.444089 273.011622 
L 123.339768 273.011622 
L 123.339768 272.551874 
L 124.479024 272.551874 
L 124.479024 271.63238 
L 125.610024 271.63238 
L 125.610024 271.172632 
L 128.48296 271.172632 
L 128.48296 270.712885 
L 133.235942 270.712885 
L 133.235942 269.79339 
L 136.986642 269.79339 
L 136.986642 268.873896 
L 137.897087 268.873896 
L 137.958131 267.954401 
L 138.80523 267.954401 
L 138.80523 267.494653 
L 144.523968 267.494653 
L 144.523968 267.034906 
L 148.413185 267.034906 
L 148.413185 266.575159 
L 151.290231 266.575159 
L 151.290231 266.115411 
L 153.814249 266.115411 
L 153.814249 264.276422 
L 154.125983 264.276422 
L 154.125983 263.356927 
L 157.191753 263.356927 
L 157.191753 261.517938 
L 158.91149 261.517938 
L 158.91149 260.598443 
L 164.52507 260.598443 
L 164.52507 260.138696 
L 164.740911 260.138696 
L 164.740911 259.219201 
L 165.623798 259.219201 
L 165.729901 257.380212 
L 166.985403 257.380212 
L 167.016275 251.863243 
L 170.717355 251.863243 
L 170.717355 250.943749 
L 172.792713 250.943749 
L 172.792713 250.024254 
L 174.043874 250.024254 
L 174.043874 248.645012 
L 176.488704 248.645012 
L 176.488704 244.507286 
L 179.351486 244.507286 
L 179.351486 244.047538 
L 180.494957 244.047538 
L 180.494957 243.587791 
L 180.614751 243.587791 
L 180.614751 243.128044 
L 181.632956 243.128044 
L 181.632956 241.748802 
L 182.945863 241.748802 
L 182.945863 241.289054 
L 185.13711 241.289054 
L 185.13711 240.36956 
L 185.747763 240.36956 
L 185.800422 236.691581 
L 186.983948 236.691581 
L 186.983948 234.852591 
L 188.137893 234.852591 
L 188.137893 233.933097 
L 194.842516 233.933097 
L 194.842516 233.473349 
L 197.808592 233.473349 
L 197.808592 232.553855 
L 199.627957 232.553855 
L 199.627957 232.094107 
L 200.710131 232.094107 
L 200.710131 229.79537 
L 201.200653 229.79537 
L 201.200653 228.875876 
L 202.222916 228.875876 
L 202.222916 227.956381 
L 203.664291 227.956381 
L 203.664291 227.496634 
L 204.528793 227.496634 
L 204.528793 227.036886 
L 205.250829 227.036886 
L 205.250829 226.117392 
L 207.858534 226.117392 
L 207.858534 225.657644 
L 210.207982 225.657644 
L 210.207982 223.358907 
L 210.703101 223.358907 
L 210.703101 222.439413 
L 214.881192 222.439413 
L 214.881192 221.060171 
L 221.103085 221.060171 
L 221.103085 218.761434 
L 221.62936 218.761434 
L 221.62936 217.841939 
L 222.837256 217.841939 
L 222.837256 217.382192 
L 224.854061 217.382192 
L 224.854061 216.462697 
L 226.171974 216.462697 
L 226.171974 216.00295 
L 228.058925 216.00295 
L 228.058925 214.623708 
L 228.956141 214.623708 
L 228.956141 213.704213 
L 229.690388 213.704213 
L 229.690388 212.784718 
L 230.732648 212.784718 
L 230.732648 211.865224 
L 234.080444 211.865224 
L 234.080444 210.485982 
L 236.155467 210.485982 
L 236.155467 210.026234 
L 237.007988 210.026234 
L 237.007988 208.646992 
L 237.485836 208.646992 
L 237.485836 207.26775 
L 238.84809 207.26775 
L 238.84809 205.888508 
L 239.682061 205.888508 
L 239.682061 205.428761 
L 239.948962 205.428761 
L 239.948962 203.589771 
L 247.350493 203.589771 
L 247.350493 201.750782 
L 247.470002 201.750782 
L 247.475871 200.37154 
L 248.966171 200.37154 
L 249.0574 197.613056 
L 250.141496 197.613056 
L 250.141496 194.394824 
L 251.043704 194.394824 
L 251.043704 193.935077 
L 252.910632 193.935077 
L 252.910632 193.475329 
L 257.288637 193.475329 
L 257.288637 192.555835 
L 258.405534 192.555835 
L 258.405534 191.176593 
L 258.87347 191.176593 
L 258.87347 190.716845 
L 260.526083 190.716845 
L 260.565388 189.337603 
L 263.124462 189.337603 
L 263.124462 188.877856 
L 263.384317 188.877856 
L 263.384317 187.498614 
L 264.204314 187.498614 
L 264.204314 187.038867 
L 266.428054 187.038867 
L 266.428054 185.659624 
L 267.680628 185.659624 
L 267.680628 184.74013 
L 272.24369 184.74013 
L 272.288767 182.441393 
L 277.844089 182.441393 
L 277.844089 181.981646 
L 285.22336 181.981646 
L 285.22336 181.062151 
L 287.639062 181.062151 
L 287.639062 180.602404 
L 289.108908 180.602404 
L 289.108908 179.682909 
L 289.43295 179.682909 
L 289.43295 178.303667 
L 290.863532 178.303667 
L 290.863532 177.384172 
L 292.471827 177.384172 
L 292.471827 176.924425 
L 292.620118 176.924425 
L 292.620118 176.00493 
L 294.756481 176.00493 
L 294.756481 175.085435 
L 295.693083 175.085435 
L 295.693083 174.165941 
L 296.119215 174.165941 
L 296.119215 173.706193 
L 296.818948 173.706193 
L 296.818948 172.786699 
L 297.386013 172.786699 
L 297.386013 172.326951 
L 299.682815 172.326951 
L 299.682815 171.867204 
L 302.089743 171.867204 
L 302.089743 170.947709 
L 303.034473 170.947709 
L 303.034473 170.487962 
L 303.64931 170.487962 
L 303.64931 168.648972 
L 304.423643 168.648972 
L 304.423643 168.189225 
L 304.911487 168.189225 
L 304.911487 167.26973 
L 305.243348 167.26973 
L 305.243348 166.809983 
L 306.300707 166.809983 
L 306.300707 165.890488 
L 306.701922 165.890488 
L 306.701922 165.430741 
L 307.693261 165.430741 
L 307.693261 164.970994 
L 311.018791 164.970994 
L 311.018791 164.511246 
L 311.407538 164.511246 
L 311.407538 163.132004 
L 311.904372 163.132004 
L 311.904372 162.672257 
L 313.876733 162.672257 
L 313.876733 162.212509 
L 314.088888 162.212509 
L 314.088888 161.293015 
L 316.731683 161.293015 
L 316.731683 159.913773 
L 317.097445 159.913773 
L 317.097445 159.454025 
L 318.020276 159.454025 
L 318.020276 158.994278 
L 318.382272 158.994278 
L 318.382272 158.534531 
L 320.789709 158.534531 
L 320.789709 156.695541 
L 324.069583 156.695541 
L 324.069583 155.776046 
L 324.463719 155.776046 
L 324.463719 154.856552 
L 325.281973 154.856552 
L 325.281973 154.396804 
L 327.871549 154.396804 
L 327.871549 153.937057 
L 329.193966 153.937057 
L 329.193966 153.017562 
L 333.13526 153.017562 
L 333.13526 152.557815 
L 333.569032 152.557815 
L 333.569032 152.557815 
" style="fill:none;stroke:#ff00ff;stroke-linecap:square;stroke-width:1.5;"/>
   </g>
   <g id="line2d_53">
    <defs>
     <path d="M -0 8.485281 
L 5.091169 0 
L 0 -8.485281 
L -5.091169 -0 
z
" id="m828dc45085" style="stroke:#ff00ff;stroke-linejoin:miter;stroke-width:1.5;"/>
    </defs>
    <g>
     <use style="fill:none;stroke:#ff00ff;stroke-linejoin:miter;stroke-width:1.5;" x="108.444089" xlink:href="#m828dc45085" y="273.011622"/>
     <use style="fill:none;stroke:#ff00ff;stroke-linejoin:miter;stroke-width:1.5;" x="200.710131" xlink:href="#m828dc45085" y="232.094107"/>
     <use style="fill:none;stroke:#ff00ff;stroke-linejoin:miter;stroke-width:1.5;" x="249.0574" xlink:href="#m828dc45085" y="198.53255"/>
     <use style="fill:none;stroke:#ff00ff;stroke-linejoin:miter;stroke-width:1.5;" x="333.13526" xlink:href="#m828dc45085" y="152.557815"/>
     <use style="fill:none;stroke:#ff00ff;stroke-linejoin:miter;stroke-width:1.5;" x="333.13526" xlink:href="#m828dc45085" y="152.557815"/>
     <use style="fill:none;stroke:#ff00ff;stroke-linejoin:miter;stroke-width:1.5;" x="333.569032" xlink:href="#m828dc45085" y="152.557815"/>
    </g>
   </g>
   <g id="line2d_54">
    <path style="fill:none;stroke:#ff00ff;stroke-linecap:square;stroke-width:1.5;"/>
    <g/>
   </g>
   <g id="line2d_55">
    <path clip-path="url(#p8a9f4ad0c8)" d="M 294.036313 176.00493 
" style="fill:none;stroke:#ff00ff;stroke-linecap:square;stroke-width:1.5;"/>
    <defs>
     <path d="M -12 12 
L 12 -12 
M -12 -12 
L 12 12 
" id="mf10fb9423d" style="stroke:#ff00ff;stroke-width:3;"/>
    </defs>
    <g clip-path="url(#p8a9f4ad0c8)">
     <use style="fill:#ff00ff;stroke:#ff00ff;stroke-width:3;" x="294.036313" xlink:href="#mf10fb9423d" y="176.00493"/>
    </g>
   </g>
   <g id="line2d_56">
    <defs>
     <path d="M 0 1.5 
C 0.397805 1.5 0.77937 1.341951 1.06066 1.06066 
C 1.341951 0.77937 1.5 0.397805 1.5 0 
C 1.5 -0.397805 1.341951 -0.77937 1.06066 -1.06066 
C 0.77937 -1.341951 0.397805 -1.5 0 -1.5 
C -0.397805 -1.5 -0.77937 -1.341951 -1.06066 -1.06066 
C -1.341951 -0.77937 -1.5 -0.397805 -1.5 0 
C -1.5 0.397805 -1.341951 0.77937 -1.06066 1.06066 
C -0.77937 1.341951 -0.397805 1.5 0 1.5 
z
" id="ma4a188e4d2" style="stroke:#ffa500;"/>
    </defs>
    <g>
     <use style="fill:#ffa500;stroke:#ffa500;" x="215.385437" xlink:href="#ma4a188e4d2" y="252.782738"/>
     <use style="fill:#ffa500;stroke:#ffa500;" x="215.385437" xlink:href="#ma4a188e4d2" y="252.782738"/>
    </g>
   </g>
   <g id="line2d_57">
    <path d="M 17.307281 294.16 
L 17.307281 274.850611 
L 155.219176 274.850611 
L 155.219176 274.390864 
L 155.308134 274.390864 
L 155.308134 273.011622 
L 155.352441 273.011622 
L 155.352441 272.551874 
L 155.418687 272.551874 
L 155.418687 271.172632 
L 155.484679 271.172632 
L 155.484679 270.712885 
L 155.50662 270.712885 
L 155.50662 268.414148 
L 167.26127 268.414148 
L 167.26127 267.954401 
L 167.283369 267.954401 
L 167.283369 267.034906 
L 167.316466 267.034906 
L 167.316466 266.115411 
L 167.349499 266.115411 
L 167.349499 265.655664 
L 167.393444 265.655664 
L 167.393444 265.195917 
L 167.437277 265.195917 
L 167.437277 264.736169 
L 174.10707 264.736169 
L 174.10707 264.276422 
L 174.210653 264.276422 
L 174.210653 263.816675 
L 174.291604 263.816675 
L 174.291604 263.356927 
L 179.121675 263.356927 
L 179.121675 262.89718 
L 179.154892 262.89718 
L 179.154892 262.437433 
L 179.226641 262.437433 
L 179.226641 261.977685 
L 179.232148 261.977685 
L 179.232148 261.517938 
L 179.35832 261.517938 
L 179.35832 261.058191 
L 182.984625 261.058191 
L 182.984625 260.598443 
L 183.068494 260.598443 
L 183.068494 260.138696 
L 183.09929 260.138696 
L 183.09929 259.678948 
L 186.128698 259.678948 
L 186.128698 259.219201 
L 186.136065 259.219201 
L 186.136065 258.759454 
L 186.20223 258.759454 
L 186.20223 258.299706 
L 193.117982 258.299706 
L 193.117982 257.839959 
L 193.210919 257.839959 
L 193.210919 257.380212 
L 194.866897 257.380212 
L 194.866897 256.920464 
L 194.977283 256.920464 
L 194.977283 256.460717 
L 196.608796 256.460717 
L 196.608796 256.00097 
L 201.894396 256.00097 
L 201.894396 255.541222 
L 201.948732 255.541222 
L 201.948732 255.081475 
L 202.992217 255.081475 
L 202.992217 254.621728 
L 209.20207 254.621728 
L 209.20207 254.16198 
L 209.98242 254.16198 
L 209.98242 253.702233 
L 210.640688 253.702233 
L 210.640688 253.242485 
L 215.385437 253.242485 
L 215.385437 252.782738 
L 333.569032 252.782738 
" style="fill:none;stroke:#ffa500;stroke-linecap:square;stroke-width:1.5;"/>
   </g>
   <g id="line2d_58">
    <defs>
     <path d="M 0 -6 
L -1.347084 -1.854102 
L -5.706339 -1.854102 
L -2.179628 0.708204 
L -3.526712 4.854102 
L -0 2.291796 
L 3.526712 4.854102 
L 2.179628 0.708204 
L 5.706339 -1.854102 
L 1.347084 -1.854102 
z
" id="m6c6865ed2e" style="stroke:#ffa500;stroke-linejoin:bevel;stroke-width:1.5;"/>
    </defs>
    <g>
     <use style="fill:none;stroke:#ffa500;stroke-linejoin:bevel;stroke-width:1.5;" x="186.20223" xlink:href="#m6c6865ed2e" y="258.299706"/>
     <use style="fill:none;stroke:#ffa500;stroke-linejoin:bevel;stroke-width:1.5;" x="215.385437" xlink:href="#m6c6865ed2e" y="253.242485"/>
     <use style="fill:none;stroke:#ffa500;stroke-linejoin:bevel;stroke-width:1.5;" x="215.385437" xlink:href="#m6c6865ed2e" y="252.782738"/>
     <use style="fill:none;stroke:#ffa500;stroke-linejoin:bevel;stroke-width:1.5;" x="333.569032" xlink:href="#m6c6865ed2e" y="252.782738"/>
    </g>
   </g>
   <g id="line2d_59">
    <path style="fill:none;stroke:#ffa500;stroke-linecap:square;stroke-width:1.5;"/>
    <g/>
   </g>
   <g id="line2d_60">
    <path clip-path="url(#p8a9f4ad0c8)" d="M 155.413176 272.551874 
" style="fill:none;stroke:#ffa500;stroke-linecap:square;stroke-width:1.5;"/>
    <defs>
     <path d="M -12 12 
L 12 -12 
M -12 -12 
L 12 12 
" id="m3949683d8b" style="stroke:#ffa500;stroke-width:3;"/>
    </defs>
    <g clip-path="url(#p8a9f4ad0c8)">
     <use style="fill:#ffa500;stroke:#ffa500;stroke-width:3;" x="155.413176" xlink:href="#m3949683d8b" y="272.551874"/>
    </g>
   </g>
   <g id="line2d_61">
    <defs>
     <path d="M 0 1.5 
C 0.397805 1.5 0.77937 1.341951 1.06066 1.06066 
C 1.341951 0.77937 1.5 0.397805 1.5 0 
C 1.5 -0.397805 1.341951 -0.77937 1.06066 -1.06066 
C 0.77937 -1.341951 0.397805 -1.5 0 -1.5 
C -0.397805 -1.5 -0.77937 -1.341951 -1.06066 -1.06066 
C -1.341951 -0.77937 -1.5 -0.397805 -1.5 0 
C -1.5 0.397805 -1.341951 0.77937 -1.06066 1.06066 
C -0.77937 1.341951 -0.397805 1.5 0 1.5 
z
" id="m516663c179" style="stroke:#6495ed;"/>
    </defs>
    <g>
     <use style="fill:#6495ed;stroke:#6495ed;" x="221.967002" xlink:href="#m516663c179" y="105.663585"/>
     <use style="fill:#6495ed;stroke:#6495ed;" x="221.967002" xlink:href="#m516663c179" y="105.663585"/>
    </g>
   </g>
   <g id="line2d_62">
    <path d="M 17.307281 294.16 
L 17.307281 275.770106 
L 71.140085 275.770106 
L 71.140085 275.310358 
L 83.040619 275.310358 
L 83.040619 273.471369 
L 96.200166 273.471369 
L 96.200166 273.011622 
L 101.525167 273.011622 
L 101.525167 272.551874 
L 101.651875 272.551874 
L 101.651875 272.092127 
L 105.177307 272.092127 
L 105.177307 271.63238 
L 105.3817 271.63238 
L 105.3817 271.172632 
L 110.821453 271.172632 
L 110.821453 270.712885 
L 111.04204 270.712885 
L 111.04204 270.253138 
L 111.545984 270.253138 
L 111.545984 269.79339 
L 111.827447 269.79339 
L 111.827447 269.333643 
L 112.711582 269.333643 
L 112.777744 266.575159 
L 113.615414 266.575159 
L 113.615414 265.655664 
L 114.353973 265.655664 
L 114.353973 265.195917 
L 114.652569 265.195917 
L 114.652569 264.276422 
L 115.852877 264.276422 
L 115.852877 263.356927 
L 116.017699 263.356927 
L 116.017699 262.89718 
L 116.661606 262.89718 
L 116.661606 261.977685 
L 117.63417 261.977685 
L 117.63417 261.517938 
L 117.832084 261.517938 
L 117.832084 260.598443 
L 118.173037 260.598443 
L 118.221196 259.678948 
L 118.412494 259.678948 
L 118.459988 256.920464 
L 118.742222 256.920464 
L 118.742222 255.541222 
L 119.065736 255.541222 
L 119.065736 255.081475 
L 119.56211 255.081475 
L 119.56211 254.16198 
L 119.73911 254.16198 
L 119.73911 253.242485 
L 120.130811 253.242485 
L 120.130811 252.322991 
L 120.805841 252.322991 
L 120.805841 250.943749 
L 121.214642 250.943749 
L 121.214642 250.484001 
L 121.731935 250.484001 
L 121.731935 250.024254 
L 121.926816 250.024254 
L 121.926816 249.564507 
L 122.758949 249.564507 
L 122.758949 248.185265 
L 123.196395 248.185265 
L 123.304037 245.42678 
L 123.481954 245.42678 
L 123.481954 244.507286 
L 124.344892 244.507286 
L 124.344892 244.047538 
L 124.479024 244.047538 
L 124.479024 243.587791 
L 125.102221 243.587791 
L 125.102221 241.748802 
L 125.389706 241.748802 
L 125.389706 239.909812 
L 125.641269 239.909812 
L 125.641269 239.450065 
L 125.796644 239.450065 
L 125.827551 237.611075 
L 125.981257 237.611075 
L 125.981257 237.151328 
L 126.344632 237.151328 
L 126.434287 236.231833 
L 126.464068 236.231833 
L 126.464068 234.852591 
L 126.759073 234.852591 
L 126.759073 234.392844 
L 126.962601 234.392844 
L 126.962601 233.013602 
L 127.698117 233.013602 
L 127.698117 230.714865 
L 127.83602 230.714865 
L 127.94555 227.956381 
L 128.162537 227.956381 
L 128.243205 227.036886 
L 128.509394 227.036886 
L 128.509394 226.577139 
L 128.875258 226.577139 
L 128.875258 224.73815 
L 129.131898 224.73815 
L 129.131898 222.439413 
L 129.334482 222.439413 
L 129.334482 221.519918 
L 129.559569 221.519918 
L 129.559569 220.600423 
L 129.732618 220.600423 
L 129.732618 219.221181 
L 130.073571 219.221181 
L 130.145759 216.462697 
L 130.782152 216.462697 
L 130.782152 216.00295 
L 131.418108 216.00295 
L 131.418108 215.083455 
L 131.551372 215.083455 
L 131.551372 212.784718 
L 132.031346 212.784718 
L 132.031346 211.865224 
L 132.768319 211.865224 
L 132.768319 207.26775 
L 132.932419 207.26775 
L 132.932419 206.808003 
L 133.175665 206.808003 
L 133.276009 202.670277 
L 133.494724 202.670277 
L 133.593226 201.750782 
L 134.172657 201.750782 
L 134.229539 197.613056 
L 134.323925 197.613056 
L 134.380309 195.774066 
L 134.529766 195.774066 
L 134.529766 194.854572 
L 134.879599 194.854572 
L 134.879599 193.475329 
L 135.541053 193.475329 
L 135.541053 193.015582 
L 135.750219 193.015582 
L 135.750219 192.555835 
L 135.905438 192.555835 
L 135.905438 191.63634 
L 136.110238 191.63634 
L 136.110238 191.176593 
L 137.290241 191.176593 
L 137.290241 190.716845 
L 137.463585 190.716845 
L 137.463585 190.257098 
L 137.881791 190.257098 
L 137.881791 188.877856 
L 138.260142 188.877856 
L 138.275104 187.498614 
L 138.703424 187.498614 
L 138.747129 185.659624 
L 138.892015 185.659624 
L 138.892015 184.74013 
L 139.361643 184.74013 
L 139.431692 183.360888 
L 139.750284 183.360888 
L 139.750284 182.441393 
L 140.502128 182.441393 
L 140.502128 181.981646 
L 140.619947 181.981646 
L 140.672053 179.682909 
L 140.98141 179.682909 
L 140.98141 179.223161 
L 141.121357 179.223161 
L 141.209824 177.843919 
L 142.154011 177.843919 
L 142.177856 175.545183 
L 142.39099 175.545183 
L 142.437995 173.706193 
L 142.519947 173.706193 
L 142.519947 173.246446 
L 142.786495 173.246446 
L 142.786495 172.786699 
L 142.901107 172.786699 
L 142.901107 172.326951 
L 143.21801 172.326951 
L 143.21801 171.867204 
L 143.4076 171.867204 
L 143.4076 170.947709 
L 143.813139 170.947709 
L 143.878008 168.648972 
L 144.873734 168.648972 
L 144.934725 167.729478 
L 144.9955 167.729478 
L 144.9955 167.26973 
L 145.316047 167.26973 
L 145.316047 166.809983 
L 145.63072 166.809983 
L 145.73757 165.890488 
L 146.233869 165.890488 
L 146.233869 164.970994 
L 146.688761 164.970994 
L 146.752773 163.132004 
L 146.988463 163.132004 
L 146.988463 162.212509 
L 147.158675 162.212509 
L 147.158675 160.833267 
L 147.993798 160.833267 
L 148.019252 159.454025 
L 148.659986 159.454025 
L 148.659986 158.994278 
L 148.919388 158.994278 
L 148.919388 158.074783 
L 149.644052 158.074783 
L 149.644052 156.695541 
L 150.383748 156.695541 
L 150.383748 155.776046 
L 151.205932 155.776046 
L 151.205932 154.856552 
L 152.197836 154.856552 
L 152.217765 152.557815 
L 152.356624 152.557815 
L 152.442025 149.799331 
L 153.366847 149.799331 
L 153.428829 146.581099 
L 153.790034 146.581099 
L 153.790034 145.201857 
L 154.018714 145.201857 
L 154.018714 144.74211 
L 155.626797 144.74211 
L 155.626797 142.903121 
L 156.030282 142.903121 
L 156.030282 142.443373 
L 157.579905 142.443373 
L 157.579905 141.523878 
L 158.035339 141.523878 
L 158.035339 140.144636 
L 158.698884 140.144636 
L 158.698884 138.765394 
L 159.072575 138.765394 
L 159.072575 138.305647 
L 160.338559 138.305647 
L 160.338559 137.8459 
L 161.205755 137.8459 
L 161.205755 136.926405 
L 161.401302 136.926405 
L 161.401302 136.466658 
L 161.925962 136.466658 
L 161.925962 136.00691 
L 162.861776 136.00691 
L 162.861776 135.547163 
L 163.239749 135.547163 
L 163.239749 135.087416 
L 163.427389 135.087416 
L 163.427389 134.167921 
L 163.823663 134.167921 
L 163.823663 133.708173 
L 164.512097 133.708173 
L 164.521827 131.869184 
L 165.507854 131.869184 
L 165.507854 130.489942 
L 167.429067 130.489942 
L 167.464616 129.1107 
L 168.249523 129.1107 
L 168.249523 128.650953 
L 168.361372 128.650953 
L 168.361372 128.191205 
L 168.857128 128.191205 
L 168.857128 127.731458 
L 171.503717 127.731458 
L 171.503717 126.352216 
L 172.259767 126.352216 
L 172.259767 125.432721 
L 172.838718 125.432721 
L 172.838718 124.972974 
L 173.284328 124.972974 
L 173.284328 124.053479 
L 179.170095 124.053479 
L 179.170095 123.593732 
L 179.839324 123.593732 
L 179.9334 122.674237 
L 180.563877 122.674237 
L 180.563877 121.754742 
L 180.814245 121.754742 
L 180.814245 121.294995 
L 181.328668 121.294995 
L 181.328668 120.835248 
L 182.748486 120.835248 
L 182.748486 120.3755 
L 183.492545 120.3755 
L 183.492545 119.915753 
L 185.800422 119.915753 
L 185.800422 119.456005 
L 186.33926 119.456005 
L 186.33926 118.996258 
L 186.896968 118.996258 
L 186.900491 117.157269 
L 188.609874 117.157269 
L 188.609874 116.697521 
L 190.333201 116.697521 
L 190.333201 116.237774 
L 190.631275 116.237774 
L 190.631275 115.778027 
L 192.006824 115.778027 
L 192.006824 115.318279 
L 192.54447 115.318279 
L 192.54447 114.858532 
L 193.483148 114.858532 
L 193.483148 114.398785 
L 194.154075 114.398785 
L 194.154075 113.939037 
L 194.670877 113.939037 
L 194.670877 113.47929 
L 198.357675 113.47929 
L 198.365354 112.559795 
L 199.675727 112.559795 
L 199.675727 112.100048 
L 199.787505 112.100048 
L 199.787505 111.6403 
L 201.64885 111.6403 
L 201.64885 111.180553 
L 202.070364 111.180553 
L 202.070364 110.720806 
L 202.38056 110.720806 
L 202.38056 110.261058 
L 202.678576 110.261058 
L 202.678576 109.801311 
L 203.809623 109.801311 
L 203.812583 108.881816 
L 205.888446 108.881816 
L 205.888446 108.422069 
L 207.061138 108.422069 
L 207.061138 107.962322 
L 211.47154 107.962322 
L 211.47154 107.502574 
L 212.158988 107.502574 
L 212.158988 107.042827 
L 214.234203 107.042827 
L 214.234203 106.58308 
L 215.543418 106.58308 
L 215.543418 106.123332 
L 221.967002 106.123332 
L 221.967002 105.663585 
L 333.569032 105.663585 
L 333.569032 105.663585 
" style="fill:none;stroke:#6495ed;stroke-linecap:square;stroke-width:1.5;"/>
   </g>
   <g id="line2d_63">
    <defs>
     <path d="M -0 6 
L 6 -6 
L -6 -6 
z
" id="m72d3ab98b9" style="stroke:#6495ed;stroke-linejoin:miter;stroke-width:1.5;"/>
    </defs>
    <g>
     <use style="fill:none;stroke:#6495ed;stroke-linejoin:miter;stroke-width:1.5;" x="125.796644" xlink:href="#m72d3ab98b9" y="239.450065"/>
     <use style="fill:none;stroke:#6495ed;stroke-linejoin:miter;stroke-width:1.5;" x="158.035339" xlink:href="#m72d3ab98b9" y="141.523878"/>
     <use style="fill:none;stroke:#6495ed;stroke-linejoin:miter;stroke-width:1.5;" x="221.967002" xlink:href="#m72d3ab98b9" y="106.123332"/>
     <use style="fill:none;stroke:#6495ed;stroke-linejoin:miter;stroke-width:1.5;" x="221.967002" xlink:href="#m72d3ab98b9" y="105.663585"/>
     <use style="fill:none;stroke:#6495ed;stroke-linejoin:miter;stroke-width:1.5;" x="333.569032" xlink:href="#m72d3ab98b9" y="105.663585"/>
    </g>
   </g>
   <g id="line2d_64">
    <path style="fill:none;stroke:#6495ed;stroke-linecap:square;stroke-width:1.5;"/>
    <g/>
   </g>
   <g id="line2d_65">
    <path clip-path="url(#p8a9f4ad0c8)" d="M 176.913002 124.053479 
" style="fill:none;stroke:#6495ed;stroke-linecap:square;stroke-width:1.5;"/>
    <defs>
     <path d="M -12 12 
L 12 -12 
M -12 -12 
L 12 12 
" id="md26ef1ec94" style="stroke:#6495ed;stroke-width:3;"/>
    </defs>
    <g clip-path="url(#p8a9f4ad0c8)">
     <use style="fill:#6495ed;stroke:#6495ed;stroke-width:3;" x="176.913002" xlink:href="#md26ef1ec94" y="124.053479"/>
    </g>
   </g>
   <g id="line2d_66">
    <path d="M 333.569032 252.782738 
L 364.009226 288.826931 
" style="fill:none;stroke:#ffa500;stroke-linecap:square;stroke-width:1.5;"/>
    <g>
     <use style="fill:none;stroke:#ffa500;stroke-linejoin:bevel;stroke-width:1.5;" x="333.569032" xlink:href="#m6c6865ed2e" y="252.782738"/>
     <use style="fill:none;stroke:#ffa500;stroke-linejoin:bevel;stroke-width:1.5;" x="364.009226" xlink:href="#m6c6865ed2e" y="288.826931"/>
    </g>
   </g>
   <g id="line2d_67">
    <path d="M 333.569032 152.557815 
L 364.009226 224.830099 
" style="fill:none;stroke:#ff00ff;stroke-linecap:square;stroke-width:1.5;"/>
    <g>
     <use style="fill:none;stroke:#ff00ff;stroke-linejoin:miter;stroke-width:1.5;" x="333.569032" xlink:href="#m828dc45085" y="152.557815"/>
     <use style="fill:none;stroke:#ff00ff;stroke-linejoin:miter;stroke-width:1.5;" x="364.009226" xlink:href="#m828dc45085" y="224.830099"/>
    </g>
   </g>
   <g id="line2d_68">
    <path d="M 333.569032 105.663585 
L 364.009226 160.833267 
" style="fill:none;stroke:#6495ed;stroke-linecap:square;stroke-width:1.5;"/>
    <g>
     <use style="fill:none;stroke:#6495ed;stroke-linejoin:miter;stroke-width:1.5;" x="333.569032" xlink:href="#m72d3ab98b9" y="105.663585"/>
     <use style="fill:none;stroke:#6495ed;stroke-linejoin:miter;stroke-width:1.5;" x="364.009226" xlink:href="#m72d3ab98b9" y="160.833267"/>
    </g>
   </g>
   <g id="line2d_69">
    <path d="M 333.569032 96.468638 
L 364.009226 96.836436 
" style="fill:none;stroke:#000080;stroke-linecap:square;stroke-width:1.5;"/>
    <g>
     <use style="fill:none;stroke:#000080;stroke-width:1.5;" x="333.569032" xlink:href="#mfaf3b4797c" y="96.468638"/>
     <use style="fill:none;stroke:#000080;stroke-width:1.5;" x="364.009226" xlink:href="#mfaf3b4797c" y="96.836436"/>
    </g>
   </g>
   <g id="line2d_70">
    <path d="M 333.569032 294.16 
L 333.569032 27.506535 
" style="fill:none;stroke:#000000;stroke-linecap:square;stroke-width:1.5;"/>
   </g>
   <g id="patch_3">
    <path d="M 56.84 294.16 
L 56.84 24.84 
" style="fill:none;stroke:#000000;stroke-linecap:square;stroke-linejoin:miter;stroke-width:0.8;"/>
   </g>
   <g id="patch_4">
    <path d="M 399.984 294.16 
L 399.984 24.84 
" style="fill:none;stroke:#000000;stroke-linecap:square;stroke-linejoin:miter;stroke-width:0.8;"/>
   </g>
   <g id="patch_5">
    <path d="M 56.84 294.16 
L 399.984 294.16 
" style="fill:none;stroke:#000000;stroke-linecap:square;stroke-linejoin:miter;stroke-width:0.8;"/>
   </g>
   <g id="patch_6">
    <path d="M 56.84 24.84 
L 399.984 24.84 
" style="fill:none;stroke:#000000;stroke-linecap:square;stroke-linejoin:miter;stroke-width:0.8;"/>
   </g>
   <g id="text_14">
    <!-- adaptiveH -->
    <defs>
     <path d="M 9.8125 72.90625 
L 19.671875 72.90625 
L 19.671875 43.015625 
L 55.515625 43.015625 
L 55.515625 72.90625 
L 65.375 72.90625 
L 65.375 0 
L 55.515625 0 
L 55.515625 34.71875 
L 19.671875 34.71875 
L 19.671875 0 
L 9.8125 0 
z
" id="DejaVuSans-48"/>
    </defs>
    <g transform="translate(369.543806 293.517868)scale(0.17 -0.17)">
     <use xlink:href="#DejaVuSans-61"/>
     <use x="61.279297" xlink:href="#DejaVuSans-64"/>
     <use x="124.755859" xlink:href="#DejaVuSans-61"/>
     <use x="186.035156" xlink:href="#DejaVuSans-70"/>
     <use x="249.511719" xlink:href="#DejaVuSans-74"/>
     <use x="288.720703" xlink:href="#DejaVuSans-69"/>
     <use x="316.503906" xlink:href="#DejaVuSans-76"/>
     <use x="375.683594" xlink:href="#DejaVuSans-65"/>
     <use x="437.207031" xlink:href="#DejaVuSans-48"/>
    </g>
   </g>
   <g id="text_15">
    <!-- RANDOMSEA -->
    <defs>
     <path d="M 44.390625 34.1875 
Q 47.5625 33.109375 50.5625 29.59375 
Q 53.5625 26.078125 56.59375 19.921875 
L 66.609375 0 
L 56 0 
L 46.6875 18.703125 
Q 43.0625 26.03125 39.671875 28.421875 
Q 36.28125 30.8125 30.421875 30.8125 
L 19.671875 30.8125 
L 19.671875 0 
L 9.8125 0 
L 9.8125 72.90625 
L 32.078125 72.90625 
Q 44.578125 72.90625 50.734375 67.671875 
Q 56.890625 62.453125 56.890625 51.90625 
Q 56.890625 45.015625 53.6875 40.46875 
Q 50.484375 35.9375 44.390625 34.1875 
M 19.671875 64.796875 
L 19.671875 38.921875 
L 32.078125 38.921875 
Q 39.203125 38.921875 42.84375 42.21875 
Q 46.484375 45.515625 46.484375 51.90625 
Q 46.484375 58.296875 42.84375 61.546875 
Q 39.203125 64.796875 32.078125 64.796875 
z
" id="DejaVuSans-52"/>
     <path d="M 34.1875 63.1875 
L 20.796875 26.90625 
L 47.609375 26.90625 
z
M 28.609375 72.90625 
L 39.796875 72.90625 
L 67.578125 0 
L 57.328125 0 
L 50.6875 18.703125 
L 17.828125 18.703125 
L 11.1875 0 
L 0.78125 0 
z
" id="DejaVuSans-41"/>
     <path d="M 9.8125 72.90625 
L 23.09375 72.90625 
L 55.421875 11.921875 
L 55.421875 72.90625 
L 64.984375 72.90625 
L 64.984375 0 
L 51.703125 0 
L 19.390625 60.984375 
L 19.390625 0 
L 9.8125 0 
z
" id="DejaVuSans-4e"/>
     <path d="M 19.671875 64.796875 
L 19.671875 8.109375 
L 31.59375 8.109375 
Q 46.6875 8.109375 53.6875 14.9375 
Q 60.6875 21.78125 60.6875 36.53125 
Q 60.6875 51.171875 53.6875 57.984375 
Q 46.6875 64.796875 31.59375 64.796875 
z
M 9.8125 72.90625 
L 30.078125 72.90625 
Q 51.265625 72.90625 61.171875 64.09375 
Q 71.09375 55.28125 71.09375 36.53125 
Q 71.09375 17.671875 61.125 8.828125 
Q 51.171875 0 30.078125 0 
L 9.8125 0 
z
" id="DejaVuSans-44"/>
     <path d="M 39.40625 66.21875 
Q 28.65625 66.21875 22.328125 58.203125 
Q 16.015625 50.203125 16.015625 36.375 
Q 16.015625 22.609375 22.328125 14.59375 
Q 28.65625 6.59375 39.40625 6.59375 
Q 50.140625 6.59375 56.421875 14.59375 
Q 62.703125 22.609375 62.703125 36.375 
Q 62.703125 50.203125 56.421875 58.203125 
Q 50.140625 66.21875 39.40625 66.21875 
M 39.40625 74.21875 
Q 54.734375 74.21875 63.90625 63.9375 
Q 73.09375 53.65625 73.09375 36.375 
Q 73.09375 19.140625 63.90625 8.859375 
Q 54.734375 -1.421875 39.40625 -1.421875 
Q 24.03125 -1.421875 14.8125 8.828125 
Q 5.609375 19.09375 5.609375 36.375 
Q 5.609375 53.65625 14.8125 63.9375 
Q 24.03125 74.21875 39.40625 74.21875 
" id="DejaVuSans-4f"/>
     <path d="M 9.8125 72.90625 
L 24.515625 72.90625 
L 43.109375 23.296875 
L 61.8125 72.90625 
L 76.515625 72.90625 
L 76.515625 0 
L 66.890625 0 
L 66.890625 64.015625 
L 48.09375 14.015625 
L 38.1875 14.015625 
L 19.390625 64.015625 
L 19.390625 0 
L 9.8125 0 
z
" id="DejaVuSans-4d"/>
     <path d="M 53.515625 70.515625 
L 53.515625 60.890625 
Q 47.90625 63.578125 42.921875 64.890625 
Q 37.9375 66.21875 33.296875 66.21875 
Q 25.25 66.21875 20.875 63.09375 
Q 16.5 59.96875 16.5 54.203125 
Q 16.5 49.359375 19.40625 46.890625 
Q 22.3125 44.4375 30.421875 42.921875 
L 36.375 41.703125 
Q 47.40625 39.59375 52.65625 34.296875 
Q 57.90625 29 57.90625 20.125 
Q 57.90625 9.515625 50.796875 4.046875 
Q 43.703125 -1.421875 29.984375 -1.421875 
Q 24.8125 -1.421875 18.96875 -0.25 
Q 13.140625 0.921875 6.890625 3.21875 
L 6.890625 13.375 
Q 12.890625 10.015625 18.65625 8.296875 
Q 24.421875 6.59375 29.984375 6.59375 
Q 38.421875 6.59375 43.015625 9.90625 
Q 47.609375 13.234375 47.609375 19.390625 
Q 47.609375 24.75 44.3125 27.78125 
Q 41.015625 30.8125 33.5 32.328125 
L 27.484375 33.5 
Q 16.453125 35.6875 11.515625 40.375 
Q 6.59375 45.0625 6.59375 53.421875 
Q 6.59375 63.09375 13.40625 68.65625 
Q 20.21875 74.21875 32.171875 74.21875 
Q 37.3125 74.21875 42.625 73.28125 
Q 47.953125 72.359375 53.515625 70.515625 
" id="DejaVuSans-53"/>
     <path d="M 9.8125 72.90625 
L 55.90625 72.90625 
L 55.90625 64.59375 
L 19.671875 64.59375 
L 19.671875 43.015625 
L 54.390625 43.015625 
L 54.390625 34.71875 
L 19.671875 34.71875 
L 19.671875 8.296875 
L 56.78125 8.296875 
L 56.78125 0 
L 9.8125 0 
z
" id="DejaVuSans-45"/>
    </defs>
    <g transform="translate(369.543806 229.521037)scale(0.17 -0.17)">
     <use xlink:href="#DejaVuSans-52"/>
     <use x="69.419922" xlink:href="#DejaVuSans-41"/>
     <use x="137.828125" xlink:href="#DejaVuSans-4e"/>
     <use x="212.632812" xlink:href="#DejaVuSans-44"/>
     <use x="289.634766" xlink:href="#DejaVuSans-4f"/>
     <use x="368.345703" xlink:href="#DejaVuSans-4d"/>
     <use x="454.625" xlink:href="#DejaVuSans-53"/>
     <use x="518.101562" xlink:href="#DejaVuSans-45"/>
     <use x="581.285156" xlink:href="#DejaVuSans-41"/>
    </g>
   </g>
   <g id="text_16">
    <!-- final  bu -->
    <defs>
     <path d="M 48.6875 27.296875 
Q 48.6875 37.203125 44.609375 42.84375 
Q 40.53125 48.484375 33.40625 48.484375 
Q 26.265625 48.484375 22.1875 42.84375 
Q 18.109375 37.203125 18.109375 27.296875 
Q 18.109375 17.390625 22.1875 11.75 
Q 26.265625 6.109375 33.40625 6.109375 
Q 40.53125 6.109375 44.609375 11.75 
Q 48.6875 17.390625 48.6875 27.296875 
M 18.109375 46.390625 
Q 20.953125 51.265625 25.265625 53.625 
Q 29.59375 56 35.59375 56 
Q 45.5625 56 51.78125 48.09375 
Q 58.015625 40.1875 58.015625 27.296875 
Q 58.015625 14.40625 51.78125 6.484375 
Q 45.5625 -1.421875 35.59375 -1.421875 
Q 29.59375 -1.421875 25.265625 0.953125 
Q 20.953125 3.328125 18.109375 8.203125 
L 18.109375 0 
L 9.078125 0 
L 9.078125 75.984375 
L 18.109375 75.984375 
z
" id="DejaVuSans-62"/>
    </defs>
    <g transform="translate(369.543806 165.524205)scale(0.17 -0.17)">
     <use xlink:href="#DejaVuSans-66"/>
     <use x="35.205078" xlink:href="#DejaVuSans-69"/>
     <use x="62.988281" xlink:href="#DejaVuSans-6e"/>
     <use x="126.367188" xlink:href="#DejaVuSans-61"/>
     <use x="187.646484" xlink:href="#DejaVuSans-6c"/>
     <use x="215.429688" xlink:href="#DejaVuSans-20"/>
     <use x="247.216797" xlink:href="#DejaVuSans-20"/>
     <use x="279.003906" xlink:href="#DejaVuSans-62"/>
     <use x="342.480469" xlink:href="#DejaVuSans-75"/>
    </g>
   </g>
   <g id="text_17">
    <!-- NSGA-II-M -->
    <defs>
     <path d="M 59.515625 10.40625 
L 59.515625 29.984375 
L 43.40625 29.984375 
L 43.40625 38.09375 
L 69.28125 38.09375 
L 69.28125 6.78125 
Q 63.578125 2.734375 56.6875 0.65625 
Q 49.8125 -1.421875 42 -1.421875 
Q 24.90625 -1.421875 15.25 8.5625 
Q 5.609375 18.5625 5.609375 36.375 
Q 5.609375 54.25 15.25 64.234375 
Q 24.90625 74.21875 42 74.21875 
Q 49.125 74.21875 55.546875 72.453125 
Q 61.96875 70.703125 67.390625 67.28125 
L 67.390625 56.78125 
Q 61.921875 61.421875 55.765625 63.765625 
Q 49.609375 66.109375 42.828125 66.109375 
Q 29.4375 66.109375 22.71875 58.640625 
Q 16.015625 51.171875 16.015625 36.375 
Q 16.015625 21.625 22.71875 14.15625 
Q 29.4375 6.6875 42.828125 6.6875 
Q 48.046875 6.6875 52.140625 7.59375 
Q 56.25 8.5 59.515625 10.40625 
" id="DejaVuSans-47"/>
     <path d="M 9.8125 72.90625 
L 19.671875 72.90625 
L 19.671875 0 
L 9.8125 0 
z
" id="DejaVuSans-49"/>
    </defs>
    <g transform="translate(369.543806 101.527373)scale(0.17 -0.17)">
     <use xlink:href="#DejaVuSans-4e"/>
     <use x="74.804688" xlink:href="#DejaVuSans-53"/>
     <use x="138.28125" xlink:href="#DejaVuSans-47"/>
     <use x="215.771484" xlink:href="#DejaVuSans-41"/>
     <use x="284.148438" xlink:href="#DejaVuSans-2d"/>
     <use x="320.232422" xlink:href="#DejaVuSans-49"/>
     <use x="349.724609" xlink:href="#DejaVuSans-49"/>
     <use x="379.216797" xlink:href="#DejaVuSans-2d"/>
     <use x="415.300781" xlink:href="#DejaVuSans-4d"/>
    </g>
   </g>
   <g id="text_18">
    <!-- best 2016 -->
    <g transform="translate(369.543806 37.530541)scale(0.17 -0.17)">
     <use xlink:href="#DejaVuSans-62"/>
     <use x="63.476562" xlink:href="#DejaVuSans-65"/>
     <use x="125" xlink:href="#DejaVuSans-73"/>
     <use x="177.099609" xlink:href="#DejaVuSans-74"/>
     <use x="216.308594" xlink:href="#DejaVuSans-20"/>
     <use x="248.095703" xlink:href="#DejaVuSans-32"/>
     <use x="311.71875" xlink:href="#DejaVuSans-30"/>
     <use x="375.341797" xlink:href="#DejaVuSans-31"/>
     <use x="438.964844" xlink:href="#DejaVuSans-36"/>
    </g>
   </g>
   <g id="text_19">
    <!-- bbob-biobj f53, 10-D -->
    <defs>
     <path d="M 9.421875 54.6875 
L 18.40625 54.6875 
L 18.40625 -0.984375 
Q 18.40625 -11.421875 14.421875 -16.109375 
Q 10.453125 -20.796875 1.609375 -20.796875 
L -1.8125 -20.796875 
L -1.8125 -13.1875 
L 0.59375 -13.1875 
Q 5.71875 -13.1875 7.5625 -10.8125 
Q 9.421875 -8.453125 9.421875 -0.984375 
z
M 9.421875 75.984375 
L 18.40625 75.984375 
L 18.40625 64.59375 
L 9.421875 64.59375 
z
" id="DejaVuSans-6a"/>
     <path d="M 10.796875 72.90625 
L 49.515625 72.90625 
L 49.515625 64.59375 
L 19.828125 64.59375 
L 19.828125 46.734375 
Q 21.96875 47.46875 24.109375 47.828125 
Q 26.265625 48.1875 28.421875 48.1875 
Q 40.625 48.1875 47.75 41.5 
Q 54.890625 34.8125 54.890625 23.390625 
Q 54.890625 11.625 47.5625 5.09375 
Q 40.234375 -1.421875 26.90625 -1.421875 
Q 22.3125 -1.421875 17.546875 -0.640625 
Q 12.796875 0.140625 7.71875 1.703125 
L 7.71875 11.625 
Q 12.109375 9.234375 16.796875 8.0625 
Q 21.484375 6.890625 26.703125 6.890625 
Q 35.15625 6.890625 40.078125 11.328125 
Q 45.015625 15.765625 45.015625 23.390625 
Q 45.015625 31 40.078125 35.4375 
Q 35.15625 39.890625 26.703125 39.890625 
Q 22.75 39.890625 18.8125 39.015625 
Q 14.890625 38.140625 10.796875 36.28125 
z
" id="DejaVuSans-35"/>
     <path d="M 40.578125 39.3125 
Q 47.65625 37.796875 51.625 33 
Q 55.609375 28.21875 55.609375 21.1875 
Q 55.609375 10.40625 48.1875 4.484375 
Q 40.765625 -1.421875 27.09375 -1.421875 
Q 22.515625 -1.421875 17.65625 -0.515625 
Q 12.796875 0.390625 7.625 2.203125 
L 7.625 11.71875 
Q 11.71875 9.328125 16.59375 8.109375 
Q 21.484375 6.890625 26.8125 6.890625 
Q 36.078125 6.890625 40.9375 10.546875 
Q 45.796875 14.203125 45.796875 21.1875 
Q 45.796875 27.640625 41.28125 31.265625 
Q 36.765625 34.90625 28.71875 34.90625 
L 20.21875 34.90625 
L 20.21875 43.015625 
L 29.109375 43.015625 
Q 36.375 43.015625 40.234375 45.921875 
Q 44.09375 48.828125 44.09375 54.296875 
Q 44.09375 59.90625 40.109375 62.90625 
Q 36.140625 65.921875 28.71875 65.921875 
Q 24.65625 65.921875 20.015625 65.03125 
Q 15.375 64.15625 9.8125 62.3125 
L 9.8125 71.09375 
Q 15.4375 72.65625 20.34375 73.4375 
Q 25.25 74.21875 29.59375 74.21875 
Q 40.828125 74.21875 47.359375 69.109375 
Q 53.90625 64.015625 53.90625 55.328125 
Q 53.90625 49.265625 50.4375 45.09375 
Q 46.96875 40.921875 40.578125 39.3125 
" id="DejaVuSans-33"/>
    </defs>
    <g transform="translate(60.27144 35.283606)scale(0.102 -0.102)">
     <use xlink:href="#DejaVuSans-62"/>
     <use x="63.476562" xlink:href="#DejaVuSans-62"/>
     <use x="126.953125" xlink:href="#DejaVuSans-6f"/>
     <use x="188.134766" xlink:href="#DejaVuSans-62"/>
     <use x="251.611328" xlink:href="#DejaVuSans-2d"/>
     <use x="287.695312" xlink:href="#DejaVuSans-62"/>
     <use x="351.171875" xlink:href="#DejaVuSans-69"/>
     <use x="378.955078" xlink:href="#DejaVuSans-6f"/>
     <use x="440.136719" xlink:href="#DejaVuSans-62"/>
     <use x="503.613281" xlink:href="#DejaVuSans-6a"/>
     <use x="531.396484" xlink:href="#DejaVuSans-20"/>
     <use x="563.183594" xlink:href="#DejaVuSans-66"/>
     <use x="598.388672" xlink:href="#DejaVuSans-35"/>
     <use x="662.011719" xlink:href="#DejaVuSans-33"/>
     <use x="725.634766" xlink:href="#DejaVuSans-2c"/>
     <use x="757.421875" xlink:href="#DejaVuSans-20"/>
     <use x="789.208984" xlink:href="#DejaVuSans-31"/>
     <use x="852.832031" xlink:href="#DejaVuSans-30"/>
     <use x="916.455078" xlink:href="#DejaVuSans-2d"/>
     <use x="952.539062" xlink:href="#DejaVuSans-44"/>
    </g>
    <!-- 58 targets: 1..-1.0e-4 -->
    <defs>
     <path d="M 11.71875 12.40625 
L 22.015625 12.40625 
L 22.015625 0 
L 11.71875 0 
z
M 11.71875 51.703125 
L 22.015625 51.703125 
L 22.015625 39.3125 
L 11.71875 39.3125 
z
" id="DejaVuSans-3a"/>
    </defs>
    <g transform="translate(60.27144 46.705375)scale(0.102 -0.102)">
     <use xlink:href="#DejaVuSans-35"/>
     <use x="63.623047" xlink:href="#DejaVuSans-38"/>
     <use x="127.246094" xlink:href="#DejaVuSans-20"/>
     <use x="159.033203" xlink:href="#DejaVuSans-74"/>
     <use x="198.242188" xlink:href="#DejaVuSans-61"/>
     <use x="259.521484" xlink:href="#DejaVuSans-72"/>
     <use x="300.619141" xlink:href="#DejaVuSans-67"/>
     <use x="364.095703" xlink:href="#DejaVuSans-65"/>
     <use x="425.619141" xlink:href="#DejaVuSans-74"/>
     <use x="464.828125" xlink:href="#DejaVuSans-73"/>
     <use x="516.927734" xlink:href="#DejaVuSans-3a"/>
     <use x="550.619141" xlink:href="#DejaVuSans-20"/>
     <use x="582.40625" xlink:href="#DejaVuSans-31"/>
     <use x="646.029297" xlink:href="#DejaVuSans-2e"/>
     <use x="677.816406" xlink:href="#DejaVuSans-2e"/>
     <use x="709.603516" xlink:href="#DejaVuSans-2d"/>
     <use x="745.6875" xlink:href="#DejaVuSans-31"/>
     <use x="809.310547" xlink:href="#DejaVuSans-2e"/>
     <use x="841.097656" xlink:href="#DejaVuSans-30"/>
     <use x="904.720703" xlink:href="#DejaVuSans-65"/>
     <use x="966.244141" xlink:href="#DejaVuSans-2d"/>
     <use x="1002.328125" xlink:href="#DejaVuSans-34"/>
    </g>
    <!-- 10 instances -->
    <g transform="translate(60.27144 58.127144)scale(0.102 -0.102)">
     <use xlink:href="#DejaVuSans-31"/>
     <use x="63.623047" xlink:href="#DejaVuSans-30"/>
     <use x="127.246094" xlink:href="#DejaVuSans-20"/>
     <use x="159.033203" xlink:href="#DejaVuSans-69"/>
     <use x="186.816406" xlink:href="#DejaVuSans-6e"/>
     <use x="250.195312" xlink:href="#DejaVuSans-73"/>
     <use x="302.294922" xlink:href="#DejaVuSans-74"/>
     <use x="341.503906" xlink:href="#DejaVuSans-61"/>
     <use x="402.783203" xlink:href="#DejaVuSans-6e"/>
     <use x="466.162109" xlink:href="#DejaVuSans-63"/>
     <use x="521.142578" xlink:href="#DejaVuSans-65"/>
     <use x="582.666016" xlink:href="#DejaVuSans-73"/>
    </g>
   </g>
   <g id="text_20">
    <!-- v2.2.1.10, hv-hash=ff0e71e8cd978373 -->
    <defs>
     <path d="M 54.890625 33.015625 
L 54.890625 0 
L 45.90625 0 
L 45.90625 32.71875 
Q 45.90625 40.484375 42.875 44.328125 
Q 39.84375 48.1875 33.796875 48.1875 
Q 26.515625 48.1875 22.3125 43.546875 
Q 18.109375 38.921875 18.109375 30.90625 
L 18.109375 0 
L 9.078125 0 
L 9.078125 75.984375 
L 18.109375 75.984375 
L 18.109375 46.1875 
Q 21.34375 51.125 25.703125 53.5625 
Q 30.078125 56 35.796875 56 
Q 45.21875 56 50.046875 50.171875 
Q 54.890625 44.34375 54.890625 33.015625 
" id="DejaVuSans-68"/>
     <path d="M 10.59375 45.40625 
L 73.1875 45.40625 
L 73.1875 37.203125 
L 10.59375 37.203125 
z
M 10.59375 25.484375 
L 73.1875 25.484375 
L 73.1875 17.1875 
L 10.59375 17.1875 
z
" id="DejaVuSans-3d"/>
     <path d="M 8.203125 72.90625 
L 55.078125 72.90625 
L 55.078125 68.703125 
L 28.609375 0 
L 18.3125 0 
L 43.21875 64.59375 
L 8.203125 64.59375 
z
" id="DejaVuSans-37"/>
     <path d="M 10.984375 1.515625 
L 10.984375 10.5 
Q 14.703125 8.734375 18.5 7.8125 
Q 22.3125 6.890625 25.984375 6.890625 
Q 35.75 6.890625 40.890625 13.453125 
Q 46.046875 20.015625 46.78125 33.40625 
Q 43.953125 29.203125 39.59375 26.953125 
Q 35.25 24.703125 29.984375 24.703125 
Q 19.046875 24.703125 12.671875 31.3125 
Q 6.296875 37.9375 6.296875 49.421875 
Q 6.296875 60.640625 12.9375 67.421875 
Q 19.578125 74.21875 30.609375 74.21875 
Q 43.265625 74.21875 49.921875 64.515625 
Q 56.59375 54.828125 56.59375 36.375 
Q 56.59375 19.140625 48.40625 8.859375 
Q 40.234375 -1.421875 26.421875 -1.421875 
Q 22.703125 -1.421875 18.890625 -0.6875 
Q 15.09375 0.046875 10.984375 1.515625 
M 30.609375 32.421875 
Q 37.25 32.421875 41.125 36.953125 
Q 45.015625 41.5 45.015625 49.421875 
Q 45.015625 57.28125 41.125 61.84375 
Q 37.25 66.40625 30.609375 66.40625 
Q 23.96875 66.40625 20.09375 61.84375 
Q 16.21875 57.28125 16.21875 49.421875 
Q 16.21875 41.5 20.09375 36.953125 
Q 23.96875 32.421875 30.609375 32.421875 
" id="DejaVuSans-39"/>
    </defs>
    <g style="fill:#808080;" transform="translate(130.065125 289.387113)scale(0.1 -0.1)">
     <use xlink:href="#DejaVuSans-76"/>
     <use x="59.179688" xlink:href="#DejaVuSans-32"/>
     <use x="122.802734" xlink:href="#DejaVuSans-2e"/>
     <use x="154.589844" xlink:href="#DejaVuSans-32"/>
     <use x="218.212891" xlink:href="#DejaVuSans-2e"/>
     <use x="250" xlink:href="#DejaVuSans-31"/>
     <use x="313.623047" xlink:href="#DejaVuSans-2e"/>
     <use x="345.410156" xlink:href="#DejaVuSans-31"/>
     <use x="409.033203" xlink:href="#DejaVuSans-30"/>
     <use x="472.65625" xlink:href="#DejaVuSans-2c"/>
     <use x="504.443359" xlink:href="#DejaVuSans-20"/>
     <use x="536.230469" xlink:href="#DejaVuSans-68"/>
     <use x="599.609375" xlink:href="#DejaVuSans-76"/>
     <use x="658.757812" xlink:href="#DejaVuSans-2d"/>
     <use x="694.841797" xlink:href="#DejaVuSans-68"/>
     <use x="758.220703" xlink:href="#DejaVuSans-61"/>
     <use x="819.5" xlink:href="#DejaVuSans-73"/>
     <use x="871.599609" xlink:href="#DejaVuSans-68"/>
     <use x="934.978516" xlink:href="#DejaVuSans-3d"/>
     <use x="1018.767578" xlink:href="#DejaVuSans-66"/>
     <use x="1053.972656" xlink:href="#DejaVuSans-66"/>
     <use x="1089.177734" xlink:href="#DejaVuSans-30"/>
     <use x="1152.800781" xlink:href="#DejaVuSans-65"/>
     <use x="1214.324219" xlink:href="#DejaVuSans-37"/>
     <use x="1277.947266" xlink:href="#DejaVuSans-31"/>
     <use x="1341.570312" xlink:href="#DejaVuSans-65"/>
     <use x="1403.09375" xlink:href="#DejaVuSans-38"/>
     <use x="1466.716797" xlink:href="#DejaVuSans-63"/>
     <use x="1521.697266" xlink:href="#DejaVuSans-64"/>
     <use x="1585.173828" xlink:href="#DejaVuSans-39"/>
     <use x="1648.796875" xlink:href="#DejaVuSans-37"/>
     <use x="1712.419922" xlink:href="#DejaVuSans-38"/>
     <use x="1776.042969" xlink:href="#DejaVuSans-33"/>
     <use x="1839.666016" xlink:href="#DejaVuSans-37"/>
     <use x="1903.289062" xlink:href="#DejaVuSans-33"/>
    </g>
   </g>
   <g id="text_21">
    <!-- 53 Schwefel/Schwefel -->
    <defs>
     <path d="M 4.203125 54.6875 
L 13.1875 54.6875 
L 24.421875 12.015625 
L 35.59375 54.6875 
L 46.1875 54.6875 
L 57.421875 12.015625 
L 68.609375 54.6875 
L 77.59375 54.6875 
L 63.28125 0 
L 52.6875 0 
L 40.921875 44.828125 
L 29.109375 0 
L 18.5 0 
z
" id="DejaVuSans-77"/>
    </defs>
    <g transform="translate(119.20575 18.84)scale(0.2 -0.2)">
     <use xlink:href="#DejaVuSans-35"/>
     <use x="63.623047" xlink:href="#DejaVuSans-33"/>
     <use x="127.246094" xlink:href="#DejaVuSans-20"/>
     <use x="159.033203" xlink:href="#DejaVuSans-53"/>
     <use x="222.509766" xlink:href="#DejaVuSans-63"/>
     <use x="277.490234" xlink:href="#DejaVuSans-68"/>
     <use x="340.869141" xlink:href="#DejaVuSans-77"/>
     <use x="422.65625" xlink:href="#DejaVuSans-65"/>
     <use x="484.179688" xlink:href="#DejaVuSans-66"/>
     <use x="519.384766" xlink:href="#DejaVuSans-65"/>
     <use x="580.908203" xlink:href="#DejaVuSans-6c"/>
     <use x="608.691406" xlink:href="#DejaVuSans-2f"/>
     <use x="642.382812" xlink:href="#DejaVuSans-53"/>
     <use x="705.859375" xlink:href="#DejaVuSans-63"/>
     <use x="760.839844" xlink:href="#DejaVuSans-68"/>
     <use x="824.21875" xlink:href="#DejaVuSans-77"/>
     <use x="906.005859" xlink:href="#DejaVuSans-65"/>
     <use x="967.529297" xlink:href="#DejaVuSans-66"/>
     <use x="1002.734375" xlink:href="#DejaVuSans-65"/>
     <use x="1064.257812" xlink:href="#DejaVuSans-6c"/>
    </g>
   </g>
  </g>
 </g>
 <defs>
  <clipPath id="p8a9f4ad0c8">
   <rect height="269.32" width="343.144" x="56.84" y="24.84"/>
  </clipPath>
 </defs>
</svg>
