<?xml version="1.0" encoding="utf-8" standalone="no"?>
<!DOCTYPE svg PUBLIC "-//W3C//DTD SVG 1.1//EN"
  "http://www.w3.org/Graphics/SVG/1.1/DTD/svg11.dtd">
<!-- Created with matplotlib (http://matplotlib.org/) -->
<svg height="345pt" version="1.1" viewBox="0 0 460 345" width="460pt" xmlns="http://www.w3.org/2000/svg" xmlns:xlink="http://www.w3.org/1999/xlink">
 <defs>
  <style type="text/css">
*{stroke-linecap:butt;stroke-linejoin:round;}
  </style>
 </defs>
 <g id="figure_1">
  <g id="patch_1">
   <path d="M 0 345.6 
L 460.8 345.6 
L 460.8 0 
L 0 0 
z
" style="fill:#ffffff;"/>
  </g>
  <g id="axes_1">
   <g id="patch_2">
    <path d="M 56.84 294.16 
L 399.984 294.16 
L 399.984 24.84 
L 56.84 24.84 
z
" style="fill:#ffffff;"/>
   </g>
   <g id="line2d_1">
    <path d="M 56.84 294.16 
L 56.84 289.562526 
L 91.047718 289.562526 
L 91.047718 280.367579 
L 103.334085 280.367579 
L 103.334085 271.172632 
L 137.385009 271.172632 
L 137.385009 266.575159 
L 148.698061 266.575159 
L 148.698061 252.782738 
L 162.402079 252.782738 
L 162.402079 243.587791 
L 175.10881 243.587791 
L 175.10881 238.990318 
L 186.306776 238.990318 
L 186.306776 229.79537 
L 194.951406 229.79537 
L 194.951406 216.00295 
L 204.938219 216.00295 
L 204.938219 206.808003 
L 216.275242 206.808003 
L 216.275242 197.613056 
L 226.898287 197.613056 
L 226.898287 188.418109 
L 241.637626 188.418109 
L 241.637626 183.820635 
L 248.215107 183.820635 
L 248.215107 170.028214 
L 254.949021 170.028214 
L 254.949021 165.430741 
L 262.934939 165.430741 
L 262.934939 151.63832 
L 269.918098 151.63832 
L 269.918098 142.443373 
L 278.120154 142.443373 
L 278.120154 137.8459 
L 283.960125 137.8459 
L 283.960125 124.053479 
L 297.646092 124.053479 
L 297.646092 119.456005 
L 307.430791 119.456005 
L 307.430791 105.663585 
L 322.63618 105.663585 
L 322.63618 96.468638 
L 333.569032 96.468638 
" style="fill:none;stroke:#f5deb3;stroke-linecap:square;stroke-width:6;"/>
   </g>
   <g id="line2d_2">
    <defs>
     <path d="M -0 7.778175 
L 7.778175 0 
L 0 -7.778175 
L -7.778175 -0 
z
" id="m70619c6729" style="stroke:#f5deb3;stroke-linejoin:miter;stroke-width:1.5;"/>
    </defs>
    <g>
     <use style="fill:#f5deb3;stroke:#f5deb3;stroke-linejoin:miter;stroke-width:1.5;" x="137.385009" xlink:href="#m70619c6729" y="266.575159"/>
     <use style="fill:#f5deb3;stroke:#f5deb3;stroke-linejoin:miter;stroke-width:1.5;" x="204.938219" xlink:href="#m70619c6729" y="216.00295"/>
     <use style="fill:#f5deb3;stroke:#f5deb3;stroke-linejoin:miter;stroke-width:1.5;" x="278.120154" xlink:href="#m70619c6729" y="137.8459"/>
     <use style="fill:#f5deb3;stroke:#f5deb3;stroke-linejoin:miter;stroke-width:1.5;" x="322.63618" xlink:href="#m70619c6729" y="96.468638"/>
     <use style="fill:#f5deb3;stroke:#f5deb3;stroke-linejoin:miter;stroke-width:1.5;" x="333.569032" xlink:href="#m70619c6729" y="96.468638"/>
    </g>
   </g>
   <g id="line2d_3">
    <path style="fill:none;stroke:#f5deb3;stroke-linecap:square;stroke-width:6;"/>
    <g/>
   </g>
   <g id="line2d_4">
    <path d="M 333.569032 96.468638 
L 364.009226 32.839604 
" style="fill:none;stroke:#f5deb3;stroke-linecap:square;stroke-width:6;"/>
    <g>
     <use style="fill:#f5deb3;stroke:#f5deb3;stroke-linejoin:miter;stroke-width:1.5;" x="333.569032" xlink:href="#m70619c6729" y="96.468638"/>
     <use style="fill:#f5deb3;stroke:#f5deb3;stroke-linejoin:miter;stroke-width:1.5;" x="364.009226" xlink:href="#m70619c6729" y="32.839604"/>
    </g>
   </g>
   <g id="matplotlib.axis_1">
    <g id="xtick_1">
     <g id="line2d_5">
      <path clip-path="url(#p11c46f4f66)" d="M 56.84 294.16 
L 56.84 24.84 
" style="fill:none;stroke:#b0b0b0;stroke-linecap:square;stroke-width:0.8;"/>
     </g>
     <g id="line2d_6">
      <defs>
       <path d="M 0 0 
L 0 3.5 
" id="m8a23363ae1" style="stroke:#000000;stroke-width:0.8;"/>
      </defs>
      <g>
       <use style="stroke:#000000;stroke-width:0.8;" x="56.84" xlink:href="#m8a23363ae1" y="294.16"/>
      </g>
     </g>
     <g id="text_1">
      <!-- 0 -->
      <defs>
       <path d="M 31.78125 66.40625 
Q 24.171875 66.40625 20.328125 58.90625 
Q 16.5 51.421875 16.5 36.375 
Q 16.5 21.390625 20.328125 13.890625 
Q 24.171875 6.390625 31.78125 6.390625 
Q 39.453125 6.390625 43.28125 13.890625 
Q 47.125 21.390625 47.125 36.375 
Q 47.125 51.421875 43.28125 58.90625 
Q 39.453125 66.40625 31.78125 66.40625 
M 31.78125 74.21875 
Q 44.046875 74.21875 50.515625 64.515625 
Q 56.984375 54.828125 56.984375 36.375 
Q 56.984375 17.96875 50.515625 8.265625 
Q 44.046875 -1.421875 31.78125 -1.421875 
Q 19.53125 -1.421875 13.0625 8.265625 
Q 6.59375 17.96875 6.59375 36.375 
Q 6.59375 54.828125 13.0625 64.515625 
Q 19.53125 74.21875 31.78125 74.21875 
" id="DejaVuSans-30"/>
      </defs>
      <g transform="translate(50.4775 316.356875)scale(0.2 -0.2)">
       <use xlink:href="#DejaVuSans-30"/>
      </g>
     </g>
    </g>
    <g id="xtick_2">
     <g id="line2d_7">
      <path clip-path="url(#p11c46f4f66)" d="M 135.905438 294.16 
L 135.905438 24.84 
" style="fill:none;stroke:#b0b0b0;stroke-linecap:square;stroke-width:0.8;"/>
     </g>
     <g id="line2d_8">
      <g>
       <use style="stroke:#000000;stroke-width:0.8;" x="135.905438" xlink:href="#m8a23363ae1" y="294.16"/>
      </g>
     </g>
     <g id="text_2">
      <!-- 2 -->
      <defs>
       <path d="M 19.1875 8.296875 
L 53.609375 8.296875 
L 53.609375 0 
L 7.328125 0 
L 7.328125 8.296875 
Q 12.9375 14.109375 22.625 23.890625 
Q 32.328125 33.6875 34.8125 36.53125 
Q 39.546875 41.84375 41.421875 45.53125 
Q 43.3125 49.21875 43.3125 52.78125 
Q 43.3125 58.59375 39.234375 62.25 
Q 35.15625 65.921875 28.609375 65.921875 
Q 23.96875 65.921875 18.8125 64.3125 
Q 13.671875 62.703125 7.8125 59.421875 
L 7.8125 69.390625 
Q 13.765625 71.78125 18.9375 73 
Q 24.125 74.21875 28.421875 74.21875 
Q 39.75 74.21875 46.484375 68.546875 
Q 53.21875 62.890625 53.21875 53.421875 
Q 53.21875 48.921875 51.53125 44.890625 
Q 49.859375 40.875 45.40625 35.40625 
Q 44.1875 33.984375 37.640625 27.21875 
Q 31.109375 20.453125 19.1875 8.296875 
" id="DejaVuSans-32"/>
      </defs>
      <g transform="translate(129.542938 316.356875)scale(0.2 -0.2)">
       <use xlink:href="#DejaVuSans-32"/>
      </g>
     </g>
    </g>
    <g id="xtick_3">
     <g id="line2d_9">
      <path clip-path="url(#p11c46f4f66)" d="M 214.970876 294.16 
L 214.970876 24.84 
" style="fill:none;stroke:#b0b0b0;stroke-linecap:square;stroke-width:0.8;"/>
     </g>
     <g id="line2d_10">
      <g>
       <use style="stroke:#000000;stroke-width:0.8;" x="214.970876" xlink:href="#m8a23363ae1" y="294.16"/>
      </g>
     </g>
     <g id="text_3">
      <!-- 4 -->
      <defs>
       <path d="M 37.796875 64.3125 
L 12.890625 25.390625 
L 37.796875 25.390625 
z
M 35.203125 72.90625 
L 47.609375 72.90625 
L 47.609375 25.390625 
L 58.015625 25.390625 
L 58.015625 17.1875 
L 47.609375 17.1875 
L 47.609375 0 
L 37.796875 0 
L 37.796875 17.1875 
L 4.890625 17.1875 
L 4.890625 26.703125 
z
" id="DejaVuSans-34"/>
      </defs>
      <g transform="translate(208.608376 316.356875)scale(0.2 -0.2)">
       <use xlink:href="#DejaVuSans-34"/>
      </g>
     </g>
    </g>
    <g id="xtick_4">
     <g id="line2d_11">
      <path clip-path="url(#p11c46f4f66)" d="M 294.036313 294.16 
L 294.036313 24.84 
" style="fill:none;stroke:#b0b0b0;stroke-linecap:square;stroke-width:0.8;"/>
     </g>
     <g id="line2d_12">
      <g>
       <use style="stroke:#000000;stroke-width:0.8;" x="294.036313" xlink:href="#m8a23363ae1" y="294.16"/>
      </g>
     </g>
     <g id="text_4">
      <!-- 6 -->
      <defs>
       <path d="M 33.015625 40.375 
Q 26.375 40.375 22.484375 35.828125 
Q 18.609375 31.296875 18.609375 23.390625 
Q 18.609375 15.53125 22.484375 10.953125 
Q 26.375 6.390625 33.015625 6.390625 
Q 39.65625 6.390625 43.53125 10.953125 
Q 47.40625 15.53125 47.40625 23.390625 
Q 47.40625 31.296875 43.53125 35.828125 
Q 39.65625 40.375 33.015625 40.375 
M 52.59375 71.296875 
L 52.59375 62.3125 
Q 48.875 64.0625 45.09375 64.984375 
Q 41.3125 65.921875 37.59375 65.921875 
Q 27.828125 65.921875 22.671875 59.328125 
Q 17.53125 52.734375 16.796875 39.40625 
Q 19.671875 43.65625 24.015625 45.921875 
Q 28.375 48.1875 33.59375 48.1875 
Q 44.578125 48.1875 50.953125 41.515625 
Q 57.328125 34.859375 57.328125 23.390625 
Q 57.328125 12.15625 50.6875 5.359375 
Q 44.046875 -1.421875 33.015625 -1.421875 
Q 20.359375 -1.421875 13.671875 8.265625 
Q 6.984375 17.96875 6.984375 36.375 
Q 6.984375 53.65625 15.1875 63.9375 
Q 23.390625 74.21875 37.203125 74.21875 
Q 40.921875 74.21875 44.703125 73.484375 
Q 48.484375 72.75 52.59375 71.296875 
" id="DejaVuSans-36"/>
      </defs>
      <g transform="translate(287.673813 316.356875)scale(0.2 -0.2)">
       <use xlink:href="#DejaVuSans-36"/>
      </g>
     </g>
    </g>
    <g id="xtick_5">
     <g id="line2d_13">
      <path clip-path="url(#p11c46f4f66)" d="M 373.101751 294.16 
L 373.101751 24.84 
" style="fill:none;stroke:#b0b0b0;stroke-linecap:square;stroke-width:0.8;"/>
     </g>
     <g id="line2d_14">
      <g>
       <use style="stroke:#000000;stroke-width:0.8;" x="373.101751" xlink:href="#m8a23363ae1" y="294.16"/>
      </g>
     </g>
     <g id="text_5">
      <!-- 8 -->
      <defs>
       <path d="M 31.78125 34.625 
Q 24.75 34.625 20.71875 30.859375 
Q 16.703125 27.09375 16.703125 20.515625 
Q 16.703125 13.921875 20.71875 10.15625 
Q 24.75 6.390625 31.78125 6.390625 
Q 38.8125 6.390625 42.859375 10.171875 
Q 46.921875 13.96875 46.921875 20.515625 
Q 46.921875 27.09375 42.890625 30.859375 
Q 38.875 34.625 31.78125 34.625 
M 21.921875 38.8125 
Q 15.578125 40.375 12.03125 44.71875 
Q 8.5 49.078125 8.5 55.328125 
Q 8.5 64.0625 14.71875 69.140625 
Q 20.953125 74.21875 31.78125 74.21875 
Q 42.671875 74.21875 48.875 69.140625 
Q 55.078125 64.0625 55.078125 55.328125 
Q 55.078125 49.078125 51.53125 44.71875 
Q 48 40.375 41.703125 38.8125 
Q 48.828125 37.15625 52.796875 32.3125 
Q 56.78125 27.484375 56.78125 20.515625 
Q 56.78125 9.90625 50.3125 4.234375 
Q 43.84375 -1.421875 31.78125 -1.421875 
Q 19.734375 -1.421875 13.25 4.234375 
Q 6.78125 9.90625 6.78125 20.515625 
Q 6.78125 27.484375 10.78125 32.3125 
Q 14.796875 37.15625 21.921875 38.8125 
M 18.3125 54.390625 
Q 18.3125 48.734375 21.84375 45.5625 
Q 25.390625 42.390625 31.78125 42.390625 
Q 38.140625 42.390625 41.71875 45.5625 
Q 45.3125 48.734375 45.3125 54.390625 
Q 45.3125 60.0625 41.71875 63.234375 
Q 38.140625 66.40625 31.78125 66.40625 
Q 25.390625 66.40625 21.84375 63.234375 
Q 18.3125 60.0625 18.3125 54.390625 
" id="DejaVuSans-38"/>
      </defs>
      <g transform="translate(366.739251 316.356875)scale(0.2 -0.2)">
       <use xlink:href="#DejaVuSans-38"/>
      </g>
     </g>
    </g>
    <g id="xtick_6">
     <g id="line2d_15">
      <defs>
       <path d="M 0 0 
L 0 2 
" id="mafe5ecaf1a" style="stroke:#000000;stroke-width:0.6;"/>
      </defs>
      <g>
       <use style="stroke:#000000;stroke-width:0.6;" x="68.740534" xlink:href="#mafe5ecaf1a" y="294.16"/>
      </g>
     </g>
    </g>
    <g id="xtick_7">
     <g id="line2d_16">
      <g>
       <use style="stroke:#000000;stroke-width:0.6;" x="80.641068" xlink:href="#mafe5ecaf1a" y="294.16"/>
      </g>
     </g>
    </g>
    <g id="xtick_8">
     <g id="line2d_17">
      <g>
       <use style="stroke:#000000;stroke-width:0.6;" x="87.602435" xlink:href="#mafe5ecaf1a" y="294.16"/>
      </g>
     </g>
    </g>
    <g id="xtick_9">
     <g id="line2d_18">
      <g>
       <use style="stroke:#000000;stroke-width:0.6;" x="92.541603" xlink:href="#mafe5ecaf1a" y="294.16"/>
      </g>
     </g>
    </g>
    <g id="xtick_10">
     <g id="line2d_19">
      <g>
       <use style="stroke:#000000;stroke-width:0.6;" x="147.805972" xlink:href="#mafe5ecaf1a" y="294.16"/>
      </g>
     </g>
    </g>
    <g id="xtick_11">
     <g id="line2d_20">
      <g>
       <use style="stroke:#000000;stroke-width:0.6;" x="159.706506" xlink:href="#mafe5ecaf1a" y="294.16"/>
      </g>
     </g>
    </g>
    <g id="xtick_12">
     <g id="line2d_21">
      <g>
       <use style="stroke:#000000;stroke-width:0.6;" x="166.667872" xlink:href="#mafe5ecaf1a" y="294.16"/>
      </g>
     </g>
    </g>
    <g id="xtick_13">
     <g id="line2d_22">
      <g>
       <use style="stroke:#000000;stroke-width:0.6;" x="171.60704" xlink:href="#mafe5ecaf1a" y="294.16"/>
      </g>
     </g>
    </g>
    <g id="xtick_14">
     <g id="line2d_23">
      <g>
       <use style="stroke:#000000;stroke-width:0.6;" x="226.87141" xlink:href="#mafe5ecaf1a" y="294.16"/>
      </g>
     </g>
    </g>
    <g id="xtick_15">
     <g id="line2d_24">
      <g>
       <use style="stroke:#000000;stroke-width:0.6;" x="238.771944" xlink:href="#mafe5ecaf1a" y="294.16"/>
      </g>
     </g>
    </g>
    <g id="xtick_16">
     <g id="line2d_25">
      <g>
       <use style="stroke:#000000;stroke-width:0.6;" x="245.73331" xlink:href="#mafe5ecaf1a" y="294.16"/>
      </g>
     </g>
    </g>
    <g id="xtick_17">
     <g id="line2d_26">
      <g>
       <use style="stroke:#000000;stroke-width:0.6;" x="250.672478" xlink:href="#mafe5ecaf1a" y="294.16"/>
      </g>
     </g>
    </g>
    <g id="xtick_18">
     <g id="line2d_27">
      <g>
       <use style="stroke:#000000;stroke-width:0.6;" x="305.936848" xlink:href="#mafe5ecaf1a" y="294.16"/>
      </g>
     </g>
    </g>
    <g id="xtick_19">
     <g id="line2d_28">
      <g>
       <use style="stroke:#000000;stroke-width:0.6;" x="317.837382" xlink:href="#mafe5ecaf1a" y="294.16"/>
      </g>
     </g>
    </g>
    <g id="xtick_20">
     <g id="line2d_29">
      <g>
       <use style="stroke:#000000;stroke-width:0.6;" x="324.798748" xlink:href="#mafe5ecaf1a" y="294.16"/>
      </g>
     </g>
    </g>
    <g id="xtick_21">
     <g id="line2d_30">
      <g>
       <use style="stroke:#000000;stroke-width:0.6;" x="329.737916" xlink:href="#mafe5ecaf1a" y="294.16"/>
      </g>
     </g>
    </g>
    <g id="xtick_22">
     <g id="line2d_31">
      <g>
       <use style="stroke:#000000;stroke-width:0.6;" x="385.002285" xlink:href="#mafe5ecaf1a" y="294.16"/>
      </g>
     </g>
    </g>
    <g id="xtick_23">
     <g id="line2d_32">
      <g>
       <use style="stroke:#000000;stroke-width:0.6;" x="396.90282" xlink:href="#mafe5ecaf1a" y="294.16"/>
      </g>
     </g>
    </g>
    <g id="text_6">
     <!-- log10(# f-evals / dimension) -->
     <defs>
      <path d="M 9.421875 75.984375 
L 18.40625 75.984375 
L 18.40625 0 
L 9.421875 0 
z
" id="DejaVuSans-6c"/>
      <path d="M 30.609375 48.390625 
Q 23.390625 48.390625 19.1875 42.75 
Q 14.984375 37.109375 14.984375 27.296875 
Q 14.984375 17.484375 19.15625 11.84375 
Q 23.34375 6.203125 30.609375 6.203125 
Q 37.796875 6.203125 41.984375 11.859375 
Q 46.1875 17.53125 46.1875 27.296875 
Q 46.1875 37.015625 41.984375 42.703125 
Q 37.796875 48.390625 30.609375 48.390625 
M 30.609375 56 
Q 42.328125 56 49.015625 48.375 
Q 55.71875 40.765625 55.71875 27.296875 
Q 55.71875 13.875 49.015625 6.21875 
Q 42.328125 -1.421875 30.609375 -1.421875 
Q 18.84375 -1.421875 12.171875 6.21875 
Q 5.515625 13.875 5.515625 27.296875 
Q 5.515625 40.765625 12.171875 48.375 
Q 18.84375 56 30.609375 56 
" id="DejaVuSans-6f"/>
      <path d="M 45.40625 27.984375 
Q 45.40625 37.75 41.375 43.109375 
Q 37.359375 48.484375 30.078125 48.484375 
Q 22.859375 48.484375 18.828125 43.109375 
Q 14.796875 37.75 14.796875 27.984375 
Q 14.796875 18.265625 18.828125 12.890625 
Q 22.859375 7.515625 30.078125 7.515625 
Q 37.359375 7.515625 41.375 12.890625 
Q 45.40625 18.265625 45.40625 27.984375 
M 54.390625 6.78125 
Q 54.390625 -7.171875 48.1875 -13.984375 
Q 42 -20.796875 29.203125 -20.796875 
Q 24.46875 -20.796875 20.265625 -20.09375 
Q 16.0625 -19.390625 12.109375 -17.921875 
L 12.109375 -9.1875 
Q 16.0625 -11.328125 19.921875 -12.34375 
Q 23.78125 -13.375 27.78125 -13.375 
Q 36.625 -13.375 41.015625 -8.765625 
Q 45.40625 -4.15625 45.40625 5.171875 
L 45.40625 9.625 
Q 42.625 4.78125 38.28125 2.390625 
Q 33.9375 0 27.875 0 
Q 17.828125 0 11.671875 7.65625 
Q 5.515625 15.328125 5.515625 27.984375 
Q 5.515625 40.671875 11.671875 48.328125 
Q 17.828125 56 27.875 56 
Q 33.9375 56 38.28125 53.609375 
Q 42.625 51.21875 45.40625 46.390625 
L 45.40625 54.6875 
L 54.390625 54.6875 
z
" id="DejaVuSans-67"/>
      <path d="M 12.40625 8.296875 
L 28.515625 8.296875 
L 28.515625 63.921875 
L 10.984375 60.40625 
L 10.984375 69.390625 
L 28.421875 72.90625 
L 38.28125 72.90625 
L 38.28125 8.296875 
L 54.390625 8.296875 
L 54.390625 0 
L 12.40625 0 
z
" id="DejaVuSans-31"/>
      <path d="M 31 75.875 
Q 24.46875 64.65625 21.28125 53.65625 
Q 18.109375 42.671875 18.109375 31.390625 
Q 18.109375 20.125 21.3125 9.0625 
Q 24.515625 -2 31 -13.1875 
L 23.1875 -13.1875 
Q 15.875 -1.703125 12.234375 9.375 
Q 8.59375 20.453125 8.59375 31.390625 
Q 8.59375 42.28125 12.203125 53.3125 
Q 15.828125 64.359375 23.1875 75.875 
z
" id="DejaVuSans-28"/>
      <path d="M 51.125 44 
L 36.921875 44 
L 32.8125 27.6875 
L 47.125 27.6875 
z
M 43.796875 71.78125 
L 38.71875 51.515625 
L 52.984375 51.515625 
L 58.109375 71.78125 
L 65.921875 71.78125 
L 60.890625 51.515625 
L 76.125 51.515625 
L 76.125 44 
L 58.984375 44 
L 54.984375 27.6875 
L 70.515625 27.6875 
L 70.515625 20.21875 
L 53.078125 20.21875 
L 48 0 
L 40.1875 0 
L 45.21875 20.21875 
L 30.90625 20.21875 
L 25.875 0 
L 18.015625 0 
L 23.09375 20.21875 
L 7.71875 20.21875 
L 7.71875 27.6875 
L 24.90625 27.6875 
L 29 44 
L 13.28125 44 
L 13.28125 51.515625 
L 30.90625 51.515625 
L 35.890625 71.78125 
z
" id="DejaVuSans-23"/>
      <path id="DejaVuSans-20"/>
      <path d="M 37.109375 75.984375 
L 37.109375 68.5 
L 28.515625 68.5 
Q 23.6875 68.5 21.796875 66.546875 
Q 19.921875 64.59375 19.921875 59.515625 
L 19.921875 54.6875 
L 34.71875 54.6875 
L 34.71875 47.703125 
L 19.921875 47.703125 
L 19.921875 0 
L 10.890625 0 
L 10.890625 47.703125 
L 2.296875 47.703125 
L 2.296875 54.6875 
L 10.890625 54.6875 
L 10.890625 58.5 
Q 10.890625 67.625 15.140625 71.796875 
Q 19.390625 75.984375 28.609375 75.984375 
z
" id="DejaVuSans-66"/>
      <path d="M 4.890625 31.390625 
L 31.203125 31.390625 
L 31.203125 23.390625 
L 4.890625 23.390625 
z
" id="DejaVuSans-2d"/>
      <path d="M 56.203125 29.59375 
L 56.203125 25.203125 
L 14.890625 25.203125 
Q 15.484375 15.921875 20.484375 11.0625 
Q 25.484375 6.203125 34.421875 6.203125 
Q 39.59375 6.203125 44.453125 7.46875 
Q 49.3125 8.734375 54.109375 11.28125 
L 54.109375 2.78125 
Q 49.265625 0.734375 44.1875 -0.34375 
Q 39.109375 -1.421875 33.890625 -1.421875 
Q 20.796875 -1.421875 13.15625 6.1875 
Q 5.515625 13.8125 5.515625 26.8125 
Q 5.515625 40.234375 12.765625 48.109375 
Q 20.015625 56 32.328125 56 
Q 43.359375 56 49.78125 48.890625 
Q 56.203125 41.796875 56.203125 29.59375 
M 47.21875 32.234375 
Q 47.125 39.59375 43.09375 43.984375 
Q 39.0625 48.390625 32.421875 48.390625 
Q 24.90625 48.390625 20.390625 44.140625 
Q 15.875 39.890625 15.1875 32.171875 
z
" id="DejaVuSans-65"/>
      <path d="M 2.984375 54.6875 
L 12.5 54.6875 
L 29.59375 8.796875 
L 46.6875 54.6875 
L 56.203125 54.6875 
L 35.6875 0 
L 23.484375 0 
z
" id="DejaVuSans-76"/>
      <path d="M 34.28125 27.484375 
Q 23.390625 27.484375 19.1875 25 
Q 14.984375 22.515625 14.984375 16.5 
Q 14.984375 11.71875 18.140625 8.90625 
Q 21.296875 6.109375 26.703125 6.109375 
Q 34.1875 6.109375 38.703125 11.40625 
Q 43.21875 16.703125 43.21875 25.484375 
L 43.21875 27.484375 
z
M 52.203125 31.203125 
L 52.203125 0 
L 43.21875 0 
L 43.21875 8.296875 
Q 40.140625 3.328125 35.546875 0.953125 
Q 30.953125 -1.421875 24.3125 -1.421875 
Q 15.921875 -1.421875 10.953125 3.296875 
Q 6 8.015625 6 15.921875 
Q 6 25.140625 12.171875 29.828125 
Q 18.359375 34.515625 30.609375 34.515625 
L 43.21875 34.515625 
L 43.21875 35.40625 
Q 43.21875 41.609375 39.140625 45 
Q 35.0625 48.390625 27.6875 48.390625 
Q 23 48.390625 18.546875 47.265625 
Q 14.109375 46.140625 10.015625 43.890625 
L 10.015625 52.203125 
Q 14.9375 54.109375 19.578125 55.046875 
Q 24.21875 56 28.609375 56 
Q 40.484375 56 46.34375 49.84375 
Q 52.203125 43.703125 52.203125 31.203125 
" id="DejaVuSans-61"/>
      <path d="M 44.28125 53.078125 
L 44.28125 44.578125 
Q 40.484375 46.53125 36.375 47.5 
Q 32.28125 48.484375 27.875 48.484375 
Q 21.1875 48.484375 17.84375 46.4375 
Q 14.5 44.390625 14.5 40.28125 
Q 14.5 37.15625 16.890625 35.375 
Q 19.28125 33.59375 26.515625 31.984375 
L 29.59375 31.296875 
Q 39.15625 29.25 43.1875 25.515625 
Q 47.21875 21.78125 47.21875 15.09375 
Q 47.21875 7.46875 41.1875 3.015625 
Q 35.15625 -1.421875 24.609375 -1.421875 
Q 20.21875 -1.421875 15.453125 -0.5625 
Q 10.6875 0.296875 5.421875 2 
L 5.421875 11.28125 
Q 10.40625 8.6875 15.234375 7.390625 
Q 20.0625 6.109375 24.8125 6.109375 
Q 31.15625 6.109375 34.5625 8.28125 
Q 37.984375 10.453125 37.984375 14.40625 
Q 37.984375 18.0625 35.515625 20.015625 
Q 33.0625 21.96875 24.703125 23.78125 
L 21.578125 24.515625 
Q 13.234375 26.265625 9.515625 29.90625 
Q 5.8125 33.546875 5.8125 39.890625 
Q 5.8125 47.609375 11.28125 51.796875 
Q 16.75 56 26.8125 56 
Q 31.78125 56 36.171875 55.265625 
Q 40.578125 54.546875 44.28125 53.078125 
" id="DejaVuSans-73"/>
      <path d="M 25.390625 72.90625 
L 33.6875 72.90625 
L 8.296875 -9.28125 
L 0 -9.28125 
z
" id="DejaVuSans-2f"/>
      <path d="M 45.40625 46.390625 
L 45.40625 75.984375 
L 54.390625 75.984375 
L 54.390625 0 
L 45.40625 0 
L 45.40625 8.203125 
Q 42.578125 3.328125 38.25 0.953125 
Q 33.9375 -1.421875 27.875 -1.421875 
Q 17.96875 -1.421875 11.734375 6.484375 
Q 5.515625 14.40625 5.515625 27.296875 
Q 5.515625 40.1875 11.734375 48.09375 
Q 17.96875 56 27.875 56 
Q 33.9375 56 38.25 53.625 
Q 42.578125 51.265625 45.40625 46.390625 
M 14.796875 27.296875 
Q 14.796875 17.390625 18.875 11.75 
Q 22.953125 6.109375 30.078125 6.109375 
Q 37.203125 6.109375 41.296875 11.75 
Q 45.40625 17.390625 45.40625 27.296875 
Q 45.40625 37.203125 41.296875 42.84375 
Q 37.203125 48.484375 30.078125 48.484375 
Q 22.953125 48.484375 18.875 42.84375 
Q 14.796875 37.203125 14.796875 27.296875 
" id="DejaVuSans-64"/>
      <path d="M 9.421875 54.6875 
L 18.40625 54.6875 
L 18.40625 0 
L 9.421875 0 
z
M 9.421875 75.984375 
L 18.40625 75.984375 
L 18.40625 64.59375 
L 9.421875 64.59375 
z
" id="DejaVuSans-69"/>
      <path d="M 52 44.1875 
Q 55.375 50.25 60.0625 53.125 
Q 64.75 56 71.09375 56 
Q 79.640625 56 84.28125 50.015625 
Q 88.921875 44.046875 88.921875 33.015625 
L 88.921875 0 
L 79.890625 0 
L 79.890625 32.71875 
Q 79.890625 40.578125 77.09375 44.375 
Q 74.3125 48.1875 68.609375 48.1875 
Q 61.625 48.1875 57.5625 43.546875 
Q 53.515625 38.921875 53.515625 30.90625 
L 53.515625 0 
L 44.484375 0 
L 44.484375 32.71875 
Q 44.484375 40.625 41.703125 44.40625 
Q 38.921875 48.1875 33.109375 48.1875 
Q 26.21875 48.1875 22.15625 43.53125 
Q 18.109375 38.875 18.109375 30.90625 
L 18.109375 0 
L 9.078125 0 
L 9.078125 54.6875 
L 18.109375 54.6875 
L 18.109375 46.1875 
Q 21.1875 51.21875 25.484375 53.609375 
Q 29.78125 56 35.6875 56 
Q 41.65625 56 45.828125 52.96875 
Q 50 49.953125 52 44.1875 
" id="DejaVuSans-6d"/>
      <path d="M 54.890625 33.015625 
L 54.890625 0 
L 45.90625 0 
L 45.90625 32.71875 
Q 45.90625 40.484375 42.875 44.328125 
Q 39.84375 48.1875 33.796875 48.1875 
Q 26.515625 48.1875 22.3125 43.546875 
Q 18.109375 38.921875 18.109375 30.90625 
L 18.109375 0 
L 9.078125 0 
L 9.078125 54.6875 
L 18.109375 54.6875 
L 18.109375 46.1875 
Q 21.34375 51.125 25.703125 53.5625 
Q 30.078125 56 35.796875 56 
Q 45.21875 56 50.046875 50.171875 
Q 54.890625 44.34375 54.890625 33.015625 
" id="DejaVuSans-6e"/>
      <path d="M 8.015625 75.875 
L 15.828125 75.875 
Q 23.140625 64.359375 26.78125 53.3125 
Q 30.421875 42.28125 30.421875 31.390625 
Q 30.421875 20.453125 26.78125 9.375 
Q 23.140625 -1.703125 15.828125 -13.1875 
L 8.015625 -13.1875 
Q 14.5 -2 17.703125 9.0625 
Q 20.90625 20.125 20.90625 31.390625 
Q 20.90625 42.671875 17.703125 53.65625 
Q 14.5 64.65625 8.015625 75.875 
" id="DejaVuSans-29"/>
     </defs>
     <g transform="translate(107.571219 337.433594)scale(0.17 -0.17)">
      <use xlink:href="#DejaVuSans-6c"/>
      <use x="27.783203" xlink:href="#DejaVuSans-6f"/>
      <use x="88.964844" xlink:href="#DejaVuSans-67"/>
      <use x="152.441406" xlink:href="#DejaVuSans-31"/>
      <use x="216.064453" xlink:href="#DejaVuSans-30"/>
      <use x="279.6875" xlink:href="#DejaVuSans-28"/>
      <use x="318.701172" xlink:href="#DejaVuSans-23"/>
      <use x="402.490234" xlink:href="#DejaVuSans-20"/>
      <use x="434.277344" xlink:href="#DejaVuSans-66"/>
      <use x="469.404297" xlink:href="#DejaVuSans-2d"/>
      <use x="505.488281" xlink:href="#DejaVuSans-65"/>
      <use x="567.011719" xlink:href="#DejaVuSans-76"/>
      <use x="626.191406" xlink:href="#DejaVuSans-61"/>
      <use x="687.470703" xlink:href="#DejaVuSans-6c"/>
      <use x="715.253906" xlink:href="#DejaVuSans-73"/>
      <use x="767.353516" xlink:href="#DejaVuSans-20"/>
      <use x="799.140625" xlink:href="#DejaVuSans-2f"/>
      <use x="832.832031" xlink:href="#DejaVuSans-20"/>
      <use x="864.619141" xlink:href="#DejaVuSans-64"/>
      <use x="928.095703" xlink:href="#DejaVuSans-69"/>
      <use x="955.878906" xlink:href="#DejaVuSans-6d"/>
      <use x="1053.291016" xlink:href="#DejaVuSans-65"/>
      <use x="1114.814453" xlink:href="#DejaVuSans-6e"/>
      <use x="1178.193359" xlink:href="#DejaVuSans-73"/>
      <use x="1230.292969" xlink:href="#DejaVuSans-69"/>
      <use x="1258.076172" xlink:href="#DejaVuSans-6f"/>
      <use x="1319.257812" xlink:href="#DejaVuSans-6e"/>
      <use x="1382.636719" xlink:href="#DejaVuSans-29"/>
     </g>
    </g>
   </g>
   <g id="matplotlib.axis_2">
    <g id="ytick_1">
     <g id="line2d_33">
      <path clip-path="url(#p11c46f4f66)" d="M 56.84 294.16 
L 399.984 294.16 
" style="fill:none;stroke:#b0b0b0;stroke-linecap:square;stroke-width:0.8;"/>
     </g>
     <g id="line2d_34">
      <defs>
       <path d="M 0 0 
L -3.5 0 
" id="m1fc46a59f8" style="stroke:#000000;stroke-width:0.8;"/>
      </defs>
      <g>
       <use style="stroke:#000000;stroke-width:0.8;" x="56.84" xlink:href="#m1fc46a59f8" y="294.16"/>
      </g>
     </g>
     <g id="text_7">
      <!-- 0.0 -->
      <defs>
       <path d="M 10.6875 12.40625 
L 21 12.40625 
L 21 0 
L 10.6875 0 
z
" id="DejaVuSans-2e"/>
      </defs>
      <g transform="translate(24.395 300.23875)scale(0.16 -0.16)">
       <use xlink:href="#DejaVuSans-30"/>
       <use x="63.623047" xlink:href="#DejaVuSans-2e"/>
       <use x="95.410156" xlink:href="#DejaVuSans-30"/>
      </g>
     </g>
    </g>
    <g id="ytick_2">
     <g id="line2d_35">
      <path clip-path="url(#p11c46f4f66)" d="M 56.84 240.829307 
L 399.984 240.829307 
" style="fill:none;stroke:#b0b0b0;stroke-linecap:square;stroke-width:0.8;"/>
     </g>
     <g id="line2d_36">
      <g>
       <use style="stroke:#000000;stroke-width:0.8;" x="56.84" xlink:href="#m1fc46a59f8" y="240.829307"/>
      </g>
     </g>
     <g id="text_8">
      <!-- 0.2 -->
      <g transform="translate(24.395 246.908057)scale(0.16 -0.16)">
       <use xlink:href="#DejaVuSans-30"/>
       <use x="63.623047" xlink:href="#DejaVuSans-2e"/>
       <use x="95.410156" xlink:href="#DejaVuSans-32"/>
      </g>
     </g>
    </g>
    <g id="ytick_3">
     <g id="line2d_37">
      <path clip-path="url(#p11c46f4f66)" d="M 56.84 187.498614 
L 399.984 187.498614 
" style="fill:none;stroke:#b0b0b0;stroke-linecap:square;stroke-width:0.8;"/>
     </g>
     <g id="line2d_38">
      <g>
       <use style="stroke:#000000;stroke-width:0.8;" x="56.84" xlink:href="#m1fc46a59f8" y="187.498614"/>
      </g>
     </g>
     <g id="text_9">
      <!-- 0.4 -->
      <g transform="translate(24.395 193.577364)scale(0.16 -0.16)">
       <use xlink:href="#DejaVuSans-30"/>
       <use x="63.623047" xlink:href="#DejaVuSans-2e"/>
       <use x="95.410156" xlink:href="#DejaVuSans-34"/>
      </g>
     </g>
    </g>
    <g id="ytick_4">
     <g id="line2d_39">
      <path clip-path="url(#p11c46f4f66)" d="M 56.84 134.167921 
L 399.984 134.167921 
" style="fill:none;stroke:#b0b0b0;stroke-linecap:square;stroke-width:0.8;"/>
     </g>
     <g id="line2d_40">
      <g>
       <use style="stroke:#000000;stroke-width:0.8;" x="56.84" xlink:href="#m1fc46a59f8" y="134.167921"/>
      </g>
     </g>
     <g id="text_10">
      <!-- 0.6 -->
      <g transform="translate(24.395 140.246671)scale(0.16 -0.16)">
       <use xlink:href="#DejaVuSans-30"/>
       <use x="63.623047" xlink:href="#DejaVuSans-2e"/>
       <use x="95.410156" xlink:href="#DejaVuSans-36"/>
      </g>
     </g>
    </g>
    <g id="ytick_5">
     <g id="line2d_41">
      <path clip-path="url(#p11c46f4f66)" d="M 56.84 80.837228 
L 399.984 80.837228 
" style="fill:none;stroke:#b0b0b0;stroke-linecap:square;stroke-width:0.8;"/>
     </g>
     <g id="line2d_42">
      <g>
       <use style="stroke:#000000;stroke-width:0.8;" x="56.84" xlink:href="#m1fc46a59f8" y="80.837228"/>
      </g>
     </g>
     <g id="text_11">
      <!-- 0.8 -->
      <g transform="translate(24.395 86.915978)scale(0.16 -0.16)">
       <use xlink:href="#DejaVuSans-30"/>
       <use x="63.623047" xlink:href="#DejaVuSans-2e"/>
       <use x="95.410156" xlink:href="#DejaVuSans-38"/>
      </g>
     </g>
    </g>
    <g id="ytick_6">
     <g id="line2d_43">
      <path clip-path="url(#p11c46f4f66)" d="M 56.84 27.506535 
L 399.984 27.506535 
" style="fill:none;stroke:#b0b0b0;stroke-linecap:square;stroke-width:0.8;"/>
     </g>
     <g id="line2d_44">
      <g>
       <use style="stroke:#000000;stroke-width:0.8;" x="56.84" xlink:href="#m1fc46a59f8" y="27.506535"/>
      </g>
     </g>
     <g id="text_12">
      <!-- 1.0 -->
      <g transform="translate(24.395 33.585285)scale(0.16 -0.16)">
       <use xlink:href="#DejaVuSans-31"/>
       <use x="63.623047" xlink:href="#DejaVuSans-2e"/>
       <use x="95.410156" xlink:href="#DejaVuSans-30"/>
      </g>
     </g>
    </g>
    <g id="text_13">
     <!-- Fraction of function,target pairs -->
     <defs>
      <path d="M 9.8125 72.90625 
L 51.703125 72.90625 
L 51.703125 64.59375 
L 19.671875 64.59375 
L 19.671875 43.109375 
L 48.578125 43.109375 
L 48.578125 34.8125 
L 19.671875 34.8125 
L 19.671875 0 
L 9.8125 0 
z
" id="DejaVuSans-46"/>
      <path d="M 41.109375 46.296875 
Q 39.59375 47.171875 37.8125 47.578125 
Q 36.03125 48 33.890625 48 
Q 26.265625 48 22.1875 43.046875 
Q 18.109375 38.09375 18.109375 28.8125 
L 18.109375 0 
L 9.078125 0 
L 9.078125 54.6875 
L 18.109375 54.6875 
L 18.109375 46.1875 
Q 20.953125 51.171875 25.484375 53.578125 
Q 30.03125 56 36.53125 56 
Q 37.453125 56 38.578125 55.875 
Q 39.703125 55.765625 41.0625 55.515625 
z
" id="DejaVuSans-72"/>
      <path d="M 48.78125 52.59375 
L 48.78125 44.1875 
Q 44.96875 46.296875 41.140625 47.34375 
Q 37.3125 48.390625 33.40625 48.390625 
Q 24.65625 48.390625 19.8125 42.84375 
Q 14.984375 37.3125 14.984375 27.296875 
Q 14.984375 17.28125 19.8125 11.734375 
Q 24.65625 6.203125 33.40625 6.203125 
Q 37.3125 6.203125 41.140625 7.25 
Q 44.96875 8.296875 48.78125 10.40625 
L 48.78125 2.09375 
Q 45.015625 0.34375 40.984375 -0.53125 
Q 36.96875 -1.421875 32.421875 -1.421875 
Q 20.0625 -1.421875 12.78125 6.34375 
Q 5.515625 14.109375 5.515625 27.296875 
Q 5.515625 40.671875 12.859375 48.328125 
Q 20.21875 56 33.015625 56 
Q 37.15625 56 41.109375 55.140625 
Q 45.0625 54.296875 48.78125 52.59375 
" id="DejaVuSans-63"/>
      <path d="M 18.3125 70.21875 
L 18.3125 54.6875 
L 36.8125 54.6875 
L 36.8125 47.703125 
L 18.3125 47.703125 
L 18.3125 18.015625 
Q 18.3125 11.328125 20.140625 9.421875 
Q 21.96875 7.515625 27.59375 7.515625 
L 36.8125 7.515625 
L 36.8125 0 
L 27.59375 0 
Q 17.1875 0 13.234375 3.875 
Q 9.28125 7.765625 9.28125 18.015625 
L 9.28125 47.703125 
L 2.6875 47.703125 
L 2.6875 54.6875 
L 9.28125 54.6875 
L 9.28125 70.21875 
z
" id="DejaVuSans-74"/>
      <path d="M 8.5 21.578125 
L 8.5 54.6875 
L 17.484375 54.6875 
L 17.484375 21.921875 
Q 17.484375 14.15625 20.5 10.265625 
Q 23.53125 6.390625 29.59375 6.390625 
Q 36.859375 6.390625 41.078125 11.03125 
Q 45.3125 15.671875 45.3125 23.6875 
L 45.3125 54.6875 
L 54.296875 54.6875 
L 54.296875 0 
L 45.3125 0 
L 45.3125 8.40625 
Q 42.046875 3.421875 37.71875 1 
Q 33.40625 -1.421875 27.6875 -1.421875 
Q 18.265625 -1.421875 13.375 4.4375 
Q 8.5 10.296875 8.5 21.578125 
M 31.109375 56 
z
" id="DejaVuSans-75"/>
      <path d="M 11.71875 12.40625 
L 22.015625 12.40625 
L 22.015625 4 
L 14.015625 -11.625 
L 7.71875 -11.625 
L 11.71875 4 
z
" id="DejaVuSans-2c"/>
      <path d="M 18.109375 8.203125 
L 18.109375 -20.796875 
L 9.078125 -20.796875 
L 9.078125 54.6875 
L 18.109375 54.6875 
L 18.109375 46.390625 
Q 20.953125 51.265625 25.265625 53.625 
Q 29.59375 56 35.59375 56 
Q 45.5625 56 51.78125 48.09375 
Q 58.015625 40.1875 58.015625 27.296875 
Q 58.015625 14.40625 51.78125 6.484375 
Q 45.5625 -1.421875 35.59375 -1.421875 
Q 29.59375 -1.421875 25.265625 0.953125 
Q 20.953125 3.328125 18.109375 8.203125 
M 48.6875 27.296875 
Q 48.6875 37.203125 44.609375 42.84375 
Q 40.53125 48.484375 33.40625 48.484375 
Q 26.265625 48.484375 22.1875 42.84375 
Q 18.109375 37.203125 18.109375 27.296875 
Q 18.109375 17.390625 22.1875 11.75 
Q 26.265625 6.109375 33.40625 6.109375 
Q 40.53125 6.109375 44.609375 11.75 
Q 48.6875 17.390625 48.6875 27.296875 
" id="DejaVuSans-70"/>
     </defs>
     <g transform="translate(16.859531 294.639375)rotate(-90)scale(0.17 -0.17)">
      <use xlink:href="#DejaVuSans-46"/>
      <use x="57.410156" xlink:href="#DejaVuSans-72"/>
      <use x="98.523438" xlink:href="#DejaVuSans-61"/>
      <use x="159.802734" xlink:href="#DejaVuSans-63"/>
      <use x="214.783203" xlink:href="#DejaVuSans-74"/>
      <use x="253.992188" xlink:href="#DejaVuSans-69"/>
      <use x="281.775391" xlink:href="#DejaVuSans-6f"/>
      <use x="342.957031" xlink:href="#DejaVuSans-6e"/>
      <use x="406.335938" xlink:href="#DejaVuSans-20"/>
      <use x="438.123047" xlink:href="#DejaVuSans-6f"/>
      <use x="499.304688" xlink:href="#DejaVuSans-66"/>
      <use x="534.509766" xlink:href="#DejaVuSans-20"/>
      <use x="566.296875" xlink:href="#DejaVuSans-66"/>
      <use x="601.501953" xlink:href="#DejaVuSans-75"/>
      <use x="664.880859" xlink:href="#DejaVuSans-6e"/>
      <use x="728.259766" xlink:href="#DejaVuSans-63"/>
      <use x="783.240234" xlink:href="#DejaVuSans-74"/>
      <use x="822.449219" xlink:href="#DejaVuSans-69"/>
      <use x="850.232422" xlink:href="#DejaVuSans-6f"/>
      <use x="911.414062" xlink:href="#DejaVuSans-6e"/>
      <use x="974.792969" xlink:href="#DejaVuSans-2c"/>
      <use x="1006.580078" xlink:href="#DejaVuSans-74"/>
      <use x="1045.789062" xlink:href="#DejaVuSans-61"/>
      <use x="1107.068359" xlink:href="#DejaVuSans-72"/>
      <use x="1148.166016" xlink:href="#DejaVuSans-67"/>
      <use x="1211.642578" xlink:href="#DejaVuSans-65"/>
      <use x="1273.166016" xlink:href="#DejaVuSans-74"/>
      <use x="1312.375" xlink:href="#DejaVuSans-20"/>
      <use x="1344.162109" xlink:href="#DejaVuSans-70"/>
      <use x="1407.638672" xlink:href="#DejaVuSans-61"/>
      <use x="1468.917969" xlink:href="#DejaVuSans-69"/>
      <use x="1496.701172" xlink:href="#DejaVuSans-72"/>
      <use x="1537.814453" xlink:href="#DejaVuSans-73"/>
     </g>
    </g>
   </g>
   <g id="line2d_45">
    <defs>
     <path d="M 0 1.5 
C 0.397805 1.5 0.77937 1.341951 1.06066 1.06066 
C 1.341951 0.77937 1.5 0.397805 1.5 0 
C 1.5 -0.397805 1.341951 -0.77937 1.06066 -1.06066 
C 0.77937 -1.341951 0.397805 -1.5 0 -1.5 
C -0.397805 -1.5 -0.77937 -1.341951 -1.06066 -1.06066 
C -1.341951 -0.77937 -1.5 -0.397805 -1.5 0 
C -1.5 0.397805 -1.341951 0.77937 -1.06066 1.06066 
C -0.77937 1.341951 -0.397805 1.5 0 1.5 
z
" id="m92c17b921c" style="stroke:#f5deb3;"/>
    </defs>
    <g>
     <use style="fill:#f5deb3;stroke:#f5deb3;" x="322.63618" xlink:href="#m92c17b921c" y="96.468638"/>
     <use style="fill:#f5deb3;stroke:#f5deb3;" x="322.63618" xlink:href="#m92c17b921c" y="96.468638"/>
    </g>
   </g>
   <g id="line2d_46">
    <defs>
     <path d="M 0 1.5 
C 0.397805 1.5 0.77937 1.341951 1.06066 1.06066 
C 1.341951 0.77937 1.5 0.397805 1.5 0 
C 1.5 -0.397805 1.341951 -0.77937 1.06066 -1.06066 
C 0.77937 -1.341951 0.397805 -1.5 0 -1.5 
C -0.397805 -1.5 -0.77937 -1.341951 -1.06066 -1.06066 
C -1.341951 -0.77937 -1.5 -0.397805 -1.5 0 
C -1.5 0.397805 -1.341951 0.77937 -1.06066 1.06066 
C -0.77937 1.341951 -0.397805 1.5 0 1.5 
z
" id="m23f2a28dc0" style="stroke:#000080;"/>
    </defs>
    <g>
     <use style="fill:#000080;stroke:#000080;" x="295.329458" xlink:href="#m23f2a28dc0" y="160.833267"/>
     <use style="fill:#000080;stroke:#000080;" x="295.329458" xlink:href="#m23f2a28dc0" y="160.833267"/>
    </g>
   </g>
   <g id="line2d_47">
    <path d="M 37.9781 294.16 
L 37.9781 286.804042 
L 139.225401 286.804042 
L 139.225401 286.344295 
L 140.232928 286.344295 
L 140.232928 285.884548 
L 143.576825 285.884548 
L 143.576825 284.965053 
L 144.74426 284.965053 
L 144.812526 284.045558 
L 146.49837 284.045558 
L 146.49837 283.585811 
L 146.621444 283.585811 
L 146.621444 283.126064 
L 146.864978 283.126064 
L 146.864978 282.666316 
L 147.633419 282.666316 
L 147.633419 281.746821 
L 148.201976 281.746821 
L 148.229916 280.367579 
L 148.396605 280.367579 
L 148.396605 279.907832 
L 148.561691 279.907832 
L 148.616369 273.471369 
L 148.752307 273.471369 
L 148.752307 272.092127 
L 149.674876 272.092127 
L 149.726126 271.172632 
L 150.550389 271.172632 
L 150.550389 268.873896 
L 150.744389 268.873896 
L 150.744389 267.494653 
L 151.819253 267.494653 
L 151.887069 263.816675 
L 153.021891 263.816675 
L 153.021891 262.89718 
L 153.48031 262.89718 
L 153.48031 261.977685 
L 153.684703 261.977685 
L 153.684703 261.517938 
L 154.938174 261.517938 
L 155.032353 259.678948 
L 155.495653 259.678948 
L 155.495653 259.219201 
L 155.677528 259.219201 
L 155.677528 258.759454 
L 155.839584 258.759454 
L 155.839584 258.299706 
L 156.211871 258.299706 
L 156.211871 257.839959 
L 156.541884 257.839959 
L 156.541884 257.380212 
L 156.933068 257.380212 
L 156.933068 256.920464 
L 158.475929 256.920464 
L 158.475929 256.460717 
L 159.286497 256.460717 
L 159.286497 255.081475 
L 159.403391 255.081475 
L 159.403391 254.16198 
L 159.63482 254.16198 
L 159.63482 253.702233 
L 160.046494 253.702233 
L 160.046494 253.242485 
L 160.421102 253.242485 
L 160.421102 252.782738 
L 160.747361 252.782738 
L 160.747361 251.863243 
L 161.041081 251.863243 
L 161.041081 250.943749 
L 161.172946 250.943749 
L 161.172946 250.484001 
L 161.639449 250.484001 
L 161.639449 250.024254 
L 162.031247 250.024254 
L 162.031247 249.104759 
L 162.180542 249.104759 
L 162.180542 248.645012 
L 162.76507 248.645012 
L 162.76507 247.725517 
L 163.23742 247.725517 
L 163.33035 246.346275 
L 163.651702 246.346275 
L 163.651702 245.886528 
L 163.967148 245.886528 
L 164.033997 244.967033 
L 165.215559 244.967033 
L 165.215559 244.507286 
L 165.442418 244.507286 
L 165.442418 243.587791 
L 166.639234 243.587791 
L 166.639234 243.128044 
L 166.895278 243.128044 
L 166.895278 241.748802 
L 169.042523 241.748802 
L 169.042523 241.289054 
L 169.199619 241.289054 
L 169.199619 240.36956 
L 171.813254 240.36956 
L 171.813254 239.450065 
L 173.482359 239.450065 
L 173.482359 237.151328 
L 174.17989 237.151328 
L 174.17989 236.231833 
L 174.820548 236.231833 
L 174.820548 235.772086 
L 177.495928 235.772086 
L 177.495928 234.852591 
L 177.907237 234.852591 
L 177.907237 233.933097 
L 178.241004 233.933097 
L 178.241004 233.473349 
L 179.48764 233.473349 
L 179.48764 232.553855 
L 179.640653 232.553855 
L 179.640653 232.094107 
L 180.577883 232.094107 
L 180.577883 231.63436 
L 181.95506 231.63436 
L 181.95506 229.79537 
L 183.065558 229.79537 
L 183.065558 228.875876 
L 183.63231 228.875876 
L 183.63231 227.496634 
L 184.242744 227.496634 
L 184.242744 227.036886 
L 184.828907 227.036886 
L 184.828907 225.197897 
L 185.283196 225.197897 
L 185.283196 222.89916 
L 186.430914 222.89916 
L 186.430914 221.060171 
L 187.684289 221.060171 
L 187.684289 219.221181 
L 190.190079 219.221181 
L 190.190079 218.301687 
L 190.794896 218.301687 
L 190.794896 217.382192 
L 195.208437 217.382192 
L 195.208437 216.462697 
L 198.129647 216.462697 
L 198.129647 215.543202 
L 198.342004 215.543202 
L 198.342004 215.083455 
L 198.489107 215.083455 
L 198.489107 213.704213 
L 198.826545 213.704213 
L 198.826545 212.784718 
L 199.431296 212.784718 
L 199.431296 210.945729 
L 199.927725 210.945729 
L 200.035969 210.026234 
L 200.40352 210.026234 
L 200.40352 209.10674 
L 201.883361 209.10674 
L 201.883361 208.187245 
L 204.168733 208.187245 
L 204.168733 207.26775 
L 204.514173 207.26775 
L 204.514173 205.888508 
L 205.664854 205.888508 
L 205.664854 205.428761 
L 208.660583 205.428761 
L 208.660583 204.969013 
L 210.98454 204.969013 
L 210.98454 203.589771 
L 212.082708 203.589771 
L 212.082708 203.130024 
L 214.741578 203.130024 
L 214.741578 202.670277 
L 219.190836 202.670277 
L 219.274776 199.911792 
L 220.624228 199.911792 
L 220.624228 199.452045 
L 220.915716 199.452045 
L 220.915716 198.992298 
L 221.586163 198.992298 
L 221.586163 197.613056 
L 221.780102 197.613056 
L 221.780102 196.693561 
L 223.333931 196.693561 
L 223.391499 195.774066 
L 223.899752 195.774066 
L 223.899752 195.314319 
L 224.913688 195.314319 
L 224.913688 194.854572 
L 228.941867 194.854572 
L 228.941867 193.935077 
L 229.978991 193.935077 
L 229.978991 193.015582 
L 230.379479 193.015582 
L 230.379479 191.63634 
L 230.929028 191.63634 
L 230.929028 191.176593 
L 233.263351 191.176593 
L 233.263351 190.716845 
L 234.209569 190.716845 
L 234.209569 189.797351 
L 235.296939 189.797351 
L 235.296939 189.337603 
L 235.412686 189.337603 
L 235.412686 187.958361 
L 235.69261 187.958361 
L 235.69261 187.038867 
L 236.785013 187.038867 
L 236.785013 186.579119 
L 237.913422 186.579119 
L 237.913422 185.659624 
L 239.704191 185.659624 
L 239.704191 185.199877 
L 242.458464 185.199877 
L 242.458464 184.74013 
L 244.240258 184.74013 
L 244.240258 184.280382 
L 244.487458 184.280382 
L 244.487458 183.820635 
L 244.84694 183.820635 
L 244.84694 183.360888 
L 245.570486 183.360888 
L 245.570486 182.441393 
L 245.875886 182.441393 
L 245.875886 181.521898 
L 248.477971 181.521898 
L 248.477971 180.602404 
L 249.804779 180.602404 
L 249.804779 179.682909 
L 250.200414 179.682909 
L 250.200414 179.223161 
L 250.675411 179.223161 
L 250.675411 177.843919 
L 251.529555 177.843919 
L 251.529555 177.384172 
L 254.854576 177.384172 
L 254.908432 176.464677 
L 255.15891 176.464677 
L 255.15891 176.00493 
L 256.104389 176.00493 
L 256.104389 175.545183 
L 256.74436 175.545183 
L 256.74436 175.085435 
L 256.889604 175.085435 
L 256.889604 174.625688 
L 257.455896 174.625688 
L 257.455896 174.165941 
L 258.276329 174.165941 
L 258.385958 172.786699 
L 258.940465 172.786699 
L 258.940465 172.326951 
L 259.740956 172.326951 
L 259.740956 171.867204 
L 260.556903 171.867204 
L 260.556903 171.407456 
L 261.419728 171.407456 
L 261.419728 170.947709 
L 262.120937 170.947709 
L 262.120937 170.487962 
L 262.631074 170.487962 
L 262.631074 170.028214 
L 263.658515 170.028214 
L 263.658515 169.568467 
L 264.391027 169.568467 
L 264.391027 169.10872 
L 264.598867 169.10872 
L 264.598867 168.648972 
L 265.438634 168.648972 
L 265.438634 168.189225 
L 267.876689 168.189225 
L 267.876689 167.729478 
L 269.697941 167.729478 
L 269.697941 167.26973 
L 270.130356 167.26973 
L 270.13153 166.350236 
L 272.434251 166.350236 
L 272.434251 165.430741 
L 274.362431 165.430741 
L 274.362431 164.970994 
L 276.524733 164.970994 
L 276.524733 164.511246 
L 279.36565 164.511246 
L 279.36565 164.051499 
L 280.553024 164.051499 
L 280.553024 163.591751 
L 283.533881 163.591751 
L 283.533881 163.132004 
L 286.921417 163.132004 
L 286.921417 162.672257 
L 289.209906 162.672257 
L 289.209906 162.212509 
L 289.729118 162.212509 
L 289.729118 161.752762 
L 293.657676 161.752762 
L 293.657676 161.293015 
L 295.329458 161.293015 
L 295.329458 160.833267 
L 333.569032 160.833267 
L 333.569032 160.833267 
" style="fill:none;stroke:#000080;stroke-linecap:square;stroke-width:1.5;"/>
   </g>
   <g id="line2d_48">
    <defs>
     <path d="M 0 6 
C 1.591219 6 3.117479 5.367802 4.242641 4.242641 
C 5.367802 3.117479 6 1.591219 6 0 
C 6 -1.591219 5.367802 -3.117479 4.242641 -4.242641 
C 3.117479 -5.367802 1.591219 -6 0 -6 
C -1.591219 -6 -3.117479 -5.367802 -4.242641 -4.242641 
C -5.367802 -3.117479 -6 -1.591219 -6 0 
C -6 1.591219 -5.367802 3.117479 -4.242641 4.242641 
C -3.117479 5.367802 -1.591219 6 0 6 
z
" id="m5d740ac6dc" style="stroke:#000080;stroke-width:1.5;"/>
    </defs>
    <g>
     <use style="fill:none;stroke:#000080;stroke-width:1.5;" x="153.48031" xlink:href="#m5d740ac6dc" y="262.89718"/>
     <use style="fill:none;stroke:#000080;stroke-width:1.5;" x="210.98454" xlink:href="#m5d740ac6dc" y="204.969013"/>
     <use style="fill:none;stroke:#000080;stroke-width:1.5;" x="274.362431" xlink:href="#m5d740ac6dc" y="165.430741"/>
     <use style="fill:none;stroke:#000080;stroke-width:1.5;" x="295.329458" xlink:href="#m5d740ac6dc" y="160.833267"/>
     <use style="fill:none;stroke:#000080;stroke-width:1.5;" x="333.569032" xlink:href="#m5d740ac6dc" y="160.833267"/>
    </g>
   </g>
   <g id="line2d_49">
    <path style="fill:none;stroke:#000080;stroke-linecap:square;stroke-width:1.5;"/>
    <g/>
   </g>
   <g id="line2d_50">
    <path clip-path="url(#p11c46f4f66)" d="M 254.510747 177.384172 
" style="fill:none;stroke:#000080;stroke-linecap:square;stroke-width:1.5;"/>
    <defs>
     <path d="M -12 12 
L 12 -12 
M -12 -12 
L 12 12 
" id="m83f3bc7b9f" style="stroke:#000080;stroke-width:3;"/>
    </defs>
    <g clip-path="url(#p11c46f4f66)">
     <use style="fill:#000080;stroke:#000080;stroke-width:3;" x="254.510747" xlink:href="#m83f3bc7b9f" y="177.384172"/>
    </g>
   </g>
   <g id="line2d_51">
    <defs>
     <path d="M 0 1.5 
C 0.397805 1.5 0.77937 1.341951 1.06066 1.06066 
C 1.341951 0.77937 1.5 0.397805 1.5 0 
C 1.5 -0.397805 1.341951 -0.77937 1.06066 -1.06066 
C 0.77937 -1.341951 0.397805 -1.5 0 -1.5 
C -0.397805 -1.5 -0.77937 -1.341951 -1.06066 -1.06066 
C -1.341951 -0.77937 -1.5 -0.397805 -1.5 0 
C -1.5 0.397805 -1.341951 0.77937 -1.06066 1.06066 
C -0.77937 1.341951 -0.397805 1.5 0 1.5 
z
" id="mec02966162" style="stroke:#ff00ff;"/>
    </defs>
    <g>
     <use style="fill:#ff00ff;stroke:#ff00ff;" x="355.425943" xlink:href="#mec02966162" y="174.625688"/>
     <use style="fill:#ff00ff;stroke:#ff00ff;" x="355.425943" xlink:href="#mec02966162" y="174.625688"/>
    </g>
   </g>
   <g id="line2d_52">
    <path d="M 37.9781 294.16 
L 37.9781 292.321011 
L 49.878634 292.321011 
L 49.878634 289.562526 
L 56.84 289.562526 
L 56.84 284.965053 
L 61.779168 284.965053 
L 61.779168 284.505306 
L 68.740534 284.505306 
L 68.740534 281.746821 
L 73.679702 281.746821 
L 73.679702 280.827327 
L 79.147184 280.827327 
L 79.147184 278.988337 
L 83.287657 278.988337 
L 83.287657 278.52859 
L 85.580236 278.52859 
L 85.580236 276.689601 
L 86.621091 276.689601 
L 86.621091 275.770106 
L 89.411353 275.770106 
L 89.411353 275.310358 
L 95.790669 275.310358 
L 95.790669 274.390864 
L 98.009084 274.390864 
L 98.009084 273.931116 
L 99.502969 273.931116 
L 99.502969 273.471369 
L 99.973377 273.471369 
L 99.973377 273.011622 
L 102.553549 273.011622 
L 102.553549 272.092127 
L 102.948252 272.092127 
L 102.948252 271.63238 
L 104.080674 271.63238 
L 104.080674 269.333643 
L 118.043947 269.333643 
L 118.043947 268.414148 
L 118.98926 268.414148 
L 118.98926 266.575159 
L 122.195986 266.575159 
L 122.195986 266.115411 
L 124.118983 266.115411 
L 124.118983 265.195917 
L 128.509394 265.195917 
L 128.509394 264.736169 
L 140.758546 264.736169 
L 140.758546 264.276422 
L 141.600325 264.276422 
L 141.600325 263.356927 
L 142.828609 263.356927 
L 142.828609 262.89718 
L 144.46845 262.89718 
L 144.46845 262.437433 
L 147.488289 262.437433 
L 147.488289 261.977685 
L 149.674876 261.977685 
L 149.674876 261.517938 
L 152.637498 261.517938 
L 152.637498 261.058191 
L 154.710013 261.058191 
L 154.710013 260.598443 
L 155.477359 260.598443 
L 155.477359 260.138696 
L 162.32855 260.138696 
L 162.32855 259.219201 
L 163.594757 259.219201 
L 163.594757 258.299706 
L 164.177948 258.299706 
L 164.287864 255.541222 
L 164.45143 255.541222 
L 164.45143 254.16198 
L 165.686529 254.16198 
L 165.686529 253.242485 
L 169.750365 253.242485 
L 169.750365 252.322991 
L 171.918952 252.322991 
L 171.918952 251.403496 
L 174.725363 251.403496 
L 174.725363 250.943749 
L 175.984497 250.943749 
L 175.984497 250.484001 
L 179.84995 250.484001 
L 179.84995 248.645012 
L 181.682752 248.645012 
L 181.682752 248.185265 
L 185.350796 248.185265 
L 185.350796 246.806023 
L 186.279406 246.806023 
L 186.279406 245.42678 
L 188.333701 245.42678 
L 188.333701 244.967033 
L 189.248607 244.967033 
L 189.248607 244.047538 
L 191.442334 244.047538 
L 191.442334 243.587791 
L 194.958751 243.587791 
L 194.958751 241.748802 
L 199.234932 241.748802 
L 199.234932 241.289054 
L 200.967691 241.289054 
L 200.967691 240.36956 
L 208.537823 240.36956 
L 208.537823 239.909812 
L 210.649229 239.909812 
L 210.649229 239.450065 
L 211.861902 239.450065 
L 211.861902 238.53057 
L 212.370105 238.53057 
L 212.370105 238.070823 
L 217.343034 238.070823 
L 217.343034 237.611075 
L 218.130669 237.611075 
L 218.130669 236.691581 
L 219.570631 236.691581 
L 219.570631 236.231833 
L 220.951706 236.231833 
L 220.951706 235.312339 
L 226.98293 235.312339 
L 226.98293 234.392844 
L 227.104179 234.392844 
L 227.104179 233.473349 
L 228.168084 233.473349 
L 228.168084 233.013602 
L 229.21713 233.013602 
L 229.21713 232.094107 
L 235.078519 232.094107 
L 235.078519 231.174612 
L 236.57264 231.174612 
L 236.57264 230.255118 
L 238.404489 230.255118 
L 238.404489 228.416128 
L 240.839484 228.416128 
L 240.839484 225.197897 
L 240.968755 225.197897 
L 240.968755 224.278402 
L 241.53452 224.278402 
L 241.53452 223.358907 
L 247.897359 223.358907 
L 247.897359 222.439413 
L 251.702624 222.439413 
L 251.702624 221.519918 
L 254.239404 221.519918 
L 254.239404 220.140676 
L 254.956881 220.140676 
L 255.05642 219.221181 
L 257.675143 219.221181 
L 257.675143 218.301687 
L 261.047688 218.301687 
L 261.047688 217.382192 
L 263.920224 217.382192 
L 263.920224 216.922445 
L 264.747085 216.922445 
L 264.747085 216.00295 
L 268.396312 216.00295 
L 268.396312 215.543202 
L 272.276601 215.543202 
L 272.276601 214.16396 
L 273.377147 214.16396 
L 273.377147 213.704213 
L 276.198583 213.704213 
L 276.198583 212.324971 
L 279.034431 212.324971 
L 279.034431 211.865224 
L 281.429761 211.865224 
L 281.429761 211.405476 
L 283.674327 211.405476 
L 283.674327 210.026234 
L 286.414041 210.026234 
L 286.414041 209.10674 
L 286.812814 209.10674 
L 286.812814 208.646992 
L 288.337518 208.646992 
L 288.337518 206.348255 
L 290.290386 206.348255 
L 290.290386 205.428761 
L 294.153945 205.428761 
L 294.153945 204.969013 
L 294.793987 204.969013 
L 294.793987 204.509266 
L 295.06057 204.509266 
L 295.06057 203.589771 
L 295.723678 203.589771 
L 295.723678 202.670277 
L 296.517627 202.670277 
L 296.517627 202.210529 
L 296.77674 202.210529 
L 296.77674 200.831287 
L 298.543493 200.831287 
L 298.543493 200.37154 
L 298.672187 200.37154 
L 298.672187 199.452045 
L 299.237308 199.452045 
L 299.237308 198.53255 
L 301.525997 198.53255 
L 301.525997 198.072803 
L 302.54528 198.072803 
L 302.54528 197.613056 
L 302.702224 197.613056 
L 302.702224 196.693561 
L 303.32282 196.693561 
L 303.32282 195.314319 
L 306.269706 195.314319 
L 306.269706 194.854572 
L 306.537983 194.854572 
L 306.537983 194.394824 
L 306.651007 194.394824 
L 306.651007 193.935077 
L 307.222291 193.935077 
L 307.222291 193.475329 
L 308.337918 193.475329 
L 308.337918 192.555835 
L 308.73354 192.555835 
L 308.73354 192.096087 
L 310.713159 192.096087 
L 310.713159 191.63634 
L 311.200469 191.63634 
L 311.200469 190.716845 
L 313.120835 190.716845 
L 313.154505 189.337603 
L 313.377605 189.337603 
L 313.377605 188.877856 
L 313.765779 188.877856 
L 313.765779 188.418109 
L 316.58007 188.418109 
L 316.58007 187.958361 
L 317.923569 187.958361 
L 318.029958 186.579119 
L 318.492131 186.579119 
L 318.564575 185.659624 
L 319.079857 185.659624 
L 319.079857 185.199877 
L 319.541386 185.199877 
L 319.541386 184.74013 
L 320.446767 184.74013 
L 320.446767 184.280382 
L 320.670122 184.280382 
L 320.670122 183.820635 
L 321.822731 183.820635 
L 321.822731 183.360888 
L 322.19428 183.360888 
L 322.19428 182.90114 
L 322.701227 182.90114 
L 322.701227 182.441393 
L 323.970852 182.441393 
L 323.970852 181.981646 
L 325.286949 181.981646 
L 325.286949 181.521898 
L 326.738184 181.521898 
L 326.738184 181.062151 
L 328.439657 181.062151 
L 328.439657 180.142656 
L 332.538397 180.142656 
L 332.538397 179.682909 
L 333.569032 179.682909 
L 333.569032 179.682909 
" style="fill:none;stroke:#ff00ff;stroke-linecap:square;stroke-width:1.5;"/>
   </g>
   <g id="line2d_53">
    <defs>
     <path d="M -0 8.485281 
L 5.091169 0 
L 0 -8.485281 
L -5.091169 -0 
z
" id="mee3dc7df55" style="stroke:#ff00ff;stroke-linejoin:miter;stroke-width:1.5;"/>
    </defs>
    <g>
     <use style="fill:none;stroke:#ff00ff;stroke-linejoin:miter;stroke-width:1.5;" x="89.411353" xlink:href="#mee3dc7df55" y="275.770106"/>
     <use style="fill:none;stroke:#ff00ff;stroke-linejoin:miter;stroke-width:1.5;" x="155.477359" xlink:href="#mee3dc7df55" y="260.138696"/>
     <use style="fill:none;stroke:#ff00ff;stroke-linejoin:miter;stroke-width:1.5;" x="229.21713" xlink:href="#mee3dc7df55" y="232.094107"/>
     <use style="fill:none;stroke:#ff00ff;stroke-linejoin:miter;stroke-width:1.5;" x="276.198583" xlink:href="#mee3dc7df55" y="213.704213"/>
     <use style="fill:none;stroke:#ff00ff;stroke-linejoin:miter;stroke-width:1.5;" x="332.538397" xlink:href="#mee3dc7df55" y="179.682909"/>
     <use style="fill:none;stroke:#ff00ff;stroke-linejoin:miter;stroke-width:1.5;" x="333.569032" xlink:href="#mee3dc7df55" y="179.682909"/>
    </g>
   </g>
   <g id="line2d_54">
    <path style="fill:none;stroke:#ff00ff;stroke-linecap:square;stroke-width:1.5;"/>
    <g/>
   </g>
   <g id="line2d_55">
    <path clip-path="url(#p11c46f4f66)" d="M 294.036313 205.428761 
" style="fill:none;stroke:#ff00ff;stroke-linecap:square;stroke-width:1.5;"/>
    <defs>
     <path d="M -12 12 
L 12 -12 
M -12 -12 
L 12 12 
" id="m998ef625eb" style="stroke:#ff00ff;stroke-width:3;"/>
    </defs>
    <g clip-path="url(#p11c46f4f66)">
     <use style="fill:#ff00ff;stroke:#ff00ff;stroke-width:3;" x="294.036313" xlink:href="#m998ef625eb" y="205.428761"/>
    </g>
   </g>
   <g id="line2d_56">
    <defs>
     <path d="M 0 1.5 
C 0.397805 1.5 0.77937 1.341951 1.06066 1.06066 
C 1.341951 0.77937 1.5 0.397805 1.5 0 
C 1.5 -0.397805 1.341951 -0.77937 1.06066 -1.06066 
C 0.77937 -1.341951 0.397805 -1.5 0 -1.5 
C -0.397805 -1.5 -0.77937 -1.341951 -1.06066 -1.06066 
C -1.341951 -0.77937 -1.5 -0.397805 -1.5 0 
C -1.5 0.397805 -1.341951 0.77937 -1.06066 1.06066 
C -0.77937 1.341951 -0.397805 1.5 0 1.5 
z
" id="m2aef76c690" style="stroke:#ffa500;"/>
    </defs>
    <g>
     <use style="fill:#ffa500;stroke:#ffa500;" x="203.770109" xlink:href="#m2aef76c690" y="266.575159"/>
     <use style="fill:#ffa500;stroke:#ffa500;" x="203.770109" xlink:href="#m2aef76c690" y="266.575159"/>
    </g>
   </g>
   <g id="line2d_57">
    <path d="M 37.9781 294.16 
L 37.9781 284.045558 
L 159.417947 284.045558 
L 159.417947 283.126064 
L 166.56263 283.126064 
L 166.56263 282.666316 
L 171.142989 282.666316 
L 171.142989 282.206569 
L 172.485541 282.206569 
L 172.485541 281.746821 
L 173.994145 281.746821 
L 173.994145 279.907832 
L 176.04537 279.907832 
L 176.04537 278.988337 
L 176.067452 278.988337 
L 176.067452 277.149348 
L 176.111531 277.149348 
L 176.111531 274.850611 
L 176.133528 274.850611 
L 176.133528 273.931116 
L 183.903579 273.931116 
L 183.903579 273.011622 
L 187.976259 273.011622 
L 187.976259 272.092127 
L 188.009313 272.092127 
L 188.009313 271.172632 
L 188.020317 271.172632 
L 188.020317 270.712885 
L 190.990316 270.712885 
L 190.990316 270.253138 
L 193.451509 270.253138 
L 193.451509 269.79339 
L 194.947732 269.79339 
L 194.947732 269.333643 
L 194.991764 269.333643 
L 194.991764 268.414148 
L 199.902967 268.414148 
L 199.902967 267.954401 
L 199.913975 267.954401 
L 199.913975 267.494653 
L 203.72169 267.494653 
L 203.72169 267.034906 
L 203.770109 267.034906 
L 203.770109 266.575159 
L 333.569032 266.575159 
" style="fill:none;stroke:#ffa500;stroke-linecap:square;stroke-width:1.5;"/>
   </g>
   <g id="line2d_58">
    <defs>
     <path d="M 0 -6 
L -1.347084 -1.854102 
L -5.706339 -1.854102 
L -2.179628 0.708204 
L -3.526712 4.854102 
L -0 2.291796 
L 3.526712 4.854102 
L 2.179628 0.708204 
L 5.706339 -1.854102 
L 1.347084 -1.854102 
z
" id="m3edd1b1fc8" style="stroke:#ffa500;stroke-linejoin:bevel;stroke-width:1.5;"/>
    </defs>
    <g>
     <use style="fill:none;stroke:#ffa500;stroke-linejoin:bevel;stroke-width:1.5;" x="159.417947" xlink:href="#m3edd1b1fc8" y="283.126064"/>
     <use style="fill:none;stroke:#ffa500;stroke-linejoin:bevel;stroke-width:1.5;" x="203.770109" xlink:href="#m3edd1b1fc8" y="267.034906"/>
     <use style="fill:none;stroke:#ffa500;stroke-linejoin:bevel;stroke-width:1.5;" x="203.770109" xlink:href="#m3edd1b1fc8" y="266.575159"/>
     <use style="fill:none;stroke:#ffa500;stroke-linejoin:bevel;stroke-width:1.5;" x="203.770109" xlink:href="#m3edd1b1fc8" y="266.575159"/>
     <use style="fill:none;stroke:#ffa500;stroke-linejoin:bevel;stroke-width:1.5;" x="333.569032" xlink:href="#m3edd1b1fc8" y="266.575159"/>
    </g>
   </g>
   <g id="line2d_59">
    <path style="fill:none;stroke:#ffa500;stroke-linecap:square;stroke-width:1.5;"/>
    <g/>
   </g>
   <g id="line2d_60">
    <path clip-path="url(#p11c46f4f66)" d="M 176.106027 277.149348 
" style="fill:none;stroke:#ffa500;stroke-linecap:square;stroke-width:1.5;"/>
    <defs>
     <path d="M -12 12 
L 12 -12 
M -12 -12 
L 12 12 
" id="mca69cd4af3" style="stroke:#ffa500;stroke-width:3;"/>
    </defs>
    <g clip-path="url(#p11c46f4f66)">
     <use style="fill:#ffa500;stroke:#ffa500;stroke-width:3;" x="176.106027" xlink:href="#mca69cd4af3" y="277.149348"/>
    </g>
   </g>
   <g id="line2d_61">
    <defs>
     <path d="M 0 1.5 
C 0.397805 1.5 0.77937 1.341951 1.06066 1.06066 
C 1.341951 0.77937 1.5 0.397805 1.5 0 
C 1.5 -0.397805 1.341951 -0.77937 1.06066 -1.06066 
C 0.77937 -1.341951 0.397805 -1.5 0 -1.5 
C -0.397805 -1.5 -0.77937 -1.341951 -1.06066 -1.06066 
C -1.341951 -0.77937 -1.5 -0.397805 -1.5 0 
C -1.5 0.397805 -1.341951 0.77937 -1.06066 1.06066 
C -0.77937 1.341951 -0.397805 1.5 0 1.5 
z
" id="m664dfc3917" style="stroke:#6495ed;"/>
    </defs>
    <g>
     <use style="fill:#6495ed;stroke:#6495ed;" x="260.882752" xlink:href="#m664dfc3917" y="197.613056"/>
     <use style="fill:#6495ed;stroke:#6495ed;" x="260.882752" xlink:href="#m664dfc3917" y="197.613056"/>
    </g>
   </g>
   <g id="line2d_62">
    <path d="M 37.9781 294.16 
L 37.9781 279.448085 
L 56.84 279.448085 
L 56.84 278.988337 
L 65.610284 278.988337 
L 65.610284 277.149348 
L 71.387123 277.149348 
L 71.387123 276.689601 
L 75.7019 276.689601 
L 75.7019 275.770106 
L 79.147184 275.770106 
L 79.147184 273.931116 
L 89.411353 273.931116 
L 89.411353 273.011622 
L 99.502969 273.011622 
L 99.502969 272.092127 
L 100.877209 272.092127 
L 100.877209 271.63238 
L 107.691203 271.63238 
L 107.691203 271.172632 
L 107.984694 271.172632 
L 107.984694 269.79339 
L 111.403503 269.79339 
L 111.403503 269.333643 
L 113.212421 269.333643 
L 113.212421 268.414148 
L 114.454083 268.414148 
L 114.454083 267.494653 
L 116.342671 267.494653 
L 116.342671 267.034906 
L 118.364869 267.034906 
L 118.364869 266.115411 
L 120.316268 266.115411 
L 120.316268 265.655664 
L 120.597731 265.655664 
L 120.597731 265.195917 
L 124.118983 265.195917 
L 124.118983 264.736169 
L 128.421122 264.736169 
L 128.421122 264.276422 
L 130.105692 264.276422 
L 130.105692 263.356927 
L 130.265403 263.356927 
L 130.265403 262.437433 
L 130.889794 262.437433 
L 130.889794 261.517938 
L 133.382401 261.517938 
L 133.382401 260.598443 
L 134.597835 260.598443 
L 134.597835 260.138696 
L 134.964444 260.138696 
L 134.964444 259.219201 
L 137.279678 259.219201 
L 137.279678 258.759454 
L 137.489697 258.759454 
L 137.489697 258.299706 
L 137.748659 258.299706 
L 137.748659 257.380212 
L 138.354681 257.380212 
L 138.354681 256.920464 
L 139.459631 256.920464 
L 139.459631 256.00097 
L 140.365849 256.00097 
L 140.365849 255.541222 
L 141.966065 255.541222 
L 141.966065 255.081475 
L 143.722633 255.081475 
L 143.722633 253.702233 
L 145.805221 253.702233 
L 145.805221 252.322991 
L 147.105106 252.322991 
L 147.194295 250.484001 
L 147.777333 250.484001 
L 147.777333 249.564507 
L 151.887069 249.564507 
L 151.887069 247.725517 
L 152.398283 247.725517 
L 152.398283 246.806023 
L 152.65908 246.806023 
L 152.65908 246.346275 
L 154.224711 246.346275 
L 154.224711 245.42678 
L 155.29334 245.42678 
L 155.29334 244.967033 
L 155.513927 244.967033 
L 155.586831 243.128044 
L 156.035598 243.128044 
L 156.035598 241.748802 
L 156.351598 241.748802 
L 156.351598 240.829307 
L 156.882547 240.829307 
L 156.882547 239.450065 
L 159.374242 239.450065 
L 159.374242 238.990318 
L 160.241755 238.990318 
L 160.241755 238.070823 
L 161.054313 238.070823 
L 161.054313 237.611075 
L 161.303807 237.611075 
L 161.303807 237.151328 
L 162.693083 237.151328 
L 162.693083 236.691581 
L 163.214108 236.691581 
L 163.214108 236.231833 
L 163.526173 236.231833 
L 163.526173 234.852591 
L 165.090543 234.852591 
L 165.173988 233.933097 
L 166.648785 233.933097 
L 166.648785 233.013602 
L 167.441837 233.013602 
L 167.441837 232.553855 
L 171.157682 232.553855 
L 171.157682 231.63436 
L 174.814614 231.63436 
L 174.814614 230.255118 
L 178.791105 230.255118 
L 178.791105 229.335623 
L 179.319561 229.335623 
L 179.319561 227.956381 
L 180.926436 227.956381 
L 180.926436 227.036886 
L 182.346025 227.036886 
L 182.346025 226.577139 
L 184.861994 226.577139 
L 184.861994 226.117392 
L 188.195427 226.117392 
L 188.195427 225.197897 
L 189.032191 225.197897 
L 189.032191 224.73815 
L 192.797846 224.73815 
L 192.797846 224.278402 
L 198.754583 224.278402 
L 198.754583 223.818655 
L 199.007317 223.818655 
L 199.007317 223.358907 
L 199.451092 223.358907 
L 199.451092 222.439413 
L 199.973024 222.439413 
L 199.997682 221.519918 
L 200.300266 221.519918 
L 200.339227 220.140676 
L 202.522594 220.140676 
L 202.528502 219.221181 
L 203.104645 219.221181 
L 203.104645 218.761434 
L 203.50768 218.761434 
L 203.50768 218.301687 
L 205.426043 218.301687 
L 205.427041 217.382192 
L 205.725757 217.382192 
L 205.725757 216.922445 
L 206.964523 216.922445 
L 206.964523 216.00295 
L 207.259391 216.00295 
L 207.259391 215.543202 
L 209.033389 215.543202 
L 209.033389 215.083455 
L 210.897697 215.083455 
L 210.919449 213.244466 
L 214.989179 213.244466 
L 214.993181 212.324971 
L 216.110553 212.324971 
L 216.149069 211.405476 
L 216.761585 211.405476 
L 216.761585 210.945729 
L 217.092998 210.945729 
L 217.092998 210.485982 
L 217.267103 210.485982 
L 217.267103 210.026234 
L 218.254009 210.026234 
L 218.254009 209.566487 
L 219.611297 209.566487 
L 219.611297 209.10674 
L 222.105344 209.10674 
L 222.105344 208.646992 
L 222.792789 208.646992 
L 222.797869 207.727497 
L 223.058168 207.727497 
L 223.058168 207.26775 
L 225.02334 207.26775 
L 225.02334 206.808003 
L 227.088081 206.808003 
L 227.165609 205.888508 
L 228.175511 205.888508 
L 228.193272 204.049519 
L 230.84478 204.049519 
L 230.859077 202.210529 
L 231.413279 202.210529 
L 231.413279 201.750782 
L 232.415719 201.750782 
L 232.415719 201.291034 
L 237.021269 201.291034 
L 237.021269 200.831287 
L 240.160838 200.831287 
L 240.160838 200.37154 
L 244.006331 200.37154 
L 244.006331 199.911792 
L 245.117283 199.911792 
L 245.117283 199.452045 
L 247.146335 199.452045 
L 247.146335 198.992298 
L 253.473138 198.992298 
L 253.473138 198.53255 
L 254.133012 198.53255 
L 254.133012 198.072803 
L 260.882752 198.072803 
L 260.882752 197.613056 
L 333.569032 197.613056 
L 333.569032 197.613056 
" style="fill:none;stroke:#6495ed;stroke-linecap:square;stroke-width:1.5;"/>
   </g>
   <g id="line2d_63">
    <defs>
     <path d="M -0 6 
L 6 -6 
L -6 -6 
z
" id="m00d2992ca7" style="stroke:#6495ed;stroke-linejoin:miter;stroke-width:1.5;"/>
    </defs>
    <g>
     <use style="fill:none;stroke:#6495ed;stroke-linejoin:miter;stroke-width:1.5;" x="111.403503" xlink:href="#m00d2992ca7" y="269.333643"/>
     <use style="fill:none;stroke:#6495ed;stroke-linejoin:miter;stroke-width:1.5;" x="171.157682" xlink:href="#m00d2992ca7" y="231.63436"/>
     <use style="fill:none;stroke:#6495ed;stroke-linejoin:miter;stroke-width:1.5;" x="245.117283" xlink:href="#m00d2992ca7" y="199.452045"/>
     <use style="fill:none;stroke:#6495ed;stroke-linejoin:miter;stroke-width:1.5;" x="260.882752" xlink:href="#m00d2992ca7" y="197.613056"/>
     <use style="fill:none;stroke:#6495ed;stroke-linejoin:miter;stroke-width:1.5;" x="260.882752" xlink:href="#m00d2992ca7" y="197.613056"/>
     <use style="fill:none;stroke:#6495ed;stroke-linejoin:miter;stroke-width:1.5;" x="333.569032" xlink:href="#m00d2992ca7" y="197.613056"/>
    </g>
   </g>
   <g id="line2d_64">
    <path style="fill:none;stroke:#6495ed;stroke-linecap:square;stroke-width:1.5;"/>
    <g/>
   </g>
   <g id="line2d_65">
    <path clip-path="url(#p11c46f4f66)" d="M 197.586971 224.278402 
" style="fill:none;stroke:#6495ed;stroke-linecap:square;stroke-width:1.5;"/>
    <defs>
     <path d="M -12 12 
L 12 -12 
M -12 -12 
L 12 12 
" id="m13d80a65ef" style="stroke:#6495ed;stroke-width:3;"/>
    </defs>
    <g clip-path="url(#p11c46f4f66)">
     <use style="fill:#6495ed;stroke:#6495ed;stroke-width:3;" x="197.586971" xlink:href="#m13d80a65ef" y="224.278402"/>
    </g>
   </g>
   <g id="line2d_66">
    <path d="M 333.569032 266.575159 
L 364.009226 288.826931 
" style="fill:none;stroke:#ffa500;stroke-linecap:square;stroke-width:1.5;"/>
    <g>
     <use style="fill:none;stroke:#ffa500;stroke-linejoin:bevel;stroke-width:1.5;" x="333.569032" xlink:href="#m3edd1b1fc8" y="266.575159"/>
     <use style="fill:none;stroke:#ffa500;stroke-linejoin:bevel;stroke-width:1.5;" x="364.009226" xlink:href="#m3edd1b1fc8" y="288.826931"/>
    </g>
   </g>
   <g id="line2d_67">
    <path d="M 333.569032 197.613056 
L 364.009226 224.830099 
" style="fill:none;stroke:#6495ed;stroke-linecap:square;stroke-width:1.5;"/>
    <g>
     <use style="fill:none;stroke:#6495ed;stroke-linejoin:miter;stroke-width:1.5;" x="333.569032" xlink:href="#m00d2992ca7" y="197.613056"/>
     <use style="fill:none;stroke:#6495ed;stroke-linejoin:miter;stroke-width:1.5;" x="364.009226" xlink:href="#m00d2992ca7" y="224.830099"/>
    </g>
   </g>
   <g id="line2d_68">
    <path d="M 333.569032 179.682909 
L 364.009226 160.833267 
" style="fill:none;stroke:#ff00ff;stroke-linecap:square;stroke-width:1.5;"/>
    <g>
     <use style="fill:none;stroke:#ff00ff;stroke-linejoin:miter;stroke-width:1.5;" x="333.569032" xlink:href="#mee3dc7df55" y="179.682909"/>
     <use style="fill:none;stroke:#ff00ff;stroke-linejoin:miter;stroke-width:1.5;" x="364.009226" xlink:href="#mee3dc7df55" y="160.833267"/>
    </g>
   </g>
   <g id="line2d_69">
    <path d="M 333.569032 160.833267 
L 364.009226 96.836436 
" style="fill:none;stroke:#000080;stroke-linecap:square;stroke-width:1.5;"/>
    <g>
     <use style="fill:none;stroke:#000080;stroke-width:1.5;" x="333.569032" xlink:href="#m5d740ac6dc" y="160.833267"/>
     <use style="fill:none;stroke:#000080;stroke-width:1.5;" x="364.009226" xlink:href="#m5d740ac6dc" y="96.836436"/>
    </g>
   </g>
   <g id="line2d_70">
    <path d="M 333.569032 294.16 
L 333.569032 27.506535 
" style="fill:none;stroke:#000000;stroke-linecap:square;stroke-width:1.5;"/>
   </g>
   <g id="patch_3">
    <path d="M 56.84 294.16 
L 56.84 24.84 
" style="fill:none;stroke:#000000;stroke-linecap:square;stroke-linejoin:miter;stroke-width:0.8;"/>
   </g>
   <g id="patch_4">
    <path d="M 399.984 294.16 
L 399.984 24.84 
" style="fill:none;stroke:#000000;stroke-linecap:square;stroke-linejoin:miter;stroke-width:0.8;"/>
   </g>
   <g id="patch_5">
    <path d="M 56.84 294.16 
L 399.984 294.16 
" style="fill:none;stroke:#000000;stroke-linecap:square;stroke-linejoin:miter;stroke-width:0.8;"/>
   </g>
   <g id="patch_6">
    <path d="M 56.84 24.84 
L 399.984 24.84 
" style="fill:none;stroke:#000000;stroke-linecap:square;stroke-linejoin:miter;stroke-width:0.8;"/>
   </g>
   <g id="text_14">
    <!-- adaptiveH -->
    <defs>
     <path d="M 9.8125 72.90625 
L 19.671875 72.90625 
L 19.671875 43.015625 
L 55.515625 43.015625 
L 55.515625 72.90625 
L 65.375 72.90625 
L 65.375 0 
L 55.515625 0 
L 55.515625 34.71875 
L 19.671875 34.71875 
L 19.671875 0 
L 9.8125 0 
z
" id="DejaVuSans-48"/>
    </defs>
    <g transform="translate(369.543806 293.517868)scale(0.17 -0.17)">
     <use xlink:href="#DejaVuSans-61"/>
     <use x="61.279297" xlink:href="#DejaVuSans-64"/>
     <use x="124.755859" xlink:href="#DejaVuSans-61"/>
     <use x="186.035156" xlink:href="#DejaVuSans-70"/>
     <use x="249.511719" xlink:href="#DejaVuSans-74"/>
     <use x="288.720703" xlink:href="#DejaVuSans-69"/>
     <use x="316.503906" xlink:href="#DejaVuSans-76"/>
     <use x="375.683594" xlink:href="#DejaVuSans-65"/>
     <use x="437.207031" xlink:href="#DejaVuSans-48"/>
    </g>
   </g>
   <g id="text_15">
    <!-- final  bu -->
    <defs>
     <path d="M 48.6875 27.296875 
Q 48.6875 37.203125 44.609375 42.84375 
Q 40.53125 48.484375 33.40625 48.484375 
Q 26.265625 48.484375 22.1875 42.84375 
Q 18.109375 37.203125 18.109375 27.296875 
Q 18.109375 17.390625 22.1875 11.75 
Q 26.265625 6.109375 33.40625 6.109375 
Q 40.53125 6.109375 44.609375 11.75 
Q 48.6875 17.390625 48.6875 27.296875 
M 18.109375 46.390625 
Q 20.953125 51.265625 25.265625 53.625 
Q 29.59375 56 35.59375 56 
Q 45.5625 56 51.78125 48.09375 
Q 58.015625 40.1875 58.015625 27.296875 
Q 58.015625 14.40625 51.78125 6.484375 
Q 45.5625 -1.421875 35.59375 -1.421875 
Q 29.59375 -1.421875 25.265625 0.953125 
Q 20.953125 3.328125 18.109375 8.203125 
L 18.109375 0 
L 9.078125 0 
L 9.078125 75.984375 
L 18.109375 75.984375 
z
" id="DejaVuSans-62"/>
    </defs>
    <g transform="translate(369.543806 229.521037)scale(0.17 -0.17)">
     <use xlink:href="#DejaVuSans-66"/>
     <use x="35.205078" xlink:href="#DejaVuSans-69"/>
     <use x="62.988281" xlink:href="#DejaVuSans-6e"/>
     <use x="126.367188" xlink:href="#DejaVuSans-61"/>
     <use x="187.646484" xlink:href="#DejaVuSans-6c"/>
     <use x="215.429688" xlink:href="#DejaVuSans-20"/>
     <use x="247.216797" xlink:href="#DejaVuSans-20"/>
     <use x="279.003906" xlink:href="#DejaVuSans-62"/>
     <use x="342.480469" xlink:href="#DejaVuSans-75"/>
    </g>
   </g>
   <g id="text_16">
    <!-- RANDOMSEA -->
    <defs>
     <path d="M 44.390625 34.1875 
Q 47.5625 33.109375 50.5625 29.59375 
Q 53.5625 26.078125 56.59375 19.921875 
L 66.609375 0 
L 56 0 
L 46.6875 18.703125 
Q 43.0625 26.03125 39.671875 28.421875 
Q 36.28125 30.8125 30.421875 30.8125 
L 19.671875 30.8125 
L 19.671875 0 
L 9.8125 0 
L 9.8125 72.90625 
L 32.078125 72.90625 
Q 44.578125 72.90625 50.734375 67.671875 
Q 56.890625 62.453125 56.890625 51.90625 
Q 56.890625 45.015625 53.6875 40.46875 
Q 50.484375 35.9375 44.390625 34.1875 
M 19.671875 64.796875 
L 19.671875 38.921875 
L 32.078125 38.921875 
Q 39.203125 38.921875 42.84375 42.21875 
Q 46.484375 45.515625 46.484375 51.90625 
Q 46.484375 58.296875 42.84375 61.546875 
Q 39.203125 64.796875 32.078125 64.796875 
z
" id="DejaVuSans-52"/>
     <path d="M 34.1875 63.1875 
L 20.796875 26.90625 
L 47.609375 26.90625 
z
M 28.609375 72.90625 
L 39.796875 72.90625 
L 67.578125 0 
L 57.328125 0 
L 50.6875 18.703125 
L 17.828125 18.703125 
L 11.1875 0 
L 0.78125 0 
z
" id="DejaVuSans-41"/>
     <path d="M 9.8125 72.90625 
L 23.09375 72.90625 
L 55.421875 11.921875 
L 55.421875 72.90625 
L 64.984375 72.90625 
L 64.984375 0 
L 51.703125 0 
L 19.390625 60.984375 
L 19.390625 0 
L 9.8125 0 
z
" id="DejaVuSans-4e"/>
     <path d="M 19.671875 64.796875 
L 19.671875 8.109375 
L 31.59375 8.109375 
Q 46.6875 8.109375 53.6875 14.9375 
Q 60.6875 21.78125 60.6875 36.53125 
Q 60.6875 51.171875 53.6875 57.984375 
Q 46.6875 64.796875 31.59375 64.796875 
z
M 9.8125 72.90625 
L 30.078125 72.90625 
Q 51.265625 72.90625 61.171875 64.09375 
Q 71.09375 55.28125 71.09375 36.53125 
Q 71.09375 17.671875 61.125 8.828125 
Q 51.171875 0 30.078125 0 
L 9.8125 0 
z
" id="DejaVuSans-44"/>
     <path d="M 39.40625 66.21875 
Q 28.65625 66.21875 22.328125 58.203125 
Q 16.015625 50.203125 16.015625 36.375 
Q 16.015625 22.609375 22.328125 14.59375 
Q 28.65625 6.59375 39.40625 6.59375 
Q 50.140625 6.59375 56.421875 14.59375 
Q 62.703125 22.609375 62.703125 36.375 
Q 62.703125 50.203125 56.421875 58.203125 
Q 50.140625 66.21875 39.40625 66.21875 
M 39.40625 74.21875 
Q 54.734375 74.21875 63.90625 63.9375 
Q 73.09375 53.65625 73.09375 36.375 
Q 73.09375 19.140625 63.90625 8.859375 
Q 54.734375 -1.421875 39.40625 -1.421875 
Q 24.03125 -1.421875 14.8125 8.828125 
Q 5.609375 19.09375 5.609375 36.375 
Q 5.609375 53.65625 14.8125 63.9375 
Q 24.03125 74.21875 39.40625 74.21875 
" id="DejaVuSans-4f"/>
     <path d="M 9.8125 72.90625 
L 24.515625 72.90625 
L 43.109375 23.296875 
L 61.8125 72.90625 
L 76.515625 72.90625 
L 76.515625 0 
L 66.890625 0 
L 66.890625 64.015625 
L 48.09375 14.015625 
L 38.1875 14.015625 
L 19.390625 64.015625 
L 19.390625 0 
L 9.8125 0 
z
" id="DejaVuSans-4d"/>
     <path d="M 53.515625 70.515625 
L 53.515625 60.890625 
Q 47.90625 63.578125 42.921875 64.890625 
Q 37.9375 66.21875 33.296875 66.21875 
Q 25.25 66.21875 20.875 63.09375 
Q 16.5 59.96875 16.5 54.203125 
Q 16.5 49.359375 19.40625 46.890625 
Q 22.3125 44.4375 30.421875 42.921875 
L 36.375 41.703125 
Q 47.40625 39.59375 52.65625 34.296875 
Q 57.90625 29 57.90625 20.125 
Q 57.90625 9.515625 50.796875 4.046875 
Q 43.703125 -1.421875 29.984375 -1.421875 
Q 24.8125 -1.421875 18.96875 -0.25 
Q 13.140625 0.921875 6.890625 3.21875 
L 6.890625 13.375 
Q 12.890625 10.015625 18.65625 8.296875 
Q 24.421875 6.59375 29.984375 6.59375 
Q 38.421875 6.59375 43.015625 9.90625 
Q 47.609375 13.234375 47.609375 19.390625 
Q 47.609375 24.75 44.3125 27.78125 
Q 41.015625 30.8125 33.5 32.328125 
L 27.484375 33.5 
Q 16.453125 35.6875 11.515625 40.375 
Q 6.59375 45.0625 6.59375 53.421875 
Q 6.59375 63.09375 13.40625 68.65625 
Q 20.21875 74.21875 32.171875 74.21875 
Q 37.3125 74.21875 42.625 73.28125 
Q 47.953125 72.359375 53.515625 70.515625 
" id="DejaVuSans-53"/>
     <path d="M 9.8125 72.90625 
L 55.90625 72.90625 
L 55.90625 64.59375 
L 19.671875 64.59375 
L 19.671875 43.015625 
L 54.390625 43.015625 
L 54.390625 34.71875 
L 19.671875 34.71875 
L 19.671875 8.296875 
L 56.78125 8.296875 
L 56.78125 0 
L 9.8125 0 
z
" id="DejaVuSans-45"/>
    </defs>
    <g transform="translate(369.543806 165.524205)scale(0.17 -0.17)">
     <use xlink:href="#DejaVuSans-52"/>
     <use x="69.419922" xlink:href="#DejaVuSans-41"/>
     <use x="137.828125" xlink:href="#DejaVuSans-4e"/>
     <use x="212.632812" xlink:href="#DejaVuSans-44"/>
     <use x="289.634766" xlink:href="#DejaVuSans-4f"/>
     <use x="368.345703" xlink:href="#DejaVuSans-4d"/>
     <use x="454.625" xlink:href="#DejaVuSans-53"/>
     <use x="518.101562" xlink:href="#DejaVuSans-45"/>
     <use x="581.285156" xlink:href="#DejaVuSans-41"/>
    </g>
   </g>
   <g id="text_17">
    <!-- NSGA-II-M -->
    <defs>
     <path d="M 59.515625 10.40625 
L 59.515625 29.984375 
L 43.40625 29.984375 
L 43.40625 38.09375 
L 69.28125 38.09375 
L 69.28125 6.78125 
Q 63.578125 2.734375 56.6875 0.65625 
Q 49.8125 -1.421875 42 -1.421875 
Q 24.90625 -1.421875 15.25 8.5625 
Q 5.609375 18.5625 5.609375 36.375 
Q 5.609375 54.25 15.25 64.234375 
Q 24.90625 74.21875 42 74.21875 
Q 49.125 74.21875 55.546875 72.453125 
Q 61.96875 70.703125 67.390625 67.28125 
L 67.390625 56.78125 
Q 61.921875 61.421875 55.765625 63.765625 
Q 49.609375 66.109375 42.828125 66.109375 
Q 29.4375 66.109375 22.71875 58.640625 
Q 16.015625 51.171875 16.015625 36.375 
Q 16.015625 21.625 22.71875 14.15625 
Q 29.4375 6.6875 42.828125 6.6875 
Q 48.046875 6.6875 52.140625 7.59375 
Q 56.25 8.5 59.515625 10.40625 
" id="DejaVuSans-47"/>
     <path d="M 9.8125 72.90625 
L 19.671875 72.90625 
L 19.671875 0 
L 9.8125 0 
z
" id="DejaVuSans-49"/>
    </defs>
    <g transform="translate(369.543806 101.527373)scale(0.17 -0.17)">
     <use xlink:href="#DejaVuSans-4e"/>
     <use x="74.804688" xlink:href="#DejaVuSans-53"/>
     <use x="138.28125" xlink:href="#DejaVuSans-47"/>
     <use x="215.771484" xlink:href="#DejaVuSans-41"/>
     <use x="284.148438" xlink:href="#DejaVuSans-2d"/>
     <use x="320.232422" xlink:href="#DejaVuSans-49"/>
     <use x="349.724609" xlink:href="#DejaVuSans-49"/>
     <use x="379.216797" xlink:href="#DejaVuSans-2d"/>
     <use x="415.300781" xlink:href="#DejaVuSans-4d"/>
    </g>
   </g>
   <g id="text_18">
    <!-- best 2016 -->
    <g transform="translate(369.543806 37.530541)scale(0.17 -0.17)">
     <use xlink:href="#DejaVuSans-62"/>
     <use x="63.476562" xlink:href="#DejaVuSans-65"/>
     <use x="125" xlink:href="#DejaVuSans-73"/>
     <use x="177.099609" xlink:href="#DejaVuSans-74"/>
     <use x="216.308594" xlink:href="#DejaVuSans-20"/>
     <use x="248.095703" xlink:href="#DejaVuSans-32"/>
     <use x="311.71875" xlink:href="#DejaVuSans-30"/>
     <use x="375.341797" xlink:href="#DejaVuSans-31"/>
     <use x="438.964844" xlink:href="#DejaVuSans-36"/>
    </g>
   </g>
   <g id="text_19">
    <!-- bbob-biobj f47, 3-D -->
    <defs>
     <path d="M 9.421875 54.6875 
L 18.40625 54.6875 
L 18.40625 -0.984375 
Q 18.40625 -11.421875 14.421875 -16.109375 
Q 10.453125 -20.796875 1.609375 -20.796875 
L -1.8125 -20.796875 
L -1.8125 -13.1875 
L 0.59375 -13.1875 
Q 5.71875 -13.1875 7.5625 -10.8125 
Q 9.421875 -8.453125 9.421875 -0.984375 
z
M 9.421875 75.984375 
L 18.40625 75.984375 
L 18.40625 64.59375 
L 9.421875 64.59375 
z
" id="DejaVuSans-6a"/>
     <path d="M 8.203125 72.90625 
L 55.078125 72.90625 
L 55.078125 68.703125 
L 28.609375 0 
L 18.3125 0 
L 43.21875 64.59375 
L 8.203125 64.59375 
z
" id="DejaVuSans-37"/>
     <path d="M 40.578125 39.3125 
Q 47.65625 37.796875 51.625 33 
Q 55.609375 28.21875 55.609375 21.1875 
Q 55.609375 10.40625 48.1875 4.484375 
Q 40.765625 -1.421875 27.09375 -1.421875 
Q 22.515625 -1.421875 17.65625 -0.515625 
Q 12.796875 0.390625 7.625 2.203125 
L 7.625 11.71875 
Q 11.71875 9.328125 16.59375 8.109375 
Q 21.484375 6.890625 26.8125 6.890625 
Q 36.078125 6.890625 40.9375 10.546875 
Q 45.796875 14.203125 45.796875 21.1875 
Q 45.796875 27.640625 41.28125 31.265625 
Q 36.765625 34.90625 28.71875 34.90625 
L 20.21875 34.90625 
L 20.21875 43.015625 
L 29.109375 43.015625 
Q 36.375 43.015625 40.234375 45.921875 
Q 44.09375 48.828125 44.09375 54.296875 
Q 44.09375 59.90625 40.109375 62.90625 
Q 36.140625 65.921875 28.71875 65.921875 
Q 24.65625 65.921875 20.015625 65.03125 
Q 15.375 64.15625 9.8125 62.3125 
L 9.8125 71.09375 
Q 15.4375 72.65625 20.34375 73.4375 
Q 25.25 74.21875 29.59375 74.21875 
Q 40.828125 74.21875 47.359375 69.109375 
Q 53.90625 64.015625 53.90625 55.328125 
Q 53.90625 49.265625 50.4375 45.09375 
Q 46.96875 40.921875 40.578125 39.3125 
" id="DejaVuSans-33"/>
    </defs>
    <g transform="translate(60.27144 35.283606)scale(0.102 -0.102)">
     <use xlink:href="#DejaVuSans-62"/>
     <use x="63.476562" xlink:href="#DejaVuSans-62"/>
     <use x="126.953125" xlink:href="#DejaVuSans-6f"/>
     <use x="188.134766" xlink:href="#DejaVuSans-62"/>
     <use x="251.611328" xlink:href="#DejaVuSans-2d"/>
     <use x="287.695312" xlink:href="#DejaVuSans-62"/>
     <use x="351.171875" xlink:href="#DejaVuSans-69"/>
     <use x="378.955078" xlink:href="#DejaVuSans-6f"/>
     <use x="440.136719" xlink:href="#DejaVuSans-62"/>
     <use x="503.613281" xlink:href="#DejaVuSans-6a"/>
     <use x="531.396484" xlink:href="#DejaVuSans-20"/>
     <use x="563.183594" xlink:href="#DejaVuSans-66"/>
     <use x="598.388672" xlink:href="#DejaVuSans-34"/>
     <use x="662.011719" xlink:href="#DejaVuSans-37"/>
     <use x="725.634766" xlink:href="#DejaVuSans-2c"/>
     <use x="757.421875" xlink:href="#DejaVuSans-20"/>
     <use x="789.208984" xlink:href="#DejaVuSans-33"/>
     <use x="852.832031" xlink:href="#DejaVuSans-2d"/>
     <use x="888.916016" xlink:href="#DejaVuSans-44"/>
    </g>
    <!-- 58 targets: 1..-1.0e-4 -->
    <defs>
     <path d="M 10.796875 72.90625 
L 49.515625 72.90625 
L 49.515625 64.59375 
L 19.828125 64.59375 
L 19.828125 46.734375 
Q 21.96875 47.46875 24.109375 47.828125 
Q 26.265625 48.1875 28.421875 48.1875 
Q 40.625 48.1875 47.75 41.5 
Q 54.890625 34.8125 54.890625 23.390625 
Q 54.890625 11.625 47.5625 5.09375 
Q 40.234375 -1.421875 26.90625 -1.421875 
Q 22.3125 -1.421875 17.546875 -0.640625 
Q 12.796875 0.140625 7.71875 1.703125 
L 7.71875 11.625 
Q 12.109375 9.234375 16.796875 8.0625 
Q 21.484375 6.890625 26.703125 6.890625 
Q 35.15625 6.890625 40.078125 11.328125 
Q 45.015625 15.765625 45.015625 23.390625 
Q 45.015625 31 40.078125 35.4375 
Q 35.15625 39.890625 26.703125 39.890625 
Q 22.75 39.890625 18.8125 39.015625 
Q 14.890625 38.140625 10.796875 36.28125 
z
" id="DejaVuSans-35"/>
     <path d="M 11.71875 12.40625 
L 22.015625 12.40625 
L 22.015625 0 
L 11.71875 0 
z
M 11.71875 51.703125 
L 22.015625 51.703125 
L 22.015625 39.3125 
L 11.71875 39.3125 
z
" id="DejaVuSans-3a"/>
    </defs>
    <g transform="translate(60.27144 46.705375)scale(0.102 -0.102)">
     <use xlink:href="#DejaVuSans-35"/>
     <use x="63.623047" xlink:href="#DejaVuSans-38"/>
     <use x="127.246094" xlink:href="#DejaVuSans-20"/>
     <use x="159.033203" xlink:href="#DejaVuSans-74"/>
     <use x="198.242188" xlink:href="#DejaVuSans-61"/>
     <use x="259.521484" xlink:href="#DejaVuSans-72"/>
     <use x="300.619141" xlink:href="#DejaVuSans-67"/>
     <use x="364.095703" xlink:href="#DejaVuSans-65"/>
     <use x="425.619141" xlink:href="#DejaVuSans-74"/>
     <use x="464.828125" xlink:href="#DejaVuSans-73"/>
     <use x="516.927734" xlink:href="#DejaVuSans-3a"/>
     <use x="550.619141" xlink:href="#DejaVuSans-20"/>
     <use x="582.40625" xlink:href="#DejaVuSans-31"/>
     <use x="646.029297" xlink:href="#DejaVuSans-2e"/>
     <use x="677.816406" xlink:href="#DejaVuSans-2e"/>
     <use x="709.603516" xlink:href="#DejaVuSans-2d"/>
     <use x="745.6875" xlink:href="#DejaVuSans-31"/>
     <use x="809.310547" xlink:href="#DejaVuSans-2e"/>
     <use x="841.097656" xlink:href="#DejaVuSans-30"/>
     <use x="904.720703" xlink:href="#DejaVuSans-65"/>
     <use x="966.244141" xlink:href="#DejaVuSans-2d"/>
     <use x="1002.328125" xlink:href="#DejaVuSans-34"/>
    </g>
    <!-- 10 instances -->
    <g transform="translate(60.27144 58.127144)scale(0.102 -0.102)">
     <use xlink:href="#DejaVuSans-31"/>
     <use x="63.623047" xlink:href="#DejaVuSans-30"/>
     <use x="127.246094" xlink:href="#DejaVuSans-20"/>
     <use x="159.033203" xlink:href="#DejaVuSans-69"/>
     <use x="186.816406" xlink:href="#DejaVuSans-6e"/>
     <use x="250.195312" xlink:href="#DejaVuSans-73"/>
     <use x="302.294922" xlink:href="#DejaVuSans-74"/>
     <use x="341.503906" xlink:href="#DejaVuSans-61"/>
     <use x="402.783203" xlink:href="#DejaVuSans-6e"/>
     <use x="466.162109" xlink:href="#DejaVuSans-63"/>
     <use x="521.142578" xlink:href="#DejaVuSans-65"/>
     <use x="582.666016" xlink:href="#DejaVuSans-73"/>
    </g>
   </g>
   <g id="text_20">
    <!-- v2.2.1.10, hv-hash=ff0e71e8cd978373 -->
    <defs>
     <path d="M 54.890625 33.015625 
L 54.890625 0 
L 45.90625 0 
L 45.90625 32.71875 
Q 45.90625 40.484375 42.875 44.328125 
Q 39.84375 48.1875 33.796875 48.1875 
Q 26.515625 48.1875 22.3125 43.546875 
Q 18.109375 38.921875 18.109375 30.90625 
L 18.109375 0 
L 9.078125 0 
L 9.078125 75.984375 
L 18.109375 75.984375 
L 18.109375 46.1875 
Q 21.34375 51.125 25.703125 53.5625 
Q 30.078125 56 35.796875 56 
Q 45.21875 56 50.046875 50.171875 
Q 54.890625 44.34375 54.890625 33.015625 
" id="DejaVuSans-68"/>
     <path d="M 10.59375 45.40625 
L 73.1875 45.40625 
L 73.1875 37.203125 
L 10.59375 37.203125 
z
M 10.59375 25.484375 
L 73.1875 25.484375 
L 73.1875 17.1875 
L 10.59375 17.1875 
z
" id="DejaVuSans-3d"/>
     <path d="M 10.984375 1.515625 
L 10.984375 10.5 
Q 14.703125 8.734375 18.5 7.8125 
Q 22.3125 6.890625 25.984375 6.890625 
Q 35.75 6.890625 40.890625 13.453125 
Q 46.046875 20.015625 46.78125 33.40625 
Q 43.953125 29.203125 39.59375 26.953125 
Q 35.25 24.703125 29.984375 24.703125 
Q 19.046875 24.703125 12.671875 31.3125 
Q 6.296875 37.9375 6.296875 49.421875 
Q 6.296875 60.640625 12.9375 67.421875 
Q 19.578125 74.21875 30.609375 74.21875 
Q 43.265625 74.21875 49.921875 64.515625 
Q 56.59375 54.828125 56.59375 36.375 
Q 56.59375 19.140625 48.40625 8.859375 
Q 40.234375 -1.421875 26.421875 -1.421875 
Q 22.703125 -1.421875 18.890625 -0.6875 
Q 15.09375 0.046875 10.984375 1.515625 
M 30.609375 32.421875 
Q 37.25 32.421875 41.125 36.953125 
Q 45.015625 41.5 45.015625 49.421875 
Q 45.015625 57.28125 41.125 61.84375 
Q 37.25 66.40625 30.609375 66.40625 
Q 23.96875 66.40625 20.09375 61.84375 
Q 16.21875 57.28125 16.21875 49.421875 
Q 16.21875 41.5 20.09375 36.953125 
Q 23.96875 32.421875 30.609375 32.421875 
" id="DejaVuSans-39"/>
    </defs>
    <g style="fill:#808080;" transform="translate(130.065125 289.387113)scale(0.1 -0.1)">
     <use xlink:href="#DejaVuSans-76"/>
     <use x="59.179688" xlink:href="#DejaVuSans-32"/>
     <use x="122.802734" xlink:href="#DejaVuSans-2e"/>
     <use x="154.589844" xlink:href="#DejaVuSans-32"/>
     <use x="218.212891" xlink:href="#DejaVuSans-2e"/>
     <use x="250" xlink:href="#DejaVuSans-31"/>
     <use x="313.623047" xlink:href="#DejaVuSans-2e"/>
     <use x="345.410156" xlink:href="#DejaVuSans-31"/>
     <use x="409.033203" xlink:href="#DejaVuSans-30"/>
     <use x="472.65625" xlink:href="#DejaVuSans-2c"/>
     <use x="504.443359" xlink:href="#DejaVuSans-20"/>
     <use x="536.230469" xlink:href="#DejaVuSans-68"/>
     <use x="599.609375" xlink:href="#DejaVuSans-76"/>
     <use x="658.757812" xlink:href="#DejaVuSans-2d"/>
     <use x="694.841797" xlink:href="#DejaVuSans-68"/>
     <use x="758.220703" xlink:href="#DejaVuSans-61"/>
     <use x="819.5" xlink:href="#DejaVuSans-73"/>
     <use x="871.599609" xlink:href="#DejaVuSans-68"/>
     <use x="934.978516" xlink:href="#DejaVuSans-3d"/>
     <use x="1018.767578" xlink:href="#DejaVuSans-66"/>
     <use x="1053.972656" xlink:href="#DejaVuSans-66"/>
     <use x="1089.177734" xlink:href="#DejaVuSans-30"/>
     <use x="1152.800781" xlink:href="#DejaVuSans-65"/>
     <use x="1214.324219" xlink:href="#DejaVuSans-37"/>
     <use x="1277.947266" xlink:href="#DejaVuSans-31"/>
     <use x="1341.570312" xlink:href="#DejaVuSans-65"/>
     <use x="1403.09375" xlink:href="#DejaVuSans-38"/>
     <use x="1466.716797" xlink:href="#DejaVuSans-63"/>
     <use x="1521.697266" xlink:href="#DejaVuSans-64"/>
     <use x="1585.173828" xlink:href="#DejaVuSans-39"/>
     <use x="1648.796875" xlink:href="#DejaVuSans-37"/>
     <use x="1712.419922" xlink:href="#DejaVuSans-38"/>
     <use x="1776.042969" xlink:href="#DejaVuSans-33"/>
     <use x="1839.666016" xlink:href="#DejaVuSans-37"/>
     <use x="1903.289062" xlink:href="#DejaVuSans-33"/>
    </g>
   </g>
   <g id="text_21">
    <!-- 47 Rastrigin/Schaffer F7 -->
    <g transform="translate(107.6745 18.84)scale(0.2 -0.2)">
     <use xlink:href="#DejaVuSans-34"/>
     <use x="63.623047" xlink:href="#DejaVuSans-37"/>
     <use x="127.246094" xlink:href="#DejaVuSans-20"/>
     <use x="159.033203" xlink:href="#DejaVuSans-52"/>
     <use x="228.484375" xlink:href="#DejaVuSans-61"/>
     <use x="289.763672" xlink:href="#DejaVuSans-73"/>
     <use x="341.863281" xlink:href="#DejaVuSans-74"/>
     <use x="381.072266" xlink:href="#DejaVuSans-72"/>
     <use x="422.185547" xlink:href="#DejaVuSans-69"/>
     <use x="449.96875" xlink:href="#DejaVuSans-67"/>
     <use x="513.445312" xlink:href="#DejaVuSans-69"/>
     <use x="541.228516" xlink:href="#DejaVuSans-6e"/>
     <use x="604.607422" xlink:href="#DejaVuSans-2f"/>
     <use x="638.298828" xlink:href="#DejaVuSans-53"/>
     <use x="701.775391" xlink:href="#DejaVuSans-63"/>
     <use x="756.755859" xlink:href="#DejaVuSans-68"/>
     <use x="820.134766" xlink:href="#DejaVuSans-61"/>
     <use x="881.414062" xlink:href="#DejaVuSans-66"/>
     <use x="916.619141" xlink:href="#DejaVuSans-66"/>
     <use x="951.824219" xlink:href="#DejaVuSans-65"/>
     <use x="1013.347656" xlink:href="#DejaVuSans-72"/>
     <use x="1054.460938" xlink:href="#DejaVuSans-20"/>
     <use x="1086.248047" xlink:href="#DejaVuSans-46"/>
     <use x="1143.767578" xlink:href="#DejaVuSans-37"/>
    </g>
   </g>
  </g>
 </g>
 <defs>
  <clipPath id="p11c46f4f66">
   <rect height="269.32" width="343.144" x="56.84" y="24.84"/>
  </clipPath>
 </defs>
</svg>
