<?xml version="1.0" encoding="utf-8" standalone="no"?>
<!DOCTYPE svg PUBLIC "-//W3C//DTD SVG 1.1//EN"
  "http://www.w3.org/Graphics/SVG/1.1/DTD/svg11.dtd">
<!-- Created with matplotlib (http://matplotlib.org/) -->
<svg height="345pt" version="1.1" viewBox="0 0 460 345" width="460pt" xmlns="http://www.w3.org/2000/svg" xmlns:xlink="http://www.w3.org/1999/xlink">
 <defs>
  <style type="text/css">
*{stroke-linecap:butt;stroke-linejoin:round;}
  </style>
 </defs>
 <g id="figure_1">
  <g id="patch_1">
   <path d="M 0 345.6 
L 460.8 345.6 
L 460.8 0 
L 0 0 
z
" style="fill:#ffffff;"/>
  </g>
  <g id="axes_1">
   <g id="patch_2">
    <path d="M 56.84 294.16 
L 395.169 294.16 
L 395.169 24.84 
L 56.84 24.84 
z
" style="fill:#ffffff;"/>
   </g>
   <g id="line2d_1">
    <path d="M 53.062642 294.16 
L 53.062642 289.562526 
L 59.926326 289.562526 
L 59.926326 280.367579 
L 74.269324 280.367579 
L 74.269324 271.172632 
L 81.920495 271.172632 
L 81.920495 266.575159 
L 89.289529 266.575159 
L 89.289529 252.782738 
L 101.513773 252.782738 
L 101.513773 243.587791 
L 113.247319 243.587791 
L 113.247319 238.990318 
L 122.371413 238.990318 
L 122.371413 229.79537 
L 128.067191 229.79537 
L 128.067191 216.00295 
L 136.56259 216.00295 
L 136.56259 206.808003 
L 149.071141 206.808003 
L 149.071141 197.613056 
L 152.643309 197.613056 
L 152.643309 188.418109 
L 155.798309 188.418109 
L 155.798309 183.820635 
L 162.717382 183.820635 
L 162.717382 170.028214 
L 169.168384 170.028214 
L 169.168384 165.430741 
L 176.063149 165.430741 
L 176.063149 151.63832 
L 179.885399 151.63832 
L 179.885399 142.443373 
L 186.43311 142.443373 
L 186.43311 137.8459 
L 193.100124 137.8459 
L 193.100124 124.053479 
L 199.610637 124.053479 
L 199.610637 119.456005 
L 206.412645 119.456005 
L 206.412645 105.663585 
L 214.135458 105.663585 
L 214.135458 96.468638 
L 222.050491 96.468638 
L 222.050491 87.273691 
L 230.041558 87.273691 
L 230.041558 82.676217 
L 234.733096 82.676217 
L 234.733096 73.48127 
L 239.999613 73.48127 
L 239.999613 59.688849 
L 329.685968 59.688849 
" style="fill:none;stroke:#f5deb3;stroke-linecap:square;stroke-width:6;"/>
   </g>
   <g id="line2d_2">
    <defs>
     <path d="M -0 7.778175 
L 7.778175 0 
L 0 -7.778175 
L -7.778175 -0 
z
" id="m826edabd51" style="stroke:#f5deb3;stroke-linejoin:miter;stroke-width:1.5;"/>
    </defs>
    <g>
     <use style="fill:#f5deb3;stroke:#f5deb3;stroke-linejoin:miter;stroke-width:1.5;" x="128.067191" xlink:href="#m826edabd51" y="229.79537"/>
     <use style="fill:#f5deb3;stroke:#f5deb3;stroke-linejoin:miter;stroke-width:1.5;" x="186.43311" xlink:href="#m826edabd51" y="142.443373"/>
     <use style="fill:#f5deb3;stroke:#f5deb3;stroke-linejoin:miter;stroke-width:1.5;" x="222.050491" xlink:href="#m826edabd51" y="96.468638"/>
     <use style="fill:#f5deb3;stroke:#f5deb3;stroke-linejoin:miter;stroke-width:1.5;" x="239.999613" xlink:href="#m826edabd51" y="59.688849"/>
     <use style="fill:#f5deb3;stroke:#f5deb3;stroke-linejoin:miter;stroke-width:1.5;" x="239.999613" xlink:href="#m826edabd51" y="59.688849"/>
     <use style="fill:#f5deb3;stroke:#f5deb3;stroke-linejoin:miter;stroke-width:1.5;" x="329.685968" xlink:href="#m826edabd51" y="59.688849"/>
    </g>
   </g>
   <g id="line2d_3">
    <path style="fill:none;stroke:#f5deb3;stroke-linecap:square;stroke-width:6;"/>
    <g/>
   </g>
   <g id="line2d_4">
    <path d="M 329.685968 59.688849 
L 359.699024 32.839604 
" style="fill:none;stroke:#f5deb3;stroke-linecap:square;stroke-width:6;"/>
    <g>
     <use style="fill:#f5deb3;stroke:#f5deb3;stroke-linejoin:miter;stroke-width:1.5;" x="329.685968" xlink:href="#m826edabd51" y="59.688849"/>
     <use style="fill:#f5deb3;stroke:#f5deb3;stroke-linejoin:miter;stroke-width:1.5;" x="359.699024" xlink:href="#m826edabd51" y="32.839604"/>
    </g>
   </g>
   <g id="matplotlib.axis_1">
    <g id="xtick_1">
     <g id="line2d_5">
      <path clip-path="url(#pe38ede185c)" d="M 56.84 294.16 
L 56.84 24.84 
" style="fill:none;stroke:#b0b0b0;stroke-linecap:square;stroke-width:0.8;"/>
     </g>
     <g id="line2d_6">
      <defs>
       <path d="M 0 0 
L 0 3.5 
" id="mbda260845c" style="stroke:#000000;stroke-width:0.8;"/>
      </defs>
      <g>
       <use style="stroke:#000000;stroke-width:0.8;" x="56.84" xlink:href="#mbda260845c" y="294.16"/>
      </g>
     </g>
     <g id="text_1">
      <!-- 0 -->
      <defs>
       <path d="M 31.78125 66.40625 
Q 24.171875 66.40625 20.328125 58.90625 
Q 16.5 51.421875 16.5 36.375 
Q 16.5 21.390625 20.328125 13.890625 
Q 24.171875 6.390625 31.78125 6.390625 
Q 39.453125 6.390625 43.28125 13.890625 
Q 47.125 21.390625 47.125 36.375 
Q 47.125 51.421875 43.28125 58.90625 
Q 39.453125 66.40625 31.78125 66.40625 
M 31.78125 74.21875 
Q 44.046875 74.21875 50.515625 64.515625 
Q 56.984375 54.828125 56.984375 36.375 
Q 56.984375 17.96875 50.515625 8.265625 
Q 44.046875 -1.421875 31.78125 -1.421875 
Q 19.53125 -1.421875 13.0625 8.265625 
Q 6.59375 17.96875 6.59375 36.375 
Q 6.59375 54.828125 13.0625 64.515625 
Q 19.53125 74.21875 31.78125 74.21875 
" id="DejaVuSans-30"/>
      </defs>
      <g transform="translate(50.4775 316.356875)scale(0.2 -0.2)">
       <use xlink:href="#DejaVuSans-30"/>
      </g>
     </g>
    </g>
    <g id="xtick_2">
     <g id="line2d_7">
      <path clip-path="url(#pe38ede185c)" d="M 134.795991 294.16 
L 134.795991 24.84 
" style="fill:none;stroke:#b0b0b0;stroke-linecap:square;stroke-width:0.8;"/>
     </g>
     <g id="line2d_8">
      <g>
       <use style="stroke:#000000;stroke-width:0.8;" x="134.795991" xlink:href="#mbda260845c" y="294.16"/>
      </g>
     </g>
     <g id="text_2">
      <!-- 2 -->
      <defs>
       <path d="M 19.1875 8.296875 
L 53.609375 8.296875 
L 53.609375 0 
L 7.328125 0 
L 7.328125 8.296875 
Q 12.9375 14.109375 22.625 23.890625 
Q 32.328125 33.6875 34.8125 36.53125 
Q 39.546875 41.84375 41.421875 45.53125 
Q 43.3125 49.21875 43.3125 52.78125 
Q 43.3125 58.59375 39.234375 62.25 
Q 35.15625 65.921875 28.609375 65.921875 
Q 23.96875 65.921875 18.8125 64.3125 
Q 13.671875 62.703125 7.8125 59.421875 
L 7.8125 69.390625 
Q 13.765625 71.78125 18.9375 73 
Q 24.125 74.21875 28.421875 74.21875 
Q 39.75 74.21875 46.484375 68.546875 
Q 53.21875 62.890625 53.21875 53.421875 
Q 53.21875 48.921875 51.53125 44.890625 
Q 49.859375 40.875 45.40625 35.40625 
Q 44.1875 33.984375 37.640625 27.21875 
Q 31.109375 20.453125 19.1875 8.296875 
" id="DejaVuSans-32"/>
      </defs>
      <g transform="translate(128.433491 316.356875)scale(0.2 -0.2)">
       <use xlink:href="#DejaVuSans-32"/>
      </g>
     </g>
    </g>
    <g id="xtick_3">
     <g id="line2d_9">
      <path clip-path="url(#pe38ede185c)" d="M 212.751982 294.16 
L 212.751982 24.84 
" style="fill:none;stroke:#b0b0b0;stroke-linecap:square;stroke-width:0.8;"/>
     </g>
     <g id="line2d_10">
      <g>
       <use style="stroke:#000000;stroke-width:0.8;" x="212.751982" xlink:href="#mbda260845c" y="294.16"/>
      </g>
     </g>
     <g id="text_3">
      <!-- 4 -->
      <defs>
       <path d="M 37.796875 64.3125 
L 12.890625 25.390625 
L 37.796875 25.390625 
z
M 35.203125 72.90625 
L 47.609375 72.90625 
L 47.609375 25.390625 
L 58.015625 25.390625 
L 58.015625 17.1875 
L 47.609375 17.1875 
L 47.609375 0 
L 37.796875 0 
L 37.796875 17.1875 
L 4.890625 17.1875 
L 4.890625 26.703125 
z
" id="DejaVuSans-34"/>
      </defs>
      <g transform="translate(206.389482 316.356875)scale(0.2 -0.2)">
       <use xlink:href="#DejaVuSans-34"/>
      </g>
     </g>
    </g>
    <g id="xtick_4">
     <g id="line2d_11">
      <path clip-path="url(#pe38ede185c)" d="M 290.707972 294.16 
L 290.707972 24.84 
" style="fill:none;stroke:#b0b0b0;stroke-linecap:square;stroke-width:0.8;"/>
     </g>
     <g id="line2d_12">
      <g>
       <use style="stroke:#000000;stroke-width:0.8;" x="290.707972" xlink:href="#mbda260845c" y="294.16"/>
      </g>
     </g>
     <g id="text_4">
      <!-- 6 -->
      <defs>
       <path d="M 33.015625 40.375 
Q 26.375 40.375 22.484375 35.828125 
Q 18.609375 31.296875 18.609375 23.390625 
Q 18.609375 15.53125 22.484375 10.953125 
Q 26.375 6.390625 33.015625 6.390625 
Q 39.65625 6.390625 43.53125 10.953125 
Q 47.40625 15.53125 47.40625 23.390625 
Q 47.40625 31.296875 43.53125 35.828125 
Q 39.65625 40.375 33.015625 40.375 
M 52.59375 71.296875 
L 52.59375 62.3125 
Q 48.875 64.0625 45.09375 64.984375 
Q 41.3125 65.921875 37.59375 65.921875 
Q 27.828125 65.921875 22.671875 59.328125 
Q 17.53125 52.734375 16.796875 39.40625 
Q 19.671875 43.65625 24.015625 45.921875 
Q 28.375 48.1875 33.59375 48.1875 
Q 44.578125 48.1875 50.953125 41.515625 
Q 57.328125 34.859375 57.328125 23.390625 
Q 57.328125 12.15625 50.6875 5.359375 
Q 44.046875 -1.421875 33.015625 -1.421875 
Q 20.359375 -1.421875 13.671875 8.265625 
Q 6.984375 17.96875 6.984375 36.375 
Q 6.984375 53.65625 15.1875 63.9375 
Q 23.390625 74.21875 37.203125 74.21875 
Q 40.921875 74.21875 44.703125 73.484375 
Q 48.484375 72.75 52.59375 71.296875 
" id="DejaVuSans-36"/>
      </defs>
      <g transform="translate(284.345472 316.356875)scale(0.2 -0.2)">
       <use xlink:href="#DejaVuSans-36"/>
      </g>
     </g>
    </g>
    <g id="xtick_5">
     <g id="line2d_13">
      <path clip-path="url(#pe38ede185c)" d="M 368.663963 294.16 
L 368.663963 24.84 
" style="fill:none;stroke:#b0b0b0;stroke-linecap:square;stroke-width:0.8;"/>
     </g>
     <g id="line2d_14">
      <g>
       <use style="stroke:#000000;stroke-width:0.8;" x="368.663963" xlink:href="#mbda260845c" y="294.16"/>
      </g>
     </g>
     <g id="text_5">
      <!-- 8 -->
      <defs>
       <path d="M 31.78125 34.625 
Q 24.75 34.625 20.71875 30.859375 
Q 16.703125 27.09375 16.703125 20.515625 
Q 16.703125 13.921875 20.71875 10.15625 
Q 24.75 6.390625 31.78125 6.390625 
Q 38.8125 6.390625 42.859375 10.171875 
Q 46.921875 13.96875 46.921875 20.515625 
Q 46.921875 27.09375 42.890625 30.859375 
Q 38.875 34.625 31.78125 34.625 
M 21.921875 38.8125 
Q 15.578125 40.375 12.03125 44.71875 
Q 8.5 49.078125 8.5 55.328125 
Q 8.5 64.0625 14.71875 69.140625 
Q 20.953125 74.21875 31.78125 74.21875 
Q 42.671875 74.21875 48.875 69.140625 
Q 55.078125 64.0625 55.078125 55.328125 
Q 55.078125 49.078125 51.53125 44.71875 
Q 48 40.375 41.703125 38.8125 
Q 48.828125 37.15625 52.796875 32.3125 
Q 56.78125 27.484375 56.78125 20.515625 
Q 56.78125 9.90625 50.3125 4.234375 
Q 43.84375 -1.421875 31.78125 -1.421875 
Q 19.734375 -1.421875 13.25 4.234375 
Q 6.78125 9.90625 6.78125 20.515625 
Q 6.78125 27.484375 10.78125 32.3125 
Q 14.796875 37.15625 21.921875 38.8125 
M 18.3125 54.390625 
Q 18.3125 48.734375 21.84375 45.5625 
Q 25.390625 42.390625 31.78125 42.390625 
Q 38.140625 42.390625 41.71875 45.5625 
Q 45.3125 48.734375 45.3125 54.390625 
Q 45.3125 60.0625 41.71875 63.234375 
Q 38.140625 66.40625 31.78125 66.40625 
Q 25.390625 66.40625 21.84375 63.234375 
Q 18.3125 60.0625 18.3125 54.390625 
" id="DejaVuSans-38"/>
      </defs>
      <g transform="translate(362.301463 316.356875)scale(0.2 -0.2)">
       <use xlink:href="#DejaVuSans-38"/>
      </g>
     </g>
    </g>
    <g id="xtick_6">
     <g id="line2d_15">
      <defs>
       <path d="M 0 0 
L 0 2 
" id="m860eafe4cb" style="stroke:#000000;stroke-width:0.6;"/>
      </defs>
      <g>
       <use style="stroke:#000000;stroke-width:0.6;" x="68.573546" xlink:href="#m860eafe4cb" y="294.16"/>
      </g>
     </g>
    </g>
    <g id="xtick_7">
     <g id="line2d_16">
      <g>
       <use style="stroke:#000000;stroke-width:0.6;" x="80.307092" xlink:href="#m860eafe4cb" y="294.16"/>
      </g>
     </g>
    </g>
    <g id="xtick_8">
     <g id="line2d_17">
      <g>
       <use style="stroke:#000000;stroke-width:0.6;" x="87.170776" xlink:href="#m860eafe4cb" y="294.16"/>
      </g>
     </g>
    </g>
    <g id="xtick_9">
     <g id="line2d_18">
      <g>
       <use style="stroke:#000000;stroke-width:0.6;" x="92.040637" xlink:href="#m860eafe4cb" y="294.16"/>
      </g>
     </g>
    </g>
    <g id="xtick_10">
     <g id="line2d_19">
      <g>
       <use style="stroke:#000000;stroke-width:0.6;" x="146.529537" xlink:href="#m860eafe4cb" y="294.16"/>
      </g>
     </g>
    </g>
    <g id="xtick_11">
     <g id="line2d_20">
      <g>
       <use style="stroke:#000000;stroke-width:0.6;" x="158.263082" xlink:href="#m860eafe4cb" y="294.16"/>
      </g>
     </g>
    </g>
    <g id="xtick_12">
     <g id="line2d_21">
      <g>
       <use style="stroke:#000000;stroke-width:0.6;" x="165.126767" xlink:href="#m860eafe4cb" y="294.16"/>
      </g>
     </g>
    </g>
    <g id="xtick_13">
     <g id="line2d_22">
      <g>
       <use style="stroke:#000000;stroke-width:0.6;" x="169.996628" xlink:href="#m860eafe4cb" y="294.16"/>
      </g>
     </g>
    </g>
    <g id="xtick_14">
     <g id="line2d_23">
      <g>
       <use style="stroke:#000000;stroke-width:0.6;" x="224.485527" xlink:href="#m860eafe4cb" y="294.16"/>
      </g>
     </g>
    </g>
    <g id="xtick_15">
     <g id="line2d_24">
      <g>
       <use style="stroke:#000000;stroke-width:0.6;" x="236.219073" xlink:href="#m860eafe4cb" y="294.16"/>
      </g>
     </g>
    </g>
    <g id="xtick_16">
     <g id="line2d_25">
      <g>
       <use style="stroke:#000000;stroke-width:0.6;" x="243.082757" xlink:href="#m860eafe4cb" y="294.16"/>
      </g>
     </g>
    </g>
    <g id="xtick_17">
     <g id="line2d_26">
      <g>
       <use style="stroke:#000000;stroke-width:0.6;" x="247.952619" xlink:href="#m860eafe4cb" y="294.16"/>
      </g>
     </g>
    </g>
    <g id="xtick_18">
     <g id="line2d_27">
      <g>
       <use style="stroke:#000000;stroke-width:0.6;" x="302.441518" xlink:href="#m860eafe4cb" y="294.16"/>
      </g>
     </g>
    </g>
    <g id="xtick_19">
     <g id="line2d_28">
      <g>
       <use style="stroke:#000000;stroke-width:0.6;" x="314.175064" xlink:href="#m860eafe4cb" y="294.16"/>
      </g>
     </g>
    </g>
    <g id="xtick_20">
     <g id="line2d_29">
      <g>
       <use style="stroke:#000000;stroke-width:0.6;" x="321.038748" xlink:href="#m860eafe4cb" y="294.16"/>
      </g>
     </g>
    </g>
    <g id="xtick_21">
     <g id="line2d_30">
      <g>
       <use style="stroke:#000000;stroke-width:0.6;" x="325.90861" xlink:href="#m860eafe4cb" y="294.16"/>
      </g>
     </g>
    </g>
    <g id="xtick_22">
     <g id="line2d_31">
      <g>
       <use style="stroke:#000000;stroke-width:0.6;" x="380.397509" xlink:href="#m860eafe4cb" y="294.16"/>
      </g>
     </g>
    </g>
    <g id="xtick_23">
     <g id="line2d_32">
      <g>
       <use style="stroke:#000000;stroke-width:0.6;" x="392.131055" xlink:href="#m860eafe4cb" y="294.16"/>
      </g>
     </g>
    </g>
    <g id="text_6">
     <!-- log10(# f-evals / dimension) -->
     <defs>
      <path d="M 9.421875 75.984375 
L 18.40625 75.984375 
L 18.40625 0 
L 9.421875 0 
z
" id="DejaVuSans-6c"/>
      <path d="M 30.609375 48.390625 
Q 23.390625 48.390625 19.1875 42.75 
Q 14.984375 37.109375 14.984375 27.296875 
Q 14.984375 17.484375 19.15625 11.84375 
Q 23.34375 6.203125 30.609375 6.203125 
Q 37.796875 6.203125 41.984375 11.859375 
Q 46.1875 17.53125 46.1875 27.296875 
Q 46.1875 37.015625 41.984375 42.703125 
Q 37.796875 48.390625 30.609375 48.390625 
M 30.609375 56 
Q 42.328125 56 49.015625 48.375 
Q 55.71875 40.765625 55.71875 27.296875 
Q 55.71875 13.875 49.015625 6.21875 
Q 42.328125 -1.421875 30.609375 -1.421875 
Q 18.84375 -1.421875 12.171875 6.21875 
Q 5.515625 13.875 5.515625 27.296875 
Q 5.515625 40.765625 12.171875 48.375 
Q 18.84375 56 30.609375 56 
" id="DejaVuSans-6f"/>
      <path d="M 45.40625 27.984375 
Q 45.40625 37.75 41.375 43.109375 
Q 37.359375 48.484375 30.078125 48.484375 
Q 22.859375 48.484375 18.828125 43.109375 
Q 14.796875 37.75 14.796875 27.984375 
Q 14.796875 18.265625 18.828125 12.890625 
Q 22.859375 7.515625 30.078125 7.515625 
Q 37.359375 7.515625 41.375 12.890625 
Q 45.40625 18.265625 45.40625 27.984375 
M 54.390625 6.78125 
Q 54.390625 -7.171875 48.1875 -13.984375 
Q 42 -20.796875 29.203125 -20.796875 
Q 24.46875 -20.796875 20.265625 -20.09375 
Q 16.0625 -19.390625 12.109375 -17.921875 
L 12.109375 -9.1875 
Q 16.0625 -11.328125 19.921875 -12.34375 
Q 23.78125 -13.375 27.78125 -13.375 
Q 36.625 -13.375 41.015625 -8.765625 
Q 45.40625 -4.15625 45.40625 5.171875 
L 45.40625 9.625 
Q 42.625 4.78125 38.28125 2.390625 
Q 33.9375 0 27.875 0 
Q 17.828125 0 11.671875 7.65625 
Q 5.515625 15.328125 5.515625 27.984375 
Q 5.515625 40.671875 11.671875 48.328125 
Q 17.828125 56 27.875 56 
Q 33.9375 56 38.28125 53.609375 
Q 42.625 51.21875 45.40625 46.390625 
L 45.40625 54.6875 
L 54.390625 54.6875 
z
" id="DejaVuSans-67"/>
      <path d="M 12.40625 8.296875 
L 28.515625 8.296875 
L 28.515625 63.921875 
L 10.984375 60.40625 
L 10.984375 69.390625 
L 28.421875 72.90625 
L 38.28125 72.90625 
L 38.28125 8.296875 
L 54.390625 8.296875 
L 54.390625 0 
L 12.40625 0 
z
" id="DejaVuSans-31"/>
      <path d="M 31 75.875 
Q 24.46875 64.65625 21.28125 53.65625 
Q 18.109375 42.671875 18.109375 31.390625 
Q 18.109375 20.125 21.3125 9.0625 
Q 24.515625 -2 31 -13.1875 
L 23.1875 -13.1875 
Q 15.875 -1.703125 12.234375 9.375 
Q 8.59375 20.453125 8.59375 31.390625 
Q 8.59375 42.28125 12.203125 53.3125 
Q 15.828125 64.359375 23.1875 75.875 
z
" id="DejaVuSans-28"/>
      <path d="M 51.125 44 
L 36.921875 44 
L 32.8125 27.6875 
L 47.125 27.6875 
z
M 43.796875 71.78125 
L 38.71875 51.515625 
L 52.984375 51.515625 
L 58.109375 71.78125 
L 65.921875 71.78125 
L 60.890625 51.515625 
L 76.125 51.515625 
L 76.125 44 
L 58.984375 44 
L 54.984375 27.6875 
L 70.515625 27.6875 
L 70.515625 20.21875 
L 53.078125 20.21875 
L 48 0 
L 40.1875 0 
L 45.21875 20.21875 
L 30.90625 20.21875 
L 25.875 0 
L 18.015625 0 
L 23.09375 20.21875 
L 7.71875 20.21875 
L 7.71875 27.6875 
L 24.90625 27.6875 
L 29 44 
L 13.28125 44 
L 13.28125 51.515625 
L 30.90625 51.515625 
L 35.890625 71.78125 
z
" id="DejaVuSans-23"/>
      <path id="DejaVuSans-20"/>
      <path d="M 37.109375 75.984375 
L 37.109375 68.5 
L 28.515625 68.5 
Q 23.6875 68.5 21.796875 66.546875 
Q 19.921875 64.59375 19.921875 59.515625 
L 19.921875 54.6875 
L 34.71875 54.6875 
L 34.71875 47.703125 
L 19.921875 47.703125 
L 19.921875 0 
L 10.890625 0 
L 10.890625 47.703125 
L 2.296875 47.703125 
L 2.296875 54.6875 
L 10.890625 54.6875 
L 10.890625 58.5 
Q 10.890625 67.625 15.140625 71.796875 
Q 19.390625 75.984375 28.609375 75.984375 
z
" id="DejaVuSans-66"/>
      <path d="M 4.890625 31.390625 
L 31.203125 31.390625 
L 31.203125 23.390625 
L 4.890625 23.390625 
z
" id="DejaVuSans-2d"/>
      <path d="M 56.203125 29.59375 
L 56.203125 25.203125 
L 14.890625 25.203125 
Q 15.484375 15.921875 20.484375 11.0625 
Q 25.484375 6.203125 34.421875 6.203125 
Q 39.59375 6.203125 44.453125 7.46875 
Q 49.3125 8.734375 54.109375 11.28125 
L 54.109375 2.78125 
Q 49.265625 0.734375 44.1875 -0.34375 
Q 39.109375 -1.421875 33.890625 -1.421875 
Q 20.796875 -1.421875 13.15625 6.1875 
Q 5.515625 13.8125 5.515625 26.8125 
Q 5.515625 40.234375 12.765625 48.109375 
Q 20.015625 56 32.328125 56 
Q 43.359375 56 49.78125 48.890625 
Q 56.203125 41.796875 56.203125 29.59375 
M 47.21875 32.234375 
Q 47.125 39.59375 43.09375 43.984375 
Q 39.0625 48.390625 32.421875 48.390625 
Q 24.90625 48.390625 20.390625 44.140625 
Q 15.875 39.890625 15.1875 32.171875 
z
" id="DejaVuSans-65"/>
      <path d="M 2.984375 54.6875 
L 12.5 54.6875 
L 29.59375 8.796875 
L 46.6875 54.6875 
L 56.203125 54.6875 
L 35.6875 0 
L 23.484375 0 
z
" id="DejaVuSans-76"/>
      <path d="M 34.28125 27.484375 
Q 23.390625 27.484375 19.1875 25 
Q 14.984375 22.515625 14.984375 16.5 
Q 14.984375 11.71875 18.140625 8.90625 
Q 21.296875 6.109375 26.703125 6.109375 
Q 34.1875 6.109375 38.703125 11.40625 
Q 43.21875 16.703125 43.21875 25.484375 
L 43.21875 27.484375 
z
M 52.203125 31.203125 
L 52.203125 0 
L 43.21875 0 
L 43.21875 8.296875 
Q 40.140625 3.328125 35.546875 0.953125 
Q 30.953125 -1.421875 24.3125 -1.421875 
Q 15.921875 -1.421875 10.953125 3.296875 
Q 6 8.015625 6 15.921875 
Q 6 25.140625 12.171875 29.828125 
Q 18.359375 34.515625 30.609375 34.515625 
L 43.21875 34.515625 
L 43.21875 35.40625 
Q 43.21875 41.609375 39.140625 45 
Q 35.0625 48.390625 27.6875 48.390625 
Q 23 48.390625 18.546875 47.265625 
Q 14.109375 46.140625 10.015625 43.890625 
L 10.015625 52.203125 
Q 14.9375 54.109375 19.578125 55.046875 
Q 24.21875 56 28.609375 56 
Q 40.484375 56 46.34375 49.84375 
Q 52.203125 43.703125 52.203125 31.203125 
" id="DejaVuSans-61"/>
      <path d="M 44.28125 53.078125 
L 44.28125 44.578125 
Q 40.484375 46.53125 36.375 47.5 
Q 32.28125 48.484375 27.875 48.484375 
Q 21.1875 48.484375 17.84375 46.4375 
Q 14.5 44.390625 14.5 40.28125 
Q 14.5 37.15625 16.890625 35.375 
Q 19.28125 33.59375 26.515625 31.984375 
L 29.59375 31.296875 
Q 39.15625 29.25 43.1875 25.515625 
Q 47.21875 21.78125 47.21875 15.09375 
Q 47.21875 7.46875 41.1875 3.015625 
Q 35.15625 -1.421875 24.609375 -1.421875 
Q 20.21875 -1.421875 15.453125 -0.5625 
Q 10.6875 0.296875 5.421875 2 
L 5.421875 11.28125 
Q 10.40625 8.6875 15.234375 7.390625 
Q 20.0625 6.109375 24.8125 6.109375 
Q 31.15625 6.109375 34.5625 8.28125 
Q 37.984375 10.453125 37.984375 14.40625 
Q 37.984375 18.0625 35.515625 20.015625 
Q 33.0625 21.96875 24.703125 23.78125 
L 21.578125 24.515625 
Q 13.234375 26.265625 9.515625 29.90625 
Q 5.8125 33.546875 5.8125 39.890625 
Q 5.8125 47.609375 11.28125 51.796875 
Q 16.75 56 26.8125 56 
Q 31.78125 56 36.171875 55.265625 
Q 40.578125 54.546875 44.28125 53.078125 
" id="DejaVuSans-73"/>
      <path d="M 25.390625 72.90625 
L 33.6875 72.90625 
L 8.296875 -9.28125 
L 0 -9.28125 
z
" id="DejaVuSans-2f"/>
      <path d="M 45.40625 46.390625 
L 45.40625 75.984375 
L 54.390625 75.984375 
L 54.390625 0 
L 45.40625 0 
L 45.40625 8.203125 
Q 42.578125 3.328125 38.25 0.953125 
Q 33.9375 -1.421875 27.875 -1.421875 
Q 17.96875 -1.421875 11.734375 6.484375 
Q 5.515625 14.40625 5.515625 27.296875 
Q 5.515625 40.1875 11.734375 48.09375 
Q 17.96875 56 27.875 56 
Q 33.9375 56 38.25 53.625 
Q 42.578125 51.265625 45.40625 46.390625 
M 14.796875 27.296875 
Q 14.796875 17.390625 18.875 11.75 
Q 22.953125 6.109375 30.078125 6.109375 
Q 37.203125 6.109375 41.296875 11.75 
Q 45.40625 17.390625 45.40625 27.296875 
Q 45.40625 37.203125 41.296875 42.84375 
Q 37.203125 48.484375 30.078125 48.484375 
Q 22.953125 48.484375 18.875 42.84375 
Q 14.796875 37.203125 14.796875 27.296875 
" id="DejaVuSans-64"/>
      <path d="M 9.421875 54.6875 
L 18.40625 54.6875 
L 18.40625 0 
L 9.421875 0 
z
M 9.421875 75.984375 
L 18.40625 75.984375 
L 18.40625 64.59375 
L 9.421875 64.59375 
z
" id="DejaVuSans-69"/>
      <path d="M 52 44.1875 
Q 55.375 50.25 60.0625 53.125 
Q 64.75 56 71.09375 56 
Q 79.640625 56 84.28125 50.015625 
Q 88.921875 44.046875 88.921875 33.015625 
L 88.921875 0 
L 79.890625 0 
L 79.890625 32.71875 
Q 79.890625 40.578125 77.09375 44.375 
Q 74.3125 48.1875 68.609375 48.1875 
Q 61.625 48.1875 57.5625 43.546875 
Q 53.515625 38.921875 53.515625 30.90625 
L 53.515625 0 
L 44.484375 0 
L 44.484375 32.71875 
Q 44.484375 40.625 41.703125 44.40625 
Q 38.921875 48.1875 33.109375 48.1875 
Q 26.21875 48.1875 22.15625 43.53125 
Q 18.109375 38.875 18.109375 30.90625 
L 18.109375 0 
L 9.078125 0 
L 9.078125 54.6875 
L 18.109375 54.6875 
L 18.109375 46.1875 
Q 21.1875 51.21875 25.484375 53.609375 
Q 29.78125 56 35.6875 56 
Q 41.65625 56 45.828125 52.96875 
Q 50 49.953125 52 44.1875 
" id="DejaVuSans-6d"/>
      <path d="M 54.890625 33.015625 
L 54.890625 0 
L 45.90625 0 
L 45.90625 32.71875 
Q 45.90625 40.484375 42.875 44.328125 
Q 39.84375 48.1875 33.796875 48.1875 
Q 26.515625 48.1875 22.3125 43.546875 
Q 18.109375 38.921875 18.109375 30.90625 
L 18.109375 0 
L 9.078125 0 
L 9.078125 54.6875 
L 18.109375 54.6875 
L 18.109375 46.1875 
Q 21.34375 51.125 25.703125 53.5625 
Q 30.078125 56 35.796875 56 
Q 45.21875 56 50.046875 50.171875 
Q 54.890625 44.34375 54.890625 33.015625 
" id="DejaVuSans-6e"/>
      <path d="M 8.015625 75.875 
L 15.828125 75.875 
Q 23.140625 64.359375 26.78125 53.3125 
Q 30.421875 42.28125 30.421875 31.390625 
Q 30.421875 20.453125 26.78125 9.375 
Q 23.140625 -1.703125 15.828125 -13.1875 
L 8.015625 -13.1875 
Q 14.5 -2 17.703125 9.0625 
Q 20.90625 20.125 20.90625 31.390625 
Q 20.90625 42.671875 17.703125 53.65625 
Q 14.5 64.65625 8.015625 75.875 
" id="DejaVuSans-29"/>
     </defs>
     <g transform="translate(105.163719 337.433594)scale(0.17 -0.17)">
      <use xlink:href="#DejaVuSans-6c"/>
      <use x="27.783203" xlink:href="#DejaVuSans-6f"/>
      <use x="88.964844" xlink:href="#DejaVuSans-67"/>
      <use x="152.441406" xlink:href="#DejaVuSans-31"/>
      <use x="216.064453" xlink:href="#DejaVuSans-30"/>
      <use x="279.6875" xlink:href="#DejaVuSans-28"/>
      <use x="318.701172" xlink:href="#DejaVuSans-23"/>
      <use x="402.490234" xlink:href="#DejaVuSans-20"/>
      <use x="434.277344" xlink:href="#DejaVuSans-66"/>
      <use x="469.404297" xlink:href="#DejaVuSans-2d"/>
      <use x="505.488281" xlink:href="#DejaVuSans-65"/>
      <use x="567.011719" xlink:href="#DejaVuSans-76"/>
      <use x="626.191406" xlink:href="#DejaVuSans-61"/>
      <use x="687.470703" xlink:href="#DejaVuSans-6c"/>
      <use x="715.253906" xlink:href="#DejaVuSans-73"/>
      <use x="767.353516" xlink:href="#DejaVuSans-20"/>
      <use x="799.140625" xlink:href="#DejaVuSans-2f"/>
      <use x="832.832031" xlink:href="#DejaVuSans-20"/>
      <use x="864.619141" xlink:href="#DejaVuSans-64"/>
      <use x="928.095703" xlink:href="#DejaVuSans-69"/>
      <use x="955.878906" xlink:href="#DejaVuSans-6d"/>
      <use x="1053.291016" xlink:href="#DejaVuSans-65"/>
      <use x="1114.814453" xlink:href="#DejaVuSans-6e"/>
      <use x="1178.193359" xlink:href="#DejaVuSans-73"/>
      <use x="1230.292969" xlink:href="#DejaVuSans-69"/>
      <use x="1258.076172" xlink:href="#DejaVuSans-6f"/>
      <use x="1319.257812" xlink:href="#DejaVuSans-6e"/>
      <use x="1382.636719" xlink:href="#DejaVuSans-29"/>
     </g>
    </g>
   </g>
   <g id="matplotlib.axis_2">
    <g id="ytick_1">
     <g id="line2d_33">
      <path clip-path="url(#pe38ede185c)" d="M 56.84 294.16 
L 395.169 294.16 
" style="fill:none;stroke:#b0b0b0;stroke-linecap:square;stroke-width:0.8;"/>
     </g>
     <g id="line2d_34">
      <defs>
       <path d="M 0 0 
L -3.5 0 
" id="me1893a517c" style="stroke:#000000;stroke-width:0.8;"/>
      </defs>
      <g>
       <use style="stroke:#000000;stroke-width:0.8;" x="56.84" xlink:href="#me1893a517c" y="294.16"/>
      </g>
     </g>
     <g id="text_7">
      <!-- 0.0 -->
      <defs>
       <path d="M 10.6875 12.40625 
L 21 12.40625 
L 21 0 
L 10.6875 0 
z
" id="DejaVuSans-2e"/>
      </defs>
      <g transform="translate(24.395 300.23875)scale(0.16 -0.16)">
       <use xlink:href="#DejaVuSans-30"/>
       <use x="63.623047" xlink:href="#DejaVuSans-2e"/>
       <use x="95.410156" xlink:href="#DejaVuSans-30"/>
      </g>
     </g>
    </g>
    <g id="ytick_2">
     <g id="line2d_35">
      <path clip-path="url(#pe38ede185c)" d="M 56.84 240.829307 
L 395.169 240.829307 
" style="fill:none;stroke:#b0b0b0;stroke-linecap:square;stroke-width:0.8;"/>
     </g>
     <g id="line2d_36">
      <g>
       <use style="stroke:#000000;stroke-width:0.8;" x="56.84" xlink:href="#me1893a517c" y="240.829307"/>
      </g>
     </g>
     <g id="text_8">
      <!-- 0.2 -->
      <g transform="translate(24.395 246.908057)scale(0.16 -0.16)">
       <use xlink:href="#DejaVuSans-30"/>
       <use x="63.623047" xlink:href="#DejaVuSans-2e"/>
       <use x="95.410156" xlink:href="#DejaVuSans-32"/>
      </g>
     </g>
    </g>
    <g id="ytick_3">
     <g id="line2d_37">
      <path clip-path="url(#pe38ede185c)" d="M 56.84 187.498614 
L 395.169 187.498614 
" style="fill:none;stroke:#b0b0b0;stroke-linecap:square;stroke-width:0.8;"/>
     </g>
     <g id="line2d_38">
      <g>
       <use style="stroke:#000000;stroke-width:0.8;" x="56.84" xlink:href="#me1893a517c" y="187.498614"/>
      </g>
     </g>
     <g id="text_9">
      <!-- 0.4 -->
      <g transform="translate(24.395 193.577364)scale(0.16 -0.16)">
       <use xlink:href="#DejaVuSans-30"/>
       <use x="63.623047" xlink:href="#DejaVuSans-2e"/>
       <use x="95.410156" xlink:href="#DejaVuSans-34"/>
      </g>
     </g>
    </g>
    <g id="ytick_4">
     <g id="line2d_39">
      <path clip-path="url(#pe38ede185c)" d="M 56.84 134.167921 
L 395.169 134.167921 
" style="fill:none;stroke:#b0b0b0;stroke-linecap:square;stroke-width:0.8;"/>
     </g>
     <g id="line2d_40">
      <g>
       <use style="stroke:#000000;stroke-width:0.8;" x="56.84" xlink:href="#me1893a517c" y="134.167921"/>
      </g>
     </g>
     <g id="text_10">
      <!-- 0.6 -->
      <g transform="translate(24.395 140.246671)scale(0.16 -0.16)">
       <use xlink:href="#DejaVuSans-30"/>
       <use x="63.623047" xlink:href="#DejaVuSans-2e"/>
       <use x="95.410156" xlink:href="#DejaVuSans-36"/>
      </g>
     </g>
    </g>
    <g id="ytick_5">
     <g id="line2d_41">
      <path clip-path="url(#pe38ede185c)" d="M 56.84 80.837228 
L 395.169 80.837228 
" style="fill:none;stroke:#b0b0b0;stroke-linecap:square;stroke-width:0.8;"/>
     </g>
     <g id="line2d_42">
      <g>
       <use style="stroke:#000000;stroke-width:0.8;" x="56.84" xlink:href="#me1893a517c" y="80.837228"/>
      </g>
     </g>
     <g id="text_11">
      <!-- 0.8 -->
      <g transform="translate(24.395 86.915978)scale(0.16 -0.16)">
       <use xlink:href="#DejaVuSans-30"/>
       <use x="63.623047" xlink:href="#DejaVuSans-2e"/>
       <use x="95.410156" xlink:href="#DejaVuSans-38"/>
      </g>
     </g>
    </g>
    <g id="ytick_6">
     <g id="line2d_43">
      <path clip-path="url(#pe38ede185c)" d="M 56.84 27.506535 
L 395.169 27.506535 
" style="fill:none;stroke:#b0b0b0;stroke-linecap:square;stroke-width:0.8;"/>
     </g>
     <g id="line2d_44">
      <g>
       <use style="stroke:#000000;stroke-width:0.8;" x="56.84" xlink:href="#me1893a517c" y="27.506535"/>
      </g>
     </g>
     <g id="text_12">
      <!-- 1.0 -->
      <g transform="translate(24.395 33.585285)scale(0.16 -0.16)">
       <use xlink:href="#DejaVuSans-31"/>
       <use x="63.623047" xlink:href="#DejaVuSans-2e"/>
       <use x="95.410156" xlink:href="#DejaVuSans-30"/>
      </g>
     </g>
    </g>
    <g id="text_13">
     <!-- Fraction of function,target pairs -->
     <defs>
      <path d="M 9.8125 72.90625 
L 51.703125 72.90625 
L 51.703125 64.59375 
L 19.671875 64.59375 
L 19.671875 43.109375 
L 48.578125 43.109375 
L 48.578125 34.8125 
L 19.671875 34.8125 
L 19.671875 0 
L 9.8125 0 
z
" id="DejaVuSans-46"/>
      <path d="M 41.109375 46.296875 
Q 39.59375 47.171875 37.8125 47.578125 
Q 36.03125 48 33.890625 48 
Q 26.265625 48 22.1875 43.046875 
Q 18.109375 38.09375 18.109375 28.8125 
L 18.109375 0 
L 9.078125 0 
L 9.078125 54.6875 
L 18.109375 54.6875 
L 18.109375 46.1875 
Q 20.953125 51.171875 25.484375 53.578125 
Q 30.03125 56 36.53125 56 
Q 37.453125 56 38.578125 55.875 
Q 39.703125 55.765625 41.0625 55.515625 
z
" id="DejaVuSans-72"/>
      <path d="M 48.78125 52.59375 
L 48.78125 44.1875 
Q 44.96875 46.296875 41.140625 47.34375 
Q 37.3125 48.390625 33.40625 48.390625 
Q 24.65625 48.390625 19.8125 42.84375 
Q 14.984375 37.3125 14.984375 27.296875 
Q 14.984375 17.28125 19.8125 11.734375 
Q 24.65625 6.203125 33.40625 6.203125 
Q 37.3125 6.203125 41.140625 7.25 
Q 44.96875 8.296875 48.78125 10.40625 
L 48.78125 2.09375 
Q 45.015625 0.34375 40.984375 -0.53125 
Q 36.96875 -1.421875 32.421875 -1.421875 
Q 20.0625 -1.421875 12.78125 6.34375 
Q 5.515625 14.109375 5.515625 27.296875 
Q 5.515625 40.671875 12.859375 48.328125 
Q 20.21875 56 33.015625 56 
Q 37.15625 56 41.109375 55.140625 
Q 45.0625 54.296875 48.78125 52.59375 
" id="DejaVuSans-63"/>
      <path d="M 18.3125 70.21875 
L 18.3125 54.6875 
L 36.8125 54.6875 
L 36.8125 47.703125 
L 18.3125 47.703125 
L 18.3125 18.015625 
Q 18.3125 11.328125 20.140625 9.421875 
Q 21.96875 7.515625 27.59375 7.515625 
L 36.8125 7.515625 
L 36.8125 0 
L 27.59375 0 
Q 17.1875 0 13.234375 3.875 
Q 9.28125 7.765625 9.28125 18.015625 
L 9.28125 47.703125 
L 2.6875 47.703125 
L 2.6875 54.6875 
L 9.28125 54.6875 
L 9.28125 70.21875 
z
" id="DejaVuSans-74"/>
      <path d="M 8.5 21.578125 
L 8.5 54.6875 
L 17.484375 54.6875 
L 17.484375 21.921875 
Q 17.484375 14.15625 20.5 10.265625 
Q 23.53125 6.390625 29.59375 6.390625 
Q 36.859375 6.390625 41.078125 11.03125 
Q 45.3125 15.671875 45.3125 23.6875 
L 45.3125 54.6875 
L 54.296875 54.6875 
L 54.296875 0 
L 45.3125 0 
L 45.3125 8.40625 
Q 42.046875 3.421875 37.71875 1 
Q 33.40625 -1.421875 27.6875 -1.421875 
Q 18.265625 -1.421875 13.375 4.4375 
Q 8.5 10.296875 8.5 21.578125 
M 31.109375 56 
z
" id="DejaVuSans-75"/>
      <path d="M 11.71875 12.40625 
L 22.015625 12.40625 
L 22.015625 4 
L 14.015625 -11.625 
L 7.71875 -11.625 
L 11.71875 4 
z
" id="DejaVuSans-2c"/>
      <path d="M 18.109375 8.203125 
L 18.109375 -20.796875 
L 9.078125 -20.796875 
L 9.078125 54.6875 
L 18.109375 54.6875 
L 18.109375 46.390625 
Q 20.953125 51.265625 25.265625 53.625 
Q 29.59375 56 35.59375 56 
Q 45.5625 56 51.78125 48.09375 
Q 58.015625 40.1875 58.015625 27.296875 
Q 58.015625 14.40625 51.78125 6.484375 
Q 45.5625 -1.421875 35.59375 -1.421875 
Q 29.59375 -1.421875 25.265625 0.953125 
Q 20.953125 3.328125 18.109375 8.203125 
M 48.6875 27.296875 
Q 48.6875 37.203125 44.609375 42.84375 
Q 40.53125 48.484375 33.40625 48.484375 
Q 26.265625 48.484375 22.1875 42.84375 
Q 18.109375 37.203125 18.109375 27.296875 
Q 18.109375 17.390625 22.1875 11.75 
Q 26.265625 6.109375 33.40625 6.109375 
Q 40.53125 6.109375 44.609375 11.75 
Q 48.6875 17.390625 48.6875 27.296875 
" id="DejaVuSans-70"/>
     </defs>
     <g transform="translate(16.859531 294.639375)rotate(-90)scale(0.17 -0.17)">
      <use xlink:href="#DejaVuSans-46"/>
      <use x="57.410156" xlink:href="#DejaVuSans-72"/>
      <use x="98.523438" xlink:href="#DejaVuSans-61"/>
      <use x="159.802734" xlink:href="#DejaVuSans-63"/>
      <use x="214.783203" xlink:href="#DejaVuSans-74"/>
      <use x="253.992188" xlink:href="#DejaVuSans-69"/>
      <use x="281.775391" xlink:href="#DejaVuSans-6f"/>
      <use x="342.957031" xlink:href="#DejaVuSans-6e"/>
      <use x="406.335938" xlink:href="#DejaVuSans-20"/>
      <use x="438.123047" xlink:href="#DejaVuSans-6f"/>
      <use x="499.304688" xlink:href="#DejaVuSans-66"/>
      <use x="534.509766" xlink:href="#DejaVuSans-20"/>
      <use x="566.296875" xlink:href="#DejaVuSans-66"/>
      <use x="601.501953" xlink:href="#DejaVuSans-75"/>
      <use x="664.880859" xlink:href="#DejaVuSans-6e"/>
      <use x="728.259766" xlink:href="#DejaVuSans-63"/>
      <use x="783.240234" xlink:href="#DejaVuSans-74"/>
      <use x="822.449219" xlink:href="#DejaVuSans-69"/>
      <use x="850.232422" xlink:href="#DejaVuSans-6f"/>
      <use x="911.414062" xlink:href="#DejaVuSans-6e"/>
      <use x="974.792969" xlink:href="#DejaVuSans-2c"/>
      <use x="1006.580078" xlink:href="#DejaVuSans-74"/>
      <use x="1045.789062" xlink:href="#DejaVuSans-61"/>
      <use x="1107.068359" xlink:href="#DejaVuSans-72"/>
      <use x="1148.166016" xlink:href="#DejaVuSans-67"/>
      <use x="1211.642578" xlink:href="#DejaVuSans-65"/>
      <use x="1273.166016" xlink:href="#DejaVuSans-74"/>
      <use x="1312.375" xlink:href="#DejaVuSans-20"/>
      <use x="1344.162109" xlink:href="#DejaVuSans-70"/>
      <use x="1407.638672" xlink:href="#DejaVuSans-61"/>
      <use x="1468.917969" xlink:href="#DejaVuSans-69"/>
      <use x="1496.701172" xlink:href="#DejaVuSans-72"/>
      <use x="1537.814453" xlink:href="#DejaVuSans-73"/>
     </g>
    </g>
   </g>
   <g id="line2d_45">
    <defs>
     <path d="M 0 1.5 
C 0.397805 1.5 0.77937 1.341951 1.06066 1.06066 
C 1.341951 0.77937 1.5 0.397805 1.5 0 
C 1.5 -0.397805 1.341951 -0.77937 1.06066 -1.06066 
C 0.77937 -1.341951 0.397805 -1.5 0 -1.5 
C -0.397805 -1.5 -0.77937 -1.341951 -1.06066 -1.06066 
C -1.341951 -0.77937 -1.5 -0.397805 -1.5 0 
C -1.5 0.397805 -1.341951 0.77937 -1.06066 1.06066 
C -0.77937 1.341951 -0.397805 1.5 0 1.5 
z
" id="me96d9c7e8e" style="stroke:#f5deb3;"/>
    </defs>
    <g>
     <use style="fill:#f5deb3;stroke:#f5deb3;" x="239.999613" xlink:href="#me96d9c7e8e" y="59.688849"/>
     <use style="fill:#f5deb3;stroke:#f5deb3;" x="239.999613" xlink:href="#me96d9c7e8e" y="59.688849"/>
    </g>
   </g>
   <g id="line2d_46">
    <defs>
     <path d="M 0 1.5 
C 0.397805 1.5 0.77937 1.341951 1.06066 1.06066 
C 1.341951 0.77937 1.5 0.397805 1.5 0 
C 1.5 -0.397805 1.341951 -0.77937 1.06066 -1.06066 
C 0.77937 -1.341951 0.397805 -1.5 0 -1.5 
C -0.397805 -1.5 -0.77937 -1.341951 -1.06066 -1.06066 
C -1.341951 -0.77937 -1.5 -0.397805 -1.5 0 
C -1.5 0.397805 -1.341951 0.77937 -1.06066 1.06066 
C -0.77937 1.341951 -0.397805 1.5 0 1.5 
z
" id="m3bd76b7c23" style="stroke:#000080;"/>
    </defs>
    <g>
     <use style="fill:#000080;stroke:#000080;" x="322.253269" xlink:href="#m3bd76b7c23" y="64.286323"/>
     <use style="fill:#000080;stroke:#000080;" x="322.253269" xlink:href="#m3bd76b7c23" y="64.286323"/>
    </g>
   </g>
   <g id="line2d_47">
    <path d="M 29.59555 294.16 
L 29.59555 286.804042 
L 131.600978 286.804042 
L 131.600978 286.344295 
L 133.748568 286.344295 
L 133.748568 285.884548 
L 138.654408 285.884548 
L 138.654408 284.965053 
L 139.00125 284.965053 
L 139.00125 283.585811 
L 139.750281 283.585811 
L 139.775528 280.827327 
L 140.564162 280.827327 
L 140.564162 279.907832 
L 140.755711 279.907832 
L 140.803261 278.068843 
L 141.27156 278.068843 
L 141.27156 277.149348 
L 141.883889 277.149348 
L 141.883889 276.229853 
L 142.170997 276.229853 
L 142.258368 274.390864 
L 142.794446 274.390864 
L 142.794446 273.931116 
L 143.334523 273.931116 
L 143.334523 273.471369 
L 144.074551 273.471369 
L 144.074551 273.011622 
L 144.365582 273.011622 
L 144.365582 271.63238 
L 145.062769 271.63238 
L 145.062769 270.253138 
L 145.301065 270.253138 
L 145.373717 267.954401 
L 145.518093 267.954401 
L 145.518093 267.494653 
L 145.679057 267.494653 
L 145.679057 266.575159 
L 145.943975 266.575159 
L 145.996465 265.195917 
L 146.187547 265.195917 
L 146.187547 264.736169 
L 146.563359 264.736169 
L 146.630801 263.816675 
L 146.697975 263.816675 
L 146.798239 260.598443 
L 146.84815 260.598443 
L 146.84815 259.678948 
L 147.144561 259.678948 
L 147.144561 258.759454 
L 147.258445 258.759454 
L 147.290842 257.839959 
L 147.611457 257.839959 
L 147.611457 256.920464 
L 147.847994 256.920464 
L 147.847994 253.242485 
L 148.417701 253.242485 
L 148.417701 252.782738 
L 149.201747 252.782738 
L 149.201747 252.322991 
L 149.644053 252.322991 
L 149.644053 251.403496 
L 149.923398 251.403496 
L 150.00631 248.185265 
L 150.655384 248.185265 
L 150.655384 246.806023 
L 151.19075 246.806023 
L 151.19075 245.886528 
L 151.597142 245.886528 
L 151.597142 244.967033 
L 151.969472 244.967033 
L 151.969472 244.507286 
L 152.702189 244.507286 
L 152.702189 244.047538 
L 152.842671 244.047538 
L 152.842671 243.587791 
L 152.993555 243.587791 
L 152.993555 243.128044 
L 153.449553 243.128044 
L 153.550482 241.289054 
L 153.606295 241.289054 
L 153.606295 240.36956 
L 154.03543 240.36956 
L 154.111316 238.53057 
L 154.95525 238.53057 
L 154.95525 237.611075 
L 155.611258 237.611075 
L 155.611258 237.151328 
L 155.895933 237.151328 
L 155.895933 235.772086 
L 156.242789 235.772086 
L 156.252323 233.473349 
L 156.823982 233.473349 
L 156.823982 233.013602 
L 157.368044 233.013602 
L 157.368044 231.63436 
L 157.68628 231.63436 
L 157.68628 230.255118 
L 158.439899 230.255118 
L 158.439899 227.956381 
L 158.556759 227.956381 
L 158.556759 227.036886 
L 158.747009 227.036886 
L 158.747009 226.117392 
L 160.331974 226.117392 
L 160.331974 225.657644 
L 160.746314 225.657644 
L 160.746314 225.197897 
L 162.094523 225.197897 
L 162.094523 224.73815 
L 163.198413 224.73815 
L 163.198413 223.818655 
L 163.752049 223.818655 
L 163.752049 223.358907 
L 165.812381 223.358907 
L 165.812381 222.439413 
L 166.171593 222.439413 
L 166.171593 221.519918 
L 167.716861 221.519918 
L 167.716861 219.680929 
L 168.367559 219.680929 
L 168.367559 219.221181 
L 170.94703 219.221181 
L 170.94703 218.301687 
L 171.52518 218.301687 
L 171.52518 217.841939 
L 173.352352 217.841939 
L 173.352352 217.382192 
L 174.215086 217.382192 
L 174.215086 216.922445 
L 175.02969 216.922445 
L 175.02969 215.083455 
L 177.106786 215.083455 
L 177.106786 214.16396 
L 179.642991 214.16396 
L 179.642991 212.784718 
L 179.781256 212.784718 
L 179.781256 212.324971 
L 180.309494 212.324971 
L 180.309494 210.945729 
L 182.845805 210.945729 
L 182.845805 210.485982 
L 183.742795 210.485982 
L 183.742795 209.566487 
L 184.499682 209.566487 
L 184.499682 208.646992 
L 187.695845 208.646992 
L 187.695845 207.727497 
L 188.254747 207.727497 
L 188.254747 207.26775 
L 188.460734 207.26775 
L 188.460734 206.808003 
L 189.736542 206.808003 
L 189.736542 204.969013 
L 190.741215 204.969013 
L 190.741215 204.509266 
L 191.900918 204.509266 
L 191.900918 203.130024 
L 193.935303 203.130024 
L 193.935303 202.670277 
L 194.538691 202.670277 
L 194.538691 202.210529 
L 194.782177 202.210529 
L 194.782177 200.831287 
L 196.900815 200.831287 
L 196.900815 199.452045 
L 197.284189 199.452045 
L 197.284189 198.072803 
L 198.274495 198.072803 
L 198.274495 196.693561 
L 199.970293 196.693561 
L 200.0601 195.314319 
L 200.231206 195.314319 
L 200.231206 194.394824 
L 201.526035 194.394824 
L 201.526035 193.475329 
L 202.015025 193.475329 
L 202.015025 193.015582 
L 202.133354 193.015582 
L 202.133354 192.555835 
L 202.727596 192.555835 
L 202.820379 191.176593 
L 202.905995 191.176593 
L 202.905995 190.257098 
L 203.109484 190.257098 
L 203.202583 189.337603 
L 203.234691 189.337603 
L 203.234691 188.418109 
L 203.621696 188.418109 
L 203.621696 187.958361 
L 204.432786 187.958361 
L 204.432786 187.038867 
L 204.606227 187.038867 
L 204.606227 185.659624 
L 205.190916 185.659624 
L 205.246918 184.280382 
L 205.359418 184.280382 
L 205.468051 180.602404 
L 205.969694 180.602404 
L 205.969694 178.763414 
L 206.220029 178.763414 
L 206.220029 177.843919 
L 206.489277 177.843919 
L 206.489277 176.464677 
L 206.61234 176.464677 
L 206.61234 174.625688 
L 207.265221 174.625688 
L 207.265221 173.706193 
L 210.276239 173.706193 
L 210.276239 173.246446 
L 210.910038 173.246446 
L 210.99288 172.326951 
L 211.660561 172.326951 
L 211.660561 171.867204 
L 211.79687 171.867204 
L 211.79687 169.568467 
L 212.136955 169.568467 
L 212.136955 168.648972 
L 212.679375 168.648972 
L 212.679375 167.729478 
L 212.814499 167.729478 
L 212.814499 166.350236 
L 213.488347 166.350236 
L 213.488347 164.970994 
L 214.231589 164.970994 
L 214.231589 164.511246 
L 214.666169 164.511246 
L 214.666169 163.591751 
L 215.778673 163.591751 
L 215.778673 163.132004 
L 218.789614 163.132004 
L 218.789614 162.212509 
L 219.617697 162.212509 
L 219.617697 161.752762 
L 220.663887 161.752762 
L 220.663887 161.293015 
L 225.913404 161.293015 
L 225.946045 159.913773 
L 228.504509 159.913773 
L 228.504509 159.454025 
L 228.732724 159.454025 
L 228.732724 158.994278 
L 228.882349 158.994278 
L 228.882349 158.534531 
L 229.850539 158.534531 
L 229.850539 158.074783 
L 229.998467 158.074783 
L 229.998467 157.615036 
L 230.556661 157.615036 
L 230.575809 155.316299 
L 231.770949 155.316299 
L 231.770949 154.396804 
L 234.323727 154.396804 
L 234.323727 152.557815 
L 239.156272 152.557815 
L 239.156272 151.178573 
L 241.40678 151.178573 
L 241.40678 150.718826 
L 241.866295 150.718826 
L 241.866295 150.259078 
L 243.417698 150.259078 
L 243.417698 149.339583 
L 244.914249 149.339583 
L 244.914249 148.879836 
L 245.664279 148.879836 
L 245.664279 147.960341 
L 247.429676 147.960341 
L 247.429676 146.581099 
L 248.540401 146.581099 
L 248.540401 145.661605 
L 251.808644 145.661605 
L 251.808644 145.201857 
L 252.020758 145.201857 
L 252.020758 144.74211 
L 252.301262 144.74211 
L 252.309508 143.822615 
L 252.470847 143.822615 
L 252.470847 143.362868 
L 252.665168 143.362868 
L 252.693113 141.523878 
L 252.846987 141.523878 
L 252.915624 140.604384 
L 253.26224 140.604384 
L 253.262426 137.8459 
L 253.645434 137.8459 
L 253.645434 137.386152 
L 255.605395 137.386152 
L 255.605395 136.926405 
L 255.84003 136.926405 
L 255.872134 136.00691 
L 256.908473 136.00691 
L 256.908473 135.547163 
L 257.999873 135.547163 
L 257.999873 135.087416 
L 259.079562 135.087416 
L 259.079562 134.627668 
L 259.814919 134.627668 
L 259.814919 134.167921 
L 260.703171 134.167921 
L 260.703191 133.248426 
L 262.849567 133.248426 
L 262.849567 132.788679 
L 263.753639 132.788679 
L 263.839931 131.869184 
L 263.939469 131.869184 
L 264.033269 128.650953 
L 265.215429 128.650953 
L 265.215429 128.191205 
L 265.530826 128.191205 
L 265.530826 127.731458 
L 265.644739 127.731458 
L 265.731527 126.811963 
L 265.888415 126.811963 
L 265.888415 125.892468 
L 266.888786 125.892468 
L 266.8888 124.972974 
L 267.079392 124.972974 
L 267.079392 124.513226 
L 267.985671 124.513226 
L 267.985671 124.053479 
L 269.921786 124.053479 
L 269.921786 123.593732 
L 270.580386 123.593732 
L 270.672799 120.835248 
L 270.69268 120.835248 
L 270.716474 118.996258 
L 270.85616 118.996258 
L 270.951316 118.076763 
L 270.992695 118.076763 
L 270.992695 117.617016 
L 271.516262 117.617016 
L 271.516304 116.697521 
L 271.813307 116.697521 
L 271.813307 116.237774 
L 271.98295 116.237774 
L 271.98296 115.318279 
L 272.822539 115.318279 
L 272.822568 114.398785 
L 274.89489 114.398785 
L 274.894899 113.47929 
L 275.42461 113.47929 
L 275.472918 108.881816 
L 275.668208 108.881816 
L 275.699533 107.962322 
L 276.097497 107.962322 
L 276.097497 107.502574 
L 276.997976 107.502574 
L 277.103166 106.58308 
L 277.35702 106.58308 
L 277.357035 105.663585 
L 277.610383 105.663585 
L 277.610383 105.203837 
L 278.733934 105.203837 
L 278.733969 103.824595 
L 279.157447 103.824595 
L 279.196186 101.985606 
L 279.699326 101.985606 
L 279.699326 101.525859 
L 279.883155 101.525859 
L 279.988703 100.146617 
L 280.430882 100.146617 
L 280.430913 99.227122 
L 282.220166 99.227122 
L 282.220166 98.767375 
L 282.398603 98.767375 
L 282.398603 98.307627 
L 283.283575 98.307627 
L 283.283575 97.84788 
L 284.8214 97.84788 
L 284.840305 96.928385 
L 284.960834 96.928385 
L 284.960834 96.468638 
L 285.401855 96.468638 
L 285.401855 96.00889 
L 285.787074 96.00889 
L 285.787115 95.089396 
L 285.939527 95.089396 
L 285.939527 94.629648 
L 286.284637 94.629648 
L 286.284637 94.169901 
L 286.782163 94.169901 
L 286.782202 93.250406 
L 287.051277 93.250406 
L 287.133352 91.871164 
L 287.185654 91.871164 
L 287.185654 91.411417 
L 287.388738 91.411417 
L 287.388738 90.95167 
L 287.50572 90.95167 
L 287.50572 90.491922 
L 287.912378 90.491922 
L 287.912378 90.032175 
L 288.792996 90.032175 
L 288.792996 89.572427 
L 289.034374 89.572427 
L 289.034419 88.652933 
L 289.497104 88.652933 
L 289.497104 88.193185 
L 289.800268 88.193185 
L 289.800268 87.733438 
L 290.590144 87.733438 
L 290.590144 87.273691 
L 290.900341 87.273691 
L 290.900375 86.354196 
L 291.453754 86.354196 
L 291.498535 85.434701 
L 292.214644 85.434701 
L 292.214662 84.515207 
L 292.412789 84.515207 
L 292.424684 83.595712 
L 293.001056 83.595712 
L 293.041933 82.676217 
L 293.141438 82.676217 
L 293.141438 82.21647 
L 293.69681 82.21647 
L 293.69681 81.756722 
L 293.877885 81.756722 
L 293.95545 79.917733 
L 294.456292 79.917733 
L 294.456292 79.457986 
L 295.275806 79.457986 
L 295.308169 78.538491 
L 295.761563 78.538491 
L 295.76157 77.618996 
L 296.320813 77.618996 
L 296.320813 77.159249 
L 296.485806 77.159249 
L 296.521574 75.780007 
L 296.973307 75.780007 
L 296.973307 75.320259 
L 297.494495 75.320259 
L 297.494495 74.860512 
L 298.10409 74.860512 
L 298.10409 74.400765 
L 298.592093 74.400765 
L 298.592093 73.941017 
L 298.732696 73.941017 
L 298.736461 72.561775 
L 299.164042 72.561775 
L 299.164042 72.102028 
L 299.758734 72.102028 
L 299.812991 71.182533 
L 302.384652 71.182533 
L 302.384652 70.722786 
L 304.144783 70.722786 
L 304.144783 70.263039 
L 304.758514 70.263039 
L 304.758514 69.803291 
L 305.56316 69.803291 
L 305.56316 69.343544 
L 306.541883 69.343544 
L 306.541883 68.883797 
L 307.584753 68.883797 
L 307.584753 68.424049 
L 308.198254 68.424049 
L 308.198254 67.964302 
L 308.693381 67.964302 
L 308.693381 67.504554 
L 309.899513 67.504554 
L 309.899513 67.044807 
L 310.460763 67.044807 
L 310.460763 66.58506 
L 311.487312 66.58506 
L 311.487312 66.125312 
L 312.888899 66.125312 
L 312.888899 65.665565 
L 313.798928 65.665565 
L 313.798928 65.205818 
L 314.623729 65.205818 
L 314.623729 64.74607 
L 322.253269 64.74607 
L 322.253269 64.286323 
L 329.685968 64.286323 
L 329.685968 64.286323 
" style="fill:none;stroke:#000080;stroke-linecap:square;stroke-width:1.5;"/>
   </g>
   <g id="line2d_48">
    <defs>
     <path d="M 0 6 
C 1.591219 6 3.117479 5.367802 4.242641 4.242641 
C 5.367802 3.117479 6 1.591219 6 0 
C 6 -1.591219 5.367802 -3.117479 4.242641 -4.242641 
C 3.117479 -5.367802 1.591219 -6 0 -6 
C -1.591219 -6 -3.117479 -5.367802 -4.242641 -4.242641 
C -5.367802 -3.117479 -6 -1.591219 -6 0 
C -6 1.591219 -5.367802 3.117479 -4.242641 4.242641 
C -3.117479 5.367802 -1.591219 6 0 6 
z
" id="m2800d16117" style="stroke:#000080;stroke-width:1.5;"/>
    </defs>
    <g>
     <use style="fill:none;stroke:#000080;stroke-width:1.5;" x="166.171593" xlink:href="#m2800d16117" y="222.439413"/>
     <use style="fill:none;stroke:#000080;stroke-width:1.5;" x="206.489277" xlink:href="#m2800d16117" y="176.464677"/>
     <use style="fill:none;stroke:#000080;stroke-width:1.5;" x="277.610383" xlink:href="#m2800d16117" y="105.203837"/>
     <use style="fill:none;stroke:#000080;stroke-width:1.5;" x="322.253269" xlink:href="#m2800d16117" y="64.286323"/>
     <use style="fill:none;stroke:#000080;stroke-width:1.5;" x="329.685968" xlink:href="#m2800d16117" y="64.286323"/>
    </g>
   </g>
   <g id="line2d_49">
    <path style="fill:none;stroke:#000080;stroke-linecap:square;stroke-width:1.5;"/>
    <g/>
   </g>
   <g id="line2d_50">
    <path clip-path="url(#pe38ede185c)" d="M 251.733938 145.661605 
" style="fill:none;stroke:#000080;stroke-linecap:square;stroke-width:1.5;"/>
    <defs>
     <path d="M -12 12 
L 12 -12 
M -12 -12 
L 12 12 
" id="m2b3ce3201d" style="stroke:#000080;stroke-width:3;"/>
    </defs>
    <g clip-path="url(#pe38ede185c)">
     <use style="fill:#000080;stroke:#000080;stroke-width:3;" x="251.733938" xlink:href="#m2b3ce3201d" y="145.661605"/>
    </g>
   </g>
   <g id="line2d_51">
    <defs>
     <path d="M 0 1.5 
C 0.397805 1.5 0.77937 1.341951 1.06066 1.06066 
C 1.341951 0.77937 1.5 0.397805 1.5 0 
C 1.5 -0.397805 1.341951 -0.77937 1.06066 -1.06066 
C 0.77937 -1.341951 0.397805 -1.5 0 -1.5 
C -0.397805 -1.5 -0.77937 -1.341951 -1.06066 -1.06066 
C -1.341951 -0.77937 -1.5 -0.397805 -1.5 0 
C -1.5 0.397805 -1.341951 0.77937 -1.06066 1.06066 
C -0.77937 1.341951 -0.397805 1.5 0 1.5 
z
" id="mc01ae1ddda" style="stroke:#ff00ff;"/>
    </defs>
    <g>
     <use style="fill:#ff00ff;stroke:#ff00ff;" x="352.339971" xlink:href="#mc01ae1ddda" y="105.663585"/>
     <use style="fill:#ff00ff;stroke:#ff00ff;" x="352.339971" xlink:href="#mc01ae1ddda" y="105.663585"/>
    </g>
   </g>
   <g id="line2d_52">
    <path d="M 29.59555 294.16 
L 29.59555 293.240505 
L 64.796188 293.240505 
L 64.796188 290.941769 
L 66.790011 290.941769 
L 66.790011 290.482021 
L 68.573546 290.482021 
L 68.573546 289.562526 
L 70.18695 289.562526 
L 70.18695 288.183284 
L 77.555983 288.183284 
L 77.555983 286.344295 
L 84.08445 286.344295 
L 84.08445 284.045558 
L 89.780228 284.045558 
L 89.780228 282.206569 
L 91.612059 282.206569 
L 91.612059 281.746821 
L 93.264876 281.746821 
L 93.264876 279.448085 
L 99.184128 279.448085 
L 99.184128 278.988337 
L 101.990648 278.988337 
L 101.990648 273.471369 
L 103.127177 273.471369 
L 103.127177 273.011622 
L 106.32307 273.011622 
L 106.32307 269.333643 
L 107.551541 269.333643 
L 107.551541 268.873896 
L 109.010351 268.873896 
L 109.010351 268.414148 
L 111.055862 268.414148 
L 111.055862 267.494653 
L 111.992825 267.494653 
L 111.992825 267.034906 
L 112.37903 267.034906 
L 112.37903 266.575159 
L 112.880635 266.575159 
L 112.880635 266.115411 
L 117.312411 266.115411 
L 117.312411 261.977685 
L 118.856509 261.977685 
L 118.856509 261.058191 
L 120.509326 261.058191 
L 120.509326 257.380212 
L 125.457739 257.380212 
L 125.457739 256.920464 
L 125.97864 256.920464 
L 125.97864 256.00097 
L 126.920863 256.00097 
L 126.920863 255.541222 
L 127.762175 255.541222 
L 127.762175 255.081475 
L 128.661214 255.081475 
L 128.661214 254.16198 
L 133.531076 254.16198 
L 133.531076 253.242485 
L 135.131208 253.242485 
L 135.131208 252.782738 
L 135.329198 252.782738 
L 135.329198 251.403496 
L 135.524899 251.403496 
L 135.524899 250.943749 
L 141.155694 250.943749 
L 141.155694 250.024254 
L 141.861601 250.024254 
L 141.861601 248.645012 
L 145.661247 248.645012 
L 145.661247 247.725517 
L 146.100959 247.725517 
L 146.100959 246.806023 
L 146.980529 246.806023 
L 147.029906 245.42678 
L 151.306037 245.42678 
L 151.306037 244.507286 
L 151.521683 244.507286 
L 151.521683 243.587791 
L 152.958854 243.587791 
L 152.958854 242.208549 
L 154.154527 242.208549 
L 154.154527 241.289054 
L 154.443352 241.289054 
L 154.443352 240.829307 
L 155.412103 240.829307 
L 155.412103 240.36956 
L 156.498345 240.36956 
L 156.498345 238.990318 
L 159.853387 238.990318 
L 159.853387 238.53057 
L 161.370555 238.53057 
L 161.370555 237.151328 
L 165.384358 237.151328 
L 165.384358 236.691581 
L 167.100515 236.691581 
L 167.100515 235.312339 
L 171.078548 235.312339 
L 171.078548 234.392844 
L 171.918826 234.392844 
L 171.918826 233.933097 
L 172.679677 233.933097 
L 172.679677 233.473349 
L 172.79127 233.473349 
L 172.79127 233.013602 
L 173.383561 233.013602 
L 173.383561 232.553855 
L 174.903479 232.553855 
L 174.903479 231.63436 
L 176.518322 231.63436 
L 176.518322 230.714865 
L 184.64815 230.714865 
L 184.64815 228.875876 
L 185.087633 228.875876 
L 185.087633 227.036886 
L 185.597013 227.036886 
L 185.60038 225.197897 
L 185.761233 225.197897 
L 185.761233 224.73815 
L 187.855739 224.73815 
L 187.855739 223.818655 
L 189.279472 223.818655 
L 189.279472 222.89916 
L 189.633379 222.89916 
L 189.633379 221.060171 
L 194.965184 221.060171 
L 194.965184 220.600423 
L 197.703605 220.600423 
L 197.703605 220.140676 
L 199.430878 220.140676 
L 199.430878 218.761434 
L 199.627553 218.761434 
L 199.627553 216.922445 
L 202.178937 216.922445 
L 202.178937 216.462697 
L 203.544299 216.462697 
L 203.544299 216.00295 
L 205.046893 216.00295 
L 205.046893 215.543202 
L 210.333747 215.543202 
L 210.333747 213.244466 
L 211.352643 213.244466 
L 211.352643 212.324971 
L 216.257954 212.324971 
L 216.257954 210.945729 
L 218.229193 210.945729 
L 218.229193 210.485982 
L 218.681437 210.485982 
L 218.681437 208.187245 
L 221.65617 208.187245 
L 221.65617 206.348255 
L 222.170085 206.348255 
L 222.170085 204.509266 
L 223.763433 204.509266 
L 223.763433 204.049519 
L 225.873059 204.049519 
L 225.873059 203.589771 
L 227.198022 203.589771 
L 227.198022 202.670277 
L 232.404857 202.670277 
L 232.404857 201.750782 
L 233.74862 201.750782 
L 233.74862 199.911792 
L 239.519448 199.911792 
L 239.519448 198.072803 
L 241.15649 198.072803 
L 241.15649 196.693561 
L 242.880107 196.693561 
L 242.883019 194.394824 
L 253.335592 194.394824 
L 253.335592 193.475329 
L 255.38755 193.475329 
L 255.38755 193.015582 
L 258.482498 193.015582 
L 258.482498 192.555835 
L 259.440824 192.555835 
L 259.518598 191.176593 
L 261.658551 191.176593 
L 261.658551 189.337603 
L 262.738937 189.337603 
L 262.738937 188.418109 
L 267.633966 188.418109 
L 267.633966 187.958361 
L 272.253011 187.958361 
L 272.253011 187.038867 
L 272.495327 187.038867 
L 272.495327 186.119372 
L 275.528485 186.119372 
L 275.528485 185.659624 
L 276.069746 185.659624 
L 276.069746 185.199877 
L 280.526385 185.199877 
L 280.526385 184.74013 
L 281.874261 184.74013 
L 281.874261 183.820635 
L 282.956863 183.820635 
L 282.956863 182.90114 
L 284.757323 182.90114 
L 284.757323 182.441393 
L 288.812619 182.441393 
L 288.812619 181.981646 
L 290.7087 181.981646 
L 290.798376 176.00493 
L 290.937683 176.00493 
L 291.000704 174.625688 
L 291.071519 174.625688 
L 291.100776 173.706193 
L 291.283257 173.706193 
L 291.283257 173.246446 
L 291.682938 173.246446 
L 291.682938 171.407456 
L 291.98991 171.407456 
L 291.98991 170.947709 
L 292.4738 170.947709 
L 292.4738 170.487962 
L 292.688527 170.487962 
L 292.688527 170.028214 
L 293.506521 170.028214 
L 293.506521 169.568467 
L 294.564681 169.568467 
L 294.564681 169.10872 
L 295.613513 169.10872 
L 295.613513 168.648972 
L 296.499105 168.648972 
L 296.499105 167.26973 
L 296.657711 167.26973 
L 296.657711 166.350236 
L 298.104943 166.350236 
L 298.104943 165.430741 
L 299.726336 165.430741 
L 299.778636 163.591751 
L 301.520354 163.591751 
L 301.520354 163.132004 
L 302.441882 163.132004 
L 302.445585 161.293015 
L 302.561236 161.293015 
L 302.639059 159.454025 
L 302.936019 159.454025 
L 302.936019 158.994278 
L 303.726257 158.994278 
L 303.726257 158.534531 
L 303.990317 158.534531 
L 303.990317 158.074783 
L 305.106448 158.074783 
L 305.106448 157.615036 
L 305.583533 157.615036 
L 305.676451 156.695541 
L 307.544297 156.695541 
L 307.544297 155.316299 
L 309.306059 155.316299 
L 309.385109 148.879836 
L 309.427254 148.879836 
L 309.437152 147.960341 
L 309.991459 147.960341 
L 309.991459 147.500594 
L 311.463284 147.500594 
L 311.463284 147.040847 
L 312.871853 147.040847 
L 312.871853 146.581099 
L 314.175246 146.581099 
L 314.274123 142.903121 
L 314.692347 142.903121 
L 314.692347 142.443373 
L 316.918003 142.443373 
L 316.918003 141.983626 
L 317.953213 141.983626 
L 318.000411 138.305647 
L 318.151959 138.305647 
L 318.151959 137.8459 
L 319.712942 137.8459 
L 319.712942 137.386152 
L 320.181182 137.386152 
L 320.181182 136.926405 
L 321.039302 136.926405 
L 321.104852 132.788679 
L 321.346143 132.788679 
L 321.346143 132.328931 
L 322.187132 132.328931 
L 322.187132 131.869184 
L 322.915835 131.869184 
L 322.915835 131.409437 
L 323.681207 131.409437 
L 323.704876 130.489942 
L 323.837385 130.489942 
L 323.945723 129.1107 
L 325.911098 129.1107 
L 325.958212 126.811963 
L 326.033596 126.811963 
L 326.033596 126.352216 
L 326.750456 126.352216 
L 326.750456 125.892468 
L 327.335576 125.892468 
L 327.335576 125.432721 
L 327.903336 125.432721 
L 327.92911 124.513226 
L 328.13429 124.513226 
L 328.196475 123.593732 
L 329.176658 123.593732 
L 329.176658 123.133984 
L 329.685968 123.133984 
L 329.685968 123.133984 
" style="fill:none;stroke:#ff00ff;stroke-linecap:square;stroke-width:1.5;"/>
   </g>
   <g id="line2d_53">
    <defs>
     <path d="M -0 8.485281 
L 5.091169 0 
L 0 -8.485281 
L -5.091169 -0 
z
" id="mde55e310cb" style="stroke:#ff00ff;stroke-linejoin:miter;stroke-width:1.5;"/>
    </defs>
    <g>
     <use style="fill:none;stroke:#ff00ff;stroke-linejoin:miter;stroke-width:1.5;" x="101.990648" xlink:href="#mde55e310cb" y="273.471369"/>
     <use style="fill:none;stroke:#ff00ff;stroke-linejoin:miter;stroke-width:1.5;" x="176.518322" xlink:href="#mde55e310cb" y="230.714865"/>
     <use style="fill:none;stroke:#ff00ff;stroke-linejoin:miter;stroke-width:1.5;" x="227.198022" xlink:href="#mde55e310cb" y="202.670277"/>
     <use style="fill:none;stroke:#ff00ff;stroke-linejoin:miter;stroke-width:1.5;" x="309.30652" xlink:href="#mde55e310cb" y="153.47731"/>
     <use style="fill:none;stroke:#ff00ff;stroke-linejoin:miter;stroke-width:1.5;" x="329.176658" xlink:href="#mde55e310cb" y="123.133984"/>
     <use style="fill:none;stroke:#ff00ff;stroke-linejoin:miter;stroke-width:1.5;" x="329.685968" xlink:href="#mde55e310cb" y="123.133984"/>
    </g>
   </g>
   <g id="line2d_54">
    <path style="fill:none;stroke:#ff00ff;stroke-linecap:square;stroke-width:1.5;"/>
    <g/>
   </g>
   <g id="line2d_55">
    <path clip-path="url(#pe38ede185c)" d="M 290.707972 181.981646 
" style="fill:none;stroke:#ff00ff;stroke-linecap:square;stroke-width:1.5;"/>
    <defs>
     <path d="M -12 12 
L 12 -12 
M -12 -12 
L 12 12 
" id="mec9de50cb8" style="stroke:#ff00ff;stroke-width:3;"/>
    </defs>
    <g clip-path="url(#pe38ede185c)">
     <use style="fill:#ff00ff;stroke:#ff00ff;stroke-width:3;" x="290.707972" xlink:href="#mec9de50cb8" y="181.981646"/>
    </g>
   </g>
   <g id="line2d_56">
    <defs>
     <path d="M 0 1.5 
C 0.397805 1.5 0.77937 1.341951 1.06066 1.06066 
C 1.341951 0.77937 1.5 0.397805 1.5 0 
C 1.5 -0.397805 1.341951 -0.77937 1.06066 -1.06066 
C 0.77937 -1.341951 0.397805 -1.5 0 -1.5 
C -0.397805 -1.5 -0.77937 -1.341951 -1.06066 -1.06066 
C -1.341951 -0.77937 -1.5 -0.397805 -1.5 0 
C -1.5 0.397805 -1.341951 0.77937 -1.06066 1.06066 
C -0.77937 1.341951 -0.397805 1.5 0 1.5 
z
" id="m80d03c6ec5" style="stroke:#ffa500;"/>
    </defs>
    <g>
     <use style="fill:#ffa500;stroke:#ffa500;" x="230.212231" xlink:href="#m80d03c6ec5" y="266.575159"/>
     <use style="fill:#ffa500;stroke:#ffa500;" x="230.212231" xlink:href="#m80d03c6ec5" y="266.575159"/>
    </g>
   </g>
   <g id="line2d_57">
    <path d="M 29.59555 294.16 
L 29.59555 288.183284 
L 144.035366 288.183284 
L 144.035366 286.344295 
L 165.594234 286.344295 
L 165.594234 285.4248 
L 165.659974 285.4248 
L 165.659974 284.965053 
L 165.68183 284.965053 
L 165.68183 284.505306 
L 165.747231 284.505306 
L 165.747231 282.206569 
L 165.768976 282.206569 
L 165.768976 281.287074 
L 165.963428 281.287074 
L 165.963428 280.827327 
L 169.817945 280.827327 
L 169.817945 280.367579 
L 177.401719 280.367579 
L 177.401719 279.907832 
L 177.434478 279.907832 
L 177.434478 279.448085 
L 177.488935 279.448085 
L 177.488935 278.988337 
L 177.543217 278.988337 
L 177.543217 278.52859 
L 177.586518 278.52859 
L 177.586518 278.068843 
L 184.348087 278.068843 
L 184.348087 277.609095 
L 184.485303 277.609095 
L 184.485303 277.149348 
L 189.264564 277.149348 
L 189.264564 276.689601 
L 192.965551 276.689601 
L 192.965551 276.229853 
L 193.004731 276.229853 
L 193.004731 275.770106 
L 193.022115 275.770106 
L 193.022115 275.310358 
L 193.12173 275.310358 
L 193.12173 274.850611 
L 195.964302 274.850611 
L 195.964302 274.390864 
L 198.701441 274.390864 
L 198.701441 273.931116 
L 202.951359 273.931116 
L 202.951359 273.471369 
L 202.975504 273.471369 
L 202.975504 273.011622 
L 204.735559 273.011622 
L 204.735559 272.551874 
L 204.820153 272.551874 
L 204.820153 272.092127 
L 206.394911 272.092127 
L 206.394911 271.63238 
L 207.824694 271.63238 
L 207.824694 271.172632 
L 209.194939 271.172632 
L 209.194939 270.712885 
L 210.420616 270.712885 
L 210.420616 270.253138 
L 211.614277 270.253138 
L 211.614277 269.79339 
L 217.321948 269.79339 
L 217.321948 269.333643 
L 220.238741 269.333643 
L 220.238741 268.873896 
L 220.921591 268.873896 
L 220.921591 268.414148 
L 221.548992 268.414148 
L 221.548992 267.954401 
L 221.553018 267.954401 
L 221.553018 267.494653 
L 226.408934 267.494653 
L 226.408934 267.034906 
L 230.212231 267.034906 
L 230.212231 266.575159 
L 329.685968 266.575159 
" style="fill:none;stroke:#ffa500;stroke-linecap:square;stroke-width:1.5;"/>
   </g>
   <g id="line2d_58">
    <defs>
     <path d="M 0 -6 
L -1.347084 -1.854102 
L -5.706339 -1.854102 
L -2.179628 0.708204 
L -3.526712 4.854102 
L -0 2.291796 
L 3.526712 4.854102 
L 2.179628 0.708204 
L 5.706339 -1.854102 
L 1.347084 -1.854102 
z
" id="m1fdd9f7588" style="stroke:#ffa500;stroke-linejoin:bevel;stroke-width:1.5;"/>
    </defs>
    <g>
     <use style="fill:none;stroke:#ffa500;stroke-linejoin:bevel;stroke-width:1.5;" x="144.035366" xlink:href="#m1fdd9f7588" y="286.344295"/>
     <use style="fill:none;stroke:#ffa500;stroke-linejoin:bevel;stroke-width:1.5;" x="230.212231" xlink:href="#m1fdd9f7588" y="267.034906"/>
     <use style="fill:none;stroke:#ffa500;stroke-linejoin:bevel;stroke-width:1.5;" x="230.212231" xlink:href="#m1fdd9f7588" y="266.575159"/>
     <use style="fill:none;stroke:#ffa500;stroke-linejoin:bevel;stroke-width:1.5;" x="230.212231" xlink:href="#m1fdd9f7588" y="266.575159"/>
     <use style="fill:none;stroke:#ffa500;stroke-linejoin:bevel;stroke-width:1.5;" x="329.685968" xlink:href="#m1fdd9f7588" y="266.575159"/>
    </g>
   </g>
   <g id="line2d_59">
    <path style="fill:none;stroke:#ffa500;stroke-linecap:square;stroke-width:1.5;"/>
    <g/>
   </g>
   <g id="line2d_60">
    <path clip-path="url(#pe38ede185c)" d="M 165.741791 284.505306 
" style="fill:none;stroke:#ffa500;stroke-linecap:square;stroke-width:1.5;"/>
    <defs>
     <path d="M -12 12 
L 12 -12 
M -12 -12 
L 12 12 
" id="me08090bcfc" style="stroke:#ffa500;stroke-width:3;"/>
    </defs>
    <g clip-path="url(#pe38ede185c)">
     <use style="fill:#ffa500;stroke:#ffa500;stroke-width:3;" x="165.741791" xlink:href="#me08090bcfc" y="284.505306"/>
    </g>
   </g>
   <g id="line2d_61">
    <defs>
     <path d="M 0 1.5 
C 0.397805 1.5 0.77937 1.341951 1.06066 1.06066 
C 1.341951 0.77937 1.5 0.397805 1.5 0 
C 1.5 -0.397805 1.341951 -0.77937 1.06066 -1.06066 
C 0.77937 -1.341951 0.397805 -1.5 0 -1.5 
C -0.397805 -1.5 -0.77937 -1.341951 -1.06066 -1.06066 
C -1.341951 -0.77937 -1.5 -0.397805 -1.5 0 
C -1.5 0.397805 -1.341951 0.77937 -1.06066 1.06066 
C -0.77937 1.341951 -0.397805 1.5 0 1.5 
z
" id="m2b595998fd" style="stroke:#6495ed;"/>
    </defs>
    <g>
     <use style="fill:#6495ed;stroke:#6495ed;" x="248.724764" xlink:href="#m2b595998fd" y="119.456005"/>
     <use style="fill:#6495ed;stroke:#6495ed;" x="248.724764" xlink:href="#m2b595998fd" y="119.456005"/>
    </g>
   </g>
   <g id="line2d_62">
    <path d="M 29.59555 294.16 
L 29.59555 284.505306 
L 48.19278 284.505306 
L 48.19278 284.045558 
L 62.535778 284.045558 
L 62.535778 283.585811 
L 75.43723 283.585811 
L 75.43723 274.390864 
L 78.523556 274.390864 
L 78.523556 273.931116 
L 84.748375 273.931116 
L 84.748375 273.471369 
L 87.72584 273.471369 
L 87.72584 272.092127 
L 89.780228 272.092127 
L 89.780228 271.63238 
L 92.458632 271.63238 
L 92.458632 269.333643 
L 94.03446 269.333643 
L 94.03446 268.873896 
L 94.406517 268.873896 
L 94.406517 268.414148 
L 96.804367 268.414148 
L 96.804367 267.954401 
L 102.22414 267.954401 
L 102.22414 267.034906 
L 108.215467 267.034906 
L 108.215467 265.195917 
L 109.010351 265.195917 
L 109.010351 264.736169 
L 115.613199 264.736169 
L 115.613199 264.276422 
L 117.312411 264.276422 
L 117.312411 263.816675 
L 122.300733 263.816675 
L 122.300733 263.356927 
L 124.859517 263.356927 
L 124.859517 261.977685 
L 126.866866 261.977685 
L 126.866866 261.058191 
L 127.188292 261.058191 
L 127.188292 259.219201 
L 127.966129 259.219201 
L 127.966129 257.380212 
L 128.998339 257.380212 
L 128.998339 256.920464 
L 129.514904 256.920464 
L 129.514904 254.621728 
L 130.28346 254.621728 
L 130.28346 254.16198 
L 130.459336 254.16198 
L 130.459336 253.242485 
L 132.477443 253.242485 
L 132.477443 252.322991 
L 133.567519 252.322991 
L 133.567519 250.024254 
L 134.245441 250.024254 
L 134.245441 247.725517 
L 134.997917 247.725517 
L 134.997917 247.26577 
L 135.164368 247.26577 
L 135.164368 245.886528 
L 135.427331 245.886528 
L 135.427331 245.42678 
L 136.347726 245.42678 
L 136.347726 244.507286 
L 137.366706 244.507286 
L 137.366706 243.128044 
L 137.85408 243.128044 
L 137.85408 242.668296 
L 138.355273 242.668296 
L 138.437381 240.829307 
L 139.053985 240.829307 
L 139.053985 240.36956 
L 140.223646 240.36956 
L 140.223646 239.450065 
L 140.564162 239.450065 
L 140.564162 238.990318 
L 141.704756 238.990318 
L 141.704756 238.53057 
L 142.061147 238.53057 
L 142.061147 238.070823 
L 142.236567 238.070823 
L 142.236567 237.151328 
L 142.688579 237.151328 
L 142.688579 236.231833 
L 143.497293 236.231833 
L 143.497293 235.312339 
L 143.778428 235.312339 
L 143.778428 233.013602 
L 144.365582 233.013602 
L 144.365582 232.553855 
L 144.594858 232.553855 
L 144.594858 232.094107 
L 145.464096 232.094107 
L 145.464096 230.714865 
L 145.643419 230.714865 
L 145.643419 230.255118 
L 146.630801 230.255118 
L 146.630801 229.335623 
L 146.881342 229.335623 
L 146.881342 227.496634 
L 147.274651 227.496634 
L 147.339323 226.577139 
L 147.674857 226.577139 
L 147.674857 225.657644 
L 148.280878 225.657644 
L 148.280878 224.278402 
L 148.493238 224.278402 
L 148.493238 218.761434 
L 149.302637 218.761434 
L 149.302637 217.841939 
L 149.770329 217.841939 
L 149.82615 216.922445 
L 149.881789 216.922445 
L 149.881789 216.462697 
L 150.401427 216.462697 
L 150.401427 215.543202 
L 151.609686 215.543202 
L 151.659768 214.16396 
L 152.465431 214.16396 
L 152.489256 212.784718 
L 153.673028 212.784718 
L 153.673028 211.865224 
L 153.81672 211.865224 
L 153.81672 210.026234 
L 154.326276 210.026234 
L 154.326276 209.566487 
L 154.914038 209.566487 
L 154.914038 208.646992 
L 156.099128 208.646992 
L 156.108744 206.808003 
L 156.675896 206.808003 
L 156.694478 204.509266 
L 157.070976 204.509266 
L 157.070976 203.589771 
L 157.224662 203.589771 
L 157.224662 202.670277 
L 158.506775 202.670277 
L 158.506775 202.210529 
L 158.910723 202.210529 
L 158.910723 201.291034 
L 160.044925 201.291034 
L 160.044925 200.831287 
L 160.23432 200.831287 
L 160.23432 200.37154 
L 161.643085 200.37154 
L 161.643085 198.53255 
L 162.408817 198.53255 
L 162.514493 195.774066 
L 162.665256 195.774066 
L 162.717382 193.935077 
L 163.128711 193.935077 
L 163.128711 192.555835 
L 163.393314 192.555835 
L 163.393314 191.176593 
L 164.933821 191.176593 
L 164.933821 189.797351 
L 165.649035 189.797351 
L 165.649035 189.337603 
L 166.303699 189.337603 
L 166.335251 188.418109 
L 167.120589 188.418109 
L 167.120589 187.958361 
L 167.837482 187.958361 
L 167.837482 187.038867 
L 168.076177 187.038867 
L 168.080917 186.119372 
L 170.4435 186.119372 
L 170.4435 185.659624 
L 171.644622 185.659624 
L 171.728879 182.90114 
L 172.240631 182.90114 
L 172.240631 181.981646 
L 172.47986 181.981646 
L 172.47986 180.142656 
L 174.092599 180.142656 
L 174.092599 179.682909 
L 175.908664 179.682909 
L 175.908664 178.303667 
L 176.063149 178.303667 
L 176.063149 176.924425 
L 177.242487 176.924425 
L 177.242487 176.464677 
L 178.768653 176.464677 
L 178.768653 175.545183 
L 181.782991 175.545183 
L 181.782991 175.085435 
L 182.086124 175.085435 
L 182.09648 174.165941 
L 182.406303 174.165941 
L 182.406303 173.706193 
L 183.620231 173.706193 
L 183.620231 172.326951 
L 184.215233 172.326951 
L 184.215233 171.867204 
L 185.453276 171.867204 
L 185.453276 171.407456 
L 186.336672 171.407456 
L 186.336672 170.947709 
L 187.677985 170.947709 
L 187.677985 170.487962 
L 187.967359 170.487962 
L 187.967359 170.028214 
L 188.172513 170.028214 
L 188.272009 168.648972 
L 188.462156 168.648972 
L 188.5529 167.26973 
L 188.62768 167.26973 
L 188.62768 166.809983 
L 188.7609 166.809983 
L 188.7609 166.350236 
L 188.967755 166.350236 
L 188.967755 165.430741 
L 189.275408 165.430741 
L 189.361906 164.511246 
L 189.649291 164.511246 
L 189.671808 163.591751 
L 190.117254 163.591751 
L 190.117254 163.132004 
L 190.527386 163.132004 
L 190.568862 161.293015 
L 190.813133 161.293015 
L 190.813133 160.833267 
L 191.044167 160.833267 
L 191.044167 160.37352 
L 191.722451 160.37352 
L 191.766952 159.454025 
L 192.728547 159.454025 
L 192.74401 158.534531 
L 193.455254 158.534531 
L 193.472182 157.615036 
L 194.654463 157.615036 
L 194.654463 157.155288 
L 196.570312 157.155288 
L 196.570312 156.695541 
L 197.175779 156.695541 
L 197.175779 156.235794 
L 199.184418 156.235794 
L 199.184418 155.776046 
L 199.552406 155.776046 
L 199.552406 155.316299 
L 199.929904 155.316299 
L 199.929904 154.856552 
L 200.344323 154.856552 
L 200.344323 154.396804 
L 200.614841 154.396804 
L 200.614841 153.47731 
L 201.022498 153.47731 
L 201.036708 152.557815 
L 201.227051 152.557815 
L 201.227051 152.098068 
L 201.843062 152.098068 
L 201.843062 151.63832 
L 202.243934 151.63832 
L 202.256526 150.259078 
L 205.358894 150.259078 
L 205.358894 149.799331 
L 206.113625 149.799331 
L 206.113625 149.339583 
L 207.028555 149.339583 
L 207.039945 147.500594 
L 207.710165 147.500594 
L 207.710165 147.040847 
L 207.993702 147.040847 
L 208.01163 146.121352 
L 208.469044 146.121352 
L 208.484734 145.201857 
L 209.403762 145.201857 
L 209.405825 143.822615 
L 211.391211 143.822615 
L 211.391211 143.362868 
L 211.643942 143.362868 
L 211.643942 142.903121 
L 212.313678 142.903121 
L 212.313678 142.443373 
L 213.301584 142.443373 
L 213.349694 141.523878 
L 215.525657 141.523878 
L 215.525657 141.064131 
L 216.024056 141.064131 
L 216.058345 139.684889 
L 218.050404 139.684889 
L 218.123527 137.8459 
L 218.564882 137.8459 
L 218.576165 136.466658 
L 220.60076 136.466658 
L 220.60076 136.00691 
L 221.221066 136.00691 
L 221.245682 134.627668 
L 221.664971 134.627668 
L 221.664971 134.167921 
L 223.00417 134.167921 
L 223.018575 132.328931 
L 223.321732 132.328931 
L 223.321732 131.869184 
L 226.485518 131.869184 
L 226.485518 131.409437 
L 226.61528 131.409437 
L 226.61528 130.949689 
L 226.873326 130.949689 
L 226.891692 130.030195 
L 229.41099 130.030195 
L 229.41099 129.570447 
L 230.072132 129.570447 
L 230.072132 129.1107 
L 230.908476 129.1107 
L 230.990285 127.731458 
L 232.197576 127.731458 
L 232.198113 126.811963 
L 233.446343 126.811963 
L 233.454417 125.892468 
L 234.391468 125.892468 
L 234.391468 125.432721 
L 234.692666 125.432721 
L 234.692666 124.972974 
L 237.47957 124.972974 
L 237.47957 124.513226 
L 238.01782 124.513226 
L 238.075032 123.133984 
L 238.832635 123.133984 
L 238.832635 122.674237 
L 240.463042 122.674237 
L 240.463042 122.21449 
L 241.092066 122.21449 
L 241.097714 121.294995 
L 241.842997 121.294995 
L 241.842997 120.835248 
L 243.048585 120.835248 
L 243.048585 120.3755 
L 246.037902 120.3755 
L 246.037902 119.915753 
L 248.724764 119.915753 
L 248.724764 119.456005 
L 329.685968 119.456005 
L 329.685968 119.456005 
" style="fill:none;stroke:#6495ed;stroke-linecap:square;stroke-width:1.5;"/>
   </g>
   <g id="line2d_63">
    <defs>
     <path d="M -0 6 
L 6 -6 
L -6 -6 
z
" id="m2c867ef529" style="stroke:#6495ed;stroke-linejoin:miter;stroke-width:1.5;"/>
    </defs>
    <g>
     <use style="fill:none;stroke:#6495ed;stroke-linejoin:miter;stroke-width:1.5;" x="75.43723" xlink:href="#m2c867ef529" y="283.585811"/>
     <use style="fill:none;stroke:#6495ed;stroke-linejoin:miter;stroke-width:1.5;" x="142.688579" xlink:href="#m2c867ef529" y="236.231833"/>
     <use style="fill:none;stroke:#6495ed;stroke-linejoin:miter;stroke-width:1.5;" x="177.242487" xlink:href="#m2c867ef529" y="176.924425"/>
     <use style="fill:none;stroke:#6495ed;stroke-linejoin:miter;stroke-width:1.5;" x="248.724764" xlink:href="#m2c867ef529" y="119.915753"/>
     <use style="fill:none;stroke:#6495ed;stroke-linejoin:miter;stroke-width:1.5;" x="248.724764" xlink:href="#m2c867ef529" y="119.456005"/>
     <use style="fill:none;stroke:#6495ed;stroke-linejoin:miter;stroke-width:1.5;" x="329.685968" xlink:href="#m2c867ef529" y="119.456005"/>
    </g>
   </g>
   <g id="line2d_64">
    <path style="fill:none;stroke:#6495ed;stroke-linecap:square;stroke-width:1.5;"/>
    <g/>
   </g>
   <g id="line2d_65">
    <path clip-path="url(#pe38ede185c)" d="M 186.971 170.947709 
" style="fill:none;stroke:#6495ed;stroke-linecap:square;stroke-width:1.5;"/>
    <defs>
     <path d="M -12 12 
L 12 -12 
M -12 -12 
L 12 12 
" id="m817ecb0f46" style="stroke:#6495ed;stroke-width:3;"/>
    </defs>
    <g clip-path="url(#pe38ede185c)">
     <use style="fill:#6495ed;stroke:#6495ed;stroke-width:3;" x="186.971" xlink:href="#m817ecb0f46" y="170.947709"/>
    </g>
   </g>
   <g id="line2d_66">
    <path d="M 329.685968 266.575159 
L 359.699024 288.826931 
" style="fill:none;stroke:#ffa500;stroke-linecap:square;stroke-width:1.5;"/>
    <g>
     <use style="fill:none;stroke:#ffa500;stroke-linejoin:bevel;stroke-width:1.5;" x="329.685968" xlink:href="#m1fdd9f7588" y="266.575159"/>
     <use style="fill:none;stroke:#ffa500;stroke-linejoin:bevel;stroke-width:1.5;" x="359.699024" xlink:href="#m1fdd9f7588" y="288.826931"/>
    </g>
   </g>
   <g id="line2d_67">
    <path d="M 329.685968 123.133984 
L 359.699024 224.830099 
" style="fill:none;stroke:#ff00ff;stroke-linecap:square;stroke-width:1.5;"/>
    <g>
     <use style="fill:none;stroke:#ff00ff;stroke-linejoin:miter;stroke-width:1.5;" x="329.685968" xlink:href="#mde55e310cb" y="123.133984"/>
     <use style="fill:none;stroke:#ff00ff;stroke-linejoin:miter;stroke-width:1.5;" x="359.699024" xlink:href="#mde55e310cb" y="224.830099"/>
    </g>
   </g>
   <g id="line2d_68">
    <path d="M 329.685968 119.456005 
L 359.699024 160.833267 
" style="fill:none;stroke:#6495ed;stroke-linecap:square;stroke-width:1.5;"/>
    <g>
     <use style="fill:none;stroke:#6495ed;stroke-linejoin:miter;stroke-width:1.5;" x="329.685968" xlink:href="#m2c867ef529" y="119.456005"/>
     <use style="fill:none;stroke:#6495ed;stroke-linejoin:miter;stroke-width:1.5;" x="359.699024" xlink:href="#m2c867ef529" y="160.833267"/>
    </g>
   </g>
   <g id="line2d_69">
    <path d="M 329.685968 64.286323 
L 359.699024 96.836436 
" style="fill:none;stroke:#000080;stroke-linecap:square;stroke-width:1.5;"/>
    <g>
     <use style="fill:none;stroke:#000080;stroke-width:1.5;" x="329.685968" xlink:href="#m2800d16117" y="64.286323"/>
     <use style="fill:none;stroke:#000080;stroke-width:1.5;" x="359.699024" xlink:href="#m2800d16117" y="96.836436"/>
    </g>
   </g>
   <g id="line2d_70">
    <path d="M 329.685968 294.16 
L 329.685968 27.506535 
" style="fill:none;stroke:#000000;stroke-linecap:square;stroke-width:1.5;"/>
   </g>
   <g id="patch_3">
    <path d="M 56.84 294.16 
L 56.84 24.84 
" style="fill:none;stroke:#000000;stroke-linecap:square;stroke-linejoin:miter;stroke-width:0.8;"/>
   </g>
   <g id="patch_4">
    <path d="M 395.169 294.16 
L 395.169 24.84 
" style="fill:none;stroke:#000000;stroke-linecap:square;stroke-linejoin:miter;stroke-width:0.8;"/>
   </g>
   <g id="patch_5">
    <path d="M 56.84 294.16 
L 395.169 294.16 
" style="fill:none;stroke:#000000;stroke-linecap:square;stroke-linejoin:miter;stroke-width:0.8;"/>
   </g>
   <g id="patch_6">
    <path d="M 56.84 24.84 
L 395.169 24.84 
" style="fill:none;stroke:#000000;stroke-linecap:square;stroke-linejoin:miter;stroke-width:0.8;"/>
   </g>
   <g id="text_14">
    <!-- adaptiveH -->
    <defs>
     <path d="M 9.8125 72.90625 
L 19.671875 72.90625 
L 19.671875 43.015625 
L 55.515625 43.015625 
L 55.515625 72.90625 
L 65.375 72.90625 
L 65.375 0 
L 55.515625 0 
L 55.515625 34.71875 
L 19.671875 34.71875 
L 19.671875 0 
L 9.8125 0 
z
" id="DejaVuSans-48"/>
    </defs>
    <g transform="translate(365.155944 293.517868)scale(0.17 -0.17)">
     <use xlink:href="#DejaVuSans-61"/>
     <use x="61.279297" xlink:href="#DejaVuSans-64"/>
     <use x="124.755859" xlink:href="#DejaVuSans-61"/>
     <use x="186.035156" xlink:href="#DejaVuSans-70"/>
     <use x="249.511719" xlink:href="#DejaVuSans-74"/>
     <use x="288.720703" xlink:href="#DejaVuSans-69"/>
     <use x="316.503906" xlink:href="#DejaVuSans-76"/>
     <use x="375.683594" xlink:href="#DejaVuSans-65"/>
     <use x="437.207031" xlink:href="#DejaVuSans-48"/>
    </g>
   </g>
   <g id="text_15">
    <!-- RANDOMSEA -->
    <defs>
     <path d="M 44.390625 34.1875 
Q 47.5625 33.109375 50.5625 29.59375 
Q 53.5625 26.078125 56.59375 19.921875 
L 66.609375 0 
L 56 0 
L 46.6875 18.703125 
Q 43.0625 26.03125 39.671875 28.421875 
Q 36.28125 30.8125 30.421875 30.8125 
L 19.671875 30.8125 
L 19.671875 0 
L 9.8125 0 
L 9.8125 72.90625 
L 32.078125 72.90625 
Q 44.578125 72.90625 50.734375 67.671875 
Q 56.890625 62.453125 56.890625 51.90625 
Q 56.890625 45.015625 53.6875 40.46875 
Q 50.484375 35.9375 44.390625 34.1875 
M 19.671875 64.796875 
L 19.671875 38.921875 
L 32.078125 38.921875 
Q 39.203125 38.921875 42.84375 42.21875 
Q 46.484375 45.515625 46.484375 51.90625 
Q 46.484375 58.296875 42.84375 61.546875 
Q 39.203125 64.796875 32.078125 64.796875 
z
" id="DejaVuSans-52"/>
     <path d="M 34.1875 63.1875 
L 20.796875 26.90625 
L 47.609375 26.90625 
z
M 28.609375 72.90625 
L 39.796875 72.90625 
L 67.578125 0 
L 57.328125 0 
L 50.6875 18.703125 
L 17.828125 18.703125 
L 11.1875 0 
L 0.78125 0 
z
" id="DejaVuSans-41"/>
     <path d="M 9.8125 72.90625 
L 23.09375 72.90625 
L 55.421875 11.921875 
L 55.421875 72.90625 
L 64.984375 72.90625 
L 64.984375 0 
L 51.703125 0 
L 19.390625 60.984375 
L 19.390625 0 
L 9.8125 0 
z
" id="DejaVuSans-4e"/>
     <path d="M 19.671875 64.796875 
L 19.671875 8.109375 
L 31.59375 8.109375 
Q 46.6875 8.109375 53.6875 14.9375 
Q 60.6875 21.78125 60.6875 36.53125 
Q 60.6875 51.171875 53.6875 57.984375 
Q 46.6875 64.796875 31.59375 64.796875 
z
M 9.8125 72.90625 
L 30.078125 72.90625 
Q 51.265625 72.90625 61.171875 64.09375 
Q 71.09375 55.28125 71.09375 36.53125 
Q 71.09375 17.671875 61.125 8.828125 
Q 51.171875 0 30.078125 0 
L 9.8125 0 
z
" id="DejaVuSans-44"/>
     <path d="M 39.40625 66.21875 
Q 28.65625 66.21875 22.328125 58.203125 
Q 16.015625 50.203125 16.015625 36.375 
Q 16.015625 22.609375 22.328125 14.59375 
Q 28.65625 6.59375 39.40625 6.59375 
Q 50.140625 6.59375 56.421875 14.59375 
Q 62.703125 22.609375 62.703125 36.375 
Q 62.703125 50.203125 56.421875 58.203125 
Q 50.140625 66.21875 39.40625 66.21875 
M 39.40625 74.21875 
Q 54.734375 74.21875 63.90625 63.9375 
Q 73.09375 53.65625 73.09375 36.375 
Q 73.09375 19.140625 63.90625 8.859375 
Q 54.734375 -1.421875 39.40625 -1.421875 
Q 24.03125 -1.421875 14.8125 8.828125 
Q 5.609375 19.09375 5.609375 36.375 
Q 5.609375 53.65625 14.8125 63.9375 
Q 24.03125 74.21875 39.40625 74.21875 
" id="DejaVuSans-4f"/>
     <path d="M 9.8125 72.90625 
L 24.515625 72.90625 
L 43.109375 23.296875 
L 61.8125 72.90625 
L 76.515625 72.90625 
L 76.515625 0 
L 66.890625 0 
L 66.890625 64.015625 
L 48.09375 14.015625 
L 38.1875 14.015625 
L 19.390625 64.015625 
L 19.390625 0 
L 9.8125 0 
z
" id="DejaVuSans-4d"/>
     <path d="M 53.515625 70.515625 
L 53.515625 60.890625 
Q 47.90625 63.578125 42.921875 64.890625 
Q 37.9375 66.21875 33.296875 66.21875 
Q 25.25 66.21875 20.875 63.09375 
Q 16.5 59.96875 16.5 54.203125 
Q 16.5 49.359375 19.40625 46.890625 
Q 22.3125 44.4375 30.421875 42.921875 
L 36.375 41.703125 
Q 47.40625 39.59375 52.65625 34.296875 
Q 57.90625 29 57.90625 20.125 
Q 57.90625 9.515625 50.796875 4.046875 
Q 43.703125 -1.421875 29.984375 -1.421875 
Q 24.8125 -1.421875 18.96875 -0.25 
Q 13.140625 0.921875 6.890625 3.21875 
L 6.890625 13.375 
Q 12.890625 10.015625 18.65625 8.296875 
Q 24.421875 6.59375 29.984375 6.59375 
Q 38.421875 6.59375 43.015625 9.90625 
Q 47.609375 13.234375 47.609375 19.390625 
Q 47.609375 24.75 44.3125 27.78125 
Q 41.015625 30.8125 33.5 32.328125 
L 27.484375 33.5 
Q 16.453125 35.6875 11.515625 40.375 
Q 6.59375 45.0625 6.59375 53.421875 
Q 6.59375 63.09375 13.40625 68.65625 
Q 20.21875 74.21875 32.171875 74.21875 
Q 37.3125 74.21875 42.625 73.28125 
Q 47.953125 72.359375 53.515625 70.515625 
" id="DejaVuSans-53"/>
     <path d="M 9.8125 72.90625 
L 55.90625 72.90625 
L 55.90625 64.59375 
L 19.671875 64.59375 
L 19.671875 43.015625 
L 54.390625 43.015625 
L 54.390625 34.71875 
L 19.671875 34.71875 
L 19.671875 8.296875 
L 56.78125 8.296875 
L 56.78125 0 
L 9.8125 0 
z
" id="DejaVuSans-45"/>
    </defs>
    <g transform="translate(365.155944 229.521037)scale(0.17 -0.17)">
     <use xlink:href="#DejaVuSans-52"/>
     <use x="69.419922" xlink:href="#DejaVuSans-41"/>
     <use x="137.828125" xlink:href="#DejaVuSans-4e"/>
     <use x="212.632812" xlink:href="#DejaVuSans-44"/>
     <use x="289.634766" xlink:href="#DejaVuSans-4f"/>
     <use x="368.345703" xlink:href="#DejaVuSans-4d"/>
     <use x="454.625" xlink:href="#DejaVuSans-53"/>
     <use x="518.101562" xlink:href="#DejaVuSans-45"/>
     <use x="581.285156" xlink:href="#DejaVuSans-41"/>
    </g>
   </g>
   <g id="text_16">
    <!-- final  bu -->
    <defs>
     <path d="M 48.6875 27.296875 
Q 48.6875 37.203125 44.609375 42.84375 
Q 40.53125 48.484375 33.40625 48.484375 
Q 26.265625 48.484375 22.1875 42.84375 
Q 18.109375 37.203125 18.109375 27.296875 
Q 18.109375 17.390625 22.1875 11.75 
Q 26.265625 6.109375 33.40625 6.109375 
Q 40.53125 6.109375 44.609375 11.75 
Q 48.6875 17.390625 48.6875 27.296875 
M 18.109375 46.390625 
Q 20.953125 51.265625 25.265625 53.625 
Q 29.59375 56 35.59375 56 
Q 45.5625 56 51.78125 48.09375 
Q 58.015625 40.1875 58.015625 27.296875 
Q 58.015625 14.40625 51.78125 6.484375 
Q 45.5625 -1.421875 35.59375 -1.421875 
Q 29.59375 -1.421875 25.265625 0.953125 
Q 20.953125 3.328125 18.109375 8.203125 
L 18.109375 0 
L 9.078125 0 
L 9.078125 75.984375 
L 18.109375 75.984375 
z
" id="DejaVuSans-62"/>
    </defs>
    <g transform="translate(365.155944 165.524205)scale(0.17 -0.17)">
     <use xlink:href="#DejaVuSans-66"/>
     <use x="35.205078" xlink:href="#DejaVuSans-69"/>
     <use x="62.988281" xlink:href="#DejaVuSans-6e"/>
     <use x="126.367188" xlink:href="#DejaVuSans-61"/>
     <use x="187.646484" xlink:href="#DejaVuSans-6c"/>
     <use x="215.429688" xlink:href="#DejaVuSans-20"/>
     <use x="247.216797" xlink:href="#DejaVuSans-20"/>
     <use x="279.003906" xlink:href="#DejaVuSans-62"/>
     <use x="342.480469" xlink:href="#DejaVuSans-75"/>
    </g>
   </g>
   <g id="text_17">
    <!-- NSGA-II-M -->
    <defs>
     <path d="M 59.515625 10.40625 
L 59.515625 29.984375 
L 43.40625 29.984375 
L 43.40625 38.09375 
L 69.28125 38.09375 
L 69.28125 6.78125 
Q 63.578125 2.734375 56.6875 0.65625 
Q 49.8125 -1.421875 42 -1.421875 
Q 24.90625 -1.421875 15.25 8.5625 
Q 5.609375 18.5625 5.609375 36.375 
Q 5.609375 54.25 15.25 64.234375 
Q 24.90625 74.21875 42 74.21875 
Q 49.125 74.21875 55.546875 72.453125 
Q 61.96875 70.703125 67.390625 67.28125 
L 67.390625 56.78125 
Q 61.921875 61.421875 55.765625 63.765625 
Q 49.609375 66.109375 42.828125 66.109375 
Q 29.4375 66.109375 22.71875 58.640625 
Q 16.015625 51.171875 16.015625 36.375 
Q 16.015625 21.625 22.71875 14.15625 
Q 29.4375 6.6875 42.828125 6.6875 
Q 48.046875 6.6875 52.140625 7.59375 
Q 56.25 8.5 59.515625 10.40625 
" id="DejaVuSans-47"/>
     <path d="M 9.8125 72.90625 
L 19.671875 72.90625 
L 19.671875 0 
L 9.8125 0 
z
" id="DejaVuSans-49"/>
    </defs>
    <g transform="translate(365.155944 101.527373)scale(0.17 -0.17)">
     <use xlink:href="#DejaVuSans-4e"/>
     <use x="74.804688" xlink:href="#DejaVuSans-53"/>
     <use x="138.28125" xlink:href="#DejaVuSans-47"/>
     <use x="215.771484" xlink:href="#DejaVuSans-41"/>
     <use x="284.148438" xlink:href="#DejaVuSans-2d"/>
     <use x="320.232422" xlink:href="#DejaVuSans-49"/>
     <use x="349.724609" xlink:href="#DejaVuSans-49"/>
     <use x="379.216797" xlink:href="#DejaVuSans-2d"/>
     <use x="415.300781" xlink:href="#DejaVuSans-4d"/>
    </g>
   </g>
   <g id="text_18">
    <!-- best 2016 -->
    <g transform="translate(365.155944 37.530541)scale(0.17 -0.17)">
     <use xlink:href="#DejaVuSans-62"/>
     <use x="63.476562" xlink:href="#DejaVuSans-65"/>
     <use x="125" xlink:href="#DejaVuSans-73"/>
     <use x="177.099609" xlink:href="#DejaVuSans-74"/>
     <use x="216.308594" xlink:href="#DejaVuSans-20"/>
     <use x="248.095703" xlink:href="#DejaVuSans-32"/>
     <use x="311.71875" xlink:href="#DejaVuSans-30"/>
     <use x="375.341797" xlink:href="#DejaVuSans-31"/>
     <use x="438.964844" xlink:href="#DejaVuSans-36"/>
    </g>
   </g>
   <g id="text_19">
    <!-- bbob-biobj f20, 5-D -->
    <defs>
     <path d="M 9.421875 54.6875 
L 18.40625 54.6875 
L 18.40625 -0.984375 
Q 18.40625 -11.421875 14.421875 -16.109375 
Q 10.453125 -20.796875 1.609375 -20.796875 
L -1.8125 -20.796875 
L -1.8125 -13.1875 
L 0.59375 -13.1875 
Q 5.71875 -13.1875 7.5625 -10.8125 
Q 9.421875 -8.453125 9.421875 -0.984375 
z
M 9.421875 75.984375 
L 18.40625 75.984375 
L 18.40625 64.59375 
L 9.421875 64.59375 
z
" id="DejaVuSans-6a"/>
     <path d="M 10.796875 72.90625 
L 49.515625 72.90625 
L 49.515625 64.59375 
L 19.828125 64.59375 
L 19.828125 46.734375 
Q 21.96875 47.46875 24.109375 47.828125 
Q 26.265625 48.1875 28.421875 48.1875 
Q 40.625 48.1875 47.75 41.5 
Q 54.890625 34.8125 54.890625 23.390625 
Q 54.890625 11.625 47.5625 5.09375 
Q 40.234375 -1.421875 26.90625 -1.421875 
Q 22.3125 -1.421875 17.546875 -0.640625 
Q 12.796875 0.140625 7.71875 1.703125 
L 7.71875 11.625 
Q 12.109375 9.234375 16.796875 8.0625 
Q 21.484375 6.890625 26.703125 6.890625 
Q 35.15625 6.890625 40.078125 11.328125 
Q 45.015625 15.765625 45.015625 23.390625 
Q 45.015625 31 40.078125 35.4375 
Q 35.15625 39.890625 26.703125 39.890625 
Q 22.75 39.890625 18.8125 39.015625 
Q 14.890625 38.140625 10.796875 36.28125 
z
" id="DejaVuSans-35"/>
    </defs>
    <g transform="translate(60.22329 35.283606)scale(0.102 -0.102)">
     <use xlink:href="#DejaVuSans-62"/>
     <use x="63.476562" xlink:href="#DejaVuSans-62"/>
     <use x="126.953125" xlink:href="#DejaVuSans-6f"/>
     <use x="188.134766" xlink:href="#DejaVuSans-62"/>
     <use x="251.611328" xlink:href="#DejaVuSans-2d"/>
     <use x="287.695312" xlink:href="#DejaVuSans-62"/>
     <use x="351.171875" xlink:href="#DejaVuSans-69"/>
     <use x="378.955078" xlink:href="#DejaVuSans-6f"/>
     <use x="440.136719" xlink:href="#DejaVuSans-62"/>
     <use x="503.613281" xlink:href="#DejaVuSans-6a"/>
     <use x="531.396484" xlink:href="#DejaVuSans-20"/>
     <use x="563.183594" xlink:href="#DejaVuSans-66"/>
     <use x="598.388672" xlink:href="#DejaVuSans-32"/>
     <use x="662.011719" xlink:href="#DejaVuSans-30"/>
     <use x="725.634766" xlink:href="#DejaVuSans-2c"/>
     <use x="757.421875" xlink:href="#DejaVuSans-20"/>
     <use x="789.208984" xlink:href="#DejaVuSans-35"/>
     <use x="852.832031" xlink:href="#DejaVuSans-2d"/>
     <use x="888.916016" xlink:href="#DejaVuSans-44"/>
    </g>
    <!-- 58 targets: 1..-1.0e-4 -->
    <defs>
     <path d="M 11.71875 12.40625 
L 22.015625 12.40625 
L 22.015625 0 
L 11.71875 0 
z
M 11.71875 51.703125 
L 22.015625 51.703125 
L 22.015625 39.3125 
L 11.71875 39.3125 
z
" id="DejaVuSans-3a"/>
    </defs>
    <g transform="translate(60.22329 46.705375)scale(0.102 -0.102)">
     <use xlink:href="#DejaVuSans-35"/>
     <use x="63.623047" xlink:href="#DejaVuSans-38"/>
     <use x="127.246094" xlink:href="#DejaVuSans-20"/>
     <use x="159.033203" xlink:href="#DejaVuSans-74"/>
     <use x="198.242188" xlink:href="#DejaVuSans-61"/>
     <use x="259.521484" xlink:href="#DejaVuSans-72"/>
     <use x="300.619141" xlink:href="#DejaVuSans-67"/>
     <use x="364.095703" xlink:href="#DejaVuSans-65"/>
     <use x="425.619141" xlink:href="#DejaVuSans-74"/>
     <use x="464.828125" xlink:href="#DejaVuSans-73"/>
     <use x="516.927734" xlink:href="#DejaVuSans-3a"/>
     <use x="550.619141" xlink:href="#DejaVuSans-20"/>
     <use x="582.40625" xlink:href="#DejaVuSans-31"/>
     <use x="646.029297" xlink:href="#DejaVuSans-2e"/>
     <use x="677.816406" xlink:href="#DejaVuSans-2e"/>
     <use x="709.603516" xlink:href="#DejaVuSans-2d"/>
     <use x="745.6875" xlink:href="#DejaVuSans-31"/>
     <use x="809.310547" xlink:href="#DejaVuSans-2e"/>
     <use x="841.097656" xlink:href="#DejaVuSans-30"/>
     <use x="904.720703" xlink:href="#DejaVuSans-65"/>
     <use x="966.244141" xlink:href="#DejaVuSans-2d"/>
     <use x="1002.328125" xlink:href="#DejaVuSans-34"/>
    </g>
    <!-- 10 instances -->
    <g transform="translate(60.22329 58.127144)scale(0.102 -0.102)">
     <use xlink:href="#DejaVuSans-31"/>
     <use x="63.623047" xlink:href="#DejaVuSans-30"/>
     <use x="127.246094" xlink:href="#DejaVuSans-20"/>
     <use x="159.033203" xlink:href="#DejaVuSans-69"/>
     <use x="186.816406" xlink:href="#DejaVuSans-6e"/>
     <use x="250.195312" xlink:href="#DejaVuSans-73"/>
     <use x="302.294922" xlink:href="#DejaVuSans-74"/>
     <use x="341.503906" xlink:href="#DejaVuSans-61"/>
     <use x="402.783203" xlink:href="#DejaVuSans-6e"/>
     <use x="466.162109" xlink:href="#DejaVuSans-63"/>
     <use x="521.142578" xlink:href="#DejaVuSans-65"/>
     <use x="582.666016" xlink:href="#DejaVuSans-73"/>
    </g>
   </g>
   <g id="text_20">
    <!-- v2.2.1.10, hv-hash=ff0e71e8cd978373 -->
    <defs>
     <path d="M 54.890625 33.015625 
L 54.890625 0 
L 45.90625 0 
L 45.90625 32.71875 
Q 45.90625 40.484375 42.875 44.328125 
Q 39.84375 48.1875 33.796875 48.1875 
Q 26.515625 48.1875 22.3125 43.546875 
Q 18.109375 38.921875 18.109375 30.90625 
L 18.109375 0 
L 9.078125 0 
L 9.078125 75.984375 
L 18.109375 75.984375 
L 18.109375 46.1875 
Q 21.34375 51.125 25.703125 53.5625 
Q 30.078125 56 35.796875 56 
Q 45.21875 56 50.046875 50.171875 
Q 54.890625 44.34375 54.890625 33.015625 
" id="DejaVuSans-68"/>
     <path d="M 10.59375 45.40625 
L 73.1875 45.40625 
L 73.1875 37.203125 
L 10.59375 37.203125 
z
M 10.59375 25.484375 
L 73.1875 25.484375 
L 73.1875 17.1875 
L 10.59375 17.1875 
z
" id="DejaVuSans-3d"/>
     <path d="M 8.203125 72.90625 
L 55.078125 72.90625 
L 55.078125 68.703125 
L 28.609375 0 
L 18.3125 0 
L 43.21875 64.59375 
L 8.203125 64.59375 
z
" id="DejaVuSans-37"/>
     <path d="M 10.984375 1.515625 
L 10.984375 10.5 
Q 14.703125 8.734375 18.5 7.8125 
Q 22.3125 6.890625 25.984375 6.890625 
Q 35.75 6.890625 40.890625 13.453125 
Q 46.046875 20.015625 46.78125 33.40625 
Q 43.953125 29.203125 39.59375 26.953125 
Q 35.25 24.703125 29.984375 24.703125 
Q 19.046875 24.703125 12.671875 31.3125 
Q 6.296875 37.9375 6.296875 49.421875 
Q 6.296875 60.640625 12.9375 67.421875 
Q 19.578125 74.21875 30.609375 74.21875 
Q 43.265625 74.21875 49.921875 64.515625 
Q 56.59375 54.828125 56.59375 36.375 
Q 56.59375 19.140625 48.40625 8.859375 
Q 40.234375 -1.421875 26.421875 -1.421875 
Q 22.703125 -1.421875 18.890625 -0.6875 
Q 15.09375 0.046875 10.984375 1.515625 
M 30.609375 32.421875 
Q 37.25 32.421875 41.125 36.953125 
Q 45.015625 41.5 45.015625 49.421875 
Q 45.015625 57.28125 41.125 61.84375 
Q 37.25 66.40625 30.609375 66.40625 
Q 23.96875 66.40625 20.09375 61.84375 
Q 16.21875 57.28125 16.21875 49.421875 
Q 16.21875 41.5 20.09375 36.953125 
Q 23.96875 32.421875 30.609375 32.421875 
" id="DejaVuSans-39"/>
     <path d="M 40.578125 39.3125 
Q 47.65625 37.796875 51.625 33 
Q 55.609375 28.21875 55.609375 21.1875 
Q 55.609375 10.40625 48.1875 4.484375 
Q 40.765625 -1.421875 27.09375 -1.421875 
Q 22.515625 -1.421875 17.65625 -0.515625 
Q 12.796875 0.390625 7.625 2.203125 
L 7.625 11.71875 
Q 11.71875 9.328125 16.59375 8.109375 
Q 21.484375 6.890625 26.8125 6.890625 
Q 36.078125 6.890625 40.9375 10.546875 
Q 45.796875 14.203125 45.796875 21.1875 
Q 45.796875 27.640625 41.28125 31.265625 
Q 36.765625 34.90625 28.71875 34.90625 
L 20.21875 34.90625 
L 20.21875 43.015625 
L 29.109375 43.015625 
Q 36.375 43.015625 40.234375 45.921875 
Q 44.09375 48.828125 44.09375 54.296875 
Q 44.09375 59.90625 40.109375 62.90625 
Q 36.140625 65.921875 28.71875 65.921875 
Q 24.65625 65.921875 20.015625 65.03125 
Q 15.375 64.15625 9.8125 62.3125 
L 9.8125 71.09375 
Q 15.4375 72.65625 20.34375 73.4375 
Q 25.25 74.21875 29.59375 74.21875 
Q 40.828125 74.21875 47.359375 69.109375 
Q 53.90625 64.015625 53.90625 55.328125 
Q 53.90625 49.265625 50.4375 45.09375 
Q 46.96875 40.921875 40.578125 39.3125 
" id="DejaVuSans-33"/>
    </defs>
    <g style="fill:#808080;" transform="translate(127.657625 289.387113)scale(0.1 -0.1)">
     <use xlink:href="#DejaVuSans-76"/>
     <use x="59.179688" xlink:href="#DejaVuSans-32"/>
     <use x="122.802734" xlink:href="#DejaVuSans-2e"/>
     <use x="154.589844" xlink:href="#DejaVuSans-32"/>
     <use x="218.212891" xlink:href="#DejaVuSans-2e"/>
     <use x="250" xlink:href="#DejaVuSans-31"/>
     <use x="313.623047" xlink:href="#DejaVuSans-2e"/>
     <use x="345.410156" xlink:href="#DejaVuSans-31"/>
     <use x="409.033203" xlink:href="#DejaVuSans-30"/>
     <use x="472.65625" xlink:href="#DejaVuSans-2c"/>
     <use x="504.443359" xlink:href="#DejaVuSans-20"/>
     <use x="536.230469" xlink:href="#DejaVuSans-68"/>
     <use x="599.609375" xlink:href="#DejaVuSans-76"/>
     <use x="658.757812" xlink:href="#DejaVuSans-2d"/>
     <use x="694.841797" xlink:href="#DejaVuSans-68"/>
     <use x="758.220703" xlink:href="#DejaVuSans-61"/>
     <use x="819.5" xlink:href="#DejaVuSans-73"/>
     <use x="871.599609" xlink:href="#DejaVuSans-68"/>
     <use x="934.978516" xlink:href="#DejaVuSans-3d"/>
     <use x="1018.767578" xlink:href="#DejaVuSans-66"/>
     <use x="1053.972656" xlink:href="#DejaVuSans-66"/>
     <use x="1089.177734" xlink:href="#DejaVuSans-30"/>
     <use x="1152.800781" xlink:href="#DejaVuSans-65"/>
     <use x="1214.324219" xlink:href="#DejaVuSans-37"/>
     <use x="1277.947266" xlink:href="#DejaVuSans-31"/>
     <use x="1341.570312" xlink:href="#DejaVuSans-65"/>
     <use x="1403.09375" xlink:href="#DejaVuSans-38"/>
     <use x="1466.716797" xlink:href="#DejaVuSans-63"/>
     <use x="1521.697266" xlink:href="#DejaVuSans-64"/>
     <use x="1585.173828" xlink:href="#DejaVuSans-39"/>
     <use x="1648.796875" xlink:href="#DejaVuSans-37"/>
     <use x="1712.419922" xlink:href="#DejaVuSans-38"/>
     <use x="1776.042969" xlink:href="#DejaVuSans-33"/>
     <use x="1839.666016" xlink:href="#DejaVuSans-37"/>
     <use x="1903.289062" xlink:href="#DejaVuSans-33"/>
    </g>
   </g>
   <g id="text_21">
    <!-- 20 Attractive sector/Attractive sector -->
    <g transform="translate(39.9795 18.84)scale(0.2 -0.2)">
     <use xlink:href="#DejaVuSans-32"/>
     <use x="63.623047" xlink:href="#DejaVuSans-30"/>
     <use x="127.246094" xlink:href="#DejaVuSans-20"/>
     <use x="159.033203" xlink:href="#DejaVuSans-41"/>
     <use x="227.425781" xlink:href="#DejaVuSans-74"/>
     <use x="266.634766" xlink:href="#DejaVuSans-74"/>
     <use x="305.84375" xlink:href="#DejaVuSans-72"/>
     <use x="346.957031" xlink:href="#DejaVuSans-61"/>
     <use x="408.236328" xlink:href="#DejaVuSans-63"/>
     <use x="463.216797" xlink:href="#DejaVuSans-74"/>
     <use x="502.425781" xlink:href="#DejaVuSans-69"/>
     <use x="530.208984" xlink:href="#DejaVuSans-76"/>
     <use x="589.388672" xlink:href="#DejaVuSans-65"/>
     <use x="650.912109" xlink:href="#DejaVuSans-20"/>
     <use x="682.699219" xlink:href="#DejaVuSans-73"/>
     <use x="734.798828" xlink:href="#DejaVuSans-65"/>
     <use x="796.322266" xlink:href="#DejaVuSans-63"/>
     <use x="851.302734" xlink:href="#DejaVuSans-74"/>
     <use x="890.511719" xlink:href="#DejaVuSans-6f"/>
     <use x="951.693359" xlink:href="#DejaVuSans-72"/>
     <use x="992.806641" xlink:href="#DejaVuSans-2f"/>
     <use x="1026.498047" xlink:href="#DejaVuSans-41"/>
     <use x="1094.890625" xlink:href="#DejaVuSans-74"/>
     <use x="1134.099609" xlink:href="#DejaVuSans-74"/>
     <use x="1173.308594" xlink:href="#DejaVuSans-72"/>
     <use x="1214.421875" xlink:href="#DejaVuSans-61"/>
     <use x="1275.701172" xlink:href="#DejaVuSans-63"/>
     <use x="1330.681641" xlink:href="#DejaVuSans-74"/>
     <use x="1369.890625" xlink:href="#DejaVuSans-69"/>
     <use x="1397.673828" xlink:href="#DejaVuSans-76"/>
     <use x="1456.853516" xlink:href="#DejaVuSans-65"/>
     <use x="1518.376953" xlink:href="#DejaVuSans-20"/>
     <use x="1550.164062" xlink:href="#DejaVuSans-73"/>
     <use x="1602.263672" xlink:href="#DejaVuSans-65"/>
     <use x="1663.787109" xlink:href="#DejaVuSans-63"/>
     <use x="1718.767578" xlink:href="#DejaVuSans-74"/>
     <use x="1757.976562" xlink:href="#DejaVuSans-6f"/>
     <use x="1819.158203" xlink:href="#DejaVuSans-72"/>
    </g>
   </g>
  </g>
 </g>
 <defs>
  <clipPath id="pe38ede185c">
   <rect height="269.32" width="338.329" x="56.84" y="24.84"/>
  </clipPath>
 </defs>
</svg>
