<?xml version="1.0" encoding="utf-8" standalone="no"?>
<!DOCTYPE svg PUBLIC "-//W3C//DTD SVG 1.1//EN"
  "http://www.w3.org/Graphics/SVG/1.1/DTD/svg11.dtd">
<!-- Created with matplotlib (http://matplotlib.org/) -->
<svg height="345pt" version="1.1" viewBox="0 0 460 345" width="460pt" xmlns="http://www.w3.org/2000/svg" xmlns:xlink="http://www.w3.org/1999/xlink">
 <defs>
  <style type="text/css">
*{stroke-linecap:butt;stroke-linejoin:round;}
  </style>
 </defs>
 <g id="figure_1">
  <g id="patch_1">
   <path d="M 0 345.6 
L 460.8 345.6 
L 460.8 0 
L 0 0 
z
" style="fill:#ffffff;"/>
  </g>
  <g id="axes_1">
   <g id="patch_2">
    <path d="M 56.84 294.16 
L 399.984 294.16 
L 399.984 24.84 
L 56.84 24.84 
z
" style="fill:#ffffff;"/>
   </g>
   <g id="line2d_1">
    <path d="M 62.616839 294.16 
L 62.616839 289.562526 
L 66.931616 289.562526 
L 66.931616 280.367579 
L 71.870784 280.367579 
L 71.870784 271.172632 
L 83.771318 271.172632 
L 83.771318 266.575159 
L 93.379273 266.575159 
L 93.379273 252.782738 
L 99.502969 252.782738 
L 99.502969 243.587791 
L 104.86608 243.587791 
L 104.86608 238.990318 
L 111.403503 238.990318 
L 111.403503 229.79537 
L 116.661606 229.79537 
L 116.661606 216.00295 
L 124.004904 216.00295 
L 124.004904 206.808003 
L 137.85116 206.808003 
L 137.85116 197.613056 
L 155.594105 197.613056 
L 155.594105 188.418109 
L 161.241118 188.418109 
L 161.241118 183.820635 
L 168.705325 183.820635 
L 168.705325 170.028214 
L 170.35647 170.028214 
L 170.35647 165.430741 
L 177.328604 165.430741 
L 177.328604 151.63832 
L 183.716615 151.63832 
L 183.716615 142.443373 
L 190.1104 142.443373 
L 190.1104 137.8459 
L 200.341374 137.8459 
L 200.341374 124.053479 
L 202.561546 124.053479 
L 202.561546 119.456005 
L 206.611688 119.456005 
L 206.611688 105.663585 
L 212.817047 105.663585 
L 212.817047 96.468638 
L 217.719779 96.468638 
L 217.719779 87.273691 
L 219.615053 87.273691 
L 219.615053 82.676217 
L 221.659041 82.676217 
L 221.659041 73.48127 
L 224.405089 73.48127 
L 224.405089 59.688849 
L 333.569032 59.688849 
" style="fill:none;stroke:#f5deb3;stroke-linecap:square;stroke-width:6;"/>
   </g>
   <g id="line2d_2">
    <defs>
     <path d="M -0 7.778175 
L 7.778175 0 
L 0 -7.778175 
L -7.778175 -0 
z
" id="md7b53fbc2e" style="stroke:#f5deb3;stroke-linejoin:miter;stroke-width:1.5;"/>
    </defs>
    <g>
     <use style="fill:#f5deb3;stroke:#f5deb3;stroke-linejoin:miter;stroke-width:1.5;" x="168.705325" xlink:href="#md7b53fbc2e" y="183.820635"/>
     <use style="fill:#f5deb3;stroke:#f5deb3;stroke-linejoin:miter;stroke-width:1.5;" x="206.611688" xlink:href="#md7b53fbc2e" y="105.663585"/>
     <use style="fill:#f5deb3;stroke:#f5deb3;stroke-linejoin:miter;stroke-width:1.5;" x="224.405089" xlink:href="#md7b53fbc2e" y="59.688849"/>
     <use style="fill:#f5deb3;stroke:#f5deb3;stroke-linejoin:miter;stroke-width:1.5;" x="224.405089" xlink:href="#md7b53fbc2e" y="59.688849"/>
     <use style="fill:#f5deb3;stroke:#f5deb3;stroke-linejoin:miter;stroke-width:1.5;" x="333.569032" xlink:href="#md7b53fbc2e" y="59.688849"/>
    </g>
   </g>
   <g id="line2d_3">
    <path style="fill:none;stroke:#f5deb3;stroke-linecap:square;stroke-width:6;"/>
    <g/>
   </g>
   <g id="line2d_4">
    <path d="M 333.569032 59.688849 
L 364.009226 32.839604 
" style="fill:none;stroke:#f5deb3;stroke-linecap:square;stroke-width:6;"/>
    <g>
     <use style="fill:#f5deb3;stroke:#f5deb3;stroke-linejoin:miter;stroke-width:1.5;" x="333.569032" xlink:href="#md7b53fbc2e" y="59.688849"/>
     <use style="fill:#f5deb3;stroke:#f5deb3;stroke-linejoin:miter;stroke-width:1.5;" x="364.009226" xlink:href="#md7b53fbc2e" y="32.839604"/>
    </g>
   </g>
   <g id="matplotlib.axis_1">
    <g id="xtick_1">
     <g id="line2d_5">
      <path clip-path="url(#pb56b48fc87)" d="M 56.84 294.16 
L 56.84 24.84 
" style="fill:none;stroke:#b0b0b0;stroke-linecap:square;stroke-width:0.8;"/>
     </g>
     <g id="line2d_6">
      <defs>
       <path d="M 0 0 
L 0 3.5 
" id="m5d9a9dcc5e" style="stroke:#000000;stroke-width:0.8;"/>
      </defs>
      <g>
       <use style="stroke:#000000;stroke-width:0.8;" x="56.84" xlink:href="#m5d9a9dcc5e" y="294.16"/>
      </g>
     </g>
     <g id="text_1">
      <!-- 0 -->
      <defs>
       <path d="M 31.78125 66.40625 
Q 24.171875 66.40625 20.328125 58.90625 
Q 16.5 51.421875 16.5 36.375 
Q 16.5 21.390625 20.328125 13.890625 
Q 24.171875 6.390625 31.78125 6.390625 
Q 39.453125 6.390625 43.28125 13.890625 
Q 47.125 21.390625 47.125 36.375 
Q 47.125 51.421875 43.28125 58.90625 
Q 39.453125 66.40625 31.78125 66.40625 
M 31.78125 74.21875 
Q 44.046875 74.21875 50.515625 64.515625 
Q 56.984375 54.828125 56.984375 36.375 
Q 56.984375 17.96875 50.515625 8.265625 
Q 44.046875 -1.421875 31.78125 -1.421875 
Q 19.53125 -1.421875 13.0625 8.265625 
Q 6.59375 17.96875 6.59375 36.375 
Q 6.59375 54.828125 13.0625 64.515625 
Q 19.53125 74.21875 31.78125 74.21875 
" id="DejaVuSans-30"/>
      </defs>
      <g transform="translate(50.4775 316.356875)scale(0.2 -0.2)">
       <use xlink:href="#DejaVuSans-30"/>
      </g>
     </g>
    </g>
    <g id="xtick_2">
     <g id="line2d_7">
      <path clip-path="url(#pb56b48fc87)" d="M 135.905438 294.16 
L 135.905438 24.84 
" style="fill:none;stroke:#b0b0b0;stroke-linecap:square;stroke-width:0.8;"/>
     </g>
     <g id="line2d_8">
      <g>
       <use style="stroke:#000000;stroke-width:0.8;" x="135.905438" xlink:href="#m5d9a9dcc5e" y="294.16"/>
      </g>
     </g>
     <g id="text_2">
      <!-- 2 -->
      <defs>
       <path d="M 19.1875 8.296875 
L 53.609375 8.296875 
L 53.609375 0 
L 7.328125 0 
L 7.328125 8.296875 
Q 12.9375 14.109375 22.625 23.890625 
Q 32.328125 33.6875 34.8125 36.53125 
Q 39.546875 41.84375 41.421875 45.53125 
Q 43.3125 49.21875 43.3125 52.78125 
Q 43.3125 58.59375 39.234375 62.25 
Q 35.15625 65.921875 28.609375 65.921875 
Q 23.96875 65.921875 18.8125 64.3125 
Q 13.671875 62.703125 7.8125 59.421875 
L 7.8125 69.390625 
Q 13.765625 71.78125 18.9375 73 
Q 24.125 74.21875 28.421875 74.21875 
Q 39.75 74.21875 46.484375 68.546875 
Q 53.21875 62.890625 53.21875 53.421875 
Q 53.21875 48.921875 51.53125 44.890625 
Q 49.859375 40.875 45.40625 35.40625 
Q 44.1875 33.984375 37.640625 27.21875 
Q 31.109375 20.453125 19.1875 8.296875 
" id="DejaVuSans-32"/>
      </defs>
      <g transform="translate(129.542938 316.356875)scale(0.2 -0.2)">
       <use xlink:href="#DejaVuSans-32"/>
      </g>
     </g>
    </g>
    <g id="xtick_3">
     <g id="line2d_9">
      <path clip-path="url(#pb56b48fc87)" d="M 214.970876 294.16 
L 214.970876 24.84 
" style="fill:none;stroke:#b0b0b0;stroke-linecap:square;stroke-width:0.8;"/>
     </g>
     <g id="line2d_10">
      <g>
       <use style="stroke:#000000;stroke-width:0.8;" x="214.970876" xlink:href="#m5d9a9dcc5e" y="294.16"/>
      </g>
     </g>
     <g id="text_3">
      <!-- 4 -->
      <defs>
       <path d="M 37.796875 64.3125 
L 12.890625 25.390625 
L 37.796875 25.390625 
z
M 35.203125 72.90625 
L 47.609375 72.90625 
L 47.609375 25.390625 
L 58.015625 25.390625 
L 58.015625 17.1875 
L 47.609375 17.1875 
L 47.609375 0 
L 37.796875 0 
L 37.796875 17.1875 
L 4.890625 17.1875 
L 4.890625 26.703125 
z
" id="DejaVuSans-34"/>
      </defs>
      <g transform="translate(208.608376 316.356875)scale(0.2 -0.2)">
       <use xlink:href="#DejaVuSans-34"/>
      </g>
     </g>
    </g>
    <g id="xtick_4">
     <g id="line2d_11">
      <path clip-path="url(#pb56b48fc87)" d="M 294.036313 294.16 
L 294.036313 24.84 
" style="fill:none;stroke:#b0b0b0;stroke-linecap:square;stroke-width:0.8;"/>
     </g>
     <g id="line2d_12">
      <g>
       <use style="stroke:#000000;stroke-width:0.8;" x="294.036313" xlink:href="#m5d9a9dcc5e" y="294.16"/>
      </g>
     </g>
     <g id="text_4">
      <!-- 6 -->
      <defs>
       <path d="M 33.015625 40.375 
Q 26.375 40.375 22.484375 35.828125 
Q 18.609375 31.296875 18.609375 23.390625 
Q 18.609375 15.53125 22.484375 10.953125 
Q 26.375 6.390625 33.015625 6.390625 
Q 39.65625 6.390625 43.53125 10.953125 
Q 47.40625 15.53125 47.40625 23.390625 
Q 47.40625 31.296875 43.53125 35.828125 
Q 39.65625 40.375 33.015625 40.375 
M 52.59375 71.296875 
L 52.59375 62.3125 
Q 48.875 64.0625 45.09375 64.984375 
Q 41.3125 65.921875 37.59375 65.921875 
Q 27.828125 65.921875 22.671875 59.328125 
Q 17.53125 52.734375 16.796875 39.40625 
Q 19.671875 43.65625 24.015625 45.921875 
Q 28.375 48.1875 33.59375 48.1875 
Q 44.578125 48.1875 50.953125 41.515625 
Q 57.328125 34.859375 57.328125 23.390625 
Q 57.328125 12.15625 50.6875 5.359375 
Q 44.046875 -1.421875 33.015625 -1.421875 
Q 20.359375 -1.421875 13.671875 8.265625 
Q 6.984375 17.96875 6.984375 36.375 
Q 6.984375 53.65625 15.1875 63.9375 
Q 23.390625 74.21875 37.203125 74.21875 
Q 40.921875 74.21875 44.703125 73.484375 
Q 48.484375 72.75 52.59375 71.296875 
" id="DejaVuSans-36"/>
      </defs>
      <g transform="translate(287.673813 316.356875)scale(0.2 -0.2)">
       <use xlink:href="#DejaVuSans-36"/>
      </g>
     </g>
    </g>
    <g id="xtick_5">
     <g id="line2d_13">
      <path clip-path="url(#pb56b48fc87)" d="M 373.101751 294.16 
L 373.101751 24.84 
" style="fill:none;stroke:#b0b0b0;stroke-linecap:square;stroke-width:0.8;"/>
     </g>
     <g id="line2d_14">
      <g>
       <use style="stroke:#000000;stroke-width:0.8;" x="373.101751" xlink:href="#m5d9a9dcc5e" y="294.16"/>
      </g>
     </g>
     <g id="text_5">
      <!-- 8 -->
      <defs>
       <path d="M 31.78125 34.625 
Q 24.75 34.625 20.71875 30.859375 
Q 16.703125 27.09375 16.703125 20.515625 
Q 16.703125 13.921875 20.71875 10.15625 
Q 24.75 6.390625 31.78125 6.390625 
Q 38.8125 6.390625 42.859375 10.171875 
Q 46.921875 13.96875 46.921875 20.515625 
Q 46.921875 27.09375 42.890625 30.859375 
Q 38.875 34.625 31.78125 34.625 
M 21.921875 38.8125 
Q 15.578125 40.375 12.03125 44.71875 
Q 8.5 49.078125 8.5 55.328125 
Q 8.5 64.0625 14.71875 69.140625 
Q 20.953125 74.21875 31.78125 74.21875 
Q 42.671875 74.21875 48.875 69.140625 
Q 55.078125 64.0625 55.078125 55.328125 
Q 55.078125 49.078125 51.53125 44.71875 
Q 48 40.375 41.703125 38.8125 
Q 48.828125 37.15625 52.796875 32.3125 
Q 56.78125 27.484375 56.78125 20.515625 
Q 56.78125 9.90625 50.3125 4.234375 
Q 43.84375 -1.421875 31.78125 -1.421875 
Q 19.734375 -1.421875 13.25 4.234375 
Q 6.78125 9.90625 6.78125 20.515625 
Q 6.78125 27.484375 10.78125 32.3125 
Q 14.796875 37.15625 21.921875 38.8125 
M 18.3125 54.390625 
Q 18.3125 48.734375 21.84375 45.5625 
Q 25.390625 42.390625 31.78125 42.390625 
Q 38.140625 42.390625 41.71875 45.5625 
Q 45.3125 48.734375 45.3125 54.390625 
Q 45.3125 60.0625 41.71875 63.234375 
Q 38.140625 66.40625 31.78125 66.40625 
Q 25.390625 66.40625 21.84375 63.234375 
Q 18.3125 60.0625 18.3125 54.390625 
" id="DejaVuSans-38"/>
      </defs>
      <g transform="translate(366.739251 316.356875)scale(0.2 -0.2)">
       <use xlink:href="#DejaVuSans-38"/>
      </g>
     </g>
    </g>
    <g id="xtick_6">
     <g id="line2d_15">
      <defs>
       <path d="M 0 0 
L 0 2 
" id="mb5ce23353e" style="stroke:#000000;stroke-width:0.6;"/>
      </defs>
      <g>
       <use style="stroke:#000000;stroke-width:0.6;" x="68.740534" xlink:href="#mb5ce23353e" y="294.16"/>
      </g>
     </g>
    </g>
    <g id="xtick_7">
     <g id="line2d_16">
      <g>
       <use style="stroke:#000000;stroke-width:0.6;" x="80.641068" xlink:href="#mb5ce23353e" y="294.16"/>
      </g>
     </g>
    </g>
    <g id="xtick_8">
     <g id="line2d_17">
      <g>
       <use style="stroke:#000000;stroke-width:0.6;" x="87.602435" xlink:href="#mb5ce23353e" y="294.16"/>
      </g>
     </g>
    </g>
    <g id="xtick_9">
     <g id="line2d_18">
      <g>
       <use style="stroke:#000000;stroke-width:0.6;" x="92.541603" xlink:href="#mb5ce23353e" y="294.16"/>
      </g>
     </g>
    </g>
    <g id="xtick_10">
     <g id="line2d_19">
      <g>
       <use style="stroke:#000000;stroke-width:0.6;" x="147.805972" xlink:href="#mb5ce23353e" y="294.16"/>
      </g>
     </g>
    </g>
    <g id="xtick_11">
     <g id="line2d_20">
      <g>
       <use style="stroke:#000000;stroke-width:0.6;" x="159.706506" xlink:href="#mb5ce23353e" y="294.16"/>
      </g>
     </g>
    </g>
    <g id="xtick_12">
     <g id="line2d_21">
      <g>
       <use style="stroke:#000000;stroke-width:0.6;" x="166.667872" xlink:href="#mb5ce23353e" y="294.16"/>
      </g>
     </g>
    </g>
    <g id="xtick_13">
     <g id="line2d_22">
      <g>
       <use style="stroke:#000000;stroke-width:0.6;" x="171.60704" xlink:href="#mb5ce23353e" y="294.16"/>
      </g>
     </g>
    </g>
    <g id="xtick_14">
     <g id="line2d_23">
      <g>
       <use style="stroke:#000000;stroke-width:0.6;" x="226.87141" xlink:href="#mb5ce23353e" y="294.16"/>
      </g>
     </g>
    </g>
    <g id="xtick_15">
     <g id="line2d_24">
      <g>
       <use style="stroke:#000000;stroke-width:0.6;" x="238.771944" xlink:href="#mb5ce23353e" y="294.16"/>
      </g>
     </g>
    </g>
    <g id="xtick_16">
     <g id="line2d_25">
      <g>
       <use style="stroke:#000000;stroke-width:0.6;" x="245.73331" xlink:href="#mb5ce23353e" y="294.16"/>
      </g>
     </g>
    </g>
    <g id="xtick_17">
     <g id="line2d_26">
      <g>
       <use style="stroke:#000000;stroke-width:0.6;" x="250.672478" xlink:href="#mb5ce23353e" y="294.16"/>
      </g>
     </g>
    </g>
    <g id="xtick_18">
     <g id="line2d_27">
      <g>
       <use style="stroke:#000000;stroke-width:0.6;" x="305.936848" xlink:href="#mb5ce23353e" y="294.16"/>
      </g>
     </g>
    </g>
    <g id="xtick_19">
     <g id="line2d_28">
      <g>
       <use style="stroke:#000000;stroke-width:0.6;" x="317.837382" xlink:href="#mb5ce23353e" y="294.16"/>
      </g>
     </g>
    </g>
    <g id="xtick_20">
     <g id="line2d_29">
      <g>
       <use style="stroke:#000000;stroke-width:0.6;" x="324.798748" xlink:href="#mb5ce23353e" y="294.16"/>
      </g>
     </g>
    </g>
    <g id="xtick_21">
     <g id="line2d_30">
      <g>
       <use style="stroke:#000000;stroke-width:0.6;" x="329.737916" xlink:href="#mb5ce23353e" y="294.16"/>
      </g>
     </g>
    </g>
    <g id="xtick_22">
     <g id="line2d_31">
      <g>
       <use style="stroke:#000000;stroke-width:0.6;" x="385.002285" xlink:href="#mb5ce23353e" y="294.16"/>
      </g>
     </g>
    </g>
    <g id="xtick_23">
     <g id="line2d_32">
      <g>
       <use style="stroke:#000000;stroke-width:0.6;" x="396.90282" xlink:href="#mb5ce23353e" y="294.16"/>
      </g>
     </g>
    </g>
    <g id="text_6">
     <!-- log10(# f-evals / dimension) -->
     <defs>
      <path d="M 9.421875 75.984375 
L 18.40625 75.984375 
L 18.40625 0 
L 9.421875 0 
z
" id="DejaVuSans-6c"/>
      <path d="M 30.609375 48.390625 
Q 23.390625 48.390625 19.1875 42.75 
Q 14.984375 37.109375 14.984375 27.296875 
Q 14.984375 17.484375 19.15625 11.84375 
Q 23.34375 6.203125 30.609375 6.203125 
Q 37.796875 6.203125 41.984375 11.859375 
Q 46.1875 17.53125 46.1875 27.296875 
Q 46.1875 37.015625 41.984375 42.703125 
Q 37.796875 48.390625 30.609375 48.390625 
M 30.609375 56 
Q 42.328125 56 49.015625 48.375 
Q 55.71875 40.765625 55.71875 27.296875 
Q 55.71875 13.875 49.015625 6.21875 
Q 42.328125 -1.421875 30.609375 -1.421875 
Q 18.84375 -1.421875 12.171875 6.21875 
Q 5.515625 13.875 5.515625 27.296875 
Q 5.515625 40.765625 12.171875 48.375 
Q 18.84375 56 30.609375 56 
" id="DejaVuSans-6f"/>
      <path d="M 45.40625 27.984375 
Q 45.40625 37.75 41.375 43.109375 
Q 37.359375 48.484375 30.078125 48.484375 
Q 22.859375 48.484375 18.828125 43.109375 
Q 14.796875 37.75 14.796875 27.984375 
Q 14.796875 18.265625 18.828125 12.890625 
Q 22.859375 7.515625 30.078125 7.515625 
Q 37.359375 7.515625 41.375 12.890625 
Q 45.40625 18.265625 45.40625 27.984375 
M 54.390625 6.78125 
Q 54.390625 -7.171875 48.1875 -13.984375 
Q 42 -20.796875 29.203125 -20.796875 
Q 24.46875 -20.796875 20.265625 -20.09375 
Q 16.0625 -19.390625 12.109375 -17.921875 
L 12.109375 -9.1875 
Q 16.0625 -11.328125 19.921875 -12.34375 
Q 23.78125 -13.375 27.78125 -13.375 
Q 36.625 -13.375 41.015625 -8.765625 
Q 45.40625 -4.15625 45.40625 5.171875 
L 45.40625 9.625 
Q 42.625 4.78125 38.28125 2.390625 
Q 33.9375 0 27.875 0 
Q 17.828125 0 11.671875 7.65625 
Q 5.515625 15.328125 5.515625 27.984375 
Q 5.515625 40.671875 11.671875 48.328125 
Q 17.828125 56 27.875 56 
Q 33.9375 56 38.28125 53.609375 
Q 42.625 51.21875 45.40625 46.390625 
L 45.40625 54.6875 
L 54.390625 54.6875 
z
" id="DejaVuSans-67"/>
      <path d="M 12.40625 8.296875 
L 28.515625 8.296875 
L 28.515625 63.921875 
L 10.984375 60.40625 
L 10.984375 69.390625 
L 28.421875 72.90625 
L 38.28125 72.90625 
L 38.28125 8.296875 
L 54.390625 8.296875 
L 54.390625 0 
L 12.40625 0 
z
" id="DejaVuSans-31"/>
      <path d="M 31 75.875 
Q 24.46875 64.65625 21.28125 53.65625 
Q 18.109375 42.671875 18.109375 31.390625 
Q 18.109375 20.125 21.3125 9.0625 
Q 24.515625 -2 31 -13.1875 
L 23.1875 -13.1875 
Q 15.875 -1.703125 12.234375 9.375 
Q 8.59375 20.453125 8.59375 31.390625 
Q 8.59375 42.28125 12.203125 53.3125 
Q 15.828125 64.359375 23.1875 75.875 
z
" id="DejaVuSans-28"/>
      <path d="M 51.125 44 
L 36.921875 44 
L 32.8125 27.6875 
L 47.125 27.6875 
z
M 43.796875 71.78125 
L 38.71875 51.515625 
L 52.984375 51.515625 
L 58.109375 71.78125 
L 65.921875 71.78125 
L 60.890625 51.515625 
L 76.125 51.515625 
L 76.125 44 
L 58.984375 44 
L 54.984375 27.6875 
L 70.515625 27.6875 
L 70.515625 20.21875 
L 53.078125 20.21875 
L 48 0 
L 40.1875 0 
L 45.21875 20.21875 
L 30.90625 20.21875 
L 25.875 0 
L 18.015625 0 
L 23.09375 20.21875 
L 7.71875 20.21875 
L 7.71875 27.6875 
L 24.90625 27.6875 
L 29 44 
L 13.28125 44 
L 13.28125 51.515625 
L 30.90625 51.515625 
L 35.890625 71.78125 
z
" id="DejaVuSans-23"/>
      <path id="DejaVuSans-20"/>
      <path d="M 37.109375 75.984375 
L 37.109375 68.5 
L 28.515625 68.5 
Q 23.6875 68.5 21.796875 66.546875 
Q 19.921875 64.59375 19.921875 59.515625 
L 19.921875 54.6875 
L 34.71875 54.6875 
L 34.71875 47.703125 
L 19.921875 47.703125 
L 19.921875 0 
L 10.890625 0 
L 10.890625 47.703125 
L 2.296875 47.703125 
L 2.296875 54.6875 
L 10.890625 54.6875 
L 10.890625 58.5 
Q 10.890625 67.625 15.140625 71.796875 
Q 19.390625 75.984375 28.609375 75.984375 
z
" id="DejaVuSans-66"/>
      <path d="M 4.890625 31.390625 
L 31.203125 31.390625 
L 31.203125 23.390625 
L 4.890625 23.390625 
z
" id="DejaVuSans-2d"/>
      <path d="M 56.203125 29.59375 
L 56.203125 25.203125 
L 14.890625 25.203125 
Q 15.484375 15.921875 20.484375 11.0625 
Q 25.484375 6.203125 34.421875 6.203125 
Q 39.59375 6.203125 44.453125 7.46875 
Q 49.3125 8.734375 54.109375 11.28125 
L 54.109375 2.78125 
Q 49.265625 0.734375 44.1875 -0.34375 
Q 39.109375 -1.421875 33.890625 -1.421875 
Q 20.796875 -1.421875 13.15625 6.1875 
Q 5.515625 13.8125 5.515625 26.8125 
Q 5.515625 40.234375 12.765625 48.109375 
Q 20.015625 56 32.328125 56 
Q 43.359375 56 49.78125 48.890625 
Q 56.203125 41.796875 56.203125 29.59375 
M 47.21875 32.234375 
Q 47.125 39.59375 43.09375 43.984375 
Q 39.0625 48.390625 32.421875 48.390625 
Q 24.90625 48.390625 20.390625 44.140625 
Q 15.875 39.890625 15.1875 32.171875 
z
" id="DejaVuSans-65"/>
      <path d="M 2.984375 54.6875 
L 12.5 54.6875 
L 29.59375 8.796875 
L 46.6875 54.6875 
L 56.203125 54.6875 
L 35.6875 0 
L 23.484375 0 
z
" id="DejaVuSans-76"/>
      <path d="M 34.28125 27.484375 
Q 23.390625 27.484375 19.1875 25 
Q 14.984375 22.515625 14.984375 16.5 
Q 14.984375 11.71875 18.140625 8.90625 
Q 21.296875 6.109375 26.703125 6.109375 
Q 34.1875 6.109375 38.703125 11.40625 
Q 43.21875 16.703125 43.21875 25.484375 
L 43.21875 27.484375 
z
M 52.203125 31.203125 
L 52.203125 0 
L 43.21875 0 
L 43.21875 8.296875 
Q 40.140625 3.328125 35.546875 0.953125 
Q 30.953125 -1.421875 24.3125 -1.421875 
Q 15.921875 -1.421875 10.953125 3.296875 
Q 6 8.015625 6 15.921875 
Q 6 25.140625 12.171875 29.828125 
Q 18.359375 34.515625 30.609375 34.515625 
L 43.21875 34.515625 
L 43.21875 35.40625 
Q 43.21875 41.609375 39.140625 45 
Q 35.0625 48.390625 27.6875 48.390625 
Q 23 48.390625 18.546875 47.265625 
Q 14.109375 46.140625 10.015625 43.890625 
L 10.015625 52.203125 
Q 14.9375 54.109375 19.578125 55.046875 
Q 24.21875 56 28.609375 56 
Q 40.484375 56 46.34375 49.84375 
Q 52.203125 43.703125 52.203125 31.203125 
" id="DejaVuSans-61"/>
      <path d="M 44.28125 53.078125 
L 44.28125 44.578125 
Q 40.484375 46.53125 36.375 47.5 
Q 32.28125 48.484375 27.875 48.484375 
Q 21.1875 48.484375 17.84375 46.4375 
Q 14.5 44.390625 14.5 40.28125 
Q 14.5 37.15625 16.890625 35.375 
Q 19.28125 33.59375 26.515625 31.984375 
L 29.59375 31.296875 
Q 39.15625 29.25 43.1875 25.515625 
Q 47.21875 21.78125 47.21875 15.09375 
Q 47.21875 7.46875 41.1875 3.015625 
Q 35.15625 -1.421875 24.609375 -1.421875 
Q 20.21875 -1.421875 15.453125 -0.5625 
Q 10.6875 0.296875 5.421875 2 
L 5.421875 11.28125 
Q 10.40625 8.6875 15.234375 7.390625 
Q 20.0625 6.109375 24.8125 6.109375 
Q 31.15625 6.109375 34.5625 8.28125 
Q 37.984375 10.453125 37.984375 14.40625 
Q 37.984375 18.0625 35.515625 20.015625 
Q 33.0625 21.96875 24.703125 23.78125 
L 21.578125 24.515625 
Q 13.234375 26.265625 9.515625 29.90625 
Q 5.8125 33.546875 5.8125 39.890625 
Q 5.8125 47.609375 11.28125 51.796875 
Q 16.75 56 26.8125 56 
Q 31.78125 56 36.171875 55.265625 
Q 40.578125 54.546875 44.28125 53.078125 
" id="DejaVuSans-73"/>
      <path d="M 25.390625 72.90625 
L 33.6875 72.90625 
L 8.296875 -9.28125 
L 0 -9.28125 
z
" id="DejaVuSans-2f"/>
      <path d="M 45.40625 46.390625 
L 45.40625 75.984375 
L 54.390625 75.984375 
L 54.390625 0 
L 45.40625 0 
L 45.40625 8.203125 
Q 42.578125 3.328125 38.25 0.953125 
Q 33.9375 -1.421875 27.875 -1.421875 
Q 17.96875 -1.421875 11.734375 6.484375 
Q 5.515625 14.40625 5.515625 27.296875 
Q 5.515625 40.1875 11.734375 48.09375 
Q 17.96875 56 27.875 56 
Q 33.9375 56 38.25 53.625 
Q 42.578125 51.265625 45.40625 46.390625 
M 14.796875 27.296875 
Q 14.796875 17.390625 18.875 11.75 
Q 22.953125 6.109375 30.078125 6.109375 
Q 37.203125 6.109375 41.296875 11.75 
Q 45.40625 17.390625 45.40625 27.296875 
Q 45.40625 37.203125 41.296875 42.84375 
Q 37.203125 48.484375 30.078125 48.484375 
Q 22.953125 48.484375 18.875 42.84375 
Q 14.796875 37.203125 14.796875 27.296875 
" id="DejaVuSans-64"/>
      <path d="M 9.421875 54.6875 
L 18.40625 54.6875 
L 18.40625 0 
L 9.421875 0 
z
M 9.421875 75.984375 
L 18.40625 75.984375 
L 18.40625 64.59375 
L 9.421875 64.59375 
z
" id="DejaVuSans-69"/>
      <path d="M 52 44.1875 
Q 55.375 50.25 60.0625 53.125 
Q 64.75 56 71.09375 56 
Q 79.640625 56 84.28125 50.015625 
Q 88.921875 44.046875 88.921875 33.015625 
L 88.921875 0 
L 79.890625 0 
L 79.890625 32.71875 
Q 79.890625 40.578125 77.09375 44.375 
Q 74.3125 48.1875 68.609375 48.1875 
Q 61.625 48.1875 57.5625 43.546875 
Q 53.515625 38.921875 53.515625 30.90625 
L 53.515625 0 
L 44.484375 0 
L 44.484375 32.71875 
Q 44.484375 40.625 41.703125 44.40625 
Q 38.921875 48.1875 33.109375 48.1875 
Q 26.21875 48.1875 22.15625 43.53125 
Q 18.109375 38.875 18.109375 30.90625 
L 18.109375 0 
L 9.078125 0 
L 9.078125 54.6875 
L 18.109375 54.6875 
L 18.109375 46.1875 
Q 21.1875 51.21875 25.484375 53.609375 
Q 29.78125 56 35.6875 56 
Q 41.65625 56 45.828125 52.96875 
Q 50 49.953125 52 44.1875 
" id="DejaVuSans-6d"/>
      <path d="M 54.890625 33.015625 
L 54.890625 0 
L 45.90625 0 
L 45.90625 32.71875 
Q 45.90625 40.484375 42.875 44.328125 
Q 39.84375 48.1875 33.796875 48.1875 
Q 26.515625 48.1875 22.3125 43.546875 
Q 18.109375 38.921875 18.109375 30.90625 
L 18.109375 0 
L 9.078125 0 
L 9.078125 54.6875 
L 18.109375 54.6875 
L 18.109375 46.1875 
Q 21.34375 51.125 25.703125 53.5625 
Q 30.078125 56 35.796875 56 
Q 45.21875 56 50.046875 50.171875 
Q 54.890625 44.34375 54.890625 33.015625 
" id="DejaVuSans-6e"/>
      <path d="M 8.015625 75.875 
L 15.828125 75.875 
Q 23.140625 64.359375 26.78125 53.3125 
Q 30.421875 42.28125 30.421875 31.390625 
Q 30.421875 20.453125 26.78125 9.375 
Q 23.140625 -1.703125 15.828125 -13.1875 
L 8.015625 -13.1875 
Q 14.5 -2 17.703125 9.0625 
Q 20.90625 20.125 20.90625 31.390625 
Q 20.90625 42.671875 17.703125 53.65625 
Q 14.5 64.65625 8.015625 75.875 
" id="DejaVuSans-29"/>
     </defs>
     <g transform="translate(107.571219 337.433594)scale(0.17 -0.17)">
      <use xlink:href="#DejaVuSans-6c"/>
      <use x="27.783203" xlink:href="#DejaVuSans-6f"/>
      <use x="88.964844" xlink:href="#DejaVuSans-67"/>
      <use x="152.441406" xlink:href="#DejaVuSans-31"/>
      <use x="216.064453" xlink:href="#DejaVuSans-30"/>
      <use x="279.6875" xlink:href="#DejaVuSans-28"/>
      <use x="318.701172" xlink:href="#DejaVuSans-23"/>
      <use x="402.490234" xlink:href="#DejaVuSans-20"/>
      <use x="434.277344" xlink:href="#DejaVuSans-66"/>
      <use x="469.404297" xlink:href="#DejaVuSans-2d"/>
      <use x="505.488281" xlink:href="#DejaVuSans-65"/>
      <use x="567.011719" xlink:href="#DejaVuSans-76"/>
      <use x="626.191406" xlink:href="#DejaVuSans-61"/>
      <use x="687.470703" xlink:href="#DejaVuSans-6c"/>
      <use x="715.253906" xlink:href="#DejaVuSans-73"/>
      <use x="767.353516" xlink:href="#DejaVuSans-20"/>
      <use x="799.140625" xlink:href="#DejaVuSans-2f"/>
      <use x="832.832031" xlink:href="#DejaVuSans-20"/>
      <use x="864.619141" xlink:href="#DejaVuSans-64"/>
      <use x="928.095703" xlink:href="#DejaVuSans-69"/>
      <use x="955.878906" xlink:href="#DejaVuSans-6d"/>
      <use x="1053.291016" xlink:href="#DejaVuSans-65"/>
      <use x="1114.814453" xlink:href="#DejaVuSans-6e"/>
      <use x="1178.193359" xlink:href="#DejaVuSans-73"/>
      <use x="1230.292969" xlink:href="#DejaVuSans-69"/>
      <use x="1258.076172" xlink:href="#DejaVuSans-6f"/>
      <use x="1319.257812" xlink:href="#DejaVuSans-6e"/>
      <use x="1382.636719" xlink:href="#DejaVuSans-29"/>
     </g>
    </g>
   </g>
   <g id="matplotlib.axis_2">
    <g id="ytick_1">
     <g id="line2d_33">
      <path clip-path="url(#pb56b48fc87)" d="M 56.84 294.16 
L 399.984 294.16 
" style="fill:none;stroke:#b0b0b0;stroke-linecap:square;stroke-width:0.8;"/>
     </g>
     <g id="line2d_34">
      <defs>
       <path d="M 0 0 
L -3.5 0 
" id="m8ff7dea23e" style="stroke:#000000;stroke-width:0.8;"/>
      </defs>
      <g>
       <use style="stroke:#000000;stroke-width:0.8;" x="56.84" xlink:href="#m8ff7dea23e" y="294.16"/>
      </g>
     </g>
     <g id="text_7">
      <!-- 0.0 -->
      <defs>
       <path d="M 10.6875 12.40625 
L 21 12.40625 
L 21 0 
L 10.6875 0 
z
" id="DejaVuSans-2e"/>
      </defs>
      <g transform="translate(24.395 300.23875)scale(0.16 -0.16)">
       <use xlink:href="#DejaVuSans-30"/>
       <use x="63.623047" xlink:href="#DejaVuSans-2e"/>
       <use x="95.410156" xlink:href="#DejaVuSans-30"/>
      </g>
     </g>
    </g>
    <g id="ytick_2">
     <g id="line2d_35">
      <path clip-path="url(#pb56b48fc87)" d="M 56.84 240.829307 
L 399.984 240.829307 
" style="fill:none;stroke:#b0b0b0;stroke-linecap:square;stroke-width:0.8;"/>
     </g>
     <g id="line2d_36">
      <g>
       <use style="stroke:#000000;stroke-width:0.8;" x="56.84" xlink:href="#m8ff7dea23e" y="240.829307"/>
      </g>
     </g>
     <g id="text_8">
      <!-- 0.2 -->
      <g transform="translate(24.395 246.908057)scale(0.16 -0.16)">
       <use xlink:href="#DejaVuSans-30"/>
       <use x="63.623047" xlink:href="#DejaVuSans-2e"/>
       <use x="95.410156" xlink:href="#DejaVuSans-32"/>
      </g>
     </g>
    </g>
    <g id="ytick_3">
     <g id="line2d_37">
      <path clip-path="url(#pb56b48fc87)" d="M 56.84 187.498614 
L 399.984 187.498614 
" style="fill:none;stroke:#b0b0b0;stroke-linecap:square;stroke-width:0.8;"/>
     </g>
     <g id="line2d_38">
      <g>
       <use style="stroke:#000000;stroke-width:0.8;" x="56.84" xlink:href="#m8ff7dea23e" y="187.498614"/>
      </g>
     </g>
     <g id="text_9">
      <!-- 0.4 -->
      <g transform="translate(24.395 193.577364)scale(0.16 -0.16)">
       <use xlink:href="#DejaVuSans-30"/>
       <use x="63.623047" xlink:href="#DejaVuSans-2e"/>
       <use x="95.410156" xlink:href="#DejaVuSans-34"/>
      </g>
     </g>
    </g>
    <g id="ytick_4">
     <g id="line2d_39">
      <path clip-path="url(#pb56b48fc87)" d="M 56.84 134.167921 
L 399.984 134.167921 
" style="fill:none;stroke:#b0b0b0;stroke-linecap:square;stroke-width:0.8;"/>
     </g>
     <g id="line2d_40">
      <g>
       <use style="stroke:#000000;stroke-width:0.8;" x="56.84" xlink:href="#m8ff7dea23e" y="134.167921"/>
      </g>
     </g>
     <g id="text_10">
      <!-- 0.6 -->
      <g transform="translate(24.395 140.246671)scale(0.16 -0.16)">
       <use xlink:href="#DejaVuSans-30"/>
       <use x="63.623047" xlink:href="#DejaVuSans-2e"/>
       <use x="95.410156" xlink:href="#DejaVuSans-36"/>
      </g>
     </g>
    </g>
    <g id="ytick_5">
     <g id="line2d_41">
      <path clip-path="url(#pb56b48fc87)" d="M 56.84 80.837228 
L 399.984 80.837228 
" style="fill:none;stroke:#b0b0b0;stroke-linecap:square;stroke-width:0.8;"/>
     </g>
     <g id="line2d_42">
      <g>
       <use style="stroke:#000000;stroke-width:0.8;" x="56.84" xlink:href="#m8ff7dea23e" y="80.837228"/>
      </g>
     </g>
     <g id="text_11">
      <!-- 0.8 -->
      <g transform="translate(24.395 86.915978)scale(0.16 -0.16)">
       <use xlink:href="#DejaVuSans-30"/>
       <use x="63.623047" xlink:href="#DejaVuSans-2e"/>
       <use x="95.410156" xlink:href="#DejaVuSans-38"/>
      </g>
     </g>
    </g>
    <g id="ytick_6">
     <g id="line2d_43">
      <path clip-path="url(#pb56b48fc87)" d="M 56.84 27.506535 
L 399.984 27.506535 
" style="fill:none;stroke:#b0b0b0;stroke-linecap:square;stroke-width:0.8;"/>
     </g>
     <g id="line2d_44">
      <g>
       <use style="stroke:#000000;stroke-width:0.8;" x="56.84" xlink:href="#m8ff7dea23e" y="27.506535"/>
      </g>
     </g>
     <g id="text_12">
      <!-- 1.0 -->
      <g transform="translate(24.395 33.585285)scale(0.16 -0.16)">
       <use xlink:href="#DejaVuSans-31"/>
       <use x="63.623047" xlink:href="#DejaVuSans-2e"/>
       <use x="95.410156" xlink:href="#DejaVuSans-30"/>
      </g>
     </g>
    </g>
    <g id="text_13">
     <!-- Fraction of function,target pairs -->
     <defs>
      <path d="M 9.8125 72.90625 
L 51.703125 72.90625 
L 51.703125 64.59375 
L 19.671875 64.59375 
L 19.671875 43.109375 
L 48.578125 43.109375 
L 48.578125 34.8125 
L 19.671875 34.8125 
L 19.671875 0 
L 9.8125 0 
z
" id="DejaVuSans-46"/>
      <path d="M 41.109375 46.296875 
Q 39.59375 47.171875 37.8125 47.578125 
Q 36.03125 48 33.890625 48 
Q 26.265625 48 22.1875 43.046875 
Q 18.109375 38.09375 18.109375 28.8125 
L 18.109375 0 
L 9.078125 0 
L 9.078125 54.6875 
L 18.109375 54.6875 
L 18.109375 46.1875 
Q 20.953125 51.171875 25.484375 53.578125 
Q 30.03125 56 36.53125 56 
Q 37.453125 56 38.578125 55.875 
Q 39.703125 55.765625 41.0625 55.515625 
z
" id="DejaVuSans-72"/>
      <path d="M 48.78125 52.59375 
L 48.78125 44.1875 
Q 44.96875 46.296875 41.140625 47.34375 
Q 37.3125 48.390625 33.40625 48.390625 
Q 24.65625 48.390625 19.8125 42.84375 
Q 14.984375 37.3125 14.984375 27.296875 
Q 14.984375 17.28125 19.8125 11.734375 
Q 24.65625 6.203125 33.40625 6.203125 
Q 37.3125 6.203125 41.140625 7.25 
Q 44.96875 8.296875 48.78125 10.40625 
L 48.78125 2.09375 
Q 45.015625 0.34375 40.984375 -0.53125 
Q 36.96875 -1.421875 32.421875 -1.421875 
Q 20.0625 -1.421875 12.78125 6.34375 
Q 5.515625 14.109375 5.515625 27.296875 
Q 5.515625 40.671875 12.859375 48.328125 
Q 20.21875 56 33.015625 56 
Q 37.15625 56 41.109375 55.140625 
Q 45.0625 54.296875 48.78125 52.59375 
" id="DejaVuSans-63"/>
      <path d="M 18.3125 70.21875 
L 18.3125 54.6875 
L 36.8125 54.6875 
L 36.8125 47.703125 
L 18.3125 47.703125 
L 18.3125 18.015625 
Q 18.3125 11.328125 20.140625 9.421875 
Q 21.96875 7.515625 27.59375 7.515625 
L 36.8125 7.515625 
L 36.8125 0 
L 27.59375 0 
Q 17.1875 0 13.234375 3.875 
Q 9.28125 7.765625 9.28125 18.015625 
L 9.28125 47.703125 
L 2.6875 47.703125 
L 2.6875 54.6875 
L 9.28125 54.6875 
L 9.28125 70.21875 
z
" id="DejaVuSans-74"/>
      <path d="M 8.5 21.578125 
L 8.5 54.6875 
L 17.484375 54.6875 
L 17.484375 21.921875 
Q 17.484375 14.15625 20.5 10.265625 
Q 23.53125 6.390625 29.59375 6.390625 
Q 36.859375 6.390625 41.078125 11.03125 
Q 45.3125 15.671875 45.3125 23.6875 
L 45.3125 54.6875 
L 54.296875 54.6875 
L 54.296875 0 
L 45.3125 0 
L 45.3125 8.40625 
Q 42.046875 3.421875 37.71875 1 
Q 33.40625 -1.421875 27.6875 -1.421875 
Q 18.265625 -1.421875 13.375 4.4375 
Q 8.5 10.296875 8.5 21.578125 
M 31.109375 56 
z
" id="DejaVuSans-75"/>
      <path d="M 11.71875 12.40625 
L 22.015625 12.40625 
L 22.015625 4 
L 14.015625 -11.625 
L 7.71875 -11.625 
L 11.71875 4 
z
" id="DejaVuSans-2c"/>
      <path d="M 18.109375 8.203125 
L 18.109375 -20.796875 
L 9.078125 -20.796875 
L 9.078125 54.6875 
L 18.109375 54.6875 
L 18.109375 46.390625 
Q 20.953125 51.265625 25.265625 53.625 
Q 29.59375 56 35.59375 56 
Q 45.5625 56 51.78125 48.09375 
Q 58.015625 40.1875 58.015625 27.296875 
Q 58.015625 14.40625 51.78125 6.484375 
Q 45.5625 -1.421875 35.59375 -1.421875 
Q 29.59375 -1.421875 25.265625 0.953125 
Q 20.953125 3.328125 18.109375 8.203125 
M 48.6875 27.296875 
Q 48.6875 37.203125 44.609375 42.84375 
Q 40.53125 48.484375 33.40625 48.484375 
Q 26.265625 48.484375 22.1875 42.84375 
Q 18.109375 37.203125 18.109375 27.296875 
Q 18.109375 17.390625 22.1875 11.75 
Q 26.265625 6.109375 33.40625 6.109375 
Q 40.53125 6.109375 44.609375 11.75 
Q 48.6875 17.390625 48.6875 27.296875 
" id="DejaVuSans-70"/>
     </defs>
     <g transform="translate(16.859531 294.639375)rotate(-90)scale(0.17 -0.17)">
      <use xlink:href="#DejaVuSans-46"/>
      <use x="57.410156" xlink:href="#DejaVuSans-72"/>
      <use x="98.523438" xlink:href="#DejaVuSans-61"/>
      <use x="159.802734" xlink:href="#DejaVuSans-63"/>
      <use x="214.783203" xlink:href="#DejaVuSans-74"/>
      <use x="253.992188" xlink:href="#DejaVuSans-69"/>
      <use x="281.775391" xlink:href="#DejaVuSans-6f"/>
      <use x="342.957031" xlink:href="#DejaVuSans-6e"/>
      <use x="406.335938" xlink:href="#DejaVuSans-20"/>
      <use x="438.123047" xlink:href="#DejaVuSans-6f"/>
      <use x="499.304688" xlink:href="#DejaVuSans-66"/>
      <use x="534.509766" xlink:href="#DejaVuSans-20"/>
      <use x="566.296875" xlink:href="#DejaVuSans-66"/>
      <use x="601.501953" xlink:href="#DejaVuSans-75"/>
      <use x="664.880859" xlink:href="#DejaVuSans-6e"/>
      <use x="728.259766" xlink:href="#DejaVuSans-63"/>
      <use x="783.240234" xlink:href="#DejaVuSans-74"/>
      <use x="822.449219" xlink:href="#DejaVuSans-69"/>
      <use x="850.232422" xlink:href="#DejaVuSans-6f"/>
      <use x="911.414062" xlink:href="#DejaVuSans-6e"/>
      <use x="974.792969" xlink:href="#DejaVuSans-2c"/>
      <use x="1006.580078" xlink:href="#DejaVuSans-74"/>
      <use x="1045.789062" xlink:href="#DejaVuSans-61"/>
      <use x="1107.068359" xlink:href="#DejaVuSans-72"/>
      <use x="1148.166016" xlink:href="#DejaVuSans-67"/>
      <use x="1211.642578" xlink:href="#DejaVuSans-65"/>
      <use x="1273.166016" xlink:href="#DejaVuSans-74"/>
      <use x="1312.375" xlink:href="#DejaVuSans-20"/>
      <use x="1344.162109" xlink:href="#DejaVuSans-70"/>
      <use x="1407.638672" xlink:href="#DejaVuSans-61"/>
      <use x="1468.917969" xlink:href="#DejaVuSans-69"/>
      <use x="1496.701172" xlink:href="#DejaVuSans-72"/>
      <use x="1537.814453" xlink:href="#DejaVuSans-73"/>
     </g>
    </g>
   </g>
   <g id="line2d_45">
    <defs>
     <path d="M 0 1.5 
C 0.397805 1.5 0.77937 1.341951 1.06066 1.06066 
C 1.341951 0.77937 1.5 0.397805 1.5 0 
C 1.5 -0.397805 1.341951 -0.77937 1.06066 -1.06066 
C 0.77937 -1.341951 0.397805 -1.5 0 -1.5 
C -0.397805 -1.5 -0.77937 -1.341951 -1.06066 -1.06066 
C -1.341951 -0.77937 -1.5 -0.397805 -1.5 0 
C -1.5 0.397805 -1.341951 0.77937 -1.06066 1.06066 
C -0.77937 1.341951 -0.397805 1.5 0 1.5 
z
" id="mc4adf52d25" style="stroke:#f5deb3;"/>
    </defs>
    <g>
     <use style="fill:#f5deb3;stroke:#f5deb3;" x="224.405089" xlink:href="#mc4adf52d25" y="59.688849"/>
     <use style="fill:#f5deb3;stroke:#f5deb3;" x="224.405089" xlink:href="#mc4adf52d25" y="59.688849"/>
    </g>
   </g>
   <g id="line2d_46">
    <defs>
     <path d="M 0 1.5 
C 0.397805 1.5 0.77937 1.341951 1.06066 1.06066 
C 1.341951 0.77937 1.5 0.397805 1.5 0 
C 1.5 -0.397805 1.341951 -0.77937 1.06066 -1.06066 
C 0.77937 -1.341951 0.397805 -1.5 0 -1.5 
C -0.397805 -1.5 -0.77937 -1.341951 -1.06066 -1.06066 
C -1.341951 -0.77937 -1.5 -0.397805 -1.5 0 
C -1.5 0.397805 -1.341951 0.77937 -1.06066 1.06066 
C -0.77937 1.341951 -0.397805 1.5 0 1.5 
z
" id="mf292c42e62" style="stroke:#000080;"/>
    </defs>
    <g>
     <use style="fill:#000080;stroke:#000080;" x="288.565018" xlink:href="#mf292c42e62" y="59.688849"/>
     <use style="fill:#000080;stroke:#000080;" x="288.565018" xlink:href="#mf292c42e62" y="59.688849"/>
    </g>
   </g>
   <g id="line2d_47">
    <path d="M 29.207815 294.16 
L 29.207815 287.723537 
L 131.011992 287.723537 
L 131.011992 287.26379 
L 133.553893 287.26379 
L 133.553893 285.4248 
L 135.453142 285.4248 
L 135.453142 284.505306 
L 136.412928 284.505306 
L 136.412928 282.206569 
L 137.728085 282.206569 
L 137.728085 278.52859 
L 139.431692 278.52859 
L 139.431692 278.068843 
L 139.846085 278.068843 
L 139.873358 275.770106 
L 140.303947 275.770106 
L 140.303947 274.850611 
L 140.80163 274.850611 
L 140.80163 274.390864 
L 141.260172 274.390864 
L 141.260172 271.63238 
L 141.780105 271.63238 
L 141.853112 269.333643 
L 141.974105 269.333643 
L 141.974105 267.954401 
L 142.165938 267.954401 
L 142.261056 265.195917 
L 142.728901 265.195917 
L 142.728901 264.736169 
L 142.958128 264.736169 
L 143.003608 263.356927 
L 143.22922 263.356927 
L 143.318642 261.517938 
L 143.385403 261.517938 
L 143.385403 256.460717 
L 144.039118 256.460717 
L 144.039118 255.541222 
L 144.166927 255.541222 
L 144.166927 253.242485 
L 144.419724 253.242485 
L 144.419724 252.782738 
L 144.627582 252.782738 
L 144.627582 251.863243 
L 144.832953 251.863243 
L 144.934725 247.26577 
L 145.335884 247.26577 
L 145.335884 245.886528 
L 145.611221 245.886528 
L 145.611221 243.587791 
L 146.054188 243.587791 
L 146.111133 239.450065 
L 146.186767 239.450065 
L 146.262069 237.151328 
L 146.31833 237.151328 
L 146.31833 236.691581 
L 146.448892 236.691581 
L 146.504544 235.312339 
L 146.670428 235.312339 
L 146.670428 234.392844 
L 146.871022 234.392844 
L 146.871022 233.473349 
L 146.997464 233.473349 
L 146.997464 232.553855 
L 147.840275 232.553855 
L 147.925735 231.63436 
L 147.993798 231.63436 
L 147.993798 230.714865 
L 148.380008 230.714865 
L 148.429749 229.335623 
L 148.594519 229.335623 
L 148.643643 226.577139 
L 148.887176 226.577139 
L 148.887176 226.117392 
L 149.015662 226.117392 
L 149.047634 224.278402 
L 149.504656 224.278402 
L 149.504656 223.818655 
L 149.62862 223.818655 
L 149.721008 219.221181 
L 149.797621 219.221181 
L 149.797621 217.382192 
L 150.175638 217.382192 
L 150.175638 216.922445 
L 150.339364 216.922445 
L 150.339364 215.543202 
L 150.545511 215.543202 
L 150.545511 215.083455 
L 150.97909 215.083455 
L 151.050301 211.405476 
L 151.220011 211.405476 
L 151.290231 208.187245 
L 151.457597 208.187245 
L 151.457597 206.808003 
L 151.787513 206.808003 
L 151.787513 206.348255 
L 152.017426 206.348255 
L 152.071079 204.049519 
L 152.389521 204.049519 
L 152.494369 201.750782 
L 152.520482 201.750782 
L 152.611563 197.613056 
L 152.650451 197.613056 
L 152.715068 196.693561 
L 153.298408 196.693561 
L 153.348209 194.394824 
L 153.777913 194.394824 
L 153.777913 193.475329 
L 153.970823 193.475329 
L 153.970823 192.096087 
L 154.408798 192.096087 
L 154.513664 189.337603 
L 154.58322 189.337603 
L 154.58322 188.418109 
L 154.801642 188.418109 
L 154.892784 186.579119 
L 154.960824 186.579119 
L 154.960824 185.199877 
L 155.297039 185.199877 
L 155.297039 184.74013 
L 155.659427 184.74013 
L 155.67029 183.360888 
L 155.87539 183.360888 
L 155.87539 181.062151 
L 156.13101 181.062151 
L 156.13101 180.602404 
L 156.330711 180.602404 
L 156.330711 179.682909 
L 156.600276 179.682909 
L 156.600276 178.303667 
L 156.845403 178.303667 
L 156.845403 177.843919 
L 157.06707 177.843919 
L 157.06707 176.924425 
L 157.482465 176.924425 
L 157.482465 176.464677 
L 157.618727 176.464677 
L 157.618727 175.545183 
L 157.964226 175.545183 
L 158.049526 173.246446 
L 158.543426 173.246446 
L 158.543426 172.326951 
L 158.698884 172.326951 
L 158.726172 171.407456 
L 158.951903 171.407456 
L 158.960871 169.10872 
L 160.388133 169.10872 
L 160.388133 168.648972 
L 161.043728 168.648972 
L 161.075463 166.350236 
L 161.918417 166.350236 
L 161.963638 164.970994 
L 162.901019 164.970994 
L 162.901019 164.051499 
L 164.191175 164.051499 
L 164.191175 163.132004 
L 164.52507 163.132004 
L 164.52507 162.672257 
L 165.823333 162.672257 
L 165.823333 161.293015 
L 166.974163 161.293015 
L 166.974163 159.454025 
L 167.71142 159.454025 
L 167.732948 156.695541 
L 168.997611 156.695541 
L 168.997611 155.316299 
L 170.708312 155.316299 
L 170.812024 153.937057 
L 172.160309 153.937057 
L 172.160309 152.557815 
L 177.074522 152.557815 
L 177.074522 152.098068 
L 182.399523 152.098068 
L 182.509053 149.339583 
L 184.540348 149.339583 
L 184.540348 148.879836 
L 184.745243 148.879836 
L 184.809024 146.581099 
L 184.880494 146.581099 
L 184.880494 145.661605 
L 185.533588 145.661605 
L 185.533588 145.201857 
L 186.074265 145.201857 
L 186.074265 144.74211 
L 187.998853 144.74211 
L 188.010414 142.443373 
L 189.256798 142.443373 
L 189.256798 141.983626 
L 190.853756 141.983626 
L 190.853756 141.064131 
L 196.38015 141.064131 
L 196.38015 140.144636 
L 199.009347 140.144636 
L 199.009347 139.225142 
L 199.161791 139.225142 
L 199.161791 138.765394 
L 201.778542 138.765394 
L 201.859795 137.386152 
L 204.080466 137.386152 
L 204.080466 136.926405 
L 204.573838 136.926405 
L 204.573838 136.466658 
L 205.932972 136.466658 
L 205.932972 136.00691 
L 206.447752 136.00691 
L 206.447752 135.547163 
L 206.664131 135.547163 
L 206.664131 134.167921 
L 206.813327 134.167921 
L 206.813327 132.788679 
L 207.046436 132.788679 
L 207.046436 131.869184 
L 207.317761 131.869184 
L 207.414015 130.489942 
L 207.661776 130.489942 
L 207.693808 129.1107 
L 209.745011 129.1107 
L 209.745011 128.191205 
L 211.064481 128.191205 
L 211.064481 127.731458 
L 211.435506 127.731458 
L 211.435506 126.811963 
L 211.547783 126.811963 
L 211.547783 125.892468 
L 211.826748 125.892468 
L 211.852708 124.053479 
L 212.886973 124.053479 
L 212.886973 120.835248 
L 213.45175 120.835248 
L 213.45175 119.915753 
L 215.738748 119.915753 
L 215.738748 118.996258 
L 216.101339 118.996258 
L 216.139555 117.157269 
L 216.480663 117.157269 
L 216.499206 115.778027 
L 216.734442 115.778027 
L 216.734442 115.318279 
L 217.161643 115.318279 
L 217.161643 113.939037 
L 217.380575 113.939037 
L 217.380575 113.47929 
L 219.171579 113.47929 
L 219.171579 113.019543 
L 219.494373 113.019543 
L 219.494373 112.559795 
L 219.838645 112.559795 
L 219.838645 111.6403 
L 220.221224 111.6403 
L 220.221224 111.180553 
L 221.002126 111.180553 
L 221.002126 110.261058 
L 221.227798 110.261058 
L 221.243532 107.962322 
L 221.577908 107.962322 
L 221.577908 107.042827 
L 226.61332 107.042827 
L 226.61332 105.663585 
L 227.990778 105.663585 
L 227.990778 104.74409 
L 231.453776 104.74409 
L 231.509167 103.364848 
L 231.818645 103.364848 
L 231.818645 102.905101 
L 231.991652 102.905101 
L 231.991652 102.445353 
L 232.763627 102.445353 
L 232.763627 101.525859 
L 234.48159 101.525859 
L 234.48159 101.066111 
L 239.973392 101.066111 
L 239.973392 100.146617 
L 240.68506 100.146617 
L 240.68506 99.227122 
L 241.693329 99.227122 
L 241.693329 98.307627 
L 243.598481 98.307627 
L 243.598481 97.388132 
L 243.798664 97.388132 
L 243.798664 96.928385 
L 246.952811 96.928385 
L 246.952811 96.468638 
L 247.463639 96.468638 
L 247.463639 95.549143 
L 251.1898 95.549143 
L 251.1898 95.089396 
L 251.324502 95.089396 
L 251.324502 92.330912 
L 252.28057 92.330912 
L 252.28057 90.95167 
L 253.423466 90.95167 
L 253.52526 88.193185 
L 253.556385 88.193185 
L 253.660858 84.974954 
L 253.711959 84.974954 
L 253.816922 83.595712 
L 254.573056 83.595712 
L 254.637299 81.296975 
L 254.721758 81.296975 
L 254.796691 79.917733 
L 255.167457 79.917733 
L 255.167457 79.457986 
L 255.419605 79.457986 
L 255.521715 78.538491 
L 256.249335 78.538491 
L 256.286331 77.159249 
L 256.69282 77.159249 
L 256.788012 75.780007 
L 256.816275 75.780007 
L 256.816275 74.860512 
L 257.594311 74.860512 
L 257.594311 74.400765 
L 258.603425 74.400765 
L 258.603425 73.941017 
L 260.635059 73.941017 
L 260.635059 73.48127 
L 265.874541 73.48127 
L 265.951692 71.642281 
L 265.989918 71.642281 
L 266.066204 70.722786 
L 266.625241 70.722786 
L 266.625241 70.263039 
L 267.301085 70.263039 
L 267.301085 69.803291 
L 267.586179 69.803291 
L 267.586179 69.343544 
L 268.559467 69.343544 
L 268.590241 66.58506 
L 269.871547 66.58506 
L 269.871547 66.125312 
L 273.091771 66.125312 
L 273.091771 65.665565 
L 273.670122 65.665565 
L 273.670122 65.205818 
L 273.819161 65.205818 
L 273.819161 64.74607 
L 274.833207 64.74607 
L 274.833259 63.826576 
L 275.663605 63.826576 
L 275.663605 63.366828 
L 276.191339 63.366828 
L 276.191339 62.907081 
L 278.113145 62.907081 
L 278.113145 62.447334 
L 279.417918 62.447334 
L 279.418007 61.527839 
L 280.057335 61.527839 
L 280.057335 61.068091 
L 281.983505 61.068091 
L 281.983505 60.608344 
L 283.55266 60.608344 
L 283.55266 60.148597 
L 288.565018 60.148597 
L 288.565018 59.688849 
L 333.569032 59.688849 
L 333.569032 59.688849 
" style="fill:none;stroke:#000080;stroke-linecap:square;stroke-width:1.5;"/>
   </g>
   <g id="line2d_48">
    <defs>
     <path d="M 0 6 
C 1.591219 6 3.117479 5.367802 4.242641 4.242641 
C 5.367802 3.117479 6 1.591219 6 0 
C 6 -1.591219 5.367802 -3.117479 4.242641 -4.242641 
C 3.117479 -5.367802 1.591219 -6 0 -6 
C -1.591219 -6 -3.117479 -5.367802 -4.242641 -4.242641 
C -5.367802 -3.117479 -6 -1.591219 -6 0 
C -6 1.591219 -5.367802 3.117479 -4.242641 4.242641 
C -3.117479 5.367802 -1.591219 6 0 6 
z
" id="m334f79a7f2" style="stroke:#000080;stroke-width:1.5;"/>
    </defs>
    <g>
     <use style="fill:none;stroke:#000080;stroke-width:1.5;" x="147.993798" xlink:href="#m334f79a7f2" y="231.63436"/>
     <use style="fill:none;stroke:#000080;stroke-width:1.5;" x="196.38015" xlink:href="#m334f79a7f2" y="140.144636"/>
     <use style="fill:none;stroke:#000080;stroke-width:1.5;" x="256.816275" xlink:href="#m334f79a7f2" y="74.860512"/>
     <use style="fill:none;stroke:#000080;stroke-width:1.5;" x="288.565018" xlink:href="#m334f79a7f2" y="59.688849"/>
     <use style="fill:none;stroke:#000080;stroke-width:1.5;" x="333.569032" xlink:href="#m334f79a7f2" y="59.688849"/>
    </g>
   </g>
   <g id="line2d_49">
    <path style="fill:none;stroke:#000080;stroke-linecap:square;stroke-width:1.5;"/>
    <g/>
   </g>
   <g id="line2d_50">
    <path clip-path="url(#pb56b48fc87)" d="M 254.507474 83.595712 
" style="fill:none;stroke:#000080;stroke-linecap:square;stroke-width:1.5;"/>
    <defs>
     <path d="M -12 12 
L 12 -12 
M -12 -12 
L 12 12 
" id="m9a6e340221" style="stroke:#000080;stroke-width:3;"/>
    </defs>
    <g clip-path="url(#pb56b48fc87)">
     <use style="fill:#000080;stroke:#000080;stroke-width:3;" x="254.507474" xlink:href="#m9a6e340221" y="83.595712"/>
    </g>
   </g>
   <g id="line2d_51">
    <defs>
     <path d="M 0 1.5 
C 0.397805 1.5 0.77937 1.341951 1.06066 1.06066 
C 1.341951 0.77937 1.5 0.397805 1.5 0 
C 1.5 -0.397805 1.341951 -0.77937 1.06066 -1.06066 
C 0.77937 -1.341951 0.397805 -1.5 0 -1.5 
C -0.397805 -1.5 -0.77937 -1.341951 -1.06066 -1.06066 
C -1.341951 -0.77937 -1.5 -0.397805 -1.5 0 
C -1.5 0.397805 -1.341951 0.77937 -1.06066 1.06066 
C -0.77937 1.341951 -0.397805 1.5 0 1.5 
z
" id="m096469e01c" style="stroke:#ff00ff;"/>
    </defs>
    <g>
     <use style="fill:#ff00ff;stroke:#ff00ff;" x="341.714487" xlink:href="#m096469e01c" y="114.858532"/>
     <use style="fill:#ff00ff;stroke:#ff00ff;" x="341.714487" xlink:href="#m096469e01c" y="114.858532"/>
    </g>
   </g>
   <g id="line2d_52">
    <path d="M 29.207815 294.16 
L 29.207815 290.022274 
L 53.008884 290.022274 
L 53.008884 280.827327 
L 59.97025 280.827327 
L 59.97025 279.448085 
L 62.616839 279.448085 
L 62.616839 277.149348 
L 73.245025 277.149348 
L 73.245025 275.770106 
L 75.7019 275.770106 
L 75.7019 274.850611 
L 79.760422 274.850611 
L 79.760422 272.092127 
L 85.793517 272.092127 
L 85.793517 271.172632 
L 94.563801 271.172632 
L 94.563801 267.954401 
L 99.21441 267.954401 
L 99.21441 267.034906 
L 101.651875 267.034906 
L 101.651875 266.575159 
L 106.078502 266.575159 
L 106.078502 264.736169 
L 108.780743 264.736169 
L 108.780743 262.89718 
L 113.425701 262.89718 
L 113.425701 261.517938 
L 114.887762 261.517938 
L 114.887762 261.058191 
L 118.364869 261.058191 
L 118.459988 259.219201 
L 119.472921 259.219201 
L 119.472921 255.541222 
L 122.795831 255.541222 
L 122.795831 255.081475 
L 123.446518 255.081475 
L 123.446518 254.621728 
L 126.072825 254.621728 
L 126.072825 254.16198 
L 126.314643 254.16198 
L 126.314643 253.702233 
L 128.614725 253.702233 
L 128.614725 252.322991 
L 130.217646 252.322991 
L 130.217646 250.484001 
L 130.596038 250.484001 
L 130.596038 250.024254 
L 132.581812 250.024254 
L 132.581812 249.564507 
L 133.315983 249.564507 
L 133.315983 248.645012 
L 135.48836 248.645012 
L 135.48836 248.185265 
L 136.938211 248.185265 
L 136.938211 247.725517 
L 139.598651 247.725517 
L 139.598651 246.346275 
L 139.846085 246.346275 
L 139.846085 245.886528 
L 142.613129 245.886528 
L 142.613129 243.128044 
L 144.771599 243.128044 
L 144.771599 241.748802 
L 145.316047 241.748802 
L 145.316047 240.829307 
L 146.299596 240.829307 
L 146.299596 240.36956 
L 147.546488 240.36956 
L 147.616068 238.53057 
L 148.14596 238.53057 
L 148.14596 238.070823 
L 148.790177 238.070823 
L 148.790177 237.611075 
L 154.244389 237.611075 
L 154.244389 237.151328 
L 154.560066 237.151328 
L 154.560066 236.691581 
L 157.226503 236.691581 
L 157.276024 234.392844 
L 158.349426 234.392844 
L 158.349426 233.933097 
L 158.879992 233.933097 
L 158.879992 232.553855 
L 159.359649 232.553855 
L 159.359649 231.63436 
L 160.527818 231.63436 
L 160.527818 231.174612 
L 160.698815 231.174612 
L 160.698815 230.714865 
L 163.085327 230.714865 
L 163.099423 228.416128 
L 163.225768 228.416128 
L 163.225768 227.956381 
L 163.619836 227.956381 
L 163.619836 227.036886 
L 164.801629 227.036886 
L 164.801629 226.577139 
L 166.227324 226.577139 
L 166.227324 225.657644 
L 167.007861 225.657644 
L 167.007861 223.358907 
L 170.798532 223.358907 
L 170.798532 220.600423 
L 173.617789 220.600423 
L 173.617789 220.140676 
L 175.213498 220.140676 
L 175.213498 219.680929 
L 175.52037 219.680929 
L 175.52037 219.221181 
L 175.821853 219.221181 
L 175.821853 218.761434 
L 176.638244 218.761434 
L 176.638244 218.301687 
L 177.938928 218.301687 
L 177.938928 217.382192 
L 182.436111 217.382192 
L 182.436111 216.462697 
L 184.143764 216.462697 
L 184.143764 216.00295 
L 185.316707 216.00295 
L 185.316707 213.704213 
L 187.174807 213.704213 
L 187.264706 210.945729 
L 187.434568 210.945729 
L 187.434568 209.566487 
L 188.419895 209.566487 
L 188.419895 209.10674 
L 192.86227 209.10674 
L 192.86227 207.727497 
L 193.5598 207.727497 
L 193.5598 207.26775 
L 195.889534 207.26775 
L 195.889534 205.428761 
L 196.816653 205.428761 
L 196.816653 204.969013 
L 200.487274 204.969013 
L 200.487274 203.589771 
L 200.866223 203.589771 
L 200.866223 202.210529 
L 201.578205 202.210529 
L 201.578205 200.37154 
L 201.962656 200.37154 
L 201.962656 198.992298 
L 203.375283 198.992298 
L 203.375283 197.153308 
L 204.975546 197.153308 
L 204.975546 196.233814 
L 205.912615 196.233814 
L 205.912615 195.314319 
L 207.999033 195.314319 
L 207.999033 194.394824 
L 209.653053 194.394824 
L 209.653053 193.935077 
L 212.879993 193.935077 
L 212.879993 193.475329 
L 215.589685 193.475329 
L 215.642929 192.096087 
L 218.109136 192.096087 
L 218.109136 190.716845 
L 218.275361 190.716845 
L 218.275361 189.797351 
L 219.563362 189.797351 
L 219.563362 189.337603 
L 226.094007 189.337603 
L 226.094007 188.877856 
L 227.583865 188.877856 
L 227.583865 187.958361 
L 227.897715 187.958361 
L 227.897715 187.498614 
L 228.142752 187.498614 
L 228.142752 187.038867 
L 231.515194 187.038867 
L 231.515194 184.74013 
L 235.332707 184.74013 
L 235.332707 183.360888 
L 237.079663 183.360888 
L 237.079663 181.981646 
L 237.274001 181.981646 
L 237.274001 181.521898 
L 237.993374 181.521898 
L 237.993374 181.062151 
L 238.836634 181.062151 
L 238.836634 180.602404 
L 243.244643 180.602404 
L 243.244643 180.142656 
L 247.816546 180.142656 
L 247.816546 179.682909 
L 248.627688 179.682909 
L 248.725946 176.464677 
L 248.816663 176.464677 
L 248.816663 174.625688 
L 249.781889 174.625688 
L 249.781889 173.706193 
L 249.897815 173.706193 
L 249.897815 173.246446 
L 250.07045 173.246446 
L 250.07045 172.786699 
L 251.550611 172.786699 
L 251.550611 171.867204 
L 252.346106 171.867204 
L 252.346106 171.407456 
L 254.716095 171.407456 
L 254.716095 170.947709 
L 255.939985 170.947709 
L 255.939985 170.487962 
L 256.314566 170.487962 
L 256.314566 169.568467 
L 257.247846 169.568467 
L 257.247846 168.648972 
L 257.642455 168.648972 
L 257.642455 167.729478 
L 258.503615 167.729478 
L 258.503615 166.809983 
L 261.529394 166.809983 
L 261.529394 165.430741 
L 261.975651 165.430741 
L 261.975651 164.970994 
L 262.659177 164.970994 
L 262.659177 164.511246 
L 263.131662 164.511246 
L 263.131662 164.051499 
L 265.301955 164.051499 
L 265.301955 162.672257 
L 265.476484 162.672257 
L 265.476484 161.752762 
L 266.657347 161.752762 
L 266.657347 160.833267 
L 270.280977 160.833267 
L 270.280977 159.913773 
L 273.413466 159.913773 
L 273.413466 159.454025 
L 274.770728 159.454025 
L 274.770728 158.994278 
L 274.987318 158.994278 
L 274.987318 158.534531 
L 275.280418 158.534531 
L 275.280418 158.074783 
L 277.462738 158.074783 
L 277.462738 157.155288 
L 279.34151 157.155288 
L 279.34151 155.316299 
L 284.306448 155.316299 
L 284.306448 154.856552 
L 286.147406 154.856552 
L 286.208502 153.017562 
L 288.626263 153.017562 
L 288.626263 152.557815 
L 289.384879 152.557815 
L 289.384879 151.63832 
L 291.304472 151.63832 
L 291.304472 150.718826 
L 294.070469 150.718826 
L 294.116606 148.879836 
L 294.213386 148.879836 
L 294.24319 147.500594 
L 294.589396 147.500594 
L 294.647593 146.581099 
L 294.837492 146.581099 
L 294.837492 146.121352 
L 295.214254 146.121352 
L 295.22685 143.362868 
L 295.845437 143.362868 
L 295.845437 142.903121 
L 296.147492 142.903121 
L 296.147492 142.443373 
L 296.596423 142.443373 
L 296.662657 141.523878 
L 297.015395 141.523878 
L 297.015395 140.604384 
L 299.576785 140.604384 
L 299.576785 140.144636 
L 302.441572 140.144636 
L 302.465248 138.765394 
L 303.204168 138.765394 
L 303.204168 138.305647 
L 305.977041 138.305647 
L 306.06443 136.466658 
L 306.215616 136.466658 
L 306.261904 135.547163 
L 306.34211 135.547163 
L 306.34211 135.087416 
L 307.30019 135.087416 
L 307.30019 134.627668 
L 310.020167 134.627668 
L 310.020167 133.708173 
L 310.802508 133.708173 
L 310.802508 132.328931 
L 311.483281 132.328931 
L 311.483281 131.869184 
L 312.92502 131.869184 
L 312.92502 131.409437 
L 313.169449 131.409437 
L 313.169449 130.489942 
L 313.299908 130.489942 
L 313.300363 129.570447 
L 313.81903 129.570447 
L 313.81903 128.650953 
L 314.022201 128.650953 
L 314.022201 128.191205 
L 315.725325 128.191205 
L 315.725325 127.731458 
L 316.290068 127.731458 
L 316.290068 126.811963 
L 317.85749 126.811963 
L 317.865955 125.892468 
L 318.000679 125.892468 
L 318.041209 124.972974 
L 318.13953 124.972974 
L 318.13953 124.513226 
L 318.532582 124.513226 
L 318.532582 124.053479 
L 320.00015 124.053479 
L 320.00015 123.593732 
L 320.442004 123.593732 
L 320.442004 123.133984 
L 320.714355 123.133984 
L 320.714355 122.674237 
L 321.680421 122.674237 
L 321.710073 121.294995 
L 321.831753 121.294995 
L 321.91064 120.3755 
L 322.226892 120.3755 
L 322.226892 119.915753 
L 325.00077 119.915753 
L 325.001 118.996258 
L 327.481885 118.996258 
L 327.481885 118.536511 
L 327.618643 118.536511 
L 327.618643 118.076763 
L 327.752195 118.076763 
L 327.752195 117.617016 
L 329.819759 117.617016 
L 329.819759 117.157269 
L 333.569032 117.157269 
L 333.569032 117.157269 
" style="fill:none;stroke:#ff00ff;stroke-linecap:square;stroke-width:1.5;"/>
   </g>
   <g id="line2d_53">
    <defs>
     <path d="M -0 8.485281 
L 5.091169 0 
L 0 -8.485281 
L -5.091169 -0 
z
" id="mc39d30da18" style="stroke:#ff00ff;stroke-linejoin:miter;stroke-width:1.5;"/>
    </defs>
    <g>
     <use style="fill:none;stroke:#ff00ff;stroke-linejoin:miter;stroke-width:1.5;" x="75.7019" xlink:href="#mc39d30da18" y="275.770106"/>
     <use style="fill:none;stroke:#ff00ff;stroke-linejoin:miter;stroke-width:1.5;" x="139.846085" xlink:href="#mc39d30da18" y="246.346275"/>
     <use style="fill:none;stroke:#ff00ff;stroke-linejoin:miter;stroke-width:1.5;" x="218.275361" xlink:href="#mc39d30da18" y="190.716845"/>
     <use style="fill:none;stroke:#ff00ff;stroke-linejoin:miter;stroke-width:1.5;" x="294.24319" xlink:href="#mc39d30da18" y="147.960341"/>
     <use style="fill:none;stroke:#ff00ff;stroke-linejoin:miter;stroke-width:1.5;" x="329.819759" xlink:href="#mc39d30da18" y="117.157269"/>
     <use style="fill:none;stroke:#ff00ff;stroke-linejoin:miter;stroke-width:1.5;" x="333.569032" xlink:href="#mc39d30da18" y="117.157269"/>
    </g>
   </g>
   <g id="line2d_54">
    <path style="fill:none;stroke:#ff00ff;stroke-linecap:square;stroke-width:1.5;"/>
    <g/>
   </g>
   <g id="line2d_55">
    <path clip-path="url(#pb56b48fc87)" d="M 294.036313 150.718826 
" style="fill:none;stroke:#ff00ff;stroke-linecap:square;stroke-width:1.5;"/>
    <defs>
     <path d="M -12 12 
L 12 -12 
M -12 -12 
L 12 12 
" id="md644772eaa" style="stroke:#ff00ff;stroke-width:3;"/>
    </defs>
    <g clip-path="url(#pb56b48fc87)">
     <use style="fill:#ff00ff;stroke:#ff00ff;stroke-width:3;" x="294.036313" xlink:href="#md644772eaa" y="150.718826"/>
    </g>
   </g>
   <g id="line2d_56">
    <defs>
     <path d="M 0 1.5 
C 0.397805 1.5 0.77937 1.341951 1.06066 1.06066 
C 1.341951 0.77937 1.5 0.397805 1.5 0 
C 1.5 -0.397805 1.341951 -0.77937 1.06066 -1.06066 
C 0.77937 -1.341951 0.397805 -1.5 0 -1.5 
C -0.397805 -1.5 -0.77937 -1.341951 -1.06066 -1.06066 
C -1.341951 -0.77937 -1.5 -0.397805 -1.5 0 
C -1.5 0.397805 -1.341951 0.77937 -1.06066 1.06066 
C -0.77937 1.341951 -0.397805 1.5 0 1.5 
z
" id="m10fe2875c1" style="stroke:#ffa500;"/>
    </defs>
    <g>
     <use style="fill:#ffa500;stroke:#ffa500;" x="226.775167" xlink:href="#m10fe2875c1" y="266.575159"/>
     <use style="fill:#ffa500;stroke:#ffa500;" x="226.775167" xlink:href="#m10fe2875c1" y="266.575159"/>
    </g>
   </g>
   <g id="line2d_57">
    <path d="M 29.207815 294.16 
L 29.207815 289.102779 
L 167.230836 289.102779 
L 167.230836 287.723537 
L 167.275085 287.723537 
L 167.275085 286.344295 
L 167.319221 286.344295 
L 167.319221 285.4248 
L 167.385213 285.4248 
L 167.385213 282.666316 
L 179.150743 282.666316 
L 179.150743 281.746821 
L 179.194943 281.746821 
L 179.194943 281.287074 
L 179.205975 281.287074 
L 179.205975 280.827327 
L 186.170098 280.827327 
L 186.170098 280.367579 
L 186.177448 280.367579 
L 186.177448 278.988337 
L 191.083057 278.988337 
L 191.083057 278.52859 
L 191.094098 278.52859 
L 191.094098 278.068843 
L 191.099615 278.068843 
L 191.099615 277.609095 
L 194.90285 277.609095 
L 194.90285 277.149348 
L 194.933765 277.149348 
L 194.933765 276.689601 
L 194.951406 276.689601 
L 194.951406 276.229853 
L 194.960219 276.229853 
L 194.960219 275.310358 
L 198.095425 275.310358 
L 198.095425 274.850611 
L 200.679373 274.850611 
L 200.679373 274.390864 
L 200.695153 274.390864 
L 200.695153 273.931116 
L 200.72667 273.931116 
L 200.72667 273.471369 
L 202.977378 273.471369 
L 202.977378 273.011622 
L 202.991183 273.011622 
L 202.991183 272.551874 
L 205.00625 272.551874 
L 205.00625 272.092127 
L 206.809461 272.092127 
L 206.809461 271.63238 
L 206.81388 271.63238 
L 206.81388 271.172632 
L 206.820505 271.172632 
L 206.820505 270.712885 
L 208.445174 270.712885 
L 208.445174 270.253138 
L 211.336074 270.253138 
L 211.336074 269.79339 
L 213.740421 269.79339 
L 213.740421 269.333643 
L 217.821294 269.333643 
L 217.821294 268.873896 
L 217.823621 268.873896 
L 217.823621 268.414148 
L 219.549165 268.414148 
L 219.549165 267.954401 
L 220.361519 267.954401 
L 220.361519 267.494653 
L 222.594166 267.494653 
L 222.594166 267.034906 
L 226.775167 267.034906 
L 226.775167 266.575159 
L 333.569032 266.575159 
" style="fill:none;stroke:#ffa500;stroke-linecap:square;stroke-width:1.5;"/>
   </g>
   <g id="line2d_58">
    <defs>
     <path d="M 0 -6 
L -1.347084 -1.854102 
L -5.706339 -1.854102 
L -2.179628 0.708204 
L -3.526712 4.854102 
L -0 2.291796 
L 3.526712 4.854102 
L 2.179628 0.708204 
L 5.706339 -1.854102 
L 1.347084 -1.854102 
z
" id="mbe012d65fe" style="stroke:#ffa500;stroke-linejoin:bevel;stroke-width:1.5;"/>
    </defs>
    <g>
     <use style="fill:none;stroke:#ffa500;stroke-linejoin:bevel;stroke-width:1.5;" x="194.960219" xlink:href="#mbe012d65fe" y="276.229853"/>
     <use style="fill:none;stroke:#ffa500;stroke-linejoin:bevel;stroke-width:1.5;" x="226.775167" xlink:href="#mbe012d65fe" y="267.034906"/>
     <use style="fill:none;stroke:#ffa500;stroke-linejoin:bevel;stroke-width:1.5;" x="226.775167" xlink:href="#mbe012d65fe" y="266.575159"/>
     <use style="fill:none;stroke:#ffa500;stroke-linejoin:bevel;stroke-width:1.5;" x="226.775167" xlink:href="#mbe012d65fe" y="266.575159"/>
     <use style="fill:none;stroke:#ffa500;stroke-linejoin:bevel;stroke-width:1.5;" x="333.569032" xlink:href="#mbe012d65fe" y="266.575159"/>
    </g>
   </g>
   <g id="line2d_59">
    <path style="fill:none;stroke:#ffa500;stroke-linecap:square;stroke-width:1.5;"/>
    <g/>
   </g>
   <g id="line2d_60">
    <path clip-path="url(#pb56b48fc87)" d="M 167.26956 287.723537 
" style="fill:none;stroke:#ffa500;stroke-linecap:square;stroke-width:1.5;"/>
    <defs>
     <path d="M -12 12 
L 12 -12 
M -12 -12 
L 12 12 
" id="m8975e493a8" style="stroke:#ffa500;stroke-width:3;"/>
    </defs>
    <g clip-path="url(#pb56b48fc87)">
     <use style="fill:#ffa500;stroke:#ffa500;stroke-width:3;" x="167.26956" xlink:href="#m8975e493a8" y="287.723537"/>
    </g>
   </g>
   <g id="line2d_61">
    <defs>
     <path d="M 0 1.5 
C 0.397805 1.5 0.77937 1.341951 1.06066 1.06066 
C 1.341951 0.77937 1.5 0.397805 1.5 0 
C 1.5 -0.397805 1.341951 -0.77937 1.06066 -1.06066 
C 0.77937 -1.341951 0.397805 -1.5 0 -1.5 
C -0.397805 -1.5 -0.77937 -1.341951 -1.06066 -1.06066 
C -1.341951 -0.77937 -1.5 -0.397805 -1.5 0 
C -1.5 0.397805 -1.341951 0.77937 -1.06066 1.06066 
C -0.77937 1.341951 -0.397805 1.5 0 1.5 
z
" id="m7c6455a7cc" style="stroke:#6495ed;"/>
    </defs>
    <g>
     <use style="fill:#6495ed;stroke:#6495ed;" x="254.833682" xlink:href="#m7c6455a7cc" y="114.858532"/>
     <use style="fill:#6495ed;stroke:#6495ed;" x="254.833682" xlink:href="#m7c6455a7cc" y="114.858532"/>
    </g>
   </g>
   <g id="line2d_62">
    <path d="M 29.207815 294.16 
L 29.207815 288.643032 
L 41.10835 288.643032 
L 41.10835 288.183284 
L 53.008884 288.183284 
L 53.008884 286.804042 
L 56.84 286.804042 
L 56.84 279.907832 
L 59.97025 279.907832 
L 59.97025 279.448085 
L 64.909418 279.448085 
L 64.909418 276.689601 
L 68.740534 276.689601 
L 68.740534 274.850611 
L 71.870784 274.850611 
L 71.870784 273.471369 
L 75.7019 273.471369 
L 75.7019 272.092127 
L 79.760422 272.092127 
L 79.760422 269.79339 
L 87.020384 269.79339 
L 87.020384 267.954401 
L 91.203093 267.954401 
L 91.203093 267.494653 
L 92.106925 267.494653 
L 92.106925 266.575159 
L 97.046093 266.575159 
L 97.046093 265.655664 
L 99.21441 265.655664 
L 99.21441 265.195917 
L 105.882285 265.195917 
L 105.882285 264.736169 
L 106.078502 264.736169 
L 106.078502 263.356927 
L 106.841687 263.356927 
L 106.841687 262.437433 
L 108.444089 262.437433 
L 108.444089 261.058191 
L 109.110924 261.058191 
L 109.110924 260.598443 
L 110.672804 260.598443 
L 110.672804 258.759454 
L 110.821453 258.759454 
L 110.821453 256.920464 
L 111.966466 256.920464 
L 111.966466 256.00097 
L 112.104369 256.00097 
L 112.104369 255.541222 
L 113.169445 255.541222 
L 113.169445 252.322991 
L 115.686457 252.322991 
L 115.686457 251.863243 
L 116.342671 251.863243 
L 116.342671 251.403496 
L 117.782819 251.403496 
L 117.782819 250.943749 
L 120.429408 250.943749 
L 120.429408 250.484001 
L 122.347923 250.484001 
L 122.347923 250.024254 
L 123.088074 250.024254 
L 123.088074 249.564507 
L 123.446518 249.564507 
L 123.446518 249.104759 
L 123.587826 249.104759 
L 123.587826 248.645012 
L 123.936091 248.645012 
L 123.936091 247.26577 
L 124.141708 247.26577 
L 124.141708 246.806023 
L 124.545699 246.806023 
L 124.545699 245.42678 
L 125.326236 245.42678 
L 125.326236 244.967033 
L 125.515948 244.967033 
L 125.515948 244.507286 
L 125.827551 244.507286 
L 125.827551 243.128044 
L 126.072825 243.128044 
L 126.072825 242.668296 
L 126.671103 242.668296 
L 126.671103 241.748802 
L 128.350177 241.748802 
L 128.350177 241.289054 
L 128.875258 241.289054 
L 128.875258 239.450065 
L 129.131898 239.450065 
L 129.131898 238.53057 
L 129.830726 238.53057 
L 129.928277 236.691581 
L 130.455116 236.691581 
L 130.549192 233.473349 
L 132.287602 233.473349 
L 132.287602 232.553855 
L 133.355865 232.553855 
L 133.355865 231.174612 
L 133.632469 231.174612 
L 133.632469 230.714865 
L 133.749663 230.714865 
L 133.749663 228.875876 
L 134.13463 228.875876 
L 134.13463 228.416128 
L 134.399062 228.416128 
L 134.436508 226.577139 
L 134.843109 226.577139 
L 134.843109 226.117392 
L 135.417852 226.117392 
L 135.48836 224.278402 
L 136.578812 224.278402 
L 136.578812 223.818655 
L 136.873423 223.818655 
L 136.905847 222.89916 
L 137.635197 222.89916 
L 137.635197 221.979665 
L 137.789733 221.979665 
L 137.789733 221.519918 
L 138.034133 221.519918 
L 138.094694 219.680929 
L 138.571637 219.680929 
L 138.571637 218.761434 
L 138.949628 218.761434 
L 138.949628 218.301687 
L 139.121318 218.301687 
L 139.121318 217.382192 
L 141.285291 217.382192 
L 141.285291 216.922445 
L 141.484931 216.922445 
L 141.484931 216.00295 
L 141.608537 216.00295 
L 141.608537 215.083455 
L 142.261056 215.083455 
L 142.261056 214.623708 
L 143.363178 214.623708 
L 143.363178 214.16396 
L 144.730575 214.16396 
L 144.730575 212.324971 
L 144.975265 212.324971 
L 144.975265 210.485982 
L 145.196542 210.485982 
L 145.196542 209.566487 
L 145.572157 209.566487 
L 145.572157 209.10674 
L 145.920578 209.10674 
L 145.920578 208.646992 
L 146.578468 208.646992 
L 146.578468 207.727497 
L 147.754388 207.727497 
L 147.754388 206.808003 
L 149.285543 206.808003 
L 149.332732 205.888508 
L 149.644052 205.888508 
L 149.644052 204.969013 
L 150.250253 204.969013 
L 150.250253 204.509266 
L 150.749211 204.509266 
L 150.749211 203.130024 
L 150.964813 203.130024 
L 150.964813 202.670277 
L 151.595834 202.670277 
L 151.664536 200.831287 
L 151.760261 200.831287 
L 151.760261 200.37154 
L 152.650451 200.37154 
L 152.650451 197.613056 
L 152.779443 197.613056 
L 152.779443 197.153308 
L 154.338529 197.153308 
L 154.338529 196.693561 
L 154.938174 196.693561 
L 154.938174 196.233814 
L 155.539479 196.233814 
L 155.539479 195.774066 
L 156.774269 195.774066 
L 156.774269 194.394824 
L 156.996849 194.394824 
L 156.996849 193.935077 
L 157.374639 193.935077 
L 157.374639 192.096087 
L 157.686454 192.096087 
L 157.686454 191.176593 
L 158.349426 191.176593 
L 158.349426 190.716845 
L 158.561789 190.716845 
L 158.616758 188.418109 
L 158.870982 188.418109 
L 158.870982 187.038867 
L 159.715088 187.038867 
L 159.715088 186.119372 
L 159.84331 186.119372 
L 159.84331 184.74013 
L 160.836005 184.74013 
L 160.836005 184.280382 
L 161.011934 184.280382 
L 161.011934 183.820635 
L 162.023748 183.820635 
L 162.023748 183.360888 
L 163.578778 183.360888 
L 163.578778 182.441393 
L 163.728845 182.441393 
L 163.728845 181.521898 
L 164.329448 181.521898 
L 164.401435 180.142656 
L 164.641381 180.142656 
L 164.64782 177.384172 
L 165.967006 177.384172 
L 165.967006 176.464677 
L 166.4606 176.464677 
L 166.4606 176.00493 
L 167.467348 176.00493 
L 167.467348 174.625688 
L 168.079052 174.625688 
L 168.079052 174.165941 
L 168.210333 174.165941 
L 168.210333 173.706193 
L 168.397632 173.706193 
L 168.397632 172.786699 
L 169.314461 172.786699 
L 169.314461 172.326951 
L 170.18014 172.326951 
L 170.18014 170.487962 
L 170.753481 170.487962 
L 170.753481 170.028214 
L 171.516667 170.028214 
L 171.516667 169.10872 
L 173.223885 169.10872 
L 173.223885 167.729478 
L 173.452832 167.729478 
L 173.452832 166.809983 
L 173.864172 166.809983 
L 173.864172 166.350236 
L 175.612392 166.350236 
L 175.612392 164.970994 
L 176.914577 164.970994 
L 176.914577 164.051499 
L 178.378503 164.051499 
L 178.378503 162.672257 
L 178.665422 162.672257 
L 178.671112 160.833267 
L 179.351486 160.833267 
L 179.351486 160.37352 
L 181.973061 160.37352 
L 181.973061 159.454025 
L 183.151956 159.454025 
L 183.151956 158.994278 
L 188.220453 158.994278 
L 188.306676 157.615036 
L 189.102567 157.615036 
L 189.102567 157.155288 
L 189.775525 157.155288 
L 189.775525 156.695541 
L 190.21091 156.695541 
L 190.21091 156.235794 
L 190.575912 156.235794 
L 190.575912 155.776046 
L 191.083057 155.776046 
L 191.083057 155.316299 
L 191.347441 155.316299 
L 191.39902 153.47731 
L 191.658618 153.47731 
L 191.658618 153.017562 
L 191.880121 153.017562 
L 191.941948 150.718826 
L 192.563477 150.718826 
L 192.584993 149.799331 
L 192.85231 149.799331 
L 192.87098 148.879836 
L 193.176737 148.879836 
L 193.196278 147.960341 
L 193.304568 147.960341 
L 193.304568 147.500594 
L 193.80187 147.500594 
L 193.80187 147.040847 
L 193.948528 147.040847 
L 193.957871 146.121352 
L 194.186367 146.121352 
L 194.247325 145.201857 
L 194.725117 145.201857 
L 194.725117 144.74211 
L 196.270289 144.74211 
L 196.374065 142.903121 
L 196.389274 142.903121 
L 196.389274 142.443373 
L 198.109183 142.443373 
L 198.124763 141.064131 
L 200.396834 141.064131 
L 200.482484 139.684889 
L 201.165008 139.684889 
L 201.165008 139.225142 
L 202.024078 139.225142 
L 202.024078 138.765394 
L 202.67436 138.765394 
L 202.67436 138.305647 
L 203.040786 138.305647 
L 203.129301 137.386152 
L 203.968079 137.386152 
L 203.968079 136.926405 
L 204.315197 136.926405 
L 204.315197 136.466658 
L 204.845988 136.466658 
L 204.845988 136.00691 
L 205.04241 136.00691 
L 205.04241 135.547163 
L 205.68649 135.547163 
L 205.68649 135.087416 
L 206.002585 135.087416 
L 206.002585 134.627668 
L 206.308416 134.627668 
L 206.308416 134.167921 
L 207.489569 134.167921 
L 207.518744 132.788679 
L 209.909489 132.788679 
L 209.909489 132.328931 
L 210.554749 132.328931 
L 210.554749 131.869184 
L 210.697156 131.869184 
L 210.698037 130.949689 
L 211.369988 130.949689 
L 211.369988 130.489942 
L 211.616385 130.489942 
L 211.616385 130.030195 
L 212.475393 130.030195 
L 212.475393 129.570447 
L 213.830195 129.570447 
L 213.830195 129.1107 
L 214.821199 129.1107 
L 214.821199 128.650953 
L 215.458352 128.650953 
L 215.458352 128.191205 
L 215.637645 128.191205 
L 215.637645 127.731458 
L 217.049752 127.731458 
L 217.049752 127.27171 
L 217.285717 127.27171 
L 217.285717 126.811963 
L 217.838155 126.811963 
L 217.838155 126.352216 
L 218.247295 126.352216 
L 218.247295 125.892468 
L 218.918891 125.892468 
L 218.918891 125.432721 
L 219.491207 125.432721 
L 219.491207 124.972974 
L 220.277026 124.972974 
L 220.277026 124.513226 
L 221.162802 124.513226 
L 221.162802 124.053479 
L 221.403628 124.053479 
L 221.504137 123.133984 
L 221.51962 123.133984 
L 221.627846 122.21449 
L 222.158517 122.21449 
L 222.158517 121.754742 
L 223.573393 121.754742 
L 223.573393 121.294995 
L 223.89247 121.294995 
L 223.89247 120.835248 
L 224.013754 120.835248 
L 224.013754 120.3755 
L 224.453384 120.3755 
L 224.453384 119.915753 
L 227.601973 119.915753 
L 227.624335 118.996258 
L 227.933904 118.996258 
L 227.933904 118.536511 
L 228.304926 118.536511 
L 228.304926 118.076763 
L 229.946344 118.076763 
L 229.946344 117.617016 
L 233.836209 117.617016 
L 233.83907 116.697521 
L 234.63531 116.697521 
L 234.63531 116.237774 
L 238.992175 116.237774 
L 238.992175 115.778027 
L 242.323346 115.778027 
L 242.323346 115.318279 
L 254.833682 115.318279 
L 254.833682 114.858532 
L 333.569032 114.858532 
L 333.569032 114.858532 
" style="fill:none;stroke:#6495ed;stroke-linecap:square;stroke-width:1.5;"/>
   </g>
   <g id="line2d_63">
    <defs>
     <path d="M -0 6 
L 6 -6 
L -6 -6 
z
" id="m9c4b6f19da" style="stroke:#6495ed;stroke-linejoin:miter;stroke-width:1.5;"/>
    </defs>
    <g>
     <use style="fill:none;stroke:#6495ed;stroke-linejoin:miter;stroke-width:1.5;" x="137.789733" xlink:href="#m9c4b6f19da" y="221.519918"/>
     <use style="fill:none;stroke:#6495ed;stroke-linejoin:miter;stroke-width:1.5;" x="190.575912" xlink:href="#m9c4b6f19da" y="155.776046"/>
     <use style="fill:none;stroke:#6495ed;stroke-linejoin:miter;stroke-width:1.5;" x="254.833682" xlink:href="#m9c4b6f19da" y="115.318279"/>
     <use style="fill:none;stroke:#6495ed;stroke-linejoin:miter;stroke-width:1.5;" x="254.833682" xlink:href="#m9c4b6f19da" y="114.858532"/>
     <use style="fill:none;stroke:#6495ed;stroke-linejoin:miter;stroke-width:1.5;" x="254.833682" xlink:href="#m9c4b6f19da" y="114.858532"/>
     <use style="fill:none;stroke:#6495ed;stroke-linejoin:miter;stroke-width:1.5;" x="333.569032" xlink:href="#m9c4b6f19da" y="114.858532"/>
    </g>
   </g>
   <g id="line2d_64">
    <path style="fill:none;stroke:#6495ed;stroke-linecap:square;stroke-width:1.5;"/>
    <g/>
   </g>
   <g id="line2d_65">
    <path clip-path="url(#pb56b48fc87)" d="M 188.829284 157.615036 
" style="fill:none;stroke:#6495ed;stroke-linecap:square;stroke-width:1.5;"/>
    <defs>
     <path d="M -12 12 
L 12 -12 
M -12 -12 
L 12 12 
" id="m32e751d765" style="stroke:#6495ed;stroke-width:3;"/>
    </defs>
    <g clip-path="url(#pb56b48fc87)">
     <use style="fill:#6495ed;stroke:#6495ed;stroke-width:3;" x="188.829284" xlink:href="#m32e751d765" y="157.615036"/>
    </g>
   </g>
   <g id="line2d_66">
    <path d="M 333.569032 266.575159 
L 364.009226 288.826931 
" style="fill:none;stroke:#ffa500;stroke-linecap:square;stroke-width:1.5;"/>
    <g>
     <use style="fill:none;stroke:#ffa500;stroke-linejoin:bevel;stroke-width:1.5;" x="333.569032" xlink:href="#mbe012d65fe" y="266.575159"/>
     <use style="fill:none;stroke:#ffa500;stroke-linejoin:bevel;stroke-width:1.5;" x="364.009226" xlink:href="#mbe012d65fe" y="288.826931"/>
    </g>
   </g>
   <g id="line2d_67">
    <path d="M 333.569032 117.157269 
L 364.009226 224.830099 
" style="fill:none;stroke:#ff00ff;stroke-linecap:square;stroke-width:1.5;"/>
    <g>
     <use style="fill:none;stroke:#ff00ff;stroke-linejoin:miter;stroke-width:1.5;" x="333.569032" xlink:href="#mc39d30da18" y="117.157269"/>
     <use style="fill:none;stroke:#ff00ff;stroke-linejoin:miter;stroke-width:1.5;" x="364.009226" xlink:href="#mc39d30da18" y="224.830099"/>
    </g>
   </g>
   <g id="line2d_68">
    <path d="M 333.569032 114.858532 
L 364.009226 160.833267 
" style="fill:none;stroke:#6495ed;stroke-linecap:square;stroke-width:1.5;"/>
    <g>
     <use style="fill:none;stroke:#6495ed;stroke-linejoin:miter;stroke-width:1.5;" x="333.569032" xlink:href="#m9c4b6f19da" y="114.858532"/>
     <use style="fill:none;stroke:#6495ed;stroke-linejoin:miter;stroke-width:1.5;" x="364.009226" xlink:href="#m9c4b6f19da" y="160.833267"/>
    </g>
   </g>
   <g id="line2d_69">
    <path d="M 333.569032 59.688849 
L 364.009226 96.836436 
" style="fill:none;stroke:#000080;stroke-linecap:square;stroke-width:1.5;"/>
    <g>
     <use style="fill:none;stroke:#000080;stroke-width:1.5;" x="333.569032" xlink:href="#m334f79a7f2" y="59.688849"/>
     <use style="fill:none;stroke:#000080;stroke-width:1.5;" x="364.009226" xlink:href="#m334f79a7f2" y="96.836436"/>
    </g>
   </g>
   <g id="line2d_70">
    <path d="M 333.569032 294.16 
L 333.569032 27.506535 
" style="fill:none;stroke:#000000;stroke-linecap:square;stroke-width:1.5;"/>
   </g>
   <g id="patch_3">
    <path d="M 56.84 294.16 
L 56.84 24.84 
" style="fill:none;stroke:#000000;stroke-linecap:square;stroke-linejoin:miter;stroke-width:0.8;"/>
   </g>
   <g id="patch_4">
    <path d="M 399.984 294.16 
L 399.984 24.84 
" style="fill:none;stroke:#000000;stroke-linecap:square;stroke-linejoin:miter;stroke-width:0.8;"/>
   </g>
   <g id="patch_5">
    <path d="M 56.84 294.16 
L 399.984 294.16 
" style="fill:none;stroke:#000000;stroke-linecap:square;stroke-linejoin:miter;stroke-width:0.8;"/>
   </g>
   <g id="patch_6">
    <path d="M 56.84 24.84 
L 399.984 24.84 
" style="fill:none;stroke:#000000;stroke-linecap:square;stroke-linejoin:miter;stroke-width:0.8;"/>
   </g>
   <g id="text_14">
    <!-- adaptiveH -->
    <defs>
     <path d="M 9.8125 72.90625 
L 19.671875 72.90625 
L 19.671875 43.015625 
L 55.515625 43.015625 
L 55.515625 72.90625 
L 65.375 72.90625 
L 65.375 0 
L 55.515625 0 
L 55.515625 34.71875 
L 19.671875 34.71875 
L 19.671875 0 
L 9.8125 0 
z
" id="DejaVuSans-48"/>
    </defs>
    <g transform="translate(369.543806 293.517868)scale(0.17 -0.17)">
     <use xlink:href="#DejaVuSans-61"/>
     <use x="61.279297" xlink:href="#DejaVuSans-64"/>
     <use x="124.755859" xlink:href="#DejaVuSans-61"/>
     <use x="186.035156" xlink:href="#DejaVuSans-70"/>
     <use x="249.511719" xlink:href="#DejaVuSans-74"/>
     <use x="288.720703" xlink:href="#DejaVuSans-69"/>
     <use x="316.503906" xlink:href="#DejaVuSans-76"/>
     <use x="375.683594" xlink:href="#DejaVuSans-65"/>
     <use x="437.207031" xlink:href="#DejaVuSans-48"/>
    </g>
   </g>
   <g id="text_15">
    <!-- RANDOMSEA -->
    <defs>
     <path d="M 44.390625 34.1875 
Q 47.5625 33.109375 50.5625 29.59375 
Q 53.5625 26.078125 56.59375 19.921875 
L 66.609375 0 
L 56 0 
L 46.6875 18.703125 
Q 43.0625 26.03125 39.671875 28.421875 
Q 36.28125 30.8125 30.421875 30.8125 
L 19.671875 30.8125 
L 19.671875 0 
L 9.8125 0 
L 9.8125 72.90625 
L 32.078125 72.90625 
Q 44.578125 72.90625 50.734375 67.671875 
Q 56.890625 62.453125 56.890625 51.90625 
Q 56.890625 45.015625 53.6875 40.46875 
Q 50.484375 35.9375 44.390625 34.1875 
M 19.671875 64.796875 
L 19.671875 38.921875 
L 32.078125 38.921875 
Q 39.203125 38.921875 42.84375 42.21875 
Q 46.484375 45.515625 46.484375 51.90625 
Q 46.484375 58.296875 42.84375 61.546875 
Q 39.203125 64.796875 32.078125 64.796875 
z
" id="DejaVuSans-52"/>
     <path d="M 34.1875 63.1875 
L 20.796875 26.90625 
L 47.609375 26.90625 
z
M 28.609375 72.90625 
L 39.796875 72.90625 
L 67.578125 0 
L 57.328125 0 
L 50.6875 18.703125 
L 17.828125 18.703125 
L 11.1875 0 
L 0.78125 0 
z
" id="DejaVuSans-41"/>
     <path d="M 9.8125 72.90625 
L 23.09375 72.90625 
L 55.421875 11.921875 
L 55.421875 72.90625 
L 64.984375 72.90625 
L 64.984375 0 
L 51.703125 0 
L 19.390625 60.984375 
L 19.390625 0 
L 9.8125 0 
z
" id="DejaVuSans-4e"/>
     <path d="M 19.671875 64.796875 
L 19.671875 8.109375 
L 31.59375 8.109375 
Q 46.6875 8.109375 53.6875 14.9375 
Q 60.6875 21.78125 60.6875 36.53125 
Q 60.6875 51.171875 53.6875 57.984375 
Q 46.6875 64.796875 31.59375 64.796875 
z
M 9.8125 72.90625 
L 30.078125 72.90625 
Q 51.265625 72.90625 61.171875 64.09375 
Q 71.09375 55.28125 71.09375 36.53125 
Q 71.09375 17.671875 61.125 8.828125 
Q 51.171875 0 30.078125 0 
L 9.8125 0 
z
" id="DejaVuSans-44"/>
     <path d="M 39.40625 66.21875 
Q 28.65625 66.21875 22.328125 58.203125 
Q 16.015625 50.203125 16.015625 36.375 
Q 16.015625 22.609375 22.328125 14.59375 
Q 28.65625 6.59375 39.40625 6.59375 
Q 50.140625 6.59375 56.421875 14.59375 
Q 62.703125 22.609375 62.703125 36.375 
Q 62.703125 50.203125 56.421875 58.203125 
Q 50.140625 66.21875 39.40625 66.21875 
M 39.40625 74.21875 
Q 54.734375 74.21875 63.90625 63.9375 
Q 73.09375 53.65625 73.09375 36.375 
Q 73.09375 19.140625 63.90625 8.859375 
Q 54.734375 -1.421875 39.40625 -1.421875 
Q 24.03125 -1.421875 14.8125 8.828125 
Q 5.609375 19.09375 5.609375 36.375 
Q 5.609375 53.65625 14.8125 63.9375 
Q 24.03125 74.21875 39.40625 74.21875 
" id="DejaVuSans-4f"/>
     <path d="M 9.8125 72.90625 
L 24.515625 72.90625 
L 43.109375 23.296875 
L 61.8125 72.90625 
L 76.515625 72.90625 
L 76.515625 0 
L 66.890625 0 
L 66.890625 64.015625 
L 48.09375 14.015625 
L 38.1875 14.015625 
L 19.390625 64.015625 
L 19.390625 0 
L 9.8125 0 
z
" id="DejaVuSans-4d"/>
     <path d="M 53.515625 70.515625 
L 53.515625 60.890625 
Q 47.90625 63.578125 42.921875 64.890625 
Q 37.9375 66.21875 33.296875 66.21875 
Q 25.25 66.21875 20.875 63.09375 
Q 16.5 59.96875 16.5 54.203125 
Q 16.5 49.359375 19.40625 46.890625 
Q 22.3125 44.4375 30.421875 42.921875 
L 36.375 41.703125 
Q 47.40625 39.59375 52.65625 34.296875 
Q 57.90625 29 57.90625 20.125 
Q 57.90625 9.515625 50.796875 4.046875 
Q 43.703125 -1.421875 29.984375 -1.421875 
Q 24.8125 -1.421875 18.96875 -0.25 
Q 13.140625 0.921875 6.890625 3.21875 
L 6.890625 13.375 
Q 12.890625 10.015625 18.65625 8.296875 
Q 24.421875 6.59375 29.984375 6.59375 
Q 38.421875 6.59375 43.015625 9.90625 
Q 47.609375 13.234375 47.609375 19.390625 
Q 47.609375 24.75 44.3125 27.78125 
Q 41.015625 30.8125 33.5 32.328125 
L 27.484375 33.5 
Q 16.453125 35.6875 11.515625 40.375 
Q 6.59375 45.0625 6.59375 53.421875 
Q 6.59375 63.09375 13.40625 68.65625 
Q 20.21875 74.21875 32.171875 74.21875 
Q 37.3125 74.21875 42.625 73.28125 
Q 47.953125 72.359375 53.515625 70.515625 
" id="DejaVuSans-53"/>
     <path d="M 9.8125 72.90625 
L 55.90625 72.90625 
L 55.90625 64.59375 
L 19.671875 64.59375 
L 19.671875 43.015625 
L 54.390625 43.015625 
L 54.390625 34.71875 
L 19.671875 34.71875 
L 19.671875 8.296875 
L 56.78125 8.296875 
L 56.78125 0 
L 9.8125 0 
z
" id="DejaVuSans-45"/>
    </defs>
    <g transform="translate(369.543806 229.521037)scale(0.17 -0.17)">
     <use xlink:href="#DejaVuSans-52"/>
     <use x="69.419922" xlink:href="#DejaVuSans-41"/>
     <use x="137.828125" xlink:href="#DejaVuSans-4e"/>
     <use x="212.632812" xlink:href="#DejaVuSans-44"/>
     <use x="289.634766" xlink:href="#DejaVuSans-4f"/>
     <use x="368.345703" xlink:href="#DejaVuSans-4d"/>
     <use x="454.625" xlink:href="#DejaVuSans-53"/>
     <use x="518.101562" xlink:href="#DejaVuSans-45"/>
     <use x="581.285156" xlink:href="#DejaVuSans-41"/>
    </g>
   </g>
   <g id="text_16">
    <!-- final  bu -->
    <defs>
     <path d="M 48.6875 27.296875 
Q 48.6875 37.203125 44.609375 42.84375 
Q 40.53125 48.484375 33.40625 48.484375 
Q 26.265625 48.484375 22.1875 42.84375 
Q 18.109375 37.203125 18.109375 27.296875 
Q 18.109375 17.390625 22.1875 11.75 
Q 26.265625 6.109375 33.40625 6.109375 
Q 40.53125 6.109375 44.609375 11.75 
Q 48.6875 17.390625 48.6875 27.296875 
M 18.109375 46.390625 
Q 20.953125 51.265625 25.265625 53.625 
Q 29.59375 56 35.59375 56 
Q 45.5625 56 51.78125 48.09375 
Q 58.015625 40.1875 58.015625 27.296875 
Q 58.015625 14.40625 51.78125 6.484375 
Q 45.5625 -1.421875 35.59375 -1.421875 
Q 29.59375 -1.421875 25.265625 0.953125 
Q 20.953125 3.328125 18.109375 8.203125 
L 18.109375 0 
L 9.078125 0 
L 9.078125 75.984375 
L 18.109375 75.984375 
z
" id="DejaVuSans-62"/>
    </defs>
    <g transform="translate(369.543806 165.524205)scale(0.17 -0.17)">
     <use xlink:href="#DejaVuSans-66"/>
     <use x="35.205078" xlink:href="#DejaVuSans-69"/>
     <use x="62.988281" xlink:href="#DejaVuSans-6e"/>
     <use x="126.367188" xlink:href="#DejaVuSans-61"/>
     <use x="187.646484" xlink:href="#DejaVuSans-6c"/>
     <use x="215.429688" xlink:href="#DejaVuSans-20"/>
     <use x="247.216797" xlink:href="#DejaVuSans-20"/>
     <use x="279.003906" xlink:href="#DejaVuSans-62"/>
     <use x="342.480469" xlink:href="#DejaVuSans-75"/>
    </g>
   </g>
   <g id="text_17">
    <!-- NSGA-II-M -->
    <defs>
     <path d="M 59.515625 10.40625 
L 59.515625 29.984375 
L 43.40625 29.984375 
L 43.40625 38.09375 
L 69.28125 38.09375 
L 69.28125 6.78125 
Q 63.578125 2.734375 56.6875 0.65625 
Q 49.8125 -1.421875 42 -1.421875 
Q 24.90625 -1.421875 15.25 8.5625 
Q 5.609375 18.5625 5.609375 36.375 
Q 5.609375 54.25 15.25 64.234375 
Q 24.90625 74.21875 42 74.21875 
Q 49.125 74.21875 55.546875 72.453125 
Q 61.96875 70.703125 67.390625 67.28125 
L 67.390625 56.78125 
Q 61.921875 61.421875 55.765625 63.765625 
Q 49.609375 66.109375 42.828125 66.109375 
Q 29.4375 66.109375 22.71875 58.640625 
Q 16.015625 51.171875 16.015625 36.375 
Q 16.015625 21.625 22.71875 14.15625 
Q 29.4375 6.6875 42.828125 6.6875 
Q 48.046875 6.6875 52.140625 7.59375 
Q 56.25 8.5 59.515625 10.40625 
" id="DejaVuSans-47"/>
     <path d="M 9.8125 72.90625 
L 19.671875 72.90625 
L 19.671875 0 
L 9.8125 0 
z
" id="DejaVuSans-49"/>
    </defs>
    <g transform="translate(369.543806 101.527373)scale(0.17 -0.17)">
     <use xlink:href="#DejaVuSans-4e"/>
     <use x="74.804688" xlink:href="#DejaVuSans-53"/>
     <use x="138.28125" xlink:href="#DejaVuSans-47"/>
     <use x="215.771484" xlink:href="#DejaVuSans-41"/>
     <use x="284.148438" xlink:href="#DejaVuSans-2d"/>
     <use x="320.232422" xlink:href="#DejaVuSans-49"/>
     <use x="349.724609" xlink:href="#DejaVuSans-49"/>
     <use x="379.216797" xlink:href="#DejaVuSans-2d"/>
     <use x="415.300781" xlink:href="#DejaVuSans-4d"/>
    </g>
   </g>
   <g id="text_18">
    <!-- best 2016 -->
    <g transform="translate(369.543806 37.530541)scale(0.17 -0.17)">
     <use xlink:href="#DejaVuSans-62"/>
     <use x="63.476562" xlink:href="#DejaVuSans-65"/>
     <use x="125" xlink:href="#DejaVuSans-73"/>
     <use x="177.099609" xlink:href="#DejaVuSans-74"/>
     <use x="216.308594" xlink:href="#DejaVuSans-20"/>
     <use x="248.095703" xlink:href="#DejaVuSans-32"/>
     <use x="311.71875" xlink:href="#DejaVuSans-30"/>
     <use x="375.341797" xlink:href="#DejaVuSans-31"/>
     <use x="438.964844" xlink:href="#DejaVuSans-36"/>
    </g>
   </g>
   <g id="text_19">
    <!-- bbob-biobj f13, 5-D -->
    <defs>
     <path d="M 9.421875 54.6875 
L 18.40625 54.6875 
L 18.40625 -0.984375 
Q 18.40625 -11.421875 14.421875 -16.109375 
Q 10.453125 -20.796875 1.609375 -20.796875 
L -1.8125 -20.796875 
L -1.8125 -13.1875 
L 0.59375 -13.1875 
Q 5.71875 -13.1875 7.5625 -10.8125 
Q 9.421875 -8.453125 9.421875 -0.984375 
z
M 9.421875 75.984375 
L 18.40625 75.984375 
L 18.40625 64.59375 
L 9.421875 64.59375 
z
" id="DejaVuSans-6a"/>
     <path d="M 40.578125 39.3125 
Q 47.65625 37.796875 51.625 33 
Q 55.609375 28.21875 55.609375 21.1875 
Q 55.609375 10.40625 48.1875 4.484375 
Q 40.765625 -1.421875 27.09375 -1.421875 
Q 22.515625 -1.421875 17.65625 -0.515625 
Q 12.796875 0.390625 7.625 2.203125 
L 7.625 11.71875 
Q 11.71875 9.328125 16.59375 8.109375 
Q 21.484375 6.890625 26.8125 6.890625 
Q 36.078125 6.890625 40.9375 10.546875 
Q 45.796875 14.203125 45.796875 21.1875 
Q 45.796875 27.640625 41.28125 31.265625 
Q 36.765625 34.90625 28.71875 34.90625 
L 20.21875 34.90625 
L 20.21875 43.015625 
L 29.109375 43.015625 
Q 36.375 43.015625 40.234375 45.921875 
Q 44.09375 48.828125 44.09375 54.296875 
Q 44.09375 59.90625 40.109375 62.90625 
Q 36.140625 65.921875 28.71875 65.921875 
Q 24.65625 65.921875 20.015625 65.03125 
Q 15.375 64.15625 9.8125 62.3125 
L 9.8125 71.09375 
Q 15.4375 72.65625 20.34375 73.4375 
Q 25.25 74.21875 29.59375 74.21875 
Q 40.828125 74.21875 47.359375 69.109375 
Q 53.90625 64.015625 53.90625 55.328125 
Q 53.90625 49.265625 50.4375 45.09375 
Q 46.96875 40.921875 40.578125 39.3125 
" id="DejaVuSans-33"/>
     <path d="M 10.796875 72.90625 
L 49.515625 72.90625 
L 49.515625 64.59375 
L 19.828125 64.59375 
L 19.828125 46.734375 
Q 21.96875 47.46875 24.109375 47.828125 
Q 26.265625 48.1875 28.421875 48.1875 
Q 40.625 48.1875 47.75 41.5 
Q 54.890625 34.8125 54.890625 23.390625 
Q 54.890625 11.625 47.5625 5.09375 
Q 40.234375 -1.421875 26.90625 -1.421875 
Q 22.3125 -1.421875 17.546875 -0.640625 
Q 12.796875 0.140625 7.71875 1.703125 
L 7.71875 11.625 
Q 12.109375 9.234375 16.796875 8.0625 
Q 21.484375 6.890625 26.703125 6.890625 
Q 35.15625 6.890625 40.078125 11.328125 
Q 45.015625 15.765625 45.015625 23.390625 
Q 45.015625 31 40.078125 35.4375 
Q 35.15625 39.890625 26.703125 39.890625 
Q 22.75 39.890625 18.8125 39.015625 
Q 14.890625 38.140625 10.796875 36.28125 
z
" id="DejaVuSans-35"/>
    </defs>
    <g transform="translate(60.27144 35.283606)scale(0.102 -0.102)">
     <use xlink:href="#DejaVuSans-62"/>
     <use x="63.476562" xlink:href="#DejaVuSans-62"/>
     <use x="126.953125" xlink:href="#DejaVuSans-6f"/>
     <use x="188.134766" xlink:href="#DejaVuSans-62"/>
     <use x="251.611328" xlink:href="#DejaVuSans-2d"/>
     <use x="287.695312" xlink:href="#DejaVuSans-62"/>
     <use x="351.171875" xlink:href="#DejaVuSans-69"/>
     <use x="378.955078" xlink:href="#DejaVuSans-6f"/>
     <use x="440.136719" xlink:href="#DejaVuSans-62"/>
     <use x="503.613281" xlink:href="#DejaVuSans-6a"/>
     <use x="531.396484" xlink:href="#DejaVuSans-20"/>
     <use x="563.183594" xlink:href="#DejaVuSans-66"/>
     <use x="598.388672" xlink:href="#DejaVuSans-31"/>
     <use x="662.011719" xlink:href="#DejaVuSans-33"/>
     <use x="725.634766" xlink:href="#DejaVuSans-2c"/>
     <use x="757.421875" xlink:href="#DejaVuSans-20"/>
     <use x="789.208984" xlink:href="#DejaVuSans-35"/>
     <use x="852.832031" xlink:href="#DejaVuSans-2d"/>
     <use x="888.916016" xlink:href="#DejaVuSans-44"/>
    </g>
    <!-- 58 targets: 1..-1.0e-4 -->
    <defs>
     <path d="M 11.71875 12.40625 
L 22.015625 12.40625 
L 22.015625 0 
L 11.71875 0 
z
M 11.71875 51.703125 
L 22.015625 51.703125 
L 22.015625 39.3125 
L 11.71875 39.3125 
z
" id="DejaVuSans-3a"/>
    </defs>
    <g transform="translate(60.27144 46.705375)scale(0.102 -0.102)">
     <use xlink:href="#DejaVuSans-35"/>
     <use x="63.623047" xlink:href="#DejaVuSans-38"/>
     <use x="127.246094" xlink:href="#DejaVuSans-20"/>
     <use x="159.033203" xlink:href="#DejaVuSans-74"/>
     <use x="198.242188" xlink:href="#DejaVuSans-61"/>
     <use x="259.521484" xlink:href="#DejaVuSans-72"/>
     <use x="300.619141" xlink:href="#DejaVuSans-67"/>
     <use x="364.095703" xlink:href="#DejaVuSans-65"/>
     <use x="425.619141" xlink:href="#DejaVuSans-74"/>
     <use x="464.828125" xlink:href="#DejaVuSans-73"/>
     <use x="516.927734" xlink:href="#DejaVuSans-3a"/>
     <use x="550.619141" xlink:href="#DejaVuSans-20"/>
     <use x="582.40625" xlink:href="#DejaVuSans-31"/>
     <use x="646.029297" xlink:href="#DejaVuSans-2e"/>
     <use x="677.816406" xlink:href="#DejaVuSans-2e"/>
     <use x="709.603516" xlink:href="#DejaVuSans-2d"/>
     <use x="745.6875" xlink:href="#DejaVuSans-31"/>
     <use x="809.310547" xlink:href="#DejaVuSans-2e"/>
     <use x="841.097656" xlink:href="#DejaVuSans-30"/>
     <use x="904.720703" xlink:href="#DejaVuSans-65"/>
     <use x="966.244141" xlink:href="#DejaVuSans-2d"/>
     <use x="1002.328125" xlink:href="#DejaVuSans-34"/>
    </g>
    <!-- 10 instances -->
    <g transform="translate(60.27144 58.127144)scale(0.102 -0.102)">
     <use xlink:href="#DejaVuSans-31"/>
     <use x="63.623047" xlink:href="#DejaVuSans-30"/>
     <use x="127.246094" xlink:href="#DejaVuSans-20"/>
     <use x="159.033203" xlink:href="#DejaVuSans-69"/>
     <use x="186.816406" xlink:href="#DejaVuSans-6e"/>
     <use x="250.195312" xlink:href="#DejaVuSans-73"/>
     <use x="302.294922" xlink:href="#DejaVuSans-74"/>
     <use x="341.503906" xlink:href="#DejaVuSans-61"/>
     <use x="402.783203" xlink:href="#DejaVuSans-6e"/>
     <use x="466.162109" xlink:href="#DejaVuSans-63"/>
     <use x="521.142578" xlink:href="#DejaVuSans-65"/>
     <use x="582.666016" xlink:href="#DejaVuSans-73"/>
    </g>
   </g>
   <g id="text_20">
    <!-- v2.2.1.10, hv-hash=ff0e71e8cd978373 -->
    <defs>
     <path d="M 54.890625 33.015625 
L 54.890625 0 
L 45.90625 0 
L 45.90625 32.71875 
Q 45.90625 40.484375 42.875 44.328125 
Q 39.84375 48.1875 33.796875 48.1875 
Q 26.515625 48.1875 22.3125 43.546875 
Q 18.109375 38.921875 18.109375 30.90625 
L 18.109375 0 
L 9.078125 0 
L 9.078125 75.984375 
L 18.109375 75.984375 
L 18.109375 46.1875 
Q 21.34375 51.125 25.703125 53.5625 
Q 30.078125 56 35.796875 56 
Q 45.21875 56 50.046875 50.171875 
Q 54.890625 44.34375 54.890625 33.015625 
" id="DejaVuSans-68"/>
     <path d="M 10.59375 45.40625 
L 73.1875 45.40625 
L 73.1875 37.203125 
L 10.59375 37.203125 
z
M 10.59375 25.484375 
L 73.1875 25.484375 
L 73.1875 17.1875 
L 10.59375 17.1875 
z
" id="DejaVuSans-3d"/>
     <path d="M 8.203125 72.90625 
L 55.078125 72.90625 
L 55.078125 68.703125 
L 28.609375 0 
L 18.3125 0 
L 43.21875 64.59375 
L 8.203125 64.59375 
z
" id="DejaVuSans-37"/>
     <path d="M 10.984375 1.515625 
L 10.984375 10.5 
Q 14.703125 8.734375 18.5 7.8125 
Q 22.3125 6.890625 25.984375 6.890625 
Q 35.75 6.890625 40.890625 13.453125 
Q 46.046875 20.015625 46.78125 33.40625 
Q 43.953125 29.203125 39.59375 26.953125 
Q 35.25 24.703125 29.984375 24.703125 
Q 19.046875 24.703125 12.671875 31.3125 
Q 6.296875 37.9375 6.296875 49.421875 
Q 6.296875 60.640625 12.9375 67.421875 
Q 19.578125 74.21875 30.609375 74.21875 
Q 43.265625 74.21875 49.921875 64.515625 
Q 56.59375 54.828125 56.59375 36.375 
Q 56.59375 19.140625 48.40625 8.859375 
Q 40.234375 -1.421875 26.421875 -1.421875 
Q 22.703125 -1.421875 18.890625 -0.6875 
Q 15.09375 0.046875 10.984375 1.515625 
M 30.609375 32.421875 
Q 37.25 32.421875 41.125 36.953125 
Q 45.015625 41.5 45.015625 49.421875 
Q 45.015625 57.28125 41.125 61.84375 
Q 37.25 66.40625 30.609375 66.40625 
Q 23.96875 66.40625 20.09375 61.84375 
Q 16.21875 57.28125 16.21875 49.421875 
Q 16.21875 41.5 20.09375 36.953125 
Q 23.96875 32.421875 30.609375 32.421875 
" id="DejaVuSans-39"/>
    </defs>
    <g style="fill:#808080;" transform="translate(130.065125 289.387113)scale(0.1 -0.1)">
     <use xlink:href="#DejaVuSans-76"/>
     <use x="59.179688" xlink:href="#DejaVuSans-32"/>
     <use x="122.802734" xlink:href="#DejaVuSans-2e"/>
     <use x="154.589844" xlink:href="#DejaVuSans-32"/>
     <use x="218.212891" xlink:href="#DejaVuSans-2e"/>
     <use x="250" xlink:href="#DejaVuSans-31"/>
     <use x="313.623047" xlink:href="#DejaVuSans-2e"/>
     <use x="345.410156" xlink:href="#DejaVuSans-31"/>
     <use x="409.033203" xlink:href="#DejaVuSans-30"/>
     <use x="472.65625" xlink:href="#DejaVuSans-2c"/>
     <use x="504.443359" xlink:href="#DejaVuSans-20"/>
     <use x="536.230469" xlink:href="#DejaVuSans-68"/>
     <use x="599.609375" xlink:href="#DejaVuSans-76"/>
     <use x="658.757812" xlink:href="#DejaVuSans-2d"/>
     <use x="694.841797" xlink:href="#DejaVuSans-68"/>
     <use x="758.220703" xlink:href="#DejaVuSans-61"/>
     <use x="819.5" xlink:href="#DejaVuSans-73"/>
     <use x="871.599609" xlink:href="#DejaVuSans-68"/>
     <use x="934.978516" xlink:href="#DejaVuSans-3d"/>
     <use x="1018.767578" xlink:href="#DejaVuSans-66"/>
     <use x="1053.972656" xlink:href="#DejaVuSans-66"/>
     <use x="1089.177734" xlink:href="#DejaVuSans-30"/>
     <use x="1152.800781" xlink:href="#DejaVuSans-65"/>
     <use x="1214.324219" xlink:href="#DejaVuSans-37"/>
     <use x="1277.947266" xlink:href="#DejaVuSans-31"/>
     <use x="1341.570312" xlink:href="#DejaVuSans-65"/>
     <use x="1403.09375" xlink:href="#DejaVuSans-38"/>
     <use x="1466.716797" xlink:href="#DejaVuSans-63"/>
     <use x="1521.697266" xlink:href="#DejaVuSans-64"/>
     <use x="1585.173828" xlink:href="#DejaVuSans-39"/>
     <use x="1648.796875" xlink:href="#DejaVuSans-37"/>
     <use x="1712.419922" xlink:href="#DejaVuSans-38"/>
     <use x="1776.042969" xlink:href="#DejaVuSans-33"/>
     <use x="1839.666016" xlink:href="#DejaVuSans-37"/>
     <use x="1903.289062" xlink:href="#DejaVuSans-33"/>
    </g>
   </g>
   <g id="text_21">
    <!-- 13 sep. Ellipsoid/Rosenbrock -->
    <defs>
     <path d="M 9.078125 75.984375 
L 18.109375 75.984375 
L 18.109375 31.109375 
L 44.921875 54.6875 
L 56.390625 54.6875 
L 27.390625 29.109375 
L 57.625 0 
L 45.90625 0 
L 18.109375 26.703125 
L 18.109375 0 
L 9.078125 0 
z
" id="DejaVuSans-6b"/>
    </defs>
    <g transform="translate(84.991688 18.84)scale(0.2 -0.2)">
     <use xlink:href="#DejaVuSans-31"/>
     <use x="63.623047" xlink:href="#DejaVuSans-33"/>
     <use x="127.246094" xlink:href="#DejaVuSans-20"/>
     <use x="159.033203" xlink:href="#DejaVuSans-73"/>
     <use x="211.132812" xlink:href="#DejaVuSans-65"/>
     <use x="272.65625" xlink:href="#DejaVuSans-70"/>
     <use x="336.132812" xlink:href="#DejaVuSans-2e"/>
     <use x="367.919922" xlink:href="#DejaVuSans-20"/>
     <use x="399.707031" xlink:href="#DejaVuSans-45"/>
     <use x="462.890625" xlink:href="#DejaVuSans-6c"/>
     <use x="490.673828" xlink:href="#DejaVuSans-6c"/>
     <use x="518.457031" xlink:href="#DejaVuSans-69"/>
     <use x="546.240234" xlink:href="#DejaVuSans-70"/>
     <use x="609.716797" xlink:href="#DejaVuSans-73"/>
     <use x="661.816406" xlink:href="#DejaVuSans-6f"/>
     <use x="722.998047" xlink:href="#DejaVuSans-69"/>
     <use x="750.78125" xlink:href="#DejaVuSans-64"/>
     <use x="814.257812" xlink:href="#DejaVuSans-2f"/>
     <use x="847.949219" xlink:href="#DejaVuSans-52"/>
     <use x="917.369141" xlink:href="#DejaVuSans-6f"/>
     <use x="978.550781" xlink:href="#DejaVuSans-73"/>
     <use x="1030.650391" xlink:href="#DejaVuSans-65"/>
     <use x="1092.173828" xlink:href="#DejaVuSans-6e"/>
     <use x="1155.552734" xlink:href="#DejaVuSans-62"/>
     <use x="1219.029297" xlink:href="#DejaVuSans-72"/>
     <use x="1260.111328" xlink:href="#DejaVuSans-6f"/>
     <use x="1321.292969" xlink:href="#DejaVuSans-63"/>
     <use x="1376.273438" xlink:href="#DejaVuSans-6b"/>
    </g>
   </g>
  </g>
 </g>
 <defs>
  <clipPath id="pb56b48fc87">
   <rect height="269.32" width="343.144" x="56.84" y="24.84"/>
  </clipPath>
 </defs>
</svg>
