%
% index = 2658, name = bbob_f002_i09_d10__bbob_f008_i10_d10
% instance = 4, reference value = 9.915589396428030e-01
% function evaluation | indicator value | target hit
1	2.773593125562845e-01	2.818382931264454e-01
3115	2.773593125562845e-01	2.818382931264454e-01
%
% index = 2662, name = bbob_f002_i17_d10__bbob_f008_i18_d10
% instance = 8, reference value = 9.975507628724020e-01
% function evaluation | indicator value | target hit
1	4.725982320379536e-01	4.786300923226383e-01
3135	4.725982320379536e-01	4.786300923226383e-01
%
% index = 2666, name = bbob_f002_i25_d10__bbob_f008_i26_d10
% instance = 12, reference value = 1.000000000000000e+00
% function evaluation | indicator value | target hit
1	3.972358229929500e+00	3.981071705534972e+00
3051	3.972358229929500e+00	3.981071705534972e+00
