%
% index = 1830, name = bbob_f002_i02_d05__bbob_f008_i04_d05
% instance = 1, reference value = 9.998030296914900e-01
% function evaluation | indicator value | target hit
1	4.959601522479029e-01	5.011872336272722e-01
3087	4.959601522479029e-01	5.011872336272722e-01
%
% index = 1834, name = bbob_f002_i11_d05__bbob_f008_i12_d05
% instance = 5, reference value = 9.993701971556560e-01
% function evaluation | indicator value | target hit
1	6.561709723669285e-01	6.606934480075960e-01
3110	4.569562314987941e-01	4.570881896148750e-01
3111	4.569562314987941e-01	4.570881896148750e-01
%
% index = 1838, name = bbob_f002_i19_d05__bbob_f008_i21_d05
% instance = 9, reference value = 9.930831267233090e-01
% function evaluation | indicator value | target hit
1	4.377993278585309e+00	4.466835921509632e+00
3086	8.690238797475555e-01	8.709635899560807e-01
3119	8.690238797475555e-01	8.709635899560807e-01
%
% index = 1842, name = bbob_f002_i27_d05__bbob_f008_i28_d05
% instance = 13, reference value = 1.000000000000000e+00
% function evaluation | indicator value | target hit
1	1.829461113498500e+00	1.862087136662868e+00
3083	1.829461113498500e+00	1.862087136662868e+00
