%
% index = 1665, name = bbob_f001_i02_d05__bbob_f002_i04_d05
% instance = 1, reference value = 9.533840843112420e-01
% function evaluation | indicator value | target hit
1	8.163164765636060e-01	8.317637711026710e-01
463	7.404567870852741e-01	7.413102413009175e-01
486	7.111325152902879e-01	7.244359600749900e-01
546	6.832827604411273e-01	6.918309709189365e-01
575	3.901023822492589e-01	3.981071705534972e-01
671	3.783622319163039e-01	3.801893963205612e-01
835	3.386524061335401e-01	3.388441561392025e-01
862	3.111693860878880e-01	3.162277660168379e-01
867	2.832385289935556e-01	2.884031503126606e-01
890	2.817925199029445e-01	2.818382931264454e-01
902	2.516663604934211e-01	2.570395782768864e-01
915	2.442465811897505e-01	2.454708915685030e-01
934	2.390296682761079e-01	2.398832919019490e-01
1179	2.194804542493479e-01	2.238721138568339e-01
1199	2.156576279059503e-01	2.187761623949552e-01
1222	2.122232833434243e-01	2.137962089502232e-01
2487	2.074924135043459e-01	2.089296130854039e-01
2547	1.732039315314192e-01	1.737800828749375e-01
2582	1.693957389988304e-01	1.698243652461744e-01
3087	1.683757057647948e-01	1.698243652461744e-01
%
% index = 1669, name = bbob_f001_i11_d05__bbob_f002_i12_d05
% instance = 5, reference value = 8.615933530380380e-01
% function evaluation | indicator value | target hit
1	2.501839534135513e+01	2.511886431509580e+01
1071	1.856241115745675e+01	1.862087136662868e+01
1842	1.225898782556628e+01	1.230268770812382e+01
1871	8.240540643685577e+00	8.317637711026711e+00
2158	8.043824218155624e+00	8.128305161640993e+00
2199	7.628281304023298e+00	7.762471166286917e+00
2235	7.386927272505611e+00	7.413102413009175e+00
2375	6.203099285745843e+00	6.309573444801933e+00
2426	6.064640336904038e+00	6.165950018614822e+00
2607	5.962833095285200e+00	6.025595860743578e+00
2611	4.849468497646862e+00	4.897788193684462e+00
2623	3.820131890895146e+00	3.890451449942806e+00
2702	3.251406940422897e+00	3.311311214825911e+00
2755	1.027815846282538e+00	1.047128548050900e+00
2902	9.438054491255379e-01	9.549925860214360e-01
3091	9.438054491255379e-01	9.549925860214360e-01
%
% index = 1673, name = bbob_f001_i19_d05__bbob_f002_i21_d05
% instance = 9, reference value = 9.425499823850511e-01
% function evaluation | indicator value | target hit
1	4.229561143602240e+00	4.265795188015927e+00
2590	3.891703936760551e+00	3.981071705534972e+00
3131	3.891703936760551e+00	3.981071705534972e+00
%
% index = 1677, name = bbob_f001_i27_d05__bbob_f002_i28_d05
% instance = 13, reference value = 1.000000000000000e+00
% function evaluation | indicator value | target hit
1	5.405626764776470e-01	5.495408738576245e-01
3027	5.247173425472250e-01	5.248074602497725e-01
3111	5.232429638788691e-01	5.248074602497725e-01
