<?xml version="1.0" encoding="utf-8" standalone="no"?>
<!DOCTYPE svg PUBLIC "-//W3C//DTD SVG 1.1//EN"
  "http://www.w3.org/Graphics/SVG/1.1/DTD/svg11.dtd">
<!-- Created with matplotlib (http://matplotlib.org/) -->
<svg height="345pt" version="1.1" viewBox="0 0 460 345" width="460pt" xmlns="http://www.w3.org/2000/svg" xmlns:xlink="http://www.w3.org/1999/xlink">
 <defs>
  <style type="text/css">
*{stroke-linecap:butt;stroke-linejoin:round;}
  </style>
 </defs>
 <g id="figure_1">
  <g id="patch_1">
   <path d="M 0 345.6 
L 460.8 345.6 
L 460.8 0 
L 0 0 
z
" style="fill:#ffffff;"/>
  </g>
  <g id="axes_1">
   <g id="patch_2">
    <path d="M 56.84 294.16 
L 399.984 294.16 
L 399.984 6.125228 
L 56.84 6.125228 
z
" style="fill:#ffffff;"/>
   </g>
   <g id="line2d_1">
    <path d="M 5.406747 294.16 
L 5.406747 290.47229 
L 24.268647 290.47229 
L 24.268647 289.243053 
L 44.939466 289.243053 
L 44.939466 286.784579 
L 57.677671 286.784579 
L 57.677671 284.326105 
L 62.616839 284.326105 
L 62.616839 281.867632 
L 64.36433 281.867632 
L 64.36433 279.409158 
L 75.985689 279.409158 
L 75.985689 278.179921 
L 79.533017 278.179921 
L 79.533017 275.721448 
L 82.85298 275.721448 
L 82.85298 273.262974 
L 83.591538 273.262974 
L 83.591538 269.575264 
L 87.744915 269.575264 
L 87.744915 267.11679 
L 91.773539 267.11679 
L 91.773539 265.887553 
L 92.860538 265.887553 
L 92.860538 263.429079 
L 93.379273 263.429079 
L 93.379273 260.970606 
L 97.128438 260.970606 
L 97.128438 257.282895 
L 102.026483 257.282895 
L 102.026483 256.053658 
L 106.70115 256.053658 
L 106.70115 254.824422 
L 110.560466 254.824422 
L 110.560466 252.365948 
L 111.005472 252.365948 
L 111.005472 251.136711 
L 113.330053 251.136711 
L 113.330053 248.678238 
L 121.415449 248.678238 
L 121.415449 244.990527 
L 125.719132 244.990527 
L 125.719132 243.76129 
L 126.582679 243.76129 
L 126.582679 241.302817 
L 130.793717 241.302817 
L 130.793717 238.844343 
L 131.999043 238.844343 
L 131.999043 236.385869 
L 136.186412 236.385869 
L 136.186412 233.927396 
L 136.938211 233.927396 
L 136.938211 230.239685 
L 141.322901 230.239685 
L 141.322901 229.010448 
L 142.171898 229.010448 
L 142.171898 226.551975 
L 146.42565 226.551975 
L 146.42565 222.864264 
L 147.265314 222.864264 
L 147.265314 220.405791 
L 150.272574 220.405791 
L 150.272574 216.71808 
L 151.419386 216.71808 
L 151.419386 215.488843 
L 153.413354 215.488843 
L 153.413354 213.03037 
L 156.362032 213.03037 
L 156.362032 209.342659 
L 158.696608 209.342659 
L 158.696608 205.654949 
L 159.512262 205.654949 
L 159.512262 204.425712 
L 161.442086 204.425712 
L 161.442086 201.967238 
L 166.580375 201.967238 
L 166.580375 198.279528 
L 167.872228 198.279528 
L 167.872228 197.050291 
L 171.585566 197.050291 
L 171.585566 195.821054 
L 174.842484 195.821054 
L 174.842484 192.133344 
L 179.91489 192.133344 
L 179.91489 188.445633 
L 180.030906 188.445633 
L 180.030906 185.98716 
L 182.041567 185.98716 
L 182.041567 184.757923 
L 185.861811 184.757923 
L 185.861811 182.299449 
L 189.585659 182.299449 
L 189.585659 181.070212 
L 189.978043 181.070212 
L 189.978043 177.382502 
L 191.09996 177.382502 
L 191.09996 174.924028 
L 192.876887 174.924028 
L 192.876887 173.694791 
L 197.107765 173.694791 
L 197.107765 172.465555 
L 197.257273 172.465555 
L 197.257273 170.007081 
L 199.411761 170.007081 
L 199.411761 166.31937 
L 202.931227 166.31937 
L 202.931227 163.860897 
L 205.239182 163.860897 
L 205.239182 162.63166 
L 205.557453 162.63166 
L 205.557453 160.173186 
L 208.563526 160.173186 
L 208.563526 157.714713 
L 211.922053 157.714713 
L 211.922053 154.027002 
L 212.753771 154.027002 
L 212.753771 150.339292 
L 215.11347 150.339292 
L 215.121726 146.651581 
L 215.642021 146.651581 
L 215.642021 144.193108 
L 216.336979 144.193108 
L 216.336979 141.734634 
L 218.399614 141.734634 
L 218.399614 140.505397 
L 219.618065 140.505397 
L 219.618065 138.046924 
L 227.642237 138.046924 
L 227.642237 135.58845 
L 230.874892 135.58845 
L 230.874892 133.129976 
L 237.065968 133.129976 
L 237.065968 131.900739 
L 243.341372 131.900739 
L 243.341372 128.213029 
L 245.739504 128.213029 
L 245.739504 124.525318 
L 247.902 124.525318 
L 247.902 122.066845 
L 256.260064 122.066845 
L 256.260064 118.379134 
L 257.596103 118.379134 
L 257.596103 115.920661 
L 257.788651 115.920661 
L 257.825923 111.003713 
L 258.218705 111.003713 
L 258.218705 107.316003 
L 258.440167 107.316003 
L 258.440167 106.086766 
L 258.702772 106.086766 
L 258.702772 102.399056 
L 259.649931 102.399056 
L 259.649931 99.940582 
L 262.786711 99.940582 
L 262.786711 98.711345 
L 270.93585 98.711345 
L 271.025599 88.877451 
L 271.099081 88.877451 
L 271.099081 86.418977 
L 272.209609 86.418977 
L 272.209609 82.731267 
L 272.572301 82.731267 
L 272.572301 81.50203 
L 273.731648 81.50203 
L 273.731648 77.814319 
L 280.025228 77.814319 
L 280.084948 72.897372 
L 280.173371 72.897372 
L 280.173371 71.668135 
L 280.305228 71.668135 
L 280.305228 67.980425 
L 280.50394 67.980425 
L 280.50394 65.521951 
L 280.800514 65.521951 
L 280.800514 63.063477 
L 281.244136 63.063477 
L 281.244136 61.834241 
L 281.903634 61.834241 
L 281.903634 59.375767 
L 282.811809 59.375767 
L 282.893396 53.229583 
L 285.066834 53.229583 
L 285.066834 50.771109 
L 285.713897 50.771109 
L 285.713897 49.541872 
L 286.622435 49.541872 
L 286.622435 47.083399 
L 287.809593 47.083399 
L 287.809593 43.395688 
L 333.569032 43.395688 
L 333.569032 43.395688 
" style="fill:none;stroke:#f5deb3;stroke-linecap:square;stroke-width:6;"/>
   </g>
   <g id="line2d_2">
    <defs>
     <path d="M -0 7.778175 
L 7.778175 0 
L 0 -7.778175 
L -7.778175 -0 
z
" id="m6acecd57a5" style="stroke:#f5deb3;stroke-linejoin:miter;stroke-width:1.5;"/>
    </defs>
    <g>
     <use style="fill:#f5deb3;stroke:#f5deb3;stroke-linejoin:miter;stroke-width:1.5;" x="83.591538" xlink:href="#m6acecd57a5" y="273.262974"/>
     <use style="fill:#f5deb3;stroke:#f5deb3;stroke-linejoin:miter;stroke-width:1.5;" x="161.442086" xlink:href="#m6acecd57a5" y="204.425712"/>
     <use style="fill:#f5deb3;stroke:#f5deb3;stroke-linejoin:miter;stroke-width:1.5;" x="205.557453" xlink:href="#m6acecd57a5" y="162.63166"/>
     <use style="fill:#f5deb3;stroke:#f5deb3;stroke-linejoin:miter;stroke-width:1.5;" x="271.025599" xlink:href="#m6acecd57a5" y="92.565161"/>
     <use style="fill:#f5deb3;stroke:#f5deb3;stroke-linejoin:miter;stroke-width:1.5;" x="287.809593" xlink:href="#m6acecd57a5" y="43.395688"/>
     <use style="fill:#f5deb3;stroke:#f5deb3;stroke-linejoin:miter;stroke-width:1.5;" x="333.569032" xlink:href="#m6acecd57a5" y="43.395688"/>
    </g>
   </g>
   <g id="line2d_3">
    <path style="fill:none;stroke:#f5deb3;stroke-linecap:square;stroke-width:6;"/>
    <g/>
   </g>
   <g id="line2d_4">
    <path d="M 333.569032 43.395688 
L 364.009226 14.680716 
" style="fill:none;stroke:#f5deb3;stroke-linecap:square;stroke-width:6;"/>
    <g>
     <use style="fill:#f5deb3;stroke:#f5deb3;stroke-linejoin:miter;stroke-width:1.5;" x="333.569032" xlink:href="#m6acecd57a5" y="43.395688"/>
     <use style="fill:#f5deb3;stroke:#f5deb3;stroke-linejoin:miter;stroke-width:1.5;" x="364.009226" xlink:href="#m6acecd57a5" y="14.680716"/>
    </g>
   </g>
   <g id="matplotlib.axis_1">
    <g id="xtick_1">
     <g id="line2d_5">
      <path clip-path="url(#pce8539d37a)" d="M 56.84 294.16 
L 56.84 6.125228 
" style="fill:none;stroke:#b0b0b0;stroke-linecap:square;stroke-width:0.8;"/>
     </g>
     <g id="line2d_6">
      <defs>
       <path d="M 0 0 
L 0 3.5 
" id="m1c7ff4094f" style="stroke:#000000;stroke-width:0.8;"/>
      </defs>
      <g>
       <use style="stroke:#000000;stroke-width:0.8;" x="56.84" xlink:href="#m1c7ff4094f" y="294.16"/>
      </g>
     </g>
     <g id="text_1">
      <!-- 0 -->
      <defs>
       <path d="M 31.78125 66.40625 
Q 24.171875 66.40625 20.328125 58.90625 
Q 16.5 51.421875 16.5 36.375 
Q 16.5 21.390625 20.328125 13.890625 
Q 24.171875 6.390625 31.78125 6.390625 
Q 39.453125 6.390625 43.28125 13.890625 
Q 47.125 21.390625 47.125 36.375 
Q 47.125 51.421875 43.28125 58.90625 
Q 39.453125 66.40625 31.78125 66.40625 
M 31.78125 74.21875 
Q 44.046875 74.21875 50.515625 64.515625 
Q 56.984375 54.828125 56.984375 36.375 
Q 56.984375 17.96875 50.515625 8.265625 
Q 44.046875 -1.421875 31.78125 -1.421875 
Q 19.53125 -1.421875 13.0625 8.265625 
Q 6.59375 17.96875 6.59375 36.375 
Q 6.59375 54.828125 13.0625 64.515625 
Q 19.53125 74.21875 31.78125 74.21875 
" id="DejaVuSans-30"/>
      </defs>
      <g transform="translate(50.4775 316.356875)scale(0.2 -0.2)">
       <use xlink:href="#DejaVuSans-30"/>
      </g>
     </g>
    </g>
    <g id="xtick_2">
     <g id="line2d_7">
      <path clip-path="url(#pce8539d37a)" d="M 135.905438 294.16 
L 135.905438 6.125228 
" style="fill:none;stroke:#b0b0b0;stroke-linecap:square;stroke-width:0.8;"/>
     </g>
     <g id="line2d_8">
      <g>
       <use style="stroke:#000000;stroke-width:0.8;" x="135.905438" xlink:href="#m1c7ff4094f" y="294.16"/>
      </g>
     </g>
     <g id="text_2">
      <!-- 2 -->
      <defs>
       <path d="M 19.1875 8.296875 
L 53.609375 8.296875 
L 53.609375 0 
L 7.328125 0 
L 7.328125 8.296875 
Q 12.9375 14.109375 22.625 23.890625 
Q 32.328125 33.6875 34.8125 36.53125 
Q 39.546875 41.84375 41.421875 45.53125 
Q 43.3125 49.21875 43.3125 52.78125 
Q 43.3125 58.59375 39.234375 62.25 
Q 35.15625 65.921875 28.609375 65.921875 
Q 23.96875 65.921875 18.8125 64.3125 
Q 13.671875 62.703125 7.8125 59.421875 
L 7.8125 69.390625 
Q 13.765625 71.78125 18.9375 73 
Q 24.125 74.21875 28.421875 74.21875 
Q 39.75 74.21875 46.484375 68.546875 
Q 53.21875 62.890625 53.21875 53.421875 
Q 53.21875 48.921875 51.53125 44.890625 
Q 49.859375 40.875 45.40625 35.40625 
Q 44.1875 33.984375 37.640625 27.21875 
Q 31.109375 20.453125 19.1875 8.296875 
" id="DejaVuSans-32"/>
      </defs>
      <g transform="translate(129.542938 316.356875)scale(0.2 -0.2)">
       <use xlink:href="#DejaVuSans-32"/>
      </g>
     </g>
    </g>
    <g id="xtick_3">
     <g id="line2d_9">
      <path clip-path="url(#pce8539d37a)" d="M 214.970876 294.16 
L 214.970876 6.125228 
" style="fill:none;stroke:#b0b0b0;stroke-linecap:square;stroke-width:0.8;"/>
     </g>
     <g id="line2d_10">
      <g>
       <use style="stroke:#000000;stroke-width:0.8;" x="214.970876" xlink:href="#m1c7ff4094f" y="294.16"/>
      </g>
     </g>
     <g id="text_3">
      <!-- 4 -->
      <defs>
       <path d="M 37.796875 64.3125 
L 12.890625 25.390625 
L 37.796875 25.390625 
z
M 35.203125 72.90625 
L 47.609375 72.90625 
L 47.609375 25.390625 
L 58.015625 25.390625 
L 58.015625 17.1875 
L 47.609375 17.1875 
L 47.609375 0 
L 37.796875 0 
L 37.796875 17.1875 
L 4.890625 17.1875 
L 4.890625 26.703125 
z
" id="DejaVuSans-34"/>
      </defs>
      <g transform="translate(208.608376 316.356875)scale(0.2 -0.2)">
       <use xlink:href="#DejaVuSans-34"/>
      </g>
     </g>
    </g>
    <g id="xtick_4">
     <g id="line2d_11">
      <path clip-path="url(#pce8539d37a)" d="M 294.036313 294.16 
L 294.036313 6.125228 
" style="fill:none;stroke:#b0b0b0;stroke-linecap:square;stroke-width:0.8;"/>
     </g>
     <g id="line2d_12">
      <g>
       <use style="stroke:#000000;stroke-width:0.8;" x="294.036313" xlink:href="#m1c7ff4094f" y="294.16"/>
      </g>
     </g>
     <g id="text_4">
      <!-- 6 -->
      <defs>
       <path d="M 33.015625 40.375 
Q 26.375 40.375 22.484375 35.828125 
Q 18.609375 31.296875 18.609375 23.390625 
Q 18.609375 15.53125 22.484375 10.953125 
Q 26.375 6.390625 33.015625 6.390625 
Q 39.65625 6.390625 43.53125 10.953125 
Q 47.40625 15.53125 47.40625 23.390625 
Q 47.40625 31.296875 43.53125 35.828125 
Q 39.65625 40.375 33.015625 40.375 
M 52.59375 71.296875 
L 52.59375 62.3125 
Q 48.875 64.0625 45.09375 64.984375 
Q 41.3125 65.921875 37.59375 65.921875 
Q 27.828125 65.921875 22.671875 59.328125 
Q 17.53125 52.734375 16.796875 39.40625 
Q 19.671875 43.65625 24.015625 45.921875 
Q 28.375 48.1875 33.59375 48.1875 
Q 44.578125 48.1875 50.953125 41.515625 
Q 57.328125 34.859375 57.328125 23.390625 
Q 57.328125 12.15625 50.6875 5.359375 
Q 44.046875 -1.421875 33.015625 -1.421875 
Q 20.359375 -1.421875 13.671875 8.265625 
Q 6.984375 17.96875 6.984375 36.375 
Q 6.984375 53.65625 15.1875 63.9375 
Q 23.390625 74.21875 37.203125 74.21875 
Q 40.921875 74.21875 44.703125 73.484375 
Q 48.484375 72.75 52.59375 71.296875 
" id="DejaVuSans-36"/>
      </defs>
      <g transform="translate(287.673813 316.356875)scale(0.2 -0.2)">
       <use xlink:href="#DejaVuSans-36"/>
      </g>
     </g>
    </g>
    <g id="xtick_5">
     <g id="line2d_13">
      <path clip-path="url(#pce8539d37a)" d="M 373.101751 294.16 
L 373.101751 6.125228 
" style="fill:none;stroke:#b0b0b0;stroke-linecap:square;stroke-width:0.8;"/>
     </g>
     <g id="line2d_14">
      <g>
       <use style="stroke:#000000;stroke-width:0.8;" x="373.101751" xlink:href="#m1c7ff4094f" y="294.16"/>
      </g>
     </g>
     <g id="text_5">
      <!-- 8 -->
      <defs>
       <path d="M 31.78125 34.625 
Q 24.75 34.625 20.71875 30.859375 
Q 16.703125 27.09375 16.703125 20.515625 
Q 16.703125 13.921875 20.71875 10.15625 
Q 24.75 6.390625 31.78125 6.390625 
Q 38.8125 6.390625 42.859375 10.171875 
Q 46.921875 13.96875 46.921875 20.515625 
Q 46.921875 27.09375 42.890625 30.859375 
Q 38.875 34.625 31.78125 34.625 
M 21.921875 38.8125 
Q 15.578125 40.375 12.03125 44.71875 
Q 8.5 49.078125 8.5 55.328125 
Q 8.5 64.0625 14.71875 69.140625 
Q 20.953125 74.21875 31.78125 74.21875 
Q 42.671875 74.21875 48.875 69.140625 
Q 55.078125 64.0625 55.078125 55.328125 
Q 55.078125 49.078125 51.53125 44.71875 
Q 48 40.375 41.703125 38.8125 
Q 48.828125 37.15625 52.796875 32.3125 
Q 56.78125 27.484375 56.78125 20.515625 
Q 56.78125 9.90625 50.3125 4.234375 
Q 43.84375 -1.421875 31.78125 -1.421875 
Q 19.734375 -1.421875 13.25 4.234375 
Q 6.78125 9.90625 6.78125 20.515625 
Q 6.78125 27.484375 10.78125 32.3125 
Q 14.796875 37.15625 21.921875 38.8125 
M 18.3125 54.390625 
Q 18.3125 48.734375 21.84375 45.5625 
Q 25.390625 42.390625 31.78125 42.390625 
Q 38.140625 42.390625 41.71875 45.5625 
Q 45.3125 48.734375 45.3125 54.390625 
Q 45.3125 60.0625 41.71875 63.234375 
Q 38.140625 66.40625 31.78125 66.40625 
Q 25.390625 66.40625 21.84375 63.234375 
Q 18.3125 60.0625 18.3125 54.390625 
" id="DejaVuSans-38"/>
      </defs>
      <g transform="translate(366.739251 316.356875)scale(0.2 -0.2)">
       <use xlink:href="#DejaVuSans-38"/>
      </g>
     </g>
    </g>
    <g id="xtick_6">
     <g id="line2d_15">
      <defs>
       <path d="M 0 0 
L 0 2 
" id="m8967a739da" style="stroke:#000000;stroke-width:0.6;"/>
      </defs>
      <g>
       <use style="stroke:#000000;stroke-width:0.6;" x="68.740534" xlink:href="#m8967a739da" y="294.16"/>
      </g>
     </g>
    </g>
    <g id="xtick_7">
     <g id="line2d_16">
      <g>
       <use style="stroke:#000000;stroke-width:0.6;" x="80.641068" xlink:href="#m8967a739da" y="294.16"/>
      </g>
     </g>
    </g>
    <g id="xtick_8">
     <g id="line2d_17">
      <g>
       <use style="stroke:#000000;stroke-width:0.6;" x="87.602435" xlink:href="#m8967a739da" y="294.16"/>
      </g>
     </g>
    </g>
    <g id="xtick_9">
     <g id="line2d_18">
      <g>
       <use style="stroke:#000000;stroke-width:0.6;" x="92.541603" xlink:href="#m8967a739da" y="294.16"/>
      </g>
     </g>
    </g>
    <g id="xtick_10">
     <g id="line2d_19">
      <g>
       <use style="stroke:#000000;stroke-width:0.6;" x="147.805972" xlink:href="#m8967a739da" y="294.16"/>
      </g>
     </g>
    </g>
    <g id="xtick_11">
     <g id="line2d_20">
      <g>
       <use style="stroke:#000000;stroke-width:0.6;" x="159.706506" xlink:href="#m8967a739da" y="294.16"/>
      </g>
     </g>
    </g>
    <g id="xtick_12">
     <g id="line2d_21">
      <g>
       <use style="stroke:#000000;stroke-width:0.6;" x="166.667872" xlink:href="#m8967a739da" y="294.16"/>
      </g>
     </g>
    </g>
    <g id="xtick_13">
     <g id="line2d_22">
      <g>
       <use style="stroke:#000000;stroke-width:0.6;" x="171.60704" xlink:href="#m8967a739da" y="294.16"/>
      </g>
     </g>
    </g>
    <g id="xtick_14">
     <g id="line2d_23">
      <g>
       <use style="stroke:#000000;stroke-width:0.6;" x="226.87141" xlink:href="#m8967a739da" y="294.16"/>
      </g>
     </g>
    </g>
    <g id="xtick_15">
     <g id="line2d_24">
      <g>
       <use style="stroke:#000000;stroke-width:0.6;" x="238.771944" xlink:href="#m8967a739da" y="294.16"/>
      </g>
     </g>
    </g>
    <g id="xtick_16">
     <g id="line2d_25">
      <g>
       <use style="stroke:#000000;stroke-width:0.6;" x="245.73331" xlink:href="#m8967a739da" y="294.16"/>
      </g>
     </g>
    </g>
    <g id="xtick_17">
     <g id="line2d_26">
      <g>
       <use style="stroke:#000000;stroke-width:0.6;" x="250.672478" xlink:href="#m8967a739da" y="294.16"/>
      </g>
     </g>
    </g>
    <g id="xtick_18">
     <g id="line2d_27">
      <g>
       <use style="stroke:#000000;stroke-width:0.6;" x="305.936848" xlink:href="#m8967a739da" y="294.16"/>
      </g>
     </g>
    </g>
    <g id="xtick_19">
     <g id="line2d_28">
      <g>
       <use style="stroke:#000000;stroke-width:0.6;" x="317.837382" xlink:href="#m8967a739da" y="294.16"/>
      </g>
     </g>
    </g>
    <g id="xtick_20">
     <g id="line2d_29">
      <g>
       <use style="stroke:#000000;stroke-width:0.6;" x="324.798748" xlink:href="#m8967a739da" y="294.16"/>
      </g>
     </g>
    </g>
    <g id="xtick_21">
     <g id="line2d_30">
      <g>
       <use style="stroke:#000000;stroke-width:0.6;" x="329.737916" xlink:href="#m8967a739da" y="294.16"/>
      </g>
     </g>
    </g>
    <g id="xtick_22">
     <g id="line2d_31">
      <g>
       <use style="stroke:#000000;stroke-width:0.6;" x="385.002285" xlink:href="#m8967a739da" y="294.16"/>
      </g>
     </g>
    </g>
    <g id="xtick_23">
     <g id="line2d_32">
      <g>
       <use style="stroke:#000000;stroke-width:0.6;" x="396.90282" xlink:href="#m8967a739da" y="294.16"/>
      </g>
     </g>
    </g>
    <g id="text_6">
     <!-- log10(# f-evals / dimension) -->
     <defs>
      <path d="M 9.421875 75.984375 
L 18.40625 75.984375 
L 18.40625 0 
L 9.421875 0 
z
" id="DejaVuSans-6c"/>
      <path d="M 30.609375 48.390625 
Q 23.390625 48.390625 19.1875 42.75 
Q 14.984375 37.109375 14.984375 27.296875 
Q 14.984375 17.484375 19.15625 11.84375 
Q 23.34375 6.203125 30.609375 6.203125 
Q 37.796875 6.203125 41.984375 11.859375 
Q 46.1875 17.53125 46.1875 27.296875 
Q 46.1875 37.015625 41.984375 42.703125 
Q 37.796875 48.390625 30.609375 48.390625 
M 30.609375 56 
Q 42.328125 56 49.015625 48.375 
Q 55.71875 40.765625 55.71875 27.296875 
Q 55.71875 13.875 49.015625 6.21875 
Q 42.328125 -1.421875 30.609375 -1.421875 
Q 18.84375 -1.421875 12.171875 6.21875 
Q 5.515625 13.875 5.515625 27.296875 
Q 5.515625 40.765625 12.171875 48.375 
Q 18.84375 56 30.609375 56 
" id="DejaVuSans-6f"/>
      <path d="M 45.40625 27.984375 
Q 45.40625 37.75 41.375 43.109375 
Q 37.359375 48.484375 30.078125 48.484375 
Q 22.859375 48.484375 18.828125 43.109375 
Q 14.796875 37.75 14.796875 27.984375 
Q 14.796875 18.265625 18.828125 12.890625 
Q 22.859375 7.515625 30.078125 7.515625 
Q 37.359375 7.515625 41.375 12.890625 
Q 45.40625 18.265625 45.40625 27.984375 
M 54.390625 6.78125 
Q 54.390625 -7.171875 48.1875 -13.984375 
Q 42 -20.796875 29.203125 -20.796875 
Q 24.46875 -20.796875 20.265625 -20.09375 
Q 16.0625 -19.390625 12.109375 -17.921875 
L 12.109375 -9.1875 
Q 16.0625 -11.328125 19.921875 -12.34375 
Q 23.78125 -13.375 27.78125 -13.375 
Q 36.625 -13.375 41.015625 -8.765625 
Q 45.40625 -4.15625 45.40625 5.171875 
L 45.40625 9.625 
Q 42.625 4.78125 38.28125 2.390625 
Q 33.9375 0 27.875 0 
Q 17.828125 0 11.671875 7.65625 
Q 5.515625 15.328125 5.515625 27.984375 
Q 5.515625 40.671875 11.671875 48.328125 
Q 17.828125 56 27.875 56 
Q 33.9375 56 38.28125 53.609375 
Q 42.625 51.21875 45.40625 46.390625 
L 45.40625 54.6875 
L 54.390625 54.6875 
z
" id="DejaVuSans-67"/>
      <path d="M 12.40625 8.296875 
L 28.515625 8.296875 
L 28.515625 63.921875 
L 10.984375 60.40625 
L 10.984375 69.390625 
L 28.421875 72.90625 
L 38.28125 72.90625 
L 38.28125 8.296875 
L 54.390625 8.296875 
L 54.390625 0 
L 12.40625 0 
z
" id="DejaVuSans-31"/>
      <path d="M 31 75.875 
Q 24.46875 64.65625 21.28125 53.65625 
Q 18.109375 42.671875 18.109375 31.390625 
Q 18.109375 20.125 21.3125 9.0625 
Q 24.515625 -2 31 -13.1875 
L 23.1875 -13.1875 
Q 15.875 -1.703125 12.234375 9.375 
Q 8.59375 20.453125 8.59375 31.390625 
Q 8.59375 42.28125 12.203125 53.3125 
Q 15.828125 64.359375 23.1875 75.875 
z
" id="DejaVuSans-28"/>
      <path d="M 51.125 44 
L 36.921875 44 
L 32.8125 27.6875 
L 47.125 27.6875 
z
M 43.796875 71.78125 
L 38.71875 51.515625 
L 52.984375 51.515625 
L 58.109375 71.78125 
L 65.921875 71.78125 
L 60.890625 51.515625 
L 76.125 51.515625 
L 76.125 44 
L 58.984375 44 
L 54.984375 27.6875 
L 70.515625 27.6875 
L 70.515625 20.21875 
L 53.078125 20.21875 
L 48 0 
L 40.1875 0 
L 45.21875 20.21875 
L 30.90625 20.21875 
L 25.875 0 
L 18.015625 0 
L 23.09375 20.21875 
L 7.71875 20.21875 
L 7.71875 27.6875 
L 24.90625 27.6875 
L 29 44 
L 13.28125 44 
L 13.28125 51.515625 
L 30.90625 51.515625 
L 35.890625 71.78125 
z
" id="DejaVuSans-23"/>
      <path id="DejaVuSans-20"/>
      <path d="M 37.109375 75.984375 
L 37.109375 68.5 
L 28.515625 68.5 
Q 23.6875 68.5 21.796875 66.546875 
Q 19.921875 64.59375 19.921875 59.515625 
L 19.921875 54.6875 
L 34.71875 54.6875 
L 34.71875 47.703125 
L 19.921875 47.703125 
L 19.921875 0 
L 10.890625 0 
L 10.890625 47.703125 
L 2.296875 47.703125 
L 2.296875 54.6875 
L 10.890625 54.6875 
L 10.890625 58.5 
Q 10.890625 67.625 15.140625 71.796875 
Q 19.390625 75.984375 28.609375 75.984375 
z
" id="DejaVuSans-66"/>
      <path d="M 4.890625 31.390625 
L 31.203125 31.390625 
L 31.203125 23.390625 
L 4.890625 23.390625 
z
" id="DejaVuSans-2d"/>
      <path d="M 56.203125 29.59375 
L 56.203125 25.203125 
L 14.890625 25.203125 
Q 15.484375 15.921875 20.484375 11.0625 
Q 25.484375 6.203125 34.421875 6.203125 
Q 39.59375 6.203125 44.453125 7.46875 
Q 49.3125 8.734375 54.109375 11.28125 
L 54.109375 2.78125 
Q 49.265625 0.734375 44.1875 -0.34375 
Q 39.109375 -1.421875 33.890625 -1.421875 
Q 20.796875 -1.421875 13.15625 6.1875 
Q 5.515625 13.8125 5.515625 26.8125 
Q 5.515625 40.234375 12.765625 48.109375 
Q 20.015625 56 32.328125 56 
Q 43.359375 56 49.78125 48.890625 
Q 56.203125 41.796875 56.203125 29.59375 
M 47.21875 32.234375 
Q 47.125 39.59375 43.09375 43.984375 
Q 39.0625 48.390625 32.421875 48.390625 
Q 24.90625 48.390625 20.390625 44.140625 
Q 15.875 39.890625 15.1875 32.171875 
z
" id="DejaVuSans-65"/>
      <path d="M 2.984375 54.6875 
L 12.5 54.6875 
L 29.59375 8.796875 
L 46.6875 54.6875 
L 56.203125 54.6875 
L 35.6875 0 
L 23.484375 0 
z
" id="DejaVuSans-76"/>
      <path d="M 34.28125 27.484375 
Q 23.390625 27.484375 19.1875 25 
Q 14.984375 22.515625 14.984375 16.5 
Q 14.984375 11.71875 18.140625 8.90625 
Q 21.296875 6.109375 26.703125 6.109375 
Q 34.1875 6.109375 38.703125 11.40625 
Q 43.21875 16.703125 43.21875 25.484375 
L 43.21875 27.484375 
z
M 52.203125 31.203125 
L 52.203125 0 
L 43.21875 0 
L 43.21875 8.296875 
Q 40.140625 3.328125 35.546875 0.953125 
Q 30.953125 -1.421875 24.3125 -1.421875 
Q 15.921875 -1.421875 10.953125 3.296875 
Q 6 8.015625 6 15.921875 
Q 6 25.140625 12.171875 29.828125 
Q 18.359375 34.515625 30.609375 34.515625 
L 43.21875 34.515625 
L 43.21875 35.40625 
Q 43.21875 41.609375 39.140625 45 
Q 35.0625 48.390625 27.6875 48.390625 
Q 23 48.390625 18.546875 47.265625 
Q 14.109375 46.140625 10.015625 43.890625 
L 10.015625 52.203125 
Q 14.9375 54.109375 19.578125 55.046875 
Q 24.21875 56 28.609375 56 
Q 40.484375 56 46.34375 49.84375 
Q 52.203125 43.703125 52.203125 31.203125 
" id="DejaVuSans-61"/>
      <path d="M 44.28125 53.078125 
L 44.28125 44.578125 
Q 40.484375 46.53125 36.375 47.5 
Q 32.28125 48.484375 27.875 48.484375 
Q 21.1875 48.484375 17.84375 46.4375 
Q 14.5 44.390625 14.5 40.28125 
Q 14.5 37.15625 16.890625 35.375 
Q 19.28125 33.59375 26.515625 31.984375 
L 29.59375 31.296875 
Q 39.15625 29.25 43.1875 25.515625 
Q 47.21875 21.78125 47.21875 15.09375 
Q 47.21875 7.46875 41.1875 3.015625 
Q 35.15625 -1.421875 24.609375 -1.421875 
Q 20.21875 -1.421875 15.453125 -0.5625 
Q 10.6875 0.296875 5.421875 2 
L 5.421875 11.28125 
Q 10.40625 8.6875 15.234375 7.390625 
Q 20.0625 6.109375 24.8125 6.109375 
Q 31.15625 6.109375 34.5625 8.28125 
Q 37.984375 10.453125 37.984375 14.40625 
Q 37.984375 18.0625 35.515625 20.015625 
Q 33.0625 21.96875 24.703125 23.78125 
L 21.578125 24.515625 
Q 13.234375 26.265625 9.515625 29.90625 
Q 5.8125 33.546875 5.8125 39.890625 
Q 5.8125 47.609375 11.28125 51.796875 
Q 16.75 56 26.8125 56 
Q 31.78125 56 36.171875 55.265625 
Q 40.578125 54.546875 44.28125 53.078125 
" id="DejaVuSans-73"/>
      <path d="M 25.390625 72.90625 
L 33.6875 72.90625 
L 8.296875 -9.28125 
L 0 -9.28125 
z
" id="DejaVuSans-2f"/>
      <path d="M 45.40625 46.390625 
L 45.40625 75.984375 
L 54.390625 75.984375 
L 54.390625 0 
L 45.40625 0 
L 45.40625 8.203125 
Q 42.578125 3.328125 38.25 0.953125 
Q 33.9375 -1.421875 27.875 -1.421875 
Q 17.96875 -1.421875 11.734375 6.484375 
Q 5.515625 14.40625 5.515625 27.296875 
Q 5.515625 40.1875 11.734375 48.09375 
Q 17.96875 56 27.875 56 
Q 33.9375 56 38.25 53.625 
Q 42.578125 51.265625 45.40625 46.390625 
M 14.796875 27.296875 
Q 14.796875 17.390625 18.875 11.75 
Q 22.953125 6.109375 30.078125 6.109375 
Q 37.203125 6.109375 41.296875 11.75 
Q 45.40625 17.390625 45.40625 27.296875 
Q 45.40625 37.203125 41.296875 42.84375 
Q 37.203125 48.484375 30.078125 48.484375 
Q 22.953125 48.484375 18.875 42.84375 
Q 14.796875 37.203125 14.796875 27.296875 
" id="DejaVuSans-64"/>
      <path d="M 9.421875 54.6875 
L 18.40625 54.6875 
L 18.40625 0 
L 9.421875 0 
z
M 9.421875 75.984375 
L 18.40625 75.984375 
L 18.40625 64.59375 
L 9.421875 64.59375 
z
" id="DejaVuSans-69"/>
      <path d="M 52 44.1875 
Q 55.375 50.25 60.0625 53.125 
Q 64.75 56 71.09375 56 
Q 79.640625 56 84.28125 50.015625 
Q 88.921875 44.046875 88.921875 33.015625 
L 88.921875 0 
L 79.890625 0 
L 79.890625 32.71875 
Q 79.890625 40.578125 77.09375 44.375 
Q 74.3125 48.1875 68.609375 48.1875 
Q 61.625 48.1875 57.5625 43.546875 
Q 53.515625 38.921875 53.515625 30.90625 
L 53.515625 0 
L 44.484375 0 
L 44.484375 32.71875 
Q 44.484375 40.625 41.703125 44.40625 
Q 38.921875 48.1875 33.109375 48.1875 
Q 26.21875 48.1875 22.15625 43.53125 
Q 18.109375 38.875 18.109375 30.90625 
L 18.109375 0 
L 9.078125 0 
L 9.078125 54.6875 
L 18.109375 54.6875 
L 18.109375 46.1875 
Q 21.1875 51.21875 25.484375 53.609375 
Q 29.78125 56 35.6875 56 
Q 41.65625 56 45.828125 52.96875 
Q 50 49.953125 52 44.1875 
" id="DejaVuSans-6d"/>
      <path d="M 54.890625 33.015625 
L 54.890625 0 
L 45.90625 0 
L 45.90625 32.71875 
Q 45.90625 40.484375 42.875 44.328125 
Q 39.84375 48.1875 33.796875 48.1875 
Q 26.515625 48.1875 22.3125 43.546875 
Q 18.109375 38.921875 18.109375 30.90625 
L 18.109375 0 
L 9.078125 0 
L 9.078125 54.6875 
L 18.109375 54.6875 
L 18.109375 46.1875 
Q 21.34375 51.125 25.703125 53.5625 
Q 30.078125 56 35.796875 56 
Q 45.21875 56 50.046875 50.171875 
Q 54.890625 44.34375 54.890625 33.015625 
" id="DejaVuSans-6e"/>
      <path d="M 8.015625 75.875 
L 15.828125 75.875 
Q 23.140625 64.359375 26.78125 53.3125 
Q 30.421875 42.28125 30.421875 31.390625 
Q 30.421875 20.453125 26.78125 9.375 
Q 23.140625 -1.703125 15.828125 -13.1875 
L 8.015625 -13.1875 
Q 14.5 -2 17.703125 9.0625 
Q 20.90625 20.125 20.90625 31.390625 
Q 20.90625 42.671875 17.703125 53.65625 
Q 14.5 64.65625 8.015625 75.875 
" id="DejaVuSans-29"/>
     </defs>
     <g transform="translate(107.571219 337.433594)scale(0.17 -0.17)">
      <use xlink:href="#DejaVuSans-6c"/>
      <use x="27.783203" xlink:href="#DejaVuSans-6f"/>
      <use x="88.964844" xlink:href="#DejaVuSans-67"/>
      <use x="152.441406" xlink:href="#DejaVuSans-31"/>
      <use x="216.064453" xlink:href="#DejaVuSans-30"/>
      <use x="279.6875" xlink:href="#DejaVuSans-28"/>
      <use x="318.701172" xlink:href="#DejaVuSans-23"/>
      <use x="402.490234" xlink:href="#DejaVuSans-20"/>
      <use x="434.277344" xlink:href="#DejaVuSans-66"/>
      <use x="469.404297" xlink:href="#DejaVuSans-2d"/>
      <use x="505.488281" xlink:href="#DejaVuSans-65"/>
      <use x="567.011719" xlink:href="#DejaVuSans-76"/>
      <use x="626.191406" xlink:href="#DejaVuSans-61"/>
      <use x="687.470703" xlink:href="#DejaVuSans-6c"/>
      <use x="715.253906" xlink:href="#DejaVuSans-73"/>
      <use x="767.353516" xlink:href="#DejaVuSans-20"/>
      <use x="799.140625" xlink:href="#DejaVuSans-2f"/>
      <use x="832.832031" xlink:href="#DejaVuSans-20"/>
      <use x="864.619141" xlink:href="#DejaVuSans-64"/>
      <use x="928.095703" xlink:href="#DejaVuSans-69"/>
      <use x="955.878906" xlink:href="#DejaVuSans-6d"/>
      <use x="1053.291016" xlink:href="#DejaVuSans-65"/>
      <use x="1114.814453" xlink:href="#DejaVuSans-6e"/>
      <use x="1178.193359" xlink:href="#DejaVuSans-73"/>
      <use x="1230.292969" xlink:href="#DejaVuSans-69"/>
      <use x="1258.076172" xlink:href="#DejaVuSans-6f"/>
      <use x="1319.257812" xlink:href="#DejaVuSans-6e"/>
      <use x="1382.636719" xlink:href="#DejaVuSans-29"/>
     </g>
    </g>
   </g>
   <g id="matplotlib.axis_2">
    <g id="ytick_1">
     <g id="line2d_33">
      <path clip-path="url(#pce8539d37a)" d="M 56.84 294.16 
L 399.984 294.16 
" style="fill:none;stroke:#b0b0b0;stroke-linecap:square;stroke-width:0.8;"/>
     </g>
     <g id="line2d_34">
      <defs>
       <path d="M 0 0 
L -3.5 0 
" id="m382120be01" style="stroke:#000000;stroke-width:0.8;"/>
      </defs>
      <g>
       <use style="stroke:#000000;stroke-width:0.8;" x="56.84" xlink:href="#m382120be01" y="294.16"/>
      </g>
     </g>
     <g id="text_7">
      <!-- 0.0 -->
      <defs>
       <path d="M 10.6875 12.40625 
L 21 12.40625 
L 21 0 
L 10.6875 0 
z
" id="DejaVuSans-2e"/>
      </defs>
      <g transform="translate(24.395 300.23875)scale(0.16 -0.16)">
       <use xlink:href="#DejaVuSans-30"/>
       <use x="63.623047" xlink:href="#DejaVuSans-2e"/>
       <use x="95.410156" xlink:href="#DejaVuSans-30"/>
      </g>
     </g>
    </g>
    <g id="ytick_2">
     <g id="line2d_35">
      <path clip-path="url(#pce8539d37a)" d="M 56.84 237.123411 
L 399.984 237.123411 
" style="fill:none;stroke:#b0b0b0;stroke-linecap:square;stroke-width:0.8;"/>
     </g>
     <g id="line2d_36">
      <g>
       <use style="stroke:#000000;stroke-width:0.8;" x="56.84" xlink:href="#m382120be01" y="237.123411"/>
      </g>
     </g>
     <g id="text_8">
      <!-- 0.2 -->
      <g transform="translate(24.395 243.202161)scale(0.16 -0.16)">
       <use xlink:href="#DejaVuSans-30"/>
       <use x="63.623047" xlink:href="#DejaVuSans-2e"/>
       <use x="95.410156" xlink:href="#DejaVuSans-32"/>
      </g>
     </g>
    </g>
    <g id="ytick_3">
     <g id="line2d_37">
      <path clip-path="url(#pce8539d37a)" d="M 56.84 180.086823 
L 399.984 180.086823 
" style="fill:none;stroke:#b0b0b0;stroke-linecap:square;stroke-width:0.8;"/>
     </g>
     <g id="line2d_38">
      <g>
       <use style="stroke:#000000;stroke-width:0.8;" x="56.84" xlink:href="#m382120be01" y="180.086823"/>
      </g>
     </g>
     <g id="text_9">
      <!-- 0.4 -->
      <g transform="translate(24.395 186.165573)scale(0.16 -0.16)">
       <use xlink:href="#DejaVuSans-30"/>
       <use x="63.623047" xlink:href="#DejaVuSans-2e"/>
       <use x="95.410156" xlink:href="#DejaVuSans-34"/>
      </g>
     </g>
    </g>
    <g id="ytick_4">
     <g id="line2d_39">
      <path clip-path="url(#pce8539d37a)" d="M 56.84 123.050234 
L 399.984 123.050234 
" style="fill:none;stroke:#b0b0b0;stroke-linecap:square;stroke-width:0.8;"/>
     </g>
     <g id="line2d_40">
      <g>
       <use style="stroke:#000000;stroke-width:0.8;" x="56.84" xlink:href="#m382120be01" y="123.050234"/>
      </g>
     </g>
     <g id="text_10">
      <!-- 0.6 -->
      <g transform="translate(24.395 129.128984)scale(0.16 -0.16)">
       <use xlink:href="#DejaVuSans-30"/>
       <use x="63.623047" xlink:href="#DejaVuSans-2e"/>
       <use x="95.410156" xlink:href="#DejaVuSans-36"/>
      </g>
     </g>
    </g>
    <g id="ytick_5">
     <g id="line2d_41">
      <path clip-path="url(#pce8539d37a)" d="M 56.84 66.013646 
L 399.984 66.013646 
" style="fill:none;stroke:#b0b0b0;stroke-linecap:square;stroke-width:0.8;"/>
     </g>
     <g id="line2d_42">
      <g>
       <use style="stroke:#000000;stroke-width:0.8;" x="56.84" xlink:href="#m382120be01" y="66.013646"/>
      </g>
     </g>
     <g id="text_11">
      <!-- 0.8 -->
      <g transform="translate(24.395 72.092396)scale(0.16 -0.16)">
       <use xlink:href="#DejaVuSans-30"/>
       <use x="63.623047" xlink:href="#DejaVuSans-2e"/>
       <use x="95.410156" xlink:href="#DejaVuSans-38"/>
      </g>
     </g>
    </g>
    <g id="ytick_6">
     <g id="line2d_43">
      <path clip-path="url(#pce8539d37a)" d="M 56.84 8.977057 
L 399.984 8.977057 
" style="fill:none;stroke:#b0b0b0;stroke-linecap:square;stroke-width:0.8;"/>
     </g>
     <g id="line2d_44">
      <g>
       <use style="stroke:#000000;stroke-width:0.8;" x="56.84" xlink:href="#m382120be01" y="8.977057"/>
      </g>
     </g>
     <g id="text_12">
      <!-- 1.0 -->
      <g transform="translate(24.395 15.055807)scale(0.16 -0.16)">
       <use xlink:href="#DejaVuSans-31"/>
       <use x="63.623047" xlink:href="#DejaVuSans-2e"/>
       <use x="95.410156" xlink:href="#DejaVuSans-30"/>
      </g>
     </g>
    </g>
    <g id="text_13">
     <!-- Fraction of function,target pairs -->
     <defs>
      <path d="M 9.8125 72.90625 
L 51.703125 72.90625 
L 51.703125 64.59375 
L 19.671875 64.59375 
L 19.671875 43.109375 
L 48.578125 43.109375 
L 48.578125 34.8125 
L 19.671875 34.8125 
L 19.671875 0 
L 9.8125 0 
z
" id="DejaVuSans-46"/>
      <path d="M 41.109375 46.296875 
Q 39.59375 47.171875 37.8125 47.578125 
Q 36.03125 48 33.890625 48 
Q 26.265625 48 22.1875 43.046875 
Q 18.109375 38.09375 18.109375 28.8125 
L 18.109375 0 
L 9.078125 0 
L 9.078125 54.6875 
L 18.109375 54.6875 
L 18.109375 46.1875 
Q 20.953125 51.171875 25.484375 53.578125 
Q 30.03125 56 36.53125 56 
Q 37.453125 56 38.578125 55.875 
Q 39.703125 55.765625 41.0625 55.515625 
z
" id="DejaVuSans-72"/>
      <path d="M 48.78125 52.59375 
L 48.78125 44.1875 
Q 44.96875 46.296875 41.140625 47.34375 
Q 37.3125 48.390625 33.40625 48.390625 
Q 24.65625 48.390625 19.8125 42.84375 
Q 14.984375 37.3125 14.984375 27.296875 
Q 14.984375 17.28125 19.8125 11.734375 
Q 24.65625 6.203125 33.40625 6.203125 
Q 37.3125 6.203125 41.140625 7.25 
Q 44.96875 8.296875 48.78125 10.40625 
L 48.78125 2.09375 
Q 45.015625 0.34375 40.984375 -0.53125 
Q 36.96875 -1.421875 32.421875 -1.421875 
Q 20.0625 -1.421875 12.78125 6.34375 
Q 5.515625 14.109375 5.515625 27.296875 
Q 5.515625 40.671875 12.859375 48.328125 
Q 20.21875 56 33.015625 56 
Q 37.15625 56 41.109375 55.140625 
Q 45.0625 54.296875 48.78125 52.59375 
" id="DejaVuSans-63"/>
      <path d="M 18.3125 70.21875 
L 18.3125 54.6875 
L 36.8125 54.6875 
L 36.8125 47.703125 
L 18.3125 47.703125 
L 18.3125 18.015625 
Q 18.3125 11.328125 20.140625 9.421875 
Q 21.96875 7.515625 27.59375 7.515625 
L 36.8125 7.515625 
L 36.8125 0 
L 27.59375 0 
Q 17.1875 0 13.234375 3.875 
Q 9.28125 7.765625 9.28125 18.015625 
L 9.28125 47.703125 
L 2.6875 47.703125 
L 2.6875 54.6875 
L 9.28125 54.6875 
L 9.28125 70.21875 
z
" id="DejaVuSans-74"/>
      <path d="M 8.5 21.578125 
L 8.5 54.6875 
L 17.484375 54.6875 
L 17.484375 21.921875 
Q 17.484375 14.15625 20.5 10.265625 
Q 23.53125 6.390625 29.59375 6.390625 
Q 36.859375 6.390625 41.078125 11.03125 
Q 45.3125 15.671875 45.3125 23.6875 
L 45.3125 54.6875 
L 54.296875 54.6875 
L 54.296875 0 
L 45.3125 0 
L 45.3125 8.40625 
Q 42.046875 3.421875 37.71875 1 
Q 33.40625 -1.421875 27.6875 -1.421875 
Q 18.265625 -1.421875 13.375 4.4375 
Q 8.5 10.296875 8.5 21.578125 
M 31.109375 56 
z
" id="DejaVuSans-75"/>
      <path d="M 11.71875 12.40625 
L 22.015625 12.40625 
L 22.015625 4 
L 14.015625 -11.625 
L 7.71875 -11.625 
L 11.71875 4 
z
" id="DejaVuSans-2c"/>
      <path d="M 18.109375 8.203125 
L 18.109375 -20.796875 
L 9.078125 -20.796875 
L 9.078125 54.6875 
L 18.109375 54.6875 
L 18.109375 46.390625 
Q 20.953125 51.265625 25.265625 53.625 
Q 29.59375 56 35.59375 56 
Q 45.5625 56 51.78125 48.09375 
Q 58.015625 40.1875 58.015625 27.296875 
Q 58.015625 14.40625 51.78125 6.484375 
Q 45.5625 -1.421875 35.59375 -1.421875 
Q 29.59375 -1.421875 25.265625 0.953125 
Q 20.953125 3.328125 18.109375 8.203125 
M 48.6875 27.296875 
Q 48.6875 37.203125 44.609375 42.84375 
Q 40.53125 48.484375 33.40625 48.484375 
Q 26.265625 48.484375 22.1875 42.84375 
Q 18.109375 37.203125 18.109375 27.296875 
Q 18.109375 17.390625 22.1875 11.75 
Q 26.265625 6.109375 33.40625 6.109375 
Q 40.53125 6.109375 44.609375 11.75 
Q 48.6875 17.390625 48.6875 27.296875 
" id="DejaVuSans-70"/>
     </defs>
     <g transform="translate(16.859531 285.281989)rotate(-90)scale(0.17 -0.17)">
      <use xlink:href="#DejaVuSans-46"/>
      <use x="57.410156" xlink:href="#DejaVuSans-72"/>
      <use x="98.523438" xlink:href="#DejaVuSans-61"/>
      <use x="159.802734" xlink:href="#DejaVuSans-63"/>
      <use x="214.783203" xlink:href="#DejaVuSans-74"/>
      <use x="253.992188" xlink:href="#DejaVuSans-69"/>
      <use x="281.775391" xlink:href="#DejaVuSans-6f"/>
      <use x="342.957031" xlink:href="#DejaVuSans-6e"/>
      <use x="406.335938" xlink:href="#DejaVuSans-20"/>
      <use x="438.123047" xlink:href="#DejaVuSans-6f"/>
      <use x="499.304688" xlink:href="#DejaVuSans-66"/>
      <use x="534.509766" xlink:href="#DejaVuSans-20"/>
      <use x="566.296875" xlink:href="#DejaVuSans-66"/>
      <use x="601.501953" xlink:href="#DejaVuSans-75"/>
      <use x="664.880859" xlink:href="#DejaVuSans-6e"/>
      <use x="728.259766" xlink:href="#DejaVuSans-63"/>
      <use x="783.240234" xlink:href="#DejaVuSans-74"/>
      <use x="822.449219" xlink:href="#DejaVuSans-69"/>
      <use x="850.232422" xlink:href="#DejaVuSans-6f"/>
      <use x="911.414062" xlink:href="#DejaVuSans-6e"/>
      <use x="974.792969" xlink:href="#DejaVuSans-2c"/>
      <use x="1006.580078" xlink:href="#DejaVuSans-74"/>
      <use x="1045.789062" xlink:href="#DejaVuSans-61"/>
      <use x="1107.068359" xlink:href="#DejaVuSans-72"/>
      <use x="1148.166016" xlink:href="#DejaVuSans-67"/>
      <use x="1211.642578" xlink:href="#DejaVuSans-65"/>
      <use x="1273.166016" xlink:href="#DejaVuSans-74"/>
      <use x="1312.375" xlink:href="#DejaVuSans-20"/>
      <use x="1344.162109" xlink:href="#DejaVuSans-70"/>
      <use x="1407.638672" xlink:href="#DejaVuSans-61"/>
      <use x="1468.917969" xlink:href="#DejaVuSans-69"/>
      <use x="1496.701172" xlink:href="#DejaVuSans-72"/>
      <use x="1537.814453" xlink:href="#DejaVuSans-73"/>
     </g>
    </g>
   </g>
   <g id="line2d_45">
    <defs>
     <path d="M 0 1.5 
C 0.397805 1.5 0.77937 1.341951 1.06066 1.06066 
C 1.341951 0.77937 1.5 0.397805 1.5 0 
C 1.5 -0.397805 1.341951 -0.77937 1.06066 -1.06066 
C 0.77937 -1.341951 0.397805 -1.5 0 -1.5 
C -0.397805 -1.5 -0.77937 -1.341951 -1.06066 -1.06066 
C -1.341951 -0.77937 -1.5 -0.397805 -1.5 0 
C -1.5 0.397805 -1.341951 0.77937 -1.06066 1.06066 
C -0.77937 1.341951 -0.397805 1.5 0 1.5 
z
" id="mafb9cff534" style="stroke:#f5deb3;"/>
    </defs>
    <g>
     <use style="fill:#f5deb3;stroke:#f5deb3;" x="287.809593" xlink:href="#mafb9cff534" y="43.395688"/>
     <use style="fill:#f5deb3;stroke:#f5deb3;" x="287.809593" xlink:href="#mafb9cff534" y="43.395688"/>
    </g>
   </g>
   <g id="line2d_46">
    <defs>
     <path d="M 0 1.5 
C 0.397805 1.5 0.77937 1.341951 1.06066 1.06066 
C 1.341951 0.77937 1.5 0.397805 1.5 0 
C 1.5 -0.397805 1.341951 -0.77937 1.06066 -1.06066 
C 0.77937 -1.341951 0.397805 -1.5 0 -1.5 
C -0.397805 -1.5 -0.77937 -1.341951 -1.06066 -1.06066 
C -1.341951 -0.77937 -1.5 -0.397805 -1.5 0 
C -1.5 0.397805 -1.341951 0.77937 -1.06066 1.06066 
C -0.77937 1.341951 -0.397805 1.5 0 1.5 
z
" id="mb36fea9628" style="stroke:#000080;"/>
    </defs>
    <g>
     <use style="fill:#000080;stroke:#000080;" x="313.527344" xlink:href="#mb36fea9628" y="215.488843"/>
     <use style="fill:#000080;stroke:#000080;" x="313.527344" xlink:href="#mb36fea9628" y="215.488843"/>
    </g>
   </g>
   <g id="line2d_47">
    <path d="M 5.406747 294.16 
L 5.406747 285.309495 
L 117.433948 285.309495 
L 117.433948 284.940724 
L 118.293183 284.940724 
L 118.293183 284.8178 
L 119.111458 284.8178 
L 119.111458 284.571953 
L 121.052287 284.571953 
L 121.052287 284.449029 
L 121.771088 284.449029 
L 121.771088 284.326105 
L 122.234096 284.326105 
L 122.272122 283.957334 
L 122.498528 283.957334 
L 122.498528 283.711487 
L 123.015478 283.711487 
L 123.015478 283.588563 
L 123.304037 283.588563 
L 123.304037 283.219792 
L 124.090534 283.219792 
L 124.090534 282.973945 
L 124.361716 282.973945 
L 124.361716 282.48225 
L 124.495717 282.48225 
L 124.495717 282.359327 
L 124.875246 282.359327 
L 124.875246 282.236403 
L 125.005313 282.236403 
L 125.005313 282.113479 
L 125.688029 282.113479 
L 125.796644 281.867632 
L 125.950626 281.867632 
L 125.950626 281.621784 
L 126.088038 281.621784 
L 126.103239 281.253013 
L 126.493798 281.253013 
L 126.493798 281.007166 
L 126.81747 281.007166 
L 126.81747 280.884242 
L 127.178022 280.884242 
L 127.277634 280.638395 
L 127.43301 280.638395 
L 127.517171 280.269624 
L 127.656529 280.269624 
L 127.656529 280.1467 
L 128.216358 280.1467 
L 128.216358 279.900853 
L 128.588453 279.900853 
L 128.588453 279.777929 
L 128.797513 279.777929 
L 128.810495 279.409158 
L 128.914 279.409158 
L 128.991221 279.163311 
L 129.246145 279.163311 
L 129.246145 278.917463 
L 129.397303 278.917463 
L 129.397303 278.548692 
L 129.830726 278.548692 
L 129.830726 278.425769 
L 129.976845 278.425769 
L 129.976845 278.056998 
L 130.205686 278.056998 
L 130.205686 277.934074 
L 130.431517 277.934074 
L 130.466904 277.565303 
L 131.023404 277.565303 
L 131.023404 277.442379 
L 131.395796 277.442379 
L 131.395796 277.196532 
L 131.966679 277.196532 
L 131.966679 276.950684 
L 132.298197 276.950684 
L 132.34051 276.336066 
L 133.20583 276.336066 
L 133.20583 276.090219 
L 133.335936 276.090219 
L 133.335936 275.967295 
L 133.710687 275.967295 
L 133.710687 275.844371 
L 135.36478 275.844371 
L 135.36478 275.4756 
L 135.602323 275.4756 
L 135.602323 275.352677 
L 135.922598 275.352677 
L 135.922598 275.229753 
L 136.346123 275.229753 
L 136.346123 275.106829 
L 136.986642 275.106829 
L 136.986642 274.983906 
L 138.43883 274.983906 
L 138.43883 274.860982 
L 139.234831 274.860982 
L 139.291308 274.615135 
L 140.284003 274.615135 
L 140.284003 274.492211 
L 140.762859 274.492211 
L 140.866053 274.12344 
L 141.076952 274.12344 
L 141.076952 273.877592 
L 143.385403 273.877592 
L 143.385403 273.754669 
L 144.508371 273.754669 
L 144.508371 273.631745 
L 145.459348 273.631745 
L 145.459348 273.508821 
L 145.944513 273.508821 
L 145.944513 273.14005 
L 147.024437 273.14005 
L 147.024437 273.017127 
L 147.309552 273.017127 
L 147.380097 272.525432 
L 147.947034 272.525432 
L 147.947034 272.402508 
L 148.615004 272.402508 
L 148.615004 272.279585 
L 149.812902 272.279585 
L 149.812902 272.033737 
L 150.145701 272.033737 
L 150.145701 271.78789 
L 150.842971 271.78789 
L 150.842971 271.664966 
L 151.845281 271.664966 
L 151.845281 271.296195 
L 152.303858 271.296195 
L 152.303858 271.050348 
L 154.13786 271.050348 
L 154.13786 270.681577 
L 154.435074 270.681577 
L 154.435074 270.435729 
L 156.239032 270.435729 
L 156.239032 270.189882 
L 157.156933 270.189882 
L 157.251281 269.944035 
L 157.919036 269.944035 
L 157.919036 269.821111 
L 158.058977 269.821111 
L 158.058977 269.698187 
L 158.803254 269.698187 
L 158.803254 269.575264 
L 159.023515 269.575264 
L 159.023515 269.329416 
L 159.199037 269.329416 
L 159.199037 269.083569 
L 159.809211 269.083569 
L 159.809211 268.960645 
L 160.546221 268.960645 
L 160.546221 268.837721 
L 161.891983 268.837721 
L 161.891983 268.714798 
L 162.497197 268.714798 
L 162.497197 268.46895 
L 162.847483 268.46895 
L 162.847483 268.346027 
L 163.088852 268.346027 
L 163.088852 268.223103 
L 165.33091 268.223103 
L 165.33091 267.854332 
L 167.035891 267.854332 
L 167.141993 267.485561 
L 167.348124 267.485561 
L 167.348124 267.362637 
L 168.035508 267.362637 
L 168.097492 267.11679 
L 168.330232 267.11679 
L 168.330232 266.748019 
L 168.74467 266.748019 
L 168.74467 266.625095 
L 169.947696 266.625095 
L 169.947696 266.379248 
L 170.152132 266.379248 
L 170.152132 266.010477 
L 170.711704 266.010477 
L 170.822136 265.272935 
L 171.092939 265.272935 
L 171.092939 265.150011 
L 171.275506 265.150011 
L 171.275506 265.027087 
L 172.396612 265.027087 
L 172.396612 264.904164 
L 172.83672 264.904164 
L 172.83672 264.658316 
L 172.963112 264.658316 
L 172.963112 264.535393 
L 173.243406 264.535393 
L 173.243406 264.043698 
L 174.659317 264.043698 
L 174.659317 263.920774 
L 175.014041 263.920774 
L 175.014041 263.79785 
L 175.608992 263.79785 
L 175.608992 263.552003 
L 175.936477 263.552003 
L 175.936477 263.306156 
L 176.352507 263.306156 
L 176.352507 263.060308 
L 177.23531 263.060308 
L 177.23531 262.937385 
L 177.665909 262.937385 
L 177.665909 262.691537 
L 178.152795 262.691537 
L 178.152795 262.568614 
L 178.923817 262.568614 
L 178.98886 262.076919 
L 180.138309 262.076919 
L 180.198918 261.462301 
L 180.580428 261.462301 
L 180.580428 260.970606 
L 181.797924 260.970606 
L 181.797924 260.847682 
L 182.845785 260.847682 
L 182.845785 260.355987 
L 183.786965 260.355987 
L 183.786965 260.233064 
L 185.377922 260.233064 
L 185.484406 259.864293 
L 185.739756 259.864293 
L 185.739756 259.618445 
L 185.898259 259.618445 
L 185.898259 259.495522 
L 186.199019 259.495522 
L 186.199019 259.372598 
L 186.321052 259.372598 
L 186.321052 259.249674 
L 187.816986 259.249674 
L 187.816986 259.126751 
L 188.344769 259.126751 
L 188.344769 259.003827 
L 189.529836 259.003827 
L 189.529836 258.880903 
L 190.231957 258.880903 
L 190.231957 258.512132 
L 190.573424 258.512132 
L 190.573424 258.266285 
L 190.858303 258.266285 
L 190.962187 256.668277 
L 191.128208 256.668277 
L 191.134403 256.299506 
L 191.616516 256.299506 
L 191.658952 255.930735 
L 191.814433 255.930735 
L 191.814433 255.684887 
L 192.478099 255.684887 
L 192.478099 255.561964 
L 192.775241 255.561964 
L 192.775241 255.316116 
L 192.962476 255.316116 
L 192.962476 254.947345 
L 194.180893 254.947345 
L 194.180893 254.824422 
L 194.451617 254.824422 
L 194.476558 254.455651 
L 195.049203 254.455651 
L 195.049203 254.332727 
L 195.339296 254.332727 
L 195.380724 253.963956 
L 196.149703 253.963956 
L 196.149703 253.841032 
L 196.780781 253.841032 
L 196.780781 253.718109 
L 196.900227 253.718109 
L 196.900227 253.349337 
L 198.061211 253.349337 
L 198.061211 252.980566 
L 198.22022 252.980566 
L 198.22022 252.734719 
L 199.202487 252.734719 
L 199.267102 252.243024 
L 200.347612 252.243024 
L 200.347612 252.120101 
L 200.50064 252.120101 
L 200.50064 251.874253 
L 201.598045 251.874253 
L 201.598045 251.75133 
L 201.78761 251.75133 
L 201.833984 251.259635 
L 202.101637 251.259635 
L 202.101637 251.013788 
L 203.513871 251.013788 
L 203.613799 250.645016 
L 203.965309 250.645016 
L 204.05406 249.784551 
L 204.480309 249.784551 
L 204.480309 249.292856 
L 204.613116 249.292856 
L 204.613116 249.047009 
L 204.753311 249.047009 
L 204.753311 248.924085 
L 205.076202 248.924085 
L 205.076202 248.801161 
L 205.293871 248.801161 
L 205.293871 248.678238 
L 205.639841 248.678238 
L 205.7336 248.309467 
L 205.78454 248.309467 
L 205.893981 247.817772 
L 206.098707 247.817772 
L 206.098707 247.694848 
L 206.45748 247.694848 
L 206.45748 247.449001 
L 206.731402 247.449001 
L 206.731402 247.326077 
L 209.051737 247.326077 
L 209.051737 247.203153 
L 209.375969 247.203153 
L 209.375969 247.08023 
L 210.935311 247.08023 
L 210.935311 246.834382 
L 211.056503 246.834382 
L 211.056503 246.711459 
L 211.235316 246.711459 
L 211.235316 246.465611 
L 212.549193 246.465611 
L 212.549193 246.342688 
L 214.483554 246.342688 
L 214.483554 245.973917 
L 214.805518 245.973917 
L 214.805518 245.850993 
L 215.800123 245.850993 
L 215.864784 245.359298 
L 217.877989 245.359298 
L 217.944463 244.621756 
L 218.105989 244.621756 
L 218.105989 244.375909 
L 218.957862 244.375909 
L 218.957862 244.007138 
L 219.305081 244.007138 
L 219.305081 243.884214 
L 220.978608 243.884214 
L 220.978608 243.76129 
L 222.657923 243.76129 
L 222.657923 243.638367 
L 223.584 243.638367 
L 223.584 243.515443 
L 224.279011 243.515443 
L 224.279011 242.900824 
L 224.450913 242.900824 
L 224.450913 242.532053 
L 224.834837 242.532053 
L 224.834837 242.286206 
L 225.028884 242.286206 
L 225.028884 242.163282 
L 225.55108 242.163282 
L 225.55108 241.917435 
L 225.99379 241.917435 
L 226.05138 241.42574 
L 226.130615 241.42574 
L 226.130615 241.179893 
L 226.269382 241.179893 
L 226.330707 240.688198 
L 226.440562 240.688198 
L 226.440562 240.565275 
L 226.594312 240.565275 
L 226.594312 240.319427 
L 228.351414 240.319427 
L 228.352556 239.827732 
L 228.667635 239.827732 
L 228.667635 239.704809 
L 228.804519 239.704809 
L 228.840187 239.336038 
L 228.948689 239.336038 
L 228.948689 239.213114 
L 229.832214 239.213114 
L 229.832214 239.09019 
L 230.405037 239.09019 
L 230.405037 238.844343 
L 231.896464 238.844343 
L 231.896464 238.352648 
L 232.263934 238.352648 
L 232.263934 238.229725 
L 232.47616 238.229725 
L 232.502215 237.860954 
L 234.278091 237.860954 
L 234.278091 237.369259 
L 234.627034 237.369259 
L 234.706055 236.75464 
L 235.064293 236.75464 
L 235.064293 236.508793 
L 236.139614 236.508793 
L 236.139614 236.262946 
L 236.27316 236.262946 
L 236.27316 236.140022 
L 236.386106 236.140022 
L 236.386106 236.017098 
L 237.635896 236.017098 
L 237.635896 235.894175 
L 238.431787 235.894175 
L 238.431787 235.771251 
L 239.563442 235.771251 
L 239.563442 235.525404 
L 239.705614 235.525404 
L 239.752926 235.033709 
L 240.686155 235.033709 
L 240.686155 234.910785 
L 240.874837 234.910785 
L 240.874837 234.664938 
L 241.620563 234.664938 
L 241.620563 234.41909 
L 241.876726 234.41909 
L 241.962732 233.927396 
L 243.222218 233.927396 
L 243.295326 233.558625 
L 243.526003 233.558625 
L 243.526003 233.435701 
L 245.134275 233.435701 
L 245.134275 233.312777 
L 246.50995 233.312777 
L 246.616975 232.944006 
L 248.280153 232.944006 
L 248.280153 232.575235 
L 248.629271 232.575235 
L 248.691212 232.08354 
L 248.886056 232.08354 
L 248.886056 231.714769 
L 250.292489 231.714769 
L 250.327877 231.345998 
L 251.84683 231.345998 
L 251.84683 231.100151 
L 254.563495 231.100151 
L 254.624969 230.854304 
L 254.703974 230.854304 
L 254.729156 230.608456 
L 254.905439 230.608456 
L 255.016093 230.116762 
L 255.065937 230.116762 
L 255.065937 229.993838 
L 255.247176 229.993838 
L 255.247176 229.870914 
L 255.535002 229.870914 
L 255.535002 229.74799 
L 255.736494 229.74799 
L 255.832587 229.502143 
L 256.428257 229.502143 
L 256.428395 229.010448 
L 256.543624 229.010448 
L 256.582904 228.764601 
L 256.78221 228.764601 
L 256.78221 228.518754 
L 256.966798 228.518754 
L 256.966798 228.39583 
L 257.311227 228.39583 
L 257.311227 228.272906 
L 257.513009 228.272906 
L 257.513009 228.149983 
L 257.821373 228.149983 
L 257.821373 228.027059 
L 257.972044 228.027059 
L 257.998397 227.781212 
L 258.164579 227.781212 
L 258.164579 227.658288 
L 258.658984 227.658288 
L 258.658984 227.535364 
L 259.238711 227.535364 
L 259.300664 227.166593 
L 259.416031 227.166593 
L 259.416031 227.043669 
L 260.184301 227.043669 
L 260.184301 226.920746 
L 260.566835 226.920746 
L 260.566835 226.797822 
L 260.839133 226.797822 
L 260.849849 226.551975 
L 261.25503 226.551975 
L 261.25503 226.429051 
L 262.868775 226.429051 
L 262.91006 226.183204 
L 264.443211 226.183204 
L 264.443278 225.814433 
L 266.123995 225.814433 
L 266.124039 225.568585 
L 266.444933 225.568585 
L 266.517518 225.076891 
L 266.616158 225.076891 
L 266.616464 224.831043 
L 267.081712 224.831043 
L 267.081712 224.70812 
L 267.39363 224.70812 
L 267.454619 224.216425 
L 268.143254 224.216425 
L 268.143254 224.093501 
L 268.304297 224.093501 
L 268.393977 223.72473 
L 268.934647 223.72473 
L 269.035985 223.355959 
L 269.350629 223.355959 
L 269.350629 223.233035 
L 269.478582 223.233035 
L 269.478582 223.110112 
L 269.704527 223.110112 
L 269.704527 222.987188 
L 269.84589 222.987188 
L 269.869008 222.495493 
L 271.11705 222.495493 
L 271.11705 222.37257 
L 272.083623 222.37257 
L 272.083679 222.126722 
L 273.507559 222.126722 
L 273.507559 222.003799 
L 275.118038 222.003799 
L 275.164478 221.635027 
L 275.634829 221.635027 
L 275.634829 221.512104 
L 275.751412 221.512104 
L 275.751412 221.38918 
L 276.646702 221.38918 
L 276.646702 221.266256 
L 277.352504 221.266256 
L 277.352504 221.143333 
L 278.325317 221.143333 
L 278.325317 221.020409 
L 278.646986 221.020409 
L 278.646986 220.897485 
L 278.806816 220.897485 
L 278.807191 220.651638 
L 279.240007 220.651638 
L 279.240007 220.528714 
L 280.12461 220.528714 
L 280.12461 220.405791 
L 280.257406 220.405791 
L 280.257406 220.282867 
L 280.822715 220.282867 
L 280.822715 220.159943 
L 282.28218 220.159943 
L 282.28218 220.03702 
L 282.538762 220.03702 
L 282.538796 219.791172 
L 283.208813 219.791172 
L 283.208882 219.422401 
L 285.305402 219.422401 
L 285.305402 219.299478 
L 285.602725 219.299478 
L 285.602725 219.176554 
L 286.16494 219.176554 
L 286.16494 219.05363 
L 286.491914 219.05363 
L 286.491914 218.930706 
L 287.375264 218.930706 
L 287.375264 218.807783 
L 287.973839 218.807783 
L 287.97384 218.561935 
L 289.396701 218.561935 
L 289.396701 218.439012 
L 292.668802 218.439012 
L 292.668802 218.316088 
L 292.83206 218.316088 
L 292.83206 218.193164 
L 293.060452 218.193164 
L 293.060452 218.070241 
L 295.71194 218.070241 
L 295.71194 217.947317 
L 296.352363 217.947317 
L 296.352363 217.824393 
L 296.855405 217.824393 
L 296.855405 217.70147 
L 300.098291 217.70147 
L 300.204518 217.455622 
L 300.35349 217.455622 
L 300.35349 217.332699 
L 301.011621 217.332699 
L 301.011621 217.209775 
L 301.133499 217.209775 
L 301.133499 217.086851 
L 301.502509 217.086851 
L 301.502509 216.963928 
L 302.927695 216.963928 
L 302.927695 216.841004 
L 303.160813 216.841004 
L 303.266536 216.226385 
L 304.241248 216.226385 
L 304.241248 216.103462 
L 304.546697 216.103462 
L 304.546697 215.980538 
L 305.958722 215.980538 
L 305.958722 215.857614 
L 310.458248 215.857614 
L 310.458248 215.734691 
L 312.331436 215.734691 
L 312.331436 215.611767 
L 313.527344 215.611767 
L 313.527344 215.488843 
L 333.569032 215.488843 
L 333.569032 215.488843 
" style="fill:none;stroke:#000080;stroke-linecap:square;stroke-width:1.5;"/>
   </g>
   <g id="line2d_48">
    <defs>
     <path d="M 0 6 
C 1.591219 6 3.117479 5.367802 4.242641 4.242641 
C 5.367802 3.117479 6 1.591219 6 0 
C 6 -1.591219 5.367802 -3.117479 4.242641 -4.242641 
C 3.117479 -5.367802 1.591219 -6 0 -6 
C -1.591219 -6 -3.117479 -5.367802 -4.242641 -4.242641 
C -5.367802 -3.117479 -6 -1.591219 -6 0 
C -6 1.591219 -5.367802 3.117479 -4.242641 4.242641 
C -3.117479 5.367802 -1.591219 6 0 6 
z
" id="m9b3981aa87" style="stroke:#000080;stroke-width:1.5;"/>
    </defs>
    <g>
     <use style="fill:none;stroke:#000080;stroke-width:1.5;" x="165.33091" xlink:href="#m9b3981aa87" y="267.854332"/>
     <use style="fill:none;stroke:#000080;stroke-width:1.5;" x="251.84683" xlink:href="#m9b3981aa87" y="231.100151"/>
     <use style="fill:none;stroke:#000080;stroke-width:1.5;" x="313.527344" xlink:href="#m9b3981aa87" y="215.611767"/>
     <use style="fill:none;stroke:#000080;stroke-width:1.5;" x="313.527344" xlink:href="#m9b3981aa87" y="215.488843"/>
     <use style="fill:none;stroke:#000080;stroke-width:1.5;" x="333.569032" xlink:href="#m9b3981aa87" y="215.488843"/>
    </g>
   </g>
   <g id="line2d_49">
    <path style="fill:none;stroke:#000080;stroke-linecap:square;stroke-width:1.5;"/>
    <g/>
   </g>
   <g id="line2d_50">
    <path clip-path="url(#pce8539d37a)" d="M 254.504135 231.100151 
" style="fill:none;stroke:#000080;stroke-linecap:square;stroke-width:1.5;"/>
    <defs>
     <path d="M -12 12 
L 12 -12 
M -12 -12 
L 12 12 
" id="md79a834ece" style="stroke:#000080;stroke-width:3;"/>
    </defs>
    <g clip-path="url(#pce8539d37a)">
     <use style="fill:#000080;stroke:#000080;stroke-width:3;" x="254.504135" xlink:href="#md79a834ece" y="231.100151"/>
    </g>
   </g>
   <g id="line2d_51">
    <defs>
     <path d="M 0 1.5 
C 0.397805 1.5 0.77937 1.341951 1.06066 1.06066 
C 1.341951 0.77937 1.5 0.397805 1.5 0 
C 1.5 -0.397805 1.341951 -0.77937 1.06066 -1.06066 
C 0.77937 -1.341951 0.397805 -1.5 0 -1.5 
C -0.397805 -1.5 -0.77937 -1.341951 -1.06066 -1.06066 
C -1.341951 -0.77937 -1.5 -0.397805 -1.5 0 
C -1.5 0.397805 -1.341951 0.77937 -1.06066 1.06066 
C -0.77937 1.341951 -0.397805 1.5 0 1.5 
z
" id="m973357fd5d" style="stroke:#ff00ff;"/>
    </defs>
    <g>
     <use style="fill:#ff00ff;stroke:#ff00ff;" x="365.086477" xlink:href="#m973357fd5d" y="254.824422"/>
     <use style="fill:#ff00ff;stroke:#ff00ff;" x="365.086477" xlink:href="#m973357fd5d" y="254.824422"/>
    </g>
   </g>
   <g id="line2d_52">
    <path d="M 5.406747 294.16 
L 5.406747 292.807839 
L 17.307281 292.807839 
L 17.307281 292.070297 
L 24.268647 292.070297 
L 24.268647 291.086908 
L 29.207815 291.086908 
L 29.207815 290.718137 
L 33.038932 290.718137 
L 33.038932 290.349366 
L 43.130548 290.349366 
L 43.130548 289.857671 
L 44.939466 289.857671 
L 44.939466 289.611824 
L 46.575831 289.611824 
L 46.575831 289.4889 
L 49.443956 289.4889 
L 49.443956 289.243053 
L 56.84 289.243053 
L 56.84 288.997205 
L 59.97025 288.997205 
L 59.97025 288.751358 
L 61.344491 288.751358 
L 61.344491 288.628434 
L 62.616839 288.628434 
L 62.616839 288.505511 
L 64.36433 288.505511 
L 64.36433 288.259663 
L 67.402025 288.259663 
L 67.402025 287.890892 
L 67.859888 287.890892 
L 67.859888 287.522121 
L 69.578205 287.522121 
L 69.578205 287.15335 
L 74.517373 287.15335 
L 74.517373 287.030426 
L 77.596449 287.030426 
L 77.596449 286.907503 
L 80.206391 286.907503 
L 80.206391 286.784579 
L 83.409856 286.784579 
L 83.409856 286.661655 
L 87.167757 286.661655 
L 87.167757 286.415808 
L 87.744915 286.415808 
L 87.744915 286.169961 
L 88.026378 286.169961 
L 88.026378 286.047037 
L 88.440105 286.047037 
L 88.440105 285.924113 
L 89.496983 285.924113 
L 89.496983 285.80119 
L 89.751341 285.80119 
L 89.751341 285.678266 
L 93.173656 285.678266 
L 93.173656 285.555342 
L 100.340639 285.555342 
L 100.340639 285.186571 
L 102.393091 285.186571 
L 102.393091 284.8178 
L 102.69273 284.8178 
L 102.69273 284.694876 
L 103.952343 284.694876 
L 103.952343 284.571953 
L 107.302006 284.571953 
L 107.302006 284.449029 
L 108.05729 284.449029 
L 108.05729 284.326105 
L 112.57849 284.326105 
L 112.57849 284.203182 
L 115.205981 284.203182 
L 115.205981 284.080258 
L 115.546531 284.080258 
L 115.546531 283.957334 
L 119.225235 283.957334 
L 119.225235 283.834411 
L 127.077828 283.834411 
L 127.077828 283.711487 
L 128.522596 283.711487 
L 128.522596 283.342716 
L 131.080349 283.342716 
L 131.080349 283.219792 
L 131.429253 283.219792 
L 131.429253 282.851021 
L 144.103142 282.851021 
L 144.103142 282.605174 
L 149.686421 282.605174 
L 149.686421 282.48225 
L 150.41696 282.48225 
L 150.41696 282.236403 
L 153.465911 282.236403 
L 153.465911 281.867632 
L 153.907763 281.867632 
L 153.907763 281.498861 
L 155.756946 281.498861 
L 155.756946 281.375937 
L 161.029825 281.375937 
L 161.029825 281.253013 
L 162.931282 281.253013 
L 162.931282 281.13009 
L 166.022061 281.13009 
L 166.022061 281.007166 
L 167.070866 281.007166 
L 167.070866 280.761319 
L 168.933784 280.761319 
L 168.933784 280.638395 
L 169.249341 280.638395 
L 169.249341 280.515471 
L 169.874259 280.515471 
L 169.874259 280.269624 
L 174.552992 280.269624 
L 174.552992 280.1467 
L 177.297049 280.1467 
L 177.297049 280.023777 
L 178.768965 280.023777 
L 178.768965 279.900853 
L 180.141573 279.900853 
L 180.141573 279.655005 
L 180.967957 279.655005 
L 181.054207 279.286234 
L 183.619344 279.286234 
L 183.619344 279.163311 
L 184.254049 279.163311 
L 184.254049 278.79454 
L 185.870696 278.79454 
L 185.870696 278.671616 
L 187.27591 278.671616 
L 187.27591 278.548692 
L 190.84676 278.548692 
L 190.84676 278.302845 
L 192.622265 278.302845 
L 192.622265 278.056998 
L 194.034762 278.056998 
L 194.034762 277.934074 
L 199.282094 277.934074 
L 199.282094 277.81115 
L 203.928929 277.81115 
L 203.928929 277.565303 
L 207.412015 277.565303 
L 207.412015 277.442379 
L 208.770854 277.442379 
L 208.770854 277.319456 
L 209.900149 277.319456 
L 209.900149 277.196532 
L 211.106677 277.196532 
L 211.106677 277.073608 
L 215.186191 277.073608 
L 215.186191 276.827761 
L 216.082602 276.827761 
L 216.082602 276.581913 
L 217.791966 276.581913 
L 217.791966 276.45899 
L 219.603259 276.45899 
L 219.603259 276.336066 
L 220.042248 276.336066 
L 220.042248 276.213142 
L 221.239004 276.213142 
L 221.239004 275.967295 
L 224.051683 275.967295 
L 224.051683 275.844371 
L 226.71684 275.844371 
L 226.71684 275.721448 
L 231.678753 275.721448 
L 231.678753 275.4756 
L 232.565208 275.4756 
L 232.565208 275.352677 
L 233.940003 275.352677 
L 233.940003 275.106829 
L 235.890217 275.106829 
L 235.890217 274.983906 
L 239.841618 274.983906 
L 239.844562 274.369287 
L 240.905549 274.369287 
L 240.905549 274.246363 
L 241.379152 274.246363 
L 241.379152 273.877592 
L 241.650607 273.877592 
L 241.650607 273.754669 
L 242.850864 273.754669 
L 242.850864 273.262974 
L 243.487073 273.262974 
L 243.487073 273.017127 
L 245.159531 273.017127 
L 245.159531 272.648356 
L 246.74736 272.648356 
L 246.74736 272.525432 
L 247.354477 272.525432 
L 247.354477 272.402508 
L 250.183755 272.402508 
L 250.183755 271.910814 
L 257.974962 271.910814 
L 257.983768 271.664966 
L 259.12003 271.664966 
L 259.12003 271.296195 
L 261.49558 271.296195 
L 261.49558 270.927424 
L 265.049738 270.927424 
L 265.049738 270.681577 
L 265.721209 270.681577 
L 265.721209 270.558653 
L 267.058028 270.558653 
L 267.058028 270.435729 
L 268.155014 270.435729 
L 268.155014 270.312806 
L 268.473362 270.312806 
L 268.473362 269.698187 
L 270.608411 269.698187 
L 270.608411 269.575264 
L 272.600181 269.575264 
L 272.600181 269.206493 
L 273.538937 269.206493 
L 273.538937 268.960645 
L 275.25319 268.960645 
L 275.25319 268.837721 
L 275.584592 268.837721 
L 275.584592 268.46895 
L 282.106555 268.46895 
L 282.169555 268.100179 
L 282.461821 268.100179 
L 282.461821 267.977256 
L 283.080515 267.977256 
L 283.080515 267.854332 
L 285.441484 267.854332 
L 285.441484 267.731408 
L 286.067808 267.731408 
L 286.067808 267.608485 
L 287.083603 267.608485 
L 287.083603 267.485561 
L 287.849048 267.485561 
L 287.849048 267.362637 
L 289.905014 267.362637 
L 289.905014 266.993866 
L 290.386298 266.993866 
L 290.386298 266.870943 
L 294.036714 266.870943 
L 294.048064 266.256324 
L 294.152804 266.256324 
L 294.23748 265.764629 
L 294.298549 265.764629 
L 294.311727 265.518782 
L 294.752205 265.518782 
L 294.752205 265.395858 
L 296.01891 265.395858 
L 296.01891 265.272935 
L 296.147564 265.272935 
L 296.147564 265.150011 
L 298.995209 265.150011 
L 299.048066 264.904164 
L 300.890981 264.904164 
L 300.890981 264.78124 
L 301.008946 264.78124 
L 301.008946 264.658316 
L 301.318403 264.658316 
L 301.318403 264.535393 
L 303.120438 264.535393 
L 303.120438 264.412469 
L 305.513904 264.412469 
L 305.513904 264.289545 
L 305.942615 264.289545 
L 305.989044 263.79785 
L 306.382903 263.79785 
L 306.382903 263.552003 
L 306.956748 263.552003 
L 307.024905 263.306156 
L 308.594712 263.306156 
L 308.594712 263.183232 
L 311.072837 263.183232 
L 311.072837 262.937385 
L 312.471884 262.937385 
L 312.471884 262.814461 
L 312.933029 262.814461 
L 312.965531 262.322766 
L 313.140135 262.322766 
L 313.140176 261.953995 
L 314.143162 261.953995 
L 314.143162 261.831072 
L 315.499156 261.831072 
L 315.499156 261.708148 
L 316.057831 261.708148 
L 316.057831 261.585224 
L 316.486864 261.585224 
L 316.486864 260.970606 
L 317.518631 260.970606 
L 317.518631 260.724758 
L 317.849056 260.724758 
L 317.903317 260.355987 
L 318.019173 260.355987 
L 318.019173 259.987216 
L 318.612924 259.987216 
L 318.612924 259.864293 
L 319.233989 259.864293 
L 319.233989 259.741369 
L 320.596716 259.741369 
L 320.596716 259.495522 
L 321.413973 259.495522 
L 321.413973 259.372598 
L 321.81406 259.372598 
L 321.814084 258.880903 
L 322.678772 258.880903 
L 322.781484 258.635056 
L 323.910307 258.635056 
L 323.910307 258.512132 
L 324.920156 258.512132 
L 324.920156 258.266285 
L 325.644718 258.266285 
L 325.644718 258.143361 
L 326.148425 258.143361 
L 326.148425 258.020437 
L 327.263919 258.020437 
L 327.263919 257.897514 
L 327.452008 257.897514 
L 327.452008 257.77459 
L 328.608578 257.77459 
L 328.608578 257.651666 
L 329.829052 257.651666 
L 329.829052 257.528743 
L 330.376269 257.528743 
L 330.376269 257.405819 
L 331.771727 257.405819 
L 331.779546 257.159972 
L 333.041503 257.159972 
L 333.041503 257.037048 
L 333.569032 257.037048 
L 333.569032 257.037048 
" style="fill:none;stroke:#ff00ff;stroke-linecap:square;stroke-width:1.5;"/>
   </g>
   <g id="line2d_53">
    <defs>
     <path d="M -0 8.485281 
L 5.091169 0 
L 0 -8.485281 
L -5.091169 -0 
z
" id="m699b3bd17b" style="stroke:#ff00ff;stroke-linejoin:miter;stroke-width:1.5;"/>
    </defs>
    <g>
     <use style="fill:none;stroke:#ff00ff;stroke-linejoin:miter;stroke-width:1.5;" x="112.57849" xlink:href="#m699b3bd17b" y="284.326105"/>
     <use style="fill:none;stroke:#ff00ff;stroke-linejoin:miter;stroke-width:1.5;" x="167.070866" xlink:href="#m699b3bd17b" y="281.007166"/>
     <use style="fill:none;stroke:#ff00ff;stroke-linejoin:miter;stroke-width:1.5;" x="250.183755" xlink:href="#m699b3bd17b" y="272.402508"/>
     <use style="fill:none;stroke:#ff00ff;stroke-linejoin:miter;stroke-width:1.5;" x="316.057831" xlink:href="#m699b3bd17b" y="261.708148"/>
     <use style="fill:none;stroke:#ff00ff;stroke-linejoin:miter;stroke-width:1.5;" x="333.041503" xlink:href="#m699b3bd17b" y="257.037048"/>
     <use style="fill:none;stroke:#ff00ff;stroke-linejoin:miter;stroke-width:1.5;" x="333.569032" xlink:href="#m699b3bd17b" y="257.037048"/>
    </g>
   </g>
   <g id="line2d_54">
    <path style="fill:none;stroke:#ff00ff;stroke-linecap:square;stroke-width:1.5;"/>
    <g/>
   </g>
   <g id="line2d_55">
    <path clip-path="url(#pce8539d37a)" d="M 294.036313 266.870943 
" style="fill:none;stroke:#ff00ff;stroke-linecap:square;stroke-width:1.5;"/>
    <defs>
     <path d="M -12 12 
L 12 -12 
M -12 -12 
L 12 12 
" id="m05ea952a09" style="stroke:#ff00ff;stroke-width:3;"/>
    </defs>
    <g clip-path="url(#pce8539d37a)">
     <use style="fill:#ff00ff;stroke:#ff00ff;stroke-width:3;" x="294.036313" xlink:href="#m05ea952a09" y="266.870943"/>
    </g>
   </g>
   <g id="line2d_56">
    <defs>
     <path d="M 0 1.5 
C 0.397805 1.5 0.77937 1.341951 1.06066 1.06066 
C 1.341951 0.77937 1.5 0.397805 1.5 0 
C 1.5 -0.397805 1.341951 -0.77937 1.06066 -1.06066 
C 0.77937 -1.341951 0.397805 -1.5 0 -1.5 
C -0.397805 -1.5 -0.77937 -1.341951 -1.06066 -1.06066 
C -1.341951 -0.77937 -1.5 -0.397805 -1.5 0 
C -1.5 0.397805 -1.341951 0.77937 -1.06066 1.06066 
C -0.77937 1.341951 -0.397805 1.5 0 1.5 
z
" id="m8708950166" style="stroke:#ffa500;"/>
    </defs>
    <g>
     <use style="fill:#ffa500;stroke:#ffa500;" x="181.141256" xlink:href="#m8708950166" y="278.179921"/>
     <use style="fill:#ffa500;stroke:#ffa500;" x="181.141256" xlink:href="#m8708950166" y="278.179921"/>
    </g>
   </g>
   <g id="line2d_57">
    <path d="M 5.406747 294.16 
L 5.406747 283.957334 
L 143.251619 283.957334 
L 143.251619 283.834411 
L 143.340924 283.834411 
L 143.340924 282.973945 
L 143.363178 282.973945 
L 143.363178 282.605174 
L 143.4076 282.605174 
L 143.4076 282.48225 
L 143.429767 282.48225 
L 143.429767 282.113479 
L 143.451906 282.113479 
L 143.451906 281.867632 
L 143.474017 281.867632 
L 143.474017 281.744708 
L 143.540178 281.744708 
L 143.540178 281.253013 
L 155.205235 281.253013 
L 155.205235 281.13009 
L 155.216389 281.13009 
L 155.216389 281.007166 
L 155.249807 281.007166 
L 155.249807 280.884242 
L 155.260932 280.884242 
L 155.260932 280.761319 
L 155.260932 280.761319 
L 155.260932 280.638395 
L 155.349675 280.638395 
L 155.349675 280.515471 
L 155.393875 280.515471 
L 155.393875 280.392548 
L 162.161951 280.392548 
L 162.161951 280.269624 
L 162.221372 280.269624 
L 162.221372 280.1467 
L 162.243602 280.1467 
L 162.243602 280.023777 
L 162.265803 280.023777 
L 162.265803 279.900853 
L 162.302741 279.900853 
L 162.302741 279.777929 
L 162.361677 279.777929 
L 162.361677 279.655005 
L 167.137817 279.655005 
L 167.137817 279.532082 
L 167.165637 279.532082 
L 167.165637 279.409158 
L 167.193411 279.409158 
L 167.193411 279.286234 
L 167.265415 279.286234 
L 167.265415 279.163311 
L 171.030909 279.163311 
L 171.030909 279.040387 
L 171.084091 279.040387 
L 171.084091 278.917463 
L 174.087578 278.917463 
L 174.087578 278.79454 
L 174.14321 278.79454 
L 174.14321 278.671616 
L 174.146913 278.671616 
L 174.146913 278.548692 
L 174.191279 278.548692 
L 174.191279 278.425769 
L 174.213419 278.425769 
L 174.213419 278.302845 
L 181.141256 278.302845 
L 181.141256 278.179921 
L 333.569032 278.179921 
" style="fill:none;stroke:#ffa500;stroke-linecap:square;stroke-width:1.5;"/>
   </g>
   <g id="line2d_58">
    <defs>
     <path d="M 0 -6 
L -1.347084 -1.854102 
L -5.706339 -1.854102 
L -2.179628 0.708204 
L -3.526712 4.854102 
L -0 2.291796 
L 3.526712 4.854102 
L 2.179628 0.708204 
L 5.706339 -1.854102 
L 1.347084 -1.854102 
z
" id="md61cc611ee" style="stroke:#ffa500;stroke-linejoin:bevel;stroke-width:1.5;"/>
    </defs>
    <g>
     <use style="fill:none;stroke:#ffa500;stroke-linejoin:bevel;stroke-width:1.5;" x="174.213419" xlink:href="#md61cc611ee" y="278.302845"/>
     <use style="fill:none;stroke:#ffa500;stroke-linejoin:bevel;stroke-width:1.5;" x="181.141256" xlink:href="#md61cc611ee" y="278.179921"/>
     <use style="fill:none;stroke:#ffa500;stroke-linejoin:bevel;stroke-width:1.5;" x="181.141256" xlink:href="#md61cc611ee" y="278.179921"/>
     <use style="fill:none;stroke:#ffa500;stroke-linejoin:bevel;stroke-width:1.5;" x="333.569032" xlink:href="#md61cc611ee" y="278.179921"/>
    </g>
   </g>
   <g id="line2d_59">
    <path style="fill:none;stroke:#ffa500;stroke-linecap:square;stroke-width:1.5;"/>
    <g/>
   </g>
   <g id="line2d_60">
    <path clip-path="url(#pce8539d37a)" d="M 143.446374 282.113479 
" style="fill:none;stroke:#ffa500;stroke-linecap:square;stroke-width:1.5;"/>
    <defs>
     <path d="M -12 12 
L 12 -12 
M -12 -12 
L 12 12 
" id="mbb4a5a5bc9" style="stroke:#ffa500;stroke-width:3;"/>
    </defs>
    <g clip-path="url(#pce8539d37a)">
     <use style="fill:#ffa500;stroke:#ffa500;stroke-width:3;" x="143.446374" xlink:href="#mbb4a5a5bc9" y="282.113479"/>
    </g>
   </g>
   <g id="line2d_61">
    <path d="M 333.569032 278.179921 
L 364.009226 288.456341 
" style="fill:none;stroke:#ffa500;stroke-linecap:square;stroke-width:1.5;"/>
    <g>
     <use style="fill:none;stroke:#ffa500;stroke-linejoin:bevel;stroke-width:1.5;" x="333.569032" xlink:href="#md61cc611ee" y="278.179921"/>
     <use style="fill:none;stroke:#ffa500;stroke-linejoin:bevel;stroke-width:1.5;" x="364.009226" xlink:href="#md61cc611ee" y="288.456341"/>
    </g>
   </g>
   <g id="line2d_62">
    <path d="M 333.569032 257.037048 
L 364.009226 197.197799 
" style="fill:none;stroke:#ff00ff;stroke-linecap:square;stroke-width:1.5;"/>
    <g>
     <use style="fill:none;stroke:#ff00ff;stroke-linejoin:miter;stroke-width:1.5;" x="333.569032" xlink:href="#m699b3bd17b" y="257.037048"/>
     <use style="fill:none;stroke:#ff00ff;stroke-linejoin:miter;stroke-width:1.5;" x="364.009226" xlink:href="#m699b3bd17b" y="197.197799"/>
    </g>
   </g>
   <g id="line2d_63">
    <path d="M 333.569032 215.488843 
L 364.009226 105.939258 
" style="fill:none;stroke:#000080;stroke-linecap:square;stroke-width:1.5;"/>
    <g>
     <use style="fill:none;stroke:#000080;stroke-width:1.5;" x="333.569032" xlink:href="#m9b3981aa87" y="215.488843"/>
     <use style="fill:none;stroke:#000080;stroke-width:1.5;" x="364.009226" xlink:href="#m9b3981aa87" y="105.939258"/>
    </g>
   </g>
   <g id="line2d_64">
    <path d="M 333.569032 294.16 
L 333.569032 8.977057 
" style="fill:none;stroke:#000000;stroke-linecap:square;stroke-width:1.5;"/>
   </g>
   <g id="patch_3">
    <path d="M 56.84 294.16 
L 56.84 6.125228 
" style="fill:none;stroke:#000000;stroke-linecap:square;stroke-linejoin:miter;stroke-width:0.8;"/>
   </g>
   <g id="patch_4">
    <path d="M 399.984 294.16 
L 399.984 6.125228 
" style="fill:none;stroke:#000000;stroke-linecap:square;stroke-linejoin:miter;stroke-width:0.8;"/>
   </g>
   <g id="patch_5">
    <path d="M 56.84 294.16 
L 399.984 294.16 
" style="fill:none;stroke:#000000;stroke-linecap:square;stroke-linejoin:miter;stroke-width:0.8;"/>
   </g>
   <g id="patch_6">
    <path d="M 56.84 6.125228 
L 399.984 6.125228 
" style="fill:none;stroke:#000000;stroke-linecap:square;stroke-linejoin:miter;stroke-width:0.8;"/>
   </g>
   <g id="text_14">
    <!-- adaptiveH -->
    <defs>
     <path d="M 9.8125 72.90625 
L 19.671875 72.90625 
L 19.671875 43.015625 
L 55.515625 43.015625 
L 55.515625 72.90625 
L 65.375 72.90625 
L 65.375 0 
L 55.515625 0 
L 55.515625 34.71875 
L 19.671875 34.71875 
L 19.671875 0 
L 9.8125 0 
z
" id="DejaVuSans-48"/>
    </defs>
    <g transform="translate(369.543806 293.147279)scale(0.17 -0.17)">
     <use xlink:href="#DejaVuSans-61"/>
     <use x="61.279297" xlink:href="#DejaVuSans-64"/>
     <use x="124.755859" xlink:href="#DejaVuSans-61"/>
     <use x="186.035156" xlink:href="#DejaVuSans-70"/>
     <use x="249.511719" xlink:href="#DejaVuSans-74"/>
     <use x="288.720703" xlink:href="#DejaVuSans-69"/>
     <use x="316.503906" xlink:href="#DejaVuSans-76"/>
     <use x="375.683594" xlink:href="#DejaVuSans-65"/>
     <use x="437.207031" xlink:href="#DejaVuSans-48"/>
    </g>
   </g>
   <g id="text_15">
    <!-- RANDOMSEA -->
    <defs>
     <path d="M 44.390625 34.1875 
Q 47.5625 33.109375 50.5625 29.59375 
Q 53.5625 26.078125 56.59375 19.921875 
L 66.609375 0 
L 56 0 
L 46.6875 18.703125 
Q 43.0625 26.03125 39.671875 28.421875 
Q 36.28125 30.8125 30.421875 30.8125 
L 19.671875 30.8125 
L 19.671875 0 
L 9.8125 0 
L 9.8125 72.90625 
L 32.078125 72.90625 
Q 44.578125 72.90625 50.734375 67.671875 
Q 56.890625 62.453125 56.890625 51.90625 
Q 56.890625 45.015625 53.6875 40.46875 
Q 50.484375 35.9375 44.390625 34.1875 
M 19.671875 64.796875 
L 19.671875 38.921875 
L 32.078125 38.921875 
Q 39.203125 38.921875 42.84375 42.21875 
Q 46.484375 45.515625 46.484375 51.90625 
Q 46.484375 58.296875 42.84375 61.546875 
Q 39.203125 64.796875 32.078125 64.796875 
z
" id="DejaVuSans-52"/>
     <path d="M 34.1875 63.1875 
L 20.796875 26.90625 
L 47.609375 26.90625 
z
M 28.609375 72.90625 
L 39.796875 72.90625 
L 67.578125 0 
L 57.328125 0 
L 50.6875 18.703125 
L 17.828125 18.703125 
L 11.1875 0 
L 0.78125 0 
z
" id="DejaVuSans-41"/>
     <path d="M 9.8125 72.90625 
L 23.09375 72.90625 
L 55.421875 11.921875 
L 55.421875 72.90625 
L 64.984375 72.90625 
L 64.984375 0 
L 51.703125 0 
L 19.390625 60.984375 
L 19.390625 0 
L 9.8125 0 
z
" id="DejaVuSans-4e"/>
     <path d="M 19.671875 64.796875 
L 19.671875 8.109375 
L 31.59375 8.109375 
Q 46.6875 8.109375 53.6875 14.9375 
Q 60.6875 21.78125 60.6875 36.53125 
Q 60.6875 51.171875 53.6875 57.984375 
Q 46.6875 64.796875 31.59375 64.796875 
z
M 9.8125 72.90625 
L 30.078125 72.90625 
Q 51.265625 72.90625 61.171875 64.09375 
Q 71.09375 55.28125 71.09375 36.53125 
Q 71.09375 17.671875 61.125 8.828125 
Q 51.171875 0 30.078125 0 
L 9.8125 0 
z
" id="DejaVuSans-44"/>
     <path d="M 39.40625 66.21875 
Q 28.65625 66.21875 22.328125 58.203125 
Q 16.015625 50.203125 16.015625 36.375 
Q 16.015625 22.609375 22.328125 14.59375 
Q 28.65625 6.59375 39.40625 6.59375 
Q 50.140625 6.59375 56.421875 14.59375 
Q 62.703125 22.609375 62.703125 36.375 
Q 62.703125 50.203125 56.421875 58.203125 
Q 50.140625 66.21875 39.40625 66.21875 
M 39.40625 74.21875 
Q 54.734375 74.21875 63.90625 63.9375 
Q 73.09375 53.65625 73.09375 36.375 
Q 73.09375 19.140625 63.90625 8.859375 
Q 54.734375 -1.421875 39.40625 -1.421875 
Q 24.03125 -1.421875 14.8125 8.828125 
Q 5.609375 19.09375 5.609375 36.375 
Q 5.609375 53.65625 14.8125 63.9375 
Q 24.03125 74.21875 39.40625 74.21875 
" id="DejaVuSans-4f"/>
     <path d="M 9.8125 72.90625 
L 24.515625 72.90625 
L 43.109375 23.296875 
L 61.8125 72.90625 
L 76.515625 72.90625 
L 76.515625 0 
L 66.890625 0 
L 66.890625 64.015625 
L 48.09375 14.015625 
L 38.1875 14.015625 
L 19.390625 64.015625 
L 19.390625 0 
L 9.8125 0 
z
" id="DejaVuSans-4d"/>
     <path d="M 53.515625 70.515625 
L 53.515625 60.890625 
Q 47.90625 63.578125 42.921875 64.890625 
Q 37.9375 66.21875 33.296875 66.21875 
Q 25.25 66.21875 20.875 63.09375 
Q 16.5 59.96875 16.5 54.203125 
Q 16.5 49.359375 19.40625 46.890625 
Q 22.3125 44.4375 30.421875 42.921875 
L 36.375 41.703125 
Q 47.40625 39.59375 52.65625 34.296875 
Q 57.90625 29 57.90625 20.125 
Q 57.90625 9.515625 50.796875 4.046875 
Q 43.703125 -1.421875 29.984375 -1.421875 
Q 24.8125 -1.421875 18.96875 -0.25 
Q 13.140625 0.921875 6.890625 3.21875 
L 6.890625 13.375 
Q 12.890625 10.015625 18.65625 8.296875 
Q 24.421875 6.59375 29.984375 6.59375 
Q 38.421875 6.59375 43.015625 9.90625 
Q 47.609375 13.234375 47.609375 19.390625 
Q 47.609375 24.75 44.3125 27.78125 
Q 41.015625 30.8125 33.5 32.328125 
L 27.484375 33.5 
Q 16.453125 35.6875 11.515625 40.375 
Q 6.59375 45.0625 6.59375 53.421875 
Q 6.59375 63.09375 13.40625 68.65625 
Q 20.21875 74.21875 32.171875 74.21875 
Q 37.3125 74.21875 42.625 73.28125 
Q 47.953125 72.359375 53.515625 70.515625 
" id="DejaVuSans-53"/>
     <path d="M 9.8125 72.90625 
L 55.90625 72.90625 
L 55.90625 64.59375 
L 19.671875 64.59375 
L 19.671875 43.015625 
L 54.390625 43.015625 
L 54.390625 34.71875 
L 19.671875 34.71875 
L 19.671875 8.296875 
L 56.78125 8.296875 
L 56.78125 0 
L 9.8125 0 
z
" id="DejaVuSans-45"/>
    </defs>
    <g transform="translate(369.543806 201.888737)scale(0.17 -0.17)">
     <use xlink:href="#DejaVuSans-52"/>
     <use x="69.419922" xlink:href="#DejaVuSans-41"/>
     <use x="137.828125" xlink:href="#DejaVuSans-4e"/>
     <use x="212.632812" xlink:href="#DejaVuSans-44"/>
     <use x="289.634766" xlink:href="#DejaVuSans-4f"/>
     <use x="368.345703" xlink:href="#DejaVuSans-4d"/>
     <use x="454.625" xlink:href="#DejaVuSans-53"/>
     <use x="518.101562" xlink:href="#DejaVuSans-45"/>
     <use x="581.285156" xlink:href="#DejaVuSans-41"/>
    </g>
   </g>
   <g id="text_16">
    <!-- NSGA-II-M -->
    <defs>
     <path d="M 59.515625 10.40625 
L 59.515625 29.984375 
L 43.40625 29.984375 
L 43.40625 38.09375 
L 69.28125 38.09375 
L 69.28125 6.78125 
Q 63.578125 2.734375 56.6875 0.65625 
Q 49.8125 -1.421875 42 -1.421875 
Q 24.90625 -1.421875 15.25 8.5625 
Q 5.609375 18.5625 5.609375 36.375 
Q 5.609375 54.25 15.25 64.234375 
Q 24.90625 74.21875 42 74.21875 
Q 49.125 74.21875 55.546875 72.453125 
Q 61.96875 70.703125 67.390625 67.28125 
L 67.390625 56.78125 
Q 61.921875 61.421875 55.765625 63.765625 
Q 49.609375 66.109375 42.828125 66.109375 
Q 29.4375 66.109375 22.71875 58.640625 
Q 16.015625 51.171875 16.015625 36.375 
Q 16.015625 21.625 22.71875 14.15625 
Q 29.4375 6.6875 42.828125 6.6875 
Q 48.046875 6.6875 52.140625 7.59375 
Q 56.25 8.5 59.515625 10.40625 
" id="DejaVuSans-47"/>
     <path d="M 9.8125 72.90625 
L 19.671875 72.90625 
L 19.671875 0 
L 9.8125 0 
z
" id="DejaVuSans-49"/>
    </defs>
    <g transform="translate(369.543806 110.630195)scale(0.17 -0.17)">
     <use xlink:href="#DejaVuSans-4e"/>
     <use x="74.804688" xlink:href="#DejaVuSans-53"/>
     <use x="138.28125" xlink:href="#DejaVuSans-47"/>
     <use x="215.771484" xlink:href="#DejaVuSans-41"/>
     <use x="284.148438" xlink:href="#DejaVuSans-2d"/>
     <use x="320.232422" xlink:href="#DejaVuSans-49"/>
     <use x="349.724609" xlink:href="#DejaVuSans-49"/>
     <use x="379.216797" xlink:href="#DejaVuSans-2d"/>
     <use x="415.300781" xlink:href="#DejaVuSans-4d"/>
    </g>
   </g>
   <g id="text_17">
    <!-- best 2016 -->
    <defs>
     <path d="M 48.6875 27.296875 
Q 48.6875 37.203125 44.609375 42.84375 
Q 40.53125 48.484375 33.40625 48.484375 
Q 26.265625 48.484375 22.1875 42.84375 
Q 18.109375 37.203125 18.109375 27.296875 
Q 18.109375 17.390625 22.1875 11.75 
Q 26.265625 6.109375 33.40625 6.109375 
Q 40.53125 6.109375 44.609375 11.75 
Q 48.6875 17.390625 48.6875 27.296875 
M 18.109375 46.390625 
Q 20.953125 51.265625 25.265625 53.625 
Q 29.59375 56 35.59375 56 
Q 45.5625 56 51.78125 48.09375 
Q 58.015625 40.1875 58.015625 27.296875 
Q 58.015625 14.40625 51.78125 6.484375 
Q 45.5625 -1.421875 35.59375 -1.421875 
Q 29.59375 -1.421875 25.265625 0.953125 
Q 20.953125 3.328125 18.109375 8.203125 
L 18.109375 0 
L 9.078125 0 
L 9.078125 75.984375 
L 18.109375 75.984375 
z
" id="DejaVuSans-62"/>
    </defs>
    <g transform="translate(369.543806 19.371654)scale(0.17 -0.17)">
     <use xlink:href="#DejaVuSans-62"/>
     <use x="63.476562" xlink:href="#DejaVuSans-65"/>
     <use x="125" xlink:href="#DejaVuSans-73"/>
     <use x="177.099609" xlink:href="#DejaVuSans-74"/>
     <use x="216.308594" xlink:href="#DejaVuSans-20"/>
     <use x="248.095703" xlink:href="#DejaVuSans-32"/>
     <use x="311.71875" xlink:href="#DejaVuSans-30"/>
     <use x="375.341797" xlink:href="#DejaVuSans-31"/>
     <use x="438.964844" xlink:href="#DejaVuSans-36"/>
    </g>
   </g>
   <g id="text_18">
    <!-- bbob-biobj f39, f40, f44, f45, 20-D -->
    <defs>
     <path d="M 9.421875 54.6875 
L 18.40625 54.6875 
L 18.40625 -0.984375 
Q 18.40625 -11.421875 14.421875 -16.109375 
Q 10.453125 -20.796875 1.609375 -20.796875 
L -1.8125 -20.796875 
L -1.8125 -13.1875 
L 0.59375 -13.1875 
Q 5.71875 -13.1875 7.5625 -10.8125 
Q 9.421875 -8.453125 9.421875 -0.984375 
z
M 9.421875 75.984375 
L 18.40625 75.984375 
L 18.40625 64.59375 
L 9.421875 64.59375 
z
" id="DejaVuSans-6a"/>
     <path d="M 40.578125 39.3125 
Q 47.65625 37.796875 51.625 33 
Q 55.609375 28.21875 55.609375 21.1875 
Q 55.609375 10.40625 48.1875 4.484375 
Q 40.765625 -1.421875 27.09375 -1.421875 
Q 22.515625 -1.421875 17.65625 -0.515625 
Q 12.796875 0.390625 7.625 2.203125 
L 7.625 11.71875 
Q 11.71875 9.328125 16.59375 8.109375 
Q 21.484375 6.890625 26.8125 6.890625 
Q 36.078125 6.890625 40.9375 10.546875 
Q 45.796875 14.203125 45.796875 21.1875 
Q 45.796875 27.640625 41.28125 31.265625 
Q 36.765625 34.90625 28.71875 34.90625 
L 20.21875 34.90625 
L 20.21875 43.015625 
L 29.109375 43.015625 
Q 36.375 43.015625 40.234375 45.921875 
Q 44.09375 48.828125 44.09375 54.296875 
Q 44.09375 59.90625 40.109375 62.90625 
Q 36.140625 65.921875 28.71875 65.921875 
Q 24.65625 65.921875 20.015625 65.03125 
Q 15.375 64.15625 9.8125 62.3125 
L 9.8125 71.09375 
Q 15.4375 72.65625 20.34375 73.4375 
Q 25.25 74.21875 29.59375 74.21875 
Q 40.828125 74.21875 47.359375 69.109375 
Q 53.90625 64.015625 53.90625 55.328125 
Q 53.90625 49.265625 50.4375 45.09375 
Q 46.96875 40.921875 40.578125 39.3125 
" id="DejaVuSans-33"/>
     <path d="M 10.984375 1.515625 
L 10.984375 10.5 
Q 14.703125 8.734375 18.5 7.8125 
Q 22.3125 6.890625 25.984375 6.890625 
Q 35.75 6.890625 40.890625 13.453125 
Q 46.046875 20.015625 46.78125 33.40625 
Q 43.953125 29.203125 39.59375 26.953125 
Q 35.25 24.703125 29.984375 24.703125 
Q 19.046875 24.703125 12.671875 31.3125 
Q 6.296875 37.9375 6.296875 49.421875 
Q 6.296875 60.640625 12.9375 67.421875 
Q 19.578125 74.21875 30.609375 74.21875 
Q 43.265625 74.21875 49.921875 64.515625 
Q 56.59375 54.828125 56.59375 36.375 
Q 56.59375 19.140625 48.40625 8.859375 
Q 40.234375 -1.421875 26.421875 -1.421875 
Q 22.703125 -1.421875 18.890625 -0.6875 
Q 15.09375 0.046875 10.984375 1.515625 
M 30.609375 32.421875 
Q 37.25 32.421875 41.125 36.953125 
Q 45.015625 41.5 45.015625 49.421875 
Q 45.015625 57.28125 41.125 61.84375 
Q 37.25 66.40625 30.609375 66.40625 
Q 23.96875 66.40625 20.09375 61.84375 
Q 16.21875 57.28125 16.21875 49.421875 
Q 16.21875 41.5 20.09375 36.953125 
Q 23.96875 32.421875 30.609375 32.421875 
" id="DejaVuSans-39"/>
     <path d="M 10.796875 72.90625 
L 49.515625 72.90625 
L 49.515625 64.59375 
L 19.828125 64.59375 
L 19.828125 46.734375 
Q 21.96875 47.46875 24.109375 47.828125 
Q 26.265625 48.1875 28.421875 48.1875 
Q 40.625 48.1875 47.75 41.5 
Q 54.890625 34.8125 54.890625 23.390625 
Q 54.890625 11.625 47.5625 5.09375 
Q 40.234375 -1.421875 26.90625 -1.421875 
Q 22.3125 -1.421875 17.546875 -0.640625 
Q 12.796875 0.140625 7.71875 1.703125 
L 7.71875 11.625 
Q 12.109375 9.234375 16.796875 8.0625 
Q 21.484375 6.890625 26.703125 6.890625 
Q 35.15625 6.890625 40.078125 11.328125 
Q 45.015625 15.765625 45.015625 23.390625 
Q 45.015625 31 40.078125 35.4375 
Q 35.15625 39.890625 26.703125 39.890625 
Q 22.75 39.890625 18.8125 39.015625 
Q 14.890625 38.140625 10.796875 36.28125 
z
" id="DejaVuSans-35"/>
    </defs>
    <g transform="translate(60.27144 16.755982)scale(0.102 -0.102)">
     <use xlink:href="#DejaVuSans-62"/>
     <use x="63.476562" xlink:href="#DejaVuSans-62"/>
     <use x="126.953125" xlink:href="#DejaVuSans-6f"/>
     <use x="188.134766" xlink:href="#DejaVuSans-62"/>
     <use x="251.611328" xlink:href="#DejaVuSans-2d"/>
     <use x="287.695312" xlink:href="#DejaVuSans-62"/>
     <use x="351.171875" xlink:href="#DejaVuSans-69"/>
     <use x="378.955078" xlink:href="#DejaVuSans-6f"/>
     <use x="440.136719" xlink:href="#DejaVuSans-62"/>
     <use x="503.613281" xlink:href="#DejaVuSans-6a"/>
     <use x="531.396484" xlink:href="#DejaVuSans-20"/>
     <use x="563.183594" xlink:href="#DejaVuSans-66"/>
     <use x="598.388672" xlink:href="#DejaVuSans-33"/>
     <use x="662.011719" xlink:href="#DejaVuSans-39"/>
     <use x="725.634766" xlink:href="#DejaVuSans-2c"/>
     <use x="757.421875" xlink:href="#DejaVuSans-20"/>
     <use x="789.208984" xlink:href="#DejaVuSans-66"/>
     <use x="824.414062" xlink:href="#DejaVuSans-34"/>
     <use x="888.037109" xlink:href="#DejaVuSans-30"/>
     <use x="951.660156" xlink:href="#DejaVuSans-2c"/>
     <use x="983.447266" xlink:href="#DejaVuSans-20"/>
     <use x="1015.234375" xlink:href="#DejaVuSans-66"/>
     <use x="1050.439453" xlink:href="#DejaVuSans-34"/>
     <use x="1114.0625" xlink:href="#DejaVuSans-34"/>
     <use x="1177.685547" xlink:href="#DejaVuSans-2c"/>
     <use x="1209.472656" xlink:href="#DejaVuSans-20"/>
     <use x="1241.259766" xlink:href="#DejaVuSans-66"/>
     <use x="1276.464844" xlink:href="#DejaVuSans-34"/>
     <use x="1340.087891" xlink:href="#DejaVuSans-35"/>
     <use x="1403.710938" xlink:href="#DejaVuSans-2c"/>
     <use x="1435.498047" xlink:href="#DejaVuSans-20"/>
     <use x="1467.285156" xlink:href="#DejaVuSans-32"/>
     <use x="1530.908203" xlink:href="#DejaVuSans-30"/>
     <use x="1594.53125" xlink:href="#DejaVuSans-2d"/>
     <use x="1630.615234" xlink:href="#DejaVuSans-44"/>
    </g>
    <!-- 58 targets: 1..-1.0e-4 -->
    <defs>
     <path d="M 11.71875 12.40625 
L 22.015625 12.40625 
L 22.015625 0 
L 11.71875 0 
z
M 11.71875 51.703125 
L 22.015625 51.703125 
L 22.015625 39.3125 
L 11.71875 39.3125 
z
" id="DejaVuSans-3a"/>
    </defs>
    <g transform="translate(60.27144 28.17775)scale(0.102 -0.102)">
     <use xlink:href="#DejaVuSans-35"/>
     <use x="63.623047" xlink:href="#DejaVuSans-38"/>
     <use x="127.246094" xlink:href="#DejaVuSans-20"/>
     <use x="159.033203" xlink:href="#DejaVuSans-74"/>
     <use x="198.242188" xlink:href="#DejaVuSans-61"/>
     <use x="259.521484" xlink:href="#DejaVuSans-72"/>
     <use x="300.619141" xlink:href="#DejaVuSans-67"/>
     <use x="364.095703" xlink:href="#DejaVuSans-65"/>
     <use x="425.619141" xlink:href="#DejaVuSans-74"/>
     <use x="464.828125" xlink:href="#DejaVuSans-73"/>
     <use x="516.927734" xlink:href="#DejaVuSans-3a"/>
     <use x="550.619141" xlink:href="#DejaVuSans-20"/>
     <use x="582.40625" xlink:href="#DejaVuSans-31"/>
     <use x="646.029297" xlink:href="#DejaVuSans-2e"/>
     <use x="677.816406" xlink:href="#DejaVuSans-2e"/>
     <use x="709.603516" xlink:href="#DejaVuSans-2d"/>
     <use x="745.6875" xlink:href="#DejaVuSans-31"/>
     <use x="809.310547" xlink:href="#DejaVuSans-2e"/>
     <use x="841.097656" xlink:href="#DejaVuSans-30"/>
     <use x="904.720703" xlink:href="#DejaVuSans-65"/>
     <use x="966.244141" xlink:href="#DejaVuSans-2d"/>
     <use x="1002.328125" xlink:href="#DejaVuSans-34"/>
    </g>
    <!-- 10 instances -->
    <g transform="translate(60.27144 39.599519)scale(0.102 -0.102)">
     <use xlink:href="#DejaVuSans-31"/>
     <use x="63.623047" xlink:href="#DejaVuSans-30"/>
     <use x="127.246094" xlink:href="#DejaVuSans-20"/>
     <use x="159.033203" xlink:href="#DejaVuSans-69"/>
     <use x="186.816406" xlink:href="#DejaVuSans-6e"/>
     <use x="250.195312" xlink:href="#DejaVuSans-73"/>
     <use x="302.294922" xlink:href="#DejaVuSans-74"/>
     <use x="341.503906" xlink:href="#DejaVuSans-61"/>
     <use x="402.783203" xlink:href="#DejaVuSans-6e"/>
     <use x="466.162109" xlink:href="#DejaVuSans-63"/>
     <use x="521.142578" xlink:href="#DejaVuSans-65"/>
     <use x="582.666016" xlink:href="#DejaVuSans-73"/>
    </g>
   </g>
   <g id="text_19">
    <!-- v2.2.1.10, hv-hash=ff0e71e8cd978373 -->
    <defs>
     <path d="M 54.890625 33.015625 
L 54.890625 0 
L 45.90625 0 
L 45.90625 32.71875 
Q 45.90625 40.484375 42.875 44.328125 
Q 39.84375 48.1875 33.796875 48.1875 
Q 26.515625 48.1875 22.3125 43.546875 
Q 18.109375 38.921875 18.109375 30.90625 
L 18.109375 0 
L 9.078125 0 
L 9.078125 75.984375 
L 18.109375 75.984375 
L 18.109375 46.1875 
Q 21.34375 51.125 25.703125 53.5625 
Q 30.078125 56 35.796875 56 
Q 45.21875 56 50.046875 50.171875 
Q 54.890625 44.34375 54.890625 33.015625 
" id="DejaVuSans-68"/>
     <path d="M 10.59375 45.40625 
L 73.1875 45.40625 
L 73.1875 37.203125 
L 10.59375 37.203125 
z
M 10.59375 25.484375 
L 73.1875 25.484375 
L 73.1875 17.1875 
L 10.59375 17.1875 
z
" id="DejaVuSans-3d"/>
     <path d="M 8.203125 72.90625 
L 55.078125 72.90625 
L 55.078125 68.703125 
L 28.609375 0 
L 18.3125 0 
L 43.21875 64.59375 
L 8.203125 64.59375 
z
" id="DejaVuSans-37"/>
    </defs>
    <g style="fill:#808080;" transform="translate(130.065125 289.199965)scale(0.1 -0.1)">
     <use xlink:href="#DejaVuSans-76"/>
     <use x="59.179688" xlink:href="#DejaVuSans-32"/>
     <use x="122.802734" xlink:href="#DejaVuSans-2e"/>
     <use x="154.589844" xlink:href="#DejaVuSans-32"/>
     <use x="218.212891" xlink:href="#DejaVuSans-2e"/>
     <use x="250" xlink:href="#DejaVuSans-31"/>
     <use x="313.623047" xlink:href="#DejaVuSans-2e"/>
     <use x="345.410156" xlink:href="#DejaVuSans-31"/>
     <use x="409.033203" xlink:href="#DejaVuSans-30"/>
     <use x="472.65625" xlink:href="#DejaVuSans-2c"/>
     <use x="504.443359" xlink:href="#DejaVuSans-20"/>
     <use x="536.230469" xlink:href="#DejaVuSans-68"/>
     <use x="599.609375" xlink:href="#DejaVuSans-76"/>
     <use x="658.757812" xlink:href="#DejaVuSans-2d"/>
     <use x="694.841797" xlink:href="#DejaVuSans-68"/>
     <use x="758.220703" xlink:href="#DejaVuSans-61"/>
     <use x="819.5" xlink:href="#DejaVuSans-73"/>
     <use x="871.599609" xlink:href="#DejaVuSans-68"/>
     <use x="934.978516" xlink:href="#DejaVuSans-3d"/>
     <use x="1018.767578" xlink:href="#DejaVuSans-66"/>
     <use x="1053.972656" xlink:href="#DejaVuSans-66"/>
     <use x="1089.177734" xlink:href="#DejaVuSans-30"/>
     <use x="1152.800781" xlink:href="#DejaVuSans-65"/>
     <use x="1214.324219" xlink:href="#DejaVuSans-37"/>
     <use x="1277.947266" xlink:href="#DejaVuSans-31"/>
     <use x="1341.570312" xlink:href="#DejaVuSans-65"/>
     <use x="1403.09375" xlink:href="#DejaVuSans-38"/>
     <use x="1466.716797" xlink:href="#DejaVuSans-63"/>
     <use x="1521.697266" xlink:href="#DejaVuSans-64"/>
     <use x="1585.173828" xlink:href="#DejaVuSans-39"/>
     <use x="1648.796875" xlink:href="#DejaVuSans-37"/>
     <use x="1712.419922" xlink:href="#DejaVuSans-38"/>
     <use x="1776.042969" xlink:href="#DejaVuSans-33"/>
     <use x="1839.666016" xlink:href="#DejaVuSans-37"/>
     <use x="1903.289062" xlink:href="#DejaVuSans-33"/>
    </g>
   </g>
  </g>
 </g>
 <defs>
  <clipPath id="pce8539d37a">
   <rect height="288.034772" width="343.144" x="56.84" y="6.125228"/>
  </clipPath>
 </defs>
</svg>
