<?xml version="1.0" encoding="utf-8" standalone="no"?>
<!DOCTYPE svg PUBLIC "-//W3C//DTD SVG 1.1//EN"
  "http://www.w3.org/Graphics/SVG/1.1/DTD/svg11.dtd">
<!-- Created with matplotlib (http://matplotlib.org/) -->
<svg height="345pt" version="1.1" viewBox="0 0 460 345" width="460pt" xmlns="http://www.w3.org/2000/svg" xmlns:xlink="http://www.w3.org/1999/xlink">
 <defs>
  <style type="text/css">
*{stroke-linecap:butt;stroke-linejoin:round;}
  </style>
 </defs>
 <g id="figure_1">
  <g id="patch_1">
   <path d="M 0 345.6 
L 460.8 345.6 
L 460.8 0 
L 0 0 
z
" style="fill:#ffffff;"/>
  </g>
  <g id="axes_1">
   <g id="patch_2">
    <path d="M 56.84 294.16 
L 399.984 294.16 
L 399.984 6.125228 
L 56.84 6.125228 
z
" style="fill:#ffffff;"/>
   </g>
   <g id="line2d_1">
    <path d="M 48.069716 294.16 
L 48.069716 292.521018 
L 53.008884 292.521018 
L 53.008884 290.882035 
L 59.97025 290.882035 
L 59.97025 289.243053 
L 68.740534 289.243053 
L 68.740534 285.965088 
L 85.793517 285.965088 
L 85.793517 282.687123 
L 87.020384 282.687123 
L 87.020384 279.409158 
L 108.1007 279.409158 
L 108.1007 276.131193 
L 134.058324 276.131193 
L 134.058324 272.853228 
L 136.77578 272.853228 
L 136.77578 269.575264 
L 149.705645 269.575264 
L 149.705645 267.936281 
L 150.428016 267.936281 
L 150.428016 266.297299 
L 160.544177 266.297299 
L 160.544177 261.380351 
L 160.763512 261.380351 
L 160.763512 259.741369 
L 164.602698 259.741369 
L 164.602698 254.824422 
L 171.229497 254.824422 
L 171.229497 251.546457 
L 172.329869 251.546457 
L 172.329869 248.268492 
L 177.42063 248.268492 
L 177.42063 243.351545 
L 179.20046 243.351545 
L 179.20046 241.712562 
L 190.361299 241.712562 
L 190.361299 238.434597 
L 191.57431 238.434597 
L 191.57431 235.156633 
L 196.143279 235.156633 
L 196.143279 233.51765 
L 199.548045 233.51765 
L 199.548045 231.878668 
L 204.685467 231.878668 
L 204.685467 226.96172 
L 208.74287 226.96172 
L 208.74287 223.683756 
L 213.955241 223.683756 
L 213.955241 220.405791 
L 222.559109 220.405791 
L 222.559109 217.127826 
L 226.67786 217.127826 
L 226.67786 212.210878 
L 234.650814 212.210878 
L 234.650814 208.932914 
L 235.157287 208.932914 
L 235.157287 204.015966 
L 240.684062 204.015966 
L 240.684062 200.738001 
L 243.961361 200.738001 
L 243.961361 197.460037 
L 244.203302 197.460037 
L 244.203302 194.182072 
L 249.455114 194.182072 
L 249.455114 190.904107 
L 254.045834 190.904107 
L 254.045834 187.626142 
L 255.459567 187.626142 
L 255.459567 184.348177 
L 257.426659 184.348177 
L 257.426659 182.709195 
L 265.444541 182.709195 
L 265.444541 177.792247 
L 265.710415 177.792247 
L 265.710415 174.514283 
L 266.946155 174.514283 
L 266.946155 172.8753 
L 273.472273 172.8753 
L 273.472273 171.236318 
L 274.978005 171.236318 
L 274.978005 166.31937 
L 282.525116 166.31937 
L 282.525116 161.402423 
L 283.700285 161.402423 
L 283.700285 159.763441 
L 287.092433 159.763441 
L 287.092433 158.124458 
L 288.962583 158.124458 
L 288.962583 154.846493 
L 291.690513 154.846493 
L 291.690513 149.929546 
L 298.015385 149.929546 
L 298.015385 145.012599 
L 301.737349 145.012599 
L 301.737349 143.373616 
L 304.538937 143.373616 
L 304.538937 140.095652 
L 305.509526 140.095652 
L 305.509526 138.456669 
L 310.302343 138.456669 
L 310.302343 133.539722 
L 310.664758 133.539722 
L 310.664758 128.622775 
L 314.957216 128.622775 
L 314.957216 126.983792 
L 316.604727 126.983792 
L 316.604727 125.34481 
L 323.478835 125.34481 
L 323.478835 123.705827 
L 333.569032 123.705827 
" style="fill:none;stroke:#f5deb3;stroke-linecap:square;stroke-width:6;"/>
   </g>
   <g id="line2d_2">
    <defs>
     <path d="M -0 7.778175 
L 7.778175 0 
L 0 -7.778175 
L -7.778175 -0 
z
" id="m508eec0f12" style="stroke:#f5deb3;stroke-linejoin:miter;stroke-width:1.5;"/>
    </defs>
    <g>
     <use style="fill:#f5deb3;stroke:#f5deb3;stroke-linejoin:miter;stroke-width:1.5;" x="108.1007" xlink:href="#m508eec0f12" y="279.409158"/>
     <use style="fill:#f5deb3;stroke:#f5deb3;stroke-linejoin:miter;stroke-width:1.5;" x="179.20046" xlink:href="#m508eec0f12" y="241.712562"/>
     <use style="fill:#f5deb3;stroke:#f5deb3;stroke-linejoin:miter;stroke-width:1.5;" x="226.67786" xlink:href="#m508eec0f12" y="212.210878"/>
     <use style="fill:#f5deb3;stroke:#f5deb3;stroke-linejoin:miter;stroke-width:1.5;" x="283.700285" xlink:href="#m508eec0f12" y="159.763441"/>
     <use style="fill:#f5deb3;stroke:#f5deb3;stroke-linejoin:miter;stroke-width:1.5;" x="323.478835" xlink:href="#m508eec0f12" y="123.705827"/>
     <use style="fill:#f5deb3;stroke:#f5deb3;stroke-linejoin:miter;stroke-width:1.5;" x="333.569032" xlink:href="#m508eec0f12" y="123.705827"/>
    </g>
   </g>
   <g id="line2d_3">
    <path style="fill:none;stroke:#f5deb3;stroke-linecap:square;stroke-width:6;"/>
    <g/>
   </g>
   <g id="line2d_4">
    <path d="M 333.569032 123.705827 
L 364.009226 14.680716 
" style="fill:none;stroke:#f5deb3;stroke-linecap:square;stroke-width:6;"/>
    <g>
     <use style="fill:#f5deb3;stroke:#f5deb3;stroke-linejoin:miter;stroke-width:1.5;" x="333.569032" xlink:href="#m508eec0f12" y="123.705827"/>
     <use style="fill:#f5deb3;stroke:#f5deb3;stroke-linejoin:miter;stroke-width:1.5;" x="364.009226" xlink:href="#m508eec0f12" y="14.680716"/>
    </g>
   </g>
   <g id="matplotlib.axis_1">
    <g id="xtick_1">
     <g id="line2d_5">
      <path clip-path="url(#pcaf4bd5e69)" d="M 56.84 294.16 
L 56.84 6.125228 
" style="fill:none;stroke:#b0b0b0;stroke-linecap:square;stroke-width:0.8;"/>
     </g>
     <g id="line2d_6">
      <defs>
       <path d="M 0 0 
L 0 3.5 
" id="m37db328874" style="stroke:#000000;stroke-width:0.8;"/>
      </defs>
      <g>
       <use style="stroke:#000000;stroke-width:0.8;" x="56.84" xlink:href="#m37db328874" y="294.16"/>
      </g>
     </g>
     <g id="text_1">
      <!-- 0 -->
      <defs>
       <path d="M 31.78125 66.40625 
Q 24.171875 66.40625 20.328125 58.90625 
Q 16.5 51.421875 16.5 36.375 
Q 16.5 21.390625 20.328125 13.890625 
Q 24.171875 6.390625 31.78125 6.390625 
Q 39.453125 6.390625 43.28125 13.890625 
Q 47.125 21.390625 47.125 36.375 
Q 47.125 51.421875 43.28125 58.90625 
Q 39.453125 66.40625 31.78125 66.40625 
M 31.78125 74.21875 
Q 44.046875 74.21875 50.515625 64.515625 
Q 56.984375 54.828125 56.984375 36.375 
Q 56.984375 17.96875 50.515625 8.265625 
Q 44.046875 -1.421875 31.78125 -1.421875 
Q 19.53125 -1.421875 13.0625 8.265625 
Q 6.59375 17.96875 6.59375 36.375 
Q 6.59375 54.828125 13.0625 64.515625 
Q 19.53125 74.21875 31.78125 74.21875 
" id="DejaVuSans-30"/>
      </defs>
      <g transform="translate(50.4775 316.356875)scale(0.2 -0.2)">
       <use xlink:href="#DejaVuSans-30"/>
      </g>
     </g>
    </g>
    <g id="xtick_2">
     <g id="line2d_7">
      <path clip-path="url(#pcaf4bd5e69)" d="M 135.905438 294.16 
L 135.905438 6.125228 
" style="fill:none;stroke:#b0b0b0;stroke-linecap:square;stroke-width:0.8;"/>
     </g>
     <g id="line2d_8">
      <g>
       <use style="stroke:#000000;stroke-width:0.8;" x="135.905438" xlink:href="#m37db328874" y="294.16"/>
      </g>
     </g>
     <g id="text_2">
      <!-- 2 -->
      <defs>
       <path d="M 19.1875 8.296875 
L 53.609375 8.296875 
L 53.609375 0 
L 7.328125 0 
L 7.328125 8.296875 
Q 12.9375 14.109375 22.625 23.890625 
Q 32.328125 33.6875 34.8125 36.53125 
Q 39.546875 41.84375 41.421875 45.53125 
Q 43.3125 49.21875 43.3125 52.78125 
Q 43.3125 58.59375 39.234375 62.25 
Q 35.15625 65.921875 28.609375 65.921875 
Q 23.96875 65.921875 18.8125 64.3125 
Q 13.671875 62.703125 7.8125 59.421875 
L 7.8125 69.390625 
Q 13.765625 71.78125 18.9375 73 
Q 24.125 74.21875 28.421875 74.21875 
Q 39.75 74.21875 46.484375 68.546875 
Q 53.21875 62.890625 53.21875 53.421875 
Q 53.21875 48.921875 51.53125 44.890625 
Q 49.859375 40.875 45.40625 35.40625 
Q 44.1875 33.984375 37.640625 27.21875 
Q 31.109375 20.453125 19.1875 8.296875 
" id="DejaVuSans-32"/>
      </defs>
      <g transform="translate(129.542938 316.356875)scale(0.2 -0.2)">
       <use xlink:href="#DejaVuSans-32"/>
      </g>
     </g>
    </g>
    <g id="xtick_3">
     <g id="line2d_9">
      <path clip-path="url(#pcaf4bd5e69)" d="M 214.970876 294.16 
L 214.970876 6.125228 
" style="fill:none;stroke:#b0b0b0;stroke-linecap:square;stroke-width:0.8;"/>
     </g>
     <g id="line2d_10">
      <g>
       <use style="stroke:#000000;stroke-width:0.8;" x="214.970876" xlink:href="#m37db328874" y="294.16"/>
      </g>
     </g>
     <g id="text_3">
      <!-- 4 -->
      <defs>
       <path d="M 37.796875 64.3125 
L 12.890625 25.390625 
L 37.796875 25.390625 
z
M 35.203125 72.90625 
L 47.609375 72.90625 
L 47.609375 25.390625 
L 58.015625 25.390625 
L 58.015625 17.1875 
L 47.609375 17.1875 
L 47.609375 0 
L 37.796875 0 
L 37.796875 17.1875 
L 4.890625 17.1875 
L 4.890625 26.703125 
z
" id="DejaVuSans-34"/>
      </defs>
      <g transform="translate(208.608376 316.356875)scale(0.2 -0.2)">
       <use xlink:href="#DejaVuSans-34"/>
      </g>
     </g>
    </g>
    <g id="xtick_4">
     <g id="line2d_11">
      <path clip-path="url(#pcaf4bd5e69)" d="M 294.036313 294.16 
L 294.036313 6.125228 
" style="fill:none;stroke:#b0b0b0;stroke-linecap:square;stroke-width:0.8;"/>
     </g>
     <g id="line2d_12">
      <g>
       <use style="stroke:#000000;stroke-width:0.8;" x="294.036313" xlink:href="#m37db328874" y="294.16"/>
      </g>
     </g>
     <g id="text_4">
      <!-- 6 -->
      <defs>
       <path d="M 33.015625 40.375 
Q 26.375 40.375 22.484375 35.828125 
Q 18.609375 31.296875 18.609375 23.390625 
Q 18.609375 15.53125 22.484375 10.953125 
Q 26.375 6.390625 33.015625 6.390625 
Q 39.65625 6.390625 43.53125 10.953125 
Q 47.40625 15.53125 47.40625 23.390625 
Q 47.40625 31.296875 43.53125 35.828125 
Q 39.65625 40.375 33.015625 40.375 
M 52.59375 71.296875 
L 52.59375 62.3125 
Q 48.875 64.0625 45.09375 64.984375 
Q 41.3125 65.921875 37.59375 65.921875 
Q 27.828125 65.921875 22.671875 59.328125 
Q 17.53125 52.734375 16.796875 39.40625 
Q 19.671875 43.65625 24.015625 45.921875 
Q 28.375 48.1875 33.59375 48.1875 
Q 44.578125 48.1875 50.953125 41.515625 
Q 57.328125 34.859375 57.328125 23.390625 
Q 57.328125 12.15625 50.6875 5.359375 
Q 44.046875 -1.421875 33.015625 -1.421875 
Q 20.359375 -1.421875 13.671875 8.265625 
Q 6.984375 17.96875 6.984375 36.375 
Q 6.984375 53.65625 15.1875 63.9375 
Q 23.390625 74.21875 37.203125 74.21875 
Q 40.921875 74.21875 44.703125 73.484375 
Q 48.484375 72.75 52.59375 71.296875 
" id="DejaVuSans-36"/>
      </defs>
      <g transform="translate(287.673813 316.356875)scale(0.2 -0.2)">
       <use xlink:href="#DejaVuSans-36"/>
      </g>
     </g>
    </g>
    <g id="xtick_5">
     <g id="line2d_13">
      <path clip-path="url(#pcaf4bd5e69)" d="M 373.101751 294.16 
L 373.101751 6.125228 
" style="fill:none;stroke:#b0b0b0;stroke-linecap:square;stroke-width:0.8;"/>
     </g>
     <g id="line2d_14">
      <g>
       <use style="stroke:#000000;stroke-width:0.8;" x="373.101751" xlink:href="#m37db328874" y="294.16"/>
      </g>
     </g>
     <g id="text_5">
      <!-- 8 -->
      <defs>
       <path d="M 31.78125 34.625 
Q 24.75 34.625 20.71875 30.859375 
Q 16.703125 27.09375 16.703125 20.515625 
Q 16.703125 13.921875 20.71875 10.15625 
Q 24.75 6.390625 31.78125 6.390625 
Q 38.8125 6.390625 42.859375 10.171875 
Q 46.921875 13.96875 46.921875 20.515625 
Q 46.921875 27.09375 42.890625 30.859375 
Q 38.875 34.625 31.78125 34.625 
M 21.921875 38.8125 
Q 15.578125 40.375 12.03125 44.71875 
Q 8.5 49.078125 8.5 55.328125 
Q 8.5 64.0625 14.71875 69.140625 
Q 20.953125 74.21875 31.78125 74.21875 
Q 42.671875 74.21875 48.875 69.140625 
Q 55.078125 64.0625 55.078125 55.328125 
Q 55.078125 49.078125 51.53125 44.71875 
Q 48 40.375 41.703125 38.8125 
Q 48.828125 37.15625 52.796875 32.3125 
Q 56.78125 27.484375 56.78125 20.515625 
Q 56.78125 9.90625 50.3125 4.234375 
Q 43.84375 -1.421875 31.78125 -1.421875 
Q 19.734375 -1.421875 13.25 4.234375 
Q 6.78125 9.90625 6.78125 20.515625 
Q 6.78125 27.484375 10.78125 32.3125 
Q 14.796875 37.15625 21.921875 38.8125 
M 18.3125 54.390625 
Q 18.3125 48.734375 21.84375 45.5625 
Q 25.390625 42.390625 31.78125 42.390625 
Q 38.140625 42.390625 41.71875 45.5625 
Q 45.3125 48.734375 45.3125 54.390625 
Q 45.3125 60.0625 41.71875 63.234375 
Q 38.140625 66.40625 31.78125 66.40625 
Q 25.390625 66.40625 21.84375 63.234375 
Q 18.3125 60.0625 18.3125 54.390625 
" id="DejaVuSans-38"/>
      </defs>
      <g transform="translate(366.739251 316.356875)scale(0.2 -0.2)">
       <use xlink:href="#DejaVuSans-38"/>
      </g>
     </g>
    </g>
    <g id="xtick_6">
     <g id="line2d_15">
      <defs>
       <path d="M 0 0 
L 0 2 
" id="me2f8b91db6" style="stroke:#000000;stroke-width:0.6;"/>
      </defs>
      <g>
       <use style="stroke:#000000;stroke-width:0.6;" x="68.740534" xlink:href="#me2f8b91db6" y="294.16"/>
      </g>
     </g>
    </g>
    <g id="xtick_7">
     <g id="line2d_16">
      <g>
       <use style="stroke:#000000;stroke-width:0.6;" x="80.641068" xlink:href="#me2f8b91db6" y="294.16"/>
      </g>
     </g>
    </g>
    <g id="xtick_8">
     <g id="line2d_17">
      <g>
       <use style="stroke:#000000;stroke-width:0.6;" x="87.602435" xlink:href="#me2f8b91db6" y="294.16"/>
      </g>
     </g>
    </g>
    <g id="xtick_9">
     <g id="line2d_18">
      <g>
       <use style="stroke:#000000;stroke-width:0.6;" x="92.541603" xlink:href="#me2f8b91db6" y="294.16"/>
      </g>
     </g>
    </g>
    <g id="xtick_10">
     <g id="line2d_19">
      <g>
       <use style="stroke:#000000;stroke-width:0.6;" x="147.805972" xlink:href="#me2f8b91db6" y="294.16"/>
      </g>
     </g>
    </g>
    <g id="xtick_11">
     <g id="line2d_20">
      <g>
       <use style="stroke:#000000;stroke-width:0.6;" x="159.706506" xlink:href="#me2f8b91db6" y="294.16"/>
      </g>
     </g>
    </g>
    <g id="xtick_12">
     <g id="line2d_21">
      <g>
       <use style="stroke:#000000;stroke-width:0.6;" x="166.667872" xlink:href="#me2f8b91db6" y="294.16"/>
      </g>
     </g>
    </g>
    <g id="xtick_13">
     <g id="line2d_22">
      <g>
       <use style="stroke:#000000;stroke-width:0.6;" x="171.60704" xlink:href="#me2f8b91db6" y="294.16"/>
      </g>
     </g>
    </g>
    <g id="xtick_14">
     <g id="line2d_23">
      <g>
       <use style="stroke:#000000;stroke-width:0.6;" x="226.87141" xlink:href="#me2f8b91db6" y="294.16"/>
      </g>
     </g>
    </g>
    <g id="xtick_15">
     <g id="line2d_24">
      <g>
       <use style="stroke:#000000;stroke-width:0.6;" x="238.771944" xlink:href="#me2f8b91db6" y="294.16"/>
      </g>
     </g>
    </g>
    <g id="xtick_16">
     <g id="line2d_25">
      <g>
       <use style="stroke:#000000;stroke-width:0.6;" x="245.73331" xlink:href="#me2f8b91db6" y="294.16"/>
      </g>
     </g>
    </g>
    <g id="xtick_17">
     <g id="line2d_26">
      <g>
       <use style="stroke:#000000;stroke-width:0.6;" x="250.672478" xlink:href="#me2f8b91db6" y="294.16"/>
      </g>
     </g>
    </g>
    <g id="xtick_18">
     <g id="line2d_27">
      <g>
       <use style="stroke:#000000;stroke-width:0.6;" x="305.936848" xlink:href="#me2f8b91db6" y="294.16"/>
      </g>
     </g>
    </g>
    <g id="xtick_19">
     <g id="line2d_28">
      <g>
       <use style="stroke:#000000;stroke-width:0.6;" x="317.837382" xlink:href="#me2f8b91db6" y="294.16"/>
      </g>
     </g>
    </g>
    <g id="xtick_20">
     <g id="line2d_29">
      <g>
       <use style="stroke:#000000;stroke-width:0.6;" x="324.798748" xlink:href="#me2f8b91db6" y="294.16"/>
      </g>
     </g>
    </g>
    <g id="xtick_21">
     <g id="line2d_30">
      <g>
       <use style="stroke:#000000;stroke-width:0.6;" x="329.737916" xlink:href="#me2f8b91db6" y="294.16"/>
      </g>
     </g>
    </g>
    <g id="xtick_22">
     <g id="line2d_31">
      <g>
       <use style="stroke:#000000;stroke-width:0.6;" x="385.002285" xlink:href="#me2f8b91db6" y="294.16"/>
      </g>
     </g>
    </g>
    <g id="xtick_23">
     <g id="line2d_32">
      <g>
       <use style="stroke:#000000;stroke-width:0.6;" x="396.90282" xlink:href="#me2f8b91db6" y="294.16"/>
      </g>
     </g>
    </g>
    <g id="text_6">
     <!-- log10(# f-evals / dimension) -->
     <defs>
      <path d="M 9.421875 75.984375 
L 18.40625 75.984375 
L 18.40625 0 
L 9.421875 0 
z
" id="DejaVuSans-6c"/>
      <path d="M 30.609375 48.390625 
Q 23.390625 48.390625 19.1875 42.75 
Q 14.984375 37.109375 14.984375 27.296875 
Q 14.984375 17.484375 19.15625 11.84375 
Q 23.34375 6.203125 30.609375 6.203125 
Q 37.796875 6.203125 41.984375 11.859375 
Q 46.1875 17.53125 46.1875 27.296875 
Q 46.1875 37.015625 41.984375 42.703125 
Q 37.796875 48.390625 30.609375 48.390625 
M 30.609375 56 
Q 42.328125 56 49.015625 48.375 
Q 55.71875 40.765625 55.71875 27.296875 
Q 55.71875 13.875 49.015625 6.21875 
Q 42.328125 -1.421875 30.609375 -1.421875 
Q 18.84375 -1.421875 12.171875 6.21875 
Q 5.515625 13.875 5.515625 27.296875 
Q 5.515625 40.765625 12.171875 48.375 
Q 18.84375 56 30.609375 56 
" id="DejaVuSans-6f"/>
      <path d="M 45.40625 27.984375 
Q 45.40625 37.75 41.375 43.109375 
Q 37.359375 48.484375 30.078125 48.484375 
Q 22.859375 48.484375 18.828125 43.109375 
Q 14.796875 37.75 14.796875 27.984375 
Q 14.796875 18.265625 18.828125 12.890625 
Q 22.859375 7.515625 30.078125 7.515625 
Q 37.359375 7.515625 41.375 12.890625 
Q 45.40625 18.265625 45.40625 27.984375 
M 54.390625 6.78125 
Q 54.390625 -7.171875 48.1875 -13.984375 
Q 42 -20.796875 29.203125 -20.796875 
Q 24.46875 -20.796875 20.265625 -20.09375 
Q 16.0625 -19.390625 12.109375 -17.921875 
L 12.109375 -9.1875 
Q 16.0625 -11.328125 19.921875 -12.34375 
Q 23.78125 -13.375 27.78125 -13.375 
Q 36.625 -13.375 41.015625 -8.765625 
Q 45.40625 -4.15625 45.40625 5.171875 
L 45.40625 9.625 
Q 42.625 4.78125 38.28125 2.390625 
Q 33.9375 0 27.875 0 
Q 17.828125 0 11.671875 7.65625 
Q 5.515625 15.328125 5.515625 27.984375 
Q 5.515625 40.671875 11.671875 48.328125 
Q 17.828125 56 27.875 56 
Q 33.9375 56 38.28125 53.609375 
Q 42.625 51.21875 45.40625 46.390625 
L 45.40625 54.6875 
L 54.390625 54.6875 
z
" id="DejaVuSans-67"/>
      <path d="M 12.40625 8.296875 
L 28.515625 8.296875 
L 28.515625 63.921875 
L 10.984375 60.40625 
L 10.984375 69.390625 
L 28.421875 72.90625 
L 38.28125 72.90625 
L 38.28125 8.296875 
L 54.390625 8.296875 
L 54.390625 0 
L 12.40625 0 
z
" id="DejaVuSans-31"/>
      <path d="M 31 75.875 
Q 24.46875 64.65625 21.28125 53.65625 
Q 18.109375 42.671875 18.109375 31.390625 
Q 18.109375 20.125 21.3125 9.0625 
Q 24.515625 -2 31 -13.1875 
L 23.1875 -13.1875 
Q 15.875 -1.703125 12.234375 9.375 
Q 8.59375 20.453125 8.59375 31.390625 
Q 8.59375 42.28125 12.203125 53.3125 
Q 15.828125 64.359375 23.1875 75.875 
z
" id="DejaVuSans-28"/>
      <path d="M 51.125 44 
L 36.921875 44 
L 32.8125 27.6875 
L 47.125 27.6875 
z
M 43.796875 71.78125 
L 38.71875 51.515625 
L 52.984375 51.515625 
L 58.109375 71.78125 
L 65.921875 71.78125 
L 60.890625 51.515625 
L 76.125 51.515625 
L 76.125 44 
L 58.984375 44 
L 54.984375 27.6875 
L 70.515625 27.6875 
L 70.515625 20.21875 
L 53.078125 20.21875 
L 48 0 
L 40.1875 0 
L 45.21875 20.21875 
L 30.90625 20.21875 
L 25.875 0 
L 18.015625 0 
L 23.09375 20.21875 
L 7.71875 20.21875 
L 7.71875 27.6875 
L 24.90625 27.6875 
L 29 44 
L 13.28125 44 
L 13.28125 51.515625 
L 30.90625 51.515625 
L 35.890625 71.78125 
z
" id="DejaVuSans-23"/>
      <path id="DejaVuSans-20"/>
      <path d="M 37.109375 75.984375 
L 37.109375 68.5 
L 28.515625 68.5 
Q 23.6875 68.5 21.796875 66.546875 
Q 19.921875 64.59375 19.921875 59.515625 
L 19.921875 54.6875 
L 34.71875 54.6875 
L 34.71875 47.703125 
L 19.921875 47.703125 
L 19.921875 0 
L 10.890625 0 
L 10.890625 47.703125 
L 2.296875 47.703125 
L 2.296875 54.6875 
L 10.890625 54.6875 
L 10.890625 58.5 
Q 10.890625 67.625 15.140625 71.796875 
Q 19.390625 75.984375 28.609375 75.984375 
z
" id="DejaVuSans-66"/>
      <path d="M 4.890625 31.390625 
L 31.203125 31.390625 
L 31.203125 23.390625 
L 4.890625 23.390625 
z
" id="DejaVuSans-2d"/>
      <path d="M 56.203125 29.59375 
L 56.203125 25.203125 
L 14.890625 25.203125 
Q 15.484375 15.921875 20.484375 11.0625 
Q 25.484375 6.203125 34.421875 6.203125 
Q 39.59375 6.203125 44.453125 7.46875 
Q 49.3125 8.734375 54.109375 11.28125 
L 54.109375 2.78125 
Q 49.265625 0.734375 44.1875 -0.34375 
Q 39.109375 -1.421875 33.890625 -1.421875 
Q 20.796875 -1.421875 13.15625 6.1875 
Q 5.515625 13.8125 5.515625 26.8125 
Q 5.515625 40.234375 12.765625 48.109375 
Q 20.015625 56 32.328125 56 
Q 43.359375 56 49.78125 48.890625 
Q 56.203125 41.796875 56.203125 29.59375 
M 47.21875 32.234375 
Q 47.125 39.59375 43.09375 43.984375 
Q 39.0625 48.390625 32.421875 48.390625 
Q 24.90625 48.390625 20.390625 44.140625 
Q 15.875 39.890625 15.1875 32.171875 
z
" id="DejaVuSans-65"/>
      <path d="M 2.984375 54.6875 
L 12.5 54.6875 
L 29.59375 8.796875 
L 46.6875 54.6875 
L 56.203125 54.6875 
L 35.6875 0 
L 23.484375 0 
z
" id="DejaVuSans-76"/>
      <path d="M 34.28125 27.484375 
Q 23.390625 27.484375 19.1875 25 
Q 14.984375 22.515625 14.984375 16.5 
Q 14.984375 11.71875 18.140625 8.90625 
Q 21.296875 6.109375 26.703125 6.109375 
Q 34.1875 6.109375 38.703125 11.40625 
Q 43.21875 16.703125 43.21875 25.484375 
L 43.21875 27.484375 
z
M 52.203125 31.203125 
L 52.203125 0 
L 43.21875 0 
L 43.21875 8.296875 
Q 40.140625 3.328125 35.546875 0.953125 
Q 30.953125 -1.421875 24.3125 -1.421875 
Q 15.921875 -1.421875 10.953125 3.296875 
Q 6 8.015625 6 15.921875 
Q 6 25.140625 12.171875 29.828125 
Q 18.359375 34.515625 30.609375 34.515625 
L 43.21875 34.515625 
L 43.21875 35.40625 
Q 43.21875 41.609375 39.140625 45 
Q 35.0625 48.390625 27.6875 48.390625 
Q 23 48.390625 18.546875 47.265625 
Q 14.109375 46.140625 10.015625 43.890625 
L 10.015625 52.203125 
Q 14.9375 54.109375 19.578125 55.046875 
Q 24.21875 56 28.609375 56 
Q 40.484375 56 46.34375 49.84375 
Q 52.203125 43.703125 52.203125 31.203125 
" id="DejaVuSans-61"/>
      <path d="M 44.28125 53.078125 
L 44.28125 44.578125 
Q 40.484375 46.53125 36.375 47.5 
Q 32.28125 48.484375 27.875 48.484375 
Q 21.1875 48.484375 17.84375 46.4375 
Q 14.5 44.390625 14.5 40.28125 
Q 14.5 37.15625 16.890625 35.375 
Q 19.28125 33.59375 26.515625 31.984375 
L 29.59375 31.296875 
Q 39.15625 29.25 43.1875 25.515625 
Q 47.21875 21.78125 47.21875 15.09375 
Q 47.21875 7.46875 41.1875 3.015625 
Q 35.15625 -1.421875 24.609375 -1.421875 
Q 20.21875 -1.421875 15.453125 -0.5625 
Q 10.6875 0.296875 5.421875 2 
L 5.421875 11.28125 
Q 10.40625 8.6875 15.234375 7.390625 
Q 20.0625 6.109375 24.8125 6.109375 
Q 31.15625 6.109375 34.5625 8.28125 
Q 37.984375 10.453125 37.984375 14.40625 
Q 37.984375 18.0625 35.515625 20.015625 
Q 33.0625 21.96875 24.703125 23.78125 
L 21.578125 24.515625 
Q 13.234375 26.265625 9.515625 29.90625 
Q 5.8125 33.546875 5.8125 39.890625 
Q 5.8125 47.609375 11.28125 51.796875 
Q 16.75 56 26.8125 56 
Q 31.78125 56 36.171875 55.265625 
Q 40.578125 54.546875 44.28125 53.078125 
" id="DejaVuSans-73"/>
      <path d="M 25.390625 72.90625 
L 33.6875 72.90625 
L 8.296875 -9.28125 
L 0 -9.28125 
z
" id="DejaVuSans-2f"/>
      <path d="M 45.40625 46.390625 
L 45.40625 75.984375 
L 54.390625 75.984375 
L 54.390625 0 
L 45.40625 0 
L 45.40625 8.203125 
Q 42.578125 3.328125 38.25 0.953125 
Q 33.9375 -1.421875 27.875 -1.421875 
Q 17.96875 -1.421875 11.734375 6.484375 
Q 5.515625 14.40625 5.515625 27.296875 
Q 5.515625 40.1875 11.734375 48.09375 
Q 17.96875 56 27.875 56 
Q 33.9375 56 38.25 53.625 
Q 42.578125 51.265625 45.40625 46.390625 
M 14.796875 27.296875 
Q 14.796875 17.390625 18.875 11.75 
Q 22.953125 6.109375 30.078125 6.109375 
Q 37.203125 6.109375 41.296875 11.75 
Q 45.40625 17.390625 45.40625 27.296875 
Q 45.40625 37.203125 41.296875 42.84375 
Q 37.203125 48.484375 30.078125 48.484375 
Q 22.953125 48.484375 18.875 42.84375 
Q 14.796875 37.203125 14.796875 27.296875 
" id="DejaVuSans-64"/>
      <path d="M 9.421875 54.6875 
L 18.40625 54.6875 
L 18.40625 0 
L 9.421875 0 
z
M 9.421875 75.984375 
L 18.40625 75.984375 
L 18.40625 64.59375 
L 9.421875 64.59375 
z
" id="DejaVuSans-69"/>
      <path d="M 52 44.1875 
Q 55.375 50.25 60.0625 53.125 
Q 64.75 56 71.09375 56 
Q 79.640625 56 84.28125 50.015625 
Q 88.921875 44.046875 88.921875 33.015625 
L 88.921875 0 
L 79.890625 0 
L 79.890625 32.71875 
Q 79.890625 40.578125 77.09375 44.375 
Q 74.3125 48.1875 68.609375 48.1875 
Q 61.625 48.1875 57.5625 43.546875 
Q 53.515625 38.921875 53.515625 30.90625 
L 53.515625 0 
L 44.484375 0 
L 44.484375 32.71875 
Q 44.484375 40.625 41.703125 44.40625 
Q 38.921875 48.1875 33.109375 48.1875 
Q 26.21875 48.1875 22.15625 43.53125 
Q 18.109375 38.875 18.109375 30.90625 
L 18.109375 0 
L 9.078125 0 
L 9.078125 54.6875 
L 18.109375 54.6875 
L 18.109375 46.1875 
Q 21.1875 51.21875 25.484375 53.609375 
Q 29.78125 56 35.6875 56 
Q 41.65625 56 45.828125 52.96875 
Q 50 49.953125 52 44.1875 
" id="DejaVuSans-6d"/>
      <path d="M 54.890625 33.015625 
L 54.890625 0 
L 45.90625 0 
L 45.90625 32.71875 
Q 45.90625 40.484375 42.875 44.328125 
Q 39.84375 48.1875 33.796875 48.1875 
Q 26.515625 48.1875 22.3125 43.546875 
Q 18.109375 38.921875 18.109375 30.90625 
L 18.109375 0 
L 9.078125 0 
L 9.078125 54.6875 
L 18.109375 54.6875 
L 18.109375 46.1875 
Q 21.34375 51.125 25.703125 53.5625 
Q 30.078125 56 35.796875 56 
Q 45.21875 56 50.046875 50.171875 
Q 54.890625 44.34375 54.890625 33.015625 
" id="DejaVuSans-6e"/>
      <path d="M 8.015625 75.875 
L 15.828125 75.875 
Q 23.140625 64.359375 26.78125 53.3125 
Q 30.421875 42.28125 30.421875 31.390625 
Q 30.421875 20.453125 26.78125 9.375 
Q 23.140625 -1.703125 15.828125 -13.1875 
L 8.015625 -13.1875 
Q 14.5 -2 17.703125 9.0625 
Q 20.90625 20.125 20.90625 31.390625 
Q 20.90625 42.671875 17.703125 53.65625 
Q 14.5 64.65625 8.015625 75.875 
" id="DejaVuSans-29"/>
     </defs>
     <g transform="translate(107.571219 337.433594)scale(0.17 -0.17)">
      <use xlink:href="#DejaVuSans-6c"/>
      <use x="27.783203" xlink:href="#DejaVuSans-6f"/>
      <use x="88.964844" xlink:href="#DejaVuSans-67"/>
      <use x="152.441406" xlink:href="#DejaVuSans-31"/>
      <use x="216.064453" xlink:href="#DejaVuSans-30"/>
      <use x="279.6875" xlink:href="#DejaVuSans-28"/>
      <use x="318.701172" xlink:href="#DejaVuSans-23"/>
      <use x="402.490234" xlink:href="#DejaVuSans-20"/>
      <use x="434.277344" xlink:href="#DejaVuSans-66"/>
      <use x="469.404297" xlink:href="#DejaVuSans-2d"/>
      <use x="505.488281" xlink:href="#DejaVuSans-65"/>
      <use x="567.011719" xlink:href="#DejaVuSans-76"/>
      <use x="626.191406" xlink:href="#DejaVuSans-61"/>
      <use x="687.470703" xlink:href="#DejaVuSans-6c"/>
      <use x="715.253906" xlink:href="#DejaVuSans-73"/>
      <use x="767.353516" xlink:href="#DejaVuSans-20"/>
      <use x="799.140625" xlink:href="#DejaVuSans-2f"/>
      <use x="832.832031" xlink:href="#DejaVuSans-20"/>
      <use x="864.619141" xlink:href="#DejaVuSans-64"/>
      <use x="928.095703" xlink:href="#DejaVuSans-69"/>
      <use x="955.878906" xlink:href="#DejaVuSans-6d"/>
      <use x="1053.291016" xlink:href="#DejaVuSans-65"/>
      <use x="1114.814453" xlink:href="#DejaVuSans-6e"/>
      <use x="1178.193359" xlink:href="#DejaVuSans-73"/>
      <use x="1230.292969" xlink:href="#DejaVuSans-69"/>
      <use x="1258.076172" xlink:href="#DejaVuSans-6f"/>
      <use x="1319.257812" xlink:href="#DejaVuSans-6e"/>
      <use x="1382.636719" xlink:href="#DejaVuSans-29"/>
     </g>
    </g>
   </g>
   <g id="matplotlib.axis_2">
    <g id="ytick_1">
     <g id="line2d_33">
      <path clip-path="url(#pcaf4bd5e69)" d="M 56.84 294.16 
L 399.984 294.16 
" style="fill:none;stroke:#b0b0b0;stroke-linecap:square;stroke-width:0.8;"/>
     </g>
     <g id="line2d_34">
      <defs>
       <path d="M 0 0 
L -3.5 0 
" id="m1109c150ea" style="stroke:#000000;stroke-width:0.8;"/>
      </defs>
      <g>
       <use style="stroke:#000000;stroke-width:0.8;" x="56.84" xlink:href="#m1109c150ea" y="294.16"/>
      </g>
     </g>
     <g id="text_7">
      <!-- 0.0 -->
      <defs>
       <path d="M 10.6875 12.40625 
L 21 12.40625 
L 21 0 
L 10.6875 0 
z
" id="DejaVuSans-2e"/>
      </defs>
      <g transform="translate(24.395 300.23875)scale(0.16 -0.16)">
       <use xlink:href="#DejaVuSans-30"/>
       <use x="63.623047" xlink:href="#DejaVuSans-2e"/>
       <use x="95.410156" xlink:href="#DejaVuSans-30"/>
      </g>
     </g>
    </g>
    <g id="ytick_2">
     <g id="line2d_35">
      <path clip-path="url(#pcaf4bd5e69)" d="M 56.84 237.123411 
L 399.984 237.123411 
" style="fill:none;stroke:#b0b0b0;stroke-linecap:square;stroke-width:0.8;"/>
     </g>
     <g id="line2d_36">
      <g>
       <use style="stroke:#000000;stroke-width:0.8;" x="56.84" xlink:href="#m1109c150ea" y="237.123411"/>
      </g>
     </g>
     <g id="text_8">
      <!-- 0.2 -->
      <g transform="translate(24.395 243.202161)scale(0.16 -0.16)">
       <use xlink:href="#DejaVuSans-30"/>
       <use x="63.623047" xlink:href="#DejaVuSans-2e"/>
       <use x="95.410156" xlink:href="#DejaVuSans-32"/>
      </g>
     </g>
    </g>
    <g id="ytick_3">
     <g id="line2d_37">
      <path clip-path="url(#pcaf4bd5e69)" d="M 56.84 180.086823 
L 399.984 180.086823 
" style="fill:none;stroke:#b0b0b0;stroke-linecap:square;stroke-width:0.8;"/>
     </g>
     <g id="line2d_38">
      <g>
       <use style="stroke:#000000;stroke-width:0.8;" x="56.84" xlink:href="#m1109c150ea" y="180.086823"/>
      </g>
     </g>
     <g id="text_9">
      <!-- 0.4 -->
      <g transform="translate(24.395 186.165573)scale(0.16 -0.16)">
       <use xlink:href="#DejaVuSans-30"/>
       <use x="63.623047" xlink:href="#DejaVuSans-2e"/>
       <use x="95.410156" xlink:href="#DejaVuSans-34"/>
      </g>
     </g>
    </g>
    <g id="ytick_4">
     <g id="line2d_39">
      <path clip-path="url(#pcaf4bd5e69)" d="M 56.84 123.050234 
L 399.984 123.050234 
" style="fill:none;stroke:#b0b0b0;stroke-linecap:square;stroke-width:0.8;"/>
     </g>
     <g id="line2d_40">
      <g>
       <use style="stroke:#000000;stroke-width:0.8;" x="56.84" xlink:href="#m1109c150ea" y="123.050234"/>
      </g>
     </g>
     <g id="text_10">
      <!-- 0.6 -->
      <g transform="translate(24.395 129.128984)scale(0.16 -0.16)">
       <use xlink:href="#DejaVuSans-30"/>
       <use x="63.623047" xlink:href="#DejaVuSans-2e"/>
       <use x="95.410156" xlink:href="#DejaVuSans-36"/>
      </g>
     </g>
    </g>
    <g id="ytick_5">
     <g id="line2d_41">
      <path clip-path="url(#pcaf4bd5e69)" d="M 56.84 66.013646 
L 399.984 66.013646 
" style="fill:none;stroke:#b0b0b0;stroke-linecap:square;stroke-width:0.8;"/>
     </g>
     <g id="line2d_42">
      <g>
       <use style="stroke:#000000;stroke-width:0.8;" x="56.84" xlink:href="#m1109c150ea" y="66.013646"/>
      </g>
     </g>
     <g id="text_11">
      <!-- 0.8 -->
      <g transform="translate(24.395 72.092396)scale(0.16 -0.16)">
       <use xlink:href="#DejaVuSans-30"/>
       <use x="63.623047" xlink:href="#DejaVuSans-2e"/>
       <use x="95.410156" xlink:href="#DejaVuSans-38"/>
      </g>
     </g>
    </g>
    <g id="ytick_6">
     <g id="line2d_43">
      <path clip-path="url(#pcaf4bd5e69)" d="M 56.84 8.977057 
L 399.984 8.977057 
" style="fill:none;stroke:#b0b0b0;stroke-linecap:square;stroke-width:0.8;"/>
     </g>
     <g id="line2d_44">
      <g>
       <use style="stroke:#000000;stroke-width:0.8;" x="56.84" xlink:href="#m1109c150ea" y="8.977057"/>
      </g>
     </g>
     <g id="text_12">
      <!-- 1.0 -->
      <g transform="translate(24.395 15.055807)scale(0.16 -0.16)">
       <use xlink:href="#DejaVuSans-31"/>
       <use x="63.623047" xlink:href="#DejaVuSans-2e"/>
       <use x="95.410156" xlink:href="#DejaVuSans-30"/>
      </g>
     </g>
    </g>
    <g id="text_13">
     <!-- Fraction of function,target pairs -->
     <defs>
      <path d="M 9.8125 72.90625 
L 51.703125 72.90625 
L 51.703125 64.59375 
L 19.671875 64.59375 
L 19.671875 43.109375 
L 48.578125 43.109375 
L 48.578125 34.8125 
L 19.671875 34.8125 
L 19.671875 0 
L 9.8125 0 
z
" id="DejaVuSans-46"/>
      <path d="M 41.109375 46.296875 
Q 39.59375 47.171875 37.8125 47.578125 
Q 36.03125 48 33.890625 48 
Q 26.265625 48 22.1875 43.046875 
Q 18.109375 38.09375 18.109375 28.8125 
L 18.109375 0 
L 9.078125 0 
L 9.078125 54.6875 
L 18.109375 54.6875 
L 18.109375 46.1875 
Q 20.953125 51.171875 25.484375 53.578125 
Q 30.03125 56 36.53125 56 
Q 37.453125 56 38.578125 55.875 
Q 39.703125 55.765625 41.0625 55.515625 
z
" id="DejaVuSans-72"/>
      <path d="M 48.78125 52.59375 
L 48.78125 44.1875 
Q 44.96875 46.296875 41.140625 47.34375 
Q 37.3125 48.390625 33.40625 48.390625 
Q 24.65625 48.390625 19.8125 42.84375 
Q 14.984375 37.3125 14.984375 27.296875 
Q 14.984375 17.28125 19.8125 11.734375 
Q 24.65625 6.203125 33.40625 6.203125 
Q 37.3125 6.203125 41.140625 7.25 
Q 44.96875 8.296875 48.78125 10.40625 
L 48.78125 2.09375 
Q 45.015625 0.34375 40.984375 -0.53125 
Q 36.96875 -1.421875 32.421875 -1.421875 
Q 20.0625 -1.421875 12.78125 6.34375 
Q 5.515625 14.109375 5.515625 27.296875 
Q 5.515625 40.671875 12.859375 48.328125 
Q 20.21875 56 33.015625 56 
Q 37.15625 56 41.109375 55.140625 
Q 45.0625 54.296875 48.78125 52.59375 
" id="DejaVuSans-63"/>
      <path d="M 18.3125 70.21875 
L 18.3125 54.6875 
L 36.8125 54.6875 
L 36.8125 47.703125 
L 18.3125 47.703125 
L 18.3125 18.015625 
Q 18.3125 11.328125 20.140625 9.421875 
Q 21.96875 7.515625 27.59375 7.515625 
L 36.8125 7.515625 
L 36.8125 0 
L 27.59375 0 
Q 17.1875 0 13.234375 3.875 
Q 9.28125 7.765625 9.28125 18.015625 
L 9.28125 47.703125 
L 2.6875 47.703125 
L 2.6875 54.6875 
L 9.28125 54.6875 
L 9.28125 70.21875 
z
" id="DejaVuSans-74"/>
      <path d="M 8.5 21.578125 
L 8.5 54.6875 
L 17.484375 54.6875 
L 17.484375 21.921875 
Q 17.484375 14.15625 20.5 10.265625 
Q 23.53125 6.390625 29.59375 6.390625 
Q 36.859375 6.390625 41.078125 11.03125 
Q 45.3125 15.671875 45.3125 23.6875 
L 45.3125 54.6875 
L 54.296875 54.6875 
L 54.296875 0 
L 45.3125 0 
L 45.3125 8.40625 
Q 42.046875 3.421875 37.71875 1 
Q 33.40625 -1.421875 27.6875 -1.421875 
Q 18.265625 -1.421875 13.375 4.4375 
Q 8.5 10.296875 8.5 21.578125 
M 31.109375 56 
z
" id="DejaVuSans-75"/>
      <path d="M 11.71875 12.40625 
L 22.015625 12.40625 
L 22.015625 4 
L 14.015625 -11.625 
L 7.71875 -11.625 
L 11.71875 4 
z
" id="DejaVuSans-2c"/>
      <path d="M 18.109375 8.203125 
L 18.109375 -20.796875 
L 9.078125 -20.796875 
L 9.078125 54.6875 
L 18.109375 54.6875 
L 18.109375 46.390625 
Q 20.953125 51.265625 25.265625 53.625 
Q 29.59375 56 35.59375 56 
Q 45.5625 56 51.78125 48.09375 
Q 58.015625 40.1875 58.015625 27.296875 
Q 58.015625 14.40625 51.78125 6.484375 
Q 45.5625 -1.421875 35.59375 -1.421875 
Q 29.59375 -1.421875 25.265625 0.953125 
Q 20.953125 3.328125 18.109375 8.203125 
M 48.6875 27.296875 
Q 48.6875 37.203125 44.609375 42.84375 
Q 40.53125 48.484375 33.40625 48.484375 
Q 26.265625 48.484375 22.1875 42.84375 
Q 18.109375 37.203125 18.109375 27.296875 
Q 18.109375 17.390625 22.1875 11.75 
Q 26.265625 6.109375 33.40625 6.109375 
Q 40.53125 6.109375 44.609375 11.75 
Q 48.6875 17.390625 48.6875 27.296875 
" id="DejaVuSans-70"/>
     </defs>
     <g transform="translate(16.859531 285.281989)rotate(-90)scale(0.17 -0.17)">
      <use xlink:href="#DejaVuSans-46"/>
      <use x="57.410156" xlink:href="#DejaVuSans-72"/>
      <use x="98.523438" xlink:href="#DejaVuSans-61"/>
      <use x="159.802734" xlink:href="#DejaVuSans-63"/>
      <use x="214.783203" xlink:href="#DejaVuSans-74"/>
      <use x="253.992188" xlink:href="#DejaVuSans-69"/>
      <use x="281.775391" xlink:href="#DejaVuSans-6f"/>
      <use x="342.957031" xlink:href="#DejaVuSans-6e"/>
      <use x="406.335938" xlink:href="#DejaVuSans-20"/>
      <use x="438.123047" xlink:href="#DejaVuSans-6f"/>
      <use x="499.304688" xlink:href="#DejaVuSans-66"/>
      <use x="534.509766" xlink:href="#DejaVuSans-20"/>
      <use x="566.296875" xlink:href="#DejaVuSans-66"/>
      <use x="601.501953" xlink:href="#DejaVuSans-75"/>
      <use x="664.880859" xlink:href="#DejaVuSans-6e"/>
      <use x="728.259766" xlink:href="#DejaVuSans-63"/>
      <use x="783.240234" xlink:href="#DejaVuSans-74"/>
      <use x="822.449219" xlink:href="#DejaVuSans-69"/>
      <use x="850.232422" xlink:href="#DejaVuSans-6f"/>
      <use x="911.414062" xlink:href="#DejaVuSans-6e"/>
      <use x="974.792969" xlink:href="#DejaVuSans-2c"/>
      <use x="1006.580078" xlink:href="#DejaVuSans-74"/>
      <use x="1045.789062" xlink:href="#DejaVuSans-61"/>
      <use x="1107.068359" xlink:href="#DejaVuSans-72"/>
      <use x="1148.166016" xlink:href="#DejaVuSans-67"/>
      <use x="1211.642578" xlink:href="#DejaVuSans-65"/>
      <use x="1273.166016" xlink:href="#DejaVuSans-74"/>
      <use x="1312.375" xlink:href="#DejaVuSans-20"/>
      <use x="1344.162109" xlink:href="#DejaVuSans-70"/>
      <use x="1407.638672" xlink:href="#DejaVuSans-61"/>
      <use x="1468.917969" xlink:href="#DejaVuSans-69"/>
      <use x="1496.701172" xlink:href="#DejaVuSans-72"/>
      <use x="1537.814453" xlink:href="#DejaVuSans-73"/>
     </g>
    </g>
   </g>
   <g id="line2d_45">
    <defs>
     <path d="M 0 1.5 
C 0.397805 1.5 0.77937 1.341951 1.06066 1.06066 
C 1.341951 0.77937 1.5 0.397805 1.5 0 
C 1.5 -0.397805 1.341951 -0.77937 1.06066 -1.06066 
C 0.77937 -1.341951 0.397805 -1.5 0 -1.5 
C -0.397805 -1.5 -0.77937 -1.341951 -1.06066 -1.06066 
C -1.341951 -0.77937 -1.5 -0.397805 -1.5 0 
C -1.5 0.397805 -1.341951 0.77937 -1.06066 1.06066 
C -0.77937 1.341951 -0.397805 1.5 0 1.5 
z
" id="m2f0ab8c1c9" style="stroke:#f5deb3;"/>
    </defs>
    <g>
     <use style="fill:#f5deb3;stroke:#f5deb3;" x="336.007253" xlink:href="#m2f0ab8c1c9" y="92.565161"/>
     <use style="fill:#f5deb3;stroke:#f5deb3;" x="336.007253" xlink:href="#m2f0ab8c1c9" y="92.565161"/>
    </g>
   </g>
   <g id="line2d_46">
    <defs>
     <path d="M 0 1.5 
C 0.397805 1.5 0.77937 1.341951 1.06066 1.06066 
C 1.341951 0.77937 1.5 0.397805 1.5 0 
C 1.5 -0.397805 1.341951 -0.77937 1.06066 -1.06066 
C 0.77937 -1.341951 0.397805 -1.5 0 -1.5 
C -0.397805 -1.5 -0.77937 -1.341951 -1.06066 -1.06066 
C -1.341951 -0.77937 -1.5 -0.397805 -1.5 0 
C -1.5 0.397805 -1.341951 0.77937 -1.06066 1.06066 
C -0.77937 1.341951 -0.397805 1.5 0 1.5 
z
" id="me5ee25217d" style="stroke:#000080;"/>
    </defs>
    <g>
     <use style="fill:#000080;stroke:#000080;" x="313.805238" xlink:href="#me5ee25217d" y="189.265124"/>
     <use style="fill:#000080;stroke:#000080;" x="313.805238" xlink:href="#me5ee25217d" y="189.265124"/>
    </g>
   </g>
   <g id="line2d_47">
    <path d="M 29.207815 294.16 
L 29.207815 289.243053 
L 126.612204 289.243053 
L 126.612204 289.079154 
L 127.077828 289.079154 
L 127.135154 288.751358 
L 128.189469 288.751358 
L 128.189469 288.58746 
L 135.347052 288.58746 
L 135.347052 288.095765 
L 135.939741 288.095765 
L 135.939741 287.931867 
L 136.446233 287.931867 
L 136.446233 287.767969 
L 136.743108 287.767969 
L 136.808389 286.948477 
L 138.334821 286.948477 
L 138.334821 286.620681 
L 139.121318 286.620681 
L 139.121318 285.965088 
L 139.291308 285.965088 
L 139.319477 284.981698 
L 139.543178 284.981698 
L 139.543178 284.653902 
L 139.873358 284.653902 
L 139.873358 284.326105 
L 140.303947 284.326105 
L 140.303947 284.162207 
L 140.672053 284.162207 
L 140.672053 283.178818 
L 141.92581 283.178818 
L 141.998202 282.523225 
L 142.308419 282.523225 
L 142.308419 281.703734 
L 142.473165 281.703734 
L 142.519947 281.212039 
L 142.682686 281.212039 
L 142.682686 280.228649 
L 143.071604 280.228649 
L 143.094209 279.736955 
L 143.251619 279.736955 
L 143.251619 279.573056 
L 144.017724 279.573056 
L 144.12443 278.425769 
L 144.251607 278.425769 
L 144.251607 277.934074 
L 144.419724 277.934074 
L 144.503169 277.278481 
L 144.606909 277.278481 
L 144.606909 277.114583 
L 144.730575 277.114583 
L 144.730575 276.622888 
L 144.873734 276.622888 
L 144.873734 276.45899 
L 145.076199 276.45899 
L 145.076199 276.131193 
L 145.196542 276.131193 
L 145.196542 275.967295 
L 145.513393 275.967295 
L 145.513393 275.803397 
L 145.63072 275.803397 
L 145.63072 275.639499 
L 146.073191 275.639499 
L 146.148992 274.656109 
L 146.186767 274.656109 
L 146.186767 274.164414 
L 146.31833 274.164414 
L 146.374406 273.508821 
L 146.467463 273.508821 
L 146.504544 273.181025 
L 146.615311 273.181025 
L 146.615311 273.017127 
L 146.743643 273.017127 
L 146.780134 271.869839 
L 147.033419 271.869839 
L 147.033419 271.542042 
L 147.247586 271.542042 
L 147.300713 270.886449 
L 147.788795 270.886449 
L 147.891602 270.066958 
L 148.061592 270.066958 
L 148.061592 269.90306 
L 148.363396 269.90306 
L 148.429749 269.411365 
L 148.578113 269.411365 
L 148.610909 269.083569 
L 149.62862 269.083569 
L 149.62862 268.919671 
L 149.843425 268.919671 
L 149.873893 268.591874 
L 150.040508 268.591874 
L 150.145701 268.100179 
L 150.250253 268.100179 
L 150.354172 267.772383 
L 150.383748 267.772383 
L 150.383748 267.608485 
L 150.633107 267.608485 
L 150.633107 267.11679 
L 150.835777 267.11679 
L 150.835777 266.625095 
L 150.964813 266.625095 
L 150.964813 266.461197 
L 151.092886 266.461197 
L 151.092886 266.297299 
L 151.248133 266.297299 
L 151.332226 264.986113 
L 151.485334 264.986113 
L 151.485334 264.822215 
L 151.623348 264.822215 
L 151.637088 264.494418 
L 151.787513 264.494418 
L 151.787513 264.33052 
L 152.585589 264.33052 
L 152.585589 264.166622 
L 152.715068 264.166622 
L 152.805126 263.674927 
L 152.996531 263.674927 
L 153.047214 262.691537 
L 153.348209 262.691537 
L 153.348209 262.527639 
L 154.256185 262.527639 
L 154.256185 262.363741 
L 154.824473 262.363741 
L 154.824473 261.872046 
L 154.938174 261.872046 
L 155.006035 261.380351 
L 155.659427 261.380351 
L 155.767748 260.724758 
L 156.215378 260.724758 
L 156.215378 260.396962 
L 156.38288 260.396962 
L 156.38288 260.233064 
L 156.641374 260.233064 
L 156.641374 259.905267 
L 156.946516 259.905267 
L 156.946516 259.741369 
L 157.433537 259.741369 
L 157.433537 259.577471 
L 157.821112 259.577471 
L 157.821112 259.413572 
L 158.02114 259.413572 
L 158.058977 258.594081 
L 158.171993 258.594081 
L 158.274941 257.938488 
L 158.707985 257.938488 
L 158.707985 257.282895 
L 159.551287 257.282895 
L 159.585902 256.135608 
L 160.222329 256.135608 
L 160.222329 255.971709 
L 160.338559 255.971709 
L 160.3551 255.316116 
L 160.568686 255.316116 
L 160.568686 255.152218 
L 160.795769 255.152218 
L 160.795769 254.660523 
L 160.940181 254.660523 
L 160.940181 254.496625 
L 161.295983 254.496625 
L 161.295983 254.332727 
L 161.978685 254.332727 
L 161.978685 254.00493 
L 162.446045 254.00493 
L 162.446045 253.513236 
L 163.29556 253.513236 
L 163.29556 253.349337 
L 163.708458 253.349337 
L 163.708458 253.185439 
L 163.971613 253.185439 
L 163.971613 253.021541 
L 164.23739 253.021541 
L 164.23739 252.693745 
L 165.720832 252.693745 
L 165.738965 252.038152 
L 166.42581 252.038152 
L 166.42581 251.874253 
L 166.867016 251.874253 
L 166.867016 251.710355 
L 167.716805 251.710355 
L 167.716805 251.546457 
L 168.304238 251.546457 
L 168.304238 251.21866 
L 168.927513 251.21866 
L 168.927513 250.726966 
L 170.091291 250.726966 
L 170.091291 250.399169 
L 170.217412 250.399169 
L 170.217412 250.235271 
L 170.663023 250.235271 
L 170.663023 249.907474 
L 171.499398 249.907474 
L 171.499398 249.579678 
L 171.735326 249.579678 
L 171.735326 249.251881 
L 172.395587 249.251881 
L 172.395587 248.924085 
L 172.67615 248.924085 
L 172.67615 248.760187 
L 172.788706 248.760187 
L 172.788706 248.596288 
L 173.2356 248.596288 
L 173.2356 248.43239 
L 173.617789 248.43239 
L 173.617789 248.268492 
L 175.244781 248.268492 
L 175.244781 248.104594 
L 175.434723 248.104594 
L 175.434723 247.940695 
L 175.7377 247.940695 
L 175.764674 247.449001 
L 176.711731 247.449001 
L 176.711731 246.793408 
L 177.198935 246.793408 
L 177.198935 246.301713 
L 179.26103 246.301713 
L 179.26103 246.137815 
L 180.347253 246.137815 
L 180.347253 245.810018 
L 180.694574 245.810018 
L 180.694574 245.482222 
L 181.187994 245.482222 
L 181.187994 245.154425 
L 181.681957 245.154425 
L 181.681957 244.990527 
L 182.254696 244.990527 
L 182.254696 244.826629 
L 187.492519 244.826629 
L 187.492519 244.662731 
L 191.690627 244.662731 
L 191.690627 244.498832 
L 192.526712 244.498832 
L 192.526712 244.334934 
L 192.851065 244.334934 
L 192.851065 244.007138 
L 193.707347 244.007138 
L 193.707347 243.679341 
L 195.403816 243.679341 
L 195.403816 243.515443 
L 195.700691 243.515443 
L 195.700691 243.351545 
L 196.125792 243.351545 
L 196.125792 242.85985 
L 196.240669 242.85985 
L 196.240669 242.368155 
L 196.362904 242.368155 
L 196.362904 241.87646 
L 196.715525 241.87646 
L 196.715525 241.548664 
L 197.130104 241.548664 
L 197.130104 241.384766 
L 197.613415 241.384766 
L 197.613415 241.056969 
L 198.180549 241.056969 
L 198.236154 240.729173 
L 198.871332 240.729173 
L 198.871332 240.565275 
L 199.865485 240.565275 
L 199.865485 240.237478 
L 200.064628 240.237478 
L 200.064628 239.909682 
L 200.427301 239.909682 
L 200.427301 239.581885 
L 200.79502 239.581885 
L 200.79502 239.254089 
L 201.201036 239.254089 
L 201.201036 239.09019 
L 201.77558 239.09019 
L 201.848738 238.598496 
L 202.123785 238.598496 
L 202.123785 238.270699 
L 202.922743 238.270699 
L 202.922743 237.942903 
L 204.376405 237.942903 
L 204.457678 236.631717 
L 205.016064 236.631717 
L 205.016064 235.976124 
L 205.331387 235.976124 
L 205.331387 235.648327 
L 205.728307 235.648327 
L 205.735952 235.320531 
L 206.200591 235.320531 
L 206.200591 234.992734 
L 206.520369 234.992734 
L 206.520369 234.664938 
L 207.166953 234.664938 
L 207.198841 234.009345 
L 207.39107 234.009345 
L 207.39107 233.845447 
L 208.720152 233.845447 
L 208.720152 233.51765 
L 208.942082 233.51765 
L 208.942082 233.353752 
L 209.523384 233.353752 
L 209.523384 232.862057 
L 210.291612 232.862057 
L 210.291612 232.534261 
L 211.575005 232.534261 
L 211.575005 232.370362 
L 211.765192 232.370362 
L 211.765192 232.042566 
L 212.166469 232.042566 
L 212.166469 231.878668 
L 213.018284 231.878668 
L 213.018284 231.386973 
L 213.492218 231.386973 
L 213.492218 230.73138 
L 213.907816 230.73138 
L 213.907816 230.567482 
L 214.12345 230.567482 
L 214.12345 230.075787 
L 214.349588 230.075787 
L 214.349588 229.584092 
L 214.954386 229.584092 
L 214.954386 229.092398 
L 215.512669 229.092398 
L 215.512669 228.764601 
L 217.069818 228.764601 
L 217.069818 228.436805 
L 217.517299 228.436805 
L 217.517299 227.94511 
L 218.803091 227.94511 
L 218.882565 226.96172 
L 221.073991 226.96172 
L 221.073991 226.470026 
L 221.203215 226.470026 
L 221.203215 226.306127 
L 221.670202 226.306127 
L 221.670202 225.650534 
L 221.80864 225.650534 
L 221.80864 225.486636 
L 222.921634 225.486636 
L 222.921634 225.322738 
L 223.585248 225.322738 
L 223.585248 225.15884 
L 224.26138 225.15884 
L 224.26138 224.831043 
L 225.13293 224.831043 
L 225.13293 224.011552 
L 226.664659 224.011552 
L 226.664659 223.683756 
L 227.427504 223.683756 
L 227.427504 223.355959 
L 227.714149 223.355959 
L 227.714149 223.192061 
L 227.96454 223.192061 
L 227.96454 222.864264 
L 228.59589 222.864264 
L 228.59589 222.700366 
L 229.474432 222.700366 
L 229.474432 222.536468 
L 229.684705 222.536468 
L 229.684705 222.208671 
L 230.086293 222.208671 
L 230.086293 221.880875 
L 231.217482 221.880875 
L 231.217482 221.553078 
L 231.408358 221.553078 
L 231.408358 221.225282 
L 231.942016 221.225282 
L 231.942016 221.061384 
L 233.802532 221.061384 
L 233.82167 220.241892 
L 234.445181 220.241892 
L 234.451696 219.422401 
L 234.765674 219.422401 
L 234.765674 218.60291 
L 235.669108 218.60291 
L 235.688741 217.947317 
L 236.648549 217.947317 
L 236.648549 217.619521 
L 236.820699 217.619521 
L 236.820699 217.455622 
L 237.147172 217.455622 
L 237.147172 217.291724 
L 239.727592 217.291724 
L 239.727592 217.127826 
L 239.901041 217.127826 
L 239.909801 216.472233 
L 240.065195 216.472233 
L 240.167434 215.980538 
L 240.2789 215.980538 
L 240.2789 215.81664 
L 240.395272 215.81664 
L 240.395272 215.488843 
L 240.896999 215.488843 
L 240.896999 214.997149 
L 242.137081 214.997149 
L 242.137292 214.505454 
L 242.292465 214.505454 
L 242.292465 214.177657 
L 243.350102 214.177657 
L 243.350102 214.013759 
L 244.457607 214.013759 
L 244.457607 213.358166 
L 245.520882 213.358166 
L 245.520882 213.03037 
L 246.268948 213.03037 
L 246.268948 212.866471 
L 246.884766 212.866471 
L 246.884766 212.538675 
L 247.715783 212.538675 
L 247.715783 212.210878 
L 247.926092 212.210878 
L 247.926092 211.719184 
L 248.214331 211.719184 
L 248.220868 211.063591 
L 248.772132 211.063591 
L 248.772132 210.407998 
L 248.992319 210.407998 
L 248.992319 210.2441 
L 249.129092 210.2441 
L 249.129092 209.752405 
L 249.774247 209.752405 
L 249.774247 209.588507 
L 250.014302 209.588507 
L 250.014302 209.424608 
L 250.348381 209.424608 
L 250.348381 209.096812 
L 250.891099 209.096812 
L 250.891099 208.605117 
L 251.188801 208.605117 
L 251.188801 208.277321 
L 252.592274 208.277321 
L 252.592274 208.113422 
L 253.542155 208.113422 
L 253.542155 207.785626 
L 254.449565 207.785626 
L 254.449565 207.457829 
L 255.414265 207.457829 
L 255.482351 207.130033 
L 255.767825 207.130033 
L 255.767825 206.966135 
L 256.142613 206.966135 
L 256.194035 206.638338 
L 256.87332 206.638338 
L 256.889165 205.818847 
L 257.229369 205.818847 
L 257.229369 205.654949 
L 257.937296 205.654949 
L 257.937296 205.491051 
L 258.126243 205.491051 
L 258.139779 204.343763 
L 258.398898 204.343763 
L 258.398898 204.179865 
L 259.004757 204.179865 
L 259.00893 203.852068 
L 259.453018 203.852068 
L 259.455926 203.524272 
L 259.703566 203.524272 
L 259.703566 203.360373 
L 260.562059 203.360373 
L 260.616477 202.70478 
L 260.727954 202.70478 
L 260.728026 202.376984 
L 260.918041 202.376984 
L 260.918041 202.213086 
L 262.496699 202.213086 
L 262.496699 202.049187 
L 262.778703 202.049187 
L 262.77883 201.557493 
L 263.016731 201.557493 
L 263.016731 201.393594 
L 263.551258 201.393594 
L 263.551258 201.229696 
L 263.929005 201.229696 
L 263.929005 201.065798 
L 264.435487 201.065798 
L 264.435487 200.9019 
L 264.695242 200.9019 
L 264.695299 200.574103 
L 264.829091 200.574103 
L 264.829091 200.410205 
L 265.477462 200.410205 
L 265.477462 200.246307 
L 265.932344 200.246307 
L 265.932344 200.082409 
L 266.379456 200.082409 
L 266.379456 199.91851 
L 266.505981 199.91851 
L 266.505981 199.754612 
L 267.05006 199.754612 
L 267.05006 199.590714 
L 267.640424 199.590714 
L 267.721152 199.099019 
L 268.803933 199.099019 
L 268.803933 198.935121 
L 269.058549 198.935121 
L 269.058549 198.771223 
L 269.202188 198.771223 
L 269.202188 198.607324 
L 269.853187 198.607324 
L 269.853187 198.443426 
L 271.037338 198.443426 
L 271.037338 198.279528 
L 271.662518 198.279528 
L 271.662518 198.11563 
L 273.054083 198.11563 
L 273.054083 197.951731 
L 274.200952 197.951731 
L 274.255997 197.460037 
L 275.00339 197.460037 
L 275.063298 197.13224 
L 275.281964 197.13224 
L 275.281964 196.968342 
L 275.633713 196.968342 
L 275.633713 196.804444 
L 275.782464 196.804444 
L 275.782464 196.640545 
L 278.262986 196.640545 
L 278.263012 196.148851 
L 278.931859 196.148851 
L 278.931859 195.984952 
L 279.287749 195.984952 
L 279.287879 195.657156 
L 279.548633 195.657156 
L 279.548648 195.329359 
L 280.034251 195.329359 
L 280.03429 194.837665 
L 280.680758 194.837665 
L 280.680758 194.673766 
L 281.190993 194.673766 
L 281.191095 194.34597 
L 281.951423 194.34597 
L 281.951451 194.018174 
L 285.113287 194.018174 
L 285.113287 193.854275 
L 285.68827 193.854275 
L 285.691145 193.526479 
L 286.439578 193.526479 
L 286.439594 193.198682 
L 286.88742 193.198682 
L 286.88742 193.034784 
L 288.278229 193.034784 
L 288.278229 192.870886 
L 288.923936 192.870886 
L 288.923936 192.706988 
L 290.526154 192.706988 
L 290.526154 192.543089 
L 290.840746 192.543089 
L 290.840746 192.379191 
L 292.211436 192.379191 
L 292.211436 192.215293 
L 292.513447 192.215293 
L 292.513447 192.051395 
L 293.572803 192.051395 
L 293.572803 191.887496 
L 294.751713 191.887496 
L 294.751713 191.723598 
L 295.252246 191.723598 
L 295.252246 191.5597 
L 298.740764 191.5597 
L 298.740764 191.395802 
L 301.171693 191.395802 
L 301.171693 191.231903 
L 304.273861 191.231903 
L 304.273861 191.068005 
L 304.816056 191.068005 
L 304.816056 190.904107 
L 306.068681 190.904107 
L 306.068681 190.740209 
L 306.900295 190.740209 
L 306.900329 190.412412 
L 307.693505 190.412412 
L 307.693551 190.084616 
L 308.451691 190.084616 
L 308.451691 189.920717 
L 310.543899 189.920717 
L 310.543899 189.756819 
L 310.722819 189.756819 
L 310.722819 189.592921 
L 312.160794 189.592921 
L 312.160794 189.429023 
L 313.805238 189.429023 
L 313.805238 189.265124 
L 333.569032 189.265124 
L 333.569032 189.265124 
" style="fill:none;stroke:#000080;stroke-linecap:square;stroke-width:1.5;"/>
   </g>
   <g id="line2d_48">
    <defs>
     <path d="M 0 6 
C 1.591219 6 3.117479 5.367802 4.242641 4.242641 
C 5.367802 3.117479 6 1.591219 6 0 
C 6 -1.591219 5.367802 -3.117479 4.242641 -4.242641 
C 3.117479 -5.367802 1.591219 -6 0 -6 
C -1.591219 -6 -3.117479 -5.367802 -4.242641 -4.242641 
C -5.367802 -3.117479 -6 -1.591219 -6 0 
C -6 1.591219 -5.367802 3.117479 -4.242641 4.242641 
C -3.117479 5.367802 -1.591219 6 0 6 
z
" id="m426831086e" style="stroke:#000080;stroke-width:1.5;"/>
    </defs>
    <g>
     <use style="fill:none;stroke:#000080;stroke-width:1.5;" x="158.171993" xlink:href="#m426831086e" y="258.430183"/>
     <use style="fill:none;stroke:#000080;stroke-width:1.5;" x="215.512669" xlink:href="#m426831086e" y="229.092398"/>
     <use style="fill:none;stroke:#000080;stroke-width:1.5;" x="273.054083" xlink:href="#m426831086e" y="197.951731"/>
     <use style="fill:none;stroke:#000080;stroke-width:1.5;" x="313.805238" xlink:href="#m426831086e" y="189.265124"/>
     <use style="fill:none;stroke:#000080;stroke-width:1.5;" x="333.569032" xlink:href="#m426831086e" y="189.265124"/>
    </g>
   </g>
   <g id="line2d_49">
    <path style="fill:none;stroke:#000080;stroke-linecap:square;stroke-width:1.5;"/>
    <g/>
   </g>
   <g id="line2d_50">
    <path clip-path="url(#pcaf4bd5e69)" d="M 254.508195 207.457829 
" style="fill:none;stroke:#000080;stroke-linecap:square;stroke-width:1.5;"/>
    <defs>
     <path d="M -12 12 
L 12 -12 
M -12 -12 
L 12 12 
" id="m50f2a43c02" style="stroke:#000080;stroke-width:3;"/>
    </defs>
    <g clip-path="url(#pcaf4bd5e69)">
     <use style="fill:#000080;stroke:#000080;stroke-width:3;" x="254.508195" xlink:href="#m50f2a43c02" y="207.457829"/>
    </g>
   </g>
   <g id="line2d_51">
    <defs>
     <path d="M 0 1.5 
C 0.397805 1.5 0.77937 1.341951 1.06066 1.06066 
C 1.341951 0.77937 1.5 0.397805 1.5 0 
C 1.5 -0.397805 1.341951 -0.77937 1.06066 -1.06066 
C 0.77937 -1.341951 0.397805 -1.5 0 -1.5 
C -0.397805 -1.5 -0.77937 -1.341951 -1.06066 -1.06066 
C -1.341951 -0.77937 -1.5 -0.397805 -1.5 0 
C -1.5 0.397805 -1.341951 0.77937 -1.06066 1.06066 
C -0.77937 1.341951 -0.397805 1.5 0 1.5 
z
" id="m090fd310f4" style="stroke:#ff00ff;"/>
    </defs>
    <g>
     <use style="fill:#ff00ff;stroke:#ff00ff;" x="367.809685" xlink:href="#m090fd310f4" y="220.405791"/>
     <use style="fill:#ff00ff;stroke:#ff00ff;" x="367.809685" xlink:href="#m090fd310f4" y="220.405791"/>
    </g>
   </g>
   <g id="line2d_52">
    <path d="M 29.207815 294.16 
L 29.207815 290.062544 
L 41.10835 290.062544 
L 41.10835 288.915256 
L 48.069716 288.915256 
L 48.069716 288.259663 
L 53.008884 288.259663 
L 53.008884 286.128986 
L 56.84 286.128986 
L 56.84 285.309495 
L 64.909418 285.309495 
L 64.909418 284.981698 
L 68.740534 284.981698 
L 68.740534 284.653902 
L 73.245025 284.653902 
L 73.245025 283.670512 
L 75.7019 283.670512 
L 75.7019 283.506614 
L 76.809952 283.506614 
L 76.809952 283.342716 
L 78.83215 283.342716 
L 78.83215 282.851021 
L 79.760422 282.851021 
L 79.760422 282.523225 
L 80.641068 282.523225 
L 80.641068 282.03153 
L 83.040619 282.03153 
L 83.040619 281.539835 
L 85.145559 281.539835 
L 85.145559 281.375937 
L 88.710486 281.375937 
L 88.710486 281.212039 
L 90.249023 281.212039 
L 90.249023 280.556446 
L 91.203093 280.556446 
L 91.203093 280.064751 
L 92.965546 280.064751 
L 92.965546 279.900853 
L 94.177968 279.900853 
L 94.177968 279.736955 
L 94.941153 279.736955 
L 94.941153 279.409158 
L 95.671853 279.409158 
L 95.671853 279.081362 
L 96.025862 279.081362 
L 96.025862 278.917463 
L 96.372719 278.917463 
L 96.372719 278.753565 
L 100.065932 278.753565 
L 100.065932 278.097972 
L 100.61102 278.097972 
L 100.61102 277.934074 
L 101.139334 277.934074 
L 101.139334 277.114583 
L 103.56149 277.114583 
L 103.56149 276.950684 
L 104.86608 276.950684 
L 104.86608 276.786786 
L 106.841687 276.786786 
L 106.841687 276.131193 
L 108.273253 276.131193 
L 108.273253 275.803397 
L 108.780743 275.803397 
L 108.780743 275.311702 
L 109.273663 275.311702 
L 109.273663 275.147804 
L 109.434874 275.147804 
L 109.434874 274.983906 
L 110.672804 274.983906 
L 110.672804 274.820007 
L 112.909306 274.820007 
L 112.909306 274.328313 
L 113.803054 274.328313 
L 113.803054 274.164414 
L 114.770568 274.164414 
L 114.770568 274.000516 
L 116.235029 274.000516 
L 116.235029 273.508821 
L 117.180342 273.508821 
L 117.180342 273.181025 
L 117.383526 273.181025 
L 117.383526 272.853228 
L 117.584333 272.853228 
L 117.584333 272.525432 
L 118.459988 272.525432 
L 118.459988 272.361534 
L 121.415449 272.361534 
L 121.415449 272.033737 
L 122.498528 272.033737 
L 122.573338 271.705941 
L 128.926894 271.705941 
L 128.926894 271.214246 
L 130.407884 271.214246 
L 130.407884 270.886449 
L 131.462644 270.886449 
L 131.462644 270.722551 
L 132.031346 270.722551 
L 132.031346 270.558653 
L 132.664954 270.558653 
L 132.664954 270.230857 
L 133.395653 270.230857 
L 133.395653 270.066958 
L 137.067058 270.066958 
L 137.067058 269.90306 
L 138.334821 269.90306 
L 138.334821 269.411365 
L 139.291308 269.411365 
L 139.291308 269.247467 
L 139.846085 269.247467 
L 139.846085 269.083569 
L 140.009081 269.083569 
L 140.090003 268.427976 
L 142.189767 268.427976 
L 142.189767 268.100179 
L 143.888796 268.100179 
L 143.888796 267.936281 
L 144.314844 267.936281 
L 144.314844 267.608485 
L 146.299596 267.608485 
L 146.299596 267.280688 
L 147.668069 267.280688 
L 147.668069 267.11679 
L 148.446297 267.11679 
L 148.446297 266.952892 
L 151.429816 266.952892 
L 151.429816 266.461197 
L 152.151245 266.461197 
L 152.151245 266.1334 
L 152.740847 266.1334 
L 152.740847 265.805604 
L 155.363499 265.805604 
L 155.363499 265.313909 
L 156.099265 265.313909 
L 156.099265 264.986113 
L 156.320258 264.986113 
L 156.320258 264.822215 
L 157.589619 264.822215 
L 157.589619 264.33052 
L 158.644177 264.33052 
L 158.644177 264.166622 
L 166.49532 264.166622 
L 166.49532 264.002723 
L 166.764888 264.002723 
L 166.764888 263.674927 
L 167.035891 263.674927 
L 167.035891 263.511029 
L 168.547039 263.511029 
L 168.547039 263.183232 
L 171.955443 263.183232 
L 171.955443 262.691537 
L 172.093682 262.691537 
L 172.093682 262.527639 
L 173.837808 262.527639 
L 173.837808 262.199843 
L 178.215709 262.199843 
L 178.215709 261.872046 
L 178.430504 261.872046 
L 178.430504 261.708148 
L 179.134139 261.708148 
L 179.178381 261.216453 
L 179.908275 261.216453 
L 179.908275 260.724758 
L 181.190451 260.724758 
L 181.190451 260.56086 
L 182.178343 260.56086 
L 182.178343 260.233064 
L 182.669797 260.233064 
L 182.669797 260.069165 
L 183.235013 260.069165 
L 183.235013 259.905267 
L 185.815438 259.905267 
L 185.815438 259.741369 
L 186.164584 259.741369 
L 186.164584 259.249674 
L 187.752581 259.249674 
L 187.752581 258.921878 
L 187.935958 258.921878 
L 187.935958 258.75798 
L 190.645442 258.75798 
L 190.645442 258.266285 
L 190.938885 258.266285 
L 190.938885 258.102387 
L 193.69668 258.102387 
L 193.69668 257.938488 
L 195.145357 257.938488 
L 195.145357 257.282895 
L 195.462747 257.282895 
L 195.462747 257.118997 
L 195.717561 257.118997 
L 195.717561 256.955099 
L 198.57052 256.955099 
L 198.57052 256.791201 
L 204.285791 256.791201 
L 204.285791 256.627302 
L 205.854318 256.627302 
L 205.854318 256.463404 
L 209.780356 256.463404 
L 209.780356 256.135608 
L 210.122121 256.135608 
L 210.122121 255.807811 
L 211.219837 255.807811 
L 211.219837 255.643913 
L 211.882741 255.643913 
L 211.882741 255.480015 
L 213.224415 255.480015 
L 213.224415 254.98832 
L 214.052235 254.98832 
L 214.052235 254.660523 
L 217.290817 254.660523 
L 217.290817 254.496625 
L 217.448479 254.496625 
L 217.448479 254.168829 
L 217.63825 254.168829 
L 217.63825 254.00493 
L 217.813731 254.00493 
L 217.813731 253.513236 
L 217.975333 253.513236 
L 217.975333 252.857643 
L 218.387166 252.857643 
L 218.387166 252.529846 
L 221.15945 252.529846 
L 221.15945 252.365948 
L 221.626913 252.365948 
L 221.626913 251.874253 
L 223.425459 251.874253 
L 223.425459 251.710355 
L 226.402537 251.710355 
L 226.402537 251.546457 
L 226.726756 251.546457 
L 226.726756 251.21866 
L 230.085012 251.21866 
L 230.099387 250.890864 
L 232.898068 250.890864 
L 232.898068 250.563067 
L 233.342599 250.563067 
L 233.342599 250.399169 
L 233.937415 250.399169 
L 233.937415 250.235271 
L 234.132882 250.235271 
L 234.132882 249.907474 
L 237.426937 249.907474 
L 237.426937 249.579678 
L 237.955695 249.579678 
L 237.955695 249.087983 
L 238.41317 249.087983 
L 238.512722 248.760187 
L 238.525876 248.760187 
L 238.525876 248.104594 
L 240.204512 248.104594 
L 240.204512 247.940695 
L 240.366038 247.940695 
L 240.366038 247.612899 
L 242.892748 247.612899 
L 242.892748 247.449001 
L 244.969495 247.449001 
L 244.969495 246.957306 
L 246.786979 246.957306 
L 246.786979 246.793408 
L 249.215327 246.793408 
L 249.215327 246.465611 
L 249.387896 246.465611 
L 249.387896 246.137815 
L 250.312301 246.137815 
L 250.312301 245.810018 
L 252.512409 245.810018 
L 252.512409 245.482222 
L 252.633178 245.482222 
L 252.633178 245.154425 
L 254.975811 245.154425 
L 254.975811 244.826629 
L 256.687923 244.826629 
L 256.687923 244.662731 
L 257.018193 244.662731 
L 257.018193 244.171036 
L 258.921972 244.171036 
L 258.921972 244.007138 
L 259.912766 244.007138 
L 259.912766 243.843239 
L 261.301077 243.843239 
L 261.301077 243.351545 
L 264.875866 243.351545 
L 264.875866 242.85985 
L 266.037025 242.85985 
L 266.037025 242.695952 
L 271.610339 242.695952 
L 271.610339 242.368155 
L 272.675308 242.368155 
L 272.697992 241.712562 
L 278.43035 241.712562 
L 278.43035 241.548664 
L 278.599481 241.548664 
L 278.599481 241.384766 
L 282.387651 241.384766 
L 282.387651 240.729173 
L 284.789567 240.729173 
L 284.789567 240.565275 
L 286.802698 240.565275 
L 286.802698 239.745783 
L 288.612847 239.745783 
L 288.612847 239.581885 
L 288.783347 239.581885 
L 288.886949 238.762394 
L 289.016929 238.762394 
L 289.016929 238.598496 
L 291.82501 238.598496 
L 291.82501 238.270699 
L 293.312074 238.270699 
L 293.312074 238.106801 
L 294.037639 238.106801 
L 294.128209 237.123411 
L 294.165458 237.123411 
L 294.239627 236.140022 
L 294.571052 236.140022 
L 294.653298 235.648327 
L 294.696026 235.648327 
L 294.773815 234.828836 
L 295.098123 234.828836 
L 295.098123 234.664938 
L 295.253849 234.664938 
L 295.253849 234.50104 
L 295.500908 234.50104 
L 295.510815 234.009345 
L 295.883144 234.009345 
L 295.883144 233.845447 
L 296.200396 233.845447 
L 296.241187 233.353752 
L 296.414576 233.353752 
L 296.414576 233.025955 
L 296.801903 233.025955 
L 296.843204 232.534261 
L 298.77361 232.534261 
L 298.807036 231.878668 
L 299.897904 231.878668 
L 299.897904 231.550871 
L 300.343701 231.550871 
L 300.343701 231.223075 
L 300.69914 231.223075 
L 300.69914 230.895278 
L 301.928604 230.895278 
L 301.928604 230.73138 
L 305.578547 230.73138 
L 305.578547 230.403583 
L 305.942593 230.403583 
L 306.038805 229.74799 
L 306.251451 229.74799 
L 306.251451 229.420194 
L 306.475959 229.420194 
L 306.556406 229.092398 
L 306.902992 229.092398 
L 306.902992 228.928499 
L 307.375268 228.928499 
L 307.375268 228.764601 
L 308.247932 228.764601 
L 308.247932 228.600703 
L 308.487384 228.600703 
L 308.487384 228.272906 
L 312.660179 228.272906 
L 312.660179 227.94511 
L 312.966253 227.94511 
L 312.966253 227.617313 
L 313.108589 227.617313 
L 313.108589 227.453415 
L 313.313727 227.453415 
L 313.403916 227.125619 
L 314.639952 227.125619 
L 314.639952 226.633924 
L 315.417492 226.633924 
L 315.417492 226.306127 
L 315.949966 226.306127 
L 315.949966 226.142229 
L 321.526074 226.142229 
L 321.526074 225.978331 
L 321.709354 225.978331 
L 321.709354 225.814433 
L 323.223957 225.814433 
L 323.223957 225.322738 
L 324.680143 225.322738 
L 324.680143 225.15884 
L 324.802143 225.15884 
L 324.802143 224.994941 
L 326.104554 224.994941 
L 326.104554 224.831043 
L 327.535813 224.831043 
L 327.624646 224.17545 
L 327.778191 224.17545 
L 327.778191 224.011552 
L 328.213528 224.011552 
L 328.213528 223.847654 
L 328.57057 223.847654 
L 328.57057 223.355959 
L 329.817109 223.355959 
L 329.817109 223.192061 
L 330.411942 223.192061 
L 330.411942 223.028163 
L 330.726463 223.028163 
L 330.726463 222.864264 
L 331.782824 222.864264 
L 331.830526 222.536468 
L 332.360542 222.536468 
L 332.360542 222.37257 
L 332.641592 222.37257 
L 332.641592 222.208671 
L 333.569032 222.208671 
L 333.569032 222.208671 
" style="fill:none;stroke:#ff00ff;stroke-linecap:square;stroke-width:1.5;"/>
   </g>
   <g id="line2d_53">
    <defs>
     <path d="M -0 8.485281 
L 5.091169 0 
L 0 -8.485281 
L -5.091169 -0 
z
" id="m4511678df6" style="stroke:#ff00ff;stroke-linejoin:miter;stroke-width:1.5;"/>
    </defs>
    <g>
     <use style="fill:none;stroke:#ff00ff;stroke-linejoin:miter;stroke-width:1.5;" x="76.809952" xlink:href="#m4511678df6" y="283.506614"/>
     <use style="fill:none;stroke:#ff00ff;stroke-linejoin:miter;stroke-width:1.5;" x="144.314844" xlink:href="#m4511678df6" y="267.936281"/>
     <use style="fill:none;stroke:#ff00ff;stroke-linejoin:miter;stroke-width:1.5;" x="205.854318" xlink:href="#m4511678df6" y="256.463404"/>
     <use style="fill:none;stroke:#ff00ff;stroke-linejoin:miter;stroke-width:1.5;" x="291.82501" xlink:href="#m4511678df6" y="238.270699"/>
     <use style="fill:none;stroke:#ff00ff;stroke-linejoin:miter;stroke-width:1.5;" x="332.641592" xlink:href="#m4511678df6" y="222.208671"/>
     <use style="fill:none;stroke:#ff00ff;stroke-linejoin:miter;stroke-width:1.5;" x="333.569032" xlink:href="#m4511678df6" y="222.208671"/>
    </g>
   </g>
   <g id="line2d_54">
    <path style="fill:none;stroke:#ff00ff;stroke-linecap:square;stroke-width:1.5;"/>
    <g/>
   </g>
   <g id="line2d_55">
    <path clip-path="url(#pcaf4bd5e69)" d="M 294.036313 238.106801 
" style="fill:none;stroke:#ff00ff;stroke-linecap:square;stroke-width:1.5;"/>
    <defs>
     <path d="M -12 12 
L 12 -12 
M -12 -12 
L 12 12 
" id="mf1d2e1e2d1" style="stroke:#ff00ff;stroke-width:3;"/>
    </defs>
    <g clip-path="url(#pcaf4bd5e69)">
     <use style="fill:#ff00ff;stroke:#ff00ff;stroke-width:3;" x="294.036313" xlink:href="#mf1d2e1e2d1" y="238.106801"/>
    </g>
   </g>
   <g id="line2d_56">
    <defs>
     <path d="M 0 1.5 
C 0.397805 1.5 0.77937 1.341951 1.06066 1.06066 
C 1.341951 0.77937 1.5 0.397805 1.5 0 
C 1.5 -0.397805 1.341951 -0.77937 1.06066 -1.06066 
C 0.77937 -1.341951 0.397805 -1.5 0 -1.5 
C -0.397805 -1.5 -0.77937 -1.341951 -1.06066 -1.06066 
C -1.341951 -0.77937 -1.5 -0.397805 -1.5 0 
C -1.5 0.397805 -1.341951 0.77937 -1.06066 1.06066 
C -0.77937 1.341951 -0.397805 1.5 0 1.5 
z
" id="mcf59b08057" style="stroke:#ffa500;"/>
    </defs>
    <g>
     <use style="fill:#ffa500;stroke:#ffa500;" x="239.210538" xlink:href="#mcf59b08057" y="272.853228"/>
     <use style="fill:#ffa500;stroke:#ffa500;" x="239.210538" xlink:href="#mcf59b08057" y="272.853228"/>
    </g>
   </g>
   <g id="line2d_57">
    <path d="M 29.207815 294.16 
L 29.207815 288.423561 
L 167.141993 288.423561 
L 167.252975 288.095765 
L 167.275085 288.095765 
L 167.385213 284.326105 
L 167.494639 284.326105 
L 167.494639 284.162207 
L 179.150743 284.162207 
L 179.26103 281.867632 
L 179.27202 281.867632 
L 179.326864 281.539835 
L 186.096428 281.539835 
L 186.192138 279.736955 
L 186.22148 279.736955 
L 186.236132 279.24526 
L 191.016667 279.24526 
L 191.121667 278.589667 
L 191.132682 278.589667 
L 191.204111 277.934074 
L 194.942588 277.934074 
L 194.960219 277.606277 
L 198.025547 277.606277 
L 198.121098 277.278481 
L 200.650932 277.278481 
L 200.742407 276.786786 
L 200.776977 276.786786 
L 200.776977 276.622888 
L 203.01049 276.622888 
L 203.032528 276.295092 
L 205.062602 276.295092 
L 205.062602 276.131193 
L 206.833748 276.131193 
L 206.833748 275.967295 
L 208.465249 275.967295 
L 208.491311 275.4756 
L 209.896112 275.4756 
L 209.918248 275.147804 
L 211.319092 275.147804 
L 211.319092 274.983906 
L 212.570037 274.983906 
L 212.570037 274.820007 
L 214.836088 274.820007 
L 214.866516 274.492211 
L 215.886853 274.492211 
L 215.886853 274.328313 
L 216.865936 274.328313 
L 216.885605 274.000516 
L 217.824784 274.000516 
L 217.9199 273.67272 
L 218.708615 273.67272 
L 218.708615 273.508821 
L 220.388589 273.508821 
L 220.388589 273.344923 
L 223.204116 273.344923 
L 223.204116 273.181025 
L 230.609011 273.181025 
L 230.609011 273.017127 
L 239.210538 273.017127 
L 239.210538 272.853228 
L 333.569032 272.853228 
L 333.569032 272.853228 
" style="fill:none;stroke:#ffa500;stroke-linecap:square;stroke-width:1.5;"/>
   </g>
   <g id="line2d_58">
    <defs>
     <path d="M 0 -6 
L -1.347084 -1.854102 
L -5.706339 -1.854102 
L -2.179628 0.708204 
L -3.526712 4.854102 
L -0 2.291796 
L 3.526712 4.854102 
L 2.179628 0.708204 
L 5.706339 -1.854102 
L 1.347084 -1.854102 
z
" id="m0890dfb5d4" style="stroke:#ffa500;stroke-linejoin:bevel;stroke-width:1.5;"/>
    </defs>
    <g>
     <use style="fill:none;stroke:#ffa500;stroke-linejoin:bevel;stroke-width:1.5;" x="179.326864" xlink:href="#m0890dfb5d4" y="281.703734"/>
     <use style="fill:none;stroke:#ffa500;stroke-linejoin:bevel;stroke-width:1.5;" x="239.210538" xlink:href="#m0890dfb5d4" y="273.017127"/>
     <use style="fill:none;stroke:#ffa500;stroke-linejoin:bevel;stroke-width:1.5;" x="239.210538" xlink:href="#m0890dfb5d4" y="272.853228"/>
     <use style="fill:none;stroke:#ffa500;stroke-linejoin:bevel;stroke-width:1.5;" x="239.210538" xlink:href="#m0890dfb5d4" y="272.853228"/>
     <use style="fill:none;stroke:#ffa500;stroke-linejoin:bevel;stroke-width:1.5;" x="333.569032" xlink:href="#m0890dfb5d4" y="272.853228"/>
    </g>
   </g>
   <g id="line2d_59">
    <path style="fill:none;stroke:#ffa500;stroke-linecap:square;stroke-width:1.5;"/>
    <g/>
   </g>
   <g id="line2d_60">
    <path clip-path="url(#pcaf4bd5e69)" d="M 167.29165 287.112376 
" style="fill:none;stroke:#ffa500;stroke-linecap:square;stroke-width:1.5;"/>
    <defs>
     <path d="M -12 12 
L 12 -12 
M -12 -12 
L 12 12 
" id="mbc363055fa" style="stroke:#ffa500;stroke-width:3;"/>
    </defs>
    <g clip-path="url(#pcaf4bd5e69)">
     <use style="fill:#ffa500;stroke:#ffa500;stroke-width:3;" x="167.29165" xlink:href="#mbc363055fa" y="287.112376"/>
    </g>
   </g>
   <g id="line2d_61">
    <path d="M 333.569032 272.853228 
L 364.009226 288.456341 
" style="fill:none;stroke:#ffa500;stroke-linecap:square;stroke-width:1.5;"/>
    <g>
     <use style="fill:none;stroke:#ffa500;stroke-linejoin:bevel;stroke-width:1.5;" x="333.569032" xlink:href="#m0890dfb5d4" y="272.853228"/>
     <use style="fill:none;stroke:#ffa500;stroke-linejoin:bevel;stroke-width:1.5;" x="364.009226" xlink:href="#m0890dfb5d4" y="288.456341"/>
    </g>
   </g>
   <g id="line2d_62">
    <path d="M 333.569032 222.208671 
L 364.009226 197.197799 
" style="fill:none;stroke:#ff00ff;stroke-linecap:square;stroke-width:1.5;"/>
    <g>
     <use style="fill:none;stroke:#ff00ff;stroke-linejoin:miter;stroke-width:1.5;" x="333.569032" xlink:href="#m4511678df6" y="222.208671"/>
     <use style="fill:none;stroke:#ff00ff;stroke-linejoin:miter;stroke-width:1.5;" x="364.009226" xlink:href="#m4511678df6" y="197.197799"/>
    </g>
   </g>
   <g id="line2d_63">
    <path d="M 333.569032 189.265124 
L 364.009226 105.939258 
" style="fill:none;stroke:#000080;stroke-linecap:square;stroke-width:1.5;"/>
    <g>
     <use style="fill:none;stroke:#000080;stroke-width:1.5;" x="333.569032" xlink:href="#m426831086e" y="189.265124"/>
     <use style="fill:none;stroke:#000080;stroke-width:1.5;" x="364.009226" xlink:href="#m426831086e" y="105.939258"/>
    </g>
   </g>
   <g id="line2d_64">
    <path d="M 333.569032 294.16 
L 333.569032 8.977057 
" style="fill:none;stroke:#000000;stroke-linecap:square;stroke-width:1.5;"/>
   </g>
   <g id="patch_3">
    <path d="M 56.84 294.16 
L 56.84 6.125228 
" style="fill:none;stroke:#000000;stroke-linecap:square;stroke-linejoin:miter;stroke-width:0.8;"/>
   </g>
   <g id="patch_4">
    <path d="M 399.984 294.16 
L 399.984 6.125228 
" style="fill:none;stroke:#000000;stroke-linecap:square;stroke-linejoin:miter;stroke-width:0.8;"/>
   </g>
   <g id="patch_5">
    <path d="M 56.84 294.16 
L 399.984 294.16 
" style="fill:none;stroke:#000000;stroke-linecap:square;stroke-linejoin:miter;stroke-width:0.8;"/>
   </g>
   <g id="patch_6">
    <path d="M 56.84 6.125228 
L 399.984 6.125228 
" style="fill:none;stroke:#000000;stroke-linecap:square;stroke-linejoin:miter;stroke-width:0.8;"/>
   </g>
   <g id="text_14">
    <!-- adaptiveH -->
    <defs>
     <path d="M 9.8125 72.90625 
L 19.671875 72.90625 
L 19.671875 43.015625 
L 55.515625 43.015625 
L 55.515625 72.90625 
L 65.375 72.90625 
L 65.375 0 
L 55.515625 0 
L 55.515625 34.71875 
L 19.671875 34.71875 
L 19.671875 0 
L 9.8125 0 
z
" id="DejaVuSans-48"/>
    </defs>
    <g transform="translate(369.543806 293.147279)scale(0.17 -0.17)">
     <use xlink:href="#DejaVuSans-61"/>
     <use x="61.279297" xlink:href="#DejaVuSans-64"/>
     <use x="124.755859" xlink:href="#DejaVuSans-61"/>
     <use x="186.035156" xlink:href="#DejaVuSans-70"/>
     <use x="249.511719" xlink:href="#DejaVuSans-74"/>
     <use x="288.720703" xlink:href="#DejaVuSans-69"/>
     <use x="316.503906" xlink:href="#DejaVuSans-76"/>
     <use x="375.683594" xlink:href="#DejaVuSans-65"/>
     <use x="437.207031" xlink:href="#DejaVuSans-48"/>
    </g>
   </g>
   <g id="text_15">
    <!-- RANDOMSEA -->
    <defs>
     <path d="M 44.390625 34.1875 
Q 47.5625 33.109375 50.5625 29.59375 
Q 53.5625 26.078125 56.59375 19.921875 
L 66.609375 0 
L 56 0 
L 46.6875 18.703125 
Q 43.0625 26.03125 39.671875 28.421875 
Q 36.28125 30.8125 30.421875 30.8125 
L 19.671875 30.8125 
L 19.671875 0 
L 9.8125 0 
L 9.8125 72.90625 
L 32.078125 72.90625 
Q 44.578125 72.90625 50.734375 67.671875 
Q 56.890625 62.453125 56.890625 51.90625 
Q 56.890625 45.015625 53.6875 40.46875 
Q 50.484375 35.9375 44.390625 34.1875 
M 19.671875 64.796875 
L 19.671875 38.921875 
L 32.078125 38.921875 
Q 39.203125 38.921875 42.84375 42.21875 
Q 46.484375 45.515625 46.484375 51.90625 
Q 46.484375 58.296875 42.84375 61.546875 
Q 39.203125 64.796875 32.078125 64.796875 
z
" id="DejaVuSans-52"/>
     <path d="M 34.1875 63.1875 
L 20.796875 26.90625 
L 47.609375 26.90625 
z
M 28.609375 72.90625 
L 39.796875 72.90625 
L 67.578125 0 
L 57.328125 0 
L 50.6875 18.703125 
L 17.828125 18.703125 
L 11.1875 0 
L 0.78125 0 
z
" id="DejaVuSans-41"/>
     <path d="M 9.8125 72.90625 
L 23.09375 72.90625 
L 55.421875 11.921875 
L 55.421875 72.90625 
L 64.984375 72.90625 
L 64.984375 0 
L 51.703125 0 
L 19.390625 60.984375 
L 19.390625 0 
L 9.8125 0 
z
" id="DejaVuSans-4e"/>
     <path d="M 19.671875 64.796875 
L 19.671875 8.109375 
L 31.59375 8.109375 
Q 46.6875 8.109375 53.6875 14.9375 
Q 60.6875 21.78125 60.6875 36.53125 
Q 60.6875 51.171875 53.6875 57.984375 
Q 46.6875 64.796875 31.59375 64.796875 
z
M 9.8125 72.90625 
L 30.078125 72.90625 
Q 51.265625 72.90625 61.171875 64.09375 
Q 71.09375 55.28125 71.09375 36.53125 
Q 71.09375 17.671875 61.125 8.828125 
Q 51.171875 0 30.078125 0 
L 9.8125 0 
z
" id="DejaVuSans-44"/>
     <path d="M 39.40625 66.21875 
Q 28.65625 66.21875 22.328125 58.203125 
Q 16.015625 50.203125 16.015625 36.375 
Q 16.015625 22.609375 22.328125 14.59375 
Q 28.65625 6.59375 39.40625 6.59375 
Q 50.140625 6.59375 56.421875 14.59375 
Q 62.703125 22.609375 62.703125 36.375 
Q 62.703125 50.203125 56.421875 58.203125 
Q 50.140625 66.21875 39.40625 66.21875 
M 39.40625 74.21875 
Q 54.734375 74.21875 63.90625 63.9375 
Q 73.09375 53.65625 73.09375 36.375 
Q 73.09375 19.140625 63.90625 8.859375 
Q 54.734375 -1.421875 39.40625 -1.421875 
Q 24.03125 -1.421875 14.8125 8.828125 
Q 5.609375 19.09375 5.609375 36.375 
Q 5.609375 53.65625 14.8125 63.9375 
Q 24.03125 74.21875 39.40625 74.21875 
" id="DejaVuSans-4f"/>
     <path d="M 9.8125 72.90625 
L 24.515625 72.90625 
L 43.109375 23.296875 
L 61.8125 72.90625 
L 76.515625 72.90625 
L 76.515625 0 
L 66.890625 0 
L 66.890625 64.015625 
L 48.09375 14.015625 
L 38.1875 14.015625 
L 19.390625 64.015625 
L 19.390625 0 
L 9.8125 0 
z
" id="DejaVuSans-4d"/>
     <path d="M 53.515625 70.515625 
L 53.515625 60.890625 
Q 47.90625 63.578125 42.921875 64.890625 
Q 37.9375 66.21875 33.296875 66.21875 
Q 25.25 66.21875 20.875 63.09375 
Q 16.5 59.96875 16.5 54.203125 
Q 16.5 49.359375 19.40625 46.890625 
Q 22.3125 44.4375 30.421875 42.921875 
L 36.375 41.703125 
Q 47.40625 39.59375 52.65625 34.296875 
Q 57.90625 29 57.90625 20.125 
Q 57.90625 9.515625 50.796875 4.046875 
Q 43.703125 -1.421875 29.984375 -1.421875 
Q 24.8125 -1.421875 18.96875 -0.25 
Q 13.140625 0.921875 6.890625 3.21875 
L 6.890625 13.375 
Q 12.890625 10.015625 18.65625 8.296875 
Q 24.421875 6.59375 29.984375 6.59375 
Q 38.421875 6.59375 43.015625 9.90625 
Q 47.609375 13.234375 47.609375 19.390625 
Q 47.609375 24.75 44.3125 27.78125 
Q 41.015625 30.8125 33.5 32.328125 
L 27.484375 33.5 
Q 16.453125 35.6875 11.515625 40.375 
Q 6.59375 45.0625 6.59375 53.421875 
Q 6.59375 63.09375 13.40625 68.65625 
Q 20.21875 74.21875 32.171875 74.21875 
Q 37.3125 74.21875 42.625 73.28125 
Q 47.953125 72.359375 53.515625 70.515625 
" id="DejaVuSans-53"/>
     <path d="M 9.8125 72.90625 
L 55.90625 72.90625 
L 55.90625 64.59375 
L 19.671875 64.59375 
L 19.671875 43.015625 
L 54.390625 43.015625 
L 54.390625 34.71875 
L 19.671875 34.71875 
L 19.671875 8.296875 
L 56.78125 8.296875 
L 56.78125 0 
L 9.8125 0 
z
" id="DejaVuSans-45"/>
    </defs>
    <g transform="translate(369.543806 201.888737)scale(0.17 -0.17)">
     <use xlink:href="#DejaVuSans-52"/>
     <use x="69.419922" xlink:href="#DejaVuSans-41"/>
     <use x="137.828125" xlink:href="#DejaVuSans-4e"/>
     <use x="212.632812" xlink:href="#DejaVuSans-44"/>
     <use x="289.634766" xlink:href="#DejaVuSans-4f"/>
     <use x="368.345703" xlink:href="#DejaVuSans-4d"/>
     <use x="454.625" xlink:href="#DejaVuSans-53"/>
     <use x="518.101562" xlink:href="#DejaVuSans-45"/>
     <use x="581.285156" xlink:href="#DejaVuSans-41"/>
    </g>
   </g>
   <g id="text_16">
    <!-- NSGA-II-M -->
    <defs>
     <path d="M 59.515625 10.40625 
L 59.515625 29.984375 
L 43.40625 29.984375 
L 43.40625 38.09375 
L 69.28125 38.09375 
L 69.28125 6.78125 
Q 63.578125 2.734375 56.6875 0.65625 
Q 49.8125 -1.421875 42 -1.421875 
Q 24.90625 -1.421875 15.25 8.5625 
Q 5.609375 18.5625 5.609375 36.375 
Q 5.609375 54.25 15.25 64.234375 
Q 24.90625 74.21875 42 74.21875 
Q 49.125 74.21875 55.546875 72.453125 
Q 61.96875 70.703125 67.390625 67.28125 
L 67.390625 56.78125 
Q 61.921875 61.421875 55.765625 63.765625 
Q 49.609375 66.109375 42.828125 66.109375 
Q 29.4375 66.109375 22.71875 58.640625 
Q 16.015625 51.171875 16.015625 36.375 
Q 16.015625 21.625 22.71875 14.15625 
Q 29.4375 6.6875 42.828125 6.6875 
Q 48.046875 6.6875 52.140625 7.59375 
Q 56.25 8.5 59.515625 10.40625 
" id="DejaVuSans-47"/>
     <path d="M 9.8125 72.90625 
L 19.671875 72.90625 
L 19.671875 0 
L 9.8125 0 
z
" id="DejaVuSans-49"/>
    </defs>
    <g transform="translate(369.543806 110.630195)scale(0.17 -0.17)">
     <use xlink:href="#DejaVuSans-4e"/>
     <use x="74.804688" xlink:href="#DejaVuSans-53"/>
     <use x="138.28125" xlink:href="#DejaVuSans-47"/>
     <use x="215.771484" xlink:href="#DejaVuSans-41"/>
     <use x="284.148438" xlink:href="#DejaVuSans-2d"/>
     <use x="320.232422" xlink:href="#DejaVuSans-49"/>
     <use x="349.724609" xlink:href="#DejaVuSans-49"/>
     <use x="379.216797" xlink:href="#DejaVuSans-2d"/>
     <use x="415.300781" xlink:href="#DejaVuSans-4d"/>
    </g>
   </g>
   <g id="text_17">
    <!-- best 2016 -->
    <defs>
     <path d="M 48.6875 27.296875 
Q 48.6875 37.203125 44.609375 42.84375 
Q 40.53125 48.484375 33.40625 48.484375 
Q 26.265625 48.484375 22.1875 42.84375 
Q 18.109375 37.203125 18.109375 27.296875 
Q 18.109375 17.390625 22.1875 11.75 
Q 26.265625 6.109375 33.40625 6.109375 
Q 40.53125 6.109375 44.609375 11.75 
Q 48.6875 17.390625 48.6875 27.296875 
M 18.109375 46.390625 
Q 20.953125 51.265625 25.265625 53.625 
Q 29.59375 56 35.59375 56 
Q 45.5625 56 51.78125 48.09375 
Q 58.015625 40.1875 58.015625 27.296875 
Q 58.015625 14.40625 51.78125 6.484375 
Q 45.5625 -1.421875 35.59375 -1.421875 
Q 29.59375 -1.421875 25.265625 0.953125 
Q 20.953125 3.328125 18.109375 8.203125 
L 18.109375 0 
L 9.078125 0 
L 9.078125 75.984375 
L 18.109375 75.984375 
z
" id="DejaVuSans-62"/>
    </defs>
    <g transform="translate(369.543806 19.371654)scale(0.17 -0.17)">
     <use xlink:href="#DejaVuSans-62"/>
     <use x="63.476562" xlink:href="#DejaVuSans-65"/>
     <use x="125" xlink:href="#DejaVuSans-73"/>
     <use x="177.099609" xlink:href="#DejaVuSans-74"/>
     <use x="216.308594" xlink:href="#DejaVuSans-20"/>
     <use x="248.095703" xlink:href="#DejaVuSans-32"/>
     <use x="311.71875" xlink:href="#DejaVuSans-30"/>
     <use x="375.341797" xlink:href="#DejaVuSans-31"/>
     <use x="438.964844" xlink:href="#DejaVuSans-36"/>
    </g>
   </g>
   <g id="text_18">
    <!-- bbob-biobj f46, f47, f50, 5-D -->
    <defs>
     <path d="M 9.421875 54.6875 
L 18.40625 54.6875 
L 18.40625 -0.984375 
Q 18.40625 -11.421875 14.421875 -16.109375 
Q 10.453125 -20.796875 1.609375 -20.796875 
L -1.8125 -20.796875 
L -1.8125 -13.1875 
L 0.59375 -13.1875 
Q 5.71875 -13.1875 7.5625 -10.8125 
Q 9.421875 -8.453125 9.421875 -0.984375 
z
M 9.421875 75.984375 
L 18.40625 75.984375 
L 18.40625 64.59375 
L 9.421875 64.59375 
z
" id="DejaVuSans-6a"/>
     <path d="M 8.203125 72.90625 
L 55.078125 72.90625 
L 55.078125 68.703125 
L 28.609375 0 
L 18.3125 0 
L 43.21875 64.59375 
L 8.203125 64.59375 
z
" id="DejaVuSans-37"/>
     <path d="M 10.796875 72.90625 
L 49.515625 72.90625 
L 49.515625 64.59375 
L 19.828125 64.59375 
L 19.828125 46.734375 
Q 21.96875 47.46875 24.109375 47.828125 
Q 26.265625 48.1875 28.421875 48.1875 
Q 40.625 48.1875 47.75 41.5 
Q 54.890625 34.8125 54.890625 23.390625 
Q 54.890625 11.625 47.5625 5.09375 
Q 40.234375 -1.421875 26.90625 -1.421875 
Q 22.3125 -1.421875 17.546875 -0.640625 
Q 12.796875 0.140625 7.71875 1.703125 
L 7.71875 11.625 
Q 12.109375 9.234375 16.796875 8.0625 
Q 21.484375 6.890625 26.703125 6.890625 
Q 35.15625 6.890625 40.078125 11.328125 
Q 45.015625 15.765625 45.015625 23.390625 
Q 45.015625 31 40.078125 35.4375 
Q 35.15625 39.890625 26.703125 39.890625 
Q 22.75 39.890625 18.8125 39.015625 
Q 14.890625 38.140625 10.796875 36.28125 
z
" id="DejaVuSans-35"/>
    </defs>
    <g transform="translate(60.27144 16.755982)scale(0.102 -0.102)">
     <use xlink:href="#DejaVuSans-62"/>
     <use x="63.476562" xlink:href="#DejaVuSans-62"/>
     <use x="126.953125" xlink:href="#DejaVuSans-6f"/>
     <use x="188.134766" xlink:href="#DejaVuSans-62"/>
     <use x="251.611328" xlink:href="#DejaVuSans-2d"/>
     <use x="287.695312" xlink:href="#DejaVuSans-62"/>
     <use x="351.171875" xlink:href="#DejaVuSans-69"/>
     <use x="378.955078" xlink:href="#DejaVuSans-6f"/>
     <use x="440.136719" xlink:href="#DejaVuSans-62"/>
     <use x="503.613281" xlink:href="#DejaVuSans-6a"/>
     <use x="531.396484" xlink:href="#DejaVuSans-20"/>
     <use x="563.183594" xlink:href="#DejaVuSans-66"/>
     <use x="598.388672" xlink:href="#DejaVuSans-34"/>
     <use x="662.011719" xlink:href="#DejaVuSans-36"/>
     <use x="725.634766" xlink:href="#DejaVuSans-2c"/>
     <use x="757.421875" xlink:href="#DejaVuSans-20"/>
     <use x="789.208984" xlink:href="#DejaVuSans-66"/>
     <use x="824.414062" xlink:href="#DejaVuSans-34"/>
     <use x="888.037109" xlink:href="#DejaVuSans-37"/>
     <use x="951.660156" xlink:href="#DejaVuSans-2c"/>
     <use x="983.447266" xlink:href="#DejaVuSans-20"/>
     <use x="1015.234375" xlink:href="#DejaVuSans-66"/>
     <use x="1050.439453" xlink:href="#DejaVuSans-35"/>
     <use x="1114.0625" xlink:href="#DejaVuSans-30"/>
     <use x="1177.685547" xlink:href="#DejaVuSans-2c"/>
     <use x="1209.472656" xlink:href="#DejaVuSans-20"/>
     <use x="1241.259766" xlink:href="#DejaVuSans-35"/>
     <use x="1304.882812" xlink:href="#DejaVuSans-2d"/>
     <use x="1340.966797" xlink:href="#DejaVuSans-44"/>
    </g>
    <!-- 58 targets: 1..-1.0e-4 -->
    <defs>
     <path d="M 11.71875 12.40625 
L 22.015625 12.40625 
L 22.015625 0 
L 11.71875 0 
z
M 11.71875 51.703125 
L 22.015625 51.703125 
L 22.015625 39.3125 
L 11.71875 39.3125 
z
" id="DejaVuSans-3a"/>
    </defs>
    <g transform="translate(60.27144 28.17775)scale(0.102 -0.102)">
     <use xlink:href="#DejaVuSans-35"/>
     <use x="63.623047" xlink:href="#DejaVuSans-38"/>
     <use x="127.246094" xlink:href="#DejaVuSans-20"/>
     <use x="159.033203" xlink:href="#DejaVuSans-74"/>
     <use x="198.242188" xlink:href="#DejaVuSans-61"/>
     <use x="259.521484" xlink:href="#DejaVuSans-72"/>
     <use x="300.619141" xlink:href="#DejaVuSans-67"/>
     <use x="364.095703" xlink:href="#DejaVuSans-65"/>
     <use x="425.619141" xlink:href="#DejaVuSans-74"/>
     <use x="464.828125" xlink:href="#DejaVuSans-73"/>
     <use x="516.927734" xlink:href="#DejaVuSans-3a"/>
     <use x="550.619141" xlink:href="#DejaVuSans-20"/>
     <use x="582.40625" xlink:href="#DejaVuSans-31"/>
     <use x="646.029297" xlink:href="#DejaVuSans-2e"/>
     <use x="677.816406" xlink:href="#DejaVuSans-2e"/>
     <use x="709.603516" xlink:href="#DejaVuSans-2d"/>
     <use x="745.6875" xlink:href="#DejaVuSans-31"/>
     <use x="809.310547" xlink:href="#DejaVuSans-2e"/>
     <use x="841.097656" xlink:href="#DejaVuSans-30"/>
     <use x="904.720703" xlink:href="#DejaVuSans-65"/>
     <use x="966.244141" xlink:href="#DejaVuSans-2d"/>
     <use x="1002.328125" xlink:href="#DejaVuSans-34"/>
    </g>
    <!-- 10 instances -->
    <g transform="translate(60.27144 39.599519)scale(0.102 -0.102)">
     <use xlink:href="#DejaVuSans-31"/>
     <use x="63.623047" xlink:href="#DejaVuSans-30"/>
     <use x="127.246094" xlink:href="#DejaVuSans-20"/>
     <use x="159.033203" xlink:href="#DejaVuSans-69"/>
     <use x="186.816406" xlink:href="#DejaVuSans-6e"/>
     <use x="250.195312" xlink:href="#DejaVuSans-73"/>
     <use x="302.294922" xlink:href="#DejaVuSans-74"/>
     <use x="341.503906" xlink:href="#DejaVuSans-61"/>
     <use x="402.783203" xlink:href="#DejaVuSans-6e"/>
     <use x="466.162109" xlink:href="#DejaVuSans-63"/>
     <use x="521.142578" xlink:href="#DejaVuSans-65"/>
     <use x="582.666016" xlink:href="#DejaVuSans-73"/>
    </g>
   </g>
   <g id="text_19">
    <!-- v2.2.1.10, hv-hash=ff0e71e8cd978373 -->
    <defs>
     <path d="M 54.890625 33.015625 
L 54.890625 0 
L 45.90625 0 
L 45.90625 32.71875 
Q 45.90625 40.484375 42.875 44.328125 
Q 39.84375 48.1875 33.796875 48.1875 
Q 26.515625 48.1875 22.3125 43.546875 
Q 18.109375 38.921875 18.109375 30.90625 
L 18.109375 0 
L 9.078125 0 
L 9.078125 75.984375 
L 18.109375 75.984375 
L 18.109375 46.1875 
Q 21.34375 51.125 25.703125 53.5625 
Q 30.078125 56 35.796875 56 
Q 45.21875 56 50.046875 50.171875 
Q 54.890625 44.34375 54.890625 33.015625 
" id="DejaVuSans-68"/>
     <path d="M 10.59375 45.40625 
L 73.1875 45.40625 
L 73.1875 37.203125 
L 10.59375 37.203125 
z
M 10.59375 25.484375 
L 73.1875 25.484375 
L 73.1875 17.1875 
L 10.59375 17.1875 
z
" id="DejaVuSans-3d"/>
     <path d="M 10.984375 1.515625 
L 10.984375 10.5 
Q 14.703125 8.734375 18.5 7.8125 
Q 22.3125 6.890625 25.984375 6.890625 
Q 35.75 6.890625 40.890625 13.453125 
Q 46.046875 20.015625 46.78125 33.40625 
Q 43.953125 29.203125 39.59375 26.953125 
Q 35.25 24.703125 29.984375 24.703125 
Q 19.046875 24.703125 12.671875 31.3125 
Q 6.296875 37.9375 6.296875 49.421875 
Q 6.296875 60.640625 12.9375 67.421875 
Q 19.578125 74.21875 30.609375 74.21875 
Q 43.265625 74.21875 49.921875 64.515625 
Q 56.59375 54.828125 56.59375 36.375 
Q 56.59375 19.140625 48.40625 8.859375 
Q 40.234375 -1.421875 26.421875 -1.421875 
Q 22.703125 -1.421875 18.890625 -0.6875 
Q 15.09375 0.046875 10.984375 1.515625 
M 30.609375 32.421875 
Q 37.25 32.421875 41.125 36.953125 
Q 45.015625 41.5 45.015625 49.421875 
Q 45.015625 57.28125 41.125 61.84375 
Q 37.25 66.40625 30.609375 66.40625 
Q 23.96875 66.40625 20.09375 61.84375 
Q 16.21875 57.28125 16.21875 49.421875 
Q 16.21875 41.5 20.09375 36.953125 
Q 23.96875 32.421875 30.609375 32.421875 
" id="DejaVuSans-39"/>
     <path d="M 40.578125 39.3125 
Q 47.65625 37.796875 51.625 33 
Q 55.609375 28.21875 55.609375 21.1875 
Q 55.609375 10.40625 48.1875 4.484375 
Q 40.765625 -1.421875 27.09375 -1.421875 
Q 22.515625 -1.421875 17.65625 -0.515625 
Q 12.796875 0.390625 7.625 2.203125 
L 7.625 11.71875 
Q 11.71875 9.328125 16.59375 8.109375 
Q 21.484375 6.890625 26.8125 6.890625 
Q 36.078125 6.890625 40.9375 10.546875 
Q 45.796875 14.203125 45.796875 21.1875 
Q 45.796875 27.640625 41.28125 31.265625 
Q 36.765625 34.90625 28.71875 34.90625 
L 20.21875 34.90625 
L 20.21875 43.015625 
L 29.109375 43.015625 
Q 36.375 43.015625 40.234375 45.921875 
Q 44.09375 48.828125 44.09375 54.296875 
Q 44.09375 59.90625 40.109375 62.90625 
Q 36.140625 65.921875 28.71875 65.921875 
Q 24.65625 65.921875 20.015625 65.03125 
Q 15.375 64.15625 9.8125 62.3125 
L 9.8125 71.09375 
Q 15.4375 72.65625 20.34375 73.4375 
Q 25.25 74.21875 29.59375 74.21875 
Q 40.828125 74.21875 47.359375 69.109375 
Q 53.90625 64.015625 53.90625 55.328125 
Q 53.90625 49.265625 50.4375 45.09375 
Q 46.96875 40.921875 40.578125 39.3125 
" id="DejaVuSans-33"/>
    </defs>
    <g style="fill:#808080;" transform="translate(130.065125 289.199965)scale(0.1 -0.1)">
     <use xlink:href="#DejaVuSans-76"/>
     <use x="59.179688" xlink:href="#DejaVuSans-32"/>
     <use x="122.802734" xlink:href="#DejaVuSans-2e"/>
     <use x="154.589844" xlink:href="#DejaVuSans-32"/>
     <use x="218.212891" xlink:href="#DejaVuSans-2e"/>
     <use x="250" xlink:href="#DejaVuSans-31"/>
     <use x="313.623047" xlink:href="#DejaVuSans-2e"/>
     <use x="345.410156" xlink:href="#DejaVuSans-31"/>
     <use x="409.033203" xlink:href="#DejaVuSans-30"/>
     <use x="472.65625" xlink:href="#DejaVuSans-2c"/>
     <use x="504.443359" xlink:href="#DejaVuSans-20"/>
     <use x="536.230469" xlink:href="#DejaVuSans-68"/>
     <use x="599.609375" xlink:href="#DejaVuSans-76"/>
     <use x="658.757812" xlink:href="#DejaVuSans-2d"/>
     <use x="694.841797" xlink:href="#DejaVuSans-68"/>
     <use x="758.220703" xlink:href="#DejaVuSans-61"/>
     <use x="819.5" xlink:href="#DejaVuSans-73"/>
     <use x="871.599609" xlink:href="#DejaVuSans-68"/>
     <use x="934.978516" xlink:href="#DejaVuSans-3d"/>
     <use x="1018.767578" xlink:href="#DejaVuSans-66"/>
     <use x="1053.972656" xlink:href="#DejaVuSans-66"/>
     <use x="1089.177734" xlink:href="#DejaVuSans-30"/>
     <use x="1152.800781" xlink:href="#DejaVuSans-65"/>
     <use x="1214.324219" xlink:href="#DejaVuSans-37"/>
     <use x="1277.947266" xlink:href="#DejaVuSans-31"/>
     <use x="1341.570312" xlink:href="#DejaVuSans-65"/>
     <use x="1403.09375" xlink:href="#DejaVuSans-38"/>
     <use x="1466.716797" xlink:href="#DejaVuSans-63"/>
     <use x="1521.697266" xlink:href="#DejaVuSans-64"/>
     <use x="1585.173828" xlink:href="#DejaVuSans-39"/>
     <use x="1648.796875" xlink:href="#DejaVuSans-37"/>
     <use x="1712.419922" xlink:href="#DejaVuSans-38"/>
     <use x="1776.042969" xlink:href="#DejaVuSans-33"/>
     <use x="1839.666016" xlink:href="#DejaVuSans-37"/>
     <use x="1903.289062" xlink:href="#DejaVuSans-33"/>
    </g>
   </g>
  </g>
 </g>
 <defs>
  <clipPath id="pcaf4bd5e69">
   <rect height="288.034772" width="343.144" x="56.84" y="6.125228"/>
  </clipPath>
 </defs>
</svg>
