%
% index = 3540, name = bbob_f002_i02_d20__bbob_f017_i04_d20
% instance = 1, reference value = 9.760402749186230e-01
% function evaluation | indicator value | target hit
1	8.988865195636218e-01	9.120108393559098e-01
3115	8.988865195636218e-01	9.120108393559098e-01
%
% index = 3544, name = bbob_f002_i11_d20__bbob_f017_i12_d20
% instance = 5, reference value = 9.983833096386940e-01
% function evaluation | indicator value | target hit
1	7.075464189199061e-01	7.079457843841379e-01
3123	7.075464189199061e-01	7.079457843841379e-01
%
% index = 3548, name = bbob_f002_i19_d20__bbob_f017_i21_d20
% instance = 9, reference value = 9.944723787061100e-01
% function evaluation | indicator value | target hit
1	7.722554095942749e-01	7.762471166286917e-01
3119	7.722554095942749e-01	7.762471166286917e-01
%
% index = 3552, name = bbob_f002_i27_d20__bbob_f017_i28_d20
% instance = 13, reference value = 1.000000000000000e+00
% function evaluation | indicator value | target hit
1	4.851593756866414e-01	4.897788193684462e-01
3107	4.851593756866414e-01	4.897788193684462e-01
