%
% index = 1905, name = bbob_f002_i02_d05__bbob_f020_i04_d05
% instance = 1, reference value = 9.984929909187530e-01
% function evaluation | indicator value | target hit
1	1.313064132182253e+00	1.318256738556407e+00
3111	1.313064132182253e+00	1.318256738556407e+00
%
% index = 1906, name = bbob_f002_i03_d05__bbob_f020_i05_d05
% instance = 2, reference value = 9.917430869477259e-01
% function evaluation | indicator value | target hit
1	6.171476932551226e+00	6.309573444801933e+00
1355	4.135742149950236e+00	4.168693834703354e+00
1830	3.256293892108726e+00	3.311311214825911e+00
1863	2.983975157589226e+00	3.019951720402016e+00
2494	2.787258970413498e+00	2.818382931264454e+00
2495	1.468344041632269e+00	1.479108388168207e+00
2534	9.447792002549220e-01	9.549925860214360e-01
2907	9.171716624972365e-01	9.332543007969910e-01
2991	7.961876560902309e-01	8.128305161640993e-01
3087	7.961876560902309e-01	8.128305161640993e-01
%
% index = 1907, name = bbob_f002_i07_d05__bbob_f020_i08_d05
% instance = 3, reference value = 9.465839345819780e-01
% function evaluation | indicator value | target hit
1	3.280108895832399e-01	3.311311214825911e-01
1630	2.097327318420054e-01	2.137962089502232e-01
2734	2.026992747784956e-01	2.041737944669530e-01
2915	1.352937737711923e-01	1.380384264602885e-01
3087	1.352937737711923e-01	1.380384264602885e-01
%
% index = 1908, name = bbob_f002_i09_d05__bbob_f020_i10_d05
% instance = 4, reference value = 9.737691410459470e-01
% function evaluation | indicator value | target hit
1	9.405038299020447e+00	9.549925860214358e+00
2879	8.954111849459235e+00	9.120108393559097e+00
2946	8.794994392450446e+00	8.912509381337454e+00
2990	7.802598189280697e+00	7.943282347242816e+00
3087	7.741469896608040e+00	7.762471166286917e+00
3107	7.741469896608040e+00	7.762471166286917e+00
%
% index = 1909, name = bbob_f002_i11_d05__bbob_f020_i12_d05
% instance = 5, reference value = 9.412236761861210e-01
% function evaluation | indicator value | target hit
1	3.662622818268952e-01	3.715352290971726e-01
3119	3.662622818268952e-01	3.715352290971726e-01
%
% index = 1910, name = bbob_f002_i13_d05__bbob_f020_i14_d05
% instance = 6, reference value = 9.722374372179060e-01
% function evaluation | indicator value | target hit
1	2.136691362987383e-01	2.137962089502232e-01
2018	1.934187401039594e-01	1.949844599758045e-01
2031	1.776871897413008e-01	1.778279410038923e-01
2126	1.704330715174162e-01	1.737800828749375e-01
2202	1.663273722977655e-01	1.698243652461744e-01
2238	1.597644934470206e-01	1.621810097358930e-01
2242	1.151387639346702e-01	1.174897554939529e-01
2315	1.001449559227026e-01	1.023292992280754e-01
2319	9.972556780546005e-02	1.000000000000000e-01
2342	9.750198997855364e-02	9.772372209558107e-02
2550	9.317010459472064e-02	9.332543007969910e-02
2835	9.020796191702463e-02	9.120108393559097e-02
2847	8.741128911984586e-02	8.912509381337455e-02
3035	8.705753740489219e-02	8.709635899560805e-02
3131	8.705753740489219e-02	8.709635899560805e-02
%
% index = 1911, name = bbob_f002_i15_d05__bbob_f020_i16_d05
% instance = 7, reference value = 9.735050223625690e-01
% function evaluation | indicator value | target hit
1	2.403599511923553e-01	2.454708915685030e-01
1327	2.369046159463333e-01	2.398832919019490e-01
1590	2.324895993562409e-01	2.344228815319922e-01
1758	2.124249617990197e-01	2.137962089502232e-01
1975	1.936271147564751e-01	1.949844599758045e-01
2023	1.905133934525325e-01	1.905460717963247e-01
2231	1.849419552570918e-01	1.862087136662867e-01
2399	1.670906535312950e-01	1.698243652461744e-01
3115	1.670906535312950e-01	1.698243652461744e-01
%
% index = 1912, name = bbob_f002_i17_d05__bbob_f020_i18_d05
% instance = 8, reference value = 9.723412145178369e-01
% function evaluation | indicator value | target hit
1	2.676359945193295e-01	2.691534803926916e-01
3095	2.676359945193295e-01	2.691534803926916e-01
%
% index = 1913, name = bbob_f002_i19_d05__bbob_f020_i21_d05
% instance = 9, reference value = 9.904001880811700e-01
% function evaluation | indicator value | target hit
1	4.753889109244670e+00	4.786300923226384e+00
1226	3.964053263942185e+00	3.981071705534972e+00
1275	2.962173234359446e+00	3.019951720402016e+00
3067	2.962173234359446e+00	3.019951720402016e+00
%
% index = 1914, name = bbob_f002_i21_d05__bbob_f020_i22_d05
% instance = 10, reference value = 9.731619948606760e-01
% function evaluation | indicator value | target hit
1	4.886665531508176e+00	4.897788193684462e+00
614	3.621173968957176e+00	3.630780547701014e+00
615	2.642528676044311e+00	2.691534803926916e+00
751	1.651112696836676e+00	1.659586907437561e+00
2883	9.186763580498559e-01	9.332543007969910e-01
3103	9.186763580498559e-01	9.332543007969910e-01
%
% index = 1915, name = bbob_f002_i23_d05__bbob_f020_i24_d05
% instance = 11, reference value = 1.000000000000000e+00
% function evaluation | indicator value | target hit
1	3.155953670107429e-01	3.162277660168379e-01
3087	3.155953670107429e-01	3.162277660168379e-01
%
% index = 1916, name = bbob_f002_i25_d05__bbob_f020_i26_d05
% instance = 12, reference value = 1.000000000000000e+00
% function evaluation | indicator value | target hit
1	3.801385039762470e+00	3.801893963205611e+00
3147	3.801385039762470e+00	3.801893963205611e+00
%
% index = 1917, name = bbob_f002_i27_d05__bbob_f020_i28_d05
% instance = 13, reference value = 1.000000000000000e+00
% function evaluation | indicator value | target hit
1	3.248664155372373e-01	3.311311214825911e-01
1582	2.697571421191760e-01	2.754228703338166e-01
1590	2.546705562274822e-01	2.570395782768864e-01
1618	2.229623988624544e-01	2.238721138568339e-01
1995	2.171690204824419e-01	2.187761623949552e-01
2443	2.137618673140750e-01	2.137962089502232e-01
2563	1.704850746407683e-01	1.737800828749375e-01
2631	1.244771328615422e-01	1.258925411794167e-01
2658	8.397067530526958e-02	8.511380382023763e-02
2683	8.105373024401685e-02	8.128305161640990e-02
2695	7.590818345483363e-02	7.762471166286916e-02
2770	6.887381890186650e-02	6.918309709189366e-02
3083	6.836654500837236e-02	6.918309709189366e-02
%
% index = 1918, name = bbob_f002_i29_d05__bbob_f020_i30_d05
% instance = 14, reference value = 1.000000000000000e+00
% function evaluation | indicator value | target hit
1	2.671446642437787e-01	2.691534803926916e-01
3023	2.626366967310049e-01	2.630267991895382e-01
3043	2.558962075696178e-01	2.570395782768864e-01
3127	2.522039908019132e-01	2.570395782768864e-01
%
% index = 1919, name = bbob_f002_i31_d05__bbob_f020_i34_d05
% instance = 15, reference value = 1.000000000000000e+00
% function evaluation | indicator value | target hit
1	4.248069304666672e+00	4.265795188015927e+00
2339	3.185059042982500e+00	3.235936569296283e+00
2643	3.023043994101578e+00	3.090295432513591e+00
2703	2.740084718520500e+00	2.754228703338166e+00
2943	9.136536027769686e-01	9.332543007969910e-01
3115	9.136536027769686e-01	9.332543007969910e-01
