%
% index = 255, name = bbob_f002_i02_d02__bbob_f020_i04_d02
% instance = 1, reference value = 9.692049554635810e-01
% function evaluation | indicator value | target hit
1	3.249947106962541e-01	3.311311214825911e-01
23	1.980365278012642e-01	1.995262314968880e-01
78	1.604692471670385e-01	1.621810097358930e-01
127	8.617661701116042e-02	8.709635899560805e-02
146	5.563053671552842e-02	5.623413251903491e-02
147	3.697554241444567e-02	3.715352290971726e-02
187	3.420226178956853e-02	3.467368504525317e-02
198	3.340966218085450e-02	3.388441561392026e-02
246	3.300243826177141e-02	3.311311214825911e-02
299	2.392910712517538e-02	2.398832919019490e-02
574	2.343607881333343e-02	2.344228815319923e-02
1130	1.938072188594075e-02	1.949844599758046e-02
1442	1.752663306961766e-02	1.778279410038923e-02
1566	1.636738685116168e-02	1.659586907437561e-02
1838	1.595313200798398e-02	1.621810097358930e-02
1847	1.579660579218778e-02	1.584893192461113e-02
3123	1.577741809420641e-02	1.584893192461113e-02
%
% index = 256, name = bbob_f002_i03_d02__bbob_f020_i05_d02
% instance = 2, reference value = 9.534096727835329e-01
% function evaluation | indicator value | target hit
1	4.277071286669760e-01	4.365158322401660e-01
84	4.193604954772441e-01	4.265795188015927e-01
102	3.838282192218926e-01	3.890451449942806e-01
115	1.518857998276141e-01	1.548816618912481e-01
131	1.448681220917453e-01	1.479108388168208e-01
138	1.139814192506888e-01	1.148153621496883e-01
227	1.022070021998238e-01	1.023292992280754e-01
259	9.801688852906509e-02	1.000000000000000e-01
270	9.633193834331266e-02	9.772372209558107e-02
635	9.347366751235608e-02	9.549925860214359e-02
755	9.319037352763027e-02	9.332543007969910e-02
882	5.576113996185328e-02	5.623413251903491e-02
907	5.044579418995132e-02	5.128613839913648e-02
1349	4.850446671527731e-02	4.897788193684462e-02
1491	4.038227798544891e-02	4.073802778041128e-02
1559	3.935745659279022e-02	3.981071705534973e-02
1619	3.863421549011281e-02	3.890451449942807e-02
1670	3.098964593639131e-02	3.162277660168379e-02
1715	3.065747196739321e-02	3.090295432513590e-02
1738	3.008815283486466e-02	3.019951720402016e-02
1739	2.617775700366476e-02	2.630267991895381e-02
3103	2.580256941856074e-02	2.630267991895381e-02
%
% index = 257, name = bbob_f002_i07_d02__bbob_f020_i08_d02
% instance = 3, reference value = 9.994034741001230e-01
% function evaluation | indicator value | target hit
1	7.928279543496883e+02	7.943282347242813e+02
83	4.271139376129956e+02	4.365158322401661e+02
98	4.228278723740034e+02	4.265795188015925e+02
187	3.578131561650480e+02	3.630780547701014e+02
219	1.228678454867246e+02	1.230268770812381e+02
323	1.167258653022044e+02	1.174897554939529e+02
358	1.968211614252207e+01	1.995262314968880e+01
787	1.624111712938812e+01	1.659586907437561e+01
790	9.368446556773124e+00	9.549925860214358e+00
810	1.075731866974623e+00	1.096478196143185e+00
811	7.748543923135705e-01	7.762471166286917e-01
1743	4.890250465835601e-01	4.897788193684462e-01
2175	3.062940688441018e-02	3.090295432513590e-02
3119	3.062940688441018e-02	3.090295432513590e-02
%
% index = 258, name = bbob_f002_i09_d02__bbob_f020_i10_d02
% instance = 4, reference value = 9.900150096604560e-01
% function evaluation | indicator value | target hit
1	1.086177856558096e+01	1.096478196143185e+01
123	7.811434872805456e+00	7.943282347242816e+00
167	6.022323103038774e-01	6.025595860743578e-01
1246	3.792693954971845e-01	3.801893963205612e-01
1274	8.857085829529432e-02	8.912509381337455e-02
1294	7.217011775270132e-02	7.244359600749903e-02
1302	6.905646097404372e-02	6.918309709189366e-02
1395	4.910023860658985e-02	5.011872336272722e-02
1403	3.602865184125159e-02	3.630780547701014e-02
1650	3.058285314439624e-02	3.090295432513590e-02
1670	2.847636852887159e-02	2.884031503126606e-02
1675	2.487522438670797e-02	2.511886431509579e-02
1747	2.453505237389297e-02	2.454708915685030e-02
1978	2.089647890246138e-02	2.137962089502233e-02
3067	2.089647890246138e-02	2.137962089502233e-02
%
% index = 259, name = bbob_f002_i11_d02__bbob_f020_i12_d02
% instance = 5, reference value = 9.999353480383470e-01
% function evaluation | indicator value | target hit
1	5.952380222145347e+00	6.025595860743578e+00
138	8.944290392493774e-01	9.120108393559098e-01
174	8.138096281960305e-01	8.317637711026710e-01
194	8.107304687610458e-01	8.128305161640993e-01
198	7.852310551659014e-01	7.943282347242815e-01
239	7.627310648062339e-01	7.762471166286917e-01
290	7.392650092672861e-01	7.413102413009175e-01
302	3.608248987577980e-01	3.630780547701014e-01
851	3.223367922228390e-01	3.235936569296283e-01
1187	3.079179362846520e-01	3.090295432513591e-01
1211	2.894756690402608e-01	2.951209226666385e-01
1250	2.883786723112788e-01	2.884031503126606e-01
1275	2.806764207999630e-01	2.818382931264454e-01
1550	2.612358383918783e-01	2.630267991895382e-01
1706	2.419846733553550e-01	2.454708915685030e-01
1719	8.459929208348083e-02	8.511380382023763e-02
1751	4.951146615893043e-02	5.011872336272722e-02
1790	4.572511713846883e-02	4.677351412871981e-02
1798	2.418427766648490e-02	2.454708915685030e-02
3119	2.410795648101260e-02	2.454708915685030e-02
%
% index = 260, name = bbob_f002_i13_d02__bbob_f020_i14_d02
% instance = 6, reference value = 9.998906648003890e-01
% function evaluation | indicator value | target hit
1	1.149970134709264e+01	1.174897554939530e+01
82	5.328866228156889e+00	5.370317963702527e+00
286	3.585874180624259e-01	3.630780547701014e-01
347	3.374246795871099e-01	3.388441561392025e-01
454	8.549134126218971e-02	8.709635899560805e-02
466	4.512115032621600e-02	4.570881896148749e-02
470	2.769801649564596e-02	2.818382931264454e-02
1566	1.913114562212870e-02	1.949844599758046e-02
2106	1.880671526464373e-02	1.905460717963247e-02
2123	4.377438102931008e-03	4.466835921509630e-03
2215	7.739663093030424e-04	7.762471166286919e-04
2603	6.311632879596463e-04	6.456542290346556e-04
2659	6.203077488526887e-04	6.309573444801930e-04
2738	3.702086697638940e-04	3.715352290971724e-04
2754	3.626897472092105e-04	3.630780547701014e-04
2790	3.146261544691997e-04	3.162277660168379e-04
3107	3.096279269738655e-04	3.162277660168379e-04
%
% index = 261, name = bbob_f002_i15_d02__bbob_f020_i16_d02
% instance = 7, reference value = 9.997229161858840e-01
% function evaluation | indicator value | target hit
1	1.003318164258706e+01	1.023292992280754e+01
94	8.947779635790903e+00	9.120108393559097e+00
195	2.457469363176222e+00	2.511886431509580e+00
218	1.726451330396384e+00	1.737800828749375e+00
458	9.362770286586199e-01	9.549925860214360e-01
479	3.674822153727968e-01	3.715352290971726e-01
506	5.232354698434194e-03	5.248074602497728e-03
550	5.039998395360845e-03	5.128613839913648e-03
554	4.925412508123284e-03	5.011872336272725e-03
562	4.291593914392711e-03	4.365158322401661e-03
571	3.988276253265144e-03	4.073802778041126e-03
643	3.150609074787925e-03	3.162277660168379e-03
679	1.353420613138145e-03	1.380384264602885e-03
859	1.126627323293272e-03	1.148153621496883e-03
1150	1.027820740887364e-03	1.047128548050900e-03
3091	1.027820740887364e-03	1.047128548050900e-03
%
% index = 262, name = bbob_f002_i17_d02__bbob_f020_i18_d02
% instance = 8, reference value = 9.795226331779820e-01
% function evaluation | indicator value | target hit
1	3.106226853670732e-01	3.162277660168379e-01
422	2.345638886018826e-01	2.398832919019490e-01
423	1.387223296259024e-01	1.412537544622754e-01
498	1.295809840924550e-01	1.318256738556407e-01
515	1.284040463746532e-01	1.288249551693134e-01
546	1.225594019377623e-01	1.230268770812381e-01
806	1.168588095134262e-01	1.174897554939529e-01
1207	1.115536333671252e-01	1.122018454301964e-01
1238	7.116892130633767e-02	7.244359600749903e-02
1254	5.881084218143795e-02	5.888436553555890e-02
1290	5.192460167885760e-02	5.248074602497726e-02
1418	5.068920863266368e-02	5.128613839913648e-02
2565	3.593085791892281e-02	3.630780547701014e-02
3091	3.593052562971200e-02	3.630780547701014e-02
%
% index = 263, name = bbob_f002_i19_d02__bbob_f020_i21_d02
% instance = 9, reference value = 8.265402697773940e-01
% function evaluation | indicator value | target hit
1	1.375277997075161e+03	1.380384264602885e+03
339	1.238083771238708e+03	1.258925411794168e+03
554	3.334832871236968e+02	3.388441561392024e+02
650	5.235901243767894e+00	5.248074602497725e+00
730	4.987986815959394e+00	5.011872336272722e+00
878	1.446477953021737e+00	1.479108388168207e+00
998	1.225224048820394e+00	1.230268770812382e+00
1439	8.982198126513941e-01	9.120108393559098e-01
2538	8.113293055813832e-01	8.128305161640993e-01
3119	8.069527381504059e-01	8.128305161640993e-01
%
% index = 264, name = bbob_f002_i21_d02__bbob_f020_i22_d02
% instance = 10, reference value = 9.811708579872760e-01
% function evaluation | indicator value | target hit
1	2.716402403522949e-01	2.754228703338166e-01
295	2.481243347186860e-01	2.511886431509580e-01
563	2.422212945353442e-01	2.454708915685030e-01
778	2.004464023397732e-01	2.041737944669530e-01
826	1.953929572429483e-01	1.995262314968880e-01
894	1.876158991365832e-01	1.905460717963247e-01
903	1.860049372662984e-01	1.862087136662867e-01
918	1.611888867823125e-01	1.621810097358930e-01
934	1.232811473444211e-01	1.258925411794167e-01
942	1.081109922865867e-01	1.096478196143185e-01
950	1.003684598572367e-01	1.023292992280754e-01
1043	9.613922920231455e-02	9.772372209558107e-02
1312	9.319707266927280e-02	9.332543007969910e-02
1663	8.430118525532271e-02	8.511380382023763e-02
1683	7.139469541565757e-02	7.244359600749903e-02
1933	6.952633143029596e-02	7.079457843841380e-02
2143	6.635735732983572e-02	6.760829753919818e-02
2238	6.575266973328298e-02	6.606934480075961e-02
2567	5.471994977347872e-02	5.495408738576246e-02
2579	3.498992310008608e-02	3.548133892335755e-02
2659	3.451667597168562e-02	3.467368504525317e-02
2667	3.264711266427722e-02	3.311311214825911e-02
2687	3.150047237478604e-02	3.162277660168379e-02
2719	3.046572997883368e-02	3.090295432513590e-02
2762	2.986973969743345e-02	3.019951720402016e-02
2983	2.950027419886880e-02	2.951209226666385e-02
3079	2.949148912879418e-02	2.951209226666385e-02
%
% index = 265, name = bbob_f002_i23_d02__bbob_f020_i24_d02
% instance = 11, reference value = 1.000000000000000e+00
% function evaluation | indicator value | target hit
1	1.720058042571000e+00	1.737800828749375e+00
830	6.294743750195706e-01	6.309573444801932e-01
954	5.920798465441000e-01	6.025595860743578e-01
1042	4.111550463986952e-01	4.168693834703354e-01
1059	3.305262811664957e-01	3.311311214825911e-01
1251	1.855266004788014e-01	1.862087136662867e-01
1923	1.415684792567271e-01	1.445439770745928e-01
1967	1.021521756946396e-01	1.023292992280754e-01
2683	6.281179688980432e-02	6.309573444801933e-02
2967	6.137989333958949e-02	6.165950018614822e-02
3071	6.126220657939463e-02	6.165950018614822e-02
%
% index = 266, name = bbob_f002_i25_d02__bbob_f020_i26_d02
% instance = 12, reference value = 1.000000000000000e+00
% function evaluation | indicator value | target hit
1	1.172209377930155e+01	1.174897554939530e+01
38	1.055360516998336e+01	1.071519305237607e+01
270	1.054392963728000e+00	1.071519305237606e+00
298	9.861932469805501e-01	1.000000000000000e+00
335	3.902846045617486e-01	3.981071705534972e-01
479	4.818681115200318e-02	4.897788193684462e-02
483	4.782623726643997e-02	4.786300923226382e-02
498	4.513463153954944e-02	4.570881896148749e-02
531	4.416078030079129e-02	4.466835921509630e-02
535	7.571966117132622e-03	7.585775750291836e-03
751	5.188244691706645e-03	5.248074602497728e-03
779	5.016826753429737e-03	5.128613839913648e-03
822	4.996528899701258e-03	5.011872336272725e-03
883	4.747578298236355e-03	4.786300923226385e-03
922	4.633326370206858e-03	4.677351412871981e-03
970	4.391030486670333e-03	4.466835921509630e-03
1015	4.129916671743450e-03	4.168693834703355e-03
1054	3.286479129740449e-03	3.311311214825911e-03
1074	2.961950718336048e-03	3.019951720402016e-03
1111	2.948039196100538e-03	2.951209226666387e-03
1199	2.872822215080117e-03	2.884031503126605e-03
3099	2.848186364884819e-03	2.884031503126605e-03
%
% index = 267, name = bbob_f002_i27_d02__bbob_f020_i28_d02
% instance = 13, reference value = 1.000000000000000e+00
% function evaluation | indicator value | target hit
1	4.416589055286336e-01	4.466835921509631e-01
202	4.252939647466215e-01	4.265795188015927e-01
266	3.513952599866713e-01	3.548133892335755e-01
294	2.612048162709287e-01	2.630267991895382e-01
539	2.343163848611838e-01	2.344228815319922e-01
2952	2.051390768990292e-01	2.089296130854039e-01
3071	2.051390768990292e-01	2.089296130854039e-01
%
% index = 268, name = bbob_f002_i29_d02__bbob_f020_i30_d02
% instance = 14, reference value = 1.000000000000000e+00
% function evaluation | indicator value | target hit
1	4.887865619377382e-01	4.897788193684462e-01
12	4.438528198296727e-01	4.466835921509631e-01
89	3.206909914668695e-01	3.235936569296283e-01
143	2.681310037122768e-01	2.691534803926916e-01
160	2.595569581795566e-01	2.630267991895382e-01
171	2.513483951861768e-01	2.570395782768864e-01
175	2.325883062647405e-01	2.344228815319922e-01
191	2.149893363559595e-01	2.187761623949552e-01
322	2.052675297513111e-01	2.089296130854039e-01
323	2.006411891789670e-01	2.041737944669530e-01
335	1.936548937894627e-01	1.949844599758045e-01
343	1.894958926434950e-01	1.905460717963247e-01
369	1.318988584428196e-01	1.348962882591654e-01
458	1.295938725776029e-01	1.318256738556407e-01
471	1.275916571072615e-01	1.288249551693134e-01
666	1.228877609134916e-01	1.230268770812381e-01
671	1.147408581166249e-01	1.148153621496883e-01
1275	9.614661937252156e-02	9.772372209558107e-02
1515	9.489495297227168e-02	9.549925860214359e-02
1730	8.603879068071307e-02	8.709635899560805e-02
1742	7.696213296503851e-02	7.762471166286916e-02
1806	6.374314089131783e-02	6.456542290346556e-02
1863	6.284195349559152e-02	6.309573444801933e-02
1871	6.099509512602030e-02	6.165950018614822e-02
1878	6.008741023581987e-02	6.025595860743578e-02
2623	5.402017856564822e-02	5.495408738576246e-02
2975	5.333872867810696e-02	5.370317963702527e-02
3002	5.245981123365573e-02	5.248074602497726e-02
3099	5.144376522940686e-02	5.248074602497726e-02
%
% index = 269, name = bbob_f002_i31_d02__bbob_f020_i34_d02
% instance = 15, reference value = 1.000000000000000e+00
% function evaluation | indicator value | target hit
1	4.468368488247304e+00	4.570881896148751e+00
283	3.720188934395000e+00	3.801893963205611e+00
311	2.438446051162000e+00	2.454708915685031e+00
515	2.017073326651500e+00	2.041737944669529e+00
527	9.897925714927883e-01	1.000000000000000e+00
530	7.096728099572920e-01	7.244359600749900e-01
538	6.466729833394873e-01	6.606934480075960e-01
551	2.482796911927836e-01	2.511886431509580e-01
638	3.938422587125812e-02	3.981071705534973e-02
754	3.529217468273771e-02	3.548133892335755e-02
1475	3.446253130761034e-02	3.467368504525317e-02
1522	3.378188251065828e-02	3.388441561392026e-02
2878	1.926286261856969e-02	1.949844599758046e-02
2906	1.846070446460502e-02	1.862087136662868e-02
2919	1.441998167554781e-02	1.445439770745927e-02
3083	1.441992079592003e-02	1.445439770745927e-02
