%
% index = 3526, name = bbob_f002_i03_d20__bbob_f015_i05_d20
% instance = 2, reference value = 9.792379672359920e-01
% function evaluation | indicator value | target hit
1	9.894294786704919e-01	1.000000000000000e+00
3075	9.894294786704919e-01	1.000000000000000e+00
%
% index = 3530, name = bbob_f002_i13_d20__bbob_f015_i14_d20
% instance = 6, reference value = 9.840641607574730e-01
% function evaluation | indicator value | target hit
1	9.601510373553794e-01	9.772372209558107e-01
3055	9.601510373553794e-01	9.772372209558107e-01
%
% index = 3534, name = bbob_f002_i21_d20__bbob_f015_i22_d20
% instance = 10, reference value = 9.857300277405020e-01
% function evaluation | indicator value | target hit
1	7.515682357027474e-01	7.585775750291838e-01
3139	7.515682357027474e-01	7.585775750291838e-01
%
% index = 3538, name = bbob_f002_i29_d20__bbob_f015_i30_d20
% instance = 14, reference value = 1.000000000000000e+00
% function evaluation | indicator value | target hit
1	4.323172867842500e+00	4.365158322401660e+00
3035	4.323172867842500e+00	4.365158322401660e+00
