%
% index = 3363, name = bbob_f001_i09_d20__bbob_f013_i10_d20
% instance = 4, reference value = 7.052802800578810e-01
% function evaluation | indicator value | target hit
1	4.752193686553945e-01	4.786300923226383e-01
3083	4.752193686553945e-01	4.786300923226383e-01
%
% index = 3367, name = bbob_f001_i17_d20__bbob_f013_i18_d20
% instance = 8, reference value = 7.214020913480610e-01
% function evaluation | indicator value | target hit
1	4.591709489011934e-01	4.677351412871982e-01
3139	4.591709489011934e-01	4.677351412871982e-01
%
% index = 3371, name = bbob_f001_i25_d20__bbob_f013_i26_d20
% instance = 12, reference value = 1.000000000000000e+00
% function evaluation | indicator value | target hit
1	8.410755358492746e-01	8.511380382023764e-01
3079	8.410755358492746e-01	8.511380382023764e-01
