%
% index = 2041, name = bbob_f006_i03_d05__bbob_f021_i05_d05
% instance = 2, reference value = 9.326630398547000e-01
% function evaluation | indicator value | target hit
1	6.860994835419145e-01	6.918309709189365e-01
3115	6.860994835419145e-01	6.918309709189365e-01
%
% index = 2045, name = bbob_f006_i13_d05__bbob_f021_i14_d05
% instance = 6, reference value = 9.645167421750640e-01
% function evaluation | indicator value | target hit
1	1.043418517908064e+00	1.047128548050900e+00
3131	1.043418517908064e+00	1.047128548050900e+00
%
% index = 2049, name = bbob_f006_i21_d05__bbob_f021_i22_d05
% instance = 10, reference value = 9.373170685898000e-01
% function evaluation | indicator value | target hit
1	2.228860367898573e+00	2.238721138568339e+00
3115	2.228860367898573e+00	2.238721138568339e+00
%
% index = 2053, name = bbob_f006_i29_d05__bbob_f021_i30_d05
% instance = 14, reference value = 1.000000000000000e+00
% function evaluation | indicator value | target hit
1	1.443368395326000e+00	1.445439770745927e+00
3055	1.443368395326000e+00	1.445439770745927e+00
