%
% index = 2881, name = bbob_f008_i03_d10__bbob_f008_i05_d10
% instance = 2, reference value = 9.922308318147330e-01
% function evaluation | indicator value | target hit
1	3.325864795282710e-01	3.388441561392025e-01
3111	3.325864795282710e-01	3.388441561392025e-01
%
% index = 2885, name = bbob_f008_i13_d10__bbob_f008_i14_d10
% instance = 6, reference value = 9.938851652996020e-01
% function evaluation | indicator value | target hit
1	4.560388800391139e-01	4.570881896148750e-01
3127	4.560388800391139e-01	4.570881896148750e-01
%
% index = 2889, name = bbob_f008_i21_d10__bbob_f008_i22_d10
% instance = 10, reference value = 9.963827435546601e-01
% function evaluation | indicator value | target hit
1	4.284576909618949e-01	4.365158322401660e-01
3095	4.284576909618949e-01	4.365158322401660e-01
%
% index = 2893, name = bbob_f008_i29_d10__bbob_f008_i30_d10
% instance = 14, reference value = 1.000000000000000e+00
% function evaluation | indicator value | target hit
1	1.045526452078000e+00	1.047128548050900e+00
3095	1.045526452078000e+00	1.047128548050900e+00
