%
% index = 1937, name = bbob_f006_i07_d05__bbob_f006_i08_d05
% instance = 3, reference value = 8.924132975484700e-01
% function evaluation | indicator value | target hit
1	2.616854214965970e+00	2.630267991895382e+00
3075	2.616854214965970e+00	2.630267991895382e+00
%
% index = 1941, name = bbob_f006_i15_d05__bbob_f006_i16_d05
% instance = 7, reference value = 9.996325725242010e-01
% function evaluation | indicator value | target hit
1	8.559584418421502e-01	8.709635899560807e-01
318	8.342176400626321e-01	8.511380382023764e-01
739	6.340001104125146e-01	6.456542290346555e-01
1414	4.653786900619452e-01	4.677351412871982e-01
1646	4.467941201840685e-01	4.570881896148750e-01
1815	4.431925817909605e-01	4.466835921509631e-01
1931	4.212033253256415e-01	4.265795188015927e-01
1995	4.026731150223022e-01	4.073802778041127e-01
2171	3.907895054749092e-01	3.981071705534972e-01
3103	3.907895054749092e-01	3.981071705534972e-01
%
% index = 1945, name = bbob_f006_i23_d05__bbob_f006_i24_d05
% instance = 11, reference value = 1.000000000000000e+00
% function evaluation | indicator value | target hit
1	8.333904629407334e-01	8.511380382023764e-01
926	6.550222102059567e-01	6.606934480075960e-01
1039	6.275091407754636e-01	6.309573444801932e-01
1079	3.653587424113010e-01	3.715352290971726e-01
1091	3.590052863650264e-01	3.630780547701014e-01
1154	3.481192258580040e-01	3.548133892335755e-01
1155	3.452610117373683e-01	3.467368504525316e-01
1175	2.661801963724992e-01	2.691534803926916e-01
1187	2.624709913177047e-01	2.630267991895382e-01
1242	2.170013173406060e-01	2.187761623949552e-01
1243	1.990921583788007e-01	1.995262314968880e-01
1351	1.571555775139752e-01	1.584893192461113e-01
1499	1.522022408585555e-01	1.548816618912481e-01
2078	1.130210205868010e-01	1.148153621496883e-01
2211	4.101553490706533e-02	4.168693834703355e-02
2223	3.531154142556059e-02	3.548133892335755e-02
2230	3.168559407524574e-02	3.235936569296283e-02
2243	3.159537056445427e-02	3.162277660168379e-02
2330	3.038563392720461e-02	3.090295432513590e-02
2331	2.871848113861919e-02	2.884031503126606e-02
3107	2.867759133137260e-02	2.884031503126606e-02
%
% index = 1949, name = bbob_f006_i31_d05__bbob_f006_i34_d05
% instance = 15, reference value = 1.000000000000000e+00
% function evaluation | indicator value | target hit
1	3.086655240616000e+01	3.090295432513591e+01
38	1.083304247051279e+01	1.096478196143185e+01
109	7.609690151721335e+00	7.762471166286917e+00
123	6.181975655112809e+00	6.309573444801933e+00
149	1.459921366375500e+00	1.479108388168207e+00
3091	1.459921366375500e+00	1.479108388168207e+00
