%
% index = 690, name = bbob_f015_i02_d02__bbob_f017_i04_d02
% instance = 1, reference value = 7.122721117913560e-01
% function evaluation | indicator value | target hit
1	7.976752875693560e-01	8.128305161640993e-01
2039	6.544388436541461e-01	6.606934480075960e-01
3079	6.544388436541461e-01	6.606934480075960e-01
%
% index = 691, name = bbob_f015_i03_d02__bbob_f017_i05_d02
% instance = 2, reference value = 9.391779302091090e-01
% function evaluation | indicator value | target hit
1	1.899514713996132e+00	1.905460717963247e+00
2475	1.313096194226101e+00	1.318256738556407e+00
3119	1.313096194226101e+00	1.318256738556407e+00
%
% index = 692, name = bbob_f015_i07_d02__bbob_f017_i08_d02
% instance = 3, reference value = 7.397933110267100e-01
% function evaluation | indicator value | target hit
1	1.082579619161710e+00	1.096478196143185e+00
372	7.382179703836632e-01	7.413102413009175e-01
619	6.606676896566284e-01	6.606934480075960e-01
1672	5.801502496456488e-01	5.888436553555889e-01
3123	5.801502496456488e-01	5.888436553555889e-01
%
% index = 693, name = bbob_f015_i09_d02__bbob_f017_i10_d02
% instance = 4, reference value = 7.795513995830960e-01
% function evaluation | indicator value | target hit
1	3.678084428469033e-01	3.715352290971726e-01
2014	2.636548251031207e-01	2.691534803926916e-01
2543	2.117793116915754e-01	2.137962089502232e-01
2582	2.078208503496035e-01	2.089296130854039e-01
3115	2.043710652287599e-01	2.089296130854039e-01
%
% index = 694, name = bbob_f015_i11_d02__bbob_f017_i12_d02
% instance = 5, reference value = 9.444597380869730e-01
% function evaluation | indicator value | target hit
1	2.757787899577438e+00	2.818382931264454e+00
539	2.028475104336473e+00	2.041737944669529e+00
577	1.081324972537973e+00	1.096478196143185e+00
647	6.841088188192681e-01	6.918309709189365e-01
1158	6.474411307462927e-01	6.606934480075960e-01
1175	5.779110413558981e-01	5.888436553555889e-01
1191	5.569856714148551e-01	5.623413251903491e-01
1198	5.169156371905949e-01	5.248074602497725e-01
1278	4.885912668878675e-01	4.897788193684462e-01
1286	4.620845852801155e-01	4.677351412871982e-01
1338	4.503115116922011e-01	4.570881896148750e-01
1770	2.631280476303350e-01	2.691534803926916e-01
3107	2.631280476303350e-01	2.691534803926916e-01
%
% index = 695, name = bbob_f015_i13_d02__bbob_f017_i14_d02
% instance = 6, reference value = 8.442274299186010e-01
% function evaluation | indicator value | target hit
1	1.038081557224101e+00	1.047128548050900e+00
955	8.360065237212950e-01	8.511380382023764e-01
1351	7.978033367801559e-01	8.128305161640993e-01
1363	5.409794367983565e-01	5.495408738576245e-01
1382	4.227845422748342e-01	4.265795188015927e-01
1619	4.161686045455564e-01	4.168693834703354e-01
1634	3.947607491948223e-01	3.981071705534972e-01
1714	3.611014064227470e-01	3.630780547701014e-01
2123	3.330530630714479e-01	3.388441561392025e-01
2335	3.165841103352721e-01	3.235936569296283e-01
2483	2.957601799575090e-01	3.019951720402016e-01
2538	2.817846246657736e-01	2.818382931264454e-01
2558	2.624892857658017e-01	2.630267991895382e-01
3063	2.624892857658017e-01	2.630267991895382e-01
%
% index = 696, name = bbob_f015_i15_d02__bbob_f017_i16_d02
% instance = 7, reference value = 8.685939251855960e-01
% function evaluation | indicator value | target hit
1	5.459910243483058e+01	5.495408738576246e+01
2365	5.316820916514304e+01	5.370317963702527e+01
2970	1.140392040283367e+01	1.148153621496883e+01
3103	1.140392040283367e+01	1.148153621496883e+01
%
% index = 697, name = bbob_f015_i17_d02__bbob_f017_i18_d02
% instance = 8, reference value = 9.582374971402240e-01
% function evaluation | indicator value | target hit
1	6.826267979896081e-01	6.918309709189365e-01
1049	6.121184657674605e-01	6.165950018614822e-01
3107	6.121184657674605e-01	6.165950018614822e-01
%
% index = 698, name = bbob_f015_i19_d02__bbob_f017_i21_d02
% instance = 9, reference value = 8.899183110374580e-01
% function evaluation | indicator value | target hit
1	5.000590305471627e-01	5.011872336272722e-01
1051	3.552333799490009e-01	3.630780547701014e-01
1653	3.179952904496739e-01	3.235936569296283e-01
2214	3.100605091608651e-01	3.162277660168379e-01
2266	1.835918610525762e-01	1.862087136662867e-01
2275	1.758403082172160e-01	1.778279410038923e-01
2307	1.453141216734062e-01	1.479108388168208e-01
2386	1.339233596782844e-01	1.348962882591654e-01
2387	1.315553728730754e-01	1.318256738556407e-01
2426	1.120690714795074e-01	1.122018454301964e-01
2443	1.003608846524370e-01	1.023292992280754e-01
2550	7.103031209215716e-02	7.244359600749903e-02
2611	6.947667694317172e-02	7.079457843841380e-02
2630	6.878698703956154e-02	6.918309709189366e-02
2951	6.682733289690335e-02	6.760829753919818e-02
3103	6.682733289690335e-02	6.760829753919818e-02
%
% index = 699, name = bbob_f015_i21_d02__bbob_f017_i22_d02
% instance = 10, reference value = 6.454597443825481e-01
% function evaluation | indicator value | target hit
1	1.656624436577048e+00	1.659586907437561e+00
58	1.542066839930048e+00	1.548816618912481e+00
62	1.381216271075548e+00	1.412537544622754e+00
1999	5.493593450813483e-01	5.495408738576245e-01
2980	5.060245397120926e-01	5.128613839913648e-01
3063	5.060245397120926e-01	5.128613839913648e-01
%
% index = 700, name = bbob_f015_i23_d02__bbob_f017_i24_d02
% instance = 11, reference value = 1.000000000000000e+00
% function evaluation | indicator value | target hit
1	1.384751389118000e+00	1.412537544622754e+00
987	1.110720259543500e+00	1.122018454301963e+00
1027	9.516754477586170e-01	9.549925860214360e-01
1058	8.449443718554961e-01	8.511380382023764e-01
1182	7.806885351009362e-01	7.943282347242815e-01
1270	5.832380789393412e-01	5.888436553555889e-01
1274	5.165018498199976e-01	5.248074602497725e-01
1304	3.724258451071278e-01	3.801893963205612e-01
1362	3.522547350033617e-01	3.548133892335755e-01
1382	3.350985551516870e-01	3.388441561392025e-01
1554	3.145454175798676e-01	3.162277660168379e-01
1559	2.075196133338482e-01	2.089296130854039e-01
1778	1.864401851919938e-01	1.905460717963247e-01
2103	1.859507991344942e-01	1.862087136662867e-01
2338	1.745968395429104e-01	1.778279410038923e-01
2506	1.699104821843397e-01	1.737800828749375e-01
2523	1.686247623742034e-01	1.698243652461744e-01
2619	1.656717225907842e-01	1.659586907437560e-01
2759	1.498030228624441e-01	1.513561248436208e-01
2955	1.471643360982928e-01	1.479108388168208e-01
3107	1.460912565729531e-01	1.479108388168208e-01
%
% index = 701, name = bbob_f015_i25_d02__bbob_f017_i26_d02
% instance = 12, reference value = 1.000000000000000e+00
% function evaluation | indicator value | target hit
1	9.696142591334000e+00	9.772372209558107e+00
3123	9.696142591334000e+00	9.772372209558107e+00
%
% index = 702, name = bbob_f015_i27_d02__bbob_f017_i28_d02
% instance = 13, reference value = 1.000000000000000e+00
% function evaluation | indicator value | target hit
1	8.276038702717299e-01	8.317637711026710e-01
3107	8.276038702717299e-01	8.317637711026710e-01
%
% index = 703, name = bbob_f015_i29_d02__bbob_f017_i30_d02
% instance = 14, reference value = 1.000000000000000e+00
% function evaluation | indicator value | target hit
1	7.367750670932748e-01	7.413102413009175e-01
3059	7.334400956604319e-01	7.413102413009175e-01
%
% index = 704, name = bbob_f015_i31_d02__bbob_f017_i34_d02
% instance = 15, reference value = 1.000000000000000e+00
% function evaluation | indicator value | target hit
1	3.557862650018944e+00	3.630780547701014e+00
755	1.982319181944674e+00	1.995262314968880e+00
1063	1.493638981862673e+00	1.513561248436208e+00
1167	1.097928699971000e+00	1.122018454301963e+00
1494	8.273948339565330e-01	8.317637711026710e-01
2483	7.962558749908448e-01	8.128305161640993e-01
3143	7.962558749908448e-01	8.128305161640993e-01
