%
% index = 408, name = bbob_f008_i09_d02__bbob_f008_i10_d02
% instance = 4, reference value = 9.847215201574510e-01
% function evaluation | indicator value | target hit
1	3.325091939306895e+01	3.388441561392025e+01
154	1.026827956799867e+01	1.047128548050900e+01
283	2.652178105054951e+00	2.691534803926916e+00
396	7.026843304593344e-01	7.079457843841379e-01
3099	7.026843304593344e-01	7.079457843841379e-01
%
% index = 412, name = bbob_f008_i17_d02__bbob_f008_i18_d02
% instance = 8, reference value = 9.850441987270110e-01
% function evaluation | indicator value | target hit
1	1.888934233495833e+01	1.905460717963247e+01
75	2.012041704225511e+00	2.041737944669529e+00
142	8.703699840681934e-01	8.709635899560807e-01
150	8.209186993832880e-01	8.317637711026710e-01
183	3.023874333722955e-01	3.090295432513591e-01
282	2.264841886066469e-01	2.290867652767773e-01
327	8.735911600274948e-02	8.912509381337455e-02
683	8.237422549082529e-02	8.317637711026708e-02
2587	5.883926104487935e-02	5.888436553555890e-02
2827	5.525197933576087e-02	5.623413251903491e-02
3131	5.525197933576087e-02	5.623413251903491e-02
%
% index = 416, name = bbob_f008_i25_d02__bbob_f008_i26_d02
% instance = 12, reference value = 1.000000000000000e+00
% function evaluation | indicator value | target hit
1	1.305055437282000e+00	1.318256738556407e+00
100	4.441213437091829e-01	4.466835921509631e-01
3055	4.441213437091829e-01	4.466835921509631e-01
