<?xml version="1.0" encoding="utf-8" standalone="no"?>
<!DOCTYPE svg PUBLIC "-//W3C//DTD SVG 1.1//EN"
  "http://www.w3.org/Graphics/SVG/1.1/DTD/svg11.dtd">
<!-- Created with matplotlib (http://matplotlib.org/) -->
<svg height="345pt" version="1.1" viewBox="0 0 460 345" width="460pt" xmlns="http://www.w3.org/2000/svg" xmlns:xlink="http://www.w3.org/1999/xlink">
 <defs>
  <style type="text/css">
*{stroke-linecap:butt;stroke-linejoin:round;}
  </style>
 </defs>
 <g id="figure_1">
  <g id="patch_1">
   <path d="M 0 345.6 
L 460.8 345.6 
L 460.8 0 
L 0 0 
z
" style="fill:#ffffff;"/>
  </g>
  <g id="axes_1">
   <g id="patch_2">
    <path d="M 56.84 294.16 
L 399.984 294.16 
L 399.984 6.125228 
L 56.84 6.125228 
z
" style="fill:#ffffff;"/>
   </g>
   <g id="matplotlib.axis_1">
    <g id="xtick_1">
     <g id="line2d_1">
      <path clip-path="url(#p3b9594e266)" d="M 56.84 294.16 
L 56.84 6.125228 
" style="fill:none;stroke:#b0b0b0;stroke-linecap:square;stroke-width:0.8;"/>
     </g>
     <g id="line2d_2">
      <defs>
       <path d="M 0 0 
L 0 3.5 
" id="mece479c0e8" style="stroke:#000000;stroke-width:0.8;"/>
      </defs>
      <g>
       <use style="stroke:#000000;stroke-width:0.8;" x="56.84" xlink:href="#mece479c0e8" y="294.16"/>
      </g>
     </g>
     <g id="text_1">
      <!-- 0 -->
      <defs>
       <path d="M 31.78125 66.40625 
Q 24.171875 66.40625 20.328125 58.90625 
Q 16.5 51.421875 16.5 36.375 
Q 16.5 21.390625 20.328125 13.890625 
Q 24.171875 6.390625 31.78125 6.390625 
Q 39.453125 6.390625 43.28125 13.890625 
Q 47.125 21.390625 47.125 36.375 
Q 47.125 51.421875 43.28125 58.90625 
Q 39.453125 66.40625 31.78125 66.40625 
M 31.78125 74.21875 
Q 44.046875 74.21875 50.515625 64.515625 
Q 56.984375 54.828125 56.984375 36.375 
Q 56.984375 17.96875 50.515625 8.265625 
Q 44.046875 -1.421875 31.78125 -1.421875 
Q 19.53125 -1.421875 13.0625 8.265625 
Q 6.59375 17.96875 6.59375 36.375 
Q 6.59375 54.828125 13.0625 64.515625 
Q 19.53125 74.21875 31.78125 74.21875 
" id="DejaVuSans-30"/>
      </defs>
      <g transform="translate(50.4775 316.356875)scale(0.2 -0.2)">
       <use xlink:href="#DejaVuSans-30"/>
      </g>
     </g>
    </g>
    <g id="xtick_2">
     <g id="line2d_3">
      <path clip-path="url(#p3b9594e266)" d="M 135.905438 294.16 
L 135.905438 6.125228 
" style="fill:none;stroke:#b0b0b0;stroke-linecap:square;stroke-width:0.8;"/>
     </g>
     <g id="line2d_4">
      <g>
       <use style="stroke:#000000;stroke-width:0.8;" x="135.905438" xlink:href="#mece479c0e8" y="294.16"/>
      </g>
     </g>
     <g id="text_2">
      <!-- 2 -->
      <defs>
       <path d="M 19.1875 8.296875 
L 53.609375 8.296875 
L 53.609375 0 
L 7.328125 0 
L 7.328125 8.296875 
Q 12.9375 14.109375 22.625 23.890625 
Q 32.328125 33.6875 34.8125 36.53125 
Q 39.546875 41.84375 41.421875 45.53125 
Q 43.3125 49.21875 43.3125 52.78125 
Q 43.3125 58.59375 39.234375 62.25 
Q 35.15625 65.921875 28.609375 65.921875 
Q 23.96875 65.921875 18.8125 64.3125 
Q 13.671875 62.703125 7.8125 59.421875 
L 7.8125 69.390625 
Q 13.765625 71.78125 18.9375 73 
Q 24.125 74.21875 28.421875 74.21875 
Q 39.75 74.21875 46.484375 68.546875 
Q 53.21875 62.890625 53.21875 53.421875 
Q 53.21875 48.921875 51.53125 44.890625 
Q 49.859375 40.875 45.40625 35.40625 
Q 44.1875 33.984375 37.640625 27.21875 
Q 31.109375 20.453125 19.1875 8.296875 
" id="DejaVuSans-32"/>
      </defs>
      <g transform="translate(129.542938 316.356875)scale(0.2 -0.2)">
       <use xlink:href="#DejaVuSans-32"/>
      </g>
     </g>
    </g>
    <g id="xtick_3">
     <g id="line2d_5">
      <path clip-path="url(#p3b9594e266)" d="M 214.970876 294.16 
L 214.970876 6.125228 
" style="fill:none;stroke:#b0b0b0;stroke-linecap:square;stroke-width:0.8;"/>
     </g>
     <g id="line2d_6">
      <g>
       <use style="stroke:#000000;stroke-width:0.8;" x="214.970876" xlink:href="#mece479c0e8" y="294.16"/>
      </g>
     </g>
     <g id="text_3">
      <!-- 4 -->
      <defs>
       <path d="M 37.796875 64.3125 
L 12.890625 25.390625 
L 37.796875 25.390625 
z
M 35.203125 72.90625 
L 47.609375 72.90625 
L 47.609375 25.390625 
L 58.015625 25.390625 
L 58.015625 17.1875 
L 47.609375 17.1875 
L 47.609375 0 
L 37.796875 0 
L 37.796875 17.1875 
L 4.890625 17.1875 
L 4.890625 26.703125 
z
" id="DejaVuSans-34"/>
      </defs>
      <g transform="translate(208.608376 316.356875)scale(0.2 -0.2)">
       <use xlink:href="#DejaVuSans-34"/>
      </g>
     </g>
    </g>
    <g id="xtick_4">
     <g id="line2d_7">
      <path clip-path="url(#p3b9594e266)" d="M 294.036313 294.16 
L 294.036313 6.125228 
" style="fill:none;stroke:#b0b0b0;stroke-linecap:square;stroke-width:0.8;"/>
     </g>
     <g id="line2d_8">
      <g>
       <use style="stroke:#000000;stroke-width:0.8;" x="294.036313" xlink:href="#mece479c0e8" y="294.16"/>
      </g>
     </g>
     <g id="text_4">
      <!-- 6 -->
      <defs>
       <path d="M 33.015625 40.375 
Q 26.375 40.375 22.484375 35.828125 
Q 18.609375 31.296875 18.609375 23.390625 
Q 18.609375 15.53125 22.484375 10.953125 
Q 26.375 6.390625 33.015625 6.390625 
Q 39.65625 6.390625 43.53125 10.953125 
Q 47.40625 15.53125 47.40625 23.390625 
Q 47.40625 31.296875 43.53125 35.828125 
Q 39.65625 40.375 33.015625 40.375 
M 52.59375 71.296875 
L 52.59375 62.3125 
Q 48.875 64.0625 45.09375 64.984375 
Q 41.3125 65.921875 37.59375 65.921875 
Q 27.828125 65.921875 22.671875 59.328125 
Q 17.53125 52.734375 16.796875 39.40625 
Q 19.671875 43.65625 24.015625 45.921875 
Q 28.375 48.1875 33.59375 48.1875 
Q 44.578125 48.1875 50.953125 41.515625 
Q 57.328125 34.859375 57.328125 23.390625 
Q 57.328125 12.15625 50.6875 5.359375 
Q 44.046875 -1.421875 33.015625 -1.421875 
Q 20.359375 -1.421875 13.671875 8.265625 
Q 6.984375 17.96875 6.984375 36.375 
Q 6.984375 53.65625 15.1875 63.9375 
Q 23.390625 74.21875 37.203125 74.21875 
Q 40.921875 74.21875 44.703125 73.484375 
Q 48.484375 72.75 52.59375 71.296875 
" id="DejaVuSans-36"/>
      </defs>
      <g transform="translate(287.673813 316.356875)scale(0.2 -0.2)">
       <use xlink:href="#DejaVuSans-36"/>
      </g>
     </g>
    </g>
    <g id="xtick_5">
     <g id="line2d_9">
      <path clip-path="url(#p3b9594e266)" d="M 373.101751 294.16 
L 373.101751 6.125228 
" style="fill:none;stroke:#b0b0b0;stroke-linecap:square;stroke-width:0.8;"/>
     </g>
     <g id="line2d_10">
      <g>
       <use style="stroke:#000000;stroke-width:0.8;" x="373.101751" xlink:href="#mece479c0e8" y="294.16"/>
      </g>
     </g>
     <g id="text_5">
      <!-- 8 -->
      <defs>
       <path d="M 31.78125 34.625 
Q 24.75 34.625 20.71875 30.859375 
Q 16.703125 27.09375 16.703125 20.515625 
Q 16.703125 13.921875 20.71875 10.15625 
Q 24.75 6.390625 31.78125 6.390625 
Q 38.8125 6.390625 42.859375 10.171875 
Q 46.921875 13.96875 46.921875 20.515625 
Q 46.921875 27.09375 42.890625 30.859375 
Q 38.875 34.625 31.78125 34.625 
M 21.921875 38.8125 
Q 15.578125 40.375 12.03125 44.71875 
Q 8.5 49.078125 8.5 55.328125 
Q 8.5 64.0625 14.71875 69.140625 
Q 20.953125 74.21875 31.78125 74.21875 
Q 42.671875 74.21875 48.875 69.140625 
Q 55.078125 64.0625 55.078125 55.328125 
Q 55.078125 49.078125 51.53125 44.71875 
Q 48 40.375 41.703125 38.8125 
Q 48.828125 37.15625 52.796875 32.3125 
Q 56.78125 27.484375 56.78125 20.515625 
Q 56.78125 9.90625 50.3125 4.234375 
Q 43.84375 -1.421875 31.78125 -1.421875 
Q 19.734375 -1.421875 13.25 4.234375 
Q 6.78125 9.90625 6.78125 20.515625 
Q 6.78125 27.484375 10.78125 32.3125 
Q 14.796875 37.15625 21.921875 38.8125 
M 18.3125 54.390625 
Q 18.3125 48.734375 21.84375 45.5625 
Q 25.390625 42.390625 31.78125 42.390625 
Q 38.140625 42.390625 41.71875 45.5625 
Q 45.3125 48.734375 45.3125 54.390625 
Q 45.3125 60.0625 41.71875 63.234375 
Q 38.140625 66.40625 31.78125 66.40625 
Q 25.390625 66.40625 21.84375 63.234375 
Q 18.3125 60.0625 18.3125 54.390625 
" id="DejaVuSans-38"/>
      </defs>
      <g transform="translate(366.739251 316.356875)scale(0.2 -0.2)">
       <use xlink:href="#DejaVuSans-38"/>
      </g>
     </g>
    </g>
    <g id="xtick_6">
     <g id="line2d_11">
      <defs>
       <path d="M 0 0 
L 0 2 
" id="mb0f23bfac3" style="stroke:#000000;stroke-width:0.6;"/>
      </defs>
      <g>
       <use style="stroke:#000000;stroke-width:0.6;" x="68.740534" xlink:href="#mb0f23bfac3" y="294.16"/>
      </g>
     </g>
    </g>
    <g id="xtick_7">
     <g id="line2d_12">
      <g>
       <use style="stroke:#000000;stroke-width:0.6;" x="80.641068" xlink:href="#mb0f23bfac3" y="294.16"/>
      </g>
     </g>
    </g>
    <g id="xtick_8">
     <g id="line2d_13">
      <g>
       <use style="stroke:#000000;stroke-width:0.6;" x="87.602435" xlink:href="#mb0f23bfac3" y="294.16"/>
      </g>
     </g>
    </g>
    <g id="xtick_9">
     <g id="line2d_14">
      <g>
       <use style="stroke:#000000;stroke-width:0.6;" x="92.541603" xlink:href="#mb0f23bfac3" y="294.16"/>
      </g>
     </g>
    </g>
    <g id="xtick_10">
     <g id="line2d_15">
      <g>
       <use style="stroke:#000000;stroke-width:0.6;" x="147.805972" xlink:href="#mb0f23bfac3" y="294.16"/>
      </g>
     </g>
    </g>
    <g id="xtick_11">
     <g id="line2d_16">
      <g>
       <use style="stroke:#000000;stroke-width:0.6;" x="159.706506" xlink:href="#mb0f23bfac3" y="294.16"/>
      </g>
     </g>
    </g>
    <g id="xtick_12">
     <g id="line2d_17">
      <g>
       <use style="stroke:#000000;stroke-width:0.6;" x="166.667872" xlink:href="#mb0f23bfac3" y="294.16"/>
      </g>
     </g>
    </g>
    <g id="xtick_13">
     <g id="line2d_18">
      <g>
       <use style="stroke:#000000;stroke-width:0.6;" x="171.60704" xlink:href="#mb0f23bfac3" y="294.16"/>
      </g>
     </g>
    </g>
    <g id="xtick_14">
     <g id="line2d_19">
      <g>
       <use style="stroke:#000000;stroke-width:0.6;" x="226.87141" xlink:href="#mb0f23bfac3" y="294.16"/>
      </g>
     </g>
    </g>
    <g id="xtick_15">
     <g id="line2d_20">
      <g>
       <use style="stroke:#000000;stroke-width:0.6;" x="238.771944" xlink:href="#mb0f23bfac3" y="294.16"/>
      </g>
     </g>
    </g>
    <g id="xtick_16">
     <g id="line2d_21">
      <g>
       <use style="stroke:#000000;stroke-width:0.6;" x="245.73331" xlink:href="#mb0f23bfac3" y="294.16"/>
      </g>
     </g>
    </g>
    <g id="xtick_17">
     <g id="line2d_22">
      <g>
       <use style="stroke:#000000;stroke-width:0.6;" x="250.672478" xlink:href="#mb0f23bfac3" y="294.16"/>
      </g>
     </g>
    </g>
    <g id="xtick_18">
     <g id="line2d_23">
      <g>
       <use style="stroke:#000000;stroke-width:0.6;" x="305.936848" xlink:href="#mb0f23bfac3" y="294.16"/>
      </g>
     </g>
    </g>
    <g id="xtick_19">
     <g id="line2d_24">
      <g>
       <use style="stroke:#000000;stroke-width:0.6;" x="317.837382" xlink:href="#mb0f23bfac3" y="294.16"/>
      </g>
     </g>
    </g>
    <g id="xtick_20">
     <g id="line2d_25">
      <g>
       <use style="stroke:#000000;stroke-width:0.6;" x="324.798748" xlink:href="#mb0f23bfac3" y="294.16"/>
      </g>
     </g>
    </g>
    <g id="xtick_21">
     <g id="line2d_26">
      <g>
       <use style="stroke:#000000;stroke-width:0.6;" x="329.737916" xlink:href="#mb0f23bfac3" y="294.16"/>
      </g>
     </g>
    </g>
    <g id="xtick_22">
     <g id="line2d_27">
      <g>
       <use style="stroke:#000000;stroke-width:0.6;" x="385.002285" xlink:href="#mb0f23bfac3" y="294.16"/>
      </g>
     </g>
    </g>
    <g id="xtick_23">
     <g id="line2d_28">
      <g>
       <use style="stroke:#000000;stroke-width:0.6;" x="396.90282" xlink:href="#mb0f23bfac3" y="294.16"/>
      </g>
     </g>
    </g>
    <g id="text_6">
     <!-- log10(# f-evals / dimension) -->
     <defs>
      <path d="M 9.421875 75.984375 
L 18.40625 75.984375 
L 18.40625 0 
L 9.421875 0 
z
" id="DejaVuSans-6c"/>
      <path d="M 30.609375 48.390625 
Q 23.390625 48.390625 19.1875 42.75 
Q 14.984375 37.109375 14.984375 27.296875 
Q 14.984375 17.484375 19.15625 11.84375 
Q 23.34375 6.203125 30.609375 6.203125 
Q 37.796875 6.203125 41.984375 11.859375 
Q 46.1875 17.53125 46.1875 27.296875 
Q 46.1875 37.015625 41.984375 42.703125 
Q 37.796875 48.390625 30.609375 48.390625 
M 30.609375 56 
Q 42.328125 56 49.015625 48.375 
Q 55.71875 40.765625 55.71875 27.296875 
Q 55.71875 13.875 49.015625 6.21875 
Q 42.328125 -1.421875 30.609375 -1.421875 
Q 18.84375 -1.421875 12.171875 6.21875 
Q 5.515625 13.875 5.515625 27.296875 
Q 5.515625 40.765625 12.171875 48.375 
Q 18.84375 56 30.609375 56 
" id="DejaVuSans-6f"/>
      <path d="M 45.40625 27.984375 
Q 45.40625 37.75 41.375 43.109375 
Q 37.359375 48.484375 30.078125 48.484375 
Q 22.859375 48.484375 18.828125 43.109375 
Q 14.796875 37.75 14.796875 27.984375 
Q 14.796875 18.265625 18.828125 12.890625 
Q 22.859375 7.515625 30.078125 7.515625 
Q 37.359375 7.515625 41.375 12.890625 
Q 45.40625 18.265625 45.40625 27.984375 
M 54.390625 6.78125 
Q 54.390625 -7.171875 48.1875 -13.984375 
Q 42 -20.796875 29.203125 -20.796875 
Q 24.46875 -20.796875 20.265625 -20.09375 
Q 16.0625 -19.390625 12.109375 -17.921875 
L 12.109375 -9.1875 
Q 16.0625 -11.328125 19.921875 -12.34375 
Q 23.78125 -13.375 27.78125 -13.375 
Q 36.625 -13.375 41.015625 -8.765625 
Q 45.40625 -4.15625 45.40625 5.171875 
L 45.40625 9.625 
Q 42.625 4.78125 38.28125 2.390625 
Q 33.9375 0 27.875 0 
Q 17.828125 0 11.671875 7.65625 
Q 5.515625 15.328125 5.515625 27.984375 
Q 5.515625 40.671875 11.671875 48.328125 
Q 17.828125 56 27.875 56 
Q 33.9375 56 38.28125 53.609375 
Q 42.625 51.21875 45.40625 46.390625 
L 45.40625 54.6875 
L 54.390625 54.6875 
z
" id="DejaVuSans-67"/>
      <path d="M 12.40625 8.296875 
L 28.515625 8.296875 
L 28.515625 63.921875 
L 10.984375 60.40625 
L 10.984375 69.390625 
L 28.421875 72.90625 
L 38.28125 72.90625 
L 38.28125 8.296875 
L 54.390625 8.296875 
L 54.390625 0 
L 12.40625 0 
z
" id="DejaVuSans-31"/>
      <path d="M 31 75.875 
Q 24.46875 64.65625 21.28125 53.65625 
Q 18.109375 42.671875 18.109375 31.390625 
Q 18.109375 20.125 21.3125 9.0625 
Q 24.515625 -2 31 -13.1875 
L 23.1875 -13.1875 
Q 15.875 -1.703125 12.234375 9.375 
Q 8.59375 20.453125 8.59375 31.390625 
Q 8.59375 42.28125 12.203125 53.3125 
Q 15.828125 64.359375 23.1875 75.875 
z
" id="DejaVuSans-28"/>
      <path d="M 51.125 44 
L 36.921875 44 
L 32.8125 27.6875 
L 47.125 27.6875 
z
M 43.796875 71.78125 
L 38.71875 51.515625 
L 52.984375 51.515625 
L 58.109375 71.78125 
L 65.921875 71.78125 
L 60.890625 51.515625 
L 76.125 51.515625 
L 76.125 44 
L 58.984375 44 
L 54.984375 27.6875 
L 70.515625 27.6875 
L 70.515625 20.21875 
L 53.078125 20.21875 
L 48 0 
L 40.1875 0 
L 45.21875 20.21875 
L 30.90625 20.21875 
L 25.875 0 
L 18.015625 0 
L 23.09375 20.21875 
L 7.71875 20.21875 
L 7.71875 27.6875 
L 24.90625 27.6875 
L 29 44 
L 13.28125 44 
L 13.28125 51.515625 
L 30.90625 51.515625 
L 35.890625 71.78125 
z
" id="DejaVuSans-23"/>
      <path id="DejaVuSans-20"/>
      <path d="M 37.109375 75.984375 
L 37.109375 68.5 
L 28.515625 68.5 
Q 23.6875 68.5 21.796875 66.546875 
Q 19.921875 64.59375 19.921875 59.515625 
L 19.921875 54.6875 
L 34.71875 54.6875 
L 34.71875 47.703125 
L 19.921875 47.703125 
L 19.921875 0 
L 10.890625 0 
L 10.890625 47.703125 
L 2.296875 47.703125 
L 2.296875 54.6875 
L 10.890625 54.6875 
L 10.890625 58.5 
Q 10.890625 67.625 15.140625 71.796875 
Q 19.390625 75.984375 28.609375 75.984375 
z
" id="DejaVuSans-66"/>
      <path d="M 4.890625 31.390625 
L 31.203125 31.390625 
L 31.203125 23.390625 
L 4.890625 23.390625 
z
" id="DejaVuSans-2d"/>
      <path d="M 56.203125 29.59375 
L 56.203125 25.203125 
L 14.890625 25.203125 
Q 15.484375 15.921875 20.484375 11.0625 
Q 25.484375 6.203125 34.421875 6.203125 
Q 39.59375 6.203125 44.453125 7.46875 
Q 49.3125 8.734375 54.109375 11.28125 
L 54.109375 2.78125 
Q 49.265625 0.734375 44.1875 -0.34375 
Q 39.109375 -1.421875 33.890625 -1.421875 
Q 20.796875 -1.421875 13.15625 6.1875 
Q 5.515625 13.8125 5.515625 26.8125 
Q 5.515625 40.234375 12.765625 48.109375 
Q 20.015625 56 32.328125 56 
Q 43.359375 56 49.78125 48.890625 
Q 56.203125 41.796875 56.203125 29.59375 
M 47.21875 32.234375 
Q 47.125 39.59375 43.09375 43.984375 
Q 39.0625 48.390625 32.421875 48.390625 
Q 24.90625 48.390625 20.390625 44.140625 
Q 15.875 39.890625 15.1875 32.171875 
z
" id="DejaVuSans-65"/>
      <path d="M 2.984375 54.6875 
L 12.5 54.6875 
L 29.59375 8.796875 
L 46.6875 54.6875 
L 56.203125 54.6875 
L 35.6875 0 
L 23.484375 0 
z
" id="DejaVuSans-76"/>
      <path d="M 34.28125 27.484375 
Q 23.390625 27.484375 19.1875 25 
Q 14.984375 22.515625 14.984375 16.5 
Q 14.984375 11.71875 18.140625 8.90625 
Q 21.296875 6.109375 26.703125 6.109375 
Q 34.1875 6.109375 38.703125 11.40625 
Q 43.21875 16.703125 43.21875 25.484375 
L 43.21875 27.484375 
z
M 52.203125 31.203125 
L 52.203125 0 
L 43.21875 0 
L 43.21875 8.296875 
Q 40.140625 3.328125 35.546875 0.953125 
Q 30.953125 -1.421875 24.3125 -1.421875 
Q 15.921875 -1.421875 10.953125 3.296875 
Q 6 8.015625 6 15.921875 
Q 6 25.140625 12.171875 29.828125 
Q 18.359375 34.515625 30.609375 34.515625 
L 43.21875 34.515625 
L 43.21875 35.40625 
Q 43.21875 41.609375 39.140625 45 
Q 35.0625 48.390625 27.6875 48.390625 
Q 23 48.390625 18.546875 47.265625 
Q 14.109375 46.140625 10.015625 43.890625 
L 10.015625 52.203125 
Q 14.9375 54.109375 19.578125 55.046875 
Q 24.21875 56 28.609375 56 
Q 40.484375 56 46.34375 49.84375 
Q 52.203125 43.703125 52.203125 31.203125 
" id="DejaVuSans-61"/>
      <path d="M 44.28125 53.078125 
L 44.28125 44.578125 
Q 40.484375 46.53125 36.375 47.5 
Q 32.28125 48.484375 27.875 48.484375 
Q 21.1875 48.484375 17.84375 46.4375 
Q 14.5 44.390625 14.5 40.28125 
Q 14.5 37.15625 16.890625 35.375 
Q 19.28125 33.59375 26.515625 31.984375 
L 29.59375 31.296875 
Q 39.15625 29.25 43.1875 25.515625 
Q 47.21875 21.78125 47.21875 15.09375 
Q 47.21875 7.46875 41.1875 3.015625 
Q 35.15625 -1.421875 24.609375 -1.421875 
Q 20.21875 -1.421875 15.453125 -0.5625 
Q 10.6875 0.296875 5.421875 2 
L 5.421875 11.28125 
Q 10.40625 8.6875 15.234375 7.390625 
Q 20.0625 6.109375 24.8125 6.109375 
Q 31.15625 6.109375 34.5625 8.28125 
Q 37.984375 10.453125 37.984375 14.40625 
Q 37.984375 18.0625 35.515625 20.015625 
Q 33.0625 21.96875 24.703125 23.78125 
L 21.578125 24.515625 
Q 13.234375 26.265625 9.515625 29.90625 
Q 5.8125 33.546875 5.8125 39.890625 
Q 5.8125 47.609375 11.28125 51.796875 
Q 16.75 56 26.8125 56 
Q 31.78125 56 36.171875 55.265625 
Q 40.578125 54.546875 44.28125 53.078125 
" id="DejaVuSans-73"/>
      <path d="M 25.390625 72.90625 
L 33.6875 72.90625 
L 8.296875 -9.28125 
L 0 -9.28125 
z
" id="DejaVuSans-2f"/>
      <path d="M 45.40625 46.390625 
L 45.40625 75.984375 
L 54.390625 75.984375 
L 54.390625 0 
L 45.40625 0 
L 45.40625 8.203125 
Q 42.578125 3.328125 38.25 0.953125 
Q 33.9375 -1.421875 27.875 -1.421875 
Q 17.96875 -1.421875 11.734375 6.484375 
Q 5.515625 14.40625 5.515625 27.296875 
Q 5.515625 40.1875 11.734375 48.09375 
Q 17.96875 56 27.875 56 
Q 33.9375 56 38.25 53.625 
Q 42.578125 51.265625 45.40625 46.390625 
M 14.796875 27.296875 
Q 14.796875 17.390625 18.875 11.75 
Q 22.953125 6.109375 30.078125 6.109375 
Q 37.203125 6.109375 41.296875 11.75 
Q 45.40625 17.390625 45.40625 27.296875 
Q 45.40625 37.203125 41.296875 42.84375 
Q 37.203125 48.484375 30.078125 48.484375 
Q 22.953125 48.484375 18.875 42.84375 
Q 14.796875 37.203125 14.796875 27.296875 
" id="DejaVuSans-64"/>
      <path d="M 9.421875 54.6875 
L 18.40625 54.6875 
L 18.40625 0 
L 9.421875 0 
z
M 9.421875 75.984375 
L 18.40625 75.984375 
L 18.40625 64.59375 
L 9.421875 64.59375 
z
" id="DejaVuSans-69"/>
      <path d="M 52 44.1875 
Q 55.375 50.25 60.0625 53.125 
Q 64.75 56 71.09375 56 
Q 79.640625 56 84.28125 50.015625 
Q 88.921875 44.046875 88.921875 33.015625 
L 88.921875 0 
L 79.890625 0 
L 79.890625 32.71875 
Q 79.890625 40.578125 77.09375 44.375 
Q 74.3125 48.1875 68.609375 48.1875 
Q 61.625 48.1875 57.5625 43.546875 
Q 53.515625 38.921875 53.515625 30.90625 
L 53.515625 0 
L 44.484375 0 
L 44.484375 32.71875 
Q 44.484375 40.625 41.703125 44.40625 
Q 38.921875 48.1875 33.109375 48.1875 
Q 26.21875 48.1875 22.15625 43.53125 
Q 18.109375 38.875 18.109375 30.90625 
L 18.109375 0 
L 9.078125 0 
L 9.078125 54.6875 
L 18.109375 54.6875 
L 18.109375 46.1875 
Q 21.1875 51.21875 25.484375 53.609375 
Q 29.78125 56 35.6875 56 
Q 41.65625 56 45.828125 52.96875 
Q 50 49.953125 52 44.1875 
" id="DejaVuSans-6d"/>
      <path d="M 54.890625 33.015625 
L 54.890625 0 
L 45.90625 0 
L 45.90625 32.71875 
Q 45.90625 40.484375 42.875 44.328125 
Q 39.84375 48.1875 33.796875 48.1875 
Q 26.515625 48.1875 22.3125 43.546875 
Q 18.109375 38.921875 18.109375 30.90625 
L 18.109375 0 
L 9.078125 0 
L 9.078125 54.6875 
L 18.109375 54.6875 
L 18.109375 46.1875 
Q 21.34375 51.125 25.703125 53.5625 
Q 30.078125 56 35.796875 56 
Q 45.21875 56 50.046875 50.171875 
Q 54.890625 44.34375 54.890625 33.015625 
" id="DejaVuSans-6e"/>
      <path d="M 8.015625 75.875 
L 15.828125 75.875 
Q 23.140625 64.359375 26.78125 53.3125 
Q 30.421875 42.28125 30.421875 31.390625 
Q 30.421875 20.453125 26.78125 9.375 
Q 23.140625 -1.703125 15.828125 -13.1875 
L 8.015625 -13.1875 
Q 14.5 -2 17.703125 9.0625 
Q 20.90625 20.125 20.90625 31.390625 
Q 20.90625 42.671875 17.703125 53.65625 
Q 14.5 64.65625 8.015625 75.875 
" id="DejaVuSans-29"/>
     </defs>
     <g transform="translate(107.571219 337.433594)scale(0.17 -0.17)">
      <use xlink:href="#DejaVuSans-6c"/>
      <use x="27.783203" xlink:href="#DejaVuSans-6f"/>
      <use x="88.964844" xlink:href="#DejaVuSans-67"/>
      <use x="152.441406" xlink:href="#DejaVuSans-31"/>
      <use x="216.064453" xlink:href="#DejaVuSans-30"/>
      <use x="279.6875" xlink:href="#DejaVuSans-28"/>
      <use x="318.701172" xlink:href="#DejaVuSans-23"/>
      <use x="402.490234" xlink:href="#DejaVuSans-20"/>
      <use x="434.277344" xlink:href="#DejaVuSans-66"/>
      <use x="469.404297" xlink:href="#DejaVuSans-2d"/>
      <use x="505.488281" xlink:href="#DejaVuSans-65"/>
      <use x="567.011719" xlink:href="#DejaVuSans-76"/>
      <use x="626.191406" xlink:href="#DejaVuSans-61"/>
      <use x="687.470703" xlink:href="#DejaVuSans-6c"/>
      <use x="715.253906" xlink:href="#DejaVuSans-73"/>
      <use x="767.353516" xlink:href="#DejaVuSans-20"/>
      <use x="799.140625" xlink:href="#DejaVuSans-2f"/>
      <use x="832.832031" xlink:href="#DejaVuSans-20"/>
      <use x="864.619141" xlink:href="#DejaVuSans-64"/>
      <use x="928.095703" xlink:href="#DejaVuSans-69"/>
      <use x="955.878906" xlink:href="#DejaVuSans-6d"/>
      <use x="1053.291016" xlink:href="#DejaVuSans-65"/>
      <use x="1114.814453" xlink:href="#DejaVuSans-6e"/>
      <use x="1178.193359" xlink:href="#DejaVuSans-73"/>
      <use x="1230.292969" xlink:href="#DejaVuSans-69"/>
      <use x="1258.076172" xlink:href="#DejaVuSans-6f"/>
      <use x="1319.257812" xlink:href="#DejaVuSans-6e"/>
      <use x="1382.636719" xlink:href="#DejaVuSans-29"/>
     </g>
    </g>
   </g>
   <g id="matplotlib.axis_2">
    <g id="ytick_1">
     <g id="line2d_29">
      <path clip-path="url(#p3b9594e266)" d="M 56.84 294.16 
L 399.984 294.16 
" style="fill:none;stroke:#b0b0b0;stroke-linecap:square;stroke-width:0.8;"/>
     </g>
     <g id="line2d_30">
      <defs>
       <path d="M 0 0 
L -3.5 0 
" id="mb0445d66b9" style="stroke:#000000;stroke-width:0.8;"/>
      </defs>
      <g>
       <use style="stroke:#000000;stroke-width:0.8;" x="56.84" xlink:href="#mb0445d66b9" y="294.16"/>
      </g>
     </g>
     <g id="text_7">
      <!-- 0.0 -->
      <defs>
       <path d="M 10.6875 12.40625 
L 21 12.40625 
L 21 0 
L 10.6875 0 
z
" id="DejaVuSans-2e"/>
      </defs>
      <g transform="translate(24.395 300.23875)scale(0.16 -0.16)">
       <use xlink:href="#DejaVuSans-30"/>
       <use x="63.623047" xlink:href="#DejaVuSans-2e"/>
       <use x="95.410156" xlink:href="#DejaVuSans-30"/>
      </g>
     </g>
    </g>
    <g id="ytick_2">
     <g id="line2d_31">
      <path clip-path="url(#p3b9594e266)" d="M 56.84 237.123411 
L 399.984 237.123411 
" style="fill:none;stroke:#b0b0b0;stroke-linecap:square;stroke-width:0.8;"/>
     </g>
     <g id="line2d_32">
      <g>
       <use style="stroke:#000000;stroke-width:0.8;" x="56.84" xlink:href="#mb0445d66b9" y="237.123411"/>
      </g>
     </g>
     <g id="text_8">
      <!-- 0.2 -->
      <g transform="translate(24.395 243.202161)scale(0.16 -0.16)">
       <use xlink:href="#DejaVuSans-30"/>
       <use x="63.623047" xlink:href="#DejaVuSans-2e"/>
       <use x="95.410156" xlink:href="#DejaVuSans-32"/>
      </g>
     </g>
    </g>
    <g id="ytick_3">
     <g id="line2d_33">
      <path clip-path="url(#p3b9594e266)" d="M 56.84 180.086823 
L 399.984 180.086823 
" style="fill:none;stroke:#b0b0b0;stroke-linecap:square;stroke-width:0.8;"/>
     </g>
     <g id="line2d_34">
      <g>
       <use style="stroke:#000000;stroke-width:0.8;" x="56.84" xlink:href="#mb0445d66b9" y="180.086823"/>
      </g>
     </g>
     <g id="text_9">
      <!-- 0.4 -->
      <g transform="translate(24.395 186.165573)scale(0.16 -0.16)">
       <use xlink:href="#DejaVuSans-30"/>
       <use x="63.623047" xlink:href="#DejaVuSans-2e"/>
       <use x="95.410156" xlink:href="#DejaVuSans-34"/>
      </g>
     </g>
    </g>
    <g id="ytick_4">
     <g id="line2d_35">
      <path clip-path="url(#p3b9594e266)" d="M 56.84 123.050234 
L 399.984 123.050234 
" style="fill:none;stroke:#b0b0b0;stroke-linecap:square;stroke-width:0.8;"/>
     </g>
     <g id="line2d_36">
      <g>
       <use style="stroke:#000000;stroke-width:0.8;" x="56.84" xlink:href="#mb0445d66b9" y="123.050234"/>
      </g>
     </g>
     <g id="text_10">
      <!-- 0.6 -->
      <g transform="translate(24.395 129.128984)scale(0.16 -0.16)">
       <use xlink:href="#DejaVuSans-30"/>
       <use x="63.623047" xlink:href="#DejaVuSans-2e"/>
       <use x="95.410156" xlink:href="#DejaVuSans-36"/>
      </g>
     </g>
    </g>
    <g id="ytick_5">
     <g id="line2d_37">
      <path clip-path="url(#p3b9594e266)" d="M 56.84 66.013646 
L 399.984 66.013646 
" style="fill:none;stroke:#b0b0b0;stroke-linecap:square;stroke-width:0.8;"/>
     </g>
     <g id="line2d_38">
      <g>
       <use style="stroke:#000000;stroke-width:0.8;" x="56.84" xlink:href="#mb0445d66b9" y="66.013646"/>
      </g>
     </g>
     <g id="text_11">
      <!-- 0.8 -->
      <g transform="translate(24.395 72.092396)scale(0.16 -0.16)">
       <use xlink:href="#DejaVuSans-30"/>
       <use x="63.623047" xlink:href="#DejaVuSans-2e"/>
       <use x="95.410156" xlink:href="#DejaVuSans-38"/>
      </g>
     </g>
    </g>
    <g id="ytick_6">
     <g id="line2d_39">
      <path clip-path="url(#p3b9594e266)" d="M 56.84 8.977057 
L 399.984 8.977057 
" style="fill:none;stroke:#b0b0b0;stroke-linecap:square;stroke-width:0.8;"/>
     </g>
     <g id="line2d_40">
      <g>
       <use style="stroke:#000000;stroke-width:0.8;" x="56.84" xlink:href="#mb0445d66b9" y="8.977057"/>
      </g>
     </g>
     <g id="text_12">
      <!-- 1.0 -->
      <g transform="translate(24.395 15.055807)scale(0.16 -0.16)">
       <use xlink:href="#DejaVuSans-31"/>
       <use x="63.623047" xlink:href="#DejaVuSans-2e"/>
       <use x="95.410156" xlink:href="#DejaVuSans-30"/>
      </g>
     </g>
    </g>
    <g id="text_13">
     <!-- Fraction of function,target pairs -->
     <defs>
      <path d="M 9.8125 72.90625 
L 51.703125 72.90625 
L 51.703125 64.59375 
L 19.671875 64.59375 
L 19.671875 43.109375 
L 48.578125 43.109375 
L 48.578125 34.8125 
L 19.671875 34.8125 
L 19.671875 0 
L 9.8125 0 
z
" id="DejaVuSans-46"/>
      <path d="M 41.109375 46.296875 
Q 39.59375 47.171875 37.8125 47.578125 
Q 36.03125 48 33.890625 48 
Q 26.265625 48 22.1875 43.046875 
Q 18.109375 38.09375 18.109375 28.8125 
L 18.109375 0 
L 9.078125 0 
L 9.078125 54.6875 
L 18.109375 54.6875 
L 18.109375 46.1875 
Q 20.953125 51.171875 25.484375 53.578125 
Q 30.03125 56 36.53125 56 
Q 37.453125 56 38.578125 55.875 
Q 39.703125 55.765625 41.0625 55.515625 
z
" id="DejaVuSans-72"/>
      <path d="M 48.78125 52.59375 
L 48.78125 44.1875 
Q 44.96875 46.296875 41.140625 47.34375 
Q 37.3125 48.390625 33.40625 48.390625 
Q 24.65625 48.390625 19.8125 42.84375 
Q 14.984375 37.3125 14.984375 27.296875 
Q 14.984375 17.28125 19.8125 11.734375 
Q 24.65625 6.203125 33.40625 6.203125 
Q 37.3125 6.203125 41.140625 7.25 
Q 44.96875 8.296875 48.78125 10.40625 
L 48.78125 2.09375 
Q 45.015625 0.34375 40.984375 -0.53125 
Q 36.96875 -1.421875 32.421875 -1.421875 
Q 20.0625 -1.421875 12.78125 6.34375 
Q 5.515625 14.109375 5.515625 27.296875 
Q 5.515625 40.671875 12.859375 48.328125 
Q 20.21875 56 33.015625 56 
Q 37.15625 56 41.109375 55.140625 
Q 45.0625 54.296875 48.78125 52.59375 
" id="DejaVuSans-63"/>
      <path d="M 18.3125 70.21875 
L 18.3125 54.6875 
L 36.8125 54.6875 
L 36.8125 47.703125 
L 18.3125 47.703125 
L 18.3125 18.015625 
Q 18.3125 11.328125 20.140625 9.421875 
Q 21.96875 7.515625 27.59375 7.515625 
L 36.8125 7.515625 
L 36.8125 0 
L 27.59375 0 
Q 17.1875 0 13.234375 3.875 
Q 9.28125 7.765625 9.28125 18.015625 
L 9.28125 47.703125 
L 2.6875 47.703125 
L 2.6875 54.6875 
L 9.28125 54.6875 
L 9.28125 70.21875 
z
" id="DejaVuSans-74"/>
      <path d="M 8.5 21.578125 
L 8.5 54.6875 
L 17.484375 54.6875 
L 17.484375 21.921875 
Q 17.484375 14.15625 20.5 10.265625 
Q 23.53125 6.390625 29.59375 6.390625 
Q 36.859375 6.390625 41.078125 11.03125 
Q 45.3125 15.671875 45.3125 23.6875 
L 45.3125 54.6875 
L 54.296875 54.6875 
L 54.296875 0 
L 45.3125 0 
L 45.3125 8.40625 
Q 42.046875 3.421875 37.71875 1 
Q 33.40625 -1.421875 27.6875 -1.421875 
Q 18.265625 -1.421875 13.375 4.4375 
Q 8.5 10.296875 8.5 21.578125 
M 31.109375 56 
z
" id="DejaVuSans-75"/>
      <path d="M 11.71875 12.40625 
L 22.015625 12.40625 
L 22.015625 4 
L 14.015625 -11.625 
L 7.71875 -11.625 
L 11.71875 4 
z
" id="DejaVuSans-2c"/>
      <path d="M 18.109375 8.203125 
L 18.109375 -20.796875 
L 9.078125 -20.796875 
L 9.078125 54.6875 
L 18.109375 54.6875 
L 18.109375 46.390625 
Q 20.953125 51.265625 25.265625 53.625 
Q 29.59375 56 35.59375 56 
Q 45.5625 56 51.78125 48.09375 
Q 58.015625 40.1875 58.015625 27.296875 
Q 58.015625 14.40625 51.78125 6.484375 
Q 45.5625 -1.421875 35.59375 -1.421875 
Q 29.59375 -1.421875 25.265625 0.953125 
Q 20.953125 3.328125 18.109375 8.203125 
M 48.6875 27.296875 
Q 48.6875 37.203125 44.609375 42.84375 
Q 40.53125 48.484375 33.40625 48.484375 
Q 26.265625 48.484375 22.1875 42.84375 
Q 18.109375 37.203125 18.109375 27.296875 
Q 18.109375 17.390625 22.1875 11.75 
Q 26.265625 6.109375 33.40625 6.109375 
Q 40.53125 6.109375 44.609375 11.75 
Q 48.6875 17.390625 48.6875 27.296875 
" id="DejaVuSans-70"/>
     </defs>
     <g transform="translate(16.859531 285.281989)rotate(-90)scale(0.17 -0.17)">
      <use xlink:href="#DejaVuSans-46"/>
      <use x="57.410156" xlink:href="#DejaVuSans-72"/>
      <use x="98.523438" xlink:href="#DejaVuSans-61"/>
      <use x="159.802734" xlink:href="#DejaVuSans-63"/>
      <use x="214.783203" xlink:href="#DejaVuSans-74"/>
      <use x="253.992188" xlink:href="#DejaVuSans-69"/>
      <use x="281.775391" xlink:href="#DejaVuSans-6f"/>
      <use x="342.957031" xlink:href="#DejaVuSans-6e"/>
      <use x="406.335938" xlink:href="#DejaVuSans-20"/>
      <use x="438.123047" xlink:href="#DejaVuSans-6f"/>
      <use x="499.304688" xlink:href="#DejaVuSans-66"/>
      <use x="534.509766" xlink:href="#DejaVuSans-20"/>
      <use x="566.296875" xlink:href="#DejaVuSans-66"/>
      <use x="601.501953" xlink:href="#DejaVuSans-75"/>
      <use x="664.880859" xlink:href="#DejaVuSans-6e"/>
      <use x="728.259766" xlink:href="#DejaVuSans-63"/>
      <use x="783.240234" xlink:href="#DejaVuSans-74"/>
      <use x="822.449219" xlink:href="#DejaVuSans-69"/>
      <use x="850.232422" xlink:href="#DejaVuSans-6f"/>
      <use x="911.414062" xlink:href="#DejaVuSans-6e"/>
      <use x="974.792969" xlink:href="#DejaVuSans-2c"/>
      <use x="1006.580078" xlink:href="#DejaVuSans-74"/>
      <use x="1045.789062" xlink:href="#DejaVuSans-61"/>
      <use x="1107.068359" xlink:href="#DejaVuSans-72"/>
      <use x="1148.166016" xlink:href="#DejaVuSans-67"/>
      <use x="1211.642578" xlink:href="#DejaVuSans-65"/>
      <use x="1273.166016" xlink:href="#DejaVuSans-74"/>
      <use x="1312.375" xlink:href="#DejaVuSans-20"/>
      <use x="1344.162109" xlink:href="#DejaVuSans-70"/>
      <use x="1407.638672" xlink:href="#DejaVuSans-61"/>
      <use x="1468.917969" xlink:href="#DejaVuSans-69"/>
      <use x="1496.701172" xlink:href="#DejaVuSans-72"/>
      <use x="1537.814453" xlink:href="#DejaVuSans-73"/>
     </g>
    </g>
   </g>
   <g id="line2d_41">
    <defs>
     <path d="M 0 1.5 
C 0.397805 1.5 0.77937 1.341951 1.06066 1.06066 
C 1.341951 0.77937 1.5 0.397805 1.5 0 
C 1.5 -0.397805 1.341951 -0.77937 1.06066 -1.06066 
C 0.77937 -1.341951 0.397805 -1.5 0 -1.5 
C -0.397805 -1.5 -0.77937 -1.341951 -1.06066 -1.06066 
C -1.341951 -0.77937 -1.5 -0.397805 -1.5 0 
C -1.5 0.397805 -1.341951 0.77937 -1.06066 1.06066 
C -0.77937 1.341951 -0.397805 1.5 0 1.5 
z
" id="m2d5f9ab2db" style="stroke:#00bfbf;"/>
    </defs>
    <g>
     <use style="fill:#00bfbf;stroke:#00bfbf;" x="250.621755" xlink:href="#m2d5f9ab2db" y="217.947317"/>
     <use style="fill:#00bfbf;stroke:#00bfbf;" x="250.621755" xlink:href="#m2d5f9ab2db" y="217.947317"/>
    </g>
   </g>
   <g id="line2d_42">
    <path d="M 44.939466 294.16 
L 44.939466 288.382587 
L 113.425701 288.382587 
L 113.425701 287.767969 
L 122.942575 287.767969 
L 122.942575 287.030426 
L 123.658047 287.030426 
L 123.658047 286.907503 
L 125.005313 286.907503 
L 125.005313 286.784579 
L 130.025276 286.784579 
L 130.025276 286.661655 
L 132.809491 286.661655 
L 132.809491 286.292884 
L 133.514469 286.292884 
L 133.514469 285.924113 
L 134.659483 285.924113 
L 134.659483 285.80119 
L 135.114917 285.80119 
L 135.114917 285.678266 
L 136.412928 285.678266 
L 136.49607 285.309495 
L 137.697178 285.309495 
L 137.697178 285.186571 
L 138.079574 285.186571 
L 138.079574 284.571953 
L 138.304988 284.571953 
L 138.304988 284.449029 
L 138.964001 284.449029 
L 138.964001 284.326105 
L 139.248968 284.326105 
L 139.248968 283.834411 
L 140.80163 283.834411 
L 140.80163 282.973945 
L 141.057886 282.973945 
L 141.057886 282.728098 
L 141.559202 282.728098 
L 141.620849 282.359327 
L 141.804475 282.359327 
L 141.804475 281.990555 
L 142.343855 281.990555 
L 142.343855 281.744708 
L 142.519947 281.744708 
L 142.519947 281.375937 
L 142.980883 281.375937 
L 142.980883 280.884242 
L 143.206792 280.884242 
L 143.262808 280.392548 
L 143.649884 280.392548 
L 143.649884 280.023777 
L 143.921119 280.023777 
L 143.921119 279.777929 
L 144.135064 279.777929 
L 144.135064 279.409158 
L 144.346375 279.409158 
L 144.346375 279.286234 
L 144.503169 279.286234 
L 144.555118 278.671616 
L 144.761352 278.671616 
L 144.761352 278.548692 
L 145.116408 278.548692 
L 145.116408 278.179921 
L 146.139535 278.179921 
L 146.139535 277.688227 
L 146.513802 277.688227 
L 146.513802 276.581913 
L 147.194295 276.581913 
L 147.194295 276.336066 
L 147.371295 276.336066 
L 147.371295 276.213142 
L 147.934258 276.213142 
L 147.934258 275.967295 
L 148.103828 275.967295 
L 148.103828 275.844371 
L 148.229916 275.844371 
L 148.229916 275.106829 
L 148.438025 275.106829 
L 148.438025 274.738058 
L 149.047634 274.738058 
L 149.047634 274.615135 
L 149.520201 274.615135 
L 149.520201 274.246363 
L 149.904307 274.246363 
L 149.904307 273.877592 
L 150.280008 273.877592 
L 150.280008 273.262974 
L 151.325234 273.262974 
L 151.325234 272.525432 
L 151.977076 272.525432 
L 151.977076 272.156661 
L 152.277414 272.156661 
L 152.277414 271.664966 
L 152.894714 271.664966 
L 152.894714 271.542042 
L 153.796091 271.542042 
L 153.796091 271.296195 
L 154.006754 271.296195 
L 154.036639 270.8045 
L 154.507855 270.8045 
L 154.507855 270.681577 
L 155.274829 270.681577 
L 155.274829 270.435729 
L 156.481567 270.435729 
L 156.481567 270.312806 
L 156.661887 270.312806 
L 156.661887 270.066958 
L 157.266131 270.066958 
L 157.266131 269.698187 
L 157.873726 269.698187 
L 157.873726 269.575264 
L 158.040069 269.575264 
L 158.063701 269.206493 
L 158.157906 269.206493 
L 158.157906 268.960645 
L 158.321532 268.960645 
L 158.321532 268.714798 
L 158.803254 268.714798 
L 158.803254 268.223103 
L 159.403391 268.223103 
L 159.403391 267.731408 
L 160.585006 267.731408 
L 160.585006 267.608485 
L 161.766815 267.608485 
L 161.766815 267.485561 
L 162.161951 267.485561 
L 162.161951 267.11679 
L 162.346962 267.11679 
L 162.346962 266.993866 
L 163.014673 266.993866 
L 163.014673 266.870943 
L 165.329363 266.870943 
L 165.329363 266.625095 
L 165.468009 266.625095 
L 165.468009 266.010477 
L 166.233195 266.010477 
L 166.233195 265.395858 
L 166.350189 265.395858 
L 166.350189 265.272935 
L 166.538621 265.272935 
L 166.538621 264.904164 
L 167.203122 264.904164 
L 167.203122 264.535393 
L 168.498238 264.535393 
L 168.498238 264.289545 
L 168.955086 264.289545 
L 168.955086 264.166622 
L 169.497434 264.166622 
L 169.497434 263.79785 
L 169.976039 263.79785 
L 169.976039 263.674927 
L 170.163807 263.674927 
L 170.163807 263.552003 
L 170.74897 263.552003 
L 170.74897 263.429079 
L 172.352488 263.429079 
L 172.42426 262.322766 
L 172.495733 262.322766 
L 172.495733 262.199843 
L 172.918434 262.199843 
L 172.918434 261.831072 
L 173.389111 261.831072 
L 173.418104 261.462301 
L 174.256695 261.462301 
L 174.256695 261.339377 
L 174.728346 261.339377 
L 174.799771 260.847682 
L 175.317552 260.847682 
L 175.317552 260.724758 
L 175.600491 260.724758 
L 175.600491 260.601835 
L 175.736013 260.601835 
L 175.736013 260.478911 
L 176.365525 260.478911 
L 176.365525 260.233064 
L 177.337829 260.233064 
L 177.337829 259.003827 
L 177.589588 259.003827 
L 177.589588 258.880903 
L 177.941897 258.880903 
L 177.941897 258.75798 
L 179.676458 258.75798 
L 179.676458 258.512132 
L 179.856588 258.512132 
L 179.856588 258.389208 
L 181.805628 258.389208 
L 181.805628 258.020437 
L 182.186457 258.020437 
L 182.186457 257.897514 
L 182.439537 257.897514 
L 182.439537 257.77459 
L 182.717053 257.77459 
L 182.717053 257.405819 
L 182.918122 257.405819 
L 182.984625 256.914124 
L 183.116863 256.914124 
L 183.160717 256.42243 
L 183.231742 256.42243 
L 183.253537 256.176582 
L 183.426906 256.176582 
L 183.491471 255.684887 
L 183.625206 255.684887 
L 183.683722 255.316116 
L 183.910568 255.316116 
L 183.910568 255.193193 
L 184.046291 255.193193 
L 184.144798 254.947345 
L 184.170628 254.947345 
L 184.232461 254.578574 
L 184.314559 254.578574 
L 184.411544 253.718109 
L 184.472517 253.718109 
L 184.558525 253.472261 
L 184.659164 253.472261 
L 184.714264 253.226414 
L 184.853728 253.226414 
L 184.952655 252.980566 
L 185.036298 252.980566 
L 185.095095 252.611795 
L 185.400521 252.611795 
L 185.43892 252.365948 
L 185.634374 252.365948 
L 185.724202 252.120101 
L 185.780694 252.120101 
L 185.841684 251.75133 
L 186.248943 251.75133 
L 186.299178 251.505482 
L 186.394674 251.505482 
L 186.394674 251.382559 
L 186.593056 251.382559 
L 186.642295 251.013788 
L 186.789171 251.013788 
L 186.789171 250.890864 
L 187.205114 250.890864 
L 187.222408 250.645016 
L 187.632328 250.645016 
L 187.682887 250.399169 
L 188.032688 250.399169 
L 188.098517 250.153322 
L 188.249785 250.153322 
L 188.278254 249.907474 
L 188.395697 249.907474 
L 188.472209 249.292856 
L 188.683852 249.292856 
L 188.683852 249.169932 
L 189.014032 249.169932 
L 189.060687 248.924085 
L 189.215292 248.924085 
L 189.215292 248.801161 
L 189.353257 248.801161 
L 189.459801 248.555314 
L 189.505262 248.555314 
L 189.505262 248.43239 
L 190.285546 248.43239 
L 190.285546 248.309467 
L 190.404437 248.309467 
L 190.404437 248.186543 
L 190.543891 248.186543 
L 190.586573 247.694848 
L 190.689285 247.694848 
L 190.787876 247.449001 
L 190.815941 247.449001 
L 190.885904 247.08023 
L 190.983375 247.08023 
L 191.094098 246.834382 
L 191.327038 246.834382 
L 191.327038 246.711459 
L 192.366692 246.711459 
L 192.45613 246.219764 
L 192.570441 246.219764 
L 192.570441 246.09684 
L 193.461528 246.09684 
L 193.461528 245.973917 
L 193.771207 245.973917 
L 193.771207 245.850993 
L 193.888842 245.850993 
L 193.888842 245.728069 
L 194.348633 245.728069 
L 194.348633 245.605146 
L 194.476558 245.605146 
L 194.476558 245.482222 
L 194.715624 245.482222 
L 194.715624 245.236374 
L 194.832532 245.236374 
L 194.929352 244.867603 
L 195.050299 244.867603 
L 195.050299 244.74468 
L 195.213865 244.74468 
L 195.213865 244.621756 
L 195.410791 244.621756 
L 195.504413 244.375909 
L 195.624038 244.375909 
L 195.719142 243.638367 
L 195.758614 243.638367 
L 195.86343 243.269596 
L 195.977994 243.269596 
L 196.071162 242.900824 
L 196.125278 242.900824 
L 196.143279 242.654977 
L 196.286609 242.654977 
L 196.327342 242.286206 
L 196.542129 242.286206 
L 196.622299 242.040359 
L 196.729441 242.040359 
L 196.838387 241.302817 
L 196.877833 241.302817 
L 196.907358 241.056969 
L 197.170823 241.056969 
L 197.219173 240.688198 
L 197.29625 240.688198 
L 197.325064 240.442351 
L 197.844942 240.442351 
L 197.863554 240.07358 
L 198.288405 240.07358 
L 198.288405 239.950656 
L 198.432966 239.950656 
L 198.432966 239.827732 
L 198.848514 239.827732 
L 198.848514 239.704809 
L 198.990632 239.704809 
L 199.060168 239.336038 
L 199.103485 239.336038 
L 199.103485 239.213114 
L 199.412185 239.213114 
L 199.412185 239.09019 
L 199.581317 239.09019 
L 199.648506 238.598496 
L 200.271998 238.598496 
L 200.271998 238.475572 
L 200.752235 238.475572 
L 200.752235 238.352648 
L 200.947626 238.352648 
L 200.947626 238.229725 
L 201.742965 238.229725 
L 201.742965 238.106801 
L 201.872319 238.106801 
L 201.938466 237.73803 
L 202.07182 237.73803 
L 202.07182 237.615106 
L 202.31215 237.615106 
L 202.419478 236.877564 
L 202.637425 236.877564 
L 202.714722 236.508793 
L 202.791674 236.508793 
L 202.833502 236.262946 
L 202.93936 236.262946 
L 203.035969 236.017098 
L 203.13717 236.017098 
L 203.212255 235.525404 
L 203.293793 235.525404 
L 203.293793 235.40248 
L 203.442281 235.40248 
L 203.549471 234.910785 
L 203.562823 234.910785 
L 203.655997 234.664938 
L 203.743716 234.664938 
L 203.842482 234.41909 
L 203.88183 234.41909 
L 203.991202 233.927396 
L 204.17893 233.927396 
L 204.193409 233.681548 
L 204.327967 233.681548 
L 204.378951 233.435701 
L 204.644161 233.435701 
L 204.644161 233.312777 
L 204.775245 233.312777 
L 204.874451 233.06693 
L 204.997659 233.06693 
L 205.107794 232.821083 
L 206.639882 232.821083 
L 206.740001 232.452312 
L 206.850563 232.452312 
L 206.850563 232.329388 
L 207.145572 232.329388 
L 207.215842 231.960617 
L 207.323391 231.960617 
L 207.402279 231.714769 
L 207.446246 231.714769 
L 207.446246 231.591846 
L 207.593311 231.591846 
L 207.668345 231.345998 
L 207.752204 231.345998 
L 207.797892 231.100151 
L 207.870741 231.100151 
L 207.976858 230.73138 
L 208.056659 230.73138 
L 208.056659 230.608456 
L 208.343184 230.608456 
L 208.417533 230.362609 
L 208.632459 230.362609 
L 208.673389 230.116762 
L 208.747557 230.116762 
L 208.747557 229.993838 
L 208.952323 229.993838 
L 209.036219 229.74799 
L 209.074989 229.74799 
L 209.1185 229.379219 
L 209.35348 229.379219 
L 209.35348 229.256296 
L 209.588811 229.256296 
L 209.588811 229.133372 
L 210.153744 229.133372 
L 210.153744 229.010448 
L 210.570285 229.010448 
L 210.570285 228.887525 
L 210.723781 228.887525 
L 210.723781 228.764601 
L 210.969374 228.764601 
L 211.008345 228.39583 
L 211.119359 228.39583 
L 211.176204 228.149983 
L 211.270175 228.149983 
L 211.270175 228.027059 
L 211.652458 228.027059 
L 211.664951 227.781212 
L 212.50277 227.781212 
L 212.50277 227.658288 
L 212.707703 227.658288 
L 212.707703 227.535364 
L 213.455126 227.535364 
L 213.455126 227.412441 
L 213.607291 227.412441 
L 213.607291 227.289517 
L 213.812388 227.289517 
L 213.812388 227.166593 
L 213.977813 227.166593 
L 213.977813 227.043669 
L 214.126336 227.043669 
L 214.187544 226.674898 
L 214.700931 226.674898 
L 214.736647 226.429051 
L 215.335253 226.429051 
L 215.335253 226.306127 
L 215.459186 226.306127 
L 215.459186 226.183204 
L 216.355678 226.183204 
L 216.355678 226.06028 
L 217.195611 226.06028 
L 217.292617 225.691509 
L 217.36968 225.691509 
L 217.36968 225.568585 
L 219.065729 225.568585 
L 219.065729 225.445662 
L 219.184345 225.445662 
L 219.250708 224.831043 
L 219.413182 224.831043 
L 219.413182 224.70812 
L 219.603652 224.70812 
L 219.603652 224.585196 
L 219.830238 224.585196 
L 219.830238 224.462272 
L 220.432737 224.462272 
L 220.432737 224.339348 
L 220.883302 224.339348 
L 220.936753 224.093501 
L 221.187204 224.093501 
L 221.187204 223.970577 
L 221.370309 223.970577 
L 221.424626 223.72473 
L 222.429728 223.72473 
L 222.429728 223.601806 
L 222.579182 223.601806 
L 222.647387 223.355959 
L 222.837365 223.355959 
L 222.943986 223.110112 
L 223.271052 223.110112 
L 223.271052 222.987188 
L 224.301908 222.987188 
L 224.408755 222.741341 
L 224.733145 222.741341 
L 224.733145 222.618417 
L 225.897891 222.618417 
L 225.897891 222.495493 
L 226.117704 222.495493 
L 226.157125 222.126722 
L 226.436292 222.126722 
L 226.506586 221.880875 
L 227.775176 221.880875 
L 227.775176 221.757951 
L 228.505044 221.757951 
L 228.545583 221.38918 
L 228.724909 221.38918 
L 228.762242 221.143333 
L 229.606191 221.143333 
L 229.697089 220.897485 
L 229.967288 220.897485 
L 229.967288 220.774562 
L 231.718801 220.774562 
L 231.718801 220.651638 
L 233.117895 220.651638 
L 233.117895 220.528714 
L 234.468414 220.528714 
L 234.468414 220.405791 
L 234.650541 220.405791 
L 234.650541 220.282867 
L 234.874977 220.282867 
L 234.874977 220.159943 
L 235.405029 220.159943 
L 235.498771 219.791172 
L 236.424582 219.791172 
L 236.424582 219.668249 
L 236.923875 219.668249 
L 236.923875 219.545325 
L 237.121344 219.545325 
L 237.121344 219.422401 
L 237.813863 219.422401 
L 237.813863 219.299478 
L 238.376402 219.299478 
L 238.40712 219.05363 
L 239.042147 219.05363 
L 239.046372 218.807783 
L 239.643918 218.807783 
L 239.643918 218.684859 
L 239.792588 218.684859 
L 239.792588 218.561935 
L 242.617305 218.561935 
L 242.617305 218.439012 
L 244.73585 218.439012 
L 244.73585 218.316088 
L 245.500097 218.316088 
L 245.500097 218.193164 
L 246.473003 218.193164 
L 246.473003 218.070241 
L 250.621755 218.070241 
L 250.621755 217.947317 
L 333.569032 217.947317 
L 333.569032 217.947317 
" style="fill:none;stroke:#00bfbf;stroke-linecap:square;stroke-width:1.5;"/>
   </g>
   <g id="line2d_43">
    <defs>
     <path d="M -6 0 
L 6 0 
M 0 6 
L 0 -6 
" id="mccbb34e58f" style="stroke:#00bfbf;stroke-width:1.5;"/>
    </defs>
    <g>
     <use style="fill:none;stroke:#00bfbf;stroke-width:1.5;" x="151.325234" xlink:href="#mccbb34e58f" y="273.262974"/>
     <use style="fill:none;stroke:#00bfbf;stroke-width:1.5;" x="187.682887" xlink:href="#mccbb34e58f" y="250.522093"/>
     <use style="fill:none;stroke:#00bfbf;stroke-width:1.5;" x="228.762242" xlink:href="#mccbb34e58f" y="221.143333"/>
     <use style="fill:none;stroke:#00bfbf;stroke-width:1.5;" x="250.621755" xlink:href="#mccbb34e58f" y="217.947317"/>
     <use style="fill:none;stroke:#00bfbf;stroke-width:1.5;" x="333.569032" xlink:href="#mccbb34e58f" y="217.947317"/>
    </g>
   </g>
   <g id="line2d_44">
    <path style="fill:none;stroke:#00bfbf;stroke-linecap:square;stroke-width:1.5;"/>
    <g/>
   </g>
   <g id="line2d_45">
    <path clip-path="url(#p3b9594e266)" d="M 183.0233 256.914124 
" style="fill:none;stroke:#00bfbf;stroke-linecap:square;stroke-width:1.5;"/>
    <defs>
     <path d="M -12 12 
L 12 -12 
M -12 -12 
L 12 12 
" id="m851f3297af" style="stroke:#00bfbf;stroke-width:3;"/>
    </defs>
    <g clip-path="url(#p3b9594e266)">
     <use style="fill:#00bfbf;stroke:#00bfbf;stroke-width:3;" x="183.0233" xlink:href="#m851f3297af" y="256.914124"/>
    </g>
   </g>
   <g id="line2d_46">
    <defs>
     <path d="M 0 1.5 
C 0.397805 1.5 0.77937 1.341951 1.06066 1.06066 
C 1.341951 0.77937 1.5 0.397805 1.5 0 
C 1.5 -0.397805 1.341951 -0.77937 1.06066 -1.06066 
C 0.77937 -1.341951 0.397805 -1.5 0 -1.5 
C -0.397805 -1.5 -0.77937 -1.341951 -1.06066 -1.06066 
C -1.341951 -0.77937 -1.5 -0.397805 -1.5 0 
C -1.5 0.397805 -1.341951 0.77937 -1.06066 1.06066 
C -0.77937 1.341951 -0.397805 1.5 0 1.5 
z
" id="m76bb472ab1" style="stroke:#008000;"/>
    </defs>
    <g>
     <use style="fill:#008000;stroke:#008000;" x="234.94798" xlink:href="#m76bb472ab1" y="254.824422"/>
     <use style="fill:#008000;stroke:#008000;" x="234.94798" xlink:href="#m76bb472ab1" y="254.824422"/>
    </g>
   </g>
   <g id="line2d_47">
    <path d="M 37.9781 294.16 
L 37.9781 287.645045 
L 128.858012 287.645045 
L 128.858012 287.15335 
L 132.567916 287.15335 
L 132.567916 287.030426 
L 133.315983 287.030426 
L 133.315983 286.784579 
L 136.301442 286.784579 
L 136.301442 286.538732 
L 137.120461 286.538732 
L 137.120461 286.415808 
L 138.747129 286.415808 
L 138.747129 286.047037 
L 139.690709 286.047037 
L 139.690709 285.555342 
L 139.873358 285.555342 
L 139.873358 285.309495 
L 140.628643 285.309495 
L 140.628643 285.063648 
L 141.804475 285.063648 
L 141.804475 284.940724 
L 142.71351 284.940724 
L 142.71351 284.8178 
L 144.046244 284.8178 
L 144.046244 284.571953 
L 144.188136 284.571953 
L 144.188136 284.326105 
L 145.183212 284.326105 
L 145.183212 283.834411 
L 145.805221 283.834411 
L 145.805221 283.096869 
L 149.180213 283.096869 
L 149.180213 282.851021 
L 150.030456 282.851021 
L 150.030456 282.236403 
L 150.91236 282.236403 
L 150.91236 282.113479 
L 156.490197 282.113479 
L 156.490197 281.990555 
L 157.625188 281.990555 
L 157.625188 281.867632 
L 159.345044 281.867632 
L 159.345044 281.744708 
L 162.093611 281.744708 
L 162.093611 281.498861 
L 162.23002 281.498861 
L 162.23002 281.375937 
L 162.377604 281.375937 
L 162.377604 281.253013 
L 163.560499 281.253013 
L 163.560499 280.884242 
L 164.407965 280.884242 
L 164.407965 280.761319 
L 165.017194 280.761319 
L 165.017194 280.638395 
L 165.18439 280.638395 
L 165.18439 280.515471 
L 166.233195 280.515471 
L 166.233195 280.392548 
L 168.356186 280.392548 
L 168.356186 280.023777 
L 170.838977 280.023777 
L 170.838977 279.777929 
L 171.047177 279.777929 
L 171.047177 279.655005 
L 171.165024 279.655005 
L 171.165024 279.286234 
L 171.657043 279.286234 
L 171.657043 279.040387 
L 172.19076 279.040387 
L 172.19076 278.548692 
L 172.519491 278.548692 
L 172.519491 278.179921 
L 172.941615 278.179921 
L 172.941615 277.934074 
L 173.099733 277.934074 
L 173.099733 277.81115 
L 173.282382 277.81115 
L 173.282382 277.688227 
L 173.616516 277.688227 
L 173.616516 277.196532 
L 174.265888 277.196532 
L 174.320946 276.950684 
L 174.677573 276.950684 
L 174.701485 276.704837 
L 175.755687 276.704837 
L 175.755687 276.581913 
L 175.867683 276.581913 
L 175.956756 275.844371 
L 175.978952 275.844371 
L 176.089505 274.492211 
L 176.133528 274.492211 
L 176.133528 274.369287 
L 176.849337 274.369287 
L 176.849337 274.246363 
L 177.597159 274.246363 
L 177.597159 274.12344 
L 177.912193 274.12344 
L 177.912193 274.000516 
L 178.762836 274.000516 
L 178.762836 273.877592 
L 179.319561 273.877592 
L 179.319561 273.754669 
L 179.433308 273.754669 
L 179.433308 273.631745 
L 180.826375 273.631745 
L 180.826375 273.508821 
L 180.992822 273.508821 
L 180.992822 273.385898 
L 181.57501 273.385898 
L 181.674794 272.894203 
L 181.94331 272.894203 
L 181.94331 272.771279 
L 182.188389 272.771279 
L 182.284681 272.525432 
L 182.44905 272.525432 
L 182.44905 272.402508 
L 182.884774 272.402508 
L 182.884774 272.279585 
L 183.032496 272.279585 
L 183.032496 272.156661 
L 183.371114 272.156661 
L 183.371114 272.033737 
L 185.574227 272.033737 
L 185.675407 271.542042 
L 185.826066 271.542042 
L 185.900904 271.296195 
L 185.9382 271.296195 
L 185.9382 271.050348 
L 186.111187 271.050348 
L 186.111187 270.927424 
L 186.473098 270.927424 
L 186.521182 270.681577 
L 186.89227 270.681577 
L 186.950907 270.435729 
L 187.114032 270.435729 
L 187.203672 270.189882 
L 187.330104 270.189882 
L 187.330104 270.066958 
L 187.754257 270.066958 
L 187.848959 269.45234 
L 187.871166 269.45234 
L 187.921027 269.206493 
L 188.053287 269.206493 
L 188.119036 268.960645 
L 188.596316 268.960645 
L 188.596316 268.837721 
L 189.027004 268.837721 
L 189.122696 268.591874 
L 189.345621 268.591874 
L 189.348167 268.346027 
L 189.570715 268.346027 
L 189.628409 268.100179 
L 189.6909 268.100179 
L 189.790415 267.608485 
L 190.404437 267.608485 
L 190.490388 267.239714 
L 190.661012 267.239714 
L 190.661012 267.11679 
L 190.829956 267.11679 
L 190.829956 266.993866 
L 191.279338 266.993866 
L 191.37913 266.625095 
L 191.505306 266.625095 
L 191.505306 266.502171 
L 191.7726 266.502171 
L 191.7726 266.379248 
L 192.011838 266.379248 
L 192.011838 266.256324 
L 192.701802 266.256324 
L 192.73527 266.010477 
L 193.320733 266.010477 
L 193.393286 265.395858 
L 193.727871 265.395858 
L 193.727871 265.272935 
L 193.87516 265.272935 
L 193.87516 265.150011 
L 194.34578 265.150011 
L 194.34578 265.027087 
L 194.696061 265.027087 
L 194.792724 264.78124 
L 194.859328 264.78124 
L 194.859328 264.658316 
L 195.548816 264.658316 
L 195.621389 264.289545 
L 195.983183 264.289545 
L 196.033266 264.043698 
L 196.095235 264.043698 
L 196.143279 263.552003 
L 196.596451 263.552003 
L 196.629795 263.306156 
L 196.729441 263.306156 
L 196.755915 263.060308 
L 196.861408 263.060308 
L 196.861408 262.937385 
L 198.663094 262.937385 
L 198.663094 262.814461 
L 199.70917 262.814461 
L 199.742548 262.568614 
L 200.263913 262.568614 
L 200.263913 262.44569 
L 200.563206 262.44569 
L 200.563206 262.322766 
L 200.738474 262.322766 
L 200.796066 261.953995 
L 201.1581 261.953995 
L 201.219404 261.708148 
L 201.799754 261.708148 
L 201.799754 261.585224 
L 203.086358 261.585224 
L 203.086358 261.462301 
L 203.699636 261.462301 
L 203.699636 261.339377 
L 203.95156 261.339377 
L 203.95156 261.216453 
L 204.423438 261.216453 
L 204.453032 260.847682 
L 205.033428 260.847682 
L 205.033428 260.724758 
L 206.315618 260.724758 
L 206.315618 260.601835 
L 206.705303 260.601835 
L 206.705303 260.478911 
L 206.843673 260.478911 
L 206.851022 260.233064 
L 207.709016 260.233064 
L 207.709016 260.11014 
L 209.37371 260.11014 
L 209.37371 259.987216 
L 210.975153 259.987216 
L 210.975153 259.864293 
L 211.549739 259.864293 
L 211.549739 259.741369 
L 211.728318 259.741369 
L 211.728318 259.618445 
L 212.025055 259.618445 
L 212.025055 259.495522 
L 212.166469 259.495522 
L 212.166469 259.372598 
L 213.255179 259.372598 
L 213.295607 259.003827 
L 213.430729 259.003827 
L 213.473245 258.75798 
L 213.568522 258.75798 
L 213.568522 258.635056 
L 213.764259 258.635056 
L 213.764259 258.512132 
L 213.965074 258.512132 
L 213.965074 258.389208 
L 215.246219 258.389208 
L 215.351773 257.897514 
L 215.381414 257.897514 
L 215.40375 257.651666 
L 216.822833 257.651666 
L 216.822833 257.528743 
L 217.002228 257.528743 
L 217.002228 257.405819 
L 219.835196 257.405819 
L 219.835196 257.282895 
L 220.230242 257.282895 
L 220.317648 257.037048 
L 220.473284 257.037048 
L 220.473284 256.914124 
L 221.168068 256.914124 
L 221.168068 256.791201 
L 221.341901 256.791201 
L 221.341901 256.668277 
L 223.78026 256.668277 
L 223.78026 256.545353 
L 224.714337 256.545353 
L 224.714337 256.42243 
L 225.530735 256.42243 
L 225.530735 256.299506 
L 225.684123 256.299506 
L 225.684123 256.176582 
L 226.745906 256.176582 
L 226.745906 256.053658 
L 228.197775 256.053658 
L 228.201748 255.807811 
L 229.695875 255.807811 
L 229.766609 255.561964 
L 230.514474 255.561964 
L 230.612785 255.316116 
L 231.148789 255.316116 
L 231.22268 255.070269 
L 233.122369 255.070269 
L 233.122369 254.947345 
L 234.94798 254.947345 
L 234.94798 254.824422 
L 333.569032 254.824422 
L 333.569032 254.824422 
" style="fill:none;stroke:#008000;stroke-linecap:square;stroke-width:1.5;"/>
   </g>
   <g id="line2d_48">
    <defs>
     <path d="M -0 6 
L 6 -6 
L -6 -6 
z
" id="m4f13e6ad80" style="stroke:#008000;stroke-linejoin:miter;stroke-width:1.5;"/>
    </defs>
    <g>
     <use style="fill:none;stroke:#008000;stroke-linejoin:miter;stroke-width:1.5;" x="176.133528" xlink:href="#m4f13e6ad80" y="274.369287"/>
     <use style="fill:none;stroke:#008000;stroke-linejoin:miter;stroke-width:1.5;" x="233.122369" xlink:href="#m4f13e6ad80" y="255.070269"/>
     <use style="fill:none;stroke:#008000;stroke-linejoin:miter;stroke-width:1.5;" x="234.94798" xlink:href="#m4f13e6ad80" y="254.824422"/>
     <use style="fill:none;stroke:#008000;stroke-linejoin:miter;stroke-width:1.5;" x="234.94798" xlink:href="#m4f13e6ad80" y="254.824422"/>
     <use style="fill:none;stroke:#008000;stroke-linejoin:miter;stroke-width:1.5;" x="333.569032" xlink:href="#m4f13e6ad80" y="254.824422"/>
    </g>
   </g>
   <g id="line2d_49">
    <path style="fill:none;stroke:#008000;stroke-linecap:square;stroke-width:1.5;"/>
    <g/>
   </g>
   <g id="line2d_50">
    <path clip-path="url(#p3b9594e266)" d="M 176.017727 275.721448 
" style="fill:none;stroke:#008000;stroke-linecap:square;stroke-width:1.5;"/>
    <defs>
     <path d="M -12 12 
L 12 -12 
M -12 -12 
L 12 12 
" id="me48b733a12" style="stroke:#008000;stroke-width:3;"/>
    </defs>
    <g clip-path="url(#p3b9594e266)">
     <use style="fill:#008000;stroke:#008000;stroke-width:3;" x="176.017727" xlink:href="#me48b733a12" y="275.721448"/>
    </g>
   </g>
   <g id="line2d_51">
    <defs>
     <path d="M 0 1.5 
C 0.397805 1.5 0.77937 1.341951 1.06066 1.06066 
C 1.341951 0.77937 1.5 0.397805 1.5 0 
C 1.5 -0.397805 1.341951 -0.77937 1.06066 -1.06066 
C 0.77937 -1.341951 0.397805 -1.5 0 -1.5 
C -0.397805 -1.5 -0.77937 -1.341951 -1.06066 -1.06066 
C -1.341951 -0.77937 -1.5 -0.397805 -1.5 0 
C -1.5 0.397805 -1.341951 0.77937 -1.06066 1.06066 
C -0.77937 1.341951 -0.397805 1.5 0 1.5 
z
" id="mf46a44c699" style="stroke:#0000ff;"/>
    </defs>
    <g>
     <use style="fill:#0000ff;stroke:#0000ff;" x="227.872467" xlink:href="#mf46a44c699" y="264.658316"/>
     <use style="fill:#0000ff;stroke:#0000ff;" x="227.872467" xlink:href="#mf46a44c699" y="264.658316"/>
    </g>
   </g>
   <g id="line2d_52">
    <path d="M 29.207815 294.16 
L 29.207815 289.120129 
L 142.496572 289.120129 
L 142.496572 288.997205 
L 146.186767 288.997205 
L 146.186767 288.874282 
L 148.396605 288.874282 
L 148.396605 288.751358 
L 154.232585 288.751358 
L 154.232585 288.628434 
L 156.57969 288.628434 
L 156.57969 288.382587 
L 156.825109 288.382587 
L 156.825109 288.259663 
L 157.811529 288.259663 
L 157.811529 287.767969 
L 158.951903 287.767969 
L 158.951903 287.645045 
L 162.06121 287.645045 
L 162.06121 287.522121 
L 163.694854 287.522121 
L 163.694854 287.399197 
L 164.250571 287.399197 
L 164.250571 287.030426 
L 164.362207 287.030426 
L 164.362207 286.784579 
L 166.524199 286.784579 
L 166.524199 286.661655 
L 167.007861 286.661655 
L 167.097398 285.186571 
L 167.186472 285.186571 
L 167.297167 283.342716 
L 167.341247 283.342716 
L 167.429067 282.728098 
L 170.030233 282.728098 
L 170.030233 282.605174 
L 171.679853 282.605174 
L 171.679853 282.48225 
L 172.189377 282.48225 
L 172.272158 282.113479 
L 174.42325 282.113479 
L 174.42325 281.990555 
L 174.55751 281.990555 
L 174.658419 281.744708 
L 175.32101 281.744708 
L 175.376237 281.498861 
L 175.551099 281.498861 
L 175.551099 281.375937 
L 177.789867 281.375937 
L 177.789867 281.253013 
L 178.756233 281.253013 
L 178.756233 281.13009 
L 178.950424 281.13009 
L 179.017457 280.884242 
L 179.095333 280.884242 
L 179.194943 280.023777 
L 179.239029 280.023777 
L 179.239029 279.900853 
L 180.514129 279.900853 
L 180.616021 279.655005 
L 180.65661 279.655005 
L 180.65661 279.532082 
L 182.761939 279.532082 
L 182.761939 279.409158 
L 183.081699 279.409158 
L 183.081699 279.286234 
L 183.241553 279.286234 
L 183.319841 279.040387 
L 183.371835 279.040387 
L 183.380485 278.79454 
L 185.075519 278.79454 
L 185.075519 278.671616 
L 185.96302 278.671616 
L 186.029853 278.056998 
L 186.074265 278.056998 
L 186.170098 277.442379 
L 187.136631 277.442379 
L 187.136631 277.319456 
L 187.302598 277.319456 
L 187.302598 277.196532 
L 187.945904 277.196532 
L 187.945904 277.073608 
L 188.56917 277.073608 
L 188.56917 276.950684 
L 188.937556 276.950684 
L 188.937556 276.827761 
L 190.888696 276.827761 
L 190.916597 276.45899 
L 191.005577 276.45899 
L 191.038826 275.844371 
L 191.845823 275.844371 
L 191.924869 275.598524 
L 192.014017 275.598524 
L 192.061026 275.352677 
L 192.341694 275.352677 
L 192.362208 275.106829 
L 193.039327 275.106829 
L 193.137589 274.615135 
L 194.293188 274.615135 
L 194.32522 274.369287 
L 194.751895 274.369287 
L 194.845289 274.12344 
L 194.876307 274.12344 
L 194.889584 273.877592 
L 195.469164 273.877592 
L 195.533199 273.508821 
L 195.647864 273.508821 
L 195.647864 273.385898 
L 196.66374 273.385898 
L 196.66374 273.262974 
L 196.834437 273.262974 
L 196.869951 273.017127 
L 197.996039 273.017127 
L 197.996039 272.894203 
L 198.506137 272.894203 
L 198.563378 272.402508 
L 198.68084 272.402508 
L 198.687933 272.156661 
L 199.478768 272.156661 
L 199.515976 271.78789 
L 200.581211 271.78789 
L 200.581211 271.664966 
L 201.107359 271.664966 
L 201.107359 271.542042 
L 201.466977 271.542042 
L 201.466977 271.419119 
L 201.813306 271.419119 
L 201.899543 270.8045 
L 201.993394 270.8045 
L 201.993394 270.681577 
L 202.927592 270.681577 
L 202.935899 270.435729 
L 203.290064 270.435729 
L 203.390119 269.575264 
L 203.508349 269.575264 
L 203.508349 269.45234 
L 203.642385 269.45234 
L 203.663628 269.206493 
L 204.036379 269.206493 
L 204.036379 269.083569 
L 205.018516 269.083569 
L 205.018516 268.960645 
L 205.421452 268.960645 
L 205.421452 268.837721 
L 205.795823 268.837721 
L 205.798167 268.591874 
L 206.01763 268.591874 
L 206.01763 268.46895 
L 207.099198 268.46895 
L 207.099198 268.346027 
L 208.419042 268.346027 
L 208.425076 268.100179 
L 208.730527 268.100179 
L 208.730527 267.977256 
L 208.852575 267.977256 
L 208.852575 267.854332 
L 209.123086 267.854332 
L 209.123086 267.731408 
L 209.801714 267.731408 
L 209.801714 267.608485 
L 210.296121 267.608485 
L 210.296121 267.485561 
L 210.525413 267.485561 
L 210.525413 267.362637 
L 211.660996 267.362637 
L 211.660996 267.239714 
L 212.592138 267.239714 
L 212.592138 267.11679 
L 212.794844 267.11679 
L 212.794844 266.993866 
L 212.937686 266.993866 
L 212.937686 266.870943 
L 213.088547 266.870943 
L 213.088547 266.748019 
L 213.749272 266.748019 
L 213.749272 266.625095 
L 216.113552 266.625095 
L 216.113552 266.502171 
L 217.024179 266.502171 
L 217.024179 266.379248 
L 217.387437 266.379248 
L 217.387437 266.256324 
L 217.957164 266.256324 
L 217.957164 266.1334 
L 218.65661 266.1334 
L 218.65661 266.010477 
L 218.851915 266.010477 
L 218.851915 265.887553 
L 219.851828 265.887553 
L 219.851828 265.764629 
L 221.251156 265.764629 
L 221.251156 265.641706 
L 222.626074 265.641706 
L 222.626074 265.518782 
L 223.849735 265.518782 
L 223.849735 265.395858 
L 224.057499 265.395858 
L 224.057499 265.272935 
L 224.65831 265.272935 
L 224.65831 265.150011 
L 225.174486 265.150011 
L 225.204783 264.904164 
L 226.753053 264.904164 
L 226.753053 264.78124 
L 227.872467 264.78124 
L 227.872467 264.658316 
L 333.569032 264.658316 
L 333.569032 264.658316 
" style="fill:none;stroke:#0000ff;stroke-linecap:square;stroke-width:1.5;"/>
   </g>
   <g id="line2d_53">
    <defs>
     <path d="M 0 -6 
L -1.347084 -1.854102 
L -5.706339 -1.854102 
L -2.179628 0.708204 
L -3.526712 4.854102 
L -0 2.291796 
L 3.526712 4.854102 
L 2.179628 0.708204 
L 5.706339 -1.854102 
L 1.347084 -1.854102 
z
" id="m4db1a70947" style="stroke:#0000ff;stroke-linejoin:bevel;stroke-width:1.5;"/>
    </defs>
    <g>
     <use style="fill:none;stroke:#0000ff;stroke-linejoin:bevel;stroke-width:1.5;" x="198.524045" xlink:href="#m4db1a70947" y="272.771279"/>
     <use style="fill:none;stroke:#0000ff;stroke-linejoin:bevel;stroke-width:1.5;" x="227.872467" xlink:href="#m4db1a70947" y="264.78124"/>
     <use style="fill:none;stroke:#0000ff;stroke-linejoin:bevel;stroke-width:1.5;" x="227.872467" xlink:href="#m4db1a70947" y="264.658316"/>
     <use style="fill:none;stroke:#0000ff;stroke-linejoin:bevel;stroke-width:1.5;" x="227.872467" xlink:href="#m4db1a70947" y="264.658316"/>
     <use style="fill:none;stroke:#0000ff;stroke-linejoin:bevel;stroke-width:1.5;" x="333.569032" xlink:href="#m4db1a70947" y="264.658316"/>
    </g>
   </g>
   <g id="line2d_54">
    <path style="fill:none;stroke:#0000ff;stroke-linecap:square;stroke-width:1.5;"/>
    <g/>
   </g>
   <g id="line2d_55">
    <path clip-path="url(#p3b9594e266)" d="M 167.26956 284.080258 
" style="fill:none;stroke:#0000ff;stroke-linecap:square;stroke-width:1.5;"/>
    <defs>
     <path d="M -12 12 
L 12 -12 
M -12 -12 
L 12 12 
" id="m7f3122dc6b" style="stroke:#0000ff;stroke-width:3;"/>
    </defs>
    <g clip-path="url(#p3b9594e266)">
     <use style="fill:#0000ff;stroke:#0000ff;stroke-width:3;" x="167.26956" xlink:href="#m7f3122dc6b" y="284.080258"/>
    </g>
   </g>
   <g id="line2d_56">
    <defs>
     <path d="M 0 1.5 
C 0.397805 1.5 0.77937 1.341951 1.06066 1.06066 
C 1.341951 0.77937 1.5 0.397805 1.5 0 
C 1.5 -0.397805 1.341951 -0.77937 1.06066 -1.06066 
C 0.77937 -1.341951 0.397805 -1.5 0 -1.5 
C -0.397805 -1.5 -0.77937 -1.341951 -1.06066 -1.06066 
C -1.341951 -0.77937 -1.5 -0.397805 -1.5 0 
C -1.5 0.397805 -1.341951 0.77937 -1.06066 1.06066 
C -0.77937 1.341951 -0.397805 1.5 0 1.5 
z
" id="me70f051675" style="stroke:#000000;"/>
    </defs>
    <g>
     <use style="stroke:#000000;" x="219.935349" xlink:href="#me70f051675" y="270.8045"/>
     <use style="stroke:#000000;" x="219.935349" xlink:href="#me70f051675" y="270.8045"/>
    </g>
   </g>
   <g id="line2d_57">
    <path d="M 17.307281 294.16 
L 17.307281 284.940724 
L 155.084869 284.940724 
L 155.084869 284.8178 
L 155.285938 284.8178 
L 155.396633 282.973945 
L 155.440712 282.973945 
L 155.50662 282.113479 
L 155.615906 282.113479 
L 155.615906 281.867632 
L 167.228066 281.867632 
L 167.338495 280.638395 
L 174.166337 280.638395 
L 174.247496 279.655005 
L 174.28426 279.655005 
L 174.394083 278.917463 
L 179.088394 278.917463 
L 179.193563 278.056998 
L 179.232148 278.056998 
L 179.237653 277.81115 
L 182.940319 277.81115 
L 183.015572 277.565303 
L 183.055279 277.565303 
L 183.068494 277.319456 
L 186.099196 277.319456 
L 186.20223 276.336066 
L 188.737742 276.336066 
L 188.826136 275.721448 
L 188.885859 275.721448 
L 188.885859 275.598524 
L 191.027057 275.598524 
L 191.087888 275.106829 
L 193.054102 275.106829 
L 193.147385 274.860982 
L 194.826983 274.860982 
L 194.922179 274.492211 
L 196.45805 274.492211 
L 196.536603 274.246363 
L 198.017714 274.246363 
L 198.063739 273.754669 
L 198.151764 273.754669 
L 198.151764 273.631745 
L 199.41346 273.631745 
L 199.444025 273.385898 
L 200.730999 273.385898 
L 200.770304 273.14005 
L 201.854636 273.14005 
L 201.854636 273.017127 
L 202.857855 273.017127 
L 202.935553 272.771279 
L 204.001938 272.771279 
L 204.090176 272.525432 
L 205.830944 272.525432 
L 205.830944 272.402508 
L 207.679112 272.402508 
L 207.679112 272.279585 
L 208.480039 272.279585 
L 208.480039 272.156661 
L 209.257718 272.156661 
L 209.29408 271.910814 
L 209.96772 271.910814 
L 209.96772 271.78789 
L 210.607072 271.78789 
L 210.607072 271.664966 
L 211.292524 271.664966 
L 211.292524 271.542042 
L 213.203875 271.542042 
L 213.242652 271.296195 
L 218.281874 271.296195 
L 218.281874 271.173271 
L 218.799382 271.173271 
L 218.799382 271.050348 
L 219.182867 271.050348 
L 219.182867 270.927424 
L 219.935349 270.927424 
L 219.935349 270.8045 
L 333.569032 270.8045 
L 333.569032 270.8045 
" style="fill:none;stroke:#000000;stroke-linecap:square;stroke-width:1.5;"/>
   </g>
   <g id="line2d_58">
    <defs>
     <path d="M 0 6 
C 1.591219 6 3.117479 5.367802 4.242641 4.242641 
C 5.367802 3.117479 6 1.591219 6 0 
C 6 -1.591219 5.367802 -3.117479 4.242641 -4.242641 
C 3.117479 -5.367802 1.591219 -6 0 -6 
C -1.591219 -6 -3.117479 -5.367802 -4.242641 -4.242641 
C -5.367802 -3.117479 -6 -1.591219 -6 0 
C -6 1.591219 -5.367802 3.117479 -4.242641 4.242641 
C -3.117479 5.367802 -1.591219 6 0 6 
z
" id="me897bc8799" style="stroke:#000000;stroke-width:1.5;"/>
    </defs>
    <g>
     <use style="fill:none;stroke:#000000;stroke-width:1.5;" x="167.338495" xlink:href="#me897bc8799" y="280.761319"/>
     <use style="fill:none;stroke:#000000;stroke-width:1.5;" x="219.935349" xlink:href="#me897bc8799" y="270.927424"/>
     <use style="fill:none;stroke:#000000;stroke-width:1.5;" x="219.935349" xlink:href="#me897bc8799" y="270.8045"/>
     <use style="fill:none;stroke:#000000;stroke-width:1.5;" x="219.935349" xlink:href="#me897bc8799" y="270.8045"/>
     <use style="fill:none;stroke:#000000;stroke-width:1.5;" x="333.569032" xlink:href="#me897bc8799" y="270.8045"/>
    </g>
   </g>
   <g id="line2d_59">
    <path style="fill:none;stroke:#000000;stroke-linecap:square;stroke-width:1.5;"/>
    <g/>
   </g>
   <g id="line2d_60">
    <path clip-path="url(#p3b9594e266)" d="M 155.346908 284.449029 
" style="fill:none;stroke:#000000;stroke-linecap:square;stroke-width:1.5;"/>
    <defs>
     <path d="M -12 12 
L 12 -12 
M -12 -12 
L 12 12 
" id="mb7a71017a5" style="stroke:#000000;stroke-width:3;"/>
    </defs>
    <g clip-path="url(#p3b9594e266)">
     <use style="stroke:#000000;stroke-width:3;" x="155.346908" xlink:href="#mb7a71017a5" y="284.449029"/>
    </g>
   </g>
   <g id="line2d_61">
    <defs>
     <path d="M 0 1.5 
C 0.397805 1.5 0.77937 1.341951 1.06066 1.06066 
C 1.341951 0.77937 1.5 0.397805 1.5 0 
C 1.5 -0.397805 1.341951 -0.77937 1.06066 -1.06066 
C 0.77937 -1.341951 0.397805 -1.5 0 -1.5 
C -0.397805 -1.5 -0.77937 -1.341951 -1.06066 -1.06066 
C -1.341951 -0.77937 -1.5 -0.397805 -1.5 0 
C -1.5 0.397805 -1.341951 0.77937 -1.06066 1.06066 
C -0.77937 1.341951 -0.397805 1.5 0 1.5 
z
" id="m81b7eb4099" style="stroke:#ff0000;"/>
    </defs>
    <g>
     <use style="fill:#ff0000;stroke:#ff0000;" x="210.560854" xlink:href="#m81b7eb4099" y="276.950684"/>
     <use style="fill:#ff0000;stroke:#ff0000;" x="210.560854" xlink:href="#m81b7eb4099" y="276.950684"/>
    </g>
   </g>
   <g id="line2d_62">
    <path d="M 5.406747 294.16 
L 5.406747 284.080258 
L 143.363178 284.080258 
L 143.363178 283.957334 
L 143.429767 283.957334 
L 143.429767 283.834411 
L 143.451906 283.834411 
L 143.451906 283.588563 
L 143.474017 283.588563 
L 143.474017 283.342716 
L 143.496099 283.342716 
L 143.496099 283.219792 
L 143.518153 283.219792 
L 143.518153 283.096869 
L 155.227535 283.096869 
L 155.227535 282.973945 
L 155.238675 282.973945 
L 155.238675 282.851021 
L 155.249807 282.851021 
L 155.249807 282.728098 
L 155.283161 282.728098 
L 155.283161 282.605174 
L 155.294265 282.605174 
L 155.294265 282.48225 
L 155.305361 282.48225 
L 155.305361 282.359327 
L 155.327532 282.359327 
L 155.327532 282.236403 
L 155.382835 282.236403 
L 155.382835 282.113479 
L 155.415932 282.113479 
L 155.415932 281.990555 
L 155.459962 281.990555 
L 155.459962 281.867632 
L 162.236195 281.867632 
L 162.236195 281.744708 
L 162.258406 281.744708 
L 162.258406 281.621784 
L 162.317494 281.621784 
L 162.317494 281.498861 
L 162.332234 281.498861 
L 162.332234 281.375937 
L 162.332234 281.375937 
L 162.332234 281.253013 
L 162.3396 281.253013 
L 162.3396 281.13009 
L 167.093212 281.13009 
L 167.093212 281.007166 
L 167.104374 281.007166 
L 167.104374 280.884242 
L 167.254358 280.884242 
L 167.254358 280.761319 
L 167.304062 280.761319 
L 167.304062 280.638395 
L 171.02203 280.638395 
L 171.02203 280.515471 
L 171.02647 280.515471 
L 171.02647 280.392548 
L 171.048655 280.392548 
L 171.048655 280.269624 
L 171.092939 280.269624 
L 171.092939 280.1467 
L 174.154315 280.1467 
L 174.154315 280.023777 
L 174.161714 280.023777 
L 174.161714 279.900853 
L 174.217106 279.900853 
L 174.217106 279.777929 
L 174.253936 279.777929 
L 174.253936 279.655005 
L 176.735626 279.655005 
L 176.735626 279.532082 
L 176.821376 279.532082 
L 176.821376 279.409158 
L 176.824543 279.409158 
L 176.824543 279.286234 
L 176.86883 279.286234 
L 176.86883 279.163311 
L 179.093252 279.163311 
L 179.093252 279.040387 
L 179.137599 279.040387 
L 179.137599 278.917463 
L 180.965469 278.917463 
L 180.965469 278.79454 
L 182.897565 278.79454 
L 182.897565 278.671616 
L 182.9442 278.671616 
L 182.9442 278.548692 
L 186.078423 278.548692 
L 186.078423 278.425769 
L 188.632578 278.425769 
L 188.632578 278.302845 
L 189.89059 278.302845 
L 189.89059 278.179921 
L 192.045371 278.179921 
L 192.045371 278.056998 
L 192.114408 278.056998 
L 192.114408 277.934074 
L 193.036555 277.934074 
L 193.036555 277.81115 
L 193.045177 277.81115 
L 193.045177 277.688227 
L 196.54238 277.688227 
L 196.54238 277.565303 
L 197.282305 277.565303 
L 197.282305 277.442379 
L 197.920425 277.442379 
L 197.920425 277.319456 
L 197.939881 277.319456 
L 197.939881 277.196532 
L 204.919062 277.196532 
L 204.919062 277.073608 
L 210.560854 277.073608 
L 210.560854 276.950684 
L 333.569032 276.950684 
" style="fill:none;stroke:#ff0000;stroke-linecap:square;stroke-width:1.5;"/>
   </g>
   <g id="line2d_63">
    <defs>
     <path d="M -6 6 
L 6 6 
L 6 -6 
L -6 -6 
z
" id="m146f0b4a4c" style="stroke:#ff0000;stroke-linejoin:miter;stroke-width:1.5;"/>
    </defs>
    <g>
     <use style="fill:none;stroke:#ff0000;stroke-linejoin:miter;stroke-width:1.5;" x="189.89059" xlink:href="#m146f0b4a4c" y="278.302845"/>
     <use style="fill:none;stroke:#ff0000;stroke-linejoin:miter;stroke-width:1.5;" x="210.560854" xlink:href="#m146f0b4a4c" y="276.950684"/>
     <use style="fill:none;stroke:#ff0000;stroke-linejoin:miter;stroke-width:1.5;" x="210.560854" xlink:href="#m146f0b4a4c" y="276.950684"/>
     <use style="fill:none;stroke:#ff0000;stroke-linejoin:miter;stroke-width:1.5;" x="333.569032" xlink:href="#m146f0b4a4c" y="276.950684"/>
    </g>
   </g>
   <g id="line2d_64">
    <path style="fill:none;stroke:#ff0000;stroke-linecap:square;stroke-width:1.5;"/>
    <g/>
   </g>
   <g id="line2d_65">
    <path clip-path="url(#p3b9594e266)" d="M 143.446374 283.834411 
" style="fill:none;stroke:#ff0000;stroke-linecap:square;stroke-width:1.5;"/>
    <defs>
     <path d="M -12 12 
L 12 -12 
M -12 -12 
L 12 12 
" id="mcf3adf9c88" style="stroke:#ff0000;stroke-width:3;"/>
    </defs>
    <g clip-path="url(#p3b9594e266)">
     <use style="fill:#ff0000;stroke:#ff0000;stroke-width:3;" x="143.446374" xlink:href="#mcf3adf9c88" y="283.834411"/>
    </g>
   </g>
   <g id="line2d_66">
    <path d="M 333.569032 276.950684 
L 364.009226 288.456341 
" style="fill:none;stroke:#ff0000;stroke-linecap:square;stroke-width:1.5;"/>
    <g>
     <use style="fill:none;stroke:#ff0000;stroke-linejoin:miter;stroke-width:1.5;" x="333.569032" xlink:href="#m146f0b4a4c" y="276.950684"/>
     <use style="fill:none;stroke:#ff0000;stroke-linejoin:miter;stroke-width:1.5;" x="364.009226" xlink:href="#m146f0b4a4c" y="288.456341"/>
    </g>
   </g>
   <g id="line2d_67">
    <path d="M 333.569032 270.8045 
L 364.009226 220.012435 
" style="fill:none;stroke:#000000;stroke-linecap:square;stroke-width:1.5;"/>
    <g>
     <use style="fill:none;stroke:#000000;stroke-width:1.5;" x="333.569032" xlink:href="#me897bc8799" y="270.8045"/>
     <use style="fill:none;stroke:#000000;stroke-width:1.5;" x="364.009226" xlink:href="#me897bc8799" y="220.012435"/>
    </g>
   </g>
   <g id="line2d_68">
    <path d="M 333.569032 264.658316 
L 364.009226 151.568529 
" style="fill:none;stroke:#0000ff;stroke-linecap:square;stroke-width:1.5;"/>
    <g>
     <use style="fill:none;stroke:#0000ff;stroke-linejoin:bevel;stroke-width:1.5;" x="333.569032" xlink:href="#m4db1a70947" y="264.658316"/>
     <use style="fill:none;stroke:#0000ff;stroke-linejoin:bevel;stroke-width:1.5;" x="364.009226" xlink:href="#m4db1a70947" y="151.568529"/>
    </g>
   </g>
   <g id="line2d_69">
    <path d="M 333.569032 254.824422 
L 364.009226 83.124622 
" style="fill:none;stroke:#008000;stroke-linecap:square;stroke-width:1.5;"/>
    <g>
     <use style="fill:none;stroke:#008000;stroke-linejoin:miter;stroke-width:1.5;" x="333.569032" xlink:href="#m4f13e6ad80" y="254.824422"/>
     <use style="fill:none;stroke:#008000;stroke-linejoin:miter;stroke-width:1.5;" x="364.009226" xlink:href="#m4f13e6ad80" y="83.124622"/>
    </g>
   </g>
   <g id="line2d_70">
    <path d="M 333.569032 217.947317 
L 364.009226 14.680716 
" style="fill:none;stroke:#00bfbf;stroke-linecap:square;stroke-width:1.5;"/>
    <g>
     <use style="fill:none;stroke:#00bfbf;stroke-width:1.5;" x="333.569032" xlink:href="#mccbb34e58f" y="217.947317"/>
     <use style="fill:none;stroke:#00bfbf;stroke-width:1.5;" x="364.009226" xlink:href="#mccbb34e58f" y="14.680716"/>
    </g>
   </g>
   <g id="line2d_71">
    <path d="M 333.569032 294.16 
L 333.569032 8.977057 
" style="fill:none;stroke:#000000;stroke-linecap:square;stroke-width:1.5;"/>
   </g>
   <g id="patch_3">
    <path d="M 56.84 294.16 
L 56.84 6.125228 
" style="fill:none;stroke:#000000;stroke-linecap:square;stroke-linejoin:miter;stroke-width:0.8;"/>
   </g>
   <g id="patch_4">
    <path d="M 399.984 294.16 
L 399.984 6.125228 
" style="fill:none;stroke:#000000;stroke-linecap:square;stroke-linejoin:miter;stroke-width:0.8;"/>
   </g>
   <g id="patch_5">
    <path d="M 56.84 294.16 
L 399.984 294.16 
" style="fill:none;stroke:#000000;stroke-linecap:square;stroke-linejoin:miter;stroke-width:0.8;"/>
   </g>
   <g id="patch_6">
    <path d="M 56.84 6.125228 
L 399.984 6.125228 
" style="fill:none;stroke:#000000;stroke-linecap:square;stroke-linejoin:miter;stroke-width:0.8;"/>
   </g>
   <g id="text_14">
    <!-- 20-D -->
    <defs>
     <path d="M 19.671875 64.796875 
L 19.671875 8.109375 
L 31.59375 8.109375 
Q 46.6875 8.109375 53.6875 14.9375 
Q 60.6875 21.78125 60.6875 36.53125 
Q 60.6875 51.171875 53.6875 57.984375 
Q 46.6875 64.796875 31.59375 64.796875 
z
M 9.8125 72.90625 
L 30.078125 72.90625 
Q 51.265625 72.90625 61.171875 64.09375 
Q 71.09375 55.28125 71.09375 36.53125 
Q 71.09375 17.671875 61.125 8.828125 
Q 51.171875 0 30.078125 0 
L 9.8125 0 
z
" id="DejaVuSans-44"/>
    </defs>
    <g transform="translate(369.543806 293.147279)scale(0.17 -0.17)">
     <use xlink:href="#DejaVuSans-32"/>
     <use x="63.623047" xlink:href="#DejaVuSans-30"/>
     <use x="127.246094" xlink:href="#DejaVuSans-2d"/>
     <use x="163.330078" xlink:href="#DejaVuSans-44"/>
    </g>
   </g>
   <g id="text_15">
    <!-- 10-D -->
    <g transform="translate(369.543806 224.703372)scale(0.17 -0.17)">
     <use xlink:href="#DejaVuSans-31"/>
     <use x="63.623047" xlink:href="#DejaVuSans-30"/>
     <use x="127.246094" xlink:href="#DejaVuSans-2d"/>
     <use x="163.330078" xlink:href="#DejaVuSans-44"/>
    </g>
   </g>
   <g id="text_16">
    <!-- 5-D -->
    <defs>
     <path d="M 10.796875 72.90625 
L 49.515625 72.90625 
L 49.515625 64.59375 
L 19.828125 64.59375 
L 19.828125 46.734375 
Q 21.96875 47.46875 24.109375 47.828125 
Q 26.265625 48.1875 28.421875 48.1875 
Q 40.625 48.1875 47.75 41.5 
Q 54.890625 34.8125 54.890625 23.390625 
Q 54.890625 11.625 47.5625 5.09375 
Q 40.234375 -1.421875 26.90625 -1.421875 
Q 22.3125 -1.421875 17.546875 -0.640625 
Q 12.796875 0.140625 7.71875 1.703125 
L 7.71875 11.625 
Q 12.109375 9.234375 16.796875 8.0625 
Q 21.484375 6.890625 26.703125 6.890625 
Q 35.15625 6.890625 40.078125 11.328125 
Q 45.015625 15.765625 45.015625 23.390625 
Q 45.015625 31 40.078125 35.4375 
Q 35.15625 39.890625 26.703125 39.890625 
Q 22.75 39.890625 18.8125 39.015625 
Q 14.890625 38.140625 10.796875 36.28125 
z
" id="DejaVuSans-35"/>
    </defs>
    <g transform="translate(369.543806 156.259466)scale(0.17 -0.17)">
     <use xlink:href="#DejaVuSans-35"/>
     <use x="63.623047" xlink:href="#DejaVuSans-2d"/>
     <use x="99.707031" xlink:href="#DejaVuSans-44"/>
    </g>
   </g>
   <g id="text_17">
    <!-- 3-D -->
    <defs>
     <path d="M 40.578125 39.3125 
Q 47.65625 37.796875 51.625 33 
Q 55.609375 28.21875 55.609375 21.1875 
Q 55.609375 10.40625 48.1875 4.484375 
Q 40.765625 -1.421875 27.09375 -1.421875 
Q 22.515625 -1.421875 17.65625 -0.515625 
Q 12.796875 0.390625 7.625 2.203125 
L 7.625 11.71875 
Q 11.71875 9.328125 16.59375 8.109375 
Q 21.484375 6.890625 26.8125 6.890625 
Q 36.078125 6.890625 40.9375 10.546875 
Q 45.796875 14.203125 45.796875 21.1875 
Q 45.796875 27.640625 41.28125 31.265625 
Q 36.765625 34.90625 28.71875 34.90625 
L 20.21875 34.90625 
L 20.21875 43.015625 
L 29.109375 43.015625 
Q 36.375 43.015625 40.234375 45.921875 
Q 44.09375 48.828125 44.09375 54.296875 
Q 44.09375 59.90625 40.109375 62.90625 
Q 36.140625 65.921875 28.71875 65.921875 
Q 24.65625 65.921875 20.015625 65.03125 
Q 15.375 64.15625 9.8125 62.3125 
L 9.8125 71.09375 
Q 15.4375 72.65625 20.34375 73.4375 
Q 25.25 74.21875 29.59375 74.21875 
Q 40.828125 74.21875 47.359375 69.109375 
Q 53.90625 64.015625 53.90625 55.328125 
Q 53.90625 49.265625 50.4375 45.09375 
Q 46.96875 40.921875 40.578125 39.3125 
" id="DejaVuSans-33"/>
    </defs>
    <g transform="translate(369.543806 87.81556)scale(0.17 -0.17)">
     <use xlink:href="#DejaVuSans-33"/>
     <use x="63.623047" xlink:href="#DejaVuSans-2d"/>
     <use x="99.707031" xlink:href="#DejaVuSans-44"/>
    </g>
   </g>
   <g id="text_18">
    <!-- 2-D -->
    <g transform="translate(369.543806 19.371654)scale(0.17 -0.17)">
     <use xlink:href="#DejaVuSans-32"/>
     <use x="63.623047" xlink:href="#DejaVuSans-2d"/>
     <use x="99.707031" xlink:href="#DejaVuSans-44"/>
    </g>
   </g>
   <g id="text_19">
    <!-- bbob-biobj f48, f49, f51, f52 -->
    <defs>
     <path d="M 48.6875 27.296875 
Q 48.6875 37.203125 44.609375 42.84375 
Q 40.53125 48.484375 33.40625 48.484375 
Q 26.265625 48.484375 22.1875 42.84375 
Q 18.109375 37.203125 18.109375 27.296875 
Q 18.109375 17.390625 22.1875 11.75 
Q 26.265625 6.109375 33.40625 6.109375 
Q 40.53125 6.109375 44.609375 11.75 
Q 48.6875 17.390625 48.6875 27.296875 
M 18.109375 46.390625 
Q 20.953125 51.265625 25.265625 53.625 
Q 29.59375 56 35.59375 56 
Q 45.5625 56 51.78125 48.09375 
Q 58.015625 40.1875 58.015625 27.296875 
Q 58.015625 14.40625 51.78125 6.484375 
Q 45.5625 -1.421875 35.59375 -1.421875 
Q 29.59375 -1.421875 25.265625 0.953125 
Q 20.953125 3.328125 18.109375 8.203125 
L 18.109375 0 
L 9.078125 0 
L 9.078125 75.984375 
L 18.109375 75.984375 
z
" id="DejaVuSans-62"/>
     <path d="M 9.421875 54.6875 
L 18.40625 54.6875 
L 18.40625 -0.984375 
Q 18.40625 -11.421875 14.421875 -16.109375 
Q 10.453125 -20.796875 1.609375 -20.796875 
L -1.8125 -20.796875 
L -1.8125 -13.1875 
L 0.59375 -13.1875 
Q 5.71875 -13.1875 7.5625 -10.8125 
Q 9.421875 -8.453125 9.421875 -0.984375 
z
M 9.421875 75.984375 
L 18.40625 75.984375 
L 18.40625 64.59375 
L 9.421875 64.59375 
z
" id="DejaVuSans-6a"/>
     <path d="M 10.984375 1.515625 
L 10.984375 10.5 
Q 14.703125 8.734375 18.5 7.8125 
Q 22.3125 6.890625 25.984375 6.890625 
Q 35.75 6.890625 40.890625 13.453125 
Q 46.046875 20.015625 46.78125 33.40625 
Q 43.953125 29.203125 39.59375 26.953125 
Q 35.25 24.703125 29.984375 24.703125 
Q 19.046875 24.703125 12.671875 31.3125 
Q 6.296875 37.9375 6.296875 49.421875 
Q 6.296875 60.640625 12.9375 67.421875 
Q 19.578125 74.21875 30.609375 74.21875 
Q 43.265625 74.21875 49.921875 64.515625 
Q 56.59375 54.828125 56.59375 36.375 
Q 56.59375 19.140625 48.40625 8.859375 
Q 40.234375 -1.421875 26.421875 -1.421875 
Q 22.703125 -1.421875 18.890625 -0.6875 
Q 15.09375 0.046875 10.984375 1.515625 
M 30.609375 32.421875 
Q 37.25 32.421875 41.125 36.953125 
Q 45.015625 41.5 45.015625 49.421875 
Q 45.015625 57.28125 41.125 61.84375 
Q 37.25 66.40625 30.609375 66.40625 
Q 23.96875 66.40625 20.09375 61.84375 
Q 16.21875 57.28125 16.21875 49.421875 
Q 16.21875 41.5 20.09375 36.953125 
Q 23.96875 32.421875 30.609375 32.421875 
" id="DejaVuSans-39"/>
    </defs>
    <g transform="translate(60.27144 16.755982)scale(0.102 -0.102)">
     <use xlink:href="#DejaVuSans-62"/>
     <use x="63.476562" xlink:href="#DejaVuSans-62"/>
     <use x="126.953125" xlink:href="#DejaVuSans-6f"/>
     <use x="188.134766" xlink:href="#DejaVuSans-62"/>
     <use x="251.611328" xlink:href="#DejaVuSans-2d"/>
     <use x="287.695312" xlink:href="#DejaVuSans-62"/>
     <use x="351.171875" xlink:href="#DejaVuSans-69"/>
     <use x="378.955078" xlink:href="#DejaVuSans-6f"/>
     <use x="440.136719" xlink:href="#DejaVuSans-62"/>
     <use x="503.613281" xlink:href="#DejaVuSans-6a"/>
     <use x="531.396484" xlink:href="#DejaVuSans-20"/>
     <use x="563.183594" xlink:href="#DejaVuSans-66"/>
     <use x="598.388672" xlink:href="#DejaVuSans-34"/>
     <use x="662.011719" xlink:href="#DejaVuSans-38"/>
     <use x="725.634766" xlink:href="#DejaVuSans-2c"/>
     <use x="757.421875" xlink:href="#DejaVuSans-20"/>
     <use x="789.208984" xlink:href="#DejaVuSans-66"/>
     <use x="824.414062" xlink:href="#DejaVuSans-34"/>
     <use x="888.037109" xlink:href="#DejaVuSans-39"/>
     <use x="951.660156" xlink:href="#DejaVuSans-2c"/>
     <use x="983.447266" xlink:href="#DejaVuSans-20"/>
     <use x="1015.234375" xlink:href="#DejaVuSans-66"/>
     <use x="1050.439453" xlink:href="#DejaVuSans-35"/>
     <use x="1114.0625" xlink:href="#DejaVuSans-31"/>
     <use x="1177.685547" xlink:href="#DejaVuSans-2c"/>
     <use x="1209.472656" xlink:href="#DejaVuSans-20"/>
     <use x="1241.259766" xlink:href="#DejaVuSans-66"/>
     <use x="1276.464844" xlink:href="#DejaVuSans-35"/>
     <use x="1340.087891" xlink:href="#DejaVuSans-32"/>
    </g>
    <!-- 58 targets: 1..-1.0e-4 -->
    <defs>
     <path d="M 11.71875 12.40625 
L 22.015625 12.40625 
L 22.015625 0 
L 11.71875 0 
z
M 11.71875 51.703125 
L 22.015625 51.703125 
L 22.015625 39.3125 
L 11.71875 39.3125 
z
" id="DejaVuSans-3a"/>
    </defs>
    <g transform="translate(60.27144 28.17775)scale(0.102 -0.102)">
     <use xlink:href="#DejaVuSans-35"/>
     <use x="63.623047" xlink:href="#DejaVuSans-38"/>
     <use x="127.246094" xlink:href="#DejaVuSans-20"/>
     <use x="159.033203" xlink:href="#DejaVuSans-74"/>
     <use x="198.242188" xlink:href="#DejaVuSans-61"/>
     <use x="259.521484" xlink:href="#DejaVuSans-72"/>
     <use x="300.619141" xlink:href="#DejaVuSans-67"/>
     <use x="364.095703" xlink:href="#DejaVuSans-65"/>
     <use x="425.619141" xlink:href="#DejaVuSans-74"/>
     <use x="464.828125" xlink:href="#DejaVuSans-73"/>
     <use x="516.927734" xlink:href="#DejaVuSans-3a"/>
     <use x="550.619141" xlink:href="#DejaVuSans-20"/>
     <use x="582.40625" xlink:href="#DejaVuSans-31"/>
     <use x="646.029297" xlink:href="#DejaVuSans-2e"/>
     <use x="677.816406" xlink:href="#DejaVuSans-2e"/>
     <use x="709.603516" xlink:href="#DejaVuSans-2d"/>
     <use x="745.6875" xlink:href="#DejaVuSans-31"/>
     <use x="809.310547" xlink:href="#DejaVuSans-2e"/>
     <use x="841.097656" xlink:href="#DejaVuSans-30"/>
     <use x="904.720703" xlink:href="#DejaVuSans-65"/>
     <use x="966.244141" xlink:href="#DejaVuSans-2d"/>
     <use x="1002.328125" xlink:href="#DejaVuSans-34"/>
    </g>
    <!-- 10 instances -->
    <g transform="translate(60.27144 39.599519)scale(0.102 -0.102)">
     <use xlink:href="#DejaVuSans-31"/>
     <use x="63.623047" xlink:href="#DejaVuSans-30"/>
     <use x="127.246094" xlink:href="#DejaVuSans-20"/>
     <use x="159.033203" xlink:href="#DejaVuSans-69"/>
     <use x="186.816406" xlink:href="#DejaVuSans-6e"/>
     <use x="250.195312" xlink:href="#DejaVuSans-73"/>
     <use x="302.294922" xlink:href="#DejaVuSans-74"/>
     <use x="341.503906" xlink:href="#DejaVuSans-61"/>
     <use x="402.783203" xlink:href="#DejaVuSans-6e"/>
     <use x="466.162109" xlink:href="#DejaVuSans-63"/>
     <use x="521.142578" xlink:href="#DejaVuSans-65"/>
     <use x="582.666016" xlink:href="#DejaVuSans-73"/>
    </g>
   </g>
   <g id="text_20">
    <!-- v2.2.1.10, hv-hash=ff0e71e8cd978373 -->
    <defs>
     <path d="M 54.890625 33.015625 
L 54.890625 0 
L 45.90625 0 
L 45.90625 32.71875 
Q 45.90625 40.484375 42.875 44.328125 
Q 39.84375 48.1875 33.796875 48.1875 
Q 26.515625 48.1875 22.3125 43.546875 
Q 18.109375 38.921875 18.109375 30.90625 
L 18.109375 0 
L 9.078125 0 
L 9.078125 75.984375 
L 18.109375 75.984375 
L 18.109375 46.1875 
Q 21.34375 51.125 25.703125 53.5625 
Q 30.078125 56 35.796875 56 
Q 45.21875 56 50.046875 50.171875 
Q 54.890625 44.34375 54.890625 33.015625 
" id="DejaVuSans-68"/>
     <path d="M 10.59375 45.40625 
L 73.1875 45.40625 
L 73.1875 37.203125 
L 10.59375 37.203125 
z
M 10.59375 25.484375 
L 73.1875 25.484375 
L 73.1875 17.1875 
L 10.59375 17.1875 
z
" id="DejaVuSans-3d"/>
     <path d="M 8.203125 72.90625 
L 55.078125 72.90625 
L 55.078125 68.703125 
L 28.609375 0 
L 18.3125 0 
L 43.21875 64.59375 
L 8.203125 64.59375 
z
" id="DejaVuSans-37"/>
    </defs>
    <g style="fill:#808080;" transform="translate(130.065125 289.199965)scale(0.1 -0.1)">
     <use xlink:href="#DejaVuSans-76"/>
     <use x="59.179688" xlink:href="#DejaVuSans-32"/>
     <use x="122.802734" xlink:href="#DejaVuSans-2e"/>
     <use x="154.589844" xlink:href="#DejaVuSans-32"/>
     <use x="218.212891" xlink:href="#DejaVuSans-2e"/>
     <use x="250" xlink:href="#DejaVuSans-31"/>
     <use x="313.623047" xlink:href="#DejaVuSans-2e"/>
     <use x="345.410156" xlink:href="#DejaVuSans-31"/>
     <use x="409.033203" xlink:href="#DejaVuSans-30"/>
     <use x="472.65625" xlink:href="#DejaVuSans-2c"/>
     <use x="504.443359" xlink:href="#DejaVuSans-20"/>
     <use x="536.230469" xlink:href="#DejaVuSans-68"/>
     <use x="599.609375" xlink:href="#DejaVuSans-76"/>
     <use x="658.757812" xlink:href="#DejaVuSans-2d"/>
     <use x="694.841797" xlink:href="#DejaVuSans-68"/>
     <use x="758.220703" xlink:href="#DejaVuSans-61"/>
     <use x="819.5" xlink:href="#DejaVuSans-73"/>
     <use x="871.599609" xlink:href="#DejaVuSans-68"/>
     <use x="934.978516" xlink:href="#DejaVuSans-3d"/>
     <use x="1018.767578" xlink:href="#DejaVuSans-66"/>
     <use x="1053.972656" xlink:href="#DejaVuSans-66"/>
     <use x="1089.177734" xlink:href="#DejaVuSans-30"/>
     <use x="1152.800781" xlink:href="#DejaVuSans-65"/>
     <use x="1214.324219" xlink:href="#DejaVuSans-37"/>
     <use x="1277.947266" xlink:href="#DejaVuSans-31"/>
     <use x="1341.570312" xlink:href="#DejaVuSans-65"/>
     <use x="1403.09375" xlink:href="#DejaVuSans-38"/>
     <use x="1466.716797" xlink:href="#DejaVuSans-63"/>
     <use x="1521.697266" xlink:href="#DejaVuSans-64"/>
     <use x="1585.173828" xlink:href="#DejaVuSans-39"/>
     <use x="1648.796875" xlink:href="#DejaVuSans-37"/>
     <use x="1712.419922" xlink:href="#DejaVuSans-38"/>
     <use x="1776.042969" xlink:href="#DejaVuSans-33"/>
     <use x="1839.666016" xlink:href="#DejaVuSans-37"/>
     <use x="1903.289062" xlink:href="#DejaVuSans-33"/>
    </g>
   </g>
  </g>
 </g>
 <defs>
  <clipPath id="p3b9594e266">
   <rect height="288.034772" width="343.144" x="56.84" y="6.125228"/>
  </clipPath>
 </defs>
</svg>
