<?xml version="1.0" encoding="utf-8" standalone="no"?>
<!DOCTYPE svg PUBLIC "-//W3C//DTD SVG 1.1//EN"
  "http://www.w3.org/Graphics/SVG/1.1/DTD/svg11.dtd">
<!-- Created with matplotlib (http://matplotlib.org/) -->
<svg height="345pt" version="1.1" viewBox="0 0 460 345" width="460pt" xmlns="http://www.w3.org/2000/svg" xmlns:xlink="http://www.w3.org/1999/xlink">
 <defs>
  <style type="text/css">
*{stroke-linecap:butt;stroke-linejoin:round;}
  </style>
 </defs>
 <g id="figure_1">
  <g id="patch_1">
   <path d="M 0 345.6 
L 460.8 345.6 
L 460.8 0 
L 0 0 
z
" style="fill:#ffffff;"/>
  </g>
  <g id="axes_1">
   <g id="patch_2">
    <path d="M 56.84 294.16 
L 399.984 294.16 
L 399.984 6.125228 
L 56.84 6.125228 
z
" style="fill:#ffffff;"/>
   </g>
   <g id="matplotlib.axis_1">
    <g id="xtick_1">
     <g id="line2d_1">
      <path clip-path="url(#pf73fd83b46)" d="M 56.84 294.16 
L 56.84 6.125228 
" style="fill:none;stroke:#b0b0b0;stroke-linecap:square;stroke-width:0.8;"/>
     </g>
     <g id="line2d_2">
      <defs>
       <path d="M 0 0 
L 0 3.5 
" id="mdb44b88100" style="stroke:#000000;stroke-width:0.8;"/>
      </defs>
      <g>
       <use style="stroke:#000000;stroke-width:0.8;" x="56.84" xlink:href="#mdb44b88100" y="294.16"/>
      </g>
     </g>
     <g id="text_1">
      <!-- 0 -->
      <defs>
       <path d="M 31.78125 66.40625 
Q 24.171875 66.40625 20.328125 58.90625 
Q 16.5 51.421875 16.5 36.375 
Q 16.5 21.390625 20.328125 13.890625 
Q 24.171875 6.390625 31.78125 6.390625 
Q 39.453125 6.390625 43.28125 13.890625 
Q 47.125 21.390625 47.125 36.375 
Q 47.125 51.421875 43.28125 58.90625 
Q 39.453125 66.40625 31.78125 66.40625 
M 31.78125 74.21875 
Q 44.046875 74.21875 50.515625 64.515625 
Q 56.984375 54.828125 56.984375 36.375 
Q 56.984375 17.96875 50.515625 8.265625 
Q 44.046875 -1.421875 31.78125 -1.421875 
Q 19.53125 -1.421875 13.0625 8.265625 
Q 6.59375 17.96875 6.59375 36.375 
Q 6.59375 54.828125 13.0625 64.515625 
Q 19.53125 74.21875 31.78125 74.21875 
" id="DejaVuSans-30"/>
      </defs>
      <g transform="translate(50.4775 316.356875)scale(0.2 -0.2)">
       <use xlink:href="#DejaVuSans-30"/>
      </g>
     </g>
    </g>
    <g id="xtick_2">
     <g id="line2d_3">
      <path clip-path="url(#pf73fd83b46)" d="M 135.905438 294.16 
L 135.905438 6.125228 
" style="fill:none;stroke:#b0b0b0;stroke-linecap:square;stroke-width:0.8;"/>
     </g>
     <g id="line2d_4">
      <g>
       <use style="stroke:#000000;stroke-width:0.8;" x="135.905438" xlink:href="#mdb44b88100" y="294.16"/>
      </g>
     </g>
     <g id="text_2">
      <!-- 2 -->
      <defs>
       <path d="M 19.1875 8.296875 
L 53.609375 8.296875 
L 53.609375 0 
L 7.328125 0 
L 7.328125 8.296875 
Q 12.9375 14.109375 22.625 23.890625 
Q 32.328125 33.6875 34.8125 36.53125 
Q 39.546875 41.84375 41.421875 45.53125 
Q 43.3125 49.21875 43.3125 52.78125 
Q 43.3125 58.59375 39.234375 62.25 
Q 35.15625 65.921875 28.609375 65.921875 
Q 23.96875 65.921875 18.8125 64.3125 
Q 13.671875 62.703125 7.8125 59.421875 
L 7.8125 69.390625 
Q 13.765625 71.78125 18.9375 73 
Q 24.125 74.21875 28.421875 74.21875 
Q 39.75 74.21875 46.484375 68.546875 
Q 53.21875 62.890625 53.21875 53.421875 
Q 53.21875 48.921875 51.53125 44.890625 
Q 49.859375 40.875 45.40625 35.40625 
Q 44.1875 33.984375 37.640625 27.21875 
Q 31.109375 20.453125 19.1875 8.296875 
" id="DejaVuSans-32"/>
      </defs>
      <g transform="translate(129.542938 316.356875)scale(0.2 -0.2)">
       <use xlink:href="#DejaVuSans-32"/>
      </g>
     </g>
    </g>
    <g id="xtick_3">
     <g id="line2d_5">
      <path clip-path="url(#pf73fd83b46)" d="M 214.970876 294.16 
L 214.970876 6.125228 
" style="fill:none;stroke:#b0b0b0;stroke-linecap:square;stroke-width:0.8;"/>
     </g>
     <g id="line2d_6">
      <g>
       <use style="stroke:#000000;stroke-width:0.8;" x="214.970876" xlink:href="#mdb44b88100" y="294.16"/>
      </g>
     </g>
     <g id="text_3">
      <!-- 4 -->
      <defs>
       <path d="M 37.796875 64.3125 
L 12.890625 25.390625 
L 37.796875 25.390625 
z
M 35.203125 72.90625 
L 47.609375 72.90625 
L 47.609375 25.390625 
L 58.015625 25.390625 
L 58.015625 17.1875 
L 47.609375 17.1875 
L 47.609375 0 
L 37.796875 0 
L 37.796875 17.1875 
L 4.890625 17.1875 
L 4.890625 26.703125 
z
" id="DejaVuSans-34"/>
      </defs>
      <g transform="translate(208.608376 316.356875)scale(0.2 -0.2)">
       <use xlink:href="#DejaVuSans-34"/>
      </g>
     </g>
    </g>
    <g id="xtick_4">
     <g id="line2d_7">
      <path clip-path="url(#pf73fd83b46)" d="M 294.036313 294.16 
L 294.036313 6.125228 
" style="fill:none;stroke:#b0b0b0;stroke-linecap:square;stroke-width:0.8;"/>
     </g>
     <g id="line2d_8">
      <g>
       <use style="stroke:#000000;stroke-width:0.8;" x="294.036313" xlink:href="#mdb44b88100" y="294.16"/>
      </g>
     </g>
     <g id="text_4">
      <!-- 6 -->
      <defs>
       <path d="M 33.015625 40.375 
Q 26.375 40.375 22.484375 35.828125 
Q 18.609375 31.296875 18.609375 23.390625 
Q 18.609375 15.53125 22.484375 10.953125 
Q 26.375 6.390625 33.015625 6.390625 
Q 39.65625 6.390625 43.53125 10.953125 
Q 47.40625 15.53125 47.40625 23.390625 
Q 47.40625 31.296875 43.53125 35.828125 
Q 39.65625 40.375 33.015625 40.375 
M 52.59375 71.296875 
L 52.59375 62.3125 
Q 48.875 64.0625 45.09375 64.984375 
Q 41.3125 65.921875 37.59375 65.921875 
Q 27.828125 65.921875 22.671875 59.328125 
Q 17.53125 52.734375 16.796875 39.40625 
Q 19.671875 43.65625 24.015625 45.921875 
Q 28.375 48.1875 33.59375 48.1875 
Q 44.578125 48.1875 50.953125 41.515625 
Q 57.328125 34.859375 57.328125 23.390625 
Q 57.328125 12.15625 50.6875 5.359375 
Q 44.046875 -1.421875 33.015625 -1.421875 
Q 20.359375 -1.421875 13.671875 8.265625 
Q 6.984375 17.96875 6.984375 36.375 
Q 6.984375 53.65625 15.1875 63.9375 
Q 23.390625 74.21875 37.203125 74.21875 
Q 40.921875 74.21875 44.703125 73.484375 
Q 48.484375 72.75 52.59375 71.296875 
" id="DejaVuSans-36"/>
      </defs>
      <g transform="translate(287.673813 316.356875)scale(0.2 -0.2)">
       <use xlink:href="#DejaVuSans-36"/>
      </g>
     </g>
    </g>
    <g id="xtick_5">
     <g id="line2d_9">
      <path clip-path="url(#pf73fd83b46)" d="M 373.101751 294.16 
L 373.101751 6.125228 
" style="fill:none;stroke:#b0b0b0;stroke-linecap:square;stroke-width:0.8;"/>
     </g>
     <g id="line2d_10">
      <g>
       <use style="stroke:#000000;stroke-width:0.8;" x="373.101751" xlink:href="#mdb44b88100" y="294.16"/>
      </g>
     </g>
     <g id="text_5">
      <!-- 8 -->
      <defs>
       <path d="M 31.78125 34.625 
Q 24.75 34.625 20.71875 30.859375 
Q 16.703125 27.09375 16.703125 20.515625 
Q 16.703125 13.921875 20.71875 10.15625 
Q 24.75 6.390625 31.78125 6.390625 
Q 38.8125 6.390625 42.859375 10.171875 
Q 46.921875 13.96875 46.921875 20.515625 
Q 46.921875 27.09375 42.890625 30.859375 
Q 38.875 34.625 31.78125 34.625 
M 21.921875 38.8125 
Q 15.578125 40.375 12.03125 44.71875 
Q 8.5 49.078125 8.5 55.328125 
Q 8.5 64.0625 14.71875 69.140625 
Q 20.953125 74.21875 31.78125 74.21875 
Q 42.671875 74.21875 48.875 69.140625 
Q 55.078125 64.0625 55.078125 55.328125 
Q 55.078125 49.078125 51.53125 44.71875 
Q 48 40.375 41.703125 38.8125 
Q 48.828125 37.15625 52.796875 32.3125 
Q 56.78125 27.484375 56.78125 20.515625 
Q 56.78125 9.90625 50.3125 4.234375 
Q 43.84375 -1.421875 31.78125 -1.421875 
Q 19.734375 -1.421875 13.25 4.234375 
Q 6.78125 9.90625 6.78125 20.515625 
Q 6.78125 27.484375 10.78125 32.3125 
Q 14.796875 37.15625 21.921875 38.8125 
M 18.3125 54.390625 
Q 18.3125 48.734375 21.84375 45.5625 
Q 25.390625 42.390625 31.78125 42.390625 
Q 38.140625 42.390625 41.71875 45.5625 
Q 45.3125 48.734375 45.3125 54.390625 
Q 45.3125 60.0625 41.71875 63.234375 
Q 38.140625 66.40625 31.78125 66.40625 
Q 25.390625 66.40625 21.84375 63.234375 
Q 18.3125 60.0625 18.3125 54.390625 
" id="DejaVuSans-38"/>
      </defs>
      <g transform="translate(366.739251 316.356875)scale(0.2 -0.2)">
       <use xlink:href="#DejaVuSans-38"/>
      </g>
     </g>
    </g>
    <g id="xtick_6">
     <g id="line2d_11">
      <defs>
       <path d="M 0 0 
L 0 2 
" id="mb4976f3cbe" style="stroke:#000000;stroke-width:0.6;"/>
      </defs>
      <g>
       <use style="stroke:#000000;stroke-width:0.6;" x="68.740534" xlink:href="#mb4976f3cbe" y="294.16"/>
      </g>
     </g>
    </g>
    <g id="xtick_7">
     <g id="line2d_12">
      <g>
       <use style="stroke:#000000;stroke-width:0.6;" x="80.641068" xlink:href="#mb4976f3cbe" y="294.16"/>
      </g>
     </g>
    </g>
    <g id="xtick_8">
     <g id="line2d_13">
      <g>
       <use style="stroke:#000000;stroke-width:0.6;" x="87.602435" xlink:href="#mb4976f3cbe" y="294.16"/>
      </g>
     </g>
    </g>
    <g id="xtick_9">
     <g id="line2d_14">
      <g>
       <use style="stroke:#000000;stroke-width:0.6;" x="92.541603" xlink:href="#mb4976f3cbe" y="294.16"/>
      </g>
     </g>
    </g>
    <g id="xtick_10">
     <g id="line2d_15">
      <g>
       <use style="stroke:#000000;stroke-width:0.6;" x="147.805972" xlink:href="#mb4976f3cbe" y="294.16"/>
      </g>
     </g>
    </g>
    <g id="xtick_11">
     <g id="line2d_16">
      <g>
       <use style="stroke:#000000;stroke-width:0.6;" x="159.706506" xlink:href="#mb4976f3cbe" y="294.16"/>
      </g>
     </g>
    </g>
    <g id="xtick_12">
     <g id="line2d_17">
      <g>
       <use style="stroke:#000000;stroke-width:0.6;" x="166.667872" xlink:href="#mb4976f3cbe" y="294.16"/>
      </g>
     </g>
    </g>
    <g id="xtick_13">
     <g id="line2d_18">
      <g>
       <use style="stroke:#000000;stroke-width:0.6;" x="171.60704" xlink:href="#mb4976f3cbe" y="294.16"/>
      </g>
     </g>
    </g>
    <g id="xtick_14">
     <g id="line2d_19">
      <g>
       <use style="stroke:#000000;stroke-width:0.6;" x="226.87141" xlink:href="#mb4976f3cbe" y="294.16"/>
      </g>
     </g>
    </g>
    <g id="xtick_15">
     <g id="line2d_20">
      <g>
       <use style="stroke:#000000;stroke-width:0.6;" x="238.771944" xlink:href="#mb4976f3cbe" y="294.16"/>
      </g>
     </g>
    </g>
    <g id="xtick_16">
     <g id="line2d_21">
      <g>
       <use style="stroke:#000000;stroke-width:0.6;" x="245.73331" xlink:href="#mb4976f3cbe" y="294.16"/>
      </g>
     </g>
    </g>
    <g id="xtick_17">
     <g id="line2d_22">
      <g>
       <use style="stroke:#000000;stroke-width:0.6;" x="250.672478" xlink:href="#mb4976f3cbe" y="294.16"/>
      </g>
     </g>
    </g>
    <g id="xtick_18">
     <g id="line2d_23">
      <g>
       <use style="stroke:#000000;stroke-width:0.6;" x="305.936848" xlink:href="#mb4976f3cbe" y="294.16"/>
      </g>
     </g>
    </g>
    <g id="xtick_19">
     <g id="line2d_24">
      <g>
       <use style="stroke:#000000;stroke-width:0.6;" x="317.837382" xlink:href="#mb4976f3cbe" y="294.16"/>
      </g>
     </g>
    </g>
    <g id="xtick_20">
     <g id="line2d_25">
      <g>
       <use style="stroke:#000000;stroke-width:0.6;" x="324.798748" xlink:href="#mb4976f3cbe" y="294.16"/>
      </g>
     </g>
    </g>
    <g id="xtick_21">
     <g id="line2d_26">
      <g>
       <use style="stroke:#000000;stroke-width:0.6;" x="329.737916" xlink:href="#mb4976f3cbe" y="294.16"/>
      </g>
     </g>
    </g>
    <g id="xtick_22">
     <g id="line2d_27">
      <g>
       <use style="stroke:#000000;stroke-width:0.6;" x="385.002285" xlink:href="#mb4976f3cbe" y="294.16"/>
      </g>
     </g>
    </g>
    <g id="xtick_23">
     <g id="line2d_28">
      <g>
       <use style="stroke:#000000;stroke-width:0.6;" x="396.90282" xlink:href="#mb4976f3cbe" y="294.16"/>
      </g>
     </g>
    </g>
    <g id="text_6">
     <!-- log10(# f-evals / dimension) -->
     <defs>
      <path d="M 9.421875 75.984375 
L 18.40625 75.984375 
L 18.40625 0 
L 9.421875 0 
z
" id="DejaVuSans-6c"/>
      <path d="M 30.609375 48.390625 
Q 23.390625 48.390625 19.1875 42.75 
Q 14.984375 37.109375 14.984375 27.296875 
Q 14.984375 17.484375 19.15625 11.84375 
Q 23.34375 6.203125 30.609375 6.203125 
Q 37.796875 6.203125 41.984375 11.859375 
Q 46.1875 17.53125 46.1875 27.296875 
Q 46.1875 37.015625 41.984375 42.703125 
Q 37.796875 48.390625 30.609375 48.390625 
M 30.609375 56 
Q 42.328125 56 49.015625 48.375 
Q 55.71875 40.765625 55.71875 27.296875 
Q 55.71875 13.875 49.015625 6.21875 
Q 42.328125 -1.421875 30.609375 -1.421875 
Q 18.84375 -1.421875 12.171875 6.21875 
Q 5.515625 13.875 5.515625 27.296875 
Q 5.515625 40.765625 12.171875 48.375 
Q 18.84375 56 30.609375 56 
" id="DejaVuSans-6f"/>
      <path d="M 45.40625 27.984375 
Q 45.40625 37.75 41.375 43.109375 
Q 37.359375 48.484375 30.078125 48.484375 
Q 22.859375 48.484375 18.828125 43.109375 
Q 14.796875 37.75 14.796875 27.984375 
Q 14.796875 18.265625 18.828125 12.890625 
Q 22.859375 7.515625 30.078125 7.515625 
Q 37.359375 7.515625 41.375 12.890625 
Q 45.40625 18.265625 45.40625 27.984375 
M 54.390625 6.78125 
Q 54.390625 -7.171875 48.1875 -13.984375 
Q 42 -20.796875 29.203125 -20.796875 
Q 24.46875 -20.796875 20.265625 -20.09375 
Q 16.0625 -19.390625 12.109375 -17.921875 
L 12.109375 -9.1875 
Q 16.0625 -11.328125 19.921875 -12.34375 
Q 23.78125 -13.375 27.78125 -13.375 
Q 36.625 -13.375 41.015625 -8.765625 
Q 45.40625 -4.15625 45.40625 5.171875 
L 45.40625 9.625 
Q 42.625 4.78125 38.28125 2.390625 
Q 33.9375 0 27.875 0 
Q 17.828125 0 11.671875 7.65625 
Q 5.515625 15.328125 5.515625 27.984375 
Q 5.515625 40.671875 11.671875 48.328125 
Q 17.828125 56 27.875 56 
Q 33.9375 56 38.28125 53.609375 
Q 42.625 51.21875 45.40625 46.390625 
L 45.40625 54.6875 
L 54.390625 54.6875 
z
" id="DejaVuSans-67"/>
      <path d="M 12.40625 8.296875 
L 28.515625 8.296875 
L 28.515625 63.921875 
L 10.984375 60.40625 
L 10.984375 69.390625 
L 28.421875 72.90625 
L 38.28125 72.90625 
L 38.28125 8.296875 
L 54.390625 8.296875 
L 54.390625 0 
L 12.40625 0 
z
" id="DejaVuSans-31"/>
      <path d="M 31 75.875 
Q 24.46875 64.65625 21.28125 53.65625 
Q 18.109375 42.671875 18.109375 31.390625 
Q 18.109375 20.125 21.3125 9.0625 
Q 24.515625 -2 31 -13.1875 
L 23.1875 -13.1875 
Q 15.875 -1.703125 12.234375 9.375 
Q 8.59375 20.453125 8.59375 31.390625 
Q 8.59375 42.28125 12.203125 53.3125 
Q 15.828125 64.359375 23.1875 75.875 
z
" id="DejaVuSans-28"/>
      <path d="M 51.125 44 
L 36.921875 44 
L 32.8125 27.6875 
L 47.125 27.6875 
z
M 43.796875 71.78125 
L 38.71875 51.515625 
L 52.984375 51.515625 
L 58.109375 71.78125 
L 65.921875 71.78125 
L 60.890625 51.515625 
L 76.125 51.515625 
L 76.125 44 
L 58.984375 44 
L 54.984375 27.6875 
L 70.515625 27.6875 
L 70.515625 20.21875 
L 53.078125 20.21875 
L 48 0 
L 40.1875 0 
L 45.21875 20.21875 
L 30.90625 20.21875 
L 25.875 0 
L 18.015625 0 
L 23.09375 20.21875 
L 7.71875 20.21875 
L 7.71875 27.6875 
L 24.90625 27.6875 
L 29 44 
L 13.28125 44 
L 13.28125 51.515625 
L 30.90625 51.515625 
L 35.890625 71.78125 
z
" id="DejaVuSans-23"/>
      <path id="DejaVuSans-20"/>
      <path d="M 37.109375 75.984375 
L 37.109375 68.5 
L 28.515625 68.5 
Q 23.6875 68.5 21.796875 66.546875 
Q 19.921875 64.59375 19.921875 59.515625 
L 19.921875 54.6875 
L 34.71875 54.6875 
L 34.71875 47.703125 
L 19.921875 47.703125 
L 19.921875 0 
L 10.890625 0 
L 10.890625 47.703125 
L 2.296875 47.703125 
L 2.296875 54.6875 
L 10.890625 54.6875 
L 10.890625 58.5 
Q 10.890625 67.625 15.140625 71.796875 
Q 19.390625 75.984375 28.609375 75.984375 
z
" id="DejaVuSans-66"/>
      <path d="M 4.890625 31.390625 
L 31.203125 31.390625 
L 31.203125 23.390625 
L 4.890625 23.390625 
z
" id="DejaVuSans-2d"/>
      <path d="M 56.203125 29.59375 
L 56.203125 25.203125 
L 14.890625 25.203125 
Q 15.484375 15.921875 20.484375 11.0625 
Q 25.484375 6.203125 34.421875 6.203125 
Q 39.59375 6.203125 44.453125 7.46875 
Q 49.3125 8.734375 54.109375 11.28125 
L 54.109375 2.78125 
Q 49.265625 0.734375 44.1875 -0.34375 
Q 39.109375 -1.421875 33.890625 -1.421875 
Q 20.796875 -1.421875 13.15625 6.1875 
Q 5.515625 13.8125 5.515625 26.8125 
Q 5.515625 40.234375 12.765625 48.109375 
Q 20.015625 56 32.328125 56 
Q 43.359375 56 49.78125 48.890625 
Q 56.203125 41.796875 56.203125 29.59375 
M 47.21875 32.234375 
Q 47.125 39.59375 43.09375 43.984375 
Q 39.0625 48.390625 32.421875 48.390625 
Q 24.90625 48.390625 20.390625 44.140625 
Q 15.875 39.890625 15.1875 32.171875 
z
" id="DejaVuSans-65"/>
      <path d="M 2.984375 54.6875 
L 12.5 54.6875 
L 29.59375 8.796875 
L 46.6875 54.6875 
L 56.203125 54.6875 
L 35.6875 0 
L 23.484375 0 
z
" id="DejaVuSans-76"/>
      <path d="M 34.28125 27.484375 
Q 23.390625 27.484375 19.1875 25 
Q 14.984375 22.515625 14.984375 16.5 
Q 14.984375 11.71875 18.140625 8.90625 
Q 21.296875 6.109375 26.703125 6.109375 
Q 34.1875 6.109375 38.703125 11.40625 
Q 43.21875 16.703125 43.21875 25.484375 
L 43.21875 27.484375 
z
M 52.203125 31.203125 
L 52.203125 0 
L 43.21875 0 
L 43.21875 8.296875 
Q 40.140625 3.328125 35.546875 0.953125 
Q 30.953125 -1.421875 24.3125 -1.421875 
Q 15.921875 -1.421875 10.953125 3.296875 
Q 6 8.015625 6 15.921875 
Q 6 25.140625 12.171875 29.828125 
Q 18.359375 34.515625 30.609375 34.515625 
L 43.21875 34.515625 
L 43.21875 35.40625 
Q 43.21875 41.609375 39.140625 45 
Q 35.0625 48.390625 27.6875 48.390625 
Q 23 48.390625 18.546875 47.265625 
Q 14.109375 46.140625 10.015625 43.890625 
L 10.015625 52.203125 
Q 14.9375 54.109375 19.578125 55.046875 
Q 24.21875 56 28.609375 56 
Q 40.484375 56 46.34375 49.84375 
Q 52.203125 43.703125 52.203125 31.203125 
" id="DejaVuSans-61"/>
      <path d="M 44.28125 53.078125 
L 44.28125 44.578125 
Q 40.484375 46.53125 36.375 47.5 
Q 32.28125 48.484375 27.875 48.484375 
Q 21.1875 48.484375 17.84375 46.4375 
Q 14.5 44.390625 14.5 40.28125 
Q 14.5 37.15625 16.890625 35.375 
Q 19.28125 33.59375 26.515625 31.984375 
L 29.59375 31.296875 
Q 39.15625 29.25 43.1875 25.515625 
Q 47.21875 21.78125 47.21875 15.09375 
Q 47.21875 7.46875 41.1875 3.015625 
Q 35.15625 -1.421875 24.609375 -1.421875 
Q 20.21875 -1.421875 15.453125 -0.5625 
Q 10.6875 0.296875 5.421875 2 
L 5.421875 11.28125 
Q 10.40625 8.6875 15.234375 7.390625 
Q 20.0625 6.109375 24.8125 6.109375 
Q 31.15625 6.109375 34.5625 8.28125 
Q 37.984375 10.453125 37.984375 14.40625 
Q 37.984375 18.0625 35.515625 20.015625 
Q 33.0625 21.96875 24.703125 23.78125 
L 21.578125 24.515625 
Q 13.234375 26.265625 9.515625 29.90625 
Q 5.8125 33.546875 5.8125 39.890625 
Q 5.8125 47.609375 11.28125 51.796875 
Q 16.75 56 26.8125 56 
Q 31.78125 56 36.171875 55.265625 
Q 40.578125 54.546875 44.28125 53.078125 
" id="DejaVuSans-73"/>
      <path d="M 25.390625 72.90625 
L 33.6875 72.90625 
L 8.296875 -9.28125 
L 0 -9.28125 
z
" id="DejaVuSans-2f"/>
      <path d="M 45.40625 46.390625 
L 45.40625 75.984375 
L 54.390625 75.984375 
L 54.390625 0 
L 45.40625 0 
L 45.40625 8.203125 
Q 42.578125 3.328125 38.25 0.953125 
Q 33.9375 -1.421875 27.875 -1.421875 
Q 17.96875 -1.421875 11.734375 6.484375 
Q 5.515625 14.40625 5.515625 27.296875 
Q 5.515625 40.1875 11.734375 48.09375 
Q 17.96875 56 27.875 56 
Q 33.9375 56 38.25 53.625 
Q 42.578125 51.265625 45.40625 46.390625 
M 14.796875 27.296875 
Q 14.796875 17.390625 18.875 11.75 
Q 22.953125 6.109375 30.078125 6.109375 
Q 37.203125 6.109375 41.296875 11.75 
Q 45.40625 17.390625 45.40625 27.296875 
Q 45.40625 37.203125 41.296875 42.84375 
Q 37.203125 48.484375 30.078125 48.484375 
Q 22.953125 48.484375 18.875 42.84375 
Q 14.796875 37.203125 14.796875 27.296875 
" id="DejaVuSans-64"/>
      <path d="M 9.421875 54.6875 
L 18.40625 54.6875 
L 18.40625 0 
L 9.421875 0 
z
M 9.421875 75.984375 
L 18.40625 75.984375 
L 18.40625 64.59375 
L 9.421875 64.59375 
z
" id="DejaVuSans-69"/>
      <path d="M 52 44.1875 
Q 55.375 50.25 60.0625 53.125 
Q 64.75 56 71.09375 56 
Q 79.640625 56 84.28125 50.015625 
Q 88.921875 44.046875 88.921875 33.015625 
L 88.921875 0 
L 79.890625 0 
L 79.890625 32.71875 
Q 79.890625 40.578125 77.09375 44.375 
Q 74.3125 48.1875 68.609375 48.1875 
Q 61.625 48.1875 57.5625 43.546875 
Q 53.515625 38.921875 53.515625 30.90625 
L 53.515625 0 
L 44.484375 0 
L 44.484375 32.71875 
Q 44.484375 40.625 41.703125 44.40625 
Q 38.921875 48.1875 33.109375 48.1875 
Q 26.21875 48.1875 22.15625 43.53125 
Q 18.109375 38.875 18.109375 30.90625 
L 18.109375 0 
L 9.078125 0 
L 9.078125 54.6875 
L 18.109375 54.6875 
L 18.109375 46.1875 
Q 21.1875 51.21875 25.484375 53.609375 
Q 29.78125 56 35.6875 56 
Q 41.65625 56 45.828125 52.96875 
Q 50 49.953125 52 44.1875 
" id="DejaVuSans-6d"/>
      <path d="M 54.890625 33.015625 
L 54.890625 0 
L 45.90625 0 
L 45.90625 32.71875 
Q 45.90625 40.484375 42.875 44.328125 
Q 39.84375 48.1875 33.796875 48.1875 
Q 26.515625 48.1875 22.3125 43.546875 
Q 18.109375 38.921875 18.109375 30.90625 
L 18.109375 0 
L 9.078125 0 
L 9.078125 54.6875 
L 18.109375 54.6875 
L 18.109375 46.1875 
Q 21.34375 51.125 25.703125 53.5625 
Q 30.078125 56 35.796875 56 
Q 45.21875 56 50.046875 50.171875 
Q 54.890625 44.34375 54.890625 33.015625 
" id="DejaVuSans-6e"/>
      <path d="M 8.015625 75.875 
L 15.828125 75.875 
Q 23.140625 64.359375 26.78125 53.3125 
Q 30.421875 42.28125 30.421875 31.390625 
Q 30.421875 20.453125 26.78125 9.375 
Q 23.140625 -1.703125 15.828125 -13.1875 
L 8.015625 -13.1875 
Q 14.5 -2 17.703125 9.0625 
Q 20.90625 20.125 20.90625 31.390625 
Q 20.90625 42.671875 17.703125 53.65625 
Q 14.5 64.65625 8.015625 75.875 
" id="DejaVuSans-29"/>
     </defs>
     <g transform="translate(107.571219 337.433594)scale(0.17 -0.17)">
      <use xlink:href="#DejaVuSans-6c"/>
      <use x="27.783203" xlink:href="#DejaVuSans-6f"/>
      <use x="88.964844" xlink:href="#DejaVuSans-67"/>
      <use x="152.441406" xlink:href="#DejaVuSans-31"/>
      <use x="216.064453" xlink:href="#DejaVuSans-30"/>
      <use x="279.6875" xlink:href="#DejaVuSans-28"/>
      <use x="318.701172" xlink:href="#DejaVuSans-23"/>
      <use x="402.490234" xlink:href="#DejaVuSans-20"/>
      <use x="434.277344" xlink:href="#DejaVuSans-66"/>
      <use x="469.404297" xlink:href="#DejaVuSans-2d"/>
      <use x="505.488281" xlink:href="#DejaVuSans-65"/>
      <use x="567.011719" xlink:href="#DejaVuSans-76"/>
      <use x="626.191406" xlink:href="#DejaVuSans-61"/>
      <use x="687.470703" xlink:href="#DejaVuSans-6c"/>
      <use x="715.253906" xlink:href="#DejaVuSans-73"/>
      <use x="767.353516" xlink:href="#DejaVuSans-20"/>
      <use x="799.140625" xlink:href="#DejaVuSans-2f"/>
      <use x="832.832031" xlink:href="#DejaVuSans-20"/>
      <use x="864.619141" xlink:href="#DejaVuSans-64"/>
      <use x="928.095703" xlink:href="#DejaVuSans-69"/>
      <use x="955.878906" xlink:href="#DejaVuSans-6d"/>
      <use x="1053.291016" xlink:href="#DejaVuSans-65"/>
      <use x="1114.814453" xlink:href="#DejaVuSans-6e"/>
      <use x="1178.193359" xlink:href="#DejaVuSans-73"/>
      <use x="1230.292969" xlink:href="#DejaVuSans-69"/>
      <use x="1258.076172" xlink:href="#DejaVuSans-6f"/>
      <use x="1319.257812" xlink:href="#DejaVuSans-6e"/>
      <use x="1382.636719" xlink:href="#DejaVuSans-29"/>
     </g>
    </g>
   </g>
   <g id="matplotlib.axis_2">
    <g id="ytick_1">
     <g id="line2d_29">
      <path clip-path="url(#pf73fd83b46)" d="M 56.84 294.16 
L 399.984 294.16 
" style="fill:none;stroke:#b0b0b0;stroke-linecap:square;stroke-width:0.8;"/>
     </g>
     <g id="line2d_30">
      <defs>
       <path d="M 0 0 
L -3.5 0 
" id="m61aa7d757e" style="stroke:#000000;stroke-width:0.8;"/>
      </defs>
      <g>
       <use style="stroke:#000000;stroke-width:0.8;" x="56.84" xlink:href="#m61aa7d757e" y="294.16"/>
      </g>
     </g>
     <g id="text_7">
      <!-- 0.0 -->
      <defs>
       <path d="M 10.6875 12.40625 
L 21 12.40625 
L 21 0 
L 10.6875 0 
z
" id="DejaVuSans-2e"/>
      </defs>
      <g transform="translate(24.395 300.23875)scale(0.16 -0.16)">
       <use xlink:href="#DejaVuSans-30"/>
       <use x="63.623047" xlink:href="#DejaVuSans-2e"/>
       <use x="95.410156" xlink:href="#DejaVuSans-30"/>
      </g>
     </g>
    </g>
    <g id="ytick_2">
     <g id="line2d_31">
      <path clip-path="url(#pf73fd83b46)" d="M 56.84 237.123411 
L 399.984 237.123411 
" style="fill:none;stroke:#b0b0b0;stroke-linecap:square;stroke-width:0.8;"/>
     </g>
     <g id="line2d_32">
      <g>
       <use style="stroke:#000000;stroke-width:0.8;" x="56.84" xlink:href="#m61aa7d757e" y="237.123411"/>
      </g>
     </g>
     <g id="text_8">
      <!-- 0.2 -->
      <g transform="translate(24.395 243.202161)scale(0.16 -0.16)">
       <use xlink:href="#DejaVuSans-30"/>
       <use x="63.623047" xlink:href="#DejaVuSans-2e"/>
       <use x="95.410156" xlink:href="#DejaVuSans-32"/>
      </g>
     </g>
    </g>
    <g id="ytick_3">
     <g id="line2d_33">
      <path clip-path="url(#pf73fd83b46)" d="M 56.84 180.086823 
L 399.984 180.086823 
" style="fill:none;stroke:#b0b0b0;stroke-linecap:square;stroke-width:0.8;"/>
     </g>
     <g id="line2d_34">
      <g>
       <use style="stroke:#000000;stroke-width:0.8;" x="56.84" xlink:href="#m61aa7d757e" y="180.086823"/>
      </g>
     </g>
     <g id="text_9">
      <!-- 0.4 -->
      <g transform="translate(24.395 186.165573)scale(0.16 -0.16)">
       <use xlink:href="#DejaVuSans-30"/>
       <use x="63.623047" xlink:href="#DejaVuSans-2e"/>
       <use x="95.410156" xlink:href="#DejaVuSans-34"/>
      </g>
     </g>
    </g>
    <g id="ytick_4">
     <g id="line2d_35">
      <path clip-path="url(#pf73fd83b46)" d="M 56.84 123.050234 
L 399.984 123.050234 
" style="fill:none;stroke:#b0b0b0;stroke-linecap:square;stroke-width:0.8;"/>
     </g>
     <g id="line2d_36">
      <g>
       <use style="stroke:#000000;stroke-width:0.8;" x="56.84" xlink:href="#m61aa7d757e" y="123.050234"/>
      </g>
     </g>
     <g id="text_10">
      <!-- 0.6 -->
      <g transform="translate(24.395 129.128984)scale(0.16 -0.16)">
       <use xlink:href="#DejaVuSans-30"/>
       <use x="63.623047" xlink:href="#DejaVuSans-2e"/>
       <use x="95.410156" xlink:href="#DejaVuSans-36"/>
      </g>
     </g>
    </g>
    <g id="ytick_5">
     <g id="line2d_37">
      <path clip-path="url(#pf73fd83b46)" d="M 56.84 66.013646 
L 399.984 66.013646 
" style="fill:none;stroke:#b0b0b0;stroke-linecap:square;stroke-width:0.8;"/>
     </g>
     <g id="line2d_38">
      <g>
       <use style="stroke:#000000;stroke-width:0.8;" x="56.84" xlink:href="#m61aa7d757e" y="66.013646"/>
      </g>
     </g>
     <g id="text_11">
      <!-- 0.8 -->
      <g transform="translate(24.395 72.092396)scale(0.16 -0.16)">
       <use xlink:href="#DejaVuSans-30"/>
       <use x="63.623047" xlink:href="#DejaVuSans-2e"/>
       <use x="95.410156" xlink:href="#DejaVuSans-38"/>
      </g>
     </g>
    </g>
    <g id="ytick_6">
     <g id="line2d_39">
      <path clip-path="url(#pf73fd83b46)" d="M 56.84 8.977057 
L 399.984 8.977057 
" style="fill:none;stroke:#b0b0b0;stroke-linecap:square;stroke-width:0.8;"/>
     </g>
     <g id="line2d_40">
      <g>
       <use style="stroke:#000000;stroke-width:0.8;" x="56.84" xlink:href="#m61aa7d757e" y="8.977057"/>
      </g>
     </g>
     <g id="text_12">
      <!-- 1.0 -->
      <g transform="translate(24.395 15.055807)scale(0.16 -0.16)">
       <use xlink:href="#DejaVuSans-31"/>
       <use x="63.623047" xlink:href="#DejaVuSans-2e"/>
       <use x="95.410156" xlink:href="#DejaVuSans-30"/>
      </g>
     </g>
    </g>
    <g id="text_13">
     <!-- Fraction of function,target pairs -->
     <defs>
      <path d="M 9.8125 72.90625 
L 51.703125 72.90625 
L 51.703125 64.59375 
L 19.671875 64.59375 
L 19.671875 43.109375 
L 48.578125 43.109375 
L 48.578125 34.8125 
L 19.671875 34.8125 
L 19.671875 0 
L 9.8125 0 
z
" id="DejaVuSans-46"/>
      <path d="M 41.109375 46.296875 
Q 39.59375 47.171875 37.8125 47.578125 
Q 36.03125 48 33.890625 48 
Q 26.265625 48 22.1875 43.046875 
Q 18.109375 38.09375 18.109375 28.8125 
L 18.109375 0 
L 9.078125 0 
L 9.078125 54.6875 
L 18.109375 54.6875 
L 18.109375 46.1875 
Q 20.953125 51.171875 25.484375 53.578125 
Q 30.03125 56 36.53125 56 
Q 37.453125 56 38.578125 55.875 
Q 39.703125 55.765625 41.0625 55.515625 
z
" id="DejaVuSans-72"/>
      <path d="M 48.78125 52.59375 
L 48.78125 44.1875 
Q 44.96875 46.296875 41.140625 47.34375 
Q 37.3125 48.390625 33.40625 48.390625 
Q 24.65625 48.390625 19.8125 42.84375 
Q 14.984375 37.3125 14.984375 27.296875 
Q 14.984375 17.28125 19.8125 11.734375 
Q 24.65625 6.203125 33.40625 6.203125 
Q 37.3125 6.203125 41.140625 7.25 
Q 44.96875 8.296875 48.78125 10.40625 
L 48.78125 2.09375 
Q 45.015625 0.34375 40.984375 -0.53125 
Q 36.96875 -1.421875 32.421875 -1.421875 
Q 20.0625 -1.421875 12.78125 6.34375 
Q 5.515625 14.109375 5.515625 27.296875 
Q 5.515625 40.671875 12.859375 48.328125 
Q 20.21875 56 33.015625 56 
Q 37.15625 56 41.109375 55.140625 
Q 45.0625 54.296875 48.78125 52.59375 
" id="DejaVuSans-63"/>
      <path d="M 18.3125 70.21875 
L 18.3125 54.6875 
L 36.8125 54.6875 
L 36.8125 47.703125 
L 18.3125 47.703125 
L 18.3125 18.015625 
Q 18.3125 11.328125 20.140625 9.421875 
Q 21.96875 7.515625 27.59375 7.515625 
L 36.8125 7.515625 
L 36.8125 0 
L 27.59375 0 
Q 17.1875 0 13.234375 3.875 
Q 9.28125 7.765625 9.28125 18.015625 
L 9.28125 47.703125 
L 2.6875 47.703125 
L 2.6875 54.6875 
L 9.28125 54.6875 
L 9.28125 70.21875 
z
" id="DejaVuSans-74"/>
      <path d="M 8.5 21.578125 
L 8.5 54.6875 
L 17.484375 54.6875 
L 17.484375 21.921875 
Q 17.484375 14.15625 20.5 10.265625 
Q 23.53125 6.390625 29.59375 6.390625 
Q 36.859375 6.390625 41.078125 11.03125 
Q 45.3125 15.671875 45.3125 23.6875 
L 45.3125 54.6875 
L 54.296875 54.6875 
L 54.296875 0 
L 45.3125 0 
L 45.3125 8.40625 
Q 42.046875 3.421875 37.71875 1 
Q 33.40625 -1.421875 27.6875 -1.421875 
Q 18.265625 -1.421875 13.375 4.4375 
Q 8.5 10.296875 8.5 21.578125 
M 31.109375 56 
z
" id="DejaVuSans-75"/>
      <path d="M 11.71875 12.40625 
L 22.015625 12.40625 
L 22.015625 4 
L 14.015625 -11.625 
L 7.71875 -11.625 
L 11.71875 4 
z
" id="DejaVuSans-2c"/>
      <path d="M 18.109375 8.203125 
L 18.109375 -20.796875 
L 9.078125 -20.796875 
L 9.078125 54.6875 
L 18.109375 54.6875 
L 18.109375 46.390625 
Q 20.953125 51.265625 25.265625 53.625 
Q 29.59375 56 35.59375 56 
Q 45.5625 56 51.78125 48.09375 
Q 58.015625 40.1875 58.015625 27.296875 
Q 58.015625 14.40625 51.78125 6.484375 
Q 45.5625 -1.421875 35.59375 -1.421875 
Q 29.59375 -1.421875 25.265625 0.953125 
Q 20.953125 3.328125 18.109375 8.203125 
M 48.6875 27.296875 
Q 48.6875 37.203125 44.609375 42.84375 
Q 40.53125 48.484375 33.40625 48.484375 
Q 26.265625 48.484375 22.1875 42.84375 
Q 18.109375 37.203125 18.109375 27.296875 
Q 18.109375 17.390625 22.1875 11.75 
Q 26.265625 6.109375 33.40625 6.109375 
Q 40.53125 6.109375 44.609375 11.75 
Q 48.6875 17.390625 48.6875 27.296875 
" id="DejaVuSans-70"/>
     </defs>
     <g transform="translate(16.859531 285.281989)rotate(-90)scale(0.17 -0.17)">
      <use xlink:href="#DejaVuSans-46"/>
      <use x="57.410156" xlink:href="#DejaVuSans-72"/>
      <use x="98.523438" xlink:href="#DejaVuSans-61"/>
      <use x="159.802734" xlink:href="#DejaVuSans-63"/>
      <use x="214.783203" xlink:href="#DejaVuSans-74"/>
      <use x="253.992188" xlink:href="#DejaVuSans-69"/>
      <use x="281.775391" xlink:href="#DejaVuSans-6f"/>
      <use x="342.957031" xlink:href="#DejaVuSans-6e"/>
      <use x="406.335938" xlink:href="#DejaVuSans-20"/>
      <use x="438.123047" xlink:href="#DejaVuSans-6f"/>
      <use x="499.304688" xlink:href="#DejaVuSans-66"/>
      <use x="534.509766" xlink:href="#DejaVuSans-20"/>
      <use x="566.296875" xlink:href="#DejaVuSans-66"/>
      <use x="601.501953" xlink:href="#DejaVuSans-75"/>
      <use x="664.880859" xlink:href="#DejaVuSans-6e"/>
      <use x="728.259766" xlink:href="#DejaVuSans-63"/>
      <use x="783.240234" xlink:href="#DejaVuSans-74"/>
      <use x="822.449219" xlink:href="#DejaVuSans-69"/>
      <use x="850.232422" xlink:href="#DejaVuSans-6f"/>
      <use x="911.414062" xlink:href="#DejaVuSans-6e"/>
      <use x="974.792969" xlink:href="#DejaVuSans-2c"/>
      <use x="1006.580078" xlink:href="#DejaVuSans-74"/>
      <use x="1045.789062" xlink:href="#DejaVuSans-61"/>
      <use x="1107.068359" xlink:href="#DejaVuSans-72"/>
      <use x="1148.166016" xlink:href="#DejaVuSans-67"/>
      <use x="1211.642578" xlink:href="#DejaVuSans-65"/>
      <use x="1273.166016" xlink:href="#DejaVuSans-74"/>
      <use x="1312.375" xlink:href="#DejaVuSans-20"/>
      <use x="1344.162109" xlink:href="#DejaVuSans-70"/>
      <use x="1407.638672" xlink:href="#DejaVuSans-61"/>
      <use x="1468.917969" xlink:href="#DejaVuSans-69"/>
      <use x="1496.701172" xlink:href="#DejaVuSans-72"/>
      <use x="1537.814453" xlink:href="#DejaVuSans-73"/>
     </g>
    </g>
   </g>
   <g id="line2d_41">
    <defs>
     <path d="M 0 1.5 
C 0.397805 1.5 0.77937 1.341951 1.06066 1.06066 
C 1.341951 0.77937 1.5 0.397805 1.5 0 
C 1.5 -0.397805 1.341951 -0.77937 1.06066 -1.06066 
C 0.77937 -1.341951 0.397805 -1.5 0 -1.5 
C -0.397805 -1.5 -0.77937 -1.341951 -1.06066 -1.06066 
C -1.341951 -0.77937 -1.5 -0.397805 -1.5 0 
C -1.5 0.397805 -1.341951 0.77937 -1.06066 1.06066 
C -0.77937 1.341951 -0.397805 1.5 0 1.5 
z
" id="m7ede566d5a" style="stroke:#00bfbf;"/>
    </defs>
    <g>
     <use style="fill:#00bfbf;stroke:#00bfbf;" x="253.175383" xlink:href="#m7ede566d5a" y="204.425712"/>
     <use style="fill:#00bfbf;stroke:#00bfbf;" x="253.175383" xlink:href="#m7ede566d5a" y="204.425712"/>
    </g>
   </g>
   <g id="line2d_42">
    <path d="M 44.939466 294.16 
L 44.939466 289.611824 
L 102.752035 289.611824 
L 102.752035 289.120129 
L 109.514915 289.120129 
L 109.514915 288.997205 
L 112.444358 288.997205 
L 112.444358 288.874282 
L 117.881208 288.874282 
L 117.881208 288.13674 
L 118.835278 288.13674 
L 118.835278 288.013816 
L 119.957824 288.013816 
L 119.957824 287.645045 
L 121.415449 287.645045 
L 121.415449 286.538732 
L 123.124257 286.538732 
L 123.124257 286.415808 
L 123.658047 286.415808 
L 123.658047 286.047037 
L 125.796644 286.047037 
L 125.796644 283.46564 
L 126.846595 283.46564 
L 126.846595 283.219792 
L 127.972824 283.219792 
L 127.972824 283.096869 
L 129.029702 283.096869 
L 129.029702 282.48225 
L 129.658667 282.48225 
L 129.658667 282.236403 
L 130.96627 282.236403 
L 130.96627 281.498861 
L 132.287602 281.498861 
L 132.287602 281.13009 
L 132.706375 281.13009 
L 132.706375 280.638395 
L 133.115176 280.638395 
L 133.115176 280.269624 
L 134.286233 280.269624 
L 134.286233 280.023777 
L 134.751541 280.023777 
L 134.751541 279.900853 
L 135.114917 279.900853 
L 135.114917 279.163311 
L 135.382488 279.163311 
L 135.382488 278.671616 
L 135.819378 278.671616 
L 135.819378 278.548692 
L 136.49607 278.548692 
L 136.49607 278.302845 
L 136.824671 278.302845 
L 136.824671 278.179921 
L 138.379474 278.179921 
L 138.379474 277.565303 
L 138.60101 277.565303 
L 138.60101 277.319456 
L 138.892015 277.319456 
L 138.964001 276.950684 
L 139.736554 276.950684 
L 139.805092 276.581913 
L 140.541491 276.581913 
L 140.541491 276.45899 
L 141.310374 276.45899 
L 141.372919 275.967295 
L 141.86525 275.967295 
L 141.86525 275.844371 
L 142.519947 275.844371 
L 142.578245 275.352677 
L 142.980883 275.352677 
L 142.980883 275.106829 
L 143.429767 275.106829 
L 143.429767 274.860982 
L 144.503169 274.860982 
L 144.503169 274.738058 
L 144.914419 274.738058 
L 144.914419 274.492211 
L 145.166536 274.492211 
L 145.166536 274.369287 
L 145.562377 274.369287 
L 145.562377 274.246363 
L 145.756926 274.246363 
L 145.756926 274.000516 
L 145.901406 274.000516 
L 145.901406 273.877592 
L 146.233869 273.877592 
L 146.327688 272.648356 
L 146.467463 272.648356 
L 146.467463 272.525432 
L 146.652076 272.525432 
L 146.652076 272.033737 
L 147.194295 272.033737 
L 147.194295 271.173271 
L 147.546488 271.173271 
L 147.590009 270.558653 
L 148.061592 270.558653 
L 148.061592 269.944035 
L 149.206606 269.944035 
L 149.206606 269.45234 
L 149.364119 269.45234 
L 149.364119 268.960645 
L 149.559 268.960645 
L 149.559 268.714798 
L 149.980108 268.714798 
L 149.980108 268.591874 
L 150.31713 268.591874 
L 150.428016 268.223103 
L 150.574759 268.223103 
L 150.574759 267.977256 
L 150.864536 267.977256 
L 150.864536 267.854332 
L 151.00761 267.854332 
L 151.00761 267.731408 
L 151.149502 267.731408 
L 151.149502 267.608485 
L 151.325234 267.608485 
L 151.325234 267.239714 
L 152.244301 267.239714 
L 152.244301 266.870943 
L 152.669861 266.870943 
L 152.669861 266.625095 
L 153.886692 266.625095 
L 153.886692 266.010477 
L 154.244389 266.010477 
L 154.244389 265.764629 
L 155.632239 265.764629 
L 155.632239 265.395858 
L 155.955681 265.395858 
L 155.955681 265.150011 
L 156.351598 265.150011 
L 156.455652 264.289545 
L 157.092079 264.289545 
L 157.166889 263.920774 
L 157.462911 263.920774 
L 157.462911 263.79785 
L 157.657461 263.79785 
L 157.657461 263.552003 
L 159.425221 263.552003 
L 159.512262 263.183232 
L 160.848058 263.183232 
L 160.848058 263.060308 
L 161.401302 263.060308 
L 161.401302 262.814461 
L 162.365354 262.814461 
L 162.365354 262.691537 
L 162.511784 262.691537 
L 162.511784 262.568614 
L 163.102945 262.568614 
L 163.102945 262.199843 
L 164.045113 262.199843 
L 164.045113 261.831072 
L 165.205176 261.831072 
L 165.205176 261.462301 
L 167.203122 261.462301 
L 167.203122 260.724758 
L 168.081688 260.724758 
L 168.081688 260.601835 
L 168.446719 260.601835 
L 168.446719 260.478911 
L 169.07986 260.478911 
L 169.07986 260.233064 
L 169.191386 260.233064 
L 169.191386 259.126751 
L 170.163807 259.126751 
L 170.163807 258.75798 
L 170.303297 258.75798 
L 170.303297 258.512132 
L 171.639202 258.512132 
L 171.714012 258.020437 
L 172.010034 258.020437 
L 172.010034 257.528743 
L 172.228748 257.528743 
L 172.228748 257.159972 
L 173.076764 257.159972 
L 173.145577 256.791201 
L 173.194561 256.791201 
L 173.233648 256.42243 
L 174.539428 256.42243 
L 174.539428 256.299506 
L 175.10881 256.299506 
L 175.10881 255.930735 
L 175.727574 255.930735 
L 175.727574 255.684887 
L 176.226703 255.684887 
L 176.332962 255.316116 
L 176.743584 255.316116 
L 176.743584 254.947345 
L 176.996304 254.947345 
L 176.996304 253.841032 
L 177.191185 253.841032 
L 177.191185 253.718109 
L 178.725071 253.718109 
L 178.725071 253.349337 
L 178.873292 253.349337 
L 178.978386 252.734719 
L 179.283003 252.734719 
L 179.283003 251.997177 
L 179.50797 251.997177 
L 179.50797 251.505482 
L 179.889739 251.505482 
L 179.889739 251.136711 
L 180.19176 251.136711 
L 180.19176 250.890864 
L 180.50774 250.890864 
L 180.603318 250.276245 
L 180.761441 250.276245 
L 180.761441 249.784551 
L 181.404034 249.784551 
L 181.404034 249.41578 
L 181.740336 249.41578 
L 181.740336 249.169932 
L 181.900157 249.169932 
L 181.929591 248.801161 
L 182.365151 248.801161 
L 182.388073 248.063619 
L 182.479458 248.063619 
L 182.479458 247.326077 
L 183.432296 247.326077 
L 183.512939 247.08023 
L 183.555794 247.08023 
L 183.582524 246.465611 
L 183.683722 246.465611 
L 183.76848 245.850993 
L 183.999431 245.850993 
L 184.061882 245.482222 
L 184.350354 245.482222 
L 184.452217 244.990527 
L 184.754227 244.990527 
L 184.813997 244.74468 
L 184.893367 244.74468 
L 184.972373 244.252985 
L 185.070621 244.252985 
L 185.129301 244.007138 
L 185.207231 244.007138 
L 185.246063 243.76129 
L 185.482015 243.76129 
L 185.553602 243.515443 
L 185.596411 243.515443 
L 185.596411 243.392519 
L 185.91179 243.392519 
L 186.004821 243.146672 
L 186.230639 243.146672 
L 186.230639 243.023748 
L 186.408273 243.023748 
L 186.408273 242.900824 
L 186.593056 242.900824 
L 186.610977 242.654977 
L 187.261257 242.654977 
L 187.360139 242.163282 
L 187.449927 242.163282 
L 187.449927 242.040359 
L 187.636547 242.040359 
L 187.636547 241.917435 
L 187.883645 241.917435 
L 187.883645 241.794511 
L 188.196788 241.794511 
L 188.196788 241.671588 
L 189.211444 241.671588 
L 189.31887 241.42574 
L 189.360889 241.42574 
L 189.456008 241.056969 
L 189.486335 241.056969 
L 189.486335 240.934046 
L 189.625904 240.934046 
L 189.730775 240.565275 
L 190.114783 240.565275 
L 190.216718 239.827732 
L 190.37569 239.827732 
L 190.418792 239.581885 
L 190.773826 239.581885 
L 190.773826 239.458961 
L 191.255437 239.458961 
L 191.255437 239.336038 
L 191.499693 239.336038 
L 191.499693 239.213114 
L 191.71393 239.213114 
L 191.71393 239.09019 
L 191.872871 239.09019 
L 191.941948 238.721419 
L 192.134546 238.721419 
L 192.186406 238.106801 
L 192.276786 238.106801 
L 192.331428 237.860954 
L 192.395491 237.860954 
L 192.395491 237.73803 
L 192.611534 237.73803 
L 192.621003 237.492182 
L 192.949169 237.492182 
L 193.032551 236.877564 
L 193.219454 236.877564 
L 193.32881 236.385869 
L 193.452512 236.385869 
L 193.542464 236.140022 
L 193.590246 236.140022 
L 193.590246 236.017098 
L 193.806582 236.017098 
L 193.806582 235.894175 
L 194.110153 235.894175 
L 194.121723 235.648327 
L 194.385687 235.648327 
L 194.496372 235.156633 
L 194.541576 235.156633 
L 194.541576 235.033709 
L 194.654066 235.033709 
L 194.701653 234.787861 
L 194.779744 234.787861 
L 194.779744 234.664938 
L 194.99268 234.664938 
L 194.99268 234.542014 
L 195.107724 234.542014 
L 195.151348 234.173243 
L 195.224714 234.173243 
L 195.249099 233.558625 
L 195.354372 233.558625 
L 195.461678 233.312777 
L 195.578944 233.312777 
L 195.676939 233.06693 
L 195.988371 233.06693 
L 196.071162 232.575235 
L 196.207413 232.575235 
L 196.225328 232.329388 
L 196.592279 232.329388 
L 196.652266 231.960617 
L 196.791427 231.960617 
L 196.791427 231.837693 
L 197.144173 231.837693 
L 197.209514 231.468922 
L 197.286634 231.468922 
L 197.346644 231.223075 
L 197.496945 231.223075 
L 197.496945 230.977227 
L 197.69767 230.977227 
L 197.714096 230.73138 
L 197.819319 230.73138 
L 197.819319 230.608456 
L 198.459936 230.608456 
L 198.522703 230.239685 
L 198.576321 230.239685 
L 198.576321 230.116762 
L 198.990632 230.116762 
L 199.014567 229.870914 
L 199.854722 229.870914 
L 199.854722 229.74799 
L 200.209238 229.74799 
L 200.209238 229.625067 
L 200.610164 229.625067 
L 200.610164 229.502143 
L 200.906778 229.502143 
L 200.906778 229.379219 
L 201.161938 229.379219 
L 201.161938 229.256296 
L 201.413361 229.256296 
L 201.473762 229.010448 
L 201.571462 229.010448 
L 201.571462 228.887525 
L 201.69839 228.887525 
L 201.780023 228.39583 
L 201.927459 228.39583 
L 201.927459 228.272906 
L 202.057256 228.272906 
L 202.144454 227.781212 
L 202.187888 227.781212 
L 202.187888 227.535364 
L 202.495986 227.535364 
L 202.495986 227.412441 
L 202.700694 227.412441 
L 202.763731 227.166593 
L 202.826538 227.166593 
L 202.826538 227.043669 
L 203.368197 227.043669 
L 203.428835 226.797822 
L 204.219121 226.797822 
L 204.219121 226.674898 
L 204.372586 226.674898 
L 204.472558 226.429051 
L 204.750354 226.429051 
L 204.750354 226.306127 
L 205.312413 226.306127 
L 205.420554 225.937356 
L 205.958529 225.937356 
L 206.0049 225.568585 
L 206.15905 225.568585 
L 206.15905 225.445662 
L 206.360091 225.445662 
L 206.360091 225.322738 
L 206.550395 225.322738 
L 206.550395 225.199814 
L 206.701135 225.199814 
L 206.789842 224.831043 
L 206.91656 224.831043 
L 206.933019 224.585196 
L 207.036899 224.585196 
L 207.144218 224.339348 
L 207.386264 224.339348 
L 207.402279 224.093501 
L 207.509996 224.093501 
L 207.519274 223.847654 
L 207.710326 223.847654 
L 207.710326 223.72473 
L 207.932937 223.72473 
L 208.025812 223.233035 
L 208.046383 223.233035 
L 208.046383 223.110112 
L 208.165465 223.110112 
L 208.165465 222.987188 
L 208.28626 222.987188 
L 208.28626 222.864264 
L 208.608849 222.864264 
L 208.608849 222.741341 
L 208.747557 222.741341 
L 208.747557 222.618417 
L 208.888825 222.618417 
L 208.888825 222.495493 
L 209.333226 222.495493 
L 209.361813 222.249646 
L 209.485142 222.249646 
L 209.537055 222.003799 
L 210.409806 222.003799 
L 210.409806 221.880875 
L 210.592455 221.880875 
L 210.677546 221.635027 
L 210.729277 221.635027 
L 210.733673 221.38918 
L 211.196537 221.38918 
L 211.252062 221.020409 
L 211.568936 221.020409 
L 211.568936 220.897485 
L 212.419311 220.897485 
L 212.486905 220.651638 
L 212.624252 220.651638 
L 212.667501 220.405791 
L 212.823858 220.405791 
L 212.823858 220.282867 
L 213.21719 220.282867 
L 213.274142 220.03702 
L 213.681482 220.03702 
L 213.681482 219.914096 
L 213.817897 219.914096 
L 213.890272 219.05363 
L 213.970535 219.05363 
L 214.000537 218.807783 
L 214.165966 218.807783 
L 214.191138 218.439012 
L 214.487705 218.439012 
L 214.586311 218.193164 
L 214.780972 218.193164 
L 214.780972 218.070241 
L 215.108531 218.070241 
L 215.108531 217.947317 
L 215.481699 217.947317 
L 215.481699 217.824393 
L 215.756142 217.824393 
L 215.756142 217.70147 
L 215.968046 217.70147 
L 216.039178 217.209775 
L 216.210142 217.209775 
L 216.263569 216.841004 
L 216.343795 216.841004 
L 216.406287 216.472233 
L 216.456746 216.472233 
L 216.529023 215.611767 
L 217.07149 215.611767 
L 217.148037 215.36592 
L 217.25884 215.36592 
L 217.25884 215.242996 
L 217.61869 215.242996 
L 217.61869 215.120072 
L 217.971153 215.120072 
L 217.971153 214.997149 
L 218.525069 214.997149 
L 218.525069 214.874225 
L 218.715932 214.874225 
L 218.806798 214.259607 
L 218.855475 214.259607 
L 218.855475 214.136683 
L 218.991856 214.136683 
L 219.10086 213.890835 
L 219.168218 213.890835 
L 219.277448 213.399141 
L 219.285462 213.399141 
L 219.285462 213.276217 
L 219.577415 213.276217 
L 219.577415 213.153293 
L 220.04557 213.153293 
L 220.04557 213.03037 
L 220.360139 213.03037 
L 220.360139 212.907446 
L 220.8077 212.907446 
L 220.824801 212.661599 
L 221.165076 212.661599 
L 221.253418 212.415751 
L 221.572532 212.415751 
L 221.621553 212.04698 
L 221.99679 212.04698 
L 221.99679 211.924057 
L 222.544978 211.924057 
L 222.625964 211.309438 
L 222.748097 211.309438 
L 222.782988 210.940667 
L 223.042439 210.940667 
L 223.042439 210.817743 
L 223.500316 210.817743 
L 223.564445 210.571896 
L 223.639218 210.571896 
L 223.639218 210.448972 
L 224.151698 210.448972 
L 224.20793 210.203125 
L 224.572452 210.203125 
L 224.611665 209.834354 
L 224.853289 209.834354 
L 224.876445 209.588507 
L 225.65635 209.588507 
L 225.748243 209.096812 
L 225.842837 209.096812 
L 225.903341 208.850965 
L 226.036786 208.850965 
L 226.036786 208.728041 
L 226.167861 208.728041 
L 226.167861 208.605117 
L 227.041395 208.605117 
L 227.053291 208.35927 
L 227.747055 208.35927 
L 227.747055 208.236346 
L 227.891649 208.236346 
L 227.891649 208.113422 
L 228.292997 208.113422 
L 228.292997 207.990499 
L 228.633737 207.990499 
L 228.633737 207.867575 
L 229.069731 207.867575 
L 229.069731 207.744651 
L 229.502294 207.744651 
L 229.502294 207.621728 
L 229.993073 207.621728 
L 229.993073 207.498804 
L 230.587799 207.498804 
L 230.681567 207.252957 
L 231.071777 207.252957 
L 231.071777 207.130033 
L 231.884032 207.130033 
L 231.884032 207.007109 
L 232.305458 207.007109 
L 232.305458 206.884186 
L 232.637514 206.884186 
L 232.654685 206.515415 
L 233.580263 206.515415 
L 233.580263 206.392491 
L 233.742114 206.392491 
L 233.742114 206.269567 
L 234.431977 206.269567 
L 234.431977 206.146644 
L 234.54847 206.146644 
L 234.54847 206.02372 
L 234.833996 206.02372 
L 234.833996 205.900796 
L 234.948874 205.900796 
L 234.948874 205.777872 
L 235.735779 205.777872 
L 235.735779 205.654949 
L 237.305586 205.654949 
L 237.305586 205.532025 
L 239.237921 205.532025 
L 239.237921 205.409101 
L 240.226098 205.409101 
L 240.226098 205.286178 
L 241.165709 205.286178 
L 241.165709 205.163254 
L 242.505091 205.163254 
L 242.505091 205.04033 
L 242.620564 205.04033 
L 242.620564 204.917407 
L 243.05278 204.917407 
L 243.05278 204.794483 
L 244.524699 204.794483 
L 244.524699 204.671559 
L 245.523721 204.671559 
L 245.523721 204.548636 
L 253.175383 204.548636 
L 253.175383 204.425712 
L 333.569032 204.425712 
L 333.569032 204.425712 
" style="fill:none;stroke:#00bfbf;stroke-linecap:square;stroke-width:1.5;"/>
   </g>
   <g id="line2d_43">
    <defs>
     <path d="M -6 0 
L 6 0 
M 0 6 
L 0 -6 
" id="m0f198ddccb" style="stroke:#00bfbf;stroke-width:1.5;"/>
    </defs>
    <g>
     <use style="fill:none;stroke:#00bfbf;stroke-width:1.5;" x="157.657461" xlink:href="#m0f198ddccb" y="263.79785"/>
     <use style="fill:none;stroke:#00bfbf;stroke-width:1.5;" x="185.129301" xlink:href="#m0f198ddccb" y="244.130061"/>
     <use style="fill:none;stroke:#00bfbf;stroke-width:1.5;" x="235.735779" xlink:href="#m0f198ddccb" y="205.654949"/>
     <use style="fill:none;stroke:#00bfbf;stroke-width:1.5;" x="253.175383" xlink:href="#m0f198ddccb" y="204.425712"/>
     <use style="fill:none;stroke:#00bfbf;stroke-width:1.5;" x="253.175383" xlink:href="#m0f198ddccb" y="204.425712"/>
     <use style="fill:none;stroke:#00bfbf;stroke-width:1.5;" x="333.569032" xlink:href="#m0f198ddccb" y="204.425712"/>
    </g>
   </g>
   <g id="line2d_44">
    <path style="fill:none;stroke:#00bfbf;stroke-linecap:square;stroke-width:1.5;"/>
    <g/>
   </g>
   <g id="line2d_45">
    <path clip-path="url(#pf73fd83b46)" d="M 182.979093 247.326077 
" style="fill:none;stroke:#00bfbf;stroke-linecap:square;stroke-width:1.5;"/>
    <defs>
     <path d="M -12 12 
L 12 -12 
M -12 -12 
L 12 12 
" id="m3fba7e757a" style="stroke:#00bfbf;stroke-width:3;"/>
    </defs>
    <g clip-path="url(#pf73fd83b46)">
     <use style="fill:#00bfbf;stroke:#00bfbf;stroke-width:3;" x="182.979093" xlink:href="#m3fba7e757a" y="247.326077"/>
    </g>
   </g>
   <g id="line2d_46">
    <defs>
     <path d="M 0 1.5 
C 0.397805 1.5 0.77937 1.341951 1.06066 1.06066 
C 1.341951 0.77937 1.5 0.397805 1.5 0 
C 1.5 -0.397805 1.341951 -0.77937 1.06066 -1.06066 
C 0.77937 -1.341951 0.397805 -1.5 0 -1.5 
C -0.397805 -1.5 -0.77937 -1.341951 -1.06066 -1.06066 
C -1.341951 -0.77937 -1.5 -0.397805 -1.5 0 
C -1.5 0.397805 -1.341951 0.77937 -1.06066 1.06066 
C -0.77937 1.341951 -0.397805 1.5 0 1.5 
z
" id="m1b902973b8" style="stroke:#008000;"/>
    </defs>
    <g>
     <use style="fill:#008000;stroke:#008000;" x="249.614943" xlink:href="#m1b902973b8" y="238.844343"/>
     <use style="fill:#008000;stroke:#008000;" x="249.614943" xlink:href="#m1b902973b8" y="238.844343"/>
    </g>
   </g>
   <g id="line2d_47">
    <path d="M 37.9781 294.16 
L 37.9781 285.063648 
L 123.658047 285.063648 
L 123.658047 284.8178 
L 139.690709 284.8178 
L 139.690709 284.694876 
L 140.409928 284.694876 
L 140.409928 284.571953 
L 141.763839 284.571953 
L 141.763839 284.449029 
L 141.966065 284.449029 
L 141.966065 284.326105 
L 142.24524 284.326105 
L 142.24524 284.203182 
L 142.71351 284.203182 
L 142.71351 283.957334 
L 144.046244 283.957334 
L 144.046244 283.834411 
L 144.223427 283.834411 
L 144.223427 283.711487 
L 146.713175 283.711487 
L 146.713175 283.588563 
L 147.748647 283.588563 
L 147.748647 283.342716 
L 148.670873 283.342716 
L 148.670873 283.219792 
L 150.525984 283.219792 
L 150.525984 283.096869 
L 150.888464 283.096869 
L 150.888464 282.851021 
L 151.00761 282.851021 
L 151.00761 282.728098 
L 151.637088 282.728098 
L 151.637088 282.605174 
L 152.200052 282.605174 
L 152.200052 282.48225 
L 152.615888 282.48225 
L 152.615888 282.236403 
L 153.064075 282.236403 
L 153.148133 281.744708 
L 153.459736 281.744708 
L 153.459736 281.621784 
L 153.946828 281.621784 
L 153.946828 281.498861 
L 155.200585 281.498861 
L 155.200585 281.375937 
L 156.966667 281.375937 
L 156.966667 281.13009 
L 157.233114 281.13009 
L 157.233114 280.638395 
L 157.929353 280.638395 
L 157.929353 280.515471 
L 158.810793 280.515471 
L 158.810793 280.269624 
L 159.620447 280.269624 
L 159.620447 280.1467 
L 161.32986 280.1467 
L 161.32986 280.023777 
L 161.792175 280.023777 
L 161.792175 279.900853 
L 162.536068 279.900853 
L 162.536068 279.655005 
L 163.249064 279.655005 
L 163.249064 279.532082 
L 163.606161 279.532082 
L 163.708458 278.302845 
L 164.022873 278.302845 
L 164.022873 277.934074 
L 164.188971 277.934074 
L 164.188971 277.81115 
L 164.407965 277.81115 
L 164.407965 277.319456 
L 164.964609 277.319456 
L 164.964609 277.073608 
L 165.503772 277.073608 
L 165.503772 276.950684 
L 165.666318 276.950684 
L 165.666318 276.827761 
L 166.272282 276.827761 
L 166.272282 276.45899 
L 166.686938 276.45899 
L 166.686938 275.967295 
L 168.260827 275.967295 
L 168.260827 275.721448 
L 168.740866 275.721448 
L 168.740866 275.598524 
L 168.867201 275.598524 
L 168.942558 275.352677 
L 169.067423 275.352677 
L 169.100568 275.106829 
L 169.42854 275.106829 
L 169.42854 274.983906 
L 169.654449 274.983906 
L 169.654449 274.738058 
L 170.229819 274.738058 
L 170.229819 274.615135 
L 170.506618 274.615135 
L 170.506618 274.369287 
L 170.779025 274.369287 
L 170.779025 274.12344 
L 172.051909 274.12344 
L 172.051909 273.877592 
L 172.403784 273.877592 
L 172.403784 273.754669 
L 173.256408 273.754669 
L 173.256408 273.631745 
L 173.443835 273.631745 
L 173.443835 273.385898 
L 173.825239 273.385898 
L 173.825239 273.14005 
L 173.944272 273.14005 
L 173.944272 273.017127 
L 174.074882 273.017127 
L 174.074882 272.894203 
L 174.29038 272.894203 
L 174.29038 272.648356 
L 174.897498 272.648356 
L 174.897498 272.525432 
L 175.800573 272.525432 
L 175.889994 271.173271 
L 175.956756 271.173271 
L 175.956756 270.927424 
L 176.089505 270.927424 
L 176.199351 270.312806 
L 176.264923 270.312806 
L 176.264923 270.066958 
L 176.917728 270.066958 
L 176.917728 269.944035 
L 177.043278 269.944035 
L 177.043278 269.821111 
L 177.772891 269.821111 
L 177.772891 269.698187 
L 178.114152 269.698187 
L 178.206944 269.329416 
L 178.381396 269.329416 
L 178.458365 269.083569 
L 178.649291 269.083569 
L 178.649291 268.960645 
L 179.080527 268.960645 
L 179.191264 268.714798 
L 179.396991 268.714798 
L 179.396991 268.591874 
L 179.703264 268.591874 
L 179.792314 268.346027 
L 179.964644 268.346027 
L 179.964644 268.100179 
L 180.109124 268.100179 
L 180.109124 267.854332 
L 180.57364 267.854332 
L 180.57364 267.731408 
L 181.186357 267.731408 
L 181.186357 267.608485 
L 181.558991 267.608485 
L 181.558991 267.485561 
L 181.70263 267.485561 
L 181.70263 267.362637 
L 182.589236 267.362637 
L 182.589236 267.239714 
L 182.754467 267.239714 
L 182.843927 266.625095 
L 182.929224 266.625095 
L 182.947711 266.256324 
L 183.094894 266.256324 
L 183.193535 265.887553 
L 184.338431 265.887553 
L 184.420025 265.518782 
L 184.779156 265.518782 
L 184.858688 265.272935 
L 184.977298 265.272935 
L 184.977298 265.150011 
L 185.267061 265.150011 
L 185.344369 264.535393 
L 185.446908 264.535393 
L 185.446908 264.412469 
L 185.574227 264.412469 
L 185.637534 264.166622 
L 185.71005 264.166622 
L 185.71005 264.043698 
L 186.111187 264.043698 
L 186.157229 263.79785 
L 186.584088 263.79785 
L 186.62888 263.429079 
L 186.818691 263.429079 
L 186.818691 263.306156 
L 187.009344 263.306156 
L 187.111133 263.060308 
L 187.784953 263.060308 
L 187.887803 262.568614 
L 187.90996 262.568614 
L 187.943142 262.322766 
L 188.902064 262.322766 
L 188.995854 261.953995 
L 189.153617 261.953995 
L 189.153617 261.831072 
L 189.399 261.831072 
L 189.497693 261.585224 
L 189.700877 261.585224 
L 189.700877 261.462301 
L 190.771483 261.462301 
L 190.857953 261.216453 
L 190.892884 261.216453 
L 190.930067 260.847682 
L 191.417532 260.847682 
L 191.525498 260.478911 
L 191.579228 260.478911 
L 191.5971 260.11014 
L 191.710603 260.11014 
L 191.75491 259.864293 
L 191.898122 259.864293 
L 191.898122 259.741369 
L 192.046676 259.741369 
L 192.079273 259.495522 
L 192.288586 259.495522 
L 192.288586 259.372598 
L 192.770758 259.372598 
L 192.812415 259.003827 
L 192.903705 259.003827 
L 192.945041 258.75798 
L 193.29648 258.75798 
L 193.407358 258.266285 
L 193.415394 258.266285 
L 193.415394 258.020437 
L 193.71998 258.020437 
L 193.71998 257.897514 
L 194.813103 257.897514 
L 194.866712 257.405819 
L 195.499077 257.405819 
L 195.499077 257.282895 
L 196.774093 257.282895 
L 196.859765 256.914124 
L 196.899161 256.914124 
L 196.925376 256.668277 
L 197.122338 256.668277 
L 197.206293 256.42243 
L 197.398483 256.42243 
L 197.436665 256.053658 
L 197.512773 256.053658 
L 197.618448 255.807811 
L 197.645157 255.807811 
L 197.676527 255.561964 
L 197.793657 255.561964 
L 197.900716 255.070269 
L 198.079207 255.070269 
L 198.079207 254.947345 
L 198.430717 254.947345 
L 198.430717 254.824422 
L 199.014567 254.824422 
L 199.014567 254.701498 
L 200.339227 254.701498 
L 200.392821 254.455651 
L 200.596288 254.455651 
L 200.596288 254.332727 
L 200.769912 254.332727 
L 200.769912 254.209803 
L 201.341358 254.209803 
L 201.341358 254.08688 
L 201.54271 254.08688 
L 201.652456 253.841032 
L 201.776321 253.841032 
L 201.858813 253.349337 
L 202.08819 253.349337 
L 202.08819 253.226414 
L 202.684899 253.226414 
L 202.773633 252.980566 
L 203.575609 252.980566 
L 203.575609 252.857643 
L 203.743716 252.857643 
L 203.743716 252.734719 
L 204.270428 252.734719 
L 204.372586 252.365948 
L 205.176778 252.365948 
L 205.176778 252.243024 
L 205.600771 252.243024 
L 205.600771 252.120101 
L 205.750254 252.120101 
L 205.750254 251.997177 
L 206.072301 251.997177 
L 206.072301 251.874253 
L 207.005528 251.874253 
L 207.005528 251.75133 
L 207.9269 251.75133 
L 207.9269 251.628406 
L 208.061795 251.628406 
L 208.166741 251.259635 
L 208.323388 251.259635 
L 208.323388 251.136711 
L 208.524499 251.136711 
L 208.524499 251.013788 
L 208.69691 251.013788 
L 208.75619 250.522093 
L 208.811989 250.522093 
L 208.811989 250.399169 
L 209.151864 250.399169 
L 209.151864 250.276245 
L 210.372444 250.276245 
L 210.435167 250.030398 
L 210.495433 250.030398 
L 210.542902 249.784551 
L 210.868651 249.784551 
L 210.915101 249.538703 
L 211.148342 249.538703 
L 211.196894 249.292856 
L 211.445347 249.292856 
L 211.445347 249.169932 
L 211.692335 249.169932 
L 211.692335 249.047009 
L 212.699866 249.047009 
L 212.736408 248.43239 
L 212.909574 248.43239 
L 212.909574 248.309467 
L 213.209583 248.309467 
L 213.272878 247.940695 
L 213.969928 247.940695 
L 213.984481 247.694848 
L 214.379942 247.694848 
L 214.379942 247.571924 
L 214.632192 247.571924 
L 214.671255 247.326077 
L 214.764762 247.326077 
L 214.766499 247.08023 
L 215.065615 247.08023 
L 215.065615 246.957306 
L 216.301213 246.957306 
L 216.397862 246.588535 
L 216.450972 246.588535 
L 216.555135 246.219764 
L 216.80227 246.219764 
L 216.80227 246.09684 
L 217.833409 246.09684 
L 217.847451 245.850993 
L 217.970913 245.850993 
L 217.985803 245.605146 
L 218.245498 245.605146 
L 218.352986 245.236374 
L 218.959677 245.236374 
L 218.959677 245.113451 
L 219.3419 245.113451 
L 219.446727 244.867603 
L 219.557492 244.867603 
L 219.636174 244.621756 
L 219.691907 244.621756 
L 219.691907 244.498832 
L 220.636987 244.498832 
L 220.738719 244.252985 
L 220.980766 244.252985 
L 220.980766 244.130061 
L 221.800491 244.130061 
L 221.802029 243.884214 
L 221.916974 243.884214 
L 221.916974 243.76129 
L 222.061853 243.76129 
L 222.061853 243.638367 
L 222.86738 243.638367 
L 222.86738 243.515443 
L 223.11275 243.515443 
L 223.194122 243.269596 
L 223.381684 243.269596 
L 223.381684 243.146672 
L 223.844548 243.146672 
L 223.844548 243.023748 
L 224.411562 243.023748 
L 224.416845 242.777901 
L 225.083146 242.777901 
L 225.083146 242.654977 
L 225.28519 242.654977 
L 225.28519 242.532053 
L 226.063201 242.532053 
L 226.073996 242.286206 
L 227.013891 242.286206 
L 227.013891 242.163282 
L 227.140557 242.163282 
L 227.161952 241.917435 
L 227.652849 241.917435 
L 227.667061 241.671588 
L 227.936217 241.671588 
L 227.936217 241.548664 
L 228.057349 241.548664 
L 228.057349 241.42574 
L 228.640708 241.42574 
L 228.65722 241.179893 
L 229.383062 241.179893 
L 229.383062 241.056969 
L 229.534914 241.056969 
L 229.591666 240.688198 
L 230.099387 240.688198 
L 230.203396 240.319427 
L 230.268553 240.319427 
L 230.305139 240.07358 
L 230.474852 240.07358 
L 230.474852 239.950656 
L 231.662504 239.950656 
L 231.662504 239.827732 
L 232.968989 239.827732 
L 232.968989 239.704809 
L 233.108843 239.704809 
L 233.108843 239.581885 
L 238.339321 239.581885 
L 238.339321 239.458961 
L 239.2533 239.458961 
L 239.2533 239.336038 
L 239.985634 239.336038 
L 239.985634 239.213114 
L 240.861667 239.213114 
L 240.861667 239.09019 
L 241.551565 239.09019 
L 241.551565 238.967267 
L 249.614943 238.967267 
L 249.614943 238.844343 
L 333.569032 238.844343 
L 333.569032 238.844343 
" style="fill:none;stroke:#008000;stroke-linecap:square;stroke-width:1.5;"/>
   </g>
   <g id="line2d_48">
    <defs>
     <path d="M -0 6 
L 6 -6 
L -6 -6 
z
" id="m34c52e2bc2" style="stroke:#008000;stroke-linejoin:miter;stroke-width:1.5;"/>
    </defs>
    <g>
     <use style="fill:none;stroke:#008000;stroke-linejoin:miter;stroke-width:1.5;" x="166.686938" xlink:href="#m34c52e2bc2" y="276.45899"/>
     <use style="fill:none;stroke:#008000;stroke-linejoin:miter;stroke-width:1.5;" x="207.9269" xlink:href="#m34c52e2bc2" y="251.628406"/>
     <use style="fill:none;stroke:#008000;stroke-linejoin:miter;stroke-width:1.5;" x="249.614943" xlink:href="#m34c52e2bc2" y="238.967267"/>
     <use style="fill:none;stroke:#008000;stroke-linejoin:miter;stroke-width:1.5;" x="249.614943" xlink:href="#m34c52e2bc2" y="238.844343"/>
     <use style="fill:none;stroke:#008000;stroke-linejoin:miter;stroke-width:1.5;" x="333.569032" xlink:href="#m34c52e2bc2" y="238.844343"/>
    </g>
   </g>
   <g id="line2d_49">
    <path style="fill:none;stroke:#008000;stroke-linecap:square;stroke-width:1.5;"/>
    <g/>
   </g>
   <g id="line2d_50">
    <path clip-path="url(#pf73fd83b46)" d="M 176.050893 270.927424 
" style="fill:none;stroke:#008000;stroke-linecap:square;stroke-width:1.5;"/>
    <defs>
     <path d="M -12 12 
L 12 -12 
M -12 -12 
L 12 12 
" id="mb7668555d9" style="stroke:#008000;stroke-width:3;"/>
    </defs>
    <g clip-path="url(#pf73fd83b46)">
     <use style="fill:#008000;stroke:#008000;stroke-width:3;" x="176.050893" xlink:href="#mb7668555d9" y="270.927424"/>
    </g>
   </g>
   <g id="line2d_51">
    <defs>
     <path d="M 0 1.5 
C 0.397805 1.5 0.77937 1.341951 1.06066 1.06066 
C 1.341951 0.77937 1.5 0.397805 1.5 0 
C 1.5 -0.397805 1.341951 -0.77937 1.06066 -1.06066 
C 0.77937 -1.341951 0.397805 -1.5 0 -1.5 
C -0.397805 -1.5 -0.77937 -1.341951 -1.06066 -1.06066 
C -1.341951 -0.77937 -1.5 -0.397805 -1.5 0 
C -1.5 0.397805 -1.341951 0.77937 -1.06066 1.06066 
C -0.77937 1.341951 -0.397805 1.5 0 1.5 
z
" id="m217a994408" style="stroke:#0000ff;"/>
    </defs>
    <g>
     <use style="fill:#0000ff;stroke:#0000ff;" x="227.742078" xlink:href="#m217a994408" y="268.346027"/>
     <use style="fill:#0000ff;stroke:#0000ff;" x="227.742078" xlink:href="#m217a994408" y="268.346027"/>
    </g>
   </g>
   <g id="line2d_52">
    <path d="M 29.207815 294.16 
L 29.207815 286.907503 
L 145.035897 286.907503 
L 145.035897 286.784579 
L 145.977967 286.784579 
L 145.977967 286.415808 
L 149.411093 286.415808 
L 149.411093 286.292884 
L 151.036083 286.292884 
L 151.036083 286.047037 
L 153.668441 286.047037 
L 153.668441 285.555342 
L 156.035598 285.555342 
L 156.035598 285.186571 
L 157.146971 285.186571 
L 157.146971 285.063648 
L 159.059209 285.063648 
L 159.059209 284.940724 
L 160.105306 284.940724 
L 160.105306 284.449029 
L 160.338559 284.449029 
L 160.338559 284.080258 
L 165.223861 284.080258 
L 165.223861 283.588563 
L 165.720832 283.588563 
L 165.720832 283.46564 
L 166.315175 283.46564 
L 166.315175 283.342716 
L 167.097398 283.342716 
L 167.164247 283.096869 
L 167.208668 283.096869 
L 167.297167 282.236403 
L 167.385213 282.236403 
L 167.407154 281.375937 
L 172.416072 281.375937 
L 172.416072 281.253013 
L 172.744576 281.253013 
L 172.744576 281.13009 
L 173.606332 281.13009 
L 173.606332 281.007166 
L 174.858474 281.007166 
L 174.886864 280.761319 
L 175.82521 280.761319 
L 175.892224 280.515471 
L 175.968968 280.515471 
L 176.065245 280.269624 
L 178.119049 280.269624 
L 178.189401 279.900853 
L 179.028604 279.900853 
L 179.139675 279.286234 
L 179.150743 279.286234 
L 179.239029 278.056998 
L 179.283003 278.056998 
L 179.283003 277.934074 
L 183.197906 277.934074 
L 183.28509 277.688227 
L 183.94826 277.688227 
L 184.05045 277.442379 
L 184.100281 277.442379 
L 184.108572 277.196532 
L 185.46096 277.196532 
L 185.46096 277.073608 
L 186.029853 277.073608 
L 186.140668 275.229753 
L 186.184794 275.229753 
L 186.214149 274.983906 
L 188.176361 274.983906 
L 188.176361 274.860982 
L 189.233752 274.860982 
L 189.252191 274.615135 
L 190.478953 274.615135 
L 190.530353 274.246363 
L 190.938885 274.246363 
L 191.033289 273.877592 
L 191.07201 273.877592 
L 191.105131 273.508821 
L 192.817407 273.508821 
L 192.817407 273.385898 
L 193.251117 273.385898 
L 193.251117 273.262974 
L 194.86745 273.262974 
L 194.911689 272.771279 
L 194.991031 272.771279 
L 194.991031 272.648356 
L 197.658654 272.648356 
L 197.663359 272.402508 
L 197.824447 272.402508 
L 197.895147 272.156661 
L 198.014488 272.156661 
L 198.055004 271.78789 
L 199.519355 271.78789 
L 199.519355 271.664966 
L 200.362293 271.664966 
L 200.362293 271.542042 
L 200.68253 271.542042 
L 200.68253 271.419119 
L 202.294915 271.419119 
L 202.294915 271.296195 
L 202.927592 271.296195 
L 202.927592 271.173271 
L 203.999986 271.173271 
L 203.999986 271.050348 
L 204.737894 271.050348 
L 204.74101 270.8045 
L 204.991519 270.8045 
L 204.991519 270.681577 
L 206.702525 270.681577 
L 206.758569 270.435729 
L 207.693284 270.435729 
L 207.693284 270.312806 
L 208.356061 270.312806 
L 208.396899 270.066958 
L 212.345049 270.066958 
L 212.345049 269.944035 
L 213.19588 269.944035 
L 213.19588 269.821111 
L 213.756645 269.821111 
L 213.756645 269.698187 
L 214.331421 269.698187 
L 214.331421 269.575264 
L 214.695 269.575264 
L 214.695 269.45234 
L 218.674055 269.45234 
L 218.674055 269.329416 
L 220.27274 269.329416 
L 220.27274 269.206493 
L 220.717519 269.206493 
L 220.717519 269.083569 
L 221.716626 269.083569 
L 221.716626 268.960645 
L 222.190117 268.960645 
L 222.190117 268.837721 
L 222.467491 268.837721 
L 222.467491 268.714798 
L 222.888106 268.714798 
L 222.888106 268.591874 
L 226.752361 268.591874 
L 226.752361 268.46895 
L 227.742078 268.46895 
L 227.742078 268.346027 
L 333.569032 268.346027 
L 333.569032 268.346027 
" style="fill:none;stroke:#0000ff;stroke-linecap:square;stroke-width:1.5;"/>
   </g>
   <g id="line2d_53">
    <defs>
     <path d="M 0 -6 
L -1.347084 -1.854102 
L -5.706339 -1.854102 
L -2.179628 0.708204 
L -3.526712 4.854102 
L -0 2.291796 
L 3.526712 4.854102 
L 2.179628 0.708204 
L 5.706339 -1.854102 
L 1.347084 -1.854102 
z
" id="mf02ac544fd" style="stroke:#0000ff;stroke-linejoin:bevel;stroke-width:1.5;"/>
    </defs>
    <g>
     <use style="fill:none;stroke:#0000ff;stroke-linejoin:bevel;stroke-width:1.5;" x="160.338559" xlink:href="#mf02ac544fd" y="284.449029"/>
     <use style="fill:none;stroke:#0000ff;stroke-linejoin:bevel;stroke-width:1.5;" x="220.717519" xlink:href="#mf02ac544fd" y="269.206493"/>
     <use style="fill:none;stroke:#0000ff;stroke-linejoin:bevel;stroke-width:1.5;" x="227.742078" xlink:href="#mf02ac544fd" y="268.346027"/>
     <use style="fill:none;stroke:#0000ff;stroke-linejoin:bevel;stroke-width:1.5;" x="227.742078" xlink:href="#mf02ac544fd" y="268.346027"/>
     <use style="fill:none;stroke:#0000ff;stroke-linejoin:bevel;stroke-width:1.5;" x="333.569032" xlink:href="#mf02ac544fd" y="268.346027"/>
    </g>
   </g>
   <g id="line2d_54">
    <path style="fill:none;stroke:#0000ff;stroke-linecap:square;stroke-width:1.5;"/>
    <g/>
   </g>
   <g id="line2d_55">
    <path clip-path="url(#pf73fd83b46)" d="M 167.247443 282.605174 
" style="fill:none;stroke:#0000ff;stroke-linecap:square;stroke-width:1.5;"/>
    <defs>
     <path d="M -12 12 
L 12 -12 
M -12 -12 
L 12 12 
" id="m389f6df8c8" style="stroke:#0000ff;stroke-width:3;"/>
    </defs>
    <g clip-path="url(#pf73fd83b46)">
     <use style="fill:#0000ff;stroke:#0000ff;stroke-width:3;" x="167.247443" xlink:href="#m389f6df8c8" y="282.605174"/>
    </g>
   </g>
   <g id="line2d_56">
    <defs>
     <path d="M 0 1.5 
C 0.397805 1.5 0.77937 1.341951 1.06066 1.06066 
C 1.341951 0.77937 1.5 0.397805 1.5 0 
C 1.5 -0.397805 1.341951 -0.77937 1.06066 -1.06066 
C 0.77937 -1.341951 0.397805 -1.5 0 -1.5 
C -0.397805 -1.5 -0.77937 -1.341951 -1.06066 -1.06066 
C -1.341951 -0.77937 -1.5 -0.397805 -1.5 0 
C -1.5 0.397805 -1.341951 0.77937 -1.06066 1.06066 
C -0.77937 1.341951 -0.397805 1.5 0 1.5 
z
" id="m91b79a87d5" style="stroke:#000000;"/>
    </defs>
    <g>
     <use style="stroke:#000000;" x="215.878225" xlink:href="#m91b79a87d5" y="272.033737"/>
     <use style="stroke:#000000;" x="215.878225" xlink:href="#m91b79a87d5" y="272.033737"/>
    </g>
   </g>
   <g id="line2d_57">
    <path d="M 17.307281 294.16 
L 17.307281 285.678266 
L 155.174524 285.678266 
L 155.241459 284.940724 
L 155.285938 284.940724 
L 155.374551 282.605174 
L 155.440712 282.605174 
L 155.484679 281.990555 
L 155.63768 281.990555 
L 155.63768 281.867632 
L 167.072263 281.867632 
L 167.161467 281.498861 
L 167.216984 281.498861 
L 167.316466 280.515471 
L 167.371486 280.515471 
L 167.404413 280.023777 
L 174.092221 280.023777 
L 174.173731 279.655005 
L 174.240134 279.655005 
L 174.320946 279.286234 
L 179.066171 279.286234 
L 179.171476 278.671616 
L 179.21011 278.671616 
L 179.254158 278.425769 
L 179.363784 278.425769 
L 179.363784 278.302845 
L 182.918122 278.302845 
L 183.024404 277.688227 
L 183.077299 277.688227 
L 183.094894 277.319456 
L 186.058549 277.319456 
L 186.15447 276.45899 
L 186.176529 276.45899 
L 186.176529 276.336066 
L 188.69972 276.336066 
L 188.807233 275.844371 
L 190.99101 275.844371 
L 191.079606 274.738058 
L 191.140251 274.738058 
L 191.140251 274.615135 
L 192.980099 274.615135 
L 193.031935 274.369287 
L 194.877967 274.369287 
L 194.877967 274.246363 
L 196.514484 274.246363 
L 196.602792 274.000516 
L 197.982652 274.000516 
L 198.065578 273.631745 
L 199.394755 273.631745 
L 199.425353 273.385898 
L 200.707373 273.385898 
L 200.708949 273.14005 
L 201.847263 273.14005 
L 201.862006 272.894203 
L 202.916162 272.894203 
L 202.952157 272.525432 
L 204.013643 272.525432 
L 204.013643 272.402508 
L 205.883491 272.402508 
L 205.883491 272.279585 
L 206.867636 272.279585 
L 206.867636 272.156661 
L 215.878225 272.156661 
L 215.878225 272.033737 
L 333.569032 272.033737 
L 333.569032 272.033737 
" style="fill:none;stroke:#000000;stroke-linecap:square;stroke-width:1.5;"/>
   </g>
   <g id="line2d_58">
    <defs>
     <path d="M 0 6 
C 1.591219 6 3.117479 5.367802 4.242641 4.242641 
C 5.367802 3.117479 6 1.591219 6 0 
C 6 -1.591219 5.367802 -3.117479 4.242641 -4.242641 
C 3.117479 -5.367802 1.591219 -6 0 -6 
C -1.591219 -6 -3.117479 -5.367802 -4.242641 -4.242641 
C -5.367802 -3.117479 -6 -1.591219 -6 0 
C -6 1.591219 -5.367802 3.117479 -4.242641 4.242641 
C -3.117479 5.367802 -1.591219 6 0 6 
z
" id="m5b971e5980" style="stroke:#000000;stroke-width:1.5;"/>
    </defs>
    <g>
     <use style="fill:none;stroke:#000000;stroke-width:1.5;" x="199.425353" xlink:href="#m5b971e5980" y="273.508821"/>
     <use style="fill:none;stroke:#000000;stroke-width:1.5;" x="215.878225" xlink:href="#m5b971e5980" y="272.156661"/>
     <use style="fill:none;stroke:#000000;stroke-width:1.5;" x="215.878225" xlink:href="#m5b971e5980" y="272.033737"/>
     <use style="fill:none;stroke:#000000;stroke-width:1.5;" x="215.878225" xlink:href="#m5b971e5980" y="272.033737"/>
     <use style="fill:none;stroke:#000000;stroke-width:1.5;" x="333.569032" xlink:href="#m5b971e5980" y="272.033737"/>
    </g>
   </g>
   <g id="line2d_59">
    <path style="fill:none;stroke:#000000;stroke-linecap:square;stroke-width:1.5;"/>
    <g/>
   </g>
   <g id="line2d_60">
    <path clip-path="url(#pf73fd83b46)" d="M 155.346908 283.342716 
" style="fill:none;stroke:#000000;stroke-linecap:square;stroke-width:1.5;"/>
    <defs>
     <path d="M -12 12 
L 12 -12 
M -12 -12 
L 12 12 
" id="m1a2b490281" style="stroke:#000000;stroke-width:3;"/>
    </defs>
    <g clip-path="url(#pf73fd83b46)">
     <use style="stroke:#000000;stroke-width:3;" x="155.346908" xlink:href="#m1a2b490281" y="283.342716"/>
    </g>
   </g>
   <g id="line2d_61">
    <defs>
     <path d="M 0 1.5 
C 0.397805 1.5 0.77937 1.341951 1.06066 1.06066 
C 1.341951 0.77937 1.5 0.397805 1.5 0 
C 1.5 -0.397805 1.341951 -0.77937 1.06066 -1.06066 
C 0.77937 -1.341951 0.397805 -1.5 0 -1.5 
C -0.397805 -1.5 -0.77937 -1.341951 -1.06066 -1.06066 
C -1.341951 -0.77937 -1.5 -0.397805 -1.5 0 
C -1.5 0.397805 -1.341951 0.77937 -1.06066 1.06066 
C -0.77937 1.341951 -0.397805 1.5 0 1.5 
z
" id="mc87ba56a2f" style="stroke:#ff0000;"/>
    </defs>
    <g>
     <use style="fill:#ff0000;stroke:#ff0000;" x="208.378887" xlink:href="#mc87ba56a2f" y="276.950684"/>
     <use style="fill:#ff0000;stroke:#ff0000;" x="208.378887" xlink:href="#mc87ba56a2f" y="276.950684"/>
    </g>
   </g>
   <g id="line2d_62">
    <path d="M 5.406747 294.16 
L 5.406747 286.169961 
L 143.251619 286.169961 
L 143.318642 285.432419 
L 143.385403 285.432419 
L 143.429767 284.8178 
L 143.518153 284.8178 
L 143.584145 284.326105 
L 143.649884 284.326105 
L 143.671741 283.711487 
L 155.138158 283.711487 
L 155.160546 283.46564 
L 155.260932 283.46564 
L 155.371789 282.973945 
L 155.437961 282.973945 
L 155.459962 282.605174 
L 162.184258 282.605174 
L 162.287975 281.990555 
L 162.310119 281.990555 
L 162.383726 281.498861 
L 167.082042 281.498861 
L 167.18786 281.13009 
L 167.198961 281.13009 
L 167.293029 280.392548 
L 167.375605 280.392548 
L 167.375605 280.269624 
L 171.079666 280.269624 
L 171.145929 279.900853 
L 174.102431 279.900853 
L 174.139507 279.655005 
L 174.224479 279.655005 
L 174.224479 279.532082 
L 176.73881 279.532082 
L 176.846701 279.286234 
L 176.89093 279.286234 
L 176.935046 279.040387 
L 179.168022 279.040387 
L 179.168022 278.917463 
L 181.178165 278.917463 
L 181.246851 278.548692 
L 184.628029 278.548692 
L 184.680223 278.302845 
L 186.109804 278.302845 
L 186.109804 278.179921 
L 191.053006 278.179921 
L 191.053006 278.056998 
L 193.074705 278.056998 
L 193.102955 277.81115 
L 194.930731 277.81115 
L 194.930731 277.688227 
L 196.552421 277.688227 
L 196.552421 277.565303 
L 198.024856 277.565303 
L 198.0727 277.319456 
L 204.534469 277.319456 
L 204.534469 277.196532 
L 206.329161 277.196532 
L 206.329161 277.073608 
L 208.378887 277.073608 
L 208.378887 276.950684 
L 333.569032 276.950684 
L 333.569032 276.950684 
" style="fill:none;stroke:#ff0000;stroke-linecap:square;stroke-width:1.5;"/>
   </g>
   <g id="line2d_63">
    <defs>
     <path d="M -6 6 
L 6 6 
L 6 -6 
L -6 -6 
z
" id="m1a8ca3f36c" style="stroke:#ff0000;stroke-linejoin:miter;stroke-width:1.5;"/>
    </defs>
    <g>
     <use style="fill:none;stroke:#ff0000;stroke-linejoin:miter;stroke-width:1.5;" x="143.671741" xlink:href="#m1a8ca3f36c" y="284.080258"/>
     <use style="fill:none;stroke:#ff0000;stroke-linejoin:miter;stroke-width:1.5;" x="208.378887" xlink:href="#m1a8ca3f36c" y="277.073608"/>
     <use style="fill:none;stroke:#ff0000;stroke-linejoin:miter;stroke-width:1.5;" x="208.378887" xlink:href="#m1a8ca3f36c" y="276.950684"/>
     <use style="fill:none;stroke:#ff0000;stroke-linejoin:miter;stroke-width:1.5;" x="208.378887" xlink:href="#m1a8ca3f36c" y="276.950684"/>
     <use style="fill:none;stroke:#ff0000;stroke-linejoin:miter;stroke-width:1.5;" x="333.569032" xlink:href="#m1a8ca3f36c" y="276.950684"/>
    </g>
   </g>
   <g id="line2d_64">
    <path style="fill:none;stroke:#ff0000;stroke-linecap:square;stroke-width:1.5;"/>
    <g/>
   </g>
   <g id="line2d_65">
    <path clip-path="url(#pf73fd83b46)" d="M 143.424228 285.063648 
" style="fill:none;stroke:#ff0000;stroke-linecap:square;stroke-width:1.5;"/>
    <defs>
     <path d="M -12 12 
L 12 -12 
M -12 -12 
L 12 12 
" id="m449bc7991f" style="stroke:#ff0000;stroke-width:3;"/>
    </defs>
    <g clip-path="url(#pf73fd83b46)">
     <use style="fill:#ff0000;stroke:#ff0000;stroke-width:3;" x="143.424228" xlink:href="#m449bc7991f" y="285.063648"/>
    </g>
   </g>
   <g id="line2d_66">
    <path d="M 333.569032 276.950684 
L 364.009226 288.456341 
" style="fill:none;stroke:#ff0000;stroke-linecap:square;stroke-width:1.5;"/>
    <g>
     <use style="fill:none;stroke:#ff0000;stroke-linejoin:miter;stroke-width:1.5;" x="333.569032" xlink:href="#m1a8ca3f36c" y="276.950684"/>
     <use style="fill:none;stroke:#ff0000;stroke-linejoin:miter;stroke-width:1.5;" x="364.009226" xlink:href="#m1a8ca3f36c" y="288.456341"/>
    </g>
   </g>
   <g id="line2d_67">
    <path d="M 333.569032 272.033737 
L 364.009226 220.012435 
" style="fill:none;stroke:#000000;stroke-linecap:square;stroke-width:1.5;"/>
    <g>
     <use style="fill:none;stroke:#000000;stroke-width:1.5;" x="333.569032" xlink:href="#m5b971e5980" y="272.033737"/>
     <use style="fill:none;stroke:#000000;stroke-width:1.5;" x="364.009226" xlink:href="#m5b971e5980" y="220.012435"/>
    </g>
   </g>
   <g id="line2d_68">
    <path d="M 333.569032 268.346027 
L 364.009226 151.568529 
" style="fill:none;stroke:#0000ff;stroke-linecap:square;stroke-width:1.5;"/>
    <g>
     <use style="fill:none;stroke:#0000ff;stroke-linejoin:bevel;stroke-width:1.5;" x="333.569032" xlink:href="#mf02ac544fd" y="268.346027"/>
     <use style="fill:none;stroke:#0000ff;stroke-linejoin:bevel;stroke-width:1.5;" x="364.009226" xlink:href="#mf02ac544fd" y="151.568529"/>
    </g>
   </g>
   <g id="line2d_69">
    <path d="M 333.569032 238.844343 
L 364.009226 83.124622 
" style="fill:none;stroke:#008000;stroke-linecap:square;stroke-width:1.5;"/>
    <g>
     <use style="fill:none;stroke:#008000;stroke-linejoin:miter;stroke-width:1.5;" x="333.569032" xlink:href="#m34c52e2bc2" y="238.844343"/>
     <use style="fill:none;stroke:#008000;stroke-linejoin:miter;stroke-width:1.5;" x="364.009226" xlink:href="#m34c52e2bc2" y="83.124622"/>
    </g>
   </g>
   <g id="line2d_70">
    <path d="M 333.569032 204.425712 
L 364.009226 14.680716 
" style="fill:none;stroke:#00bfbf;stroke-linecap:square;stroke-width:1.5;"/>
    <g>
     <use style="fill:none;stroke:#00bfbf;stroke-width:1.5;" x="333.569032" xlink:href="#m0f198ddccb" y="204.425712"/>
     <use style="fill:none;stroke:#00bfbf;stroke-width:1.5;" x="364.009226" xlink:href="#m0f198ddccb" y="14.680716"/>
    </g>
   </g>
   <g id="line2d_71">
    <path d="M 333.569032 294.16 
L 333.569032 8.977057 
" style="fill:none;stroke:#000000;stroke-linecap:square;stroke-width:1.5;"/>
   </g>
   <g id="patch_3">
    <path d="M 56.84 294.16 
L 56.84 6.125228 
" style="fill:none;stroke:#000000;stroke-linecap:square;stroke-linejoin:miter;stroke-width:0.8;"/>
   </g>
   <g id="patch_4">
    <path d="M 399.984 294.16 
L 399.984 6.125228 
" style="fill:none;stroke:#000000;stroke-linecap:square;stroke-linejoin:miter;stroke-width:0.8;"/>
   </g>
   <g id="patch_5">
    <path d="M 56.84 294.16 
L 399.984 294.16 
" style="fill:none;stroke:#000000;stroke-linecap:square;stroke-linejoin:miter;stroke-width:0.8;"/>
   </g>
   <g id="patch_6">
    <path d="M 56.84 6.125228 
L 399.984 6.125228 
" style="fill:none;stroke:#000000;stroke-linecap:square;stroke-linejoin:miter;stroke-width:0.8;"/>
   </g>
   <g id="text_14">
    <!-- 20-D -->
    <defs>
     <path d="M 19.671875 64.796875 
L 19.671875 8.109375 
L 31.59375 8.109375 
Q 46.6875 8.109375 53.6875 14.9375 
Q 60.6875 21.78125 60.6875 36.53125 
Q 60.6875 51.171875 53.6875 57.984375 
Q 46.6875 64.796875 31.59375 64.796875 
z
M 9.8125 72.90625 
L 30.078125 72.90625 
Q 51.265625 72.90625 61.171875 64.09375 
Q 71.09375 55.28125 71.09375 36.53125 
Q 71.09375 17.671875 61.125 8.828125 
Q 51.171875 0 30.078125 0 
L 9.8125 0 
z
" id="DejaVuSans-44"/>
    </defs>
    <g transform="translate(369.543806 293.147279)scale(0.17 -0.17)">
     <use xlink:href="#DejaVuSans-32"/>
     <use x="63.623047" xlink:href="#DejaVuSans-30"/>
     <use x="127.246094" xlink:href="#DejaVuSans-2d"/>
     <use x="163.330078" xlink:href="#DejaVuSans-44"/>
    </g>
   </g>
   <g id="text_15">
    <!-- 10-D -->
    <g transform="translate(369.543806 224.703372)scale(0.17 -0.17)">
     <use xlink:href="#DejaVuSans-31"/>
     <use x="63.623047" xlink:href="#DejaVuSans-30"/>
     <use x="127.246094" xlink:href="#DejaVuSans-2d"/>
     <use x="163.330078" xlink:href="#DejaVuSans-44"/>
    </g>
   </g>
   <g id="text_16">
    <!-- 5-D -->
    <defs>
     <path d="M 10.796875 72.90625 
L 49.515625 72.90625 
L 49.515625 64.59375 
L 19.828125 64.59375 
L 19.828125 46.734375 
Q 21.96875 47.46875 24.109375 47.828125 
Q 26.265625 48.1875 28.421875 48.1875 
Q 40.625 48.1875 47.75 41.5 
Q 54.890625 34.8125 54.890625 23.390625 
Q 54.890625 11.625 47.5625 5.09375 
Q 40.234375 -1.421875 26.90625 -1.421875 
Q 22.3125 -1.421875 17.546875 -0.640625 
Q 12.796875 0.140625 7.71875 1.703125 
L 7.71875 11.625 
Q 12.109375 9.234375 16.796875 8.0625 
Q 21.484375 6.890625 26.703125 6.890625 
Q 35.15625 6.890625 40.078125 11.328125 
Q 45.015625 15.765625 45.015625 23.390625 
Q 45.015625 31 40.078125 35.4375 
Q 35.15625 39.890625 26.703125 39.890625 
Q 22.75 39.890625 18.8125 39.015625 
Q 14.890625 38.140625 10.796875 36.28125 
z
" id="DejaVuSans-35"/>
    </defs>
    <g transform="translate(369.543806 156.259466)scale(0.17 -0.17)">
     <use xlink:href="#DejaVuSans-35"/>
     <use x="63.623047" xlink:href="#DejaVuSans-2d"/>
     <use x="99.707031" xlink:href="#DejaVuSans-44"/>
    </g>
   </g>
   <g id="text_17">
    <!-- 3-D -->
    <defs>
     <path d="M 40.578125 39.3125 
Q 47.65625 37.796875 51.625 33 
Q 55.609375 28.21875 55.609375 21.1875 
Q 55.609375 10.40625 48.1875 4.484375 
Q 40.765625 -1.421875 27.09375 -1.421875 
Q 22.515625 -1.421875 17.65625 -0.515625 
Q 12.796875 0.390625 7.625 2.203125 
L 7.625 11.71875 
Q 11.71875 9.328125 16.59375 8.109375 
Q 21.484375 6.890625 26.8125 6.890625 
Q 36.078125 6.890625 40.9375 10.546875 
Q 45.796875 14.203125 45.796875 21.1875 
Q 45.796875 27.640625 41.28125 31.265625 
Q 36.765625 34.90625 28.71875 34.90625 
L 20.21875 34.90625 
L 20.21875 43.015625 
L 29.109375 43.015625 
Q 36.375 43.015625 40.234375 45.921875 
Q 44.09375 48.828125 44.09375 54.296875 
Q 44.09375 59.90625 40.109375 62.90625 
Q 36.140625 65.921875 28.71875 65.921875 
Q 24.65625 65.921875 20.015625 65.03125 
Q 15.375 64.15625 9.8125 62.3125 
L 9.8125 71.09375 
Q 15.4375 72.65625 20.34375 73.4375 
Q 25.25 74.21875 29.59375 74.21875 
Q 40.828125 74.21875 47.359375 69.109375 
Q 53.90625 64.015625 53.90625 55.328125 
Q 53.90625 49.265625 50.4375 45.09375 
Q 46.96875 40.921875 40.578125 39.3125 
" id="DejaVuSans-33"/>
    </defs>
    <g transform="translate(369.543806 87.81556)scale(0.17 -0.17)">
     <use xlink:href="#DejaVuSans-33"/>
     <use x="63.623047" xlink:href="#DejaVuSans-2d"/>
     <use x="99.707031" xlink:href="#DejaVuSans-44"/>
    </g>
   </g>
   <g id="text_18">
    <!-- 2-D -->
    <g transform="translate(369.543806 19.371654)scale(0.17 -0.17)">
     <use xlink:href="#DejaVuSans-32"/>
     <use x="63.623047" xlink:href="#DejaVuSans-2d"/>
     <use x="99.707031" xlink:href="#DejaVuSans-44"/>
    </g>
   </g>
   <g id="text_19">
    <!-- bbob-biobj f7, f8, f16, f17 -->
    <defs>
     <path d="M 48.6875 27.296875 
Q 48.6875 37.203125 44.609375 42.84375 
Q 40.53125 48.484375 33.40625 48.484375 
Q 26.265625 48.484375 22.1875 42.84375 
Q 18.109375 37.203125 18.109375 27.296875 
Q 18.109375 17.390625 22.1875 11.75 
Q 26.265625 6.109375 33.40625 6.109375 
Q 40.53125 6.109375 44.609375 11.75 
Q 48.6875 17.390625 48.6875 27.296875 
M 18.109375 46.390625 
Q 20.953125 51.265625 25.265625 53.625 
Q 29.59375 56 35.59375 56 
Q 45.5625 56 51.78125 48.09375 
Q 58.015625 40.1875 58.015625 27.296875 
Q 58.015625 14.40625 51.78125 6.484375 
Q 45.5625 -1.421875 35.59375 -1.421875 
Q 29.59375 -1.421875 25.265625 0.953125 
Q 20.953125 3.328125 18.109375 8.203125 
L 18.109375 0 
L 9.078125 0 
L 9.078125 75.984375 
L 18.109375 75.984375 
z
" id="DejaVuSans-62"/>
     <path d="M 9.421875 54.6875 
L 18.40625 54.6875 
L 18.40625 -0.984375 
Q 18.40625 -11.421875 14.421875 -16.109375 
Q 10.453125 -20.796875 1.609375 -20.796875 
L -1.8125 -20.796875 
L -1.8125 -13.1875 
L 0.59375 -13.1875 
Q 5.71875 -13.1875 7.5625 -10.8125 
Q 9.421875 -8.453125 9.421875 -0.984375 
z
M 9.421875 75.984375 
L 18.40625 75.984375 
L 18.40625 64.59375 
L 9.421875 64.59375 
z
" id="DejaVuSans-6a"/>
     <path d="M 8.203125 72.90625 
L 55.078125 72.90625 
L 55.078125 68.703125 
L 28.609375 0 
L 18.3125 0 
L 43.21875 64.59375 
L 8.203125 64.59375 
z
" id="DejaVuSans-37"/>
    </defs>
    <g transform="translate(60.27144 16.755982)scale(0.102 -0.102)">
     <use xlink:href="#DejaVuSans-62"/>
     <use x="63.476562" xlink:href="#DejaVuSans-62"/>
     <use x="126.953125" xlink:href="#DejaVuSans-6f"/>
     <use x="188.134766" xlink:href="#DejaVuSans-62"/>
     <use x="251.611328" xlink:href="#DejaVuSans-2d"/>
     <use x="287.695312" xlink:href="#DejaVuSans-62"/>
     <use x="351.171875" xlink:href="#DejaVuSans-69"/>
     <use x="378.955078" xlink:href="#DejaVuSans-6f"/>
     <use x="440.136719" xlink:href="#DejaVuSans-62"/>
     <use x="503.613281" xlink:href="#DejaVuSans-6a"/>
     <use x="531.396484" xlink:href="#DejaVuSans-20"/>
     <use x="563.183594" xlink:href="#DejaVuSans-66"/>
     <use x="598.388672" xlink:href="#DejaVuSans-37"/>
     <use x="662.011719" xlink:href="#DejaVuSans-2c"/>
     <use x="693.798828" xlink:href="#DejaVuSans-20"/>
     <use x="725.585938" xlink:href="#DejaVuSans-66"/>
     <use x="760.791016" xlink:href="#DejaVuSans-38"/>
     <use x="824.414062" xlink:href="#DejaVuSans-2c"/>
     <use x="856.201172" xlink:href="#DejaVuSans-20"/>
     <use x="887.988281" xlink:href="#DejaVuSans-66"/>
     <use x="923.193359" xlink:href="#DejaVuSans-31"/>
     <use x="986.816406" xlink:href="#DejaVuSans-36"/>
     <use x="1050.439453" xlink:href="#DejaVuSans-2c"/>
     <use x="1082.226562" xlink:href="#DejaVuSans-20"/>
     <use x="1114.013672" xlink:href="#DejaVuSans-66"/>
     <use x="1149.21875" xlink:href="#DejaVuSans-31"/>
     <use x="1212.841797" xlink:href="#DejaVuSans-37"/>
    </g>
    <!-- 58 targets: 1..-1.0e-4 -->
    <defs>
     <path d="M 11.71875 12.40625 
L 22.015625 12.40625 
L 22.015625 0 
L 11.71875 0 
z
M 11.71875 51.703125 
L 22.015625 51.703125 
L 22.015625 39.3125 
L 11.71875 39.3125 
z
" id="DejaVuSans-3a"/>
    </defs>
    <g transform="translate(60.27144 28.17775)scale(0.102 -0.102)">
     <use xlink:href="#DejaVuSans-35"/>
     <use x="63.623047" xlink:href="#DejaVuSans-38"/>
     <use x="127.246094" xlink:href="#DejaVuSans-20"/>
     <use x="159.033203" xlink:href="#DejaVuSans-74"/>
     <use x="198.242188" xlink:href="#DejaVuSans-61"/>
     <use x="259.521484" xlink:href="#DejaVuSans-72"/>
     <use x="300.619141" xlink:href="#DejaVuSans-67"/>
     <use x="364.095703" xlink:href="#DejaVuSans-65"/>
     <use x="425.619141" xlink:href="#DejaVuSans-74"/>
     <use x="464.828125" xlink:href="#DejaVuSans-73"/>
     <use x="516.927734" xlink:href="#DejaVuSans-3a"/>
     <use x="550.619141" xlink:href="#DejaVuSans-20"/>
     <use x="582.40625" xlink:href="#DejaVuSans-31"/>
     <use x="646.029297" xlink:href="#DejaVuSans-2e"/>
     <use x="677.816406" xlink:href="#DejaVuSans-2e"/>
     <use x="709.603516" xlink:href="#DejaVuSans-2d"/>
     <use x="745.6875" xlink:href="#DejaVuSans-31"/>
     <use x="809.310547" xlink:href="#DejaVuSans-2e"/>
     <use x="841.097656" xlink:href="#DejaVuSans-30"/>
     <use x="904.720703" xlink:href="#DejaVuSans-65"/>
     <use x="966.244141" xlink:href="#DejaVuSans-2d"/>
     <use x="1002.328125" xlink:href="#DejaVuSans-34"/>
    </g>
    <!-- 10 instances -->
    <g transform="translate(60.27144 39.599519)scale(0.102 -0.102)">
     <use xlink:href="#DejaVuSans-31"/>
     <use x="63.623047" xlink:href="#DejaVuSans-30"/>
     <use x="127.246094" xlink:href="#DejaVuSans-20"/>
     <use x="159.033203" xlink:href="#DejaVuSans-69"/>
     <use x="186.816406" xlink:href="#DejaVuSans-6e"/>
     <use x="250.195312" xlink:href="#DejaVuSans-73"/>
     <use x="302.294922" xlink:href="#DejaVuSans-74"/>
     <use x="341.503906" xlink:href="#DejaVuSans-61"/>
     <use x="402.783203" xlink:href="#DejaVuSans-6e"/>
     <use x="466.162109" xlink:href="#DejaVuSans-63"/>
     <use x="521.142578" xlink:href="#DejaVuSans-65"/>
     <use x="582.666016" xlink:href="#DejaVuSans-73"/>
    </g>
   </g>
   <g id="text_20">
    <!-- v2.2.1.10, hv-hash=ff0e71e8cd978373 -->
    <defs>
     <path d="M 54.890625 33.015625 
L 54.890625 0 
L 45.90625 0 
L 45.90625 32.71875 
Q 45.90625 40.484375 42.875 44.328125 
Q 39.84375 48.1875 33.796875 48.1875 
Q 26.515625 48.1875 22.3125 43.546875 
Q 18.109375 38.921875 18.109375 30.90625 
L 18.109375 0 
L 9.078125 0 
L 9.078125 75.984375 
L 18.109375 75.984375 
L 18.109375 46.1875 
Q 21.34375 51.125 25.703125 53.5625 
Q 30.078125 56 35.796875 56 
Q 45.21875 56 50.046875 50.171875 
Q 54.890625 44.34375 54.890625 33.015625 
" id="DejaVuSans-68"/>
     <path d="M 10.59375 45.40625 
L 73.1875 45.40625 
L 73.1875 37.203125 
L 10.59375 37.203125 
z
M 10.59375 25.484375 
L 73.1875 25.484375 
L 73.1875 17.1875 
L 10.59375 17.1875 
z
" id="DejaVuSans-3d"/>
     <path d="M 10.984375 1.515625 
L 10.984375 10.5 
Q 14.703125 8.734375 18.5 7.8125 
Q 22.3125 6.890625 25.984375 6.890625 
Q 35.75 6.890625 40.890625 13.453125 
Q 46.046875 20.015625 46.78125 33.40625 
Q 43.953125 29.203125 39.59375 26.953125 
Q 35.25 24.703125 29.984375 24.703125 
Q 19.046875 24.703125 12.671875 31.3125 
Q 6.296875 37.9375 6.296875 49.421875 
Q 6.296875 60.640625 12.9375 67.421875 
Q 19.578125 74.21875 30.609375 74.21875 
Q 43.265625 74.21875 49.921875 64.515625 
Q 56.59375 54.828125 56.59375 36.375 
Q 56.59375 19.140625 48.40625 8.859375 
Q 40.234375 -1.421875 26.421875 -1.421875 
Q 22.703125 -1.421875 18.890625 -0.6875 
Q 15.09375 0.046875 10.984375 1.515625 
M 30.609375 32.421875 
Q 37.25 32.421875 41.125 36.953125 
Q 45.015625 41.5 45.015625 49.421875 
Q 45.015625 57.28125 41.125 61.84375 
Q 37.25 66.40625 30.609375 66.40625 
Q 23.96875 66.40625 20.09375 61.84375 
Q 16.21875 57.28125 16.21875 49.421875 
Q 16.21875 41.5 20.09375 36.953125 
Q 23.96875 32.421875 30.609375 32.421875 
" id="DejaVuSans-39"/>
    </defs>
    <g style="fill:#808080;" transform="translate(130.065125 289.199965)scale(0.1 -0.1)">
     <use xlink:href="#DejaVuSans-76"/>
     <use x="59.179688" xlink:href="#DejaVuSans-32"/>
     <use x="122.802734" xlink:href="#DejaVuSans-2e"/>
     <use x="154.589844" xlink:href="#DejaVuSans-32"/>
     <use x="218.212891" xlink:href="#DejaVuSans-2e"/>
     <use x="250" xlink:href="#DejaVuSans-31"/>
     <use x="313.623047" xlink:href="#DejaVuSans-2e"/>
     <use x="345.410156" xlink:href="#DejaVuSans-31"/>
     <use x="409.033203" xlink:href="#DejaVuSans-30"/>
     <use x="472.65625" xlink:href="#DejaVuSans-2c"/>
     <use x="504.443359" xlink:href="#DejaVuSans-20"/>
     <use x="536.230469" xlink:href="#DejaVuSans-68"/>
     <use x="599.609375" xlink:href="#DejaVuSans-76"/>
     <use x="658.757812" xlink:href="#DejaVuSans-2d"/>
     <use x="694.841797" xlink:href="#DejaVuSans-68"/>
     <use x="758.220703" xlink:href="#DejaVuSans-61"/>
     <use x="819.5" xlink:href="#DejaVuSans-73"/>
     <use x="871.599609" xlink:href="#DejaVuSans-68"/>
     <use x="934.978516" xlink:href="#DejaVuSans-3d"/>
     <use x="1018.767578" xlink:href="#DejaVuSans-66"/>
     <use x="1053.972656" xlink:href="#DejaVuSans-66"/>
     <use x="1089.177734" xlink:href="#DejaVuSans-30"/>
     <use x="1152.800781" xlink:href="#DejaVuSans-65"/>
     <use x="1214.324219" xlink:href="#DejaVuSans-37"/>
     <use x="1277.947266" xlink:href="#DejaVuSans-31"/>
     <use x="1341.570312" xlink:href="#DejaVuSans-65"/>
     <use x="1403.09375" xlink:href="#DejaVuSans-38"/>
     <use x="1466.716797" xlink:href="#DejaVuSans-63"/>
     <use x="1521.697266" xlink:href="#DejaVuSans-64"/>
     <use x="1585.173828" xlink:href="#DejaVuSans-39"/>
     <use x="1648.796875" xlink:href="#DejaVuSans-37"/>
     <use x="1712.419922" xlink:href="#DejaVuSans-38"/>
     <use x="1776.042969" xlink:href="#DejaVuSans-33"/>
     <use x="1839.666016" xlink:href="#DejaVuSans-37"/>
     <use x="1903.289062" xlink:href="#DejaVuSans-33"/>
    </g>
   </g>
  </g>
 </g>
 <defs>
  <clipPath id="pf73fd83b46">
   <rect height="288.034772" width="343.144" x="56.84" y="6.125228"/>
  </clipPath>
 </defs>
</svg>
