<?xml version="1.0" encoding="utf-8" standalone="no"?>
<!DOCTYPE svg PUBLIC "-//W3C//DTD SVG 1.1//EN"
  "http://www.w3.org/Graphics/SVG/1.1/DTD/svg11.dtd">
<!-- Created with matplotlib (http://matplotlib.org/) -->
<svg height="345pt" version="1.1" viewBox="0 0 460 345" width="460pt" xmlns="http://www.w3.org/2000/svg" xmlns:xlink="http://www.w3.org/1999/xlink">
 <defs>
  <style type="text/css">
*{stroke-linecap:butt;stroke-linejoin:round;}
  </style>
 </defs>
 <g id="figure_1">
  <g id="patch_1">
   <path d="M 0 345.6 
L 460.8 345.6 
L 460.8 0 
L 0 0 
z
" style="fill:#ffffff;"/>
  </g>
  <g id="axes_1">
   <g id="patch_2">
    <path d="M 56.84 294.16 
L 399.984 294.16 
L 399.984 6.125228 
L 56.84 6.125228 
z
" style="fill:#ffffff;"/>
   </g>
   <g id="matplotlib.axis_1">
    <g id="xtick_1">
     <g id="line2d_1">
      <path clip-path="url(#pa173b8b0e9)" d="M 56.84 294.16 
L 56.84 6.125228 
" style="fill:none;stroke:#b0b0b0;stroke-linecap:square;stroke-width:0.8;"/>
     </g>
     <g id="line2d_2">
      <defs>
       <path d="M 0 0 
L 0 3.5 
" id="m8ca5c0a651" style="stroke:#000000;stroke-width:0.8;"/>
      </defs>
      <g>
       <use style="stroke:#000000;stroke-width:0.8;" x="56.84" xlink:href="#m8ca5c0a651" y="294.16"/>
      </g>
     </g>
     <g id="text_1">
      <!-- 0 -->
      <defs>
       <path d="M 31.78125 66.40625 
Q 24.171875 66.40625 20.328125 58.90625 
Q 16.5 51.421875 16.5 36.375 
Q 16.5 21.390625 20.328125 13.890625 
Q 24.171875 6.390625 31.78125 6.390625 
Q 39.453125 6.390625 43.28125 13.890625 
Q 47.125 21.390625 47.125 36.375 
Q 47.125 51.421875 43.28125 58.90625 
Q 39.453125 66.40625 31.78125 66.40625 
M 31.78125 74.21875 
Q 44.046875 74.21875 50.515625 64.515625 
Q 56.984375 54.828125 56.984375 36.375 
Q 56.984375 17.96875 50.515625 8.265625 
Q 44.046875 -1.421875 31.78125 -1.421875 
Q 19.53125 -1.421875 13.0625 8.265625 
Q 6.59375 17.96875 6.59375 36.375 
Q 6.59375 54.828125 13.0625 64.515625 
Q 19.53125 74.21875 31.78125 74.21875 
" id="DejaVuSans-30"/>
      </defs>
      <g transform="translate(50.4775 316.356875)scale(0.2 -0.2)">
       <use xlink:href="#DejaVuSans-30"/>
      </g>
     </g>
    </g>
    <g id="xtick_2">
     <g id="line2d_3">
      <path clip-path="url(#pa173b8b0e9)" d="M 135.905438 294.16 
L 135.905438 6.125228 
" style="fill:none;stroke:#b0b0b0;stroke-linecap:square;stroke-width:0.8;"/>
     </g>
     <g id="line2d_4">
      <g>
       <use style="stroke:#000000;stroke-width:0.8;" x="135.905438" xlink:href="#m8ca5c0a651" y="294.16"/>
      </g>
     </g>
     <g id="text_2">
      <!-- 2 -->
      <defs>
       <path d="M 19.1875 8.296875 
L 53.609375 8.296875 
L 53.609375 0 
L 7.328125 0 
L 7.328125 8.296875 
Q 12.9375 14.109375 22.625 23.890625 
Q 32.328125 33.6875 34.8125 36.53125 
Q 39.546875 41.84375 41.421875 45.53125 
Q 43.3125 49.21875 43.3125 52.78125 
Q 43.3125 58.59375 39.234375 62.25 
Q 35.15625 65.921875 28.609375 65.921875 
Q 23.96875 65.921875 18.8125 64.3125 
Q 13.671875 62.703125 7.8125 59.421875 
L 7.8125 69.390625 
Q 13.765625 71.78125 18.9375 73 
Q 24.125 74.21875 28.421875 74.21875 
Q 39.75 74.21875 46.484375 68.546875 
Q 53.21875 62.890625 53.21875 53.421875 
Q 53.21875 48.921875 51.53125 44.890625 
Q 49.859375 40.875 45.40625 35.40625 
Q 44.1875 33.984375 37.640625 27.21875 
Q 31.109375 20.453125 19.1875 8.296875 
" id="DejaVuSans-32"/>
      </defs>
      <g transform="translate(129.542938 316.356875)scale(0.2 -0.2)">
       <use xlink:href="#DejaVuSans-32"/>
      </g>
     </g>
    </g>
    <g id="xtick_3">
     <g id="line2d_5">
      <path clip-path="url(#pa173b8b0e9)" d="M 214.970876 294.16 
L 214.970876 6.125228 
" style="fill:none;stroke:#b0b0b0;stroke-linecap:square;stroke-width:0.8;"/>
     </g>
     <g id="line2d_6">
      <g>
       <use style="stroke:#000000;stroke-width:0.8;" x="214.970876" xlink:href="#m8ca5c0a651" y="294.16"/>
      </g>
     </g>
     <g id="text_3">
      <!-- 4 -->
      <defs>
       <path d="M 37.796875 64.3125 
L 12.890625 25.390625 
L 37.796875 25.390625 
z
M 35.203125 72.90625 
L 47.609375 72.90625 
L 47.609375 25.390625 
L 58.015625 25.390625 
L 58.015625 17.1875 
L 47.609375 17.1875 
L 47.609375 0 
L 37.796875 0 
L 37.796875 17.1875 
L 4.890625 17.1875 
L 4.890625 26.703125 
z
" id="DejaVuSans-34"/>
      </defs>
      <g transform="translate(208.608376 316.356875)scale(0.2 -0.2)">
       <use xlink:href="#DejaVuSans-34"/>
      </g>
     </g>
    </g>
    <g id="xtick_4">
     <g id="line2d_7">
      <path clip-path="url(#pa173b8b0e9)" d="M 294.036313 294.16 
L 294.036313 6.125228 
" style="fill:none;stroke:#b0b0b0;stroke-linecap:square;stroke-width:0.8;"/>
     </g>
     <g id="line2d_8">
      <g>
       <use style="stroke:#000000;stroke-width:0.8;" x="294.036313" xlink:href="#m8ca5c0a651" y="294.16"/>
      </g>
     </g>
     <g id="text_4">
      <!-- 6 -->
      <defs>
       <path d="M 33.015625 40.375 
Q 26.375 40.375 22.484375 35.828125 
Q 18.609375 31.296875 18.609375 23.390625 
Q 18.609375 15.53125 22.484375 10.953125 
Q 26.375 6.390625 33.015625 6.390625 
Q 39.65625 6.390625 43.53125 10.953125 
Q 47.40625 15.53125 47.40625 23.390625 
Q 47.40625 31.296875 43.53125 35.828125 
Q 39.65625 40.375 33.015625 40.375 
M 52.59375 71.296875 
L 52.59375 62.3125 
Q 48.875 64.0625 45.09375 64.984375 
Q 41.3125 65.921875 37.59375 65.921875 
Q 27.828125 65.921875 22.671875 59.328125 
Q 17.53125 52.734375 16.796875 39.40625 
Q 19.671875 43.65625 24.015625 45.921875 
Q 28.375 48.1875 33.59375 48.1875 
Q 44.578125 48.1875 50.953125 41.515625 
Q 57.328125 34.859375 57.328125 23.390625 
Q 57.328125 12.15625 50.6875 5.359375 
Q 44.046875 -1.421875 33.015625 -1.421875 
Q 20.359375 -1.421875 13.671875 8.265625 
Q 6.984375 17.96875 6.984375 36.375 
Q 6.984375 53.65625 15.1875 63.9375 
Q 23.390625 74.21875 37.203125 74.21875 
Q 40.921875 74.21875 44.703125 73.484375 
Q 48.484375 72.75 52.59375 71.296875 
" id="DejaVuSans-36"/>
      </defs>
      <g transform="translate(287.673813 316.356875)scale(0.2 -0.2)">
       <use xlink:href="#DejaVuSans-36"/>
      </g>
     </g>
    </g>
    <g id="xtick_5">
     <g id="line2d_9">
      <path clip-path="url(#pa173b8b0e9)" d="M 373.101751 294.16 
L 373.101751 6.125228 
" style="fill:none;stroke:#b0b0b0;stroke-linecap:square;stroke-width:0.8;"/>
     </g>
     <g id="line2d_10">
      <g>
       <use style="stroke:#000000;stroke-width:0.8;" x="373.101751" xlink:href="#m8ca5c0a651" y="294.16"/>
      </g>
     </g>
     <g id="text_5">
      <!-- 8 -->
      <defs>
       <path d="M 31.78125 34.625 
Q 24.75 34.625 20.71875 30.859375 
Q 16.703125 27.09375 16.703125 20.515625 
Q 16.703125 13.921875 20.71875 10.15625 
Q 24.75 6.390625 31.78125 6.390625 
Q 38.8125 6.390625 42.859375 10.171875 
Q 46.921875 13.96875 46.921875 20.515625 
Q 46.921875 27.09375 42.890625 30.859375 
Q 38.875 34.625 31.78125 34.625 
M 21.921875 38.8125 
Q 15.578125 40.375 12.03125 44.71875 
Q 8.5 49.078125 8.5 55.328125 
Q 8.5 64.0625 14.71875 69.140625 
Q 20.953125 74.21875 31.78125 74.21875 
Q 42.671875 74.21875 48.875 69.140625 
Q 55.078125 64.0625 55.078125 55.328125 
Q 55.078125 49.078125 51.53125 44.71875 
Q 48 40.375 41.703125 38.8125 
Q 48.828125 37.15625 52.796875 32.3125 
Q 56.78125 27.484375 56.78125 20.515625 
Q 56.78125 9.90625 50.3125 4.234375 
Q 43.84375 -1.421875 31.78125 -1.421875 
Q 19.734375 -1.421875 13.25 4.234375 
Q 6.78125 9.90625 6.78125 20.515625 
Q 6.78125 27.484375 10.78125 32.3125 
Q 14.796875 37.15625 21.921875 38.8125 
M 18.3125 54.390625 
Q 18.3125 48.734375 21.84375 45.5625 
Q 25.390625 42.390625 31.78125 42.390625 
Q 38.140625 42.390625 41.71875 45.5625 
Q 45.3125 48.734375 45.3125 54.390625 
Q 45.3125 60.0625 41.71875 63.234375 
Q 38.140625 66.40625 31.78125 66.40625 
Q 25.390625 66.40625 21.84375 63.234375 
Q 18.3125 60.0625 18.3125 54.390625 
" id="DejaVuSans-38"/>
      </defs>
      <g transform="translate(366.739251 316.356875)scale(0.2 -0.2)">
       <use xlink:href="#DejaVuSans-38"/>
      </g>
     </g>
    </g>
    <g id="xtick_6">
     <g id="line2d_11">
      <defs>
       <path d="M 0 0 
L 0 2 
" id="m6453b09be6" style="stroke:#000000;stroke-width:0.6;"/>
      </defs>
      <g>
       <use style="stroke:#000000;stroke-width:0.6;" x="68.740534" xlink:href="#m6453b09be6" y="294.16"/>
      </g>
     </g>
    </g>
    <g id="xtick_7">
     <g id="line2d_12">
      <g>
       <use style="stroke:#000000;stroke-width:0.6;" x="80.641068" xlink:href="#m6453b09be6" y="294.16"/>
      </g>
     </g>
    </g>
    <g id="xtick_8">
     <g id="line2d_13">
      <g>
       <use style="stroke:#000000;stroke-width:0.6;" x="87.602435" xlink:href="#m6453b09be6" y="294.16"/>
      </g>
     </g>
    </g>
    <g id="xtick_9">
     <g id="line2d_14">
      <g>
       <use style="stroke:#000000;stroke-width:0.6;" x="92.541603" xlink:href="#m6453b09be6" y="294.16"/>
      </g>
     </g>
    </g>
    <g id="xtick_10">
     <g id="line2d_15">
      <g>
       <use style="stroke:#000000;stroke-width:0.6;" x="147.805972" xlink:href="#m6453b09be6" y="294.16"/>
      </g>
     </g>
    </g>
    <g id="xtick_11">
     <g id="line2d_16">
      <g>
       <use style="stroke:#000000;stroke-width:0.6;" x="159.706506" xlink:href="#m6453b09be6" y="294.16"/>
      </g>
     </g>
    </g>
    <g id="xtick_12">
     <g id="line2d_17">
      <g>
       <use style="stroke:#000000;stroke-width:0.6;" x="166.667872" xlink:href="#m6453b09be6" y="294.16"/>
      </g>
     </g>
    </g>
    <g id="xtick_13">
     <g id="line2d_18">
      <g>
       <use style="stroke:#000000;stroke-width:0.6;" x="171.60704" xlink:href="#m6453b09be6" y="294.16"/>
      </g>
     </g>
    </g>
    <g id="xtick_14">
     <g id="line2d_19">
      <g>
       <use style="stroke:#000000;stroke-width:0.6;" x="226.87141" xlink:href="#m6453b09be6" y="294.16"/>
      </g>
     </g>
    </g>
    <g id="xtick_15">
     <g id="line2d_20">
      <g>
       <use style="stroke:#000000;stroke-width:0.6;" x="238.771944" xlink:href="#m6453b09be6" y="294.16"/>
      </g>
     </g>
    </g>
    <g id="xtick_16">
     <g id="line2d_21">
      <g>
       <use style="stroke:#000000;stroke-width:0.6;" x="245.73331" xlink:href="#m6453b09be6" y="294.16"/>
      </g>
     </g>
    </g>
    <g id="xtick_17">
     <g id="line2d_22">
      <g>
       <use style="stroke:#000000;stroke-width:0.6;" x="250.672478" xlink:href="#m6453b09be6" y="294.16"/>
      </g>
     </g>
    </g>
    <g id="xtick_18">
     <g id="line2d_23">
      <g>
       <use style="stroke:#000000;stroke-width:0.6;" x="305.936848" xlink:href="#m6453b09be6" y="294.16"/>
      </g>
     </g>
    </g>
    <g id="xtick_19">
     <g id="line2d_24">
      <g>
       <use style="stroke:#000000;stroke-width:0.6;" x="317.837382" xlink:href="#m6453b09be6" y="294.16"/>
      </g>
     </g>
    </g>
    <g id="xtick_20">
     <g id="line2d_25">
      <g>
       <use style="stroke:#000000;stroke-width:0.6;" x="324.798748" xlink:href="#m6453b09be6" y="294.16"/>
      </g>
     </g>
    </g>
    <g id="xtick_21">
     <g id="line2d_26">
      <g>
       <use style="stroke:#000000;stroke-width:0.6;" x="329.737916" xlink:href="#m6453b09be6" y="294.16"/>
      </g>
     </g>
    </g>
    <g id="xtick_22">
     <g id="line2d_27">
      <g>
       <use style="stroke:#000000;stroke-width:0.6;" x="385.002285" xlink:href="#m6453b09be6" y="294.16"/>
      </g>
     </g>
    </g>
    <g id="xtick_23">
     <g id="line2d_28">
      <g>
       <use style="stroke:#000000;stroke-width:0.6;" x="396.90282" xlink:href="#m6453b09be6" y="294.16"/>
      </g>
     </g>
    </g>
    <g id="text_6">
     <!-- log10(# f-evals / dimension) -->
     <defs>
      <path d="M 9.421875 75.984375 
L 18.40625 75.984375 
L 18.40625 0 
L 9.421875 0 
z
" id="DejaVuSans-6c"/>
      <path d="M 30.609375 48.390625 
Q 23.390625 48.390625 19.1875 42.75 
Q 14.984375 37.109375 14.984375 27.296875 
Q 14.984375 17.484375 19.15625 11.84375 
Q 23.34375 6.203125 30.609375 6.203125 
Q 37.796875 6.203125 41.984375 11.859375 
Q 46.1875 17.53125 46.1875 27.296875 
Q 46.1875 37.015625 41.984375 42.703125 
Q 37.796875 48.390625 30.609375 48.390625 
M 30.609375 56 
Q 42.328125 56 49.015625 48.375 
Q 55.71875 40.765625 55.71875 27.296875 
Q 55.71875 13.875 49.015625 6.21875 
Q 42.328125 -1.421875 30.609375 -1.421875 
Q 18.84375 -1.421875 12.171875 6.21875 
Q 5.515625 13.875 5.515625 27.296875 
Q 5.515625 40.765625 12.171875 48.375 
Q 18.84375 56 30.609375 56 
" id="DejaVuSans-6f"/>
      <path d="M 45.40625 27.984375 
Q 45.40625 37.75 41.375 43.109375 
Q 37.359375 48.484375 30.078125 48.484375 
Q 22.859375 48.484375 18.828125 43.109375 
Q 14.796875 37.75 14.796875 27.984375 
Q 14.796875 18.265625 18.828125 12.890625 
Q 22.859375 7.515625 30.078125 7.515625 
Q 37.359375 7.515625 41.375 12.890625 
Q 45.40625 18.265625 45.40625 27.984375 
M 54.390625 6.78125 
Q 54.390625 -7.171875 48.1875 -13.984375 
Q 42 -20.796875 29.203125 -20.796875 
Q 24.46875 -20.796875 20.265625 -20.09375 
Q 16.0625 -19.390625 12.109375 -17.921875 
L 12.109375 -9.1875 
Q 16.0625 -11.328125 19.921875 -12.34375 
Q 23.78125 -13.375 27.78125 -13.375 
Q 36.625 -13.375 41.015625 -8.765625 
Q 45.40625 -4.15625 45.40625 5.171875 
L 45.40625 9.625 
Q 42.625 4.78125 38.28125 2.390625 
Q 33.9375 0 27.875 0 
Q 17.828125 0 11.671875 7.65625 
Q 5.515625 15.328125 5.515625 27.984375 
Q 5.515625 40.671875 11.671875 48.328125 
Q 17.828125 56 27.875 56 
Q 33.9375 56 38.28125 53.609375 
Q 42.625 51.21875 45.40625 46.390625 
L 45.40625 54.6875 
L 54.390625 54.6875 
z
" id="DejaVuSans-67"/>
      <path d="M 12.40625 8.296875 
L 28.515625 8.296875 
L 28.515625 63.921875 
L 10.984375 60.40625 
L 10.984375 69.390625 
L 28.421875 72.90625 
L 38.28125 72.90625 
L 38.28125 8.296875 
L 54.390625 8.296875 
L 54.390625 0 
L 12.40625 0 
z
" id="DejaVuSans-31"/>
      <path d="M 31 75.875 
Q 24.46875 64.65625 21.28125 53.65625 
Q 18.109375 42.671875 18.109375 31.390625 
Q 18.109375 20.125 21.3125 9.0625 
Q 24.515625 -2 31 -13.1875 
L 23.1875 -13.1875 
Q 15.875 -1.703125 12.234375 9.375 
Q 8.59375 20.453125 8.59375 31.390625 
Q 8.59375 42.28125 12.203125 53.3125 
Q 15.828125 64.359375 23.1875 75.875 
z
" id="DejaVuSans-28"/>
      <path d="M 51.125 44 
L 36.921875 44 
L 32.8125 27.6875 
L 47.125 27.6875 
z
M 43.796875 71.78125 
L 38.71875 51.515625 
L 52.984375 51.515625 
L 58.109375 71.78125 
L 65.921875 71.78125 
L 60.890625 51.515625 
L 76.125 51.515625 
L 76.125 44 
L 58.984375 44 
L 54.984375 27.6875 
L 70.515625 27.6875 
L 70.515625 20.21875 
L 53.078125 20.21875 
L 48 0 
L 40.1875 0 
L 45.21875 20.21875 
L 30.90625 20.21875 
L 25.875 0 
L 18.015625 0 
L 23.09375 20.21875 
L 7.71875 20.21875 
L 7.71875 27.6875 
L 24.90625 27.6875 
L 29 44 
L 13.28125 44 
L 13.28125 51.515625 
L 30.90625 51.515625 
L 35.890625 71.78125 
z
" id="DejaVuSans-23"/>
      <path id="DejaVuSans-20"/>
      <path d="M 37.109375 75.984375 
L 37.109375 68.5 
L 28.515625 68.5 
Q 23.6875 68.5 21.796875 66.546875 
Q 19.921875 64.59375 19.921875 59.515625 
L 19.921875 54.6875 
L 34.71875 54.6875 
L 34.71875 47.703125 
L 19.921875 47.703125 
L 19.921875 0 
L 10.890625 0 
L 10.890625 47.703125 
L 2.296875 47.703125 
L 2.296875 54.6875 
L 10.890625 54.6875 
L 10.890625 58.5 
Q 10.890625 67.625 15.140625 71.796875 
Q 19.390625 75.984375 28.609375 75.984375 
z
" id="DejaVuSans-66"/>
      <path d="M 4.890625 31.390625 
L 31.203125 31.390625 
L 31.203125 23.390625 
L 4.890625 23.390625 
z
" id="DejaVuSans-2d"/>
      <path d="M 56.203125 29.59375 
L 56.203125 25.203125 
L 14.890625 25.203125 
Q 15.484375 15.921875 20.484375 11.0625 
Q 25.484375 6.203125 34.421875 6.203125 
Q 39.59375 6.203125 44.453125 7.46875 
Q 49.3125 8.734375 54.109375 11.28125 
L 54.109375 2.78125 
Q 49.265625 0.734375 44.1875 -0.34375 
Q 39.109375 -1.421875 33.890625 -1.421875 
Q 20.796875 -1.421875 13.15625 6.1875 
Q 5.515625 13.8125 5.515625 26.8125 
Q 5.515625 40.234375 12.765625 48.109375 
Q 20.015625 56 32.328125 56 
Q 43.359375 56 49.78125 48.890625 
Q 56.203125 41.796875 56.203125 29.59375 
M 47.21875 32.234375 
Q 47.125 39.59375 43.09375 43.984375 
Q 39.0625 48.390625 32.421875 48.390625 
Q 24.90625 48.390625 20.390625 44.140625 
Q 15.875 39.890625 15.1875 32.171875 
z
" id="DejaVuSans-65"/>
      <path d="M 2.984375 54.6875 
L 12.5 54.6875 
L 29.59375 8.796875 
L 46.6875 54.6875 
L 56.203125 54.6875 
L 35.6875 0 
L 23.484375 0 
z
" id="DejaVuSans-76"/>
      <path d="M 34.28125 27.484375 
Q 23.390625 27.484375 19.1875 25 
Q 14.984375 22.515625 14.984375 16.5 
Q 14.984375 11.71875 18.140625 8.90625 
Q 21.296875 6.109375 26.703125 6.109375 
Q 34.1875 6.109375 38.703125 11.40625 
Q 43.21875 16.703125 43.21875 25.484375 
L 43.21875 27.484375 
z
M 52.203125 31.203125 
L 52.203125 0 
L 43.21875 0 
L 43.21875 8.296875 
Q 40.140625 3.328125 35.546875 0.953125 
Q 30.953125 -1.421875 24.3125 -1.421875 
Q 15.921875 -1.421875 10.953125 3.296875 
Q 6 8.015625 6 15.921875 
Q 6 25.140625 12.171875 29.828125 
Q 18.359375 34.515625 30.609375 34.515625 
L 43.21875 34.515625 
L 43.21875 35.40625 
Q 43.21875 41.609375 39.140625 45 
Q 35.0625 48.390625 27.6875 48.390625 
Q 23 48.390625 18.546875 47.265625 
Q 14.109375 46.140625 10.015625 43.890625 
L 10.015625 52.203125 
Q 14.9375 54.109375 19.578125 55.046875 
Q 24.21875 56 28.609375 56 
Q 40.484375 56 46.34375 49.84375 
Q 52.203125 43.703125 52.203125 31.203125 
" id="DejaVuSans-61"/>
      <path d="M 44.28125 53.078125 
L 44.28125 44.578125 
Q 40.484375 46.53125 36.375 47.5 
Q 32.28125 48.484375 27.875 48.484375 
Q 21.1875 48.484375 17.84375 46.4375 
Q 14.5 44.390625 14.5 40.28125 
Q 14.5 37.15625 16.890625 35.375 
Q 19.28125 33.59375 26.515625 31.984375 
L 29.59375 31.296875 
Q 39.15625 29.25 43.1875 25.515625 
Q 47.21875 21.78125 47.21875 15.09375 
Q 47.21875 7.46875 41.1875 3.015625 
Q 35.15625 -1.421875 24.609375 -1.421875 
Q 20.21875 -1.421875 15.453125 -0.5625 
Q 10.6875 0.296875 5.421875 2 
L 5.421875 11.28125 
Q 10.40625 8.6875 15.234375 7.390625 
Q 20.0625 6.109375 24.8125 6.109375 
Q 31.15625 6.109375 34.5625 8.28125 
Q 37.984375 10.453125 37.984375 14.40625 
Q 37.984375 18.0625 35.515625 20.015625 
Q 33.0625 21.96875 24.703125 23.78125 
L 21.578125 24.515625 
Q 13.234375 26.265625 9.515625 29.90625 
Q 5.8125 33.546875 5.8125 39.890625 
Q 5.8125 47.609375 11.28125 51.796875 
Q 16.75 56 26.8125 56 
Q 31.78125 56 36.171875 55.265625 
Q 40.578125 54.546875 44.28125 53.078125 
" id="DejaVuSans-73"/>
      <path d="M 25.390625 72.90625 
L 33.6875 72.90625 
L 8.296875 -9.28125 
L 0 -9.28125 
z
" id="DejaVuSans-2f"/>
      <path d="M 45.40625 46.390625 
L 45.40625 75.984375 
L 54.390625 75.984375 
L 54.390625 0 
L 45.40625 0 
L 45.40625 8.203125 
Q 42.578125 3.328125 38.25 0.953125 
Q 33.9375 -1.421875 27.875 -1.421875 
Q 17.96875 -1.421875 11.734375 6.484375 
Q 5.515625 14.40625 5.515625 27.296875 
Q 5.515625 40.1875 11.734375 48.09375 
Q 17.96875 56 27.875 56 
Q 33.9375 56 38.25 53.625 
Q 42.578125 51.265625 45.40625 46.390625 
M 14.796875 27.296875 
Q 14.796875 17.390625 18.875 11.75 
Q 22.953125 6.109375 30.078125 6.109375 
Q 37.203125 6.109375 41.296875 11.75 
Q 45.40625 17.390625 45.40625 27.296875 
Q 45.40625 37.203125 41.296875 42.84375 
Q 37.203125 48.484375 30.078125 48.484375 
Q 22.953125 48.484375 18.875 42.84375 
Q 14.796875 37.203125 14.796875 27.296875 
" id="DejaVuSans-64"/>
      <path d="M 9.421875 54.6875 
L 18.40625 54.6875 
L 18.40625 0 
L 9.421875 0 
z
M 9.421875 75.984375 
L 18.40625 75.984375 
L 18.40625 64.59375 
L 9.421875 64.59375 
z
" id="DejaVuSans-69"/>
      <path d="M 52 44.1875 
Q 55.375 50.25 60.0625 53.125 
Q 64.75 56 71.09375 56 
Q 79.640625 56 84.28125 50.015625 
Q 88.921875 44.046875 88.921875 33.015625 
L 88.921875 0 
L 79.890625 0 
L 79.890625 32.71875 
Q 79.890625 40.578125 77.09375 44.375 
Q 74.3125 48.1875 68.609375 48.1875 
Q 61.625 48.1875 57.5625 43.546875 
Q 53.515625 38.921875 53.515625 30.90625 
L 53.515625 0 
L 44.484375 0 
L 44.484375 32.71875 
Q 44.484375 40.625 41.703125 44.40625 
Q 38.921875 48.1875 33.109375 48.1875 
Q 26.21875 48.1875 22.15625 43.53125 
Q 18.109375 38.875 18.109375 30.90625 
L 18.109375 0 
L 9.078125 0 
L 9.078125 54.6875 
L 18.109375 54.6875 
L 18.109375 46.1875 
Q 21.1875 51.21875 25.484375 53.609375 
Q 29.78125 56 35.6875 56 
Q 41.65625 56 45.828125 52.96875 
Q 50 49.953125 52 44.1875 
" id="DejaVuSans-6d"/>
      <path d="M 54.890625 33.015625 
L 54.890625 0 
L 45.90625 0 
L 45.90625 32.71875 
Q 45.90625 40.484375 42.875 44.328125 
Q 39.84375 48.1875 33.796875 48.1875 
Q 26.515625 48.1875 22.3125 43.546875 
Q 18.109375 38.921875 18.109375 30.90625 
L 18.109375 0 
L 9.078125 0 
L 9.078125 54.6875 
L 18.109375 54.6875 
L 18.109375 46.1875 
Q 21.34375 51.125 25.703125 53.5625 
Q 30.078125 56 35.796875 56 
Q 45.21875 56 50.046875 50.171875 
Q 54.890625 44.34375 54.890625 33.015625 
" id="DejaVuSans-6e"/>
      <path d="M 8.015625 75.875 
L 15.828125 75.875 
Q 23.140625 64.359375 26.78125 53.3125 
Q 30.421875 42.28125 30.421875 31.390625 
Q 30.421875 20.453125 26.78125 9.375 
Q 23.140625 -1.703125 15.828125 -13.1875 
L 8.015625 -13.1875 
Q 14.5 -2 17.703125 9.0625 
Q 20.90625 20.125 20.90625 31.390625 
Q 20.90625 42.671875 17.703125 53.65625 
Q 14.5 64.65625 8.015625 75.875 
" id="DejaVuSans-29"/>
     </defs>
     <g transform="translate(107.571219 337.433594)scale(0.17 -0.17)">
      <use xlink:href="#DejaVuSans-6c"/>
      <use x="27.783203" xlink:href="#DejaVuSans-6f"/>
      <use x="88.964844" xlink:href="#DejaVuSans-67"/>
      <use x="152.441406" xlink:href="#DejaVuSans-31"/>
      <use x="216.064453" xlink:href="#DejaVuSans-30"/>
      <use x="279.6875" xlink:href="#DejaVuSans-28"/>
      <use x="318.701172" xlink:href="#DejaVuSans-23"/>
      <use x="402.490234" xlink:href="#DejaVuSans-20"/>
      <use x="434.277344" xlink:href="#DejaVuSans-66"/>
      <use x="469.404297" xlink:href="#DejaVuSans-2d"/>
      <use x="505.488281" xlink:href="#DejaVuSans-65"/>
      <use x="567.011719" xlink:href="#DejaVuSans-76"/>
      <use x="626.191406" xlink:href="#DejaVuSans-61"/>
      <use x="687.470703" xlink:href="#DejaVuSans-6c"/>
      <use x="715.253906" xlink:href="#DejaVuSans-73"/>
      <use x="767.353516" xlink:href="#DejaVuSans-20"/>
      <use x="799.140625" xlink:href="#DejaVuSans-2f"/>
      <use x="832.832031" xlink:href="#DejaVuSans-20"/>
      <use x="864.619141" xlink:href="#DejaVuSans-64"/>
      <use x="928.095703" xlink:href="#DejaVuSans-69"/>
      <use x="955.878906" xlink:href="#DejaVuSans-6d"/>
      <use x="1053.291016" xlink:href="#DejaVuSans-65"/>
      <use x="1114.814453" xlink:href="#DejaVuSans-6e"/>
      <use x="1178.193359" xlink:href="#DejaVuSans-73"/>
      <use x="1230.292969" xlink:href="#DejaVuSans-69"/>
      <use x="1258.076172" xlink:href="#DejaVuSans-6f"/>
      <use x="1319.257812" xlink:href="#DejaVuSans-6e"/>
      <use x="1382.636719" xlink:href="#DejaVuSans-29"/>
     </g>
    </g>
   </g>
   <g id="matplotlib.axis_2">
    <g id="ytick_1">
     <g id="line2d_29">
      <path clip-path="url(#pa173b8b0e9)" d="M 56.84 294.16 
L 399.984 294.16 
" style="fill:none;stroke:#b0b0b0;stroke-linecap:square;stroke-width:0.8;"/>
     </g>
     <g id="line2d_30">
      <defs>
       <path d="M 0 0 
L -3.5 0 
" id="m0a92e04aa0" style="stroke:#000000;stroke-width:0.8;"/>
      </defs>
      <g>
       <use style="stroke:#000000;stroke-width:0.8;" x="56.84" xlink:href="#m0a92e04aa0" y="294.16"/>
      </g>
     </g>
     <g id="text_7">
      <!-- 0.0 -->
      <defs>
       <path d="M 10.6875 12.40625 
L 21 12.40625 
L 21 0 
L 10.6875 0 
z
" id="DejaVuSans-2e"/>
      </defs>
      <g transform="translate(24.395 300.23875)scale(0.16 -0.16)">
       <use xlink:href="#DejaVuSans-30"/>
       <use x="63.623047" xlink:href="#DejaVuSans-2e"/>
       <use x="95.410156" xlink:href="#DejaVuSans-30"/>
      </g>
     </g>
    </g>
    <g id="ytick_2">
     <g id="line2d_31">
      <path clip-path="url(#pa173b8b0e9)" d="M 56.84 237.123411 
L 399.984 237.123411 
" style="fill:none;stroke:#b0b0b0;stroke-linecap:square;stroke-width:0.8;"/>
     </g>
     <g id="line2d_32">
      <g>
       <use style="stroke:#000000;stroke-width:0.8;" x="56.84" xlink:href="#m0a92e04aa0" y="237.123411"/>
      </g>
     </g>
     <g id="text_8">
      <!-- 0.2 -->
      <g transform="translate(24.395 243.202161)scale(0.16 -0.16)">
       <use xlink:href="#DejaVuSans-30"/>
       <use x="63.623047" xlink:href="#DejaVuSans-2e"/>
       <use x="95.410156" xlink:href="#DejaVuSans-32"/>
      </g>
     </g>
    </g>
    <g id="ytick_3">
     <g id="line2d_33">
      <path clip-path="url(#pa173b8b0e9)" d="M 56.84 180.086823 
L 399.984 180.086823 
" style="fill:none;stroke:#b0b0b0;stroke-linecap:square;stroke-width:0.8;"/>
     </g>
     <g id="line2d_34">
      <g>
       <use style="stroke:#000000;stroke-width:0.8;" x="56.84" xlink:href="#m0a92e04aa0" y="180.086823"/>
      </g>
     </g>
     <g id="text_9">
      <!-- 0.4 -->
      <g transform="translate(24.395 186.165573)scale(0.16 -0.16)">
       <use xlink:href="#DejaVuSans-30"/>
       <use x="63.623047" xlink:href="#DejaVuSans-2e"/>
       <use x="95.410156" xlink:href="#DejaVuSans-34"/>
      </g>
     </g>
    </g>
    <g id="ytick_4">
     <g id="line2d_35">
      <path clip-path="url(#pa173b8b0e9)" d="M 56.84 123.050234 
L 399.984 123.050234 
" style="fill:none;stroke:#b0b0b0;stroke-linecap:square;stroke-width:0.8;"/>
     </g>
     <g id="line2d_36">
      <g>
       <use style="stroke:#000000;stroke-width:0.8;" x="56.84" xlink:href="#m0a92e04aa0" y="123.050234"/>
      </g>
     </g>
     <g id="text_10">
      <!-- 0.6 -->
      <g transform="translate(24.395 129.128984)scale(0.16 -0.16)">
       <use xlink:href="#DejaVuSans-30"/>
       <use x="63.623047" xlink:href="#DejaVuSans-2e"/>
       <use x="95.410156" xlink:href="#DejaVuSans-36"/>
      </g>
     </g>
    </g>
    <g id="ytick_5">
     <g id="line2d_37">
      <path clip-path="url(#pa173b8b0e9)" d="M 56.84 66.013646 
L 399.984 66.013646 
" style="fill:none;stroke:#b0b0b0;stroke-linecap:square;stroke-width:0.8;"/>
     </g>
     <g id="line2d_38">
      <g>
       <use style="stroke:#000000;stroke-width:0.8;" x="56.84" xlink:href="#m0a92e04aa0" y="66.013646"/>
      </g>
     </g>
     <g id="text_11">
      <!-- 0.8 -->
      <g transform="translate(24.395 72.092396)scale(0.16 -0.16)">
       <use xlink:href="#DejaVuSans-30"/>
       <use x="63.623047" xlink:href="#DejaVuSans-2e"/>
       <use x="95.410156" xlink:href="#DejaVuSans-38"/>
      </g>
     </g>
    </g>
    <g id="ytick_6">
     <g id="line2d_39">
      <path clip-path="url(#pa173b8b0e9)" d="M 56.84 8.977057 
L 399.984 8.977057 
" style="fill:none;stroke:#b0b0b0;stroke-linecap:square;stroke-width:0.8;"/>
     </g>
     <g id="line2d_40">
      <g>
       <use style="stroke:#000000;stroke-width:0.8;" x="56.84" xlink:href="#m0a92e04aa0" y="8.977057"/>
      </g>
     </g>
     <g id="text_12">
      <!-- 1.0 -->
      <g transform="translate(24.395 15.055807)scale(0.16 -0.16)">
       <use xlink:href="#DejaVuSans-31"/>
       <use x="63.623047" xlink:href="#DejaVuSans-2e"/>
       <use x="95.410156" xlink:href="#DejaVuSans-30"/>
      </g>
     </g>
    </g>
    <g id="text_13">
     <!-- Fraction of function,target pairs -->
     <defs>
      <path d="M 9.8125 72.90625 
L 51.703125 72.90625 
L 51.703125 64.59375 
L 19.671875 64.59375 
L 19.671875 43.109375 
L 48.578125 43.109375 
L 48.578125 34.8125 
L 19.671875 34.8125 
L 19.671875 0 
L 9.8125 0 
z
" id="DejaVuSans-46"/>
      <path d="M 41.109375 46.296875 
Q 39.59375 47.171875 37.8125 47.578125 
Q 36.03125 48 33.890625 48 
Q 26.265625 48 22.1875 43.046875 
Q 18.109375 38.09375 18.109375 28.8125 
L 18.109375 0 
L 9.078125 0 
L 9.078125 54.6875 
L 18.109375 54.6875 
L 18.109375 46.1875 
Q 20.953125 51.171875 25.484375 53.578125 
Q 30.03125 56 36.53125 56 
Q 37.453125 56 38.578125 55.875 
Q 39.703125 55.765625 41.0625 55.515625 
z
" id="DejaVuSans-72"/>
      <path d="M 48.78125 52.59375 
L 48.78125 44.1875 
Q 44.96875 46.296875 41.140625 47.34375 
Q 37.3125 48.390625 33.40625 48.390625 
Q 24.65625 48.390625 19.8125 42.84375 
Q 14.984375 37.3125 14.984375 27.296875 
Q 14.984375 17.28125 19.8125 11.734375 
Q 24.65625 6.203125 33.40625 6.203125 
Q 37.3125 6.203125 41.140625 7.25 
Q 44.96875 8.296875 48.78125 10.40625 
L 48.78125 2.09375 
Q 45.015625 0.34375 40.984375 -0.53125 
Q 36.96875 -1.421875 32.421875 -1.421875 
Q 20.0625 -1.421875 12.78125 6.34375 
Q 5.515625 14.109375 5.515625 27.296875 
Q 5.515625 40.671875 12.859375 48.328125 
Q 20.21875 56 33.015625 56 
Q 37.15625 56 41.109375 55.140625 
Q 45.0625 54.296875 48.78125 52.59375 
" id="DejaVuSans-63"/>
      <path d="M 18.3125 70.21875 
L 18.3125 54.6875 
L 36.8125 54.6875 
L 36.8125 47.703125 
L 18.3125 47.703125 
L 18.3125 18.015625 
Q 18.3125 11.328125 20.140625 9.421875 
Q 21.96875 7.515625 27.59375 7.515625 
L 36.8125 7.515625 
L 36.8125 0 
L 27.59375 0 
Q 17.1875 0 13.234375 3.875 
Q 9.28125 7.765625 9.28125 18.015625 
L 9.28125 47.703125 
L 2.6875 47.703125 
L 2.6875 54.6875 
L 9.28125 54.6875 
L 9.28125 70.21875 
z
" id="DejaVuSans-74"/>
      <path d="M 8.5 21.578125 
L 8.5 54.6875 
L 17.484375 54.6875 
L 17.484375 21.921875 
Q 17.484375 14.15625 20.5 10.265625 
Q 23.53125 6.390625 29.59375 6.390625 
Q 36.859375 6.390625 41.078125 11.03125 
Q 45.3125 15.671875 45.3125 23.6875 
L 45.3125 54.6875 
L 54.296875 54.6875 
L 54.296875 0 
L 45.3125 0 
L 45.3125 8.40625 
Q 42.046875 3.421875 37.71875 1 
Q 33.40625 -1.421875 27.6875 -1.421875 
Q 18.265625 -1.421875 13.375 4.4375 
Q 8.5 10.296875 8.5 21.578125 
M 31.109375 56 
z
" id="DejaVuSans-75"/>
      <path d="M 11.71875 12.40625 
L 22.015625 12.40625 
L 22.015625 4 
L 14.015625 -11.625 
L 7.71875 -11.625 
L 11.71875 4 
z
" id="DejaVuSans-2c"/>
      <path d="M 18.109375 8.203125 
L 18.109375 -20.796875 
L 9.078125 -20.796875 
L 9.078125 54.6875 
L 18.109375 54.6875 
L 18.109375 46.390625 
Q 20.953125 51.265625 25.265625 53.625 
Q 29.59375 56 35.59375 56 
Q 45.5625 56 51.78125 48.09375 
Q 58.015625 40.1875 58.015625 27.296875 
Q 58.015625 14.40625 51.78125 6.484375 
Q 45.5625 -1.421875 35.59375 -1.421875 
Q 29.59375 -1.421875 25.265625 0.953125 
Q 20.953125 3.328125 18.109375 8.203125 
M 48.6875 27.296875 
Q 48.6875 37.203125 44.609375 42.84375 
Q 40.53125 48.484375 33.40625 48.484375 
Q 26.265625 48.484375 22.1875 42.84375 
Q 18.109375 37.203125 18.109375 27.296875 
Q 18.109375 17.390625 22.1875 11.75 
Q 26.265625 6.109375 33.40625 6.109375 
Q 40.53125 6.109375 44.609375 11.75 
Q 48.6875 17.390625 48.6875 27.296875 
" id="DejaVuSans-70"/>
     </defs>
     <g transform="translate(16.859531 285.281989)rotate(-90)scale(0.17 -0.17)">
      <use xlink:href="#DejaVuSans-46"/>
      <use x="57.410156" xlink:href="#DejaVuSans-72"/>
      <use x="98.523438" xlink:href="#DejaVuSans-61"/>
      <use x="159.802734" xlink:href="#DejaVuSans-63"/>
      <use x="214.783203" xlink:href="#DejaVuSans-74"/>
      <use x="253.992188" xlink:href="#DejaVuSans-69"/>
      <use x="281.775391" xlink:href="#DejaVuSans-6f"/>
      <use x="342.957031" xlink:href="#DejaVuSans-6e"/>
      <use x="406.335938" xlink:href="#DejaVuSans-20"/>
      <use x="438.123047" xlink:href="#DejaVuSans-6f"/>
      <use x="499.304688" xlink:href="#DejaVuSans-66"/>
      <use x="534.509766" xlink:href="#DejaVuSans-20"/>
      <use x="566.296875" xlink:href="#DejaVuSans-66"/>
      <use x="601.501953" xlink:href="#DejaVuSans-75"/>
      <use x="664.880859" xlink:href="#DejaVuSans-6e"/>
      <use x="728.259766" xlink:href="#DejaVuSans-63"/>
      <use x="783.240234" xlink:href="#DejaVuSans-74"/>
      <use x="822.449219" xlink:href="#DejaVuSans-69"/>
      <use x="850.232422" xlink:href="#DejaVuSans-6f"/>
      <use x="911.414062" xlink:href="#DejaVuSans-6e"/>
      <use x="974.792969" xlink:href="#DejaVuSans-2c"/>
      <use x="1006.580078" xlink:href="#DejaVuSans-74"/>
      <use x="1045.789062" xlink:href="#DejaVuSans-61"/>
      <use x="1107.068359" xlink:href="#DejaVuSans-72"/>
      <use x="1148.166016" xlink:href="#DejaVuSans-67"/>
      <use x="1211.642578" xlink:href="#DejaVuSans-65"/>
      <use x="1273.166016" xlink:href="#DejaVuSans-74"/>
      <use x="1312.375" xlink:href="#DejaVuSans-20"/>
      <use x="1344.162109" xlink:href="#DejaVuSans-70"/>
      <use x="1407.638672" xlink:href="#DejaVuSans-61"/>
      <use x="1468.917969" xlink:href="#DejaVuSans-69"/>
      <use x="1496.701172" xlink:href="#DejaVuSans-72"/>
      <use x="1537.814453" xlink:href="#DejaVuSans-73"/>
     </g>
    </g>
   </g>
   <g id="line2d_41">
    <defs>
     <path d="M 0 1.5 
C 0.397805 1.5 0.77937 1.341951 1.06066 1.06066 
C 1.341951 0.77937 1.5 0.397805 1.5 0 
C 1.5 -0.397805 1.341951 -0.77937 1.06066 -1.06066 
C 0.77937 -1.341951 0.397805 -1.5 0 -1.5 
C -0.397805 -1.5 -0.77937 -1.341951 -1.06066 -1.06066 
C -1.341951 -0.77937 -1.5 -0.397805 -1.5 0 
C -1.5 0.397805 -1.341951 0.77937 -1.06066 1.06066 
C -0.77937 1.341951 -0.397805 1.5 0 1.5 
z
" id="ma95e376833" style="stroke:#00bfbf;"/>
    </defs>
    <g>
     <use style="fill:#00bfbf;stroke:#00bfbf;" x="252.664222" xlink:href="#ma95e376833" y="192.133344"/>
     <use style="fill:#00bfbf;stroke:#00bfbf;" x="252.664222" xlink:href="#ma95e376833" y="192.133344"/>
    </g>
   </g>
   <g id="line2d_42">
    <path d="M 44.939466 294.16 
L 44.939466 286.538732 
L 75.7019 286.538732 
L 75.7019 285.555342 
L 112.777744 285.555342 
L 112.777744 285.432419 
L 113.425701 285.432419 
L 113.425701 285.186571 
L 113.740735 285.186571 
L 113.740735 285.063648 
L 116.07229 285.063648 
L 116.07229 284.694876 
L 121.011458 284.694876 
L 121.011458 284.449029 
L 121.415449 284.449029 
L 121.415449 283.588563 
L 122.942575 283.588563 
L 122.942575 283.342716 
L 126.846595 283.342716 
L 126.846595 282.851021 
L 129.157352 282.851021 
L 129.157352 282.48225 
L 129.781742 282.48225 
L 129.781742 282.359327 
L 131.418108 282.359327 
L 131.418108 282.236403 
L 132.393257 282.236403 
L 132.393257 281.498861 
L 133.115176 281.498861 
L 133.115176 281.253013 
L 133.315983 281.253013 
L 133.315983 280.638395 
L 134.380309 280.638395 
L 134.380309 280.392548 
L 135.558581 280.392548 
L 135.558581 279.777929 
L 135.819378 279.777929 
L 135.819378 279.532082 
L 136.824671 279.532082 
L 136.824671 279.409158 
L 137.067058 279.409158 
L 137.067058 279.286234 
L 137.774342 279.286234 
L 137.774342 279.040387 
L 138.304988 279.040387 
L 138.379474 278.302845 
L 138.892015 278.302845 
L 138.964001 277.934074 
L 139.529282 277.934074 
L 139.529282 277.565303 
L 140.866053 277.565303 
L 140.866053 276.950684 
L 141.804475 276.950684 
L 141.804475 276.704837 
L 142.578245 276.704837 
L 142.578245 276.336066 
L 142.751962 276.336066 
L 142.751962 276.213142 
L 142.980883 276.213142 
L 142.980883 275.967295 
L 143.921119 275.967295 
L 143.921119 275.844371 
L 144.914419 275.844371 
L 144.914419 275.598524 
L 145.365597 275.598524 
L 145.365597 275.352677 
L 145.513393 275.352677 
L 145.513393 275.229753 
L 146.044679 275.229753 
L 146.044679 274.983906 
L 146.327688 274.983906 
L 146.327688 274.492211 
L 146.652076 274.492211 
L 146.652076 274.369287 
L 147.194295 274.369287 
L 147.194295 274.246363 
L 147.371295 274.246363 
L 147.371295 273.877592 
L 147.762996 273.877592 
L 147.762996 273.754669 
L 148.103828 273.754669 
L 148.103828 273.631745 
L 148.396605 273.631745 
L 148.396605 273.14005 
L 148.887176 273.14005 
L 148.887176 273.017127 
L 149.047634 273.017127 
L 149.047634 272.771279 
L 149.980108 272.771279 
L 150.017883 272.279585 
L 150.168158 272.279585 
L 150.168158 272.033737 
L 150.31713 272.033737 
L 150.31713 271.542042 
L 150.46482 271.542042 
L 150.46482 270.066958 
L 150.900416 270.066958 
L 150.900416 269.944035 
L 151.325234 269.944035 
L 151.325234 269.821111 
L 152.798709 269.821111 
L 152.798709 269.575264 
L 153.021891 269.575264 
L 153.021891 269.45234 
L 153.210908 269.45234 
L 153.242209 269.206493 
L 154.244389 269.206493 
L 154.244389 268.960645 
L 154.594786 268.960645 
L 154.594786 268.223103 
L 154.824473 268.223103 
L 154.824473 268.100179 
L 155.163342 268.100179 
L 155.163342 267.731408 
L 155.440712 267.731408 
L 155.440712 267.362637 
L 156.890978 267.362637 
L 156.890978 267.239714 
L 157.389382 267.239714 
L 157.389382 267.11679 
L 157.584762 267.11679 
L 157.584762 266.993866 
L 158.040069 266.993866 
L 158.040069 266.748019 
L 158.598455 266.748019 
L 158.598455 265.764629 
L 158.960871 265.764629 
L 158.960871 265.395858 
L 160.025441 265.395858 
L 160.109499 264.904164 
L 160.625739 264.904164 
L 160.686658 264.166622 
L 160.767547 264.166622 
L 160.767547 263.674927 
L 160.908194 263.674927 
L 160.908194 263.183232 
L 161.067535 263.183232 
L 161.067535 262.937385 
L 161.709617 262.937385 
L 161.709617 262.322766 
L 161.918417 262.322766 
L 161.993719 260.847682 
L 162.291668 260.847682 
L 162.310119 259.864293 
L 162.872487 259.864293 
L 162.872487 259.495522 
L 163.014673 259.495522 
L 163.014673 259.003827 
L 163.173237 259.003827 
L 163.173237 258.880903 
L 163.571926 258.880903 
L 163.589052 258.389208 
L 163.793243 258.389208 
L 163.793243 258.143361 
L 163.911242 258.143361 
L 163.911242 257.651666 
L 164.586555 257.651666 
L 164.586555 257.528743 
L 164.84305 257.528743 
L 164.90658 256.914124 
L 165.696625 256.914124 
L 165.696625 256.791201 
L 166.189116 256.791201 
L 166.189116 256.668277 
L 166.538621 256.668277 
L 166.538621 256.42243 
L 166.810353 256.42243 
L 166.810353 256.299506 
L 167.962689 256.299506 
L 167.962689 255.684887 
L 168.147444 255.684887 
L 168.147444 255.070269 
L 168.549603 255.070269 
L 168.549603 254.947345 
L 168.854609 254.947345 
L 168.942558 254.332727 
L 169.33897 254.332727 
L 169.33897 254.08688 
L 170.314871 254.08688 
L 170.384147 253.10349 
L 170.872608 253.10349 
L 170.872608 252.857643 
L 171.617768 252.857643 
L 171.617768 252.734719 
L 172.051909 252.734719 
L 172.135354 252.120101 
L 172.708384 252.120101 
L 172.7285 251.75133 
L 173.096453 251.75133 
L 173.155385 251.259635 
L 173.543179 251.259635 
L 173.543179 251.013788 
L 174.099647 251.013788 
L 174.136729 250.645016 
L 174.457823 250.645016 
L 174.457823 249.907474 
L 174.862026 249.907474 
L 174.862026 249.538703 
L 175.003479 249.538703 
L 175.003479 249.41578 
L 175.42957 249.41578 
L 175.42957 249.047009 
L 175.702232 249.047009 
L 175.702232 248.924085 
L 176.26765 248.924085 
L 176.26765 248.43239 
L 176.430466 248.43239 
L 176.430466 248.186543 
L 176.759489 248.186543 
L 176.759489 248.063619 
L 176.933472 248.063619 
L 176.933472 247.940695 
L 177.058907 247.940695 
L 177.066716 247.326077 
L 177.276237 247.326077 
L 177.276237 247.08023 
L 177.437448 247.08023 
L 177.437448 246.834382 
L 178.148397 246.834382 
L 178.148397 246.465611 
L 178.781687 246.465611 
L 178.781687 246.219764 
L 178.894362 246.219764 
L 178.894362 246.09684 
L 179.14521 246.09684 
L 179.14521 245.482222 
L 179.50797 245.482222 
L 179.50797 245.359298 
L 179.796754 245.359298 
L 179.889739 244.990527 
L 180.418052 244.990527 
L 180.418052 244.74468 
L 181.446434 244.74468 
L 181.518876 244.130061 
L 182.278918 244.130061 
L 182.2962 243.269596 
L 182.604323 243.269596 
L 182.711434 242.40913 
L 182.851361 242.40913 
L 182.918122 241.302817 
L 183.318756 241.302817 
L 183.318756 240.934046 
L 183.884344 240.934046 
L 183.941984 240.688198 
L 184.061882 240.688198 
L 184.087836 240.319427 
L 184.186107 240.319427 
L 184.273559 240.07358 
L 184.513045 240.07358 
L 184.598852 239.827732 
L 184.639083 239.827732 
L 184.734257 239.09019 
L 184.838839 239.09019 
L 184.937853 238.721419 
L 185.051016 238.721419 
L 185.153692 238.475572 
L 185.246063 238.475572 
L 185.347583 238.106801 
L 185.362037 238.106801 
L 185.405326 237.492182 
L 185.743053 237.492182 
L 185.822941 237.123411 
L 185.91179 237.123411 
L 186.004821 236.877564 
L 186.161826 236.877564 
L 186.161826 236.75464 
L 186.575115 236.75464 
L 186.642295 236.508793 
L 186.731461 236.508793 
L 186.784739 236.262946 
L 186.87758 236.262946 
L 186.890802 236.017098 
L 187.035576 236.017098 
L 187.118381 235.279556 
L 187.295715 235.279556 
L 187.360139 234.664938 
L 187.462716 234.664938 
L 187.466977 234.41909 
L 187.58162 234.41909 
L 187.682887 234.050319 
L 187.90027 234.050319 
L 187.987284 233.681548 
L 188.049169 233.681548 
L 188.086193 233.435701 
L 188.229421 233.435701 
L 188.229421 233.312777 
L 188.343149 233.312777 
L 188.4078 233.06693 
L 188.61625 233.06693 
L 188.683852 232.452312 
L 188.869377 232.452312 
L 188.94772 232.08354 
L 189.165198 232.08354 
L 189.215292 231.837693 
L 189.486335 231.837693 
L 189.486335 231.591846 
L 189.682165 231.591846 
L 189.7718 231.223075 
L 190.307224 231.223075 
L 190.307224 231.100151 
L 190.759765 231.100151 
L 190.773826 230.854304 
L 190.96601 230.854304 
L 190.96601 230.73138 
L 191.200683 230.73138 
L 191.310018 230.239685 
L 191.327038 230.239685 
L 191.327038 230.116762 
L 191.459224 230.116762 
L 191.503061 229.74799 
L 191.650607 229.74799 
L 191.663957 229.502143 
L 191.783648 229.502143 
L 191.810133 229.256296 
L 191.997664 229.256296 
L 192.036885 229.010448 
L 192.318586 229.010448 
L 192.318586 228.887525 
L 192.921285 228.887525 
L 192.946073 228.641677 
L 193.575329 228.641677 
L 193.599191 228.149983 
L 194.153498 228.149983 
L 194.153498 228.027059 
L 194.521814 228.027059 
L 194.589474 227.658288 
L 194.659672 227.658288 
L 194.749107 227.412441 
L 194.860251 227.412441 
L 194.860251 227.289517 
L 194.998176 227.289517 
L 195.039339 227.043669 
L 195.249099 227.043669 
L 195.343605 226.674898 
L 195.613439 226.674898 
L 195.716508 226.306127 
L 195.811102 226.306127 
L 195.884317 225.937356 
L 196.042748 225.937356 
L 196.125278 225.445662 
L 196.296801 225.445662 
L 196.38826 225.076891 
L 196.418639 225.076891 
L 196.418639 224.953967 
L 196.838387 224.953967 
L 196.949098 224.462272 
L 197.063973 224.462272 
L 197.134472 223.847654 
L 197.180504 223.847654 
L 197.277013 223.110112 
L 197.325064 223.110112 
L 197.382549 222.741341 
L 197.496945 222.741341 
L 197.556226 222.003799 
L 197.676527 222.003799 
L 197.772633 221.635027 
L 197.940112 221.635027 
L 197.940112 221.512104 
L 198.170045 221.512104 
L 198.279329 221.266256 
L 198.360838 221.266256 
L 198.430717 220.897485 
L 198.93611 220.897485 
L 198.93611 220.774562 
L 199.109973 220.774562 
L 199.196249 220.405791 
L 199.222048 220.405791 
L 199.316312 220.159943 
L 199.663169 220.159943 
L 199.663169 220.03702 
L 199.7821 220.03702 
L 199.7821 219.914096 
L 199.912599 219.914096 
L 199.964111 219.668249 
L 200.027772 219.668249 
L 200.027772 219.545325 
L 200.328488 219.545325 
L 200.328488 219.422401 
L 200.488871 219.422401 
L 200.560557 219.05363 
L 200.639859 219.05363 
L 200.75027 218.807783 
L 201.33756 218.807783 
L 201.405796 218.070241 
L 202.353372 218.070241 
L 202.431956 217.70147 
L 202.540311 217.70147 
L 202.646226 217.086851 
L 202.730491 217.086851 
L 202.730491 216.963928 
L 203.354693 216.963928 
L 203.354693 216.841004 
L 203.469141 216.841004 
L 203.469141 216.71808 
L 203.596158 216.71808 
L 203.690807 216.472233 
L 203.730504 216.472233 
L 203.829346 215.857614 
L 204.135417 215.857614 
L 204.212696 215.488843 
L 204.358257 215.488843 
L 204.428198 215.120072 
L 204.570377 215.120072 
L 204.655123 214.751301 
L 204.686404 214.751301 
L 204.686404 214.628378 
L 204.804757 214.628378 
L 204.804757 214.505454 
L 205.008397 214.505454 
L 205.008397 214.38253 
L 205.173234 214.38253 
L 205.247502 213.890835 
L 205.634814 213.890835 
L 205.634814 213.767912 
L 205.881451 213.767912 
L 205.898933 213.522064 
L 206.192005 213.522064 
L 206.192005 213.399141 
L 206.387002 213.399141 
L 206.477342 213.153293 
L 206.624535 213.153293 
L 206.624535 213.03037 
L 206.778778 213.03037 
L 206.778778 212.907446 
L 207.339466 212.907446 
L 207.339466 212.784522 
L 207.556332 212.784522 
L 207.556332 212.661599 
L 207.855156 212.661599 
L 207.958786 212.292828 
L 208.113068 212.292828 
L 208.16036 211.924057 
L 208.262169 211.924057 
L 208.353284 211.678209 
L 208.898609 211.678209 
L 208.908388 211.432362 
L 209.131773 211.432362 
L 209.131773 211.309438 
L 209.301008 211.309438 
L 209.410539 210.817743 
L 209.476869 210.817743 
L 209.509938 210.571896 
L 209.822118 210.571896 
L 209.93299 210.326049 
L 209.960596 210.326049 
L 210.061441 209.957278 
L 210.225193 209.957278 
L 210.256854 209.71143 
L 210.565847 209.71143 
L 210.636711 209.465583 
L 210.907489 209.465583 
L 210.907489 209.342659 
L 211.033197 209.342659 
L 211.13332 208.973888 
L 211.17085 208.973888 
L 211.17085 208.850965 
L 211.569983 208.850965 
L 211.664951 208.482193 
L 211.718984 208.482193 
L 211.823448 207.990499 
L 212.027433 207.990499 
L 212.027433 207.867575 
L 212.209877 207.867575 
L 212.234057 207.621728 
L 212.410344 207.621728 
L 212.410344 207.498804 
L 212.680258 207.498804 
L 212.680258 207.37588 
L 213.120894 207.37588 
L 213.159096 207.130033 
L 213.242842 207.130033 
L 213.242842 207.007109 
L 213.457939 207.007109 
L 213.465437 206.638338 
L 213.596134 206.638338 
L 213.614724 206.392491 
L 213.755355 206.392491 
L 213.755355 206.269567 
L 214.068528 206.269567 
L 214.068528 206.146644 
L 214.213581 206.146644 
L 214.2986 205.777872 
L 214.512409 205.777872 
L 214.592455 205.04033 
L 214.638028 205.04033 
L 214.743608 204.425712 
L 214.78184 204.425712 
L 214.78184 204.302788 
L 215.18246 204.302788 
L 215.25776 204.056941 
L 215.307497 204.056941 
L 215.307497 203.934017 
L 215.733165 203.934017 
L 215.775812 203.68817 
L 215.977763 203.68817 
L 216.081073 203.442322 
L 216.174164 203.442322 
L 216.270733 202.827704 
L 217.101846 202.827704 
L 217.172218 202.213086 
L 217.642219 202.213086 
L 217.642219 202.090162 
L 218.137571 202.090162 
L 218.137571 201.967238 
L 218.499227 201.967238 
L 218.499227 201.844315 
L 219.288801 201.844315 
L 219.397269 200.983849 
L 219.691907 200.983849 
L 219.795922 200.492154 
L 219.995033 200.492154 
L 219.995033 200.36923 
L 220.163338 200.36923 
L 220.213383 200.123383 
L 220.369544 200.123383 
L 220.369544 200.000459 
L 220.541683 200.000459 
L 220.541683 199.877536 
L 220.98762 199.877536 
L 221.026275 199.631688 
L 221.234356 199.631688 
L 221.322344 199.385841 
L 221.376812 199.385841 
L 221.376812 199.262917 
L 221.585969 199.262917 
L 221.681471 198.894146 
L 221.711642 198.894146 
L 221.711642 198.771223 
L 222.135345 198.771223 
L 222.135345 198.648299 
L 222.292977 198.648299 
L 222.380177 198.402452 
L 223.025264 198.402452 
L 223.025264 198.279528 
L 223.500316 198.279528 
L 223.500316 198.156604 
L 223.855466 198.156604 
L 223.871831 197.910757 
L 224.004221 197.910757 
L 224.004221 197.787833 
L 224.456744 197.787833 
L 224.456744 197.664909 
L 224.657138 197.664909 
L 224.668365 197.419062 
L 224.883676 197.419062 
L 224.883676 197.296138 
L 225.042927 197.296138 
L 225.042927 197.173215 
L 225.232855 197.173215 
L 225.246072 196.927367 
L 225.474799 196.927367 
L 225.50829 196.68152 
L 226.347575 196.68152 
L 226.347575 196.558596 
L 226.699724 196.558596 
L 226.699724 196.435673 
L 226.904856 196.435673 
L 226.911709 196.189825 
L 227.492703 196.189825 
L 227.492703 196.066902 
L 227.938502 196.066902 
L 227.938502 195.943978 
L 228.680156 195.943978 
L 228.680156 195.821054 
L 228.86153 195.821054 
L 228.934764 195.452283 
L 229.291849 195.452283 
L 229.291849 195.329359 
L 229.807416 195.329359 
L 229.807416 195.206436 
L 229.994147 195.206436 
L 229.994147 195.083512 
L 230.429441 195.083512 
L 230.469864 194.714741 
L 230.918858 194.714741 
L 230.918858 194.591817 
L 231.159937 194.591817 
L 231.159937 194.468894 
L 231.489761 194.468894 
L 231.559154 194.100123 
L 232.097779 194.100123 
L 232.097779 193.977199 
L 232.235568 193.977199 
L 232.235568 193.854275 
L 232.506945 193.854275 
L 232.506945 193.731352 
L 233.366373 193.731352 
L 233.374604 193.485504 
L 234.857464 193.485504 
L 234.857464 193.362581 
L 236.437126 193.362581 
L 236.437126 193.239657 
L 236.708383 193.239657 
L 236.708383 193.116733 
L 237.274703 193.116733 
L 237.274703 192.993809 
L 238.475163 192.993809 
L 238.475163 192.870886 
L 240.458766 192.870886 
L 240.458766 192.747962 
L 240.745619 192.747962 
L 240.745619 192.625038 
L 240.924321 192.625038 
L 240.924321 192.502115 
L 244.263601 192.502115 
L 244.263601 192.379191 
L 244.839707 192.379191 
L 244.839707 192.256267 
L 252.664222 192.256267 
L 252.664222 192.133344 
L 333.569032 192.133344 
L 333.569032 192.133344 
" style="fill:none;stroke:#00bfbf;stroke-linecap:square;stroke-width:1.5;"/>
   </g>
   <g id="line2d_43">
    <defs>
     <path d="M -6 0 
L 6 0 
M 0 6 
L 0 -6 
" id="m4633dc24cb" style="stroke:#00bfbf;stroke-width:1.5;"/>
    </defs>
    <g>
     <use style="fill:none;stroke:#00bfbf;stroke-width:1.5;" x="138.964001" xlink:href="#m4633dc24cb" y="277.934074"/>
     <use style="fill:none;stroke:#00bfbf;stroke-width:1.5;" x="174.457823" xlink:href="#m4633dc24cb" y="250.645016"/>
     <use style="fill:none;stroke:#00bfbf;stroke-width:1.5;" x="209.960596" xlink:href="#m4633dc24cb" y="210.203125"/>
     <use style="fill:none;stroke:#00bfbf;stroke-width:1.5;" x="252.664222" xlink:href="#m4633dc24cb" y="192.256267"/>
     <use style="fill:none;stroke:#00bfbf;stroke-width:1.5;" x="252.664222" xlink:href="#m4633dc24cb" y="192.133344"/>
     <use style="fill:none;stroke:#00bfbf;stroke-width:1.5;" x="333.569032" xlink:href="#m4633dc24cb" y="192.133344"/>
    </g>
   </g>
   <g id="line2d_44">
    <path style="fill:none;stroke:#00bfbf;stroke-linecap:square;stroke-width:1.5;"/>
    <g/>
   </g>
   <g id="line2d_45">
    <path clip-path="url(#pa173b8b0e9)" d="M 182.956947 241.302817 
" style="fill:none;stroke:#00bfbf;stroke-linecap:square;stroke-width:1.5;"/>
    <defs>
     <path d="M -12 12 
L 12 -12 
M -12 -12 
L 12 12 
" id="m359cd4a1aa" style="stroke:#00bfbf;stroke-width:3;"/>
    </defs>
    <g clip-path="url(#pa173b8b0e9)">
     <use style="fill:#00bfbf;stroke:#00bfbf;stroke-width:3;" x="182.956947" xlink:href="#m359cd4a1aa" y="241.302817"/>
    </g>
   </g>
   <g id="line2d_46">
    <defs>
     <path d="M 0 1.5 
C 0.397805 1.5 0.77937 1.341951 1.06066 1.06066 
C 1.341951 0.77937 1.5 0.397805 1.5 0 
C 1.5 -0.397805 1.341951 -0.77937 1.06066 -1.06066 
C 0.77937 -1.341951 0.397805 -1.5 0 -1.5 
C -0.397805 -1.5 -0.77937 -1.341951 -1.06066 -1.06066 
C -1.341951 -0.77937 -1.5 -0.397805 -1.5 0 
C -1.5 0.397805 -1.341951 0.77937 -1.06066 1.06066 
C -0.77937 1.341951 -0.397805 1.5 0 1.5 
z
" id="m92985eb067" style="stroke:#008000;"/>
    </defs>
    <g>
     <use style="fill:#008000;stroke:#008000;" x="246.093112" xlink:href="#m92985eb067" y="249.907474"/>
     <use style="fill:#008000;stroke:#008000;" x="246.093112" xlink:href="#m92985eb067" y="249.907474"/>
    </g>
   </g>
   <g id="line2d_47">
    <path d="M 37.9781 294.16 
L 37.9781 279.163311 
L 143.649884 279.163311 
L 143.649884 279.040387 
L 148.887176 279.040387 
L 148.887176 278.425769 
L 150.304765 278.425769 
L 150.304765 277.934074 
L 150.816578 277.934074 
L 150.816578 277.565303 
L 151.173037 277.565303 
L 151.173037 277.319456 
L 151.999505 277.319456 
L 151.999505 277.196532 
L 152.37637 277.196532 
L 152.37637 276.950684 
L 154.361984 276.950684 
L 154.361984 276.704837 
L 155.767748 276.704837 
L 155.767748 276.581913 
L 156.351598 276.581913 
L 156.351598 276.45899 
L 156.627686 276.45899 
L 156.627686 276.336066 
L 157.033667 276.336066 
L 157.033667 276.213142 
L 159.168801 276.213142 
L 159.168801 276.090219 
L 160.255618 276.090219 
L 160.255618 275.844371 
L 162.031247 275.844371 
L 162.031247 275.106829 
L 163.434299 275.106829 
L 163.434299 274.983906 
L 164.022873 274.983906 
L 164.022873 274.860982 
L 164.667122 274.860982 
L 164.667122 274.492211 
L 165.349974 274.492211 
L 165.391122 274.246363 
L 167.063876 274.246363 
L 167.063876 274.12344 
L 167.578062 274.12344 
L 167.578062 274.000516 
L 169.067423 274.000516 
L 169.067423 273.754669 
L 171.076715 273.754669 
L 171.076715 273.508821 
L 171.799111 273.508821 
L 171.799111 273.385898 
L 172.808728 273.385898 
L 172.842046 272.771279 
L 173.288869 272.771279 
L 173.288869 272.525432 
L 173.699044 272.525432 
L 173.699044 272.402508 
L 173.850368 272.402508 
L 173.850368 271.910814 
L 174.099647 271.910814 
L 174.099647 271.419119 
L 174.369738 271.419119 
L 174.369738 271.296195 
L 174.820548 271.296195 
L 174.820548 271.173271 
L 175.248253 271.173271 
L 175.248253 271.050348 
L 175.778145 271.050348 
L 175.867683 270.312806 
L 176.023259 270.312806 
L 176.133528 268.714798 
L 176.155497 268.714798 
L 176.155497 268.591874 
L 178.211814 268.591874 
L 178.211814 268.46895 
L 179.010951 268.46895 
L 179.048093 268.223103 
L 179.305861 268.223103 
L 179.305861 268.100179 
L 179.559816 268.100179 
L 179.559816 267.977256 
L 179.734484 267.977256 
L 179.734484 267.854332 
L 180.091676 267.854332 
L 180.19176 267.485561 
L 180.317128 267.485561 
L 180.317128 267.362637 
L 181.610999 267.362637 
L 181.690706 266.993866 
L 182.555242 266.993866 
L 182.664538 266.502171 
L 182.858791 266.502171 
L 182.858791 266.379248 
L 183.09123 266.379248 
L 183.164367 266.1334 
L 183.222653 266.1334 
L 183.31333 265.887553 
L 183.342246 265.887553 
L 183.342246 265.764629 
L 183.471769 265.764629 
L 183.471769 265.641706 
L 183.990739 265.641706 
L 183.990739 265.518782 
L 185.688012 265.518782 
L 185.788525 265.272935 
L 185.838562 265.272935 
L 185.838562 265.150011 
L 186.000182 265.150011 
L 186.000182 265.027087 
L 186.655699 265.027087 
L 186.655699 264.904164 
L 187.401528 264.904164 
L 187.401528 264.658316 
L 187.787741 264.658316 
L 187.876714 264.289545 
L 187.898885 264.289545 
L 187.987284 263.79785 
L 188.053287 263.79785 
L 188.053287 263.674927 
L 188.638814 263.674927 
L 188.638814 263.552003 
L 189.728286 263.552003 
L 189.738242 263.306156 
L 189.975466 263.306156 
L 189.975466 263.183232 
L 190.279519 263.183232 
L 190.354099 262.937385 
L 190.932388 262.937385 
L 191.02498 262.691537 
L 191.061877 262.691537 
L 191.061877 262.568614 
L 191.487338 262.568614 
L 191.559099 262.322766 
L 191.641701 262.322766 
L 191.712821 262.076919 
L 192.457192 262.076919 
L 192.457192 261.953995 
L 192.992455 261.953995 
L 192.992455 261.831072 
L 193.955147 261.831072 
L 194.048319 261.585224 
L 194.263773 261.585224 
L 194.263773 261.462301 
L 194.829758 261.462301 
L 194.910952 261.216453 
L 194.955079 261.216453 
L 194.969762 260.847682 
L 195.887795 260.847682 
L 195.887795 260.724758 
L 196.175803 260.724758 
L 196.198022 260.478911 
L 196.38826 260.478911 
L 196.482595 260.11014 
L 196.807094 260.11014 
L 196.807094 259.987216 
L 196.985844 259.987216 
L 197.070468 259.372598 
L 197.268991 259.372598 
L 197.377766 258.635056 
L 197.384144 258.635056 
L 197.454136 258.389208 
L 198.68084 258.389208 
L 198.775174 258.020437 
L 198.863144 258.020437 
L 198.863144 257.897514 
L 199.393053 257.897514 
L 199.398724 257.651666 
L 199.775861 257.651666 
L 199.775861 257.528743 
L 200.926242 257.528743 
L 200.993545 257.037048 
L 201.304609 257.037048 
L 201.304609 256.914124 
L 201.557717 256.914124 
L 201.557717 256.791201 
L 201.825617 256.791201 
L 201.825617 256.668277 
L 202.050577 256.668277 
L 202.050577 256.545353 
L 202.447986 256.545353 
L 202.447986 256.42243 
L 202.898945 256.42243 
L 202.898945 256.299506 
L 203.155972 256.299506 
L 203.155972 256.176582 
L 203.664291 256.176582 
L 203.664291 256.053658 
L 204.575096 256.053658 
L 204.575096 255.930735 
L 204.687967 255.930735 
L 204.687967 255.807811 
L 204.899164 255.807811 
L 204.944377 255.561964 
L 205.070142 255.561964 
L 205.070142 255.43904 
L 205.328979 255.43904 
L 205.328979 255.316116 
L 206.087669 255.316116 
L 206.087669 255.193193 
L 207.42361 255.193193 
L 207.42361 255.070269 
L 208.0301 255.070269 
L 208.0301 254.947345 
L 208.164188 254.947345 
L 208.258362 254.455651 
L 209.094743 254.455651 
L 209.094743 254.332727 
L 210.004215 254.332727 
L 210.110883 254.08688 
L 210.162455 254.08688 
L 210.162455 253.963956 
L 210.743192 253.963956 
L 210.743192 253.841032 
L 211.188336 253.841032 
L 211.188336 253.718109 
L 211.35304 253.718109 
L 211.35304 253.595185 
L 211.675702 253.595185 
L 211.675702 253.472261 
L 212.463078 253.472261 
L 212.463078 253.349337 
L 212.881157 253.349337 
L 212.881157 253.226414 
L 213.423842 253.226414 
L 213.423842 253.10349 
L 214.153967 253.10349 
L 214.225838 252.857643 
L 214.287884 252.857643 
L 214.287884 252.734719 
L 214.618178 252.734719 
L 214.618178 252.611795 
L 215.341135 252.611795 
L 215.341135 252.488872 
L 218.334177 252.488872 
L 218.334177 252.365948 
L 219.012672 252.365948 
L 219.012672 252.243024 
L 219.201575 252.243024 
L 219.201575 252.120101 
L 219.427314 252.120101 
L 219.45907 251.874253 
L 220.393347 251.874253 
L 220.408364 251.628406 
L 221.644847 251.628406 
L 221.644847 251.505482 
L 221.8527 251.505482 
L 221.8527 251.382559 
L 222.0467 251.382559 
L 222.0467 251.259635 
L 222.792426 251.259635 
L 222.792426 251.136711 
L 226.837038 251.136711 
L 226.895429 250.890864 
L 227.269651 250.890864 
L 227.269651 250.76794 
L 228.886994 250.76794 
L 228.886994 250.645016 
L 229.256274 250.645016 
L 229.256274 250.522093 
L 232.91816 250.522093 
L 232.91816 250.399169 
L 233.352842 250.399169 
L 233.352842 250.276245 
L 236.341132 250.276245 
L 236.341132 250.153322 
L 237.431424 250.153322 
L 237.431424 250.030398 
L 246.093112 250.030398 
L 246.093112 249.907474 
L 333.569032 249.907474 
L 333.569032 249.907474 
" style="fill:none;stroke:#008000;stroke-linecap:square;stroke-width:1.5;"/>
   </g>
   <g id="line2d_48">
    <defs>
     <path d="M -0 6 
L 6 -6 
L -6 -6 
z
" id="m6b920b2813" style="stroke:#008000;stroke-linejoin:miter;stroke-width:1.5;"/>
    </defs>
    <g>
     <use style="fill:none;stroke:#008000;stroke-linejoin:miter;stroke-width:1.5;" x="174.820548" xlink:href="#m6b920b2813" y="271.173271"/>
     <use style="fill:none;stroke:#008000;stroke-linejoin:miter;stroke-width:1.5;" x="237.431424" xlink:href="#m6b920b2813" y="250.153322"/>
     <use style="fill:none;stroke:#008000;stroke-linejoin:miter;stroke-width:1.5;" x="246.093112" xlink:href="#m6b920b2813" y="249.907474"/>
     <use style="fill:none;stroke:#008000;stroke-linejoin:miter;stroke-width:1.5;" x="246.093112" xlink:href="#m6b920b2813" y="249.907474"/>
     <use style="fill:none;stroke:#008000;stroke-linejoin:miter;stroke-width:1.5;" x="333.569032" xlink:href="#m6b920b2813" y="249.907474"/>
    </g>
   </g>
   <g id="line2d_49">
    <path style="fill:none;stroke:#008000;stroke-linecap:square;stroke-width:1.5;"/>
    <g/>
   </g>
   <g id="line2d_50">
    <path clip-path="url(#pa173b8b0e9)" d="M 176.017727 270.312806 
" style="fill:none;stroke:#008000;stroke-linecap:square;stroke-width:1.5;"/>
    <defs>
     <path d="M -12 12 
L 12 -12 
M -12 -12 
L 12 12 
" id="m3c5da54b3b" style="stroke:#008000;stroke-width:3;"/>
    </defs>
    <g clip-path="url(#pa173b8b0e9)">
     <use style="fill:#008000;stroke:#008000;stroke-width:3;" x="176.017727" xlink:href="#m3c5da54b3b" y="270.312806"/>
    </g>
   </g>
   <g id="line2d_51">
    <defs>
     <path d="M 0 1.5 
C 0.397805 1.5 0.77937 1.341951 1.06066 1.06066 
C 1.341951 0.77937 1.5 0.397805 1.5 0 
C 1.5 -0.397805 1.341951 -0.77937 1.06066 -1.06066 
C 0.77937 -1.341951 0.397805 -1.5 0 -1.5 
C -0.397805 -1.5 -0.77937 -1.341951 -1.06066 -1.06066 
C -1.341951 -0.77937 -1.5 -0.397805 -1.5 0 
C -1.5 0.397805 -1.341951 0.77937 -1.06066 1.06066 
C -0.77937 1.341951 -0.397805 1.5 0 1.5 
z
" id="m5c582e1188" style="stroke:#0000ff;"/>
    </defs>
    <g>
     <use style="fill:#0000ff;stroke:#0000ff;" x="228.298923" xlink:href="#m5c582e1188" y="263.429079"/>
     <use style="fill:#0000ff;stroke:#0000ff;" x="228.298923" xlink:href="#m5c582e1188" y="263.429079"/>
    </g>
   </g>
   <g id="line2d_52">
    <path d="M 29.207815 294.16 
L 29.207815 282.113479 
L 142.519947 282.113479 
L 142.519947 281.990555 
L 148.46283 281.990555 
L 148.46283 281.867632 
L 165.81732 281.867632 
L 165.81732 281.744708 
L 167.030289 281.744708 
L 167.11971 280.761319 
L 167.164247 280.761319 
L 167.275085 277.934074 
L 167.297167 277.934074 
L 167.407154 275.844371 
L 167.429067 275.844371 
L 167.538214 275.229753 
L 172.288667 275.229753 
L 172.288667 275.106829 
L 178.596998 275.106829 
L 178.596998 274.983906 
L 178.928021 274.983906 
L 179.017457 274.615135 
L 179.039743 274.615135 
L 179.139675 273.508821 
L 179.161804 273.508821 
L 179.26103 272.402508 
L 179.283003 272.402508 
L 179.370613 272.156661 
L 179.436028 272.156661 
L 179.436028 272.033737 
L 185.600211 272.033737 
L 185.600211 271.910814 
L 185.948132 271.910814 
L 186.029853 271.419119 
L 186.081656 271.419119 
L 186.125934 271.050348 
L 187.945904 271.050348 
L 187.945904 270.927424 
L 190.451763 270.927424 
L 190.451763 270.8045 
L 190.86075 270.8045 
L 190.955583 270.189882 
L 191.000029 270.189882 
L 191.088578 269.575264 
L 191.132682 269.575264 
L 191.132682 269.45234 
L 194.769723 269.45234 
L 194.876307 269.083569 
L 194.938177 269.083569 
L 194.942588 268.837721 
L 195.980069 268.837721 
L 195.980069 268.714798 
L 197.933167 268.714798 
L 197.966481 268.223103 
L 198.047644 268.223103 
L 198.047644 268.100179 
L 198.917752 268.100179 
L 198.991067 267.854332 
L 200.707767 267.854332 
L 200.723521 267.608485 
L 201.503882 267.608485 
L 201.503882 267.485561 
L 202.880438 267.485561 
L 202.969091 267.239714 
L 203.004976 267.239714 
L 203.035281 266.993866 
L 204.873215 266.993866 
L 204.979234 266.625095 
L 205.001341 266.625095 
L 205.018516 266.379248 
L 206.729737 266.379248 
L 206.81388 265.887553 
L 208.954761 265.887553 
L 208.954761 265.764629 
L 209.851754 265.764629 
L 209.851754 265.641706 
L 210.420552 265.641706 
L 210.420552 265.518782 
L 212.644121 265.518782 
L 212.644121 265.395858 
L 213.712363 265.395858 
L 213.712363 265.272935 
L 215.905074 265.272935 
L 215.905074 265.150011 
L 217.101088 265.150011 
L 217.101088 265.027087 
L 218.621113 265.027087 
L 218.70309 264.658316 
L 218.745034 264.658316 
L 218.745034 264.535393 
L 218.974459 264.535393 
L 218.974459 264.412469 
L 221.099721 264.412469 
L 221.099721 264.289545 
L 223.166662 264.289545 
L 223.213466 263.920774 
L 225.102886 263.920774 
L 225.102886 263.79785 
L 227.261149 263.79785 
L 227.261149 263.674927 
L 228.295763 263.674927 
L 228.298923 263.429079 
L 333.569032 263.429079 
L 333.569032 263.429079 
" style="fill:none;stroke:#0000ff;stroke-linecap:square;stroke-width:1.5;"/>
   </g>
   <g id="line2d_53">
    <defs>
     <path d="M 0 -6 
L -1.347084 -1.854102 
L -5.706339 -1.854102 
L -2.179628 0.708204 
L -3.526712 4.854102 
L -0 2.291796 
L 3.526712 4.854102 
L 2.179628 0.708204 
L 5.706339 -1.854102 
L 1.347084 -1.854102 
z
" id="m1d83415d60" style="stroke:#0000ff;stroke-linejoin:bevel;stroke-width:1.5;"/>
    </defs>
    <g>
     <use style="fill:none;stroke:#0000ff;stroke-linejoin:bevel;stroke-width:1.5;" x="148.46283" xlink:href="#m1d83415d60" y="281.867632"/>
     <use style="fill:none;stroke:#0000ff;stroke-linejoin:bevel;stroke-width:1.5;" x="228.298923" xlink:href="#m1d83415d60" y="263.552003"/>
     <use style="fill:none;stroke:#0000ff;stroke-linejoin:bevel;stroke-width:1.5;" x="228.298923" xlink:href="#m1d83415d60" y="263.429079"/>
     <use style="fill:none;stroke:#0000ff;stroke-linejoin:bevel;stroke-width:1.5;" x="228.298923" xlink:href="#m1d83415d60" y="263.429079"/>
     <use style="fill:none;stroke:#0000ff;stroke-linejoin:bevel;stroke-width:1.5;" x="333.569032" xlink:href="#m1d83415d60" y="263.429079"/>
    </g>
   </g>
   <g id="line2d_54">
    <path style="fill:none;stroke:#0000ff;stroke-linecap:square;stroke-width:1.5;"/>
    <g/>
   </g>
   <g id="line2d_55">
    <path clip-path="url(#pa173b8b0e9)" d="M 167.247443 279.163311 
" style="fill:none;stroke:#0000ff;stroke-linecap:square;stroke-width:1.5;"/>
    <defs>
     <path d="M -12 12 
L 12 -12 
M -12 -12 
L 12 12 
" id="m8825bc5801" style="stroke:#0000ff;stroke-width:3;"/>
    </defs>
    <g clip-path="url(#pa173b8b0e9)">
     <use style="fill:#0000ff;stroke:#0000ff;stroke-width:3;" x="167.247443" xlink:href="#m8825bc5801" y="279.163311"/>
    </g>
   </g>
   <g id="line2d_56">
    <defs>
     <path d="M 0 1.5 
C 0.397805 1.5 0.77937 1.341951 1.06066 1.06066 
C 1.341951 0.77937 1.5 0.397805 1.5 0 
C 1.5 -0.397805 1.341951 -0.77937 1.06066 -1.06066 
C 0.77937 -1.341951 0.397805 -1.5 0 -1.5 
C -0.397805 -1.5 -0.77937 -1.341951 -1.06066 -1.06066 
C -1.341951 -0.77937 -1.5 -0.397805 -1.5 0 
C -1.5 0.397805 -1.341951 0.77937 -1.06066 1.06066 
C -0.77937 1.341951 -0.397805 1.5 0 1.5 
z
" id="m0f6b9df0db" style="stroke:#000000;"/>
    </defs>
    <g>
     <use style="stroke:#000000;" x="210.64864" xlink:href="#m0f6b9df0db" y="273.262974"/>
     <use style="stroke:#000000;" x="210.64864" xlink:href="#m0f6b9df0db" y="273.262974"/>
    </g>
   </g>
   <g id="line2d_57">
    <path d="M 17.307281 294.16 
L 17.307281 285.063648 
L 155.129755 285.063648 
L 155.196864 284.326105 
L 155.263713 284.326105 
L 155.374551 282.605174 
L 155.418687 282.605174 
L 155.484679 281.498861 
L 155.594105 281.498861 
L 155.594105 281.13009 
L 167.139209 281.13009 
L 167.250209 279.532082 
L 167.294409 279.532082 
L 167.382468 278.917463 
L 174.129319 278.917463 
L 174.218028 278.179921 
L 174.262211 278.179921 
L 174.298944 277.688227 
L 179.049484 277.688227 
L 179.132754 277.319456 
L 179.182523 277.319456 
L 179.259656 276.581913 
L 182.927004 276.581913 
L 182.927004 276.45899 
L 186.054849 276.45899 
L 186.113953 276.090219 
L 188.677501 276.090219 
L 188.785153 275.721448 
L 188.810385 275.721448 
L 188.810385 275.598524 
L 191.038134 275.598524 
L 191.107199 275.106829 
L 191.197941 275.106829 
L 191.197941 274.983906 
L 192.982571 274.983906 
L 193.034399 274.738058 
L 194.829203 274.738058 
L 194.829203 274.615135 
L 196.462087 274.615135 
L 196.538613 274.12344 
L 198.030613 274.12344 
L 198.030613 274.000516 
L 199.418558 274.000516 
L 199.437237 273.754669 
L 205.955627 273.754669 
L 205.955627 273.631745 
L 207.698005 273.631745 
L 207.698005 273.508821 
L 208.472018 273.508821 
L 208.472018 273.385898 
L 210.64864 273.385898 
L 210.64864 273.262974 
L 333.569032 273.262974 
L 333.569032 273.262974 
" style="fill:none;stroke:#000000;stroke-linecap:square;stroke-width:1.5;"/>
   </g>
   <g id="line2d_58">
    <defs>
     <path d="M 0 6 
C 1.591219 6 3.117479 5.367802 4.242641 4.242641 
C 5.367802 3.117479 6 1.591219 6 0 
C 6 -1.591219 5.367802 -3.117479 4.242641 -4.242641 
C 3.117479 -5.367802 1.591219 -6 0 -6 
C -1.591219 -6 -3.117479 -5.367802 -4.242641 -4.242641 
C -5.367802 -3.117479 -6 -1.591219 -6 0 
C -6 1.591219 -5.367802 3.117479 -4.242641 4.242641 
C -3.117479 5.367802 -1.591219 6 0 6 
z
" id="m81091a6f7e" style="stroke:#000000;stroke-width:1.5;"/>
    </defs>
    <g>
     <use style="fill:none;stroke:#000000;stroke-width:1.5;" x="186.113953" xlink:href="#m81091a6f7e" y="276.213142"/>
     <use style="fill:none;stroke:#000000;stroke-width:1.5;" x="210.64864" xlink:href="#m81091a6f7e" y="273.385898"/>
     <use style="fill:none;stroke:#000000;stroke-width:1.5;" x="210.64864" xlink:href="#m81091a6f7e" y="273.262974"/>
     <use style="fill:none;stroke:#000000;stroke-width:1.5;" x="210.64864" xlink:href="#m81091a6f7e" y="273.262974"/>
     <use style="fill:none;stroke:#000000;stroke-width:1.5;" x="333.569032" xlink:href="#m81091a6f7e" y="273.262974"/>
    </g>
   </g>
   <g id="line2d_59">
    <path style="fill:none;stroke:#000000;stroke-linecap:square;stroke-width:1.5;"/>
    <g/>
   </g>
   <g id="line2d_60">
    <path clip-path="url(#pa173b8b0e9)" d="M 155.369026 282.851021 
" style="fill:none;stroke:#000000;stroke-linecap:square;stroke-width:1.5;"/>
    <defs>
     <path d="M -12 12 
L 12 -12 
M -12 -12 
L 12 12 
" id="m30eb89e097" style="stroke:#000000;stroke-width:3;"/>
    </defs>
    <g clip-path="url(#pa173b8b0e9)">
     <use style="stroke:#000000;stroke-width:3;" x="155.369026" xlink:href="#m30eb89e097" y="282.851021"/>
    </g>
   </g>
   <g id="line2d_61">
    <defs>
     <path d="M 0 1.5 
C 0.397805 1.5 0.77937 1.341951 1.06066 1.06066 
C 1.341951 0.77937 1.5 0.397805 1.5 0 
C 1.5 -0.397805 1.341951 -0.77937 1.06066 -1.06066 
C 0.77937 -1.341951 0.397805 -1.5 0 -1.5 
C -0.397805 -1.5 -0.77937 -1.341951 -1.06066 -1.06066 
C -1.341951 -0.77937 -1.5 -0.397805 -1.5 0 
C -1.5 0.397805 -1.341951 0.77937 -1.06066 1.06066 
C -0.77937 1.341951 -0.397805 1.5 0 1.5 
z
" id="m3d6b24e05c" style="stroke:#ff0000;"/>
    </defs>
    <g>
     <use style="fill:#ff0000;stroke:#ff0000;" x="209.872215" xlink:href="#m3d6b24e05c" y="273.262974"/>
     <use style="fill:#ff0000;stroke:#ff0000;" x="209.872215" xlink:href="#m3d6b24e05c" y="273.262974"/>
    </g>
   </g>
   <g id="line2d_62">
    <path d="M 5.406747 294.16 
L 5.406747 284.080258 
L 143.318642 284.080258 
L 143.4076 283.342716 
L 143.451906 283.342716 
L 143.562175 280.392548 
L 143.584145 280.392548 
L 143.671741 280.1467 
L 155.27205 280.1467 
L 155.382835 279.409158 
L 155.415932 279.409158 
L 155.459962 278.671616 
L 162.213955 278.671616 
L 162.324866 278.179921 
L 162.3396 278.179921 
L 162.449704 277.442379 
L 162.493548 277.442379 
L 162.493548 277.319456 
L 167.248826 277.319456 
L 167.281989 276.827761 
L 167.386585 276.827761 
L 167.386585 276.704837 
L 170.982014 276.704837 
L 171.053088 276.45899 
L 171.115038 276.45899 
L 171.115038 276.336066 
L 174.154315 276.336066 
L 174.246576 275.721448 
L 176.86251 275.721448 
L 176.941339 275.229753 
L 179.148668 275.229753 
L 179.201149 274.983906 
L 181.160951 274.983906 
L 181.227254 274.615135 
L 183.034886 274.615135 
L 183.034886 274.492211 
L 184.634059 274.492211 
L 184.634059 274.369287 
L 186.131921 274.369287 
L 186.131921 274.246363 
L 187.465273 274.246363 
L 187.465273 274.12344 
L 188.71993 274.12344 
L 188.803686 273.877592 
L 193.118902 273.877592 
L 193.118902 273.754669 
L 193.932749 273.754669 
L 193.932749 273.631745 
L 196.520268 273.631745 
L 196.520268 273.508821 
L 203.418407 273.508821 
L 203.418407 273.385898 
L 209.872215 273.385898 
L 209.872215 273.262974 
L 333.569032 273.262974 
L 333.569032 273.262974 
" style="fill:none;stroke:#ff0000;stroke-linecap:square;stroke-width:1.5;"/>
   </g>
   <g id="line2d_63">
    <defs>
     <path d="M -6 6 
L 6 6 
L 6 -6 
L -6 -6 
z
" id="med07bd7979" style="stroke:#ff0000;stroke-linejoin:miter;stroke-width:1.5;"/>
    </defs>
    <g>
     <use style="fill:none;stroke:#ff0000;stroke-linejoin:miter;stroke-width:1.5;" x="176.941339" xlink:href="#med07bd7979" y="275.229753"/>
     <use style="fill:none;stroke:#ff0000;stroke-linejoin:miter;stroke-width:1.5;" x="209.872215" xlink:href="#med07bd7979" y="273.385898"/>
     <use style="fill:none;stroke:#ff0000;stroke-linejoin:miter;stroke-width:1.5;" x="209.872215" xlink:href="#med07bd7979" y="273.262974"/>
     <use style="fill:none;stroke:#ff0000;stroke-linejoin:miter;stroke-width:1.5;" x="209.872215" xlink:href="#med07bd7979" y="273.262974"/>
     <use style="fill:none;stroke:#ff0000;stroke-linejoin:miter;stroke-width:1.5;" x="333.569032" xlink:href="#med07bd7979" y="273.262974"/>
    </g>
   </g>
   <g id="line2d_64">
    <path style="fill:none;stroke:#ff0000;stroke-linecap:square;stroke-width:1.5;"/>
    <g/>
   </g>
   <g id="line2d_65">
    <path clip-path="url(#pa173b8b0e9)" d="M 143.446374 283.342716 
" style="fill:none;stroke:#ff0000;stroke-linecap:square;stroke-width:1.5;"/>
    <defs>
     <path d="M -12 12 
L 12 -12 
M -12 -12 
L 12 12 
" id="m0b318d441a" style="stroke:#ff0000;stroke-width:3;"/>
    </defs>
    <g clip-path="url(#pa173b8b0e9)">
     <use style="fill:#ff0000;stroke:#ff0000;stroke-width:3;" x="143.446374" xlink:href="#m0b318d441a" y="283.342716"/>
    </g>
   </g>
   <g id="line2d_66">
    <path d="M 333.569032 273.262974 
L 364.009226 288.456341 
" style="fill:none;stroke:#000000;stroke-linecap:square;stroke-width:1.5;"/>
    <g>
     <use style="fill:none;stroke:#000000;stroke-width:1.5;" x="333.569032" xlink:href="#m81091a6f7e" y="273.262974"/>
     <use style="fill:none;stroke:#000000;stroke-width:1.5;" x="364.009226" xlink:href="#m81091a6f7e" y="288.456341"/>
    </g>
   </g>
   <g id="line2d_67">
    <path d="M 333.569032 273.262974 
L 364.009226 220.012435 
" style="fill:none;stroke:#ff0000;stroke-linecap:square;stroke-width:1.5;"/>
    <g>
     <use style="fill:none;stroke:#ff0000;stroke-linejoin:miter;stroke-width:1.5;" x="333.569032" xlink:href="#med07bd7979" y="273.262974"/>
     <use style="fill:none;stroke:#ff0000;stroke-linejoin:miter;stroke-width:1.5;" x="364.009226" xlink:href="#med07bd7979" y="220.012435"/>
    </g>
   </g>
   <g id="line2d_68">
    <path d="M 333.569032 263.429079 
L 364.009226 151.568529 
" style="fill:none;stroke:#0000ff;stroke-linecap:square;stroke-width:1.5;"/>
    <g>
     <use style="fill:none;stroke:#0000ff;stroke-linejoin:bevel;stroke-width:1.5;" x="333.569032" xlink:href="#m1d83415d60" y="263.429079"/>
     <use style="fill:none;stroke:#0000ff;stroke-linejoin:bevel;stroke-width:1.5;" x="364.009226" xlink:href="#m1d83415d60" y="151.568529"/>
    </g>
   </g>
   <g id="line2d_69">
    <path d="M 333.569032 249.907474 
L 364.009226 83.124622 
" style="fill:none;stroke:#008000;stroke-linecap:square;stroke-width:1.5;"/>
    <g>
     <use style="fill:none;stroke:#008000;stroke-linejoin:miter;stroke-width:1.5;" x="333.569032" xlink:href="#m6b920b2813" y="249.907474"/>
     <use style="fill:none;stroke:#008000;stroke-linejoin:miter;stroke-width:1.5;" x="364.009226" xlink:href="#m6b920b2813" y="83.124622"/>
    </g>
   </g>
   <g id="line2d_70">
    <path d="M 333.569032 192.133344 
L 364.009226 14.680716 
" style="fill:none;stroke:#00bfbf;stroke-linecap:square;stroke-width:1.5;"/>
    <g>
     <use style="fill:none;stroke:#00bfbf;stroke-width:1.5;" x="333.569032" xlink:href="#m4633dc24cb" y="192.133344"/>
     <use style="fill:none;stroke:#00bfbf;stroke-width:1.5;" x="364.009226" xlink:href="#m4633dc24cb" y="14.680716"/>
    </g>
   </g>
   <g id="line2d_71">
    <path d="M 333.569032 294.16 
L 333.569032 8.977057 
" style="fill:none;stroke:#000000;stroke-linecap:square;stroke-width:1.5;"/>
   </g>
   <g id="patch_3">
    <path d="M 56.84 294.16 
L 56.84 6.125228 
" style="fill:none;stroke:#000000;stroke-linecap:square;stroke-linejoin:miter;stroke-width:0.8;"/>
   </g>
   <g id="patch_4">
    <path d="M 399.984 294.16 
L 399.984 6.125228 
" style="fill:none;stroke:#000000;stroke-linecap:square;stroke-linejoin:miter;stroke-width:0.8;"/>
   </g>
   <g id="patch_5">
    <path d="M 56.84 294.16 
L 399.984 294.16 
" style="fill:none;stroke:#000000;stroke-linecap:square;stroke-linejoin:miter;stroke-width:0.8;"/>
   </g>
   <g id="patch_6">
    <path d="M 56.84 6.125228 
L 399.984 6.125228 
" style="fill:none;stroke:#000000;stroke-linecap:square;stroke-linejoin:miter;stroke-width:0.8;"/>
   </g>
   <g id="text_14">
    <!-- 10-D -->
    <defs>
     <path d="M 19.671875 64.796875 
L 19.671875 8.109375 
L 31.59375 8.109375 
Q 46.6875 8.109375 53.6875 14.9375 
Q 60.6875 21.78125 60.6875 36.53125 
Q 60.6875 51.171875 53.6875 57.984375 
Q 46.6875 64.796875 31.59375 64.796875 
z
M 9.8125 72.90625 
L 30.078125 72.90625 
Q 51.265625 72.90625 61.171875 64.09375 
Q 71.09375 55.28125 71.09375 36.53125 
Q 71.09375 17.671875 61.125 8.828125 
Q 51.171875 0 30.078125 0 
L 9.8125 0 
z
" id="DejaVuSans-44"/>
    </defs>
    <g transform="translate(369.543806 293.147279)scale(0.17 -0.17)">
     <use xlink:href="#DejaVuSans-31"/>
     <use x="63.623047" xlink:href="#DejaVuSans-30"/>
     <use x="127.246094" xlink:href="#DejaVuSans-2d"/>
     <use x="163.330078" xlink:href="#DejaVuSans-44"/>
    </g>
   </g>
   <g id="text_15">
    <!-- 20-D -->
    <g transform="translate(369.543806 224.703372)scale(0.17 -0.17)">
     <use xlink:href="#DejaVuSans-32"/>
     <use x="63.623047" xlink:href="#DejaVuSans-30"/>
     <use x="127.246094" xlink:href="#DejaVuSans-2d"/>
     <use x="163.330078" xlink:href="#DejaVuSans-44"/>
    </g>
   </g>
   <g id="text_16">
    <!-- 5-D -->
    <defs>
     <path d="M 10.796875 72.90625 
L 49.515625 72.90625 
L 49.515625 64.59375 
L 19.828125 64.59375 
L 19.828125 46.734375 
Q 21.96875 47.46875 24.109375 47.828125 
Q 26.265625 48.1875 28.421875 48.1875 
Q 40.625 48.1875 47.75 41.5 
Q 54.890625 34.8125 54.890625 23.390625 
Q 54.890625 11.625 47.5625 5.09375 
Q 40.234375 -1.421875 26.90625 -1.421875 
Q 22.3125 -1.421875 17.546875 -0.640625 
Q 12.796875 0.140625 7.71875 1.703125 
L 7.71875 11.625 
Q 12.109375 9.234375 16.796875 8.0625 
Q 21.484375 6.890625 26.703125 6.890625 
Q 35.15625 6.890625 40.078125 11.328125 
Q 45.015625 15.765625 45.015625 23.390625 
Q 45.015625 31 40.078125 35.4375 
Q 35.15625 39.890625 26.703125 39.890625 
Q 22.75 39.890625 18.8125 39.015625 
Q 14.890625 38.140625 10.796875 36.28125 
z
" id="DejaVuSans-35"/>
    </defs>
    <g transform="translate(369.543806 156.259466)scale(0.17 -0.17)">
     <use xlink:href="#DejaVuSans-35"/>
     <use x="63.623047" xlink:href="#DejaVuSans-2d"/>
     <use x="99.707031" xlink:href="#DejaVuSans-44"/>
    </g>
   </g>
   <g id="text_17">
    <!-- 3-D -->
    <defs>
     <path d="M 40.578125 39.3125 
Q 47.65625 37.796875 51.625 33 
Q 55.609375 28.21875 55.609375 21.1875 
Q 55.609375 10.40625 48.1875 4.484375 
Q 40.765625 -1.421875 27.09375 -1.421875 
Q 22.515625 -1.421875 17.65625 -0.515625 
Q 12.796875 0.390625 7.625 2.203125 
L 7.625 11.71875 
Q 11.71875 9.328125 16.59375 8.109375 
Q 21.484375 6.890625 26.8125 6.890625 
Q 36.078125 6.890625 40.9375 10.546875 
Q 45.796875 14.203125 45.796875 21.1875 
Q 45.796875 27.640625 41.28125 31.265625 
Q 36.765625 34.90625 28.71875 34.90625 
L 20.21875 34.90625 
L 20.21875 43.015625 
L 29.109375 43.015625 
Q 36.375 43.015625 40.234375 45.921875 
Q 44.09375 48.828125 44.09375 54.296875 
Q 44.09375 59.90625 40.109375 62.90625 
Q 36.140625 65.921875 28.71875 65.921875 
Q 24.65625 65.921875 20.015625 65.03125 
Q 15.375 64.15625 9.8125 62.3125 
L 9.8125 71.09375 
Q 15.4375 72.65625 20.34375 73.4375 
Q 25.25 74.21875 29.59375 74.21875 
Q 40.828125 74.21875 47.359375 69.109375 
Q 53.90625 64.015625 53.90625 55.328125 
Q 53.90625 49.265625 50.4375 45.09375 
Q 46.96875 40.921875 40.578125 39.3125 
" id="DejaVuSans-33"/>
    </defs>
    <g transform="translate(369.543806 87.81556)scale(0.17 -0.17)">
     <use xlink:href="#DejaVuSans-33"/>
     <use x="63.623047" xlink:href="#DejaVuSans-2d"/>
     <use x="99.707031" xlink:href="#DejaVuSans-44"/>
    </g>
   </g>
   <g id="text_18">
    <!-- 2-D -->
    <g transform="translate(369.543806 19.371654)scale(0.17 -0.17)">
     <use xlink:href="#DejaVuSans-32"/>
     <use x="63.623047" xlink:href="#DejaVuSans-2d"/>
     <use x="99.707031" xlink:href="#DejaVuSans-44"/>
    </g>
   </g>
   <g id="text_19">
    <!-- bbob-biobj f22, f23, f29, f30 -->
    <defs>
     <path d="M 48.6875 27.296875 
Q 48.6875 37.203125 44.609375 42.84375 
Q 40.53125 48.484375 33.40625 48.484375 
Q 26.265625 48.484375 22.1875 42.84375 
Q 18.109375 37.203125 18.109375 27.296875 
Q 18.109375 17.390625 22.1875 11.75 
Q 26.265625 6.109375 33.40625 6.109375 
Q 40.53125 6.109375 44.609375 11.75 
Q 48.6875 17.390625 48.6875 27.296875 
M 18.109375 46.390625 
Q 20.953125 51.265625 25.265625 53.625 
Q 29.59375 56 35.59375 56 
Q 45.5625 56 51.78125 48.09375 
Q 58.015625 40.1875 58.015625 27.296875 
Q 58.015625 14.40625 51.78125 6.484375 
Q 45.5625 -1.421875 35.59375 -1.421875 
Q 29.59375 -1.421875 25.265625 0.953125 
Q 20.953125 3.328125 18.109375 8.203125 
L 18.109375 0 
L 9.078125 0 
L 9.078125 75.984375 
L 18.109375 75.984375 
z
" id="DejaVuSans-62"/>
     <path d="M 9.421875 54.6875 
L 18.40625 54.6875 
L 18.40625 -0.984375 
Q 18.40625 -11.421875 14.421875 -16.109375 
Q 10.453125 -20.796875 1.609375 -20.796875 
L -1.8125 -20.796875 
L -1.8125 -13.1875 
L 0.59375 -13.1875 
Q 5.71875 -13.1875 7.5625 -10.8125 
Q 9.421875 -8.453125 9.421875 -0.984375 
z
M 9.421875 75.984375 
L 18.40625 75.984375 
L 18.40625 64.59375 
L 9.421875 64.59375 
z
" id="DejaVuSans-6a"/>
     <path d="M 10.984375 1.515625 
L 10.984375 10.5 
Q 14.703125 8.734375 18.5 7.8125 
Q 22.3125 6.890625 25.984375 6.890625 
Q 35.75 6.890625 40.890625 13.453125 
Q 46.046875 20.015625 46.78125 33.40625 
Q 43.953125 29.203125 39.59375 26.953125 
Q 35.25 24.703125 29.984375 24.703125 
Q 19.046875 24.703125 12.671875 31.3125 
Q 6.296875 37.9375 6.296875 49.421875 
Q 6.296875 60.640625 12.9375 67.421875 
Q 19.578125 74.21875 30.609375 74.21875 
Q 43.265625 74.21875 49.921875 64.515625 
Q 56.59375 54.828125 56.59375 36.375 
Q 56.59375 19.140625 48.40625 8.859375 
Q 40.234375 -1.421875 26.421875 -1.421875 
Q 22.703125 -1.421875 18.890625 -0.6875 
Q 15.09375 0.046875 10.984375 1.515625 
M 30.609375 32.421875 
Q 37.25 32.421875 41.125 36.953125 
Q 45.015625 41.5 45.015625 49.421875 
Q 45.015625 57.28125 41.125 61.84375 
Q 37.25 66.40625 30.609375 66.40625 
Q 23.96875 66.40625 20.09375 61.84375 
Q 16.21875 57.28125 16.21875 49.421875 
Q 16.21875 41.5 20.09375 36.953125 
Q 23.96875 32.421875 30.609375 32.421875 
" id="DejaVuSans-39"/>
    </defs>
    <g transform="translate(60.27144 16.755982)scale(0.102 -0.102)">
     <use xlink:href="#DejaVuSans-62"/>
     <use x="63.476562" xlink:href="#DejaVuSans-62"/>
     <use x="126.953125" xlink:href="#DejaVuSans-6f"/>
     <use x="188.134766" xlink:href="#DejaVuSans-62"/>
     <use x="251.611328" xlink:href="#DejaVuSans-2d"/>
     <use x="287.695312" xlink:href="#DejaVuSans-62"/>
     <use x="351.171875" xlink:href="#DejaVuSans-69"/>
     <use x="378.955078" xlink:href="#DejaVuSans-6f"/>
     <use x="440.136719" xlink:href="#DejaVuSans-62"/>
     <use x="503.613281" xlink:href="#DejaVuSans-6a"/>
     <use x="531.396484" xlink:href="#DejaVuSans-20"/>
     <use x="563.183594" xlink:href="#DejaVuSans-66"/>
     <use x="598.388672" xlink:href="#DejaVuSans-32"/>
     <use x="662.011719" xlink:href="#DejaVuSans-32"/>
     <use x="725.634766" xlink:href="#DejaVuSans-2c"/>
     <use x="757.421875" xlink:href="#DejaVuSans-20"/>
     <use x="789.208984" xlink:href="#DejaVuSans-66"/>
     <use x="824.414062" xlink:href="#DejaVuSans-32"/>
     <use x="888.037109" xlink:href="#DejaVuSans-33"/>
     <use x="951.660156" xlink:href="#DejaVuSans-2c"/>
     <use x="983.447266" xlink:href="#DejaVuSans-20"/>
     <use x="1015.234375" xlink:href="#DejaVuSans-66"/>
     <use x="1050.439453" xlink:href="#DejaVuSans-32"/>
     <use x="1114.0625" xlink:href="#DejaVuSans-39"/>
     <use x="1177.685547" xlink:href="#DejaVuSans-2c"/>
     <use x="1209.472656" xlink:href="#DejaVuSans-20"/>
     <use x="1241.259766" xlink:href="#DejaVuSans-66"/>
     <use x="1276.464844" xlink:href="#DejaVuSans-33"/>
     <use x="1340.087891" xlink:href="#DejaVuSans-30"/>
    </g>
    <!-- 58 targets: 1..-1.0e-4 -->
    <defs>
     <path d="M 11.71875 12.40625 
L 22.015625 12.40625 
L 22.015625 0 
L 11.71875 0 
z
M 11.71875 51.703125 
L 22.015625 51.703125 
L 22.015625 39.3125 
L 11.71875 39.3125 
z
" id="DejaVuSans-3a"/>
    </defs>
    <g transform="translate(60.27144 28.17775)scale(0.102 -0.102)">
     <use xlink:href="#DejaVuSans-35"/>
     <use x="63.623047" xlink:href="#DejaVuSans-38"/>
     <use x="127.246094" xlink:href="#DejaVuSans-20"/>
     <use x="159.033203" xlink:href="#DejaVuSans-74"/>
     <use x="198.242188" xlink:href="#DejaVuSans-61"/>
     <use x="259.521484" xlink:href="#DejaVuSans-72"/>
     <use x="300.619141" xlink:href="#DejaVuSans-67"/>
     <use x="364.095703" xlink:href="#DejaVuSans-65"/>
     <use x="425.619141" xlink:href="#DejaVuSans-74"/>
     <use x="464.828125" xlink:href="#DejaVuSans-73"/>
     <use x="516.927734" xlink:href="#DejaVuSans-3a"/>
     <use x="550.619141" xlink:href="#DejaVuSans-20"/>
     <use x="582.40625" xlink:href="#DejaVuSans-31"/>
     <use x="646.029297" xlink:href="#DejaVuSans-2e"/>
     <use x="677.816406" xlink:href="#DejaVuSans-2e"/>
     <use x="709.603516" xlink:href="#DejaVuSans-2d"/>
     <use x="745.6875" xlink:href="#DejaVuSans-31"/>
     <use x="809.310547" xlink:href="#DejaVuSans-2e"/>
     <use x="841.097656" xlink:href="#DejaVuSans-30"/>
     <use x="904.720703" xlink:href="#DejaVuSans-65"/>
     <use x="966.244141" xlink:href="#DejaVuSans-2d"/>
     <use x="1002.328125" xlink:href="#DejaVuSans-34"/>
    </g>
    <!-- 10 instances -->
    <g transform="translate(60.27144 39.599519)scale(0.102 -0.102)">
     <use xlink:href="#DejaVuSans-31"/>
     <use x="63.623047" xlink:href="#DejaVuSans-30"/>
     <use x="127.246094" xlink:href="#DejaVuSans-20"/>
     <use x="159.033203" xlink:href="#DejaVuSans-69"/>
     <use x="186.816406" xlink:href="#DejaVuSans-6e"/>
     <use x="250.195312" xlink:href="#DejaVuSans-73"/>
     <use x="302.294922" xlink:href="#DejaVuSans-74"/>
     <use x="341.503906" xlink:href="#DejaVuSans-61"/>
     <use x="402.783203" xlink:href="#DejaVuSans-6e"/>
     <use x="466.162109" xlink:href="#DejaVuSans-63"/>
     <use x="521.142578" xlink:href="#DejaVuSans-65"/>
     <use x="582.666016" xlink:href="#DejaVuSans-73"/>
    </g>
   </g>
   <g id="text_20">
    <!-- v2.2.1.10, hv-hash=ff0e71e8cd978373 -->
    <defs>
     <path d="M 54.890625 33.015625 
L 54.890625 0 
L 45.90625 0 
L 45.90625 32.71875 
Q 45.90625 40.484375 42.875 44.328125 
Q 39.84375 48.1875 33.796875 48.1875 
Q 26.515625 48.1875 22.3125 43.546875 
Q 18.109375 38.921875 18.109375 30.90625 
L 18.109375 0 
L 9.078125 0 
L 9.078125 75.984375 
L 18.109375 75.984375 
L 18.109375 46.1875 
Q 21.34375 51.125 25.703125 53.5625 
Q 30.078125 56 35.796875 56 
Q 45.21875 56 50.046875 50.171875 
Q 54.890625 44.34375 54.890625 33.015625 
" id="DejaVuSans-68"/>
     <path d="M 10.59375 45.40625 
L 73.1875 45.40625 
L 73.1875 37.203125 
L 10.59375 37.203125 
z
M 10.59375 25.484375 
L 73.1875 25.484375 
L 73.1875 17.1875 
L 10.59375 17.1875 
z
" id="DejaVuSans-3d"/>
     <path d="M 8.203125 72.90625 
L 55.078125 72.90625 
L 55.078125 68.703125 
L 28.609375 0 
L 18.3125 0 
L 43.21875 64.59375 
L 8.203125 64.59375 
z
" id="DejaVuSans-37"/>
    </defs>
    <g style="fill:#808080;" transform="translate(130.065125 289.199965)scale(0.1 -0.1)">
     <use xlink:href="#DejaVuSans-76"/>
     <use x="59.179688" xlink:href="#DejaVuSans-32"/>
     <use x="122.802734" xlink:href="#DejaVuSans-2e"/>
     <use x="154.589844" xlink:href="#DejaVuSans-32"/>
     <use x="218.212891" xlink:href="#DejaVuSans-2e"/>
     <use x="250" xlink:href="#DejaVuSans-31"/>
     <use x="313.623047" xlink:href="#DejaVuSans-2e"/>
     <use x="345.410156" xlink:href="#DejaVuSans-31"/>
     <use x="409.033203" xlink:href="#DejaVuSans-30"/>
     <use x="472.65625" xlink:href="#DejaVuSans-2c"/>
     <use x="504.443359" xlink:href="#DejaVuSans-20"/>
     <use x="536.230469" xlink:href="#DejaVuSans-68"/>
     <use x="599.609375" xlink:href="#DejaVuSans-76"/>
     <use x="658.757812" xlink:href="#DejaVuSans-2d"/>
     <use x="694.841797" xlink:href="#DejaVuSans-68"/>
     <use x="758.220703" xlink:href="#DejaVuSans-61"/>
     <use x="819.5" xlink:href="#DejaVuSans-73"/>
     <use x="871.599609" xlink:href="#DejaVuSans-68"/>
     <use x="934.978516" xlink:href="#DejaVuSans-3d"/>
     <use x="1018.767578" xlink:href="#DejaVuSans-66"/>
     <use x="1053.972656" xlink:href="#DejaVuSans-66"/>
     <use x="1089.177734" xlink:href="#DejaVuSans-30"/>
     <use x="1152.800781" xlink:href="#DejaVuSans-65"/>
     <use x="1214.324219" xlink:href="#DejaVuSans-37"/>
     <use x="1277.947266" xlink:href="#DejaVuSans-31"/>
     <use x="1341.570312" xlink:href="#DejaVuSans-65"/>
     <use x="1403.09375" xlink:href="#DejaVuSans-38"/>
     <use x="1466.716797" xlink:href="#DejaVuSans-63"/>
     <use x="1521.697266" xlink:href="#DejaVuSans-64"/>
     <use x="1585.173828" xlink:href="#DejaVuSans-39"/>
     <use x="1648.796875" xlink:href="#DejaVuSans-37"/>
     <use x="1712.419922" xlink:href="#DejaVuSans-38"/>
     <use x="1776.042969" xlink:href="#DejaVuSans-33"/>
     <use x="1839.666016" xlink:href="#DejaVuSans-37"/>
     <use x="1903.289062" xlink:href="#DejaVuSans-33"/>
    </g>
   </g>
  </g>
 </g>
 <defs>
  <clipPath id="pa173b8b0e9">
   <rect height="288.034772" width="343.144" x="56.84" y="6.125228"/>
  </clipPath>
 </defs>
</svg>
