%
% index = 558, name = bbob_f013_i09_d02__bbob_f017_i10_d02
% instance = 4, reference value = 6.293042312374160e-01
% function evaluation | indicator value | target hit
1	1.359359087714416e+00	1.380384264602885e+00
178	8.266771210641993e-01	8.317637711026710e-01
290	5.296392677872208e-01	5.370317963702527e-01
375	5.121664470010028e-01	5.128613839913648e-01
390	3.492118506176358e-01	3.548133892335755e-01
414	3.231810810829509e-01	3.235936569296283e-01
494	3.132877985021741e-01	3.162277660168379e-01
526	2.805793799302835e-01	2.818382931264454e-01
582	2.448734654471910e-01	2.454708915685030e-01
738	2.284069541606779e-01	2.290867652767773e-01
811	1.726478211059573e-01	1.737800828749375e-01
2250	1.511614702197046e-01	1.513561248436208e-01
2469	1.417590905158411e-01	1.445439770745928e-01
3070	1.340385689396999e-01	1.348962882591654e-01
3103	1.340385689396999e-01	1.348962882591654e-01
%
% index = 562, name = bbob_f013_i17_d02__bbob_f017_i18_d02
% instance = 8, reference value = 9.359557546498670e-01
% function evaluation | indicator value | target hit
1	6.772481583077454e-01	6.918309709189365e-01
328	4.011754183587470e-01	4.073802778041127e-01
827	3.897982622190763e-01	3.981071705534972e-01
866	3.732951223313559e-01	3.801893963205612e-01
879	3.195605008986216e-01	3.235936569296283e-01
887	3.152343249496472e-01	3.162277660168379e-01
898	2.584826732826832e-01	2.630267991895382e-01
915	2.520209480395921e-01	2.570395782768864e-01
931	2.405759143819791e-01	2.454708915685030e-01
983	2.361419408196798e-01	2.398832919019490e-01
1003	1.957265569158705e-01	1.995262314968880e-01
1010	1.933761307273728e-01	1.949844599758045e-01
1011	1.877770871149987e-01	1.905460717963247e-01
1015	1.724469857596013e-01	1.737800828749375e-01
1139	1.638857414629576e-01	1.659586907437560e-01
1142	1.220267708460914e-01	1.230268770812381e-01
1166	1.115185627514668e-01	1.122018454301964e-01
1198	1.044166762903930e-01	1.047128548050900e-01
1491	9.418777637057085e-02	9.549925860214359e-02
2127	8.560557351535891e-02	8.709635899560805e-02
2503	8.498704637324206e-02	8.511380382023763e-02
2683	8.307446923603468e-02	8.317637711026708e-02
3119	8.272600242623585e-02	8.317637711026708e-02
%
% index = 566, name = bbob_f013_i25_d02__bbob_f017_i26_d02
% instance = 12, reference value = 1.000000000000000e+00
% function evaluation | indicator value | target hit
1	7.936371437738645e-01	7.943282347242815e-01
1516	7.303652799804998e-01	7.413102413009175e-01
3103	7.303652799804998e-01	7.413102413009175e-01
