%
% index = 1907, name = bbob_f002_i07_d05__bbob_f020_i08_d05
% instance = 3, reference value = 9.465839345819780e-01
% function evaluation | indicator value | target hit
1	3.280108895832399e-01	3.311311214825911e-01
1626	2.961932802183896e-01	3.019951720402016e-01
2131	2.552421307675153e-01	2.570395782768864e-01
2298	2.494082577815623e-01	2.511886431509580e-01
2382	2.438060643310074e-01	2.454708915685030e-01
2566	2.380081457099985e-01	2.398832919019490e-01
2571	2.338208567183153e-01	2.344228815319922e-01
2630	2.281062675073361e-01	2.290867652767773e-01
2975	2.233645262558247e-01	2.238721138568339e-01
3115	2.233645262558247e-01	2.238721138568339e-01
%
% index = 1911, name = bbob_f002_i15_d05__bbob_f020_i16_d05
% instance = 7, reference value = 9.735050223625690e-01
% function evaluation | indicator value | target hit
1	2.403599511923553e-01	2.454708915685030e-01
2967	2.362926982737675e-01	2.398832919019490e-01
2978	2.096987383505643e-01	2.137962089502232e-01
3050	2.075358504396417e-01	2.089296130854039e-01
3075	2.075358504396417e-01	2.089296130854039e-01
%
% index = 1915, name = bbob_f002_i23_d05__bbob_f020_i24_d05
% instance = 11, reference value = 1.000000000000000e+00
% function evaluation | indicator value | target hit
1	3.155953670107429e-01	3.162277660168379e-01
878	2.645471454757152e-01	2.691534803926916e-01
1019	2.420895373504079e-01	2.454708915685030e-01
1122	2.282089397958216e-01	2.290867652767773e-01
1374	2.187496358273366e-01	2.187761623949552e-01
1383	1.977132424915000e-01	1.995262314968880e-01
1411	1.873460808960169e-01	1.905460717963247e-01
1442	1.859932850448849e-01	1.862087136662867e-01
1538	1.662896865698108e-01	1.698243652461744e-01
1543	1.652174215987544e-01	1.659586907437560e-01
1551	1.581835180841550e-01	1.584893192461113e-01
3087	1.570200433414840e-01	1.584893192461113e-01
%
% index = 1919, name = bbob_f002_i31_d05__bbob_f020_i34_d05
% instance = 15, reference value = 1.000000000000000e+00
% function evaluation | indicator value | target hit
1	4.248069304666672e+00	4.265795188015927e+00
3091	4.248069304666672e+00	4.265795188015927e+00
