%
% index = 2116, name = bbob_f008_i03_d05__bbob_f017_i05_d05
% instance = 2, reference value = 9.389264619799210e-01
% function evaluation | indicator value | target hit
1	2.734561746595892e+00	2.754228703338166e+00
3107	2.734561746595892e+00	2.754228703338166e+00
%
% index = 2120, name = bbob_f008_i13_d05__bbob_f017_i14_d05
% instance = 6, reference value = 9.501123905921059e-01
% function evaluation | indicator value | target hit
1	8.405140364619393e-01	8.511380382023764e-01
3143	8.405140364619393e-01	8.511380382023764e-01
%
% index = 2124, name = bbob_f008_i21_d05__bbob_f017_i22_d05
% instance = 10, reference value = 9.659460782284560e-01
% function evaluation | indicator value | target hit
1	8.735012613738964e-01	8.912509381337456e-01
3115	8.735012613738964e-01	8.912509381337456e-01
%
% index = 2128, name = bbob_f008_i29_d05__bbob_f017_i30_d05
% instance = 14, reference value = 1.000000000000000e+00
% function evaluation | indicator value | target hit
1	9.676102538807088e-01	9.772372209558107e-01
3139	9.676102538807088e-01	9.772372209558107e-01
