%
% index = 2688, name = bbob_f002_i09_d10__bbob_f014_i10_d10
% instance = 4, reference value = 9.946054659454250e-01
% function evaluation | indicator value | target hit
1	4.130775347840925e+00	4.168693834703354e+00
3079	4.130775347840925e+00	4.168693834703354e+00
%
% index = 2692, name = bbob_f002_i17_d10__bbob_f014_i18_d10
% instance = 8, reference value = 9.875309689879650e-01
% function evaluation | indicator value | target hit
1	9.416780567570753e-01	9.549925860214360e-01
3067	9.416780567570753e-01	9.549925860214360e-01
%
% index = 2696, name = bbob_f002_i25_d10__bbob_f014_i26_d10
% instance = 12, reference value = 1.000000000000000e+00
% function evaluation | indicator value | target hit
1	6.303606859711500e+00	6.309573444801933e+00
3115	6.303606859711500e+00	6.309573444801933e+00
