%
% index = 1593, name = bbob_f017_i09_d03__bbob_f021_i10_d03
% instance = 4, reference value = 9.638983168533370e-01
% function evaluation | indicator value | target hit
1	5.892326331724036e-01	6.025595860743578e-01
335	5.209146412998755e-01	5.248074602497725e-01
462	5.085118042592180e-01	5.128613839913648e-01
475	4.967128599241501e-01	5.011872336272722e-01
654	4.250651043971105e-01	4.265795188015927e-01
1622	4.163663965346955e-01	4.168693834703354e-01
2295	4.063654011293899e-01	4.073802778041127e-01
2302	3.734587838277195e-01	3.801893963205612e-01
3075	3.722439679597551e-01	3.801893963205612e-01
%
% index = 1597, name = bbob_f017_i17_d03__bbob_f021_i18_d03
% instance = 8, reference value = 9.365508937565550e-01
% function evaluation | indicator value | target hit
1	7.643263135022554e+00	7.762471166286917e+00
446	3.491121232037282e+00	3.548133892335755e+00
511	2.160880203699732e+00	2.187761623949553e+00
542	2.076026797721352e+00	2.089296130854040e+00
602	1.936427052147795e+00	1.949844599758045e+00
675	1.902189134205853e+00	1.905460717963247e+00
807	1.431148960589620e+00	1.445439770745927e+00
838	1.363973635300887e+00	1.380384264602885e+00
1058	1.311814065472286e+00	1.318256738556407e+00
1131	1.233927766162509e+00	1.258925411794167e+00
1138	1.200848995168881e+00	1.202264434617413e+00
3091	1.178867719158180e+00	1.202264434617413e+00
%
% index = 1601, name = bbob_f017_i25_d03__bbob_f021_i26_d03
% instance = 12, reference value = 1.000000000000000e+00
% function evaluation | indicator value | target hit
1	2.877749286284598e+00	2.884031503126606e+00
223	1.260095244703500e+00	1.288249551693134e+00
343	1.071917969927500e+00	1.096478196143185e+00
430	9.145902245784925e-01	9.332543007969910e-01
2574	9.114905971432592e-01	9.120108393559098e-01
3111	9.114905971432592e-01	9.120108393559098e-01
